<?xml version="1.0" encoding="utf-8"  standalone="no"?>
<svg 
 viewBox="0 0 1280 720"
 xmlns="http://www.w3.org/2000/svg"
 xmlns:xlink="http://www.w3.org/1999/xlink"
>

<title>Gnuplot</title>
<desc>Produced by GNUPLOT 5.0 patchlevel 6 </desc>

<g id="gnuplot_canvas">

<rect x="0" y="0" width="1280" height="720" fill="none"/>
<defs>

	<circle id='gpDot' r='0.5' stroke-width='0.5'/>
	<path id='gpPt0' stroke-width='0.222' stroke='currentColor' d='M-1,0 h2 M0,-1 v2'/>
	<path id='gpPt1' stroke-width='0.222' stroke='currentColor' d='M-1,-1 L1,1 M1,-1 L-1,1'/>
	<path id='gpPt2' stroke-width='0.222' stroke='currentColor' d='M-1,0 L1,0 M0,-1 L0,1 M-1,-1 L1,1 M-1,1 L1,-1'/>
	<rect id='gpPt3' stroke-width='0.222' stroke='currentColor' x='-1' y='-1' width='2' height='2'/>
	<rect id='gpPt4' stroke-width='0.222' stroke='currentColor' fill='currentColor' x='-1' y='-1' width='2' height='2'/>
	<circle id='gpPt5' stroke-width='0.222' stroke='currentColor' cx='0' cy='0' r='1'/>
	<use xlink:href='#gpPt5' id='gpPt6' fill='currentColor' stroke='none'/>
	<path id='gpPt7' stroke-width='0.222' stroke='currentColor' d='M0,-1.33 L-1.33,0.67 L1.33,0.67 z'/>
	<use xlink:href='#gpPt7' id='gpPt8' fill='currentColor' stroke='none'/>
	<use xlink:href='#gpPt7' id='gpPt9' stroke='currentColor' transform='rotate(180)'/>
	<use xlink:href='#gpPt9' id='gpPt10' fill='currentColor' stroke='none'/>
	<use xlink:href='#gpPt3' id='gpPt11' stroke='currentColor' transform='rotate(45)'/>
	<use xlink:href='#gpPt11' id='gpPt12' fill='currentColor' stroke='none'/>
	<path id='gpPt13' stroke-width='0.222' stroke='currentColor' d='M0,1.330 L1.265,0.411 L0.782,-1.067 L-0.782,-1.076 L-1.265,0.411 z'/>
	<use xlink:href='#gpPt13' id='gpPt14' fill='currentColor' stroke='none'/>
	<filter id='textbox' filterUnits='objectBoundingBox' x='0' y='0' height='1' width='1'>
	  <feFlood flood-color='white' flood-opacity='1' result='bgnd'/>
	  <feComposite in='SourceGraphic' in2='bgnd' operator='atop'/>
	</filter>
	<filter id='greybox' filterUnits='objectBoundingBox' x='0' y='0' height='1' width='1'>
	  <feFlood flood-color='lightgrey' flood-opacity='1' result='grey'/>
	  <feComposite in='SourceGraphic' in2='grey' operator='atop'/>
	</filter>
</defs>
<g fill="none" color="white" stroke="currentColor" stroke-width="1.00" stroke-linecap="butt" stroke-linejoin="miter">
</g>
<g fill="none" color="black" stroke="currentColor" stroke-width="1.00" stroke-linecap="butt" stroke-linejoin="miter">
	<path stroke='black'  d='M71.9,662.4 L80.9,662.4  '/>	<g transform="translate(63.6,666.3)" stroke="none" fill="black" font-family="Helvetica" font-size="12.00"  text-anchor="end">
		<text><tspan font-family="Helvetica" > 0</tspan></text>
	</g>
</g>
<g fill="none" color="black" stroke="currentColor" stroke-width="1.00" stroke-linecap="butt" stroke-linejoin="miter">
	<path stroke='black'  d='M71.9,594.8 L80.9,594.8  '/>	<g transform="translate(63.6,598.7)" stroke="none" fill="black" font-family="Helvetica" font-size="12.00"  text-anchor="end">
		<text><tspan font-family="Helvetica" > 50</tspan></text>
	</g>
</g>
<g fill="none" color="black" stroke="currentColor" stroke-width="1.00" stroke-linecap="butt" stroke-linejoin="miter">
	<path stroke='black'  d='M71.9,527.2 L80.9,527.2  '/>	<g transform="translate(63.6,531.1)" stroke="none" fill="black" font-family="Helvetica" font-size="12.00"  text-anchor="end">
		<text><tspan font-family="Helvetica" > 100</tspan></text>
	</g>
</g>
<g fill="none" color="black" stroke="currentColor" stroke-width="1.00" stroke-linecap="butt" stroke-linejoin="miter">
	<path stroke='black'  d='M71.9,459.6 L80.9,459.6  '/>	<g transform="translate(63.6,463.5)" stroke="none" fill="black" font-family="Helvetica" font-size="12.00"  text-anchor="end">
		<text><tspan font-family="Helvetica" > 150</tspan></text>
	</g>
</g>
<g fill="none" color="black" stroke="currentColor" stroke-width="1.00" stroke-linecap="butt" stroke-linejoin="miter">
	<path stroke='black'  d='M71.9,392.0 L80.9,392.0  '/>	<g transform="translate(63.6,395.9)" stroke="none" fill="black" font-family="Helvetica" font-size="12.00"  text-anchor="end">
		<text><tspan font-family="Helvetica" > 200</tspan></text>
	</g>
</g>
<g fill="none" color="black" stroke="currentColor" stroke-width="1.00" stroke-linecap="butt" stroke-linejoin="miter">
	<path stroke='black'  d='M71.9,324.5 L80.9,324.5  '/>	<g transform="translate(63.6,328.4)" stroke="none" fill="black" font-family="Helvetica" font-size="12.00"  text-anchor="end">
		<text><tspan font-family="Helvetica" > 250</tspan></text>
	</g>
</g>
<g fill="none" color="black" stroke="currentColor" stroke-width="1.00" stroke-linecap="butt" stroke-linejoin="miter">
	<path stroke='black'  d='M71.9,256.9 L80.9,256.9  '/>	<g transform="translate(63.6,260.8)" stroke="none" fill="black" font-family="Helvetica" font-size="12.00"  text-anchor="end">
		<text><tspan font-family="Helvetica" > 300</tspan></text>
	</g>
</g>
<g fill="none" color="black" stroke="currentColor" stroke-width="1.00" stroke-linecap="butt" stroke-linejoin="miter">
	<path stroke='black'  d='M71.9,189.3 L80.9,189.3  '/>	<g transform="translate(63.6,193.2)" stroke="none" fill="black" font-family="Helvetica" font-size="12.00"  text-anchor="end">
		<text><tspan font-family="Helvetica" > 350</tspan></text>
	</g>
</g>
<g fill="none" color="black" stroke="currentColor" stroke-width="1.00" stroke-linecap="butt" stroke-linejoin="miter">
	<path stroke='black'  d='M71.9,121.7 L80.9,121.7  '/>	<g transform="translate(63.6,125.6)" stroke="none" fill="black" font-family="Helvetica" font-size="12.00"  text-anchor="end">
		<text><tspan font-family="Helvetica" > 400</tspan></text>
	</g>
</g>
<g fill="none" color="black" stroke="currentColor" stroke-width="1.00" stroke-linecap="butt" stroke-linejoin="miter">
	<path stroke='black'  d='M71.9,54.1 L80.9,54.1  '/>	<g transform="translate(63.6,58.0)" stroke="none" fill="black" font-family="Helvetica" font-size="12.00"  text-anchor="end">
		<text><tspan font-family="Helvetica" > 450</tspan></text>
	</g>
</g>
<g fill="none" color="black" stroke="currentColor" stroke-width="1.00" stroke-linecap="butt" stroke-linejoin="miter">
	<path stroke='black'  d='M92.8,662.4 L92.8,653.4  '/>	<g transform="translate(92.8,684.3)" stroke="none" fill="black" font-family="Helvetica" font-size="12.00"  text-anchor="middle">
		<text><tspan font-family="Helvetica" >-2</tspan></text>
	</g>
</g>
<g fill="none" color="black" stroke="currentColor" stroke-width="1.00" stroke-linecap="butt" stroke-linejoin="miter">
	<path stroke='black'  d='M259.7,662.4 L259.7,653.4  '/>	<g transform="translate(259.7,684.3)" stroke="none" fill="black" font-family="Helvetica" font-size="12.00"  text-anchor="middle">
		<text><tspan font-family="Helvetica" >-1.9</tspan></text>
	</g>
</g>
<g fill="none" color="black" stroke="currentColor" stroke-width="1.00" stroke-linecap="butt" stroke-linejoin="miter">
	<path stroke='black'  d='M426.6,662.4 L426.6,653.4  '/>	<g transform="translate(426.6,684.3)" stroke="none" fill="black" font-family="Helvetica" font-size="12.00"  text-anchor="middle">
		<text><tspan font-family="Helvetica" >-1.8</tspan></text>
	</g>
</g>
<g fill="none" color="black" stroke="currentColor" stroke-width="1.00" stroke-linecap="butt" stroke-linejoin="miter">
	<path stroke='black'  d='M593.4,662.4 L593.4,653.4  '/>	<g transform="translate(593.4,684.3)" stroke="none" fill="black" font-family="Helvetica" font-size="12.00"  text-anchor="middle">
		<text><tspan font-family="Helvetica" >-1.7</tspan></text>
	</g>
</g>
<g fill="none" color="black" stroke="currentColor" stroke-width="1.00" stroke-linecap="butt" stroke-linejoin="miter">
	<path stroke='black'  d='M760.3,662.4 L760.3,653.4  '/>	<g transform="translate(760.3,684.3)" stroke="none" fill="black" font-family="Helvetica" font-size="12.00"  text-anchor="middle">
		<text><tspan font-family="Helvetica" >-1.6</tspan></text>
	</g>
</g>
<g fill="none" color="black" stroke="currentColor" stroke-width="1.00" stroke-linecap="butt" stroke-linejoin="miter">
	<path stroke='black'  d='M927.2,662.4 L927.2,653.4  '/>	<g transform="translate(927.2,684.3)" stroke="none" fill="black" font-family="Helvetica" font-size="12.00"  text-anchor="middle">
		<text><tspan font-family="Helvetica" >-1.5</tspan></text>
	</g>
</g>
<g fill="none" color="black" stroke="currentColor" stroke-width="1.00" stroke-linecap="butt" stroke-linejoin="miter">
</g>
<g fill="none" color="black" stroke="currentColor" stroke-width="1.00" stroke-linecap="butt" stroke-linejoin="miter">
	<path stroke='black'  d='M71.9,54.1 L71.9,662.4 L1013.6,662.4 L1013.6,54.1 L71.9,54.1 Z  '/></g>
<g fill="none" color="black" stroke="currentColor" stroke-width="1.00" stroke-linecap="butt" stroke-linejoin="miter">
	<g transform="translate(17.0,358.3) rotate(270)" stroke="none" fill="black" font-family="Helvetica" font-size="12.00"  text-anchor="middle">
		<text><tspan font-family="Helvetica" >Density (a.u.)</tspan></text>
	</g>
</g>
<g fill="none" color="black" stroke="currentColor" stroke-width="1.00" stroke-linecap="butt" stroke-linejoin="miter">
	<g transform="translate(542.7,711.3)" stroke="none" fill="black" font-family="Helvetica" font-size="12.00"  text-anchor="middle">
		<text><tspan font-family="Helvetica" >Relative change (%)</tspan></text>
	</g>
</g>
<g fill="none" color="black" stroke="currentColor" stroke-width="1.00" stroke-linecap="butt" stroke-linejoin="miter">
	<g transform="translate(542.7,31.0)" stroke="none" fill="black" font-family="Helvetica" font-size="12.00"  text-anchor="middle">
		<text><tspan font-family="Helvetica" >language: json/parse error: go/examples/no_newline_at_eof.go: median</tspan></text>
	</g>
</g>
	<g id="gnuplot_plot_1" ><title>Bootstrap distribution</title>
<g fill="none" color="white" stroke="black" stroke-width="2.00" stroke-linecap="butt" stroke-linejoin="miter">
</g>
<g fill="none" color="black" stroke="currentColor" stroke-width="2.00" stroke-linecap="butt" stroke-linejoin="miter">
	<g transform="translate(1089.0,67.0)" stroke="none" fill="black" font-family="Helvetica" font-size="12.00"  text-anchor="start">
		<text><tspan font-family="Helvetica" >Bootstrap distribution</tspan></text>
	</g>
</g>
<g fill="none" color="black" stroke="currentColor" stroke-width="2.00" stroke-linecap="butt" stroke-linejoin="miter">
	<path stroke='rgb( 31, 120, 180)'  d='M1038.5,63.1 L1080.7,63.1 M71.9,649.0 L73.8,648.7 L75.7,648.4 L77.6,648.0 L79.4,647.6 L81.3,647.2
		L83.2,646.7 L85.1,646.3 L87.0,645.7 L88.9,645.2 L90.8,644.6 L92.7,643.9 L94.5,643.3 L96.4,642.6
		L98.3,641.9 L100.2,641.2 L102.1,640.5 L104.0,639.8 L105.9,639.0 L107.8,638.3 L109.6,637.5 L111.5,636.7
		L113.4,636.0 L115.3,635.2 L117.2,634.4 L119.1,633.6 L121.0,632.7 L122.9,631.9 L124.7,631.0 L126.6,630.1
		L128.5,629.2 L130.4,628.2 L132.3,627.3 L134.2,626.3 L136.1,625.2 L138.0,624.1 L139.8,623.0 L141.7,621.9
		L143.6,620.7 L145.5,619.5 L147.4,618.3 L149.3,617.1 L151.2,615.9 L153.0,614.6 L154.9,613.4 L156.8,612.2
		L158.7,611.0 L160.6,609.9 L162.5,608.7 L164.4,607.7 L166.3,606.6 L168.1,605.6 L170.0,604.7 L171.9,603.7
		L173.8,602.9 L175.7,602.1 L177.6,601.3 L179.5,600.5 L181.4,599.7 L183.2,599.0 L185.1,598.3 L187.0,597.6
		L188.9,596.8 L190.8,596.1 L192.7,595.3 L194.6,594.5 L196.5,593.6 L198.3,592.7 L200.2,591.8 L202.1,590.8
		L204.0,589.8 L205.9,588.8 L207.8,587.7 L209.7,586.6 L211.6,585.4 L213.4,584.3 L215.3,583.1 L217.2,581.9
		L219.1,580.6 L221.0,579.4 L222.9,578.1 L224.8,576.9 L226.6,575.6 L228.5,574.3 L230.4,572.9 L232.3,571.6
		L234.2,570.2 L236.1,568.8 L238.0,567.3 L239.9,565.8 L241.7,564.2 L243.6,562.6 L245.5,560.9 L247.4,559.2
		L249.3,557.4 L251.2,555.5 L253.1,553.5 L255.0,551.5 L256.8,549.4 L258.7,547.3 L260.6,545.1 L262.5,542.9
		L264.4,540.6 L266.3,538.3 L268.2,535.9 L270.1,533.5 L271.9,531.1 L273.8,528.6 L275.7,526.1 L277.6,523.5
		L279.5,520.9 L281.4,518.2 L283.3,515.4 L285.2,512.6 L287.0,509.6 L288.9,506.5 L290.8,503.4 L292.7,500.1
		L294.6,496.7 L296.5,493.1 L298.4,489.4 L300.2,485.6 L302.1,481.6 L304.0,477.5 L305.9,473.2 L307.8,468.9
		L309.7,464.4 L311.6,459.8 L313.5,455.1 L315.3,450.3 L317.2,445.4 L319.1,440.5 L321.0,435.5 L322.9,430.6
		L324.8,425.6 L326.7,420.5 L328.6,415.5 L330.4,410.5 L332.3,405.6 L334.2,400.6 L336.1,395.7 L338.0,390.9
		L339.9,386.1 L341.8,381.3 L343.7,376.6 L345.5,371.9 L347.4,367.3 L349.3,362.8 L351.2,358.3 L353.1,353.8
		L355.0,349.5 L356.9,345.1 L358.8,340.9 L360.6,336.6 L362.5,332.5 L364.4,328.4 L366.3,324.4 L368.2,320.5
		L370.1,316.7 L372.0,312.9 L373.8,309.3 L375.7,305.8 L377.6,302.4 L379.5,299.1 L381.4,296.0 L383.3,293.0
		L385.2,290.1 L387.1,287.4 L388.9,284.8 L390.8,282.4 L392.7,280.1 L394.6,277.9 L396.5,275.9 L398.4,274.1
		L400.3,272.4 L402.2,270.9 L404.0,269.5 L405.9,268.3 L407.8,267.3 L409.7,266.4 L411.6,265.7 L413.5,265.3
		L415.4,265.0 L417.3,264.9 L419.1,265.0 L421.0,265.4 L422.9,265.9 L424.8,266.6 L426.7,267.6 L428.6,268.7
		L430.5,270.0 L432.4,271.5 L434.2,273.2 L436.1,275.0 L438.0,277.0 L439.9,279.1 L441.8,281.3 L443.7,283.6
		L445.6,286.0 L447.4,288.4 L449.3,290.9 L451.2,293.4 L453.1,295.9 L455.0,298.4 L456.9,300.8 L458.8,303.2
		L460.7,305.4 L462.5,307.6 L464.4,309.5 L466.3,311.3 L468.2,312.9 L470.1,314.3 L472.0,315.4 L473.9,316.2
		L475.8,316.8 L477.6,317.0 L479.5,317.0 L481.4,316.6 L483.3,316.0 L485.2,315.0 L487.1,313.7 L489.0,312.2
		L490.9,310.4 L492.7,308.4 L494.6,306.2 L496.5,303.8 L498.4,301.2 L500.3,298.6 L502.2,295.9 L504.1,293.1
		L506.0,290.4 L507.8,287.7 L509.7,285.1 L511.6,282.6 L513.5,280.3 L515.4,278.1 L517.3,276.2 L519.2,274.5
		L521.0,273.1 L522.9,271.9 L524.8,271.1 L526.7,270.5 L528.6,270.3 L530.5,270.5 L532.4,270.9 L534.3,271.7
		L536.1,272.8 L538.0,274.3 L539.9,276.1 L541.8,278.2 L543.7,280.6 L545.6,283.3 L547.5,286.2 L549.4,289.4
		L551.2,292.8 L553.1,296.4 L555.0,300.1 L556.9,303.9 L558.8,307.7 L560.7,311.6 L562.6,315.3 L564.5,319.0
		L566.3,322.4 L568.2,325.5 L570.1,328.3 L572.0,330.7 L573.9,332.6 L575.8,333.9 L577.7,334.6 L579.5,334.6
		L581.4,333.8 L583.3,332.3 L585.2,329.9 L587.1,326.7 L589.0,322.7 L590.9,317.9 L592.8,312.2 L594.6,305.8
		L596.5,298.7 L598.4,290.9 L600.3,282.5 L602.2,273.7 L604.1,264.5 L606.0,254.9 L607.9,245.2 L609.7,235.3
		L611.6,225.4 L613.5,215.5 L615.4,205.8 L617.3,196.3 L619.2,187.1 L621.1,178.2 L623.0,169.7 L624.8,161.6
		L626.7,154.0 L628.6,146.9 L630.5,140.3 L632.4,134.1 L634.3,128.5 L636.2,123.5 L638.1,119.0 L639.9,115.0
		L641.8,111.7 L643.7,108.9 L645.6,106.8 L647.5,105.2 L649.4,104.3 L651.3,104.1 L653.1,104.6 L655.0,105.8
		L656.9,107.7 L658.8,110.3 L660.7,113.8 L662.6,117.9 L664.5,122.8 L666.4,128.4 L668.2,134.7 L670.1,141.6
		L672.0,149.2 L673.9,157.3 L675.8,166.0 L677.7,175.0 L679.6,184.4 L681.5,194.0 L683.3,203.9 L685.2,213.8
		L687.1,223.7 L689.0,233.6 L690.9,243.3 L692.8,252.8 L694.7,262.0 L696.6,270.9 L698.4,279.4 L700.3,287.4
		L702.2,295.0 L704.1,302.0 L706.0,308.6 L707.9,314.6 L709.8,320.0 L711.7,324.9 L713.5,329.3 L715.4,333.2
		L717.3,336.5 L719.2,339.4 L721.1,341.8 L723.0,343.7 L724.9,345.2 L726.7,346.2 L728.6,346.9 L730.5,347.3
		L732.4,347.3 L734.3,347.0 L736.2,346.5 L738.1,345.8 L740.0,344.9 L741.8,344.0 L743.7,342.9 L745.6,341.9
		L747.5,341.0 L749.4,340.2 L751.3,339.5 L753.2,339.2 L755.1,339.1 L756.9,339.4 L758.8,340.1 L760.7,341.3
		L762.6,343.0 L764.5,345.2 L766.4,347.9 L768.3,351.1 L770.2,354.8 L772.0,359.1 L773.9,363.8 L775.8,368.9
		L777.7,374.4 L779.6,380.3 L781.5,386.3 L783.4,392.6 L785.3,399.0 L787.1,405.5 L789.0,411.9 L790.9,418.3
		L792.8,424.5 L794.7,430.6 L796.6,436.4 L798.5,441.9 L800.3,447.1 L802.2,452.0 L804.1,456.5 L806.0,460.6
		L807.9,464.4 L809.8,467.8 L811.7,470.8 L813.6,473.5 L815.4,475.9 L817.3,478.0 L819.2,479.9 L821.1,481.5
		L823.0,483.0 L824.9,484.3 L826.8,485.6 L828.7,486.8 L830.5,488.1 L832.4,489.4 L834.3,490.8 L836.2,492.3
		L838.1,494.0 L840.0,495.9 L841.9,497.9 L843.8,500.2 L845.6,502.7 L847.5,505.4 L849.4,508.3 L851.3,511.4
		L853.2,514.6 L855.1,517.9 L857.0,521.4 L858.9,524.9 L860.7,528.4 L862.6,531.8 L864.5,535.2 L866.4,538.6
		L868.3,541.8 L870.2,544.8 L872.1,547.7 L873.9,550.3 L875.8,552.7 L877.7,555.0 L879.6,556.9 L881.5,558.7
		L883.4,560.2 L885.3,561.6 L887.2,562.7 L889.0,563.7 L890.9,564.5 L892.8,565.2 L894.7,565.8 L896.6,566.4
		L898.5,566.9 L900.4,567.4 L902.3,567.9 L904.1,568.5 L906.0,569.1 L907.9,569.8 L909.8,570.7 L911.7,571.7
		L913.6,572.8 L915.5,574.1 L917.4,575.5 L919.2,577.1 L921.1,578.8 L923.0,580.7 L924.9,582.7 L926.8,584.8
		L928.7,587.0 L930.6,589.3 L932.5,591.7 L934.3,594.1 L936.2,596.5 L938.1,598.9 L940.0,601.2 L941.9,603.5
		L943.8,605.8 L945.7,607.9 L947.5,610.0 L949.4,611.9 L951.3,613.6 L953.2,615.3 L955.1,616.8 L957.0,618.1
		L958.9,619.3 L960.8,620.3 L962.6,621.2 L964.5,621.9 L966.4,622.5 L968.3,623.0 L970.2,623.4 L972.1,623.7
		L974.0,623.9 L975.9,624.1 L977.7,624.2 L979.6,624.3 L981.5,624.3 L983.4,624.3 L985.3,624.4 L987.2,624.5
		L989.1,624.5 L991.0,624.7 L992.8,624.9 L994.7,625.1 L996.6,625.4 L998.5,625.8 L1000.4,626.2 L1002.3,626.7
		L1004.2,627.3 L1006.1,627.9 L1007.9,628.6 L1009.8,629.3 L1011.7,630.1 L1013.6,630.9  '/></g>
	</g>
	<g id="gnuplot_plot_2" ><title>Confidence interval</title>
<g fill="none" color="white" stroke="rgb( 31, 120, 180)" stroke-width="1.00" stroke-linecap="butt" stroke-linejoin="miter">
</g>
<g fill="none" color="black" stroke="currentColor" stroke-width="1.00" stroke-linecap="butt" stroke-linejoin="miter">
	<g transform="translate(1089.0,85.0)" stroke="none" fill="black" font-family="Helvetica" font-size="12.00"  text-anchor="start">
		<text><tspan font-family="Helvetica" >Confidence interval</tspan></text>
	</g>
</g>
<g fill="none" color="black" stroke="currentColor" stroke-width="1.00" stroke-linecap="butt" stroke-linejoin="miter">
	<g stroke='none' shape-rendering='crispEdges'>
		<polygon fill = 'rgb( 31, 120, 180)' fill-opacity = '0.250000' points = '1038.5,85.6 1080.7,85.6 1080.7,76.6 1038.5,76.6 '/>
		<polygon fill = 'rgb( 31, 120, 180)' fill-opacity = '0.250000' points = '158.7,611.0 158.7,662.4 160.6,662.4 160.6,609.9 '/>
		<polygon fill = 'rgb( 31, 120, 180)' fill-opacity = '0.250000' points = '160.6,609.9 160.6,662.4 162.5,662.4 162.5,608.7 '/>
		<polygon fill = 'rgb( 31, 120, 180)' fill-opacity = '0.250000' points = '162.5,608.7 162.5,662.4 164.4,662.4 164.4,607.7 '/>
		<polygon fill = 'rgb( 31, 120, 180)' fill-opacity = '0.250000' points = '164.4,607.7 164.4,662.4 166.3,662.4 166.3,606.6 '/>
		<polygon fill = 'rgb( 31, 120, 180)' fill-opacity = '0.250000' points = '166.3,606.6 166.3,662.4 168.1,662.4 168.1,605.6 '/>
		<polygon fill = 'rgb( 31, 120, 180)' fill-opacity = '0.250000' points = '168.1,605.6 168.1,662.4 170.0,662.4 170.0,604.7 '/>
		<polygon fill = 'rgb( 31, 120, 180)' fill-opacity = '0.250000' points = '170.0,604.7 170.0,662.4 171.9,662.4 171.9,603.7 '/>
		<polygon fill = 'rgb( 31, 120, 180)' fill-opacity = '0.250000' points = '171.9,603.7 171.9,662.4 173.8,662.4 173.8,602.9 '/>
		<polygon fill = 'rgb( 31, 120, 180)' fill-opacity = '0.250000' points = '173.8,602.9 173.8,662.4 175.7,662.4 175.7,602.1 '/>
		<polygon fill = 'rgb( 31, 120, 180)' fill-opacity = '0.250000' points = '175.7,602.1 175.7,662.4 177.6,662.4 177.6,601.3 '/>
		<polygon fill = 'rgb( 31, 120, 180)' fill-opacity = '0.250000' points = '177.6,601.3 177.6,662.4 179.5,662.4 179.5,600.5 '/>
		<polygon fill = 'rgb( 31, 120, 180)' fill-opacity = '0.250000' points = '179.5,600.5 179.5,662.4 181.4,662.4 181.4,599.7 '/>
		<polygon fill = 'rgb( 31, 120, 180)' fill-opacity = '0.250000' points = '181.4,599.7 181.4,662.4 183.2,662.4 183.2,599.0 '/>
		<polygon fill = 'rgb( 31, 120, 180)' fill-opacity = '0.250000' points = '183.2,599.0 183.2,662.4 185.1,662.4 185.1,598.3 '/>
		<polygon fill = 'rgb( 31, 120, 180)' fill-opacity = '0.250000' points = '185.1,598.3 185.1,662.4 187.0,662.4 187.0,597.6 '/>
		<polygon fill = 'rgb( 31, 120, 180)' fill-opacity = '0.250000' points = '187.0,597.6 187.0,662.4 188.9,662.4 188.9,596.8 '/>
		<polygon fill = 'rgb( 31, 120, 180)' fill-opacity = '0.250000' points = '188.9,596.8 188.9,662.4 190.8,662.4 190.8,596.1 '/>
		<polygon fill = 'rgb( 31, 120, 180)' fill-opacity = '0.250000' points = '190.8,596.1 190.8,662.4 192.7,662.4 192.7,595.3 '/>
		<polygon fill = 'rgb( 31, 120, 180)' fill-opacity = '0.250000' points = '192.7,595.3 192.7,662.4 194.6,662.4 194.6,594.5 '/>
		<polygon fill = 'rgb( 31, 120, 180)' fill-opacity = '0.250000' points = '194.6,594.5 194.6,662.4 196.5,662.4 196.5,593.6 '/>
		<polygon fill = 'rgb( 31, 120, 180)' fill-opacity = '0.250000' points = '196.5,593.6 196.5,662.4 198.3,662.4 198.3,592.7 '/>
		<polygon fill = 'rgb( 31, 120, 180)' fill-opacity = '0.250000' points = '198.3,592.7 198.3,662.4 200.2,662.4 200.2,591.8 '/>
		<polygon fill = 'rgb( 31, 120, 180)' fill-opacity = '0.250000' points = '200.2,591.8 200.2,662.4 202.1,662.4 202.1,590.8 '/>
		<polygon fill = 'rgb( 31, 120, 180)' fill-opacity = '0.250000' points = '202.1,590.8 202.1,662.4 204.0,662.4 204.0,589.8 '/>
		<polygon fill = 'rgb( 31, 120, 180)' fill-opacity = '0.250000' points = '204.0,589.8 204.0,662.4 205.9,662.4 205.9,588.8 '/>
		<polygon fill = 'rgb( 31, 120, 180)' fill-opacity = '0.250000' points = '205.9,588.8 205.9,662.4 207.8,662.4 207.8,587.7 '/>
		<polygon fill = 'rgb( 31, 120, 180)' fill-opacity = '0.250000' points = '207.8,587.7 207.8,662.4 209.7,662.4 209.7,586.6 '/>
		<polygon fill = 'rgb( 31, 120, 180)' fill-opacity = '0.250000' points = '209.7,586.6 209.7,662.4 211.6,662.4 211.6,585.4 '/>
		<polygon fill = 'rgb( 31, 120, 180)' fill-opacity = '0.250000' points = '211.6,585.4 211.6,662.4 213.4,662.4 213.4,584.3 '/>
		<polygon fill = 'rgb( 31, 120, 180)' fill-opacity = '0.250000' points = '213.4,584.3 213.4,662.4 215.3,662.4 215.3,583.1 '/>
		<polygon fill = 'rgb( 31, 120, 180)' fill-opacity = '0.250000' points = '215.3,583.1 215.3,662.4 217.2,662.4 217.2,581.9 '/>
		<polygon fill = 'rgb( 31, 120, 180)' fill-opacity = '0.250000' points = '217.2,581.9 217.2,662.4 219.1,662.4 219.1,580.6 '/>
		<polygon fill = 'rgb( 31, 120, 180)' fill-opacity = '0.250000' points = '219.1,580.6 219.1,662.4 221.0,662.4 221.0,579.4 '/>
		<polygon fill = 'rgb( 31, 120, 180)' fill-opacity = '0.250000' points = '221.0,579.4 221.0,662.4 222.9,662.4 222.9,578.1 '/>
		<polygon fill = 'rgb( 31, 120, 180)' fill-opacity = '0.250000' points = '222.9,578.1 222.9,662.4 224.8,662.4 224.8,576.9 '/>
		<polygon fill = 'rgb( 31, 120, 180)' fill-opacity = '0.250000' points = '224.8,576.9 224.8,662.4 226.6,662.4 226.6,575.6 '/>
		<polygon fill = 'rgb( 31, 120, 180)' fill-opacity = '0.250000' points = '226.6,575.6 226.6,662.4 228.5,662.4 228.5,574.3 '/>
		<polygon fill = 'rgb( 31, 120, 180)' fill-opacity = '0.250000' points = '228.5,574.3 228.5,662.4 230.4,662.4 230.4,572.9 '/>
		<polygon fill = 'rgb( 31, 120, 180)' fill-opacity = '0.250000' points = '230.4,572.9 230.4,662.4 232.3,662.4 232.3,571.6 '/>
		<polygon fill = 'rgb( 31, 120, 180)' fill-opacity = '0.250000' points = '232.3,571.6 232.3,662.4 234.2,662.4 234.2,570.2 '/>
		<polygon fill = 'rgb( 31, 120, 180)' fill-opacity = '0.250000' points = '234.2,570.2 234.2,662.4 236.1,662.4 236.1,568.8 '/>
		<polygon fill = 'rgb( 31, 120, 180)' fill-opacity = '0.250000' points = '236.1,568.8 236.1,662.4 238.0,662.4 238.0,567.3 '/>
		<polygon fill = 'rgb( 31, 120, 180)' fill-opacity = '0.250000' points = '238.0,567.3 238.0,662.4 239.9,662.4 239.9,565.8 '/>
		<polygon fill = 'rgb( 31, 120, 180)' fill-opacity = '0.250000' points = '239.9,565.8 239.9,662.4 241.7,662.4 241.7,564.2 '/>
		<polygon fill = 'rgb( 31, 120, 180)' fill-opacity = '0.250000' points = '241.7,564.2 241.7,662.4 243.6,662.4 243.6,562.6 '/>
		<polygon fill = 'rgb( 31, 120, 180)' fill-opacity = '0.250000' points = '243.6,562.6 243.6,662.4 245.5,662.4 245.5,560.9 '/>
		<polygon fill = 'rgb( 31, 120, 180)' fill-opacity = '0.250000' points = '245.5,560.9 245.5,662.4 247.4,662.4 247.4,559.2 '/>
		<polygon fill = 'rgb( 31, 120, 180)' fill-opacity = '0.250000' points = '247.4,559.2 247.4,662.4 249.3,662.4 249.3,557.4 '/>
		<polygon fill = 'rgb( 31, 120, 180)' fill-opacity = '0.250000' points = '249.3,557.4 249.3,662.4 251.2,662.4 251.2,555.5 '/>
		<polygon fill = 'rgb( 31, 120, 180)' fill-opacity = '0.250000' points = '251.2,555.5 251.2,662.4 253.1,662.4 253.1,553.5 '/>
		<polygon fill = 'rgb( 31, 120, 180)' fill-opacity = '0.250000' points = '253.1,553.5 253.1,662.4 255.0,662.4 255.0,551.5 '/>
		<polygon fill = 'rgb( 31, 120, 180)' fill-opacity = '0.250000' points = '255.0,551.5 255.0,662.4 256.8,662.4 256.8,549.4 '/>
		<polygon fill = 'rgb( 31, 120, 180)' fill-opacity = '0.250000' points = '256.8,549.4 256.8,662.4 258.7,662.4 258.7,547.3 '/>
		<polygon fill = 'rgb( 31, 120, 180)' fill-opacity = '0.250000' points = '258.7,547.3 258.7,662.4 260.6,662.4 260.6,545.1 '/>
		<polygon fill = 'rgb( 31, 120, 180)' fill-opacity = '0.250000' points = '260.6,545.1 260.6,662.4 262.5,662.4 262.5,542.9 '/>
		<polygon fill = 'rgb( 31, 120, 180)' fill-opacity = '0.250000' points = '262.5,542.9 262.5,662.4 264.4,662.4 264.4,540.6 '/>
		<polygon fill = 'rgb( 31, 120, 180)' fill-opacity = '0.250000' points = '264.4,540.6 264.4,662.4 266.3,662.4 266.3,538.3 '/>
		<polygon fill = 'rgb( 31, 120, 180)' fill-opacity = '0.250000' points = '266.3,538.3 266.3,662.4 268.2,662.4 268.2,535.9 '/>
		<polygon fill = 'rgb( 31, 120, 180)' fill-opacity = '0.250000' points = '268.2,535.9 268.2,662.4 270.1,662.4 270.1,533.5 '/>
		<polygon fill = 'rgb( 31, 120, 180)' fill-opacity = '0.250000' points = '270.1,533.5 270.1,662.4 271.9,662.4 271.9,531.1 '/>
		<polygon fill = 'rgb( 31, 120, 180)' fill-opacity = '0.250000' points = '271.9,531.1 271.9,662.4 273.8,662.4 273.8,528.6 '/>
		<polygon fill = 'rgb( 31, 120, 180)' fill-opacity = '0.250000' points = '273.8,528.6 273.8,662.4 275.7,662.4 275.7,526.1 '/>
		<polygon fill = 'rgb( 31, 120, 180)' fill-opacity = '0.250000' points = '275.7,526.1 275.7,662.4 277.6,662.4 277.6,523.5 '/>
		<polygon fill = 'rgb( 31, 120, 180)' fill-opacity = '0.250000' points = '277.6,523.5 277.6,662.4 279.5,662.4 279.5,520.9 '/>
		<polygon fill = 'rgb( 31, 120, 180)' fill-opacity = '0.250000' points = '279.5,520.9 279.5,662.4 281.4,662.4 281.4,518.2 '/>
		<polygon fill = 'rgb( 31, 120, 180)' fill-opacity = '0.250000' points = '281.4,518.2 281.4,662.4 283.3,662.4 283.3,515.4 '/>
		<polygon fill = 'rgb( 31, 120, 180)' fill-opacity = '0.250000' points = '283.3,515.4 283.3,662.4 285.2,662.4 285.2,512.6 '/>
		<polygon fill = 'rgb( 31, 120, 180)' fill-opacity = '0.250000' points = '285.2,512.6 285.2,662.4 287.0,662.4 287.0,509.6 '/>
		<polygon fill = 'rgb( 31, 120, 180)' fill-opacity = '0.250000' points = '287.0,509.6 287.0,662.4 288.9,662.4 288.9,506.5 '/>
		<polygon fill = 'rgb( 31, 120, 180)' fill-opacity = '0.250000' points = '288.9,506.5 288.9,662.4 290.8,662.4 290.8,503.4 '/>
		<polygon fill = 'rgb( 31, 120, 180)' fill-opacity = '0.250000' points = '290.8,503.4 290.8,662.4 292.7,662.4 292.7,500.1 '/>
		<polygon fill = 'rgb( 31, 120, 180)' fill-opacity = '0.250000' points = '292.7,500.1 292.7,662.4 294.6,662.4 294.6,496.7 '/>
		<polygon fill = 'rgb( 31, 120, 180)' fill-opacity = '0.250000' points = '294.6,496.7 294.6,662.4 296.5,662.4 296.5,493.1 '/>
		<polygon fill = 'rgb( 31, 120, 180)' fill-opacity = '0.250000' points = '296.5,493.1 296.5,662.4 298.4,662.4 298.4,489.4 '/>
		<polygon fill = 'rgb( 31, 120, 180)' fill-opacity = '0.250000' points = '298.4,489.4 298.4,662.4 300.2,662.4 300.2,485.6 '/>
		<polygon fill = 'rgb( 31, 120, 180)' fill-opacity = '0.250000' points = '300.2,485.6 300.2,662.4 302.1,662.4 302.1,481.6 '/>
		<polygon fill = 'rgb( 31, 120, 180)' fill-opacity = '0.250000' points = '302.1,481.6 302.1,662.4 304.0,662.4 304.0,477.5 '/>
		<polygon fill = 'rgb( 31, 120, 180)' fill-opacity = '0.250000' points = '304.0,477.5 304.0,662.4 305.9,662.4 305.9,473.2 '/>
		<polygon fill = 'rgb( 31, 120, 180)' fill-opacity = '0.250000' points = '305.9,473.2 305.9,662.4 307.8,662.4 307.8,468.9 '/>
		<polygon fill = 'rgb( 31, 120, 180)' fill-opacity = '0.250000' points = '307.8,468.9 307.8,662.4 309.7,662.4 309.7,464.4 '/>
		<polygon fill = 'rgb( 31, 120, 180)' fill-opacity = '0.250000' points = '309.7,464.4 309.7,662.4 311.6,662.4 311.6,459.8 '/>
		<polygon fill = 'rgb( 31, 120, 180)' fill-opacity = '0.250000' points = '311.6,459.8 311.6,662.4 313.5,662.4 313.5,455.1 '/>
		<polygon fill = 'rgb( 31, 120, 180)' fill-opacity = '0.250000' points = '313.5,455.1 313.5,662.4 315.3,662.4 315.3,450.3 '/>
		<polygon fill = 'rgb( 31, 120, 180)' fill-opacity = '0.250000' points = '315.3,450.3 315.3,662.4 317.2,662.4 317.2,445.4 '/>
		<polygon fill = 'rgb( 31, 120, 180)' fill-opacity = '0.250000' points = '317.2,445.4 317.2,662.4 319.1,662.4 319.1,440.5 '/>
		<polygon fill = 'rgb( 31, 120, 180)' fill-opacity = '0.250000' points = '319.1,440.5 319.1,662.4 321.0,662.4 321.0,435.5 '/>
		<polygon fill = 'rgb( 31, 120, 180)' fill-opacity = '0.250000' points = '321.0,435.5 321.0,662.4 322.9,662.4 322.9,430.6 '/>
		<polygon fill = 'rgb( 31, 120, 180)' fill-opacity = '0.250000' points = '322.9,430.6 322.9,662.4 324.8,662.4 324.8,425.6 '/>
		<polygon fill = 'rgb( 31, 120, 180)' fill-opacity = '0.250000' points = '324.8,425.6 324.8,662.4 326.7,662.4 326.7,420.5 '/>
		<polygon fill = 'rgb( 31, 120, 180)' fill-opacity = '0.250000' points = '326.7,420.5 326.7,662.4 328.6,662.4 328.6,415.5 '/>
		<polygon fill = 'rgb( 31, 120, 180)' fill-opacity = '0.250000' points = '328.6,415.5 328.6,662.4 330.4,662.4 330.4,410.5 '/>
		<polygon fill = 'rgb( 31, 120, 180)' fill-opacity = '0.250000' points = '330.4,410.5 330.4,662.4 332.3,662.4 332.3,405.6 '/>
		<polygon fill = 'rgb( 31, 120, 180)' fill-opacity = '0.250000' points = '332.3,405.6 332.3,662.4 334.2,662.4 334.2,400.6 '/>
		<polygon fill = 'rgb( 31, 120, 180)' fill-opacity = '0.250000' points = '334.2,400.6 334.2,662.4 336.1,662.4 336.1,395.7 '/>
		<polygon fill = 'rgb( 31, 120, 180)' fill-opacity = '0.250000' points = '336.1,395.7 336.1,662.4 338.0,662.4 338.0,390.9 '/>
		<polygon fill = 'rgb( 31, 120, 180)' fill-opacity = '0.250000' points = '338.0,390.9 338.0,662.4 339.9,662.4 339.9,386.1 '/>
		<polygon fill = 'rgb( 31, 120, 180)' fill-opacity = '0.250000' points = '339.9,386.1 339.9,662.4 341.8,662.4 341.8,381.3 '/>
		<polygon fill = 'rgb( 31, 120, 180)' fill-opacity = '0.250000' points = '341.8,381.3 341.8,662.4 343.7,662.4 343.7,376.6 '/>
		<polygon fill = 'rgb( 31, 120, 180)' fill-opacity = '0.250000' points = '343.7,376.6 343.7,662.4 345.5,662.4 345.5,371.9 '/>
		<polygon fill = 'rgb( 31, 120, 180)' fill-opacity = '0.250000' points = '345.5,371.9 345.5,662.4 347.4,662.4 347.4,367.3 '/>
		<polygon fill = 'rgb( 31, 120, 180)' fill-opacity = '0.250000' points = '347.4,367.3 347.4,662.4 349.3,662.4 349.3,362.8 '/>
		<polygon fill = 'rgb( 31, 120, 180)' fill-opacity = '0.250000' points = '349.3,362.8 349.3,662.4 351.2,662.4 351.2,358.3 '/>
		<polygon fill = 'rgb( 31, 120, 180)' fill-opacity = '0.250000' points = '351.2,358.3 351.2,662.4 353.1,662.4 353.1,353.8 '/>
		<polygon fill = 'rgb( 31, 120, 180)' fill-opacity = '0.250000' points = '353.1,353.8 353.1,662.4 355.0,662.4 355.0,349.5 '/>
		<polygon fill = 'rgb( 31, 120, 180)' fill-opacity = '0.250000' points = '355.0,349.5 355.0,662.4 356.9,662.4 356.9,345.1 '/>
		<polygon fill = 'rgb( 31, 120, 180)' fill-opacity = '0.250000' points = '356.9,345.1 356.9,662.4 358.8,662.4 358.8,340.9 '/>
		<polygon fill = 'rgb( 31, 120, 180)' fill-opacity = '0.250000' points = '358.8,340.9 358.8,662.4 360.6,662.4 360.6,336.6 '/>
		<polygon fill = 'rgb( 31, 120, 180)' fill-opacity = '0.250000' points = '360.6,336.6 360.6,662.4 362.5,662.4 362.5,332.5 '/>
		<polygon fill = 'rgb( 31, 120, 180)' fill-opacity = '0.250000' points = '362.5,332.5 362.5,662.4 364.4,662.4 364.4,328.4 '/>
		<polygon fill = 'rgb( 31, 120, 180)' fill-opacity = '0.250000' points = '364.4,328.4 364.4,662.4 366.3,662.4 366.3,324.4 '/>
		<polygon fill = 'rgb( 31, 120, 180)' fill-opacity = '0.250000' points = '366.3,324.4 366.3,662.4 368.2,662.4 368.2,320.5 '/>
		<polygon fill = 'rgb( 31, 120, 180)' fill-opacity = '0.250000' points = '368.2,320.5 368.2,662.4 370.1,662.4 370.1,316.7 '/>
		<polygon fill = 'rgb( 31, 120, 180)' fill-opacity = '0.250000' points = '370.1,316.7 370.1,662.4 372.0,662.4 372.0,312.9 '/>
		<polygon fill = 'rgb( 31, 120, 180)' fill-opacity = '0.250000' points = '372.0,312.9 372.0,662.4 373.8,662.4 373.8,309.3 '/>
		<polygon fill = 'rgb( 31, 120, 180)' fill-opacity = '0.250000' points = '373.8,309.3 373.8,662.4 375.7,662.4 375.7,305.8 '/>
		<polygon fill = 'rgb( 31, 120, 180)' fill-opacity = '0.250000' points = '375.7,305.8 375.7,662.4 377.6,662.4 377.6,302.4 '/>
		<polygon fill = 'rgb( 31, 120, 180)' fill-opacity = '0.250000' points = '377.6,302.4 377.6,662.4 379.5,662.4 379.5,299.1 '/>
		<polygon fill = 'rgb( 31, 120, 180)' fill-opacity = '0.250000' points = '379.5,299.1 379.5,662.4 381.4,662.4 381.4,296.0 '/>
		<polygon fill = 'rgb( 31, 120, 180)' fill-opacity = '0.250000' points = '381.4,296.0 381.4,662.4 383.3,662.4 383.3,293.0 '/>
		<polygon fill = 'rgb( 31, 120, 180)' fill-opacity = '0.250000' points = '383.3,293.0 383.3,662.4 385.2,662.4 385.2,290.1 '/>
		<polygon fill = 'rgb( 31, 120, 180)' fill-opacity = '0.250000' points = '385.2,290.1 385.2,662.4 387.1,662.4 387.1,287.4 '/>
		<polygon fill = 'rgb( 31, 120, 180)' fill-opacity = '0.250000' points = '387.1,287.4 387.1,662.4 388.9,662.4 388.9,284.8 '/>
		<polygon fill = 'rgb( 31, 120, 180)' fill-opacity = '0.250000' points = '388.9,284.8 388.9,662.4 390.8,662.4 390.8,282.4 '/>
		<polygon fill = 'rgb( 31, 120, 180)' fill-opacity = '0.250000' points = '390.8,282.4 390.8,662.4 392.7,662.4 392.7,280.1 '/>
		<polygon fill = 'rgb( 31, 120, 180)' fill-opacity = '0.250000' points = '392.7,280.1 392.7,662.4 394.6,662.4 394.6,277.9 '/>
		<polygon fill = 'rgb( 31, 120, 180)' fill-opacity = '0.250000' points = '394.6,277.9 394.6,662.4 396.5,662.4 396.5,275.9 '/>
		<polygon fill = 'rgb( 31, 120, 180)' fill-opacity = '0.250000' points = '396.5,275.9 396.5,662.4 398.4,662.4 398.4,274.1 '/>
		<polygon fill = 'rgb( 31, 120, 180)' fill-opacity = '0.250000' points = '398.4,274.1 398.4,662.4 400.3,662.4 400.3,272.4 '/>
		<polygon fill = 'rgb( 31, 120, 180)' fill-opacity = '0.250000' points = '400.3,272.4 400.3,662.4 402.2,662.4 402.2,270.9 '/>
		<polygon fill = 'rgb( 31, 120, 180)' fill-opacity = '0.250000' points = '402.2,270.9 402.2,662.4 404.0,662.4 404.0,269.5 '/>
		<polygon fill = 'rgb( 31, 120, 180)' fill-opacity = '0.250000' points = '404.0,269.5 404.0,662.4 405.9,662.4 405.9,268.3 '/>
		<polygon fill = 'rgb( 31, 120, 180)' fill-opacity = '0.250000' points = '405.9,268.3 405.9,662.4 407.8,662.4 407.8,267.3 '/>
		<polygon fill = 'rgb( 31, 120, 180)' fill-opacity = '0.250000' points = '407.8,267.3 407.8,662.4 409.7,662.4 409.7,266.4 '/>
		<polygon fill = 'rgb( 31, 120, 180)' fill-opacity = '0.250000' points = '409.7,266.4 409.7,662.4 411.6,662.4 411.6,265.7 '/>
		<polygon fill = 'rgb( 31, 120, 180)' fill-opacity = '0.250000' points = '411.6,265.7 411.6,662.4 413.5,662.4 413.5,265.3 '/>
		<polygon fill = 'rgb( 31, 120, 180)' fill-opacity = '0.250000' points = '413.5,265.3 413.5,662.4 415.4,662.4 415.4,265.0 '/>
		<polygon fill = 'rgb( 31, 120, 180)' fill-opacity = '0.250000' points = '415.4,265.0 415.4,662.4 417.3,662.4 417.3,264.9 '/>
		<polygon fill = 'rgb( 31, 120, 180)' fill-opacity = '0.250000' points = '417.3,264.9 417.3,662.4 419.1,662.4 419.1,265.0 '/>
		<polygon fill = 'rgb( 31, 120, 180)' fill-opacity = '0.250000' points = '419.1,265.0 419.1,662.4 421.0,662.4 421.0,265.4 '/>
		<polygon fill = 'rgb( 31, 120, 180)' fill-opacity = '0.250000' points = '421.0,265.4 421.0,662.4 422.9,662.4 422.9,265.9 '/>
		<polygon fill = 'rgb( 31, 120, 180)' fill-opacity = '0.250000' points = '422.9,265.9 422.9,662.4 424.8,662.4 424.8,266.6 '/>
		<polygon fill = 'rgb( 31, 120, 180)' fill-opacity = '0.250000' points = '424.8,266.6 424.8,662.4 426.7,662.4 426.7,267.6 '/>
		<polygon fill = 'rgb( 31, 120, 180)' fill-opacity = '0.250000' points = '426.7,267.6 426.7,662.4 428.6,662.4 428.6,268.7 '/>
		<polygon fill = 'rgb( 31, 120, 180)' fill-opacity = '0.250000' points = '428.6,268.7 428.6,662.4 430.5,662.4 430.5,270.0 '/>
		<polygon fill = 'rgb( 31, 120, 180)' fill-opacity = '0.250000' points = '430.5,270.0 430.5,662.4 432.4,662.4 432.4,271.5 '/>
		<polygon fill = 'rgb( 31, 120, 180)' fill-opacity = '0.250000' points = '432.4,271.5 432.4,662.4 434.2,662.4 434.2,273.2 '/>
		<polygon fill = 'rgb( 31, 120, 180)' fill-opacity = '0.250000' points = '434.2,273.2 434.2,662.4 436.1,662.4 436.1,275.0 '/>
		<polygon fill = 'rgb( 31, 120, 180)' fill-opacity = '0.250000' points = '436.1,275.0 436.1,662.4 438.0,662.4 438.0,277.0 '/>
		<polygon fill = 'rgb( 31, 120, 180)' fill-opacity = '0.250000' points = '438.0,277.0 438.0,662.4 439.9,662.4 439.9,279.1 '/>
		<polygon fill = 'rgb( 31, 120, 180)' fill-opacity = '0.250000' points = '439.9,279.1 439.9,662.4 441.8,662.4 441.8,281.3 '/>
		<polygon fill = 'rgb( 31, 120, 180)' fill-opacity = '0.250000' points = '441.8,281.3 441.8,662.4 443.7,662.4 443.7,283.6 '/>
		<polygon fill = 'rgb( 31, 120, 180)' fill-opacity = '0.250000' points = '443.7,283.6 443.7,662.4 445.6,662.4 445.6,286.0 '/>
		<polygon fill = 'rgb( 31, 120, 180)' fill-opacity = '0.250000' points = '445.6,286.0 445.6,662.4 447.4,662.4 447.4,288.4 '/>
		<polygon fill = 'rgb( 31, 120, 180)' fill-opacity = '0.250000' points = '447.4,288.4 447.4,662.4 449.3,662.4 449.3,290.9 '/>
		<polygon fill = 'rgb( 31, 120, 180)' fill-opacity = '0.250000' points = '449.3,290.9 449.3,662.4 451.2,662.4 451.2,293.4 '/>
		<polygon fill = 'rgb( 31, 120, 180)' fill-opacity = '0.250000' points = '451.2,293.4 451.2,662.4 453.1,662.4 453.1,295.9 '/>
		<polygon fill = 'rgb( 31, 120, 180)' fill-opacity = '0.250000' points = '453.1,295.9 453.1,662.4 455.0,662.4 455.0,298.4 '/>
		<polygon fill = 'rgb( 31, 120, 180)' fill-opacity = '0.250000' points = '455.0,298.4 455.0,662.4 456.9,662.4 456.9,300.8 '/>
		<polygon fill = 'rgb( 31, 120, 180)' fill-opacity = '0.250000' points = '456.9,300.8 456.9,662.4 458.8,662.4 458.8,303.2 '/>
		<polygon fill = 'rgb( 31, 120, 180)' fill-opacity = '0.250000' points = '458.8,303.2 458.8,662.4 460.7,662.4 460.7,305.4 '/>
		<polygon fill = 'rgb( 31, 120, 180)' fill-opacity = '0.250000' points = '460.7,305.4 460.7,662.4 462.5,662.4 462.5,307.6 '/>
		<polygon fill = 'rgb( 31, 120, 180)' fill-opacity = '0.250000' points = '462.5,307.6 462.5,662.4 464.4,662.4 464.4,309.5 '/>
		<polygon fill = 'rgb( 31, 120, 180)' fill-opacity = '0.250000' points = '464.4,309.5 464.4,662.4 466.3,662.4 466.3,311.3 '/>
		<polygon fill = 'rgb( 31, 120, 180)' fill-opacity = '0.250000' points = '466.3,311.3 466.3,662.4 468.2,662.4 468.2,312.9 '/>
		<polygon fill = 'rgb( 31, 120, 180)' fill-opacity = '0.250000' points = '468.2,312.9 468.2,662.4 470.1,662.4 470.1,314.3 '/>
		<polygon fill = 'rgb( 31, 120, 180)' fill-opacity = '0.250000' points = '470.1,314.3 470.1,662.4 472.0,662.4 472.0,315.4 '/>
		<polygon fill = 'rgb( 31, 120, 180)' fill-opacity = '0.250000' points = '472.0,315.4 472.0,662.4 473.9,662.4 473.9,316.2 '/>
		<polygon fill = 'rgb( 31, 120, 180)' fill-opacity = '0.250000' points = '473.9,316.2 473.9,662.4 475.8,662.4 475.8,316.8 '/>
		<polygon fill = 'rgb( 31, 120, 180)' fill-opacity = '0.250000' points = '475.8,316.8 475.8,662.4 477.6,662.4 477.6,317.0 '/>
		<polygon fill = 'rgb( 31, 120, 180)' fill-opacity = '0.250000' points = '477.6,317.0 477.6,662.4 479.5,662.4 479.5,317.0 '/>
		<polygon fill = 'rgb( 31, 120, 180)' fill-opacity = '0.250000' points = '479.5,317.0 479.5,662.4 481.4,662.4 481.4,316.6 '/>
		<polygon fill = 'rgb( 31, 120, 180)' fill-opacity = '0.250000' points = '481.4,316.6 481.4,662.4 483.3,662.4 483.3,316.0 '/>
		<polygon fill = 'rgb( 31, 120, 180)' fill-opacity = '0.250000' points = '483.3,316.0 483.3,662.4 485.2,662.4 485.2,315.0 '/>
		<polygon fill = 'rgb( 31, 120, 180)' fill-opacity = '0.250000' points = '485.2,315.0 485.2,662.4 487.1,662.4 487.1,313.7 '/>
		<polygon fill = 'rgb( 31, 120, 180)' fill-opacity = '0.250000' points = '487.1,313.7 487.1,662.4 489.0,662.4 489.0,312.2 '/>
		<polygon fill = 'rgb( 31, 120, 180)' fill-opacity = '0.250000' points = '489.0,312.2 489.0,662.4 490.9,662.4 490.9,310.4 '/>
		<polygon fill = 'rgb( 31, 120, 180)' fill-opacity = '0.250000' points = '490.9,310.4 490.9,662.4 492.7,662.4 492.7,308.4 '/>
		<polygon fill = 'rgb( 31, 120, 180)' fill-opacity = '0.250000' points = '492.7,308.4 492.7,662.4 494.6,662.4 494.6,306.2 '/>
		<polygon fill = 'rgb( 31, 120, 180)' fill-opacity = '0.250000' points = '494.6,306.2 494.6,662.4 496.5,662.4 496.5,303.8 '/>
		<polygon fill = 'rgb( 31, 120, 180)' fill-opacity = '0.250000' points = '496.5,303.8 496.5,662.4 498.4,662.4 498.4,301.2 '/>
		<polygon fill = 'rgb( 31, 120, 180)' fill-opacity = '0.250000' points = '498.4,301.2 498.4,662.4 500.3,662.4 500.3,298.6 '/>
		<polygon fill = 'rgb( 31, 120, 180)' fill-opacity = '0.250000' points = '500.3,298.6 500.3,662.4 502.2,662.4 502.2,295.9 '/>
		<polygon fill = 'rgb( 31, 120, 180)' fill-opacity = '0.250000' points = '502.2,295.9 502.2,662.4 504.1,662.4 504.1,293.1 '/>
		<polygon fill = 'rgb( 31, 120, 180)' fill-opacity = '0.250000' points = '504.1,293.1 504.1,662.4 506.0,662.4 506.0,290.4 '/>
		<polygon fill = 'rgb( 31, 120, 180)' fill-opacity = '0.250000' points = '506.0,290.4 506.0,662.4 507.8,662.4 507.8,287.7 '/>
		<polygon fill = 'rgb( 31, 120, 180)' fill-opacity = '0.250000' points = '507.8,287.7 507.8,662.4 509.7,662.4 509.7,285.1 '/>
		<polygon fill = 'rgb( 31, 120, 180)' fill-opacity = '0.250000' points = '509.7,285.1 509.7,662.4 511.6,662.4 511.6,282.6 '/>
		<polygon fill = 'rgb( 31, 120, 180)' fill-opacity = '0.250000' points = '511.6,282.6 511.6,662.4 513.5,662.4 513.5,280.3 '/>
		<polygon fill = 'rgb( 31, 120, 180)' fill-opacity = '0.250000' points = '513.5,280.3 513.5,662.4 515.4,662.4 515.4,278.1 '/>
		<polygon fill = 'rgb( 31, 120, 180)' fill-opacity = '0.250000' points = '515.4,278.1 515.4,662.4 517.3,662.4 517.3,276.2 '/>
		<polygon fill = 'rgb( 31, 120, 180)' fill-opacity = '0.250000' points = '517.3,276.2 517.3,662.4 519.2,662.4 519.2,274.5 '/>
		<polygon fill = 'rgb( 31, 120, 180)' fill-opacity = '0.250000' points = '519.2,274.5 519.2,662.4 521.0,662.4 521.0,273.1 '/>
		<polygon fill = 'rgb( 31, 120, 180)' fill-opacity = '0.250000' points = '521.0,273.1 521.0,662.4 522.9,662.4 522.9,271.9 '/>
		<polygon fill = 'rgb( 31, 120, 180)' fill-opacity = '0.250000' points = '522.9,271.9 522.9,662.4 524.8,662.4 524.8,271.1 '/>
		<polygon fill = 'rgb( 31, 120, 180)' fill-opacity = '0.250000' points = '524.8,271.1 524.8,662.4 526.7,662.4 526.7,270.5 '/>
		<polygon fill = 'rgb( 31, 120, 180)' fill-opacity = '0.250000' points = '526.7,270.5 526.7,662.4 528.6,662.4 528.6,270.3 '/>
		<polygon fill = 'rgb( 31, 120, 180)' fill-opacity = '0.250000' points = '528.6,270.3 528.6,662.4 530.5,662.4 530.5,270.5 '/>
		<polygon fill = 'rgb( 31, 120, 180)' fill-opacity = '0.250000' points = '530.5,270.5 530.5,662.4 532.4,662.4 532.4,270.9 '/>
		<polygon fill = 'rgb( 31, 120, 180)' fill-opacity = '0.250000' points = '532.4,270.9 532.4,662.4 534.3,662.4 534.3,271.7 '/>
		<polygon fill = 'rgb( 31, 120, 180)' fill-opacity = '0.250000' points = '534.3,271.7 534.3,662.4 536.1,662.4 536.1,272.8 '/>
		<polygon fill = 'rgb( 31, 120, 180)' fill-opacity = '0.250000' points = '536.1,272.8 536.1,662.4 538.0,662.4 538.0,274.3 '/>
		<polygon fill = 'rgb( 31, 120, 180)' fill-opacity = '0.250000' points = '538.0,274.3 538.0,662.4 539.9,662.4 539.9,276.1 '/>
		<polygon fill = 'rgb( 31, 120, 180)' fill-opacity = '0.250000' points = '539.9,276.1 539.9,662.4 541.8,662.4 541.8,278.2 '/>
		<polygon fill = 'rgb( 31, 120, 180)' fill-opacity = '0.250000' points = '541.8,278.2 541.8,662.4 543.7,662.4 543.7,280.6 '/>
		<polygon fill = 'rgb( 31, 120, 180)' fill-opacity = '0.250000' points = '543.7,280.6 543.7,662.4 545.6,662.4 545.6,283.3 '/>
		<polygon fill = 'rgb( 31, 120, 180)' fill-opacity = '0.250000' points = '545.6,283.3 545.6,662.4 547.5,662.4 547.5,286.2 '/>
		<polygon fill = 'rgb( 31, 120, 180)' fill-opacity = '0.250000' points = '547.5,286.2 547.5,662.4 549.4,662.4 549.4,289.4 '/>
		<polygon fill = 'rgb( 31, 120, 180)' fill-opacity = '0.250000' points = '549.4,289.4 549.4,662.4 551.2,662.4 551.2,292.8 '/>
		<polygon fill = 'rgb( 31, 120, 180)' fill-opacity = '0.250000' points = '551.2,292.8 551.2,662.4 553.1,662.4 553.1,296.4 '/>
		<polygon fill = 'rgb( 31, 120, 180)' fill-opacity = '0.250000' points = '553.1,296.4 553.1,662.4 555.0,662.4 555.0,300.1 '/>
		<polygon fill = 'rgb( 31, 120, 180)' fill-opacity = '0.250000' points = '555.0,300.1 555.0,662.4 556.9,662.4 556.9,303.9 '/>
		<polygon fill = 'rgb( 31, 120, 180)' fill-opacity = '0.250000' points = '556.9,303.9 556.9,662.4 558.8,662.4 558.8,307.7 '/>
		<polygon fill = 'rgb( 31, 120, 180)' fill-opacity = '0.250000' points = '558.8,307.7 558.8,662.4 560.7,662.4 560.7,311.6 '/>
		<polygon fill = 'rgb( 31, 120, 180)' fill-opacity = '0.250000' points = '560.7,311.6 560.7,662.4 562.6,662.4 562.6,315.3 '/>
		<polygon fill = 'rgb( 31, 120, 180)' fill-opacity = '0.250000' points = '562.6,315.3 562.6,662.4 564.5,662.4 564.5,319.0 '/>
		<polygon fill = 'rgb( 31, 120, 180)' fill-opacity = '0.250000' points = '564.5,319.0 564.5,662.4 566.3,662.4 566.3,322.4 '/>
		<polygon fill = 'rgb( 31, 120, 180)' fill-opacity = '0.250000' points = '566.3,322.4 566.3,662.4 568.2,662.4 568.2,325.5 '/>
		<polygon fill = 'rgb( 31, 120, 180)' fill-opacity = '0.250000' points = '568.2,325.5 568.2,662.4 570.1,662.4 570.1,328.3 '/>
		<polygon fill = 'rgb( 31, 120, 180)' fill-opacity = '0.250000' points = '570.1,328.3 570.1,662.4 572.0,662.4 572.0,330.7 '/>
		<polygon fill = 'rgb( 31, 120, 180)' fill-opacity = '0.250000' points = '572.0,330.7 572.0,662.4 573.9,662.4 573.9,332.6 '/>
		<polygon fill = 'rgb( 31, 120, 180)' fill-opacity = '0.250000' points = '573.9,332.6 573.9,662.4 575.8,662.4 575.8,333.9 '/>
		<polygon fill = 'rgb( 31, 120, 180)' fill-opacity = '0.250000' points = '575.8,333.9 575.8,662.4 577.7,662.4 577.7,334.6 '/>
		<polygon fill = 'rgb( 31, 120, 180)' fill-opacity = '0.250000' points = '577.7,334.6 577.7,662.4 579.5,662.4 579.5,334.6 '/>
		<polygon fill = 'rgb( 31, 120, 180)' fill-opacity = '0.250000' points = '579.5,334.6 579.5,662.4 581.4,662.4 581.4,333.8 '/>
		<polygon fill = 'rgb( 31, 120, 180)' fill-opacity = '0.250000' points = '581.4,333.8 581.4,662.4 583.3,662.4 583.3,332.3 '/>
		<polygon fill = 'rgb( 31, 120, 180)' fill-opacity = '0.250000' points = '583.3,332.3 583.3,662.4 585.2,662.4 585.2,329.9 '/>
		<polygon fill = 'rgb( 31, 120, 180)' fill-opacity = '0.250000' points = '585.2,329.9 585.2,662.4 587.1,662.4 587.1,326.7 '/>
		<polygon fill = 'rgb( 31, 120, 180)' fill-opacity = '0.250000' points = '587.1,326.7 587.1,662.4 589.0,662.4 589.0,322.7 '/>
		<polygon fill = 'rgb( 31, 120, 180)' fill-opacity = '0.250000' points = '589.0,322.7 589.0,662.4 590.9,662.4 590.9,317.9 '/>
		<polygon fill = 'rgb( 31, 120, 180)' fill-opacity = '0.250000' points = '590.9,317.9 590.9,662.4 592.8,662.4 592.8,312.2 '/>
		<polygon fill = 'rgb( 31, 120, 180)' fill-opacity = '0.250000' points = '592.8,312.2 592.8,662.4 594.6,662.4 594.6,305.8 '/>
		<polygon fill = 'rgb( 31, 120, 180)' fill-opacity = '0.250000' points = '594.6,305.8 594.6,662.4 596.5,662.4 596.5,298.7 '/>
		<polygon fill = 'rgb( 31, 120, 180)' fill-opacity = '0.250000' points = '596.5,298.7 596.5,662.4 598.4,662.4 598.4,290.9 '/>
		<polygon fill = 'rgb( 31, 120, 180)' fill-opacity = '0.250000' points = '598.4,290.9 598.4,662.4 600.3,662.4 600.3,282.5 '/>
		<polygon fill = 'rgb( 31, 120, 180)' fill-opacity = '0.250000' points = '600.3,282.5 600.3,662.4 602.2,662.4 602.2,273.7 '/>
		<polygon fill = 'rgb( 31, 120, 180)' fill-opacity = '0.250000' points = '602.2,273.7 602.2,662.4 604.1,662.4 604.1,264.5 '/>
		<polygon fill = 'rgb( 31, 120, 180)' fill-opacity = '0.250000' points = '604.1,264.5 604.1,662.4 606.0,662.4 606.0,254.9 '/>
		<polygon fill = 'rgb( 31, 120, 180)' fill-opacity = '0.250000' points = '606.0,254.9 606.0,662.4 607.9,662.4 607.9,245.2 '/>
		<polygon fill = 'rgb( 31, 120, 180)' fill-opacity = '0.250000' points = '607.9,245.2 607.9,662.4 609.7,662.4 609.7,235.3 '/>
		<polygon fill = 'rgb( 31, 120, 180)' fill-opacity = '0.250000' points = '609.7,235.3 609.7,662.4 611.6,662.4 611.6,225.4 '/>
		<polygon fill = 'rgb( 31, 120, 180)' fill-opacity = '0.250000' points = '611.6,225.4 611.6,662.4 613.5,662.4 613.5,215.5 '/>
		<polygon fill = 'rgb( 31, 120, 180)' fill-opacity = '0.250000' points = '613.5,215.5 613.5,662.4 615.4,662.4 615.4,205.8 '/>
		<polygon fill = 'rgb( 31, 120, 180)' fill-opacity = '0.250000' points = '615.4,205.8 615.4,662.4 617.3,662.4 617.3,196.3 '/>
		<polygon fill = 'rgb( 31, 120, 180)' fill-opacity = '0.250000' points = '617.3,196.3 617.3,662.4 619.2,662.4 619.2,187.1 '/>
		<polygon fill = 'rgb( 31, 120, 180)' fill-opacity = '0.250000' points = '619.2,187.1 619.2,662.4 621.1,662.4 621.1,178.2 '/>
		<polygon fill = 'rgb( 31, 120, 180)' fill-opacity = '0.250000' points = '621.1,178.2 621.1,662.4 623.0,662.4 623.0,169.7 '/>
		<polygon fill = 'rgb( 31, 120, 180)' fill-opacity = '0.250000' points = '623.0,169.7 623.0,662.4 624.8,662.4 624.8,161.6 '/>
		<polygon fill = 'rgb( 31, 120, 180)' fill-opacity = '0.250000' points = '624.8,161.6 624.8,662.4 626.7,662.4 626.7,154.0 '/>
		<polygon fill = 'rgb( 31, 120, 180)' fill-opacity = '0.250000' points = '626.7,154.0 626.7,662.4 628.6,662.4 628.6,146.9 '/>
		<polygon fill = 'rgb( 31, 120, 180)' fill-opacity = '0.250000' points = '628.6,146.9 628.6,662.4 630.5,662.4 630.5,140.3 '/>
		<polygon fill = 'rgb( 31, 120, 180)' fill-opacity = '0.250000' points = '630.5,140.3 630.5,662.4 632.4,662.4 632.4,134.1 '/>
		<polygon fill = 'rgb( 31, 120, 180)' fill-opacity = '0.250000' points = '632.4,134.1 632.4,662.4 634.3,662.4 634.3,128.5 '/>
		<polygon fill = 'rgb( 31, 120, 180)' fill-opacity = '0.250000' points = '634.3,128.5 634.3,662.4 636.2,662.4 636.2,123.5 '/>
		<polygon fill = 'rgb( 31, 120, 180)' fill-opacity = '0.250000' points = '636.2,123.5 636.2,662.4 638.1,662.4 638.1,119.0 '/>
		<polygon fill = 'rgb( 31, 120, 180)' fill-opacity = '0.250000' points = '638.1,119.0 638.1,662.4 639.9,662.4 639.9,115.0 '/>
		<polygon fill = 'rgb( 31, 120, 180)' fill-opacity = '0.250000' points = '639.9,115.0 639.9,662.4 641.8,662.4 641.8,111.7 '/>
		<polygon fill = 'rgb( 31, 120, 180)' fill-opacity = '0.250000' points = '641.8,111.7 641.8,662.4 643.7,662.4 643.7,108.9 '/>
		<polygon fill = 'rgb( 31, 120, 180)' fill-opacity = '0.250000' points = '643.7,108.9 643.7,662.4 645.6,662.4 645.6,106.8 '/>
		<polygon fill = 'rgb( 31, 120, 180)' fill-opacity = '0.250000' points = '645.6,106.8 645.6,662.4 647.5,662.4 647.5,105.2 '/>
		<polygon fill = 'rgb( 31, 120, 180)' fill-opacity = '0.250000' points = '647.5,105.2 647.5,662.4 649.4,662.4 649.4,104.3 '/>
		<polygon fill = 'rgb( 31, 120, 180)' fill-opacity = '0.250000' points = '649.4,104.3 649.4,662.4 651.3,662.4 651.3,104.1 '/>
		<polygon fill = 'rgb( 31, 120, 180)' fill-opacity = '0.250000' points = '651.3,104.1 651.3,662.4 653.1,662.4 653.1,104.6 '/>
		<polygon fill = 'rgb( 31, 120, 180)' fill-opacity = '0.250000' points = '653.1,104.6 653.1,662.4 655.0,662.4 655.0,105.8 '/>
		<polygon fill = 'rgb( 31, 120, 180)' fill-opacity = '0.250000' points = '655.0,105.8 655.0,662.4 656.9,662.4 656.9,107.7 '/>
		<polygon fill = 'rgb( 31, 120, 180)' fill-opacity = '0.250000' points = '656.9,107.7 656.9,662.4 658.8,662.4 658.8,110.3 '/>
		<polygon fill = 'rgb( 31, 120, 180)' fill-opacity = '0.250000' points = '658.8,110.3 658.8,662.4 660.7,662.4 660.7,113.8 '/>
		<polygon fill = 'rgb( 31, 120, 180)' fill-opacity = '0.250000' points = '660.7,113.8 660.7,662.4 662.6,662.4 662.6,117.9 '/>
		<polygon fill = 'rgb( 31, 120, 180)' fill-opacity = '0.250000' points = '662.6,117.9 662.6,662.4 664.5,662.4 664.5,122.8 '/>
		<polygon fill = 'rgb( 31, 120, 180)' fill-opacity = '0.250000' points = '664.5,122.8 664.5,662.4 666.4,662.4 666.4,128.4 '/>
		<polygon fill = 'rgb( 31, 120, 180)' fill-opacity = '0.250000' points = '666.4,128.4 666.4,662.4 668.2,662.4 668.2,134.7 '/>
		<polygon fill = 'rgb( 31, 120, 180)' fill-opacity = '0.250000' points = '668.2,134.7 668.2,662.4 670.1,662.4 670.1,141.6 '/>
		<polygon fill = 'rgb( 31, 120, 180)' fill-opacity = '0.250000' points = '670.1,141.6 670.1,662.4 672.0,662.4 672.0,149.2 '/>
		<polygon fill = 'rgb( 31, 120, 180)' fill-opacity = '0.250000' points = '672.0,149.2 672.0,662.4 673.9,662.4 673.9,157.3 '/>
		<polygon fill = 'rgb( 31, 120, 180)' fill-opacity = '0.250000' points = '673.9,157.3 673.9,662.4 675.8,662.4 675.8,166.0 '/>
		<polygon fill = 'rgb( 31, 120, 180)' fill-opacity = '0.250000' points = '675.8,166.0 675.8,662.4 677.7,662.4 677.7,175.0 '/>
		<polygon fill = 'rgb( 31, 120, 180)' fill-opacity = '0.250000' points = '677.7,175.0 677.7,662.4 679.6,662.4 679.6,184.4 '/>
		<polygon fill = 'rgb( 31, 120, 180)' fill-opacity = '0.250000' points = '679.6,184.4 679.6,662.4 681.5,662.4 681.5,194.0 '/>
		<polygon fill = 'rgb( 31, 120, 180)' fill-opacity = '0.250000' points = '681.5,194.0 681.5,662.4 683.3,662.4 683.3,203.9 '/>
		<polygon fill = 'rgb( 31, 120, 180)' fill-opacity = '0.250000' points = '683.3,203.9 683.3,662.4 685.2,662.4 685.2,213.8 '/>
		<polygon fill = 'rgb( 31, 120, 180)' fill-opacity = '0.250000' points = '685.2,213.8 685.2,662.4 687.1,662.4 687.1,223.7 '/>
		<polygon fill = 'rgb( 31, 120, 180)' fill-opacity = '0.250000' points = '687.1,223.7 687.1,662.4 689.0,662.4 689.0,233.6 '/>
		<polygon fill = 'rgb( 31, 120, 180)' fill-opacity = '0.250000' points = '689.0,233.6 689.0,662.4 690.9,662.4 690.9,243.3 '/>
		<polygon fill = 'rgb( 31, 120, 180)' fill-opacity = '0.250000' points = '690.9,243.3 690.9,662.4 692.8,662.4 692.8,252.8 '/>
		<polygon fill = 'rgb( 31, 120, 180)' fill-opacity = '0.250000' points = '692.8,252.8 692.8,662.4 694.7,662.4 694.7,262.0 '/>
		<polygon fill = 'rgb( 31, 120, 180)' fill-opacity = '0.250000' points = '694.7,262.0 694.7,662.4 696.6,662.4 696.6,270.9 '/>
		<polygon fill = 'rgb( 31, 120, 180)' fill-opacity = '0.250000' points = '696.6,270.9 696.6,662.4 698.4,662.4 698.4,279.4 '/>
		<polygon fill = 'rgb( 31, 120, 180)' fill-opacity = '0.250000' points = '698.4,279.4 698.4,662.4 700.3,662.4 700.3,287.4 '/>
		<polygon fill = 'rgb( 31, 120, 180)' fill-opacity = '0.250000' points = '700.3,287.4 700.3,662.4 702.2,662.4 702.2,295.0 '/>
		<polygon fill = 'rgb( 31, 120, 180)' fill-opacity = '0.250000' points = '702.2,295.0 702.2,662.4 704.1,662.4 704.1,302.0 '/>
		<polygon fill = 'rgb( 31, 120, 180)' fill-opacity = '0.250000' points = '704.1,302.0 704.1,662.4 706.0,662.4 706.0,308.6 '/>
		<polygon fill = 'rgb( 31, 120, 180)' fill-opacity = '0.250000' points = '706.0,308.6 706.0,662.4 707.9,662.4 707.9,314.6 '/>
		<polygon fill = 'rgb( 31, 120, 180)' fill-opacity = '0.250000' points = '707.9,314.6 707.9,662.4 709.8,662.4 709.8,320.0 '/>
		<polygon fill = 'rgb( 31, 120, 180)' fill-opacity = '0.250000' points = '709.8,320.0 709.8,662.4 711.7,662.4 711.7,324.9 '/>
		<polygon fill = 'rgb( 31, 120, 180)' fill-opacity = '0.250000' points = '711.7,324.9 711.7,662.4 713.5,662.4 713.5,329.3 '/>
		<polygon fill = 'rgb( 31, 120, 180)' fill-opacity = '0.250000' points = '713.5,329.3 713.5,662.4 715.4,662.4 715.4,333.2 '/>
		<polygon fill = 'rgb( 31, 120, 180)' fill-opacity = '0.250000' points = '715.4,333.2 715.4,662.4 717.3,662.4 717.3,336.5 '/>
		<polygon fill = 'rgb( 31, 120, 180)' fill-opacity = '0.250000' points = '717.3,336.5 717.3,662.4 719.2,662.4 719.2,339.4 '/>
		<polygon fill = 'rgb( 31, 120, 180)' fill-opacity = '0.250000' points = '719.2,339.4 719.2,662.4 721.1,662.4 721.1,341.8 '/>
		<polygon fill = 'rgb( 31, 120, 180)' fill-opacity = '0.250000' points = '721.1,341.8 721.1,662.4 723.0,662.4 723.0,343.7 '/>
		<polygon fill = 'rgb( 31, 120, 180)' fill-opacity = '0.250000' points = '723.0,343.7 723.0,662.4 724.9,662.4 724.9,345.2 '/>
		<polygon fill = 'rgb( 31, 120, 180)' fill-opacity = '0.250000' points = '724.9,345.2 724.9,662.4 726.7,662.4 726.7,346.2 '/>
		<polygon fill = 'rgb( 31, 120, 180)' fill-opacity = '0.250000' points = '726.7,346.2 726.7,662.4 728.6,662.4 728.6,346.9 '/>
		<polygon fill = 'rgb( 31, 120, 180)' fill-opacity = '0.250000' points = '728.6,346.9 728.6,662.4 730.5,662.4 730.5,347.3 '/>
		<polygon fill = 'rgb( 31, 120, 180)' fill-opacity = '0.250000' points = '730.5,347.3 730.5,662.4 732.4,662.4 732.4,347.3 '/>
		<polygon fill = 'rgb( 31, 120, 180)' fill-opacity = '0.250000' points = '732.4,347.3 732.4,662.4 734.3,662.4 734.3,347.0 '/>
		<polygon fill = 'rgb( 31, 120, 180)' fill-opacity = '0.250000' points = '734.3,347.0 734.3,662.4 736.2,662.4 736.2,346.5 '/>
		<polygon fill = 'rgb( 31, 120, 180)' fill-opacity = '0.250000' points = '736.2,346.5 736.2,662.4 738.1,662.4 738.1,345.8 '/>
		<polygon fill = 'rgb( 31, 120, 180)' fill-opacity = '0.250000' points = '738.1,345.8 738.1,662.4 740.0,662.4 740.0,344.9 '/>
		<polygon fill = 'rgb( 31, 120, 180)' fill-opacity = '0.250000' points = '740.0,344.9 740.0,662.4 741.8,662.4 741.8,344.0 '/>
		<polygon fill = 'rgb( 31, 120, 180)' fill-opacity = '0.250000' points = '741.8,344.0 741.8,662.4 743.7,662.4 743.7,342.9 '/>
		<polygon fill = 'rgb( 31, 120, 180)' fill-opacity = '0.250000' points = '743.7,342.9 743.7,662.4 745.6,662.4 745.6,341.9 '/>
		<polygon fill = 'rgb( 31, 120, 180)' fill-opacity = '0.250000' points = '745.6,341.9 745.6,662.4 747.5,662.4 747.5,341.0 '/>
		<polygon fill = 'rgb( 31, 120, 180)' fill-opacity = '0.250000' points = '747.5,341.0 747.5,662.4 749.4,662.4 749.4,340.2 '/>
		<polygon fill = 'rgb( 31, 120, 180)' fill-opacity = '0.250000' points = '749.4,340.2 749.4,662.4 751.3,662.4 751.3,339.5 '/>
		<polygon fill = 'rgb( 31, 120, 180)' fill-opacity = '0.250000' points = '751.3,339.5 751.3,662.4 753.2,662.4 753.2,339.2 '/>
		<polygon fill = 'rgb( 31, 120, 180)' fill-opacity = '0.250000' points = '753.2,339.2 753.2,662.4 755.1,662.4 755.1,339.1 '/>
		<polygon fill = 'rgb( 31, 120, 180)' fill-opacity = '0.250000' points = '755.1,339.1 755.1,662.4 756.9,662.4 756.9,339.4 '/>
		<polygon fill = 'rgb( 31, 120, 180)' fill-opacity = '0.250000' points = '756.9,339.4 756.9,662.4 758.8,662.4 758.8,340.1 '/>
		<polygon fill = 'rgb( 31, 120, 180)' fill-opacity = '0.250000' points = '758.8,340.1 758.8,662.4 760.7,662.4 760.7,341.3 '/>
		<polygon fill = 'rgb( 31, 120, 180)' fill-opacity = '0.250000' points = '760.7,341.3 760.7,662.4 762.6,662.4 762.6,343.0 '/>
		<polygon fill = 'rgb( 31, 120, 180)' fill-opacity = '0.250000' points = '762.6,343.0 762.6,662.4 764.5,662.4 764.5,345.2 '/>
		<polygon fill = 'rgb( 31, 120, 180)' fill-opacity = '0.250000' points = '764.5,345.2 764.5,662.4 766.4,662.4 766.4,347.9 '/>
		<polygon fill = 'rgb( 31, 120, 180)' fill-opacity = '0.250000' points = '766.4,347.9 766.4,662.4 768.3,662.4 768.3,351.1 '/>
		<polygon fill = 'rgb( 31, 120, 180)' fill-opacity = '0.250000' points = '768.3,351.1 768.3,662.4 770.2,662.4 770.2,354.8 '/>
		<polygon fill = 'rgb( 31, 120, 180)' fill-opacity = '0.250000' points = '770.2,354.8 770.2,662.4 772.0,662.4 772.0,359.1 '/>
		<polygon fill = 'rgb( 31, 120, 180)' fill-opacity = '0.250000' points = '772.0,359.1 772.0,662.4 773.9,662.4 773.9,363.8 '/>
		<polygon fill = 'rgb( 31, 120, 180)' fill-opacity = '0.250000' points = '773.9,363.8 773.9,662.4 775.8,662.4 775.8,368.9 '/>
		<polygon fill = 'rgb( 31, 120, 180)' fill-opacity = '0.250000' points = '775.8,368.9 775.8,662.4 777.7,662.4 777.7,374.4 '/>
		<polygon fill = 'rgb( 31, 120, 180)' fill-opacity = '0.250000' points = '777.7,374.4 777.7,662.4 779.6,662.4 779.6,380.3 '/>
		<polygon fill = 'rgb( 31, 120, 180)' fill-opacity = '0.250000' points = '779.6,380.3 779.6,662.4 781.5,662.4 781.5,386.3 '/>
		<polygon fill = 'rgb( 31, 120, 180)' fill-opacity = '0.250000' points = '781.5,386.3 781.5,662.4 783.4,662.4 783.4,392.6 '/>
		<polygon fill = 'rgb( 31, 120, 180)' fill-opacity = '0.250000' points = '783.4,392.6 783.4,662.4 785.3,662.4 785.3,399.0 '/>
		<polygon fill = 'rgb( 31, 120, 180)' fill-opacity = '0.250000' points = '785.3,399.0 785.3,662.4 787.1,662.4 787.1,405.5 '/>
		<polygon fill = 'rgb( 31, 120, 180)' fill-opacity = '0.250000' points = '787.1,405.5 787.1,662.4 789.0,662.4 789.0,411.9 '/>
		<polygon fill = 'rgb( 31, 120, 180)' fill-opacity = '0.250000' points = '789.0,411.9 789.0,662.4 790.9,662.4 790.9,418.3 '/>
		<polygon fill = 'rgb( 31, 120, 180)' fill-opacity = '0.250000' points = '790.9,418.3 790.9,662.4 792.8,662.4 792.8,424.5 '/>
		<polygon fill = 'rgb( 31, 120, 180)' fill-opacity = '0.250000' points = '792.8,424.5 792.8,662.4 794.7,662.4 794.7,430.6 '/>
		<polygon fill = 'rgb( 31, 120, 180)' fill-opacity = '0.250000' points = '794.7,430.6 794.7,662.4 796.6,662.4 796.6,436.4 '/>
		<polygon fill = 'rgb( 31, 120, 180)' fill-opacity = '0.250000' points = '796.6,436.4 796.6,662.4 798.5,662.4 798.5,441.9 '/>
		<polygon fill = 'rgb( 31, 120, 180)' fill-opacity = '0.250000' points = '798.5,441.9 798.5,662.4 800.3,662.4 800.3,447.1 '/>
		<polygon fill = 'rgb( 31, 120, 180)' fill-opacity = '0.250000' points = '800.3,447.1 800.3,662.4 802.2,662.4 802.2,452.0 '/>
		<polygon fill = 'rgb( 31, 120, 180)' fill-opacity = '0.250000' points = '802.2,452.0 802.2,662.4 804.1,662.4 804.1,456.5 '/>
		<polygon fill = 'rgb( 31, 120, 180)' fill-opacity = '0.250000' points = '804.1,456.5 804.1,662.4 806.0,662.4 806.0,460.6 '/>
		<polygon fill = 'rgb( 31, 120, 180)' fill-opacity = '0.250000' points = '806.0,460.6 806.0,662.4 807.9,662.4 807.9,464.4 '/>
		<polygon fill = 'rgb( 31, 120, 180)' fill-opacity = '0.250000' points = '807.9,464.4 807.9,662.4 809.8,662.4 809.8,467.8 '/>
		<polygon fill = 'rgb( 31, 120, 180)' fill-opacity = '0.250000' points = '809.8,467.8 809.8,662.4 811.7,662.4 811.7,470.8 '/>
		<polygon fill = 'rgb( 31, 120, 180)' fill-opacity = '0.250000' points = '811.7,470.8 811.7,662.4 813.6,662.4 813.6,473.5 '/>
		<polygon fill = 'rgb( 31, 120, 180)' fill-opacity = '0.250000' points = '813.6,473.5 813.6,662.4 815.4,662.4 815.4,475.9 '/>
		<polygon fill = 'rgb( 31, 120, 180)' fill-opacity = '0.250000' points = '815.4,475.9 815.4,662.4 817.3,662.4 817.3,478.0 '/>
		<polygon fill = 'rgb( 31, 120, 180)' fill-opacity = '0.250000' points = '817.3,478.0 817.3,662.4 819.2,662.4 819.2,479.9 '/>
		<polygon fill = 'rgb( 31, 120, 180)' fill-opacity = '0.250000' points = '819.2,479.9 819.2,662.4 821.1,662.4 821.1,481.5 '/>
		<polygon fill = 'rgb( 31, 120, 180)' fill-opacity = '0.250000' points = '821.1,481.5 821.1,662.4 823.0,662.4 823.0,483.0 '/>
		<polygon fill = 'rgb( 31, 120, 180)' fill-opacity = '0.250000' points = '823.0,483.0 823.0,662.4 824.9,662.4 824.9,484.3 '/>
		<polygon fill = 'rgb( 31, 120, 180)' fill-opacity = '0.250000' points = '824.9,484.3 824.9,662.4 826.8,662.4 826.8,485.6 '/>
		<polygon fill = 'rgb( 31, 120, 180)' fill-opacity = '0.250000' points = '826.8,485.6 826.8,662.4 828.7,662.4 828.7,486.8 '/>
		<polygon fill = 'rgb( 31, 120, 180)' fill-opacity = '0.250000' points = '828.7,486.8 828.7,662.4 830.5,662.4 830.5,488.1 '/>
		<polygon fill = 'rgb( 31, 120, 180)' fill-opacity = '0.250000' points = '830.5,488.1 830.5,662.4 832.4,662.4 832.4,489.4 '/>
		<polygon fill = 'rgb( 31, 120, 180)' fill-opacity = '0.250000' points = '832.4,489.4 832.4,662.4 834.3,662.4 834.3,490.8 '/>
		<polygon fill = 'rgb( 31, 120, 180)' fill-opacity = '0.250000' points = '834.3,490.8 834.3,662.4 836.2,662.4 836.2,492.3 '/>
		<polygon fill = 'rgb( 31, 120, 180)' fill-opacity = '0.250000' points = '836.2,492.3 836.2,662.4 838.1,662.4 838.1,494.0 '/>
		<polygon fill = 'rgb( 31, 120, 180)' fill-opacity = '0.250000' points = '838.1,494.0 838.1,662.4 840.0,662.4 840.0,495.9 '/>
		<polygon fill = 'rgb( 31, 120, 180)' fill-opacity = '0.250000' points = '840.0,495.9 840.0,662.4 841.9,662.4 841.9,497.9 '/>
		<polygon fill = 'rgb( 31, 120, 180)' fill-opacity = '0.250000' points = '841.9,497.9 841.9,662.4 843.8,662.4 843.8,500.2 '/>
		<polygon fill = 'rgb( 31, 120, 180)' fill-opacity = '0.250000' points = '843.8,500.2 843.8,662.4 845.6,662.4 845.6,502.7 '/>
		<polygon fill = 'rgb( 31, 120, 180)' fill-opacity = '0.250000' points = '845.6,502.7 845.6,662.4 847.5,662.4 847.5,505.4 '/>
		<polygon fill = 'rgb( 31, 120, 180)' fill-opacity = '0.250000' points = '847.5,505.4 847.5,662.4 849.4,662.4 849.4,508.3 '/>
		<polygon fill = 'rgb( 31, 120, 180)' fill-opacity = '0.250000' points = '849.4,508.3 849.4,662.4 851.3,662.4 851.3,511.4 '/>
		<polygon fill = 'rgb( 31, 120, 180)' fill-opacity = '0.250000' points = '851.3,511.4 851.3,662.4 853.2,662.4 853.2,514.6 '/>
		<polygon fill = 'rgb( 31, 120, 180)' fill-opacity = '0.250000' points = '853.2,514.6 853.2,662.4 855.1,662.4 855.1,517.9 '/>
		<polygon fill = 'rgb( 31, 120, 180)' fill-opacity = '0.250000' points = '855.1,517.9 855.1,662.4 857.0,662.4 857.0,521.4 '/>
		<polygon fill = 'rgb( 31, 120, 180)' fill-opacity = '0.250000' points = '857.0,521.4 857.0,662.4 858.9,662.4 858.9,524.9 '/>
		<polygon fill = 'rgb( 31, 120, 180)' fill-opacity = '0.250000' points = '858.9,524.9 858.9,662.4 860.7,662.4 860.7,528.4 '/>
		<polygon fill = 'rgb( 31, 120, 180)' fill-opacity = '0.250000' points = '860.7,528.4 860.7,662.4 862.6,662.4 862.6,531.8 '/>
		<polygon fill = 'rgb( 31, 120, 180)' fill-opacity = '0.250000' points = '862.6,531.8 862.6,662.4 864.5,662.4 864.5,535.2 '/>
		<polygon fill = 'rgb( 31, 120, 180)' fill-opacity = '0.250000' points = '864.5,535.2 864.5,662.4 866.4,662.4 866.4,538.6 '/>
		<polygon fill = 'rgb( 31, 120, 180)' fill-opacity = '0.250000' points = '866.4,538.6 866.4,662.4 868.3,662.4 868.3,541.8 '/>
		<polygon fill = 'rgb( 31, 120, 180)' fill-opacity = '0.250000' points = '868.3,541.8 868.3,662.4 870.2,662.4 870.2,544.8 '/>
		<polygon fill = 'rgb( 31, 120, 180)' fill-opacity = '0.250000' points = '870.2,544.8 870.2,662.4 872.1,662.4 872.1,547.7 '/>
		<polygon fill = 'rgb( 31, 120, 180)' fill-opacity = '0.250000' points = '872.1,547.7 872.1,662.4 873.9,662.4 873.9,550.3 '/>
		<polygon fill = 'rgb( 31, 120, 180)' fill-opacity = '0.250000' points = '873.9,550.3 873.9,662.4 875.8,662.4 875.8,552.7 '/>
		<polygon fill = 'rgb( 31, 120, 180)' fill-opacity = '0.250000' points = '875.8,552.7 875.8,662.4 877.7,662.4 877.7,555.0 '/>
		<polygon fill = 'rgb( 31, 120, 180)' fill-opacity = '0.250000' points = '877.7,555.0 877.7,662.4 879.6,662.4 879.6,556.9 '/>
		<polygon fill = 'rgb( 31, 120, 180)' fill-opacity = '0.250000' points = '879.6,556.9 879.6,662.4 881.5,662.4 881.5,558.7 '/>
		<polygon fill = 'rgb( 31, 120, 180)' fill-opacity = '0.250000' points = '881.5,558.7 881.5,662.4 883.4,662.4 883.4,560.2 '/>
		<polygon fill = 'rgb( 31, 120, 180)' fill-opacity = '0.250000' points = '883.4,560.2 883.4,662.4 885.3,662.4 885.3,561.6 '/>
		<polygon fill = 'rgb( 31, 120, 180)' fill-opacity = '0.250000' points = '885.3,561.6 885.3,662.4 887.2,662.4 887.2,562.7 '/>
		<polygon fill = 'rgb( 31, 120, 180)' fill-opacity = '0.250000' points = '887.2,562.7 887.2,662.4 889.0,662.4 889.0,563.7 '/>
		<polygon fill = 'rgb( 31, 120, 180)' fill-opacity = '0.250000' points = '889.0,563.7 889.0,662.4 890.9,662.4 890.9,564.5 '/>
		<polygon fill = 'rgb( 31, 120, 180)' fill-opacity = '0.250000' points = '890.9,564.5 890.9,662.4 892.8,662.4 892.8,565.2 '/>
		<polygon fill = 'rgb( 31, 120, 180)' fill-opacity = '0.250000' points = '892.8,565.2 892.8,662.4 894.7,662.4 894.7,565.8 '/>
		<polygon fill = 'rgb( 31, 120, 180)' fill-opacity = '0.250000' points = '894.7,565.8 894.7,662.4 896.6,662.4 896.6,566.4 '/>
		<polygon fill = 'rgb( 31, 120, 180)' fill-opacity = '0.250000' points = '896.6,566.4 896.6,662.4 898.5,662.4 898.5,566.9 '/>
		<polygon fill = 'rgb( 31, 120, 180)' fill-opacity = '0.250000' points = '898.5,566.9 898.5,662.4 900.4,662.4 900.4,567.4 '/>
		<polygon fill = 'rgb( 31, 120, 180)' fill-opacity = '0.250000' points = '900.4,567.4 900.4,662.4 902.3,662.4 902.3,567.9 '/>
		<polygon fill = 'rgb( 31, 120, 180)' fill-opacity = '0.250000' points = '902.3,567.9 902.3,662.4 904.1,662.4 904.1,568.5 '/>
		<polygon fill = 'rgb( 31, 120, 180)' fill-opacity = '0.250000' points = '904.1,568.5 904.1,662.4 906.0,662.4 906.0,569.1 '/>
		<polygon fill = 'rgb( 31, 120, 180)' fill-opacity = '0.250000' points = '906.0,569.1 906.0,662.4 907.9,662.4 907.9,569.8 '/>
		<polygon fill = 'rgb( 31, 120, 180)' fill-opacity = '0.250000' points = '907.9,569.8 907.9,662.4 909.8,662.4 909.8,570.7 '/>
		<polygon fill = 'rgb( 31, 120, 180)' fill-opacity = '0.250000' points = '909.8,570.7 909.8,662.4 911.7,662.4 911.7,571.7 '/>
		<polygon fill = 'rgb( 31, 120, 180)' fill-opacity = '0.250000' points = '911.7,571.7 911.7,662.4 913.6,662.4 913.6,572.8 '/>
		<polygon fill = 'rgb( 31, 120, 180)' fill-opacity = '0.250000' points = '913.6,572.8 913.6,662.4 915.5,662.4 915.5,574.1 '/>
		<polygon fill = 'rgb( 31, 120, 180)' fill-opacity = '0.250000' points = '915.5,574.1 915.5,662.4 917.4,662.4 917.4,575.5 '/>
		<polygon fill = 'rgb( 31, 120, 180)' fill-opacity = '0.250000' points = '917.4,575.5 917.4,662.4 919.2,662.4 919.2,577.1 '/>
		<polygon fill = 'rgb( 31, 120, 180)' fill-opacity = '0.250000' points = '919.2,577.1 919.2,662.4 921.1,662.4 921.1,578.8 '/>
		<polygon fill = 'rgb( 31, 120, 180)' fill-opacity = '0.250000' points = '921.1,578.8 921.1,662.4 923.0,662.4 923.0,580.7 '/>
		<polygon fill = 'rgb( 31, 120, 180)' fill-opacity = '0.250000' points = '923.0,580.7 923.0,662.4 924.9,662.4 924.9,582.7 '/>
	</g>
</g>
	</g>
	<g id="gnuplot_plot_3" ><title>Point estimate</title>
<g fill="none" color="white" stroke="rgb( 31, 120, 180)" stroke-width="2.00" stroke-linecap="butt" stroke-linejoin="miter">
</g>
<g fill="none" color="black" stroke="currentColor" stroke-width="2.00" stroke-linecap="butt" stroke-linejoin="miter">
	<g transform="translate(1089.0,103.0)" stroke="none" fill="black" font-family="Helvetica" font-size="12.00"  text-anchor="start">
		<text><tspan font-family="Helvetica" >Point estimate</tspan></text>
	</g>
</g>
<g fill="none" color="black" stroke="currentColor" stroke-width="2.00" stroke-linecap="butt" stroke-linejoin="miter">
	<path stroke='rgb( 31, 120, 180)'  d='M1038.5,99.1 L1080.7,99.1 M569.3,662.4 L569.3,327.1  '/></g>
	</g>
	<g id="gnuplot_plot_4" ><title>Noise threshold</title>
<g fill="none" color="white" stroke="rgb( 31, 120, 180)" stroke-width="1.00" stroke-linecap="butt" stroke-linejoin="miter">
</g>
<g fill="none" color="black" stroke="currentColor" stroke-width="1.00" stroke-linecap="butt" stroke-linejoin="miter">
	<g transform="translate(1089.0,121.0)" stroke="none" fill="black" font-family="Helvetica" font-size="12.00"  text-anchor="start">
		<text><tspan font-family="Helvetica" >Noise threshold</tspan></text>
	</g>
</g>
<g fill="none" color="black" stroke="currentColor" stroke-width="1.00" stroke-linecap="butt" stroke-linejoin="miter">
	<g stroke='none' shape-rendering='crispEdges'>
		<polygon fill = 'rgb(227,  26,  28)' fill-opacity = '0.100000' points = '1038.5,121.6 1080.7,121.6 1080.7,112.6 1038.5,112.6 '/>
		<polygon fill = 'rgb(227,  26,  28)' fill-opacity = '0.100000' points = '542.7,54.1 542.7,662.4 542.7,662.4 542.7,54.1 '/>
	</g>
</g>
	</g>
<g fill="none" color="white" stroke="rgb(227,  26,  28)" stroke-width="2.00" stroke-linecap="butt" stroke-linejoin="miter">
</g>
<g fill="none" color="black" stroke="currentColor" stroke-width="2.00" stroke-linecap="butt" stroke-linejoin="miter">
</g>
<g fill="none" color="black" stroke="black" stroke-width="1.00" stroke-linecap="butt" stroke-linejoin="miter">
</g>
<g fill="none" color="black" stroke="currentColor" stroke-width="1.00" stroke-linecap="butt" stroke-linejoin="miter">
	<path stroke='black'  d='M71.9,54.1 L71.9,662.4 L1013.6,662.4 L1013.6,54.1 L71.9,54.1 Z  '/></g>
<g fill="none" color="black" stroke="currentColor" stroke-width="1.00" stroke-linecap="butt" stroke-linejoin="miter">
</g>
</g>
</svg>

