<?xml version="1.0" encoding="utf-8"  standalone="no"?>
<svg 
 viewBox="0 0 1280 720"
 xmlns="http://www.w3.org/2000/svg"
 xmlns:xlink="http://www.w3.org/1999/xlink"
>

<title>Gnuplot</title>
<desc>Produced by GNUPLOT 5.0 patchlevel 6 </desc>

<g id="gnuplot_canvas">

<rect x="0" y="0" width="1280" height="720" fill="none"/>
<defs>

	<circle id='gpDot' r='0.5' stroke-width='0.5'/>
	<path id='gpPt0' stroke-width='0.222' stroke='currentColor' d='M-1,0 h2 M0,-1 v2'/>
	<path id='gpPt1' stroke-width='0.222' stroke='currentColor' d='M-1,-1 L1,1 M1,-1 L-1,1'/>
	<path id='gpPt2' stroke-width='0.222' stroke='currentColor' d='M-1,0 L1,0 M0,-1 L0,1 M-1,-1 L1,1 M-1,1 L1,-1'/>
	<rect id='gpPt3' stroke-width='0.222' stroke='currentColor' x='-1' y='-1' width='2' height='2'/>
	<rect id='gpPt4' stroke-width='0.222' stroke='currentColor' fill='currentColor' x='-1' y='-1' width='2' height='2'/>
	<circle id='gpPt5' stroke-width='0.222' stroke='currentColor' cx='0' cy='0' r='1'/>
	<use xlink:href='#gpPt5' id='gpPt6' fill='currentColor' stroke='none'/>
	<path id='gpPt7' stroke-width='0.222' stroke='currentColor' d='M0,-1.33 L-1.33,0.67 L1.33,0.67 z'/>
	<use xlink:href='#gpPt7' id='gpPt8' fill='currentColor' stroke='none'/>
	<use xlink:href='#gpPt7' id='gpPt9' stroke='currentColor' transform='rotate(180)'/>
	<use xlink:href='#gpPt9' id='gpPt10' fill='currentColor' stroke='none'/>
	<use xlink:href='#gpPt3' id='gpPt11' stroke='currentColor' transform='rotate(45)'/>
	<use xlink:href='#gpPt11' id='gpPt12' fill='currentColor' stroke='none'/>
	<path id='gpPt13' stroke-width='0.222' stroke='currentColor' d='M0,1.330 L1.265,0.411 L0.782,-1.067 L-0.782,-1.076 L-1.265,0.411 z'/>
	<use xlink:href='#gpPt13' id='gpPt14' fill='currentColor' stroke='none'/>
	<filter id='textbox' filterUnits='objectBoundingBox' x='0' y='0' height='1' width='1'>
	  <feFlood flood-color='white' flood-opacity='1' result='bgnd'/>
	  <feComposite in='SourceGraphic' in2='bgnd' operator='atop'/>
	</filter>
	<filter id='greybox' filterUnits='objectBoundingBox' x='0' y='0' height='1' width='1'>
	  <feFlood flood-color='lightgrey' flood-opacity='1' result='grey'/>
	  <feComposite in='SourceGraphic' in2='grey' operator='atop'/>
	</filter>
</defs>
<g fill="none" color="white" stroke="currentColor" stroke-width="1.00" stroke-linecap="butt" stroke-linejoin="miter">
</g>
<g fill="none" color="black" stroke="currentColor" stroke-width="1.00" stroke-linecap="butt" stroke-linejoin="miter">
	<path stroke='black'  d='M71.9,662.4 L80.9,662.4  '/>	<g transform="translate(63.6,666.3)" stroke="none" fill="black" font-family="Helvetica" font-size="12.00"  text-anchor="end">
		<text><tspan font-family="Helvetica" > 0</tspan></text>
	</g>
</g>
<g fill="none" color="black" stroke="currentColor" stroke-width="1.00" stroke-linecap="butt" stroke-linejoin="miter">
	<path stroke='black'  d='M71.9,601.6 L80.9,601.6  '/>	<g transform="translate(63.6,605.5)" stroke="none" fill="black" font-family="Helvetica" font-size="12.00"  text-anchor="end">
		<text><tspan font-family="Helvetica" > 10</tspan></text>
	</g>
</g>
<g fill="none" color="black" stroke="currentColor" stroke-width="1.00" stroke-linecap="butt" stroke-linejoin="miter">
	<path stroke='black'  d='M71.9,540.7 L80.9,540.7  '/>	<g transform="translate(63.6,544.6)" stroke="none" fill="black" font-family="Helvetica" font-size="12.00"  text-anchor="end">
		<text><tspan font-family="Helvetica" > 20</tspan></text>
	</g>
</g>
<g fill="none" color="black" stroke="currentColor" stroke-width="1.00" stroke-linecap="butt" stroke-linejoin="miter">
	<path stroke='black'  d='M71.9,479.9 L80.9,479.9  '/>	<g transform="translate(63.6,483.8)" stroke="none" fill="black" font-family="Helvetica" font-size="12.00"  text-anchor="end">
		<text><tspan font-family="Helvetica" > 30</tspan></text>
	</g>
</g>
<g fill="none" color="black" stroke="currentColor" stroke-width="1.00" stroke-linecap="butt" stroke-linejoin="miter">
	<path stroke='black'  d='M71.9,419.1 L80.9,419.1  '/>	<g transform="translate(63.6,423.0)" stroke="none" fill="black" font-family="Helvetica" font-size="12.00"  text-anchor="end">
		<text><tspan font-family="Helvetica" > 40</tspan></text>
	</g>
</g>
<g fill="none" color="black" stroke="currentColor" stroke-width="1.00" stroke-linecap="butt" stroke-linejoin="miter">
	<path stroke='black'  d='M71.9,358.2 L80.9,358.2  '/>	<g transform="translate(63.6,362.1)" stroke="none" fill="black" font-family="Helvetica" font-size="12.00"  text-anchor="end">
		<text><tspan font-family="Helvetica" > 50</tspan></text>
	</g>
</g>
<g fill="none" color="black" stroke="currentColor" stroke-width="1.00" stroke-linecap="butt" stroke-linejoin="miter">
	<path stroke='black'  d='M71.9,297.4 L80.9,297.4  '/>	<g transform="translate(63.6,301.3)" stroke="none" fill="black" font-family="Helvetica" font-size="12.00"  text-anchor="end">
		<text><tspan font-family="Helvetica" > 60</tspan></text>
	</g>
</g>
<g fill="none" color="black" stroke="currentColor" stroke-width="1.00" stroke-linecap="butt" stroke-linejoin="miter">
	<path stroke='black'  d='M71.9,236.6 L80.9,236.6  '/>	<g transform="translate(63.6,240.5)" stroke="none" fill="black" font-family="Helvetica" font-size="12.00"  text-anchor="end">
		<text><tspan font-family="Helvetica" > 70</tspan></text>
	</g>
</g>
<g fill="none" color="black" stroke="currentColor" stroke-width="1.00" stroke-linecap="butt" stroke-linejoin="miter">
	<path stroke='black'  d='M71.9,175.8 L80.9,175.8  '/>	<g transform="translate(63.6,179.7)" stroke="none" fill="black" font-family="Helvetica" font-size="12.00"  text-anchor="end">
		<text><tspan font-family="Helvetica" > 80</tspan></text>
	</g>
</g>
<g fill="none" color="black" stroke="currentColor" stroke-width="1.00" stroke-linecap="butt" stroke-linejoin="miter">
	<path stroke='black'  d='M71.9,114.9 L80.9,114.9  '/>	<g transform="translate(63.6,118.8)" stroke="none" fill="black" font-family="Helvetica" font-size="12.00"  text-anchor="end">
		<text><tspan font-family="Helvetica" > 90</tspan></text>
	</g>
</g>
<g fill="none" color="black" stroke="currentColor" stroke-width="1.00" stroke-linecap="butt" stroke-linejoin="miter">
	<path stroke='black'  d='M71.9,54.1 L80.9,54.1  '/>	<g transform="translate(63.6,58.0)" stroke="none" fill="black" font-family="Helvetica" font-size="12.00"  text-anchor="end">
		<text><tspan font-family="Helvetica" > 100</tspan></text>
	</g>
</g>
<g fill="none" color="black" stroke="currentColor" stroke-width="1.00" stroke-linecap="butt" stroke-linejoin="miter">
	<path stroke='black'  d='M286.6,662.4 L286.6,653.4  '/>	<g transform="translate(286.6,684.3)" stroke="none" fill="black" font-family="Helvetica" font-size="12.00"  text-anchor="middle">
		<text><tspan font-family="Helvetica" > 2.26</tspan></text>
	</g>
</g>
<g fill="none" color="black" stroke="currentColor" stroke-width="1.00" stroke-linecap="butt" stroke-linejoin="miter">
	<path stroke='black'  d='M513.4,662.4 L513.4,653.4  '/>	<g transform="translate(513.4,684.3)" stroke="none" fill="black" font-family="Helvetica" font-size="12.00"  text-anchor="middle">
		<text><tspan font-family="Helvetica" > 2.265</tspan></text>
	</g>
</g>
<g fill="none" color="black" stroke="currentColor" stroke-width="1.00" stroke-linecap="butt" stroke-linejoin="miter">
	<path stroke='black'  d='M740.1,662.4 L740.1,653.4  '/>	<g transform="translate(740.1,684.3)" stroke="none" fill="black" font-family="Helvetica" font-size="12.00"  text-anchor="middle">
		<text><tspan font-family="Helvetica" > 2.27</tspan></text>
	</g>
</g>
<g fill="none" color="black" stroke="currentColor" stroke-width="1.00" stroke-linecap="butt" stroke-linejoin="miter">
	<path stroke='black'  d='M966.9,662.4 L966.9,653.4  '/>	<g transform="translate(966.9,684.3)" stroke="none" fill="black" font-family="Helvetica" font-size="12.00"  text-anchor="middle">
		<text><tspan font-family="Helvetica" > 2.275</tspan></text>
	</g>
</g>
<g fill="none" color="black" stroke="currentColor" stroke-width="1.00" stroke-linecap="butt" stroke-linejoin="miter">
</g>
<g fill="none" color="black" stroke="currentColor" stroke-width="1.00" stroke-linecap="butt" stroke-linejoin="miter">
	<path stroke='black'  d='M71.9,54.1 L71.9,662.4 L1013.6,662.4 L1013.6,54.1 L71.9,54.1 Z  '/></g>
<g fill="none" color="black" stroke="currentColor" stroke-width="1.00" stroke-linecap="butt" stroke-linejoin="miter">
	<g transform="translate(17.0,358.3) rotate(270)" stroke="none" fill="black" font-family="Helvetica" font-size="12.00"  text-anchor="middle">
		<text><tspan font-family="Helvetica" >Density (a.u.)</tspan></text>
	</g>
</g>
<g fill="none" color="black" stroke="currentColor" stroke-width="1.00" stroke-linecap="butt" stroke-linejoin="miter">
	<g transform="translate(542.7,711.3)" stroke="none" fill="black" font-family="Helvetica" font-size="12.00"  text-anchor="middle">
		<text><tspan font-family="Helvetica" >Average time (ms)</tspan></text>
	</g>
</g>
<g fill="none" color="black" stroke="currentColor" stroke-width="1.00" stroke-linecap="butt" stroke-linejoin="miter">
	<g transform="translate(542.7,31.0)" stroke="none" fill="black" font-family="Helvetica" font-size="12.00"  text-anchor="middle">
		<text><tspan font-family="Helvetica" >language: tsx/parse error: bash/examples/doc-build.sh: mean</tspan></text>
	</g>
</g>
	<g id="gnuplot_plot_1" ><title>Bootstrap distribution</title>
<g fill="none" color="white" stroke="black" stroke-width="2.00" stroke-linecap="butt" stroke-linejoin="miter">
</g>
<g fill="none" color="black" stroke="currentColor" stroke-width="2.00" stroke-linecap="butt" stroke-linejoin="miter">
	<g transform="translate(1089.0,67.0)" stroke="none" fill="black" font-family="Helvetica" font-size="12.00"  text-anchor="start">
		<text><tspan font-family="Helvetica" >Bootstrap distribution</tspan></text>
	</g>
</g>
<g fill="none" color="black" stroke="currentColor" stroke-width="2.00" stroke-linecap="butt" stroke-linejoin="miter">
	<path stroke='rgb( 31, 120, 180)'  d='M1038.5,63.1 L1080.7,63.1 M71.9,633.4 L73.8,631.9 L75.7,630.4 L77.6,628.9 L79.4,627.4 L81.3,625.8
		L83.2,624.2 L85.1,622.5 L87.0,620.8 L88.9,619.1 L90.8,617.4 L92.7,615.6 L94.5,613.8 L96.4,612.0
		L98.3,610.2 L100.2,608.3 L102.1,606.3 L104.0,604.4 L105.9,602.3 L107.8,600.3 L109.6,598.1 L111.5,596.0
		L113.4,593.7 L115.3,591.4 L117.2,589.0 L119.1,586.6 L121.0,584.1 L122.9,581.5 L124.7,578.8 L126.6,576.1
		L128.5,573.3 L130.4,570.4 L132.3,567.4 L134.2,564.4 L136.1,561.3 L138.0,558.2 L139.8,555.0 L141.7,551.7
		L143.6,548.4 L145.5,545.0 L147.4,541.6 L149.3,538.2 L151.2,534.7 L153.0,531.2 L154.9,527.7 L156.8,524.2
		L158.7,520.7 L160.6,517.1 L162.5,513.6 L164.4,510.0 L166.3,506.5 L168.1,502.9 L170.0,499.3 L171.9,495.8
		L173.8,492.2 L175.7,488.6 L177.6,485.0 L179.5,481.4 L181.4,477.8 L183.2,474.2 L185.1,470.6 L187.0,467.0
		L188.9,463.3 L190.8,459.7 L192.7,456.0 L194.6,452.2 L196.5,448.5 L198.3,444.7 L200.2,440.9 L202.1,437.0
		L204.0,433.1 L205.9,429.2 L207.8,425.2 L209.7,421.2 L211.6,417.2 L213.4,413.2 L215.3,409.1 L217.2,405.0
		L219.1,400.9 L221.0,396.7 L222.9,392.6 L224.8,388.5 L226.6,384.3 L228.5,380.2 L230.4,376.1 L232.3,372.1
		L234.2,368.0 L236.1,364.0 L238.0,360.1 L239.9,356.1 L241.7,352.3 L243.6,348.4 L245.5,344.7 L247.4,340.9
		L249.3,337.3 L251.2,333.7 L253.1,330.1 L255.0,326.6 L256.8,323.1 L258.7,319.7 L260.6,316.3 L262.5,313.0
		L264.4,309.7 L266.3,306.5 L268.2,303.2 L270.1,300.0 L271.9,296.8 L273.8,293.7 L275.7,290.5 L277.6,287.4
		L279.5,284.2 L281.4,281.0 L283.3,277.9 L285.2,274.7 L287.0,271.5 L288.9,268.3 L290.8,265.0 L292.7,261.8
		L294.6,258.4 L296.5,255.1 L298.4,251.7 L300.2,248.2 L302.1,244.8 L304.0,241.2 L305.9,237.6 L307.8,234.0
		L309.7,230.3 L311.6,226.6 L313.5,222.9 L315.3,219.1 L317.2,215.3 L319.1,211.5 L321.0,207.6 L322.9,203.8
		L324.8,200.0 L326.7,196.3 L328.6,192.5 L330.4,188.8 L332.3,185.2 L334.2,181.7 L336.1,178.2 L338.0,174.9
		L339.9,171.6 L341.8,168.5 L343.7,165.5 L345.5,162.6 L347.4,159.9 L349.3,157.2 L351.2,154.7 L353.1,152.4
		L355.0,150.1 L356.9,148.0 L358.8,145.9 L360.6,144.0 L362.5,142.1 L364.4,140.3 L366.3,138.6 L368.2,136.9
		L370.1,135.3 L372.0,133.7 L373.8,132.1 L375.7,130.6 L377.6,129.0 L379.5,127.5 L381.4,125.9 L383.3,124.4
		L385.2,122.8 L387.1,121.3 L388.9,119.8 L390.8,118.3 L392.7,116.8 L394.6,115.4 L396.5,114.0 L398.4,112.6
		L400.3,111.3 L402.2,110.1 L404.0,108.9 L405.9,107.9 L407.8,106.9 L409.7,106.0 L411.6,105.2 L413.5,104.5
		L415.4,103.9 L417.3,103.4 L419.1,103.0 L421.0,102.6 L422.9,102.4 L424.8,102.2 L426.7,102.1 L428.6,102.1
		L430.5,102.1 L432.4,102.2 L434.2,102.3 L436.1,102.5 L438.0,102.7 L439.9,102.9 L441.8,103.1 L443.7,103.3
		L445.6,103.6 L447.4,103.8 L449.3,104.0 L451.2,104.3 L453.1,104.5 L455.0,104.7 L456.9,104.9 L458.8,105.1
		L460.7,105.3 L462.5,105.5 L464.4,105.8 L466.3,106.0 L468.2,106.3 L470.1,106.7 L472.0,107.1 L473.9,107.6
		L475.8,108.1 L477.6,108.7 L479.5,109.5 L481.4,110.3 L483.3,111.2 L485.2,112.3 L487.1,113.4 L489.0,114.7
		L490.9,116.1 L492.7,117.6 L494.6,119.2 L496.5,120.9 L498.4,122.7 L500.3,124.6 L502.2,126.6 L504.1,128.7
		L506.0,130.8 L507.8,133.0 L509.7,135.2 L511.6,137.5 L513.5,139.8 L515.4,142.1 L517.3,144.5 L519.2,146.9
		L521.0,149.3 L522.9,151.7 L524.8,154.1 L526.7,156.6 L528.6,159.1 L530.5,161.6 L532.4,164.1 L534.3,166.6
		L536.1,169.2 L538.0,171.8 L539.9,174.3 L541.8,176.9 L543.7,179.5 L545.6,182.1 L547.5,184.7 L549.4,187.3
		L551.2,189.9 L553.1,192.5 L555.0,195.0 L556.9,197.6 L558.8,200.1 L560.7,202.6 L562.6,205.0 L564.5,207.4
		L566.3,209.8 L568.2,212.1 L570.1,214.4 L572.0,216.6 L573.9,218.9 L575.8,221.1 L577.7,223.2 L579.5,225.4
		L581.4,227.5 L583.3,229.6 L585.2,231.7 L587.1,233.8 L589.0,235.9 L590.9,238.0 L592.8,240.1 L594.6,242.2
		L596.5,244.4 L598.4,246.6 L600.3,248.8 L602.2,251.0 L604.1,253.3 L606.0,255.7 L607.9,258.0 L609.7,260.4
		L611.6,262.9 L613.5,265.4 L615.4,267.9 L617.3,270.4 L619.2,273.0 L621.1,275.7 L623.0,278.3 L624.8,281.0
		L626.7,283.6 L628.6,286.3 L630.5,289.0 L632.4,291.8 L634.3,294.5 L636.2,297.2 L638.1,299.9 L639.9,302.6
		L641.8,305.3 L643.7,308.0 L645.6,310.6 L647.5,313.3 L649.4,315.9 L651.3,318.5 L653.1,321.1 L655.0,323.7
		L656.9,326.2 L658.8,328.8 L660.7,331.3 L662.6,333.9 L664.5,336.4 L666.4,338.9 L668.2,341.5 L670.1,344.0
		L672.0,346.6 L673.9,349.1 L675.8,351.7 L677.7,354.4 L679.6,357.0 L681.5,359.7 L683.3,362.3 L685.2,365.1
		L687.1,367.8 L689.0,370.6 L690.9,373.4 L692.8,376.2 L694.7,379.1 L696.6,381.9 L698.4,384.8 L700.3,387.7
		L702.2,390.6 L704.1,393.4 L706.0,396.3 L707.9,399.2 L709.8,402.1 L711.7,404.9 L713.5,407.7 L715.4,410.6
		L717.3,413.3 L719.2,416.1 L721.1,418.8 L723.0,421.5 L724.9,424.1 L726.7,426.7 L728.6,429.3 L730.5,431.9
		L732.4,434.4 L734.3,436.8 L736.2,439.3 L738.1,441.7 L740.0,444.0 L741.8,446.4 L743.7,448.7 L745.6,450.9
		L747.5,453.2 L749.4,455.4 L751.3,457.6 L753.2,459.8 L755.1,461.9 L756.9,464.0 L758.8,466.1 L760.7,468.2
		L762.6,470.3 L764.5,472.3 L766.4,474.3 L768.3,476.3 L770.2,478.3 L772.0,480.3 L773.9,482.2 L775.8,484.1
		L777.7,486.0 L779.6,487.9 L781.5,489.8 L783.4,491.7 L785.3,493.6 L787.1,495.4 L789.0,497.2 L790.9,499.1
		L792.8,500.9 L794.7,502.7 L796.6,504.4 L798.5,506.2 L800.3,507.9 L802.2,509.7 L804.1,511.4 L806.0,513.1
		L807.9,514.8 L809.8,516.4 L811.7,518.1 L813.6,519.7 L815.4,521.4 L817.3,523.0 L819.2,524.6 L821.1,526.2
		L823.0,527.7 L824.9,529.3 L826.8,530.9 L828.7,532.4 L830.5,534.0 L832.4,535.5 L834.3,537.0 L836.2,538.5
		L838.1,540.0 L840.0,541.5 L841.9,543.0 L843.8,544.5 L845.6,546.0 L847.5,547.5 L849.4,549.0 L851.3,550.4
		L853.2,551.9 L855.1,553.3 L857.0,554.8 L858.9,556.2 L860.7,557.6 L862.6,559.0 L864.5,560.4 L866.4,561.8
		L868.3,563.1 L870.2,564.5 L872.1,565.8 L873.9,567.1 L875.8,568.4 L877.7,569.7 L879.6,570.9 L881.5,572.2
		L883.4,573.4 L885.3,574.6 L887.2,575.8 L889.0,577.0 L890.9,578.1 L892.8,579.3 L894.7,580.4 L896.6,581.6
		L898.5,582.7 L900.4,583.8 L902.3,584.9 L904.1,586.0 L906.0,587.1 L907.9,588.2 L909.8,589.3 L911.7,590.4
		L913.6,591.5 L915.5,592.6 L917.4,593.7 L919.2,594.8 L921.1,595.8 L923.0,596.9 L924.9,598.0 L926.8,599.0
		L928.7,600.1 L930.6,601.1 L932.5,602.1 L934.3,603.1 L936.2,604.1 L938.1,605.1 L940.0,606.1 L941.9,607.0
		L943.8,608.0 L945.7,608.9 L947.5,609.8 L949.4,610.7 L951.3,611.5 L953.2,612.4 L955.1,613.2 L957.0,614.0
		L958.9,614.8 L960.8,615.5 L962.6,616.3 L964.5,617.0 L966.4,617.7 L968.3,618.3 L970.2,618.9 L972.1,619.5
		L974.0,620.1 L975.9,620.7 L977.7,621.2 L979.6,621.7 L981.5,622.2 L983.4,622.7 L985.3,623.2 L987.2,623.6
		L989.1,624.1 L991.0,624.5 L992.8,624.9 L994.7,625.4 L996.6,625.8 L998.5,626.2 L1000.4,626.7 L1002.3,627.1
		L1004.2,627.6 L1006.1,628.1 L1007.9,628.5 L1009.8,629.0 L1011.7,629.5 L1013.6,630.0  '/></g>
	</g>
	<g id="gnuplot_plot_2" ><title>Confidence interval</title>
<g fill="none" color="white" stroke="rgb( 31, 120, 180)" stroke-width="1.00" stroke-linecap="butt" stroke-linejoin="miter">
</g>
<g fill="none" color="black" stroke="currentColor" stroke-width="1.00" stroke-linecap="butt" stroke-linejoin="miter">
	<g transform="translate(1089.0,85.0)" stroke="none" fill="black" font-family="Helvetica" font-size="12.00"  text-anchor="start">
		<text><tspan font-family="Helvetica" >Confidence interval</tspan></text>
	</g>
</g>
<g fill="none" color="black" stroke="currentColor" stroke-width="1.00" stroke-linecap="butt" stroke-linejoin="miter">
	<g stroke='none' shape-rendering='crispEdges'>
		<polygon fill = 'rgb( 31, 120, 180)' fill-opacity = '0.250000' points = '1038.5,85.6 1080.7,85.6 1080.7,76.6 1038.5,76.6 '/>
		<polygon fill = 'rgb( 31, 120, 180)' fill-opacity = '0.250000' points = '158.7,520.7 158.7,662.4 160.6,662.4 160.6,517.1 '/>
		<polygon fill = 'rgb( 31, 120, 180)' fill-opacity = '0.250000' points = '160.6,517.1 160.6,662.4 162.5,662.4 162.5,513.6 '/>
		<polygon fill = 'rgb( 31, 120, 180)' fill-opacity = '0.250000' points = '162.5,513.6 162.5,662.4 164.4,662.4 164.4,510.0 '/>
		<polygon fill = 'rgb( 31, 120, 180)' fill-opacity = '0.250000' points = '164.4,510.0 164.4,662.4 166.3,662.4 166.3,506.5 '/>
		<polygon fill = 'rgb( 31, 120, 180)' fill-opacity = '0.250000' points = '166.3,506.5 166.3,662.4 168.1,662.4 168.1,502.9 '/>
		<polygon fill = 'rgb( 31, 120, 180)' fill-opacity = '0.250000' points = '168.1,502.9 168.1,662.4 170.0,662.4 170.0,499.3 '/>
		<polygon fill = 'rgb( 31, 120, 180)' fill-opacity = '0.250000' points = '170.0,499.3 170.0,662.4 171.9,662.4 171.9,495.8 '/>
		<polygon fill = 'rgb( 31, 120, 180)' fill-opacity = '0.250000' points = '171.9,495.8 171.9,662.4 173.8,662.4 173.8,492.2 '/>
		<polygon fill = 'rgb( 31, 120, 180)' fill-opacity = '0.250000' points = '173.8,492.2 173.8,662.4 175.7,662.4 175.7,488.6 '/>
		<polygon fill = 'rgb( 31, 120, 180)' fill-opacity = '0.250000' points = '175.7,488.6 175.7,662.4 177.6,662.4 177.6,485.0 '/>
		<polygon fill = 'rgb( 31, 120, 180)' fill-opacity = '0.250000' points = '177.6,485.0 177.6,662.4 179.5,662.4 179.5,481.4 '/>
		<polygon fill = 'rgb( 31, 120, 180)' fill-opacity = '0.250000' points = '179.5,481.4 179.5,662.4 181.4,662.4 181.4,477.8 '/>
		<polygon fill = 'rgb( 31, 120, 180)' fill-opacity = '0.250000' points = '181.4,477.8 181.4,662.4 183.2,662.4 183.2,474.2 '/>
		<polygon fill = 'rgb( 31, 120, 180)' fill-opacity = '0.250000' points = '183.2,474.2 183.2,662.4 185.1,662.4 185.1,470.6 '/>
		<polygon fill = 'rgb( 31, 120, 180)' fill-opacity = '0.250000' points = '185.1,470.6 185.1,662.4 187.0,662.4 187.0,467.0 '/>
		<polygon fill = 'rgb( 31, 120, 180)' fill-opacity = '0.250000' points = '187.0,467.0 187.0,662.4 188.9,662.4 188.9,463.3 '/>
		<polygon fill = 'rgb( 31, 120, 180)' fill-opacity = '0.250000' points = '188.9,463.3 188.9,662.4 190.8,662.4 190.8,459.7 '/>
		<polygon fill = 'rgb( 31, 120, 180)' fill-opacity = '0.250000' points = '190.8,459.7 190.8,662.4 192.7,662.4 192.7,456.0 '/>
		<polygon fill = 'rgb( 31, 120, 180)' fill-opacity = '0.250000' points = '192.7,456.0 192.7,662.4 194.6,662.4 194.6,452.2 '/>
		<polygon fill = 'rgb( 31, 120, 180)' fill-opacity = '0.250000' points = '194.6,452.2 194.6,662.4 196.5,662.4 196.5,448.5 '/>
		<polygon fill = 'rgb( 31, 120, 180)' fill-opacity = '0.250000' points = '196.5,448.5 196.5,662.4 198.3,662.4 198.3,444.7 '/>
		<polygon fill = 'rgb( 31, 120, 180)' fill-opacity = '0.250000' points = '198.3,444.7 198.3,662.4 200.2,662.4 200.2,440.9 '/>
		<polygon fill = 'rgb( 31, 120, 180)' fill-opacity = '0.250000' points = '200.2,440.9 200.2,662.4 202.1,662.4 202.1,437.0 '/>
		<polygon fill = 'rgb( 31, 120, 180)' fill-opacity = '0.250000' points = '202.1,437.0 202.1,662.4 204.0,662.4 204.0,433.1 '/>
		<polygon fill = 'rgb( 31, 120, 180)' fill-opacity = '0.250000' points = '204.0,433.1 204.0,662.4 205.9,662.4 205.9,429.2 '/>
		<polygon fill = 'rgb( 31, 120, 180)' fill-opacity = '0.250000' points = '205.9,429.2 205.9,662.4 207.8,662.4 207.8,425.2 '/>
		<polygon fill = 'rgb( 31, 120, 180)' fill-opacity = '0.250000' points = '207.8,425.2 207.8,662.4 209.7,662.4 209.7,421.2 '/>
		<polygon fill = 'rgb( 31, 120, 180)' fill-opacity = '0.250000' points = '209.7,421.2 209.7,662.4 211.6,662.4 211.6,417.2 '/>
		<polygon fill = 'rgb( 31, 120, 180)' fill-opacity = '0.250000' points = '211.6,417.2 211.6,662.4 213.4,662.4 213.4,413.2 '/>
		<polygon fill = 'rgb( 31, 120, 180)' fill-opacity = '0.250000' points = '213.4,413.2 213.4,662.4 215.3,662.4 215.3,409.1 '/>
		<polygon fill = 'rgb( 31, 120, 180)' fill-opacity = '0.250000' points = '215.3,409.1 215.3,662.4 217.2,662.4 217.2,405.0 '/>
		<polygon fill = 'rgb( 31, 120, 180)' fill-opacity = '0.250000' points = '217.2,405.0 217.2,662.4 219.1,662.4 219.1,400.9 '/>
		<polygon fill = 'rgb( 31, 120, 180)' fill-opacity = '0.250000' points = '219.1,400.9 219.1,662.4 221.0,662.4 221.0,396.7 '/>
		<polygon fill = 'rgb( 31, 120, 180)' fill-opacity = '0.250000' points = '221.0,396.7 221.0,662.4 222.9,662.4 222.9,392.6 '/>
		<polygon fill = 'rgb( 31, 120, 180)' fill-opacity = '0.250000' points = '222.9,392.6 222.9,662.4 224.8,662.4 224.8,388.5 '/>
		<polygon fill = 'rgb( 31, 120, 180)' fill-opacity = '0.250000' points = '224.8,388.5 224.8,662.4 226.6,662.4 226.6,384.3 '/>
		<polygon fill = 'rgb( 31, 120, 180)' fill-opacity = '0.250000' points = '226.6,384.3 226.6,662.4 228.5,662.4 228.5,380.2 '/>
		<polygon fill = 'rgb( 31, 120, 180)' fill-opacity = '0.250000' points = '228.5,380.2 228.5,662.4 230.4,662.4 230.4,376.1 '/>
		<polygon fill = 'rgb( 31, 120, 180)' fill-opacity = '0.250000' points = '230.4,376.1 230.4,662.4 232.3,662.4 232.3,372.1 '/>
		<polygon fill = 'rgb( 31, 120, 180)' fill-opacity = '0.250000' points = '232.3,372.1 232.3,662.4 234.2,662.4 234.2,368.0 '/>
		<polygon fill = 'rgb( 31, 120, 180)' fill-opacity = '0.250000' points = '234.2,368.0 234.2,662.4 236.1,662.4 236.1,364.0 '/>
		<polygon fill = 'rgb( 31, 120, 180)' fill-opacity = '0.250000' points = '236.1,364.0 236.1,662.4 238.0,662.4 238.0,360.1 '/>
		<polygon fill = 'rgb( 31, 120, 180)' fill-opacity = '0.250000' points = '238.0,360.1 238.0,662.4 239.9,662.4 239.9,356.1 '/>
		<polygon fill = 'rgb( 31, 120, 180)' fill-opacity = '0.250000' points = '239.9,356.1 239.9,662.4 241.7,662.4 241.7,352.3 '/>
		<polygon fill = 'rgb( 31, 120, 180)' fill-opacity = '0.250000' points = '241.7,352.3 241.7,662.4 243.6,662.4 243.6,348.4 '/>
		<polygon fill = 'rgb( 31, 120, 180)' fill-opacity = '0.250000' points = '243.6,348.4 243.6,662.4 245.5,662.4 245.5,344.7 '/>
		<polygon fill = 'rgb( 31, 120, 180)' fill-opacity = '0.250000' points = '245.5,344.7 245.5,662.4 247.4,662.4 247.4,340.9 '/>
		<polygon fill = 'rgb( 31, 120, 180)' fill-opacity = '0.250000' points = '247.4,340.9 247.4,662.4 249.3,662.4 249.3,337.3 '/>
		<polygon fill = 'rgb( 31, 120, 180)' fill-opacity = '0.250000' points = '249.3,337.3 249.3,662.4 251.2,662.4 251.2,333.7 '/>
		<polygon fill = 'rgb( 31, 120, 180)' fill-opacity = '0.250000' points = '251.2,333.7 251.2,662.4 253.1,662.4 253.1,330.1 '/>
		<polygon fill = 'rgb( 31, 120, 180)' fill-opacity = '0.250000' points = '253.1,330.1 253.1,662.4 255.0,662.4 255.0,326.6 '/>
		<polygon fill = 'rgb( 31, 120, 180)' fill-opacity = '0.250000' points = '255.0,326.6 255.0,662.4 256.8,662.4 256.8,323.1 '/>
		<polygon fill = 'rgb( 31, 120, 180)' fill-opacity = '0.250000' points = '256.8,323.1 256.8,662.4 258.7,662.4 258.7,319.7 '/>
		<polygon fill = 'rgb( 31, 120, 180)' fill-opacity = '0.250000' points = '258.7,319.7 258.7,662.4 260.6,662.4 260.6,316.3 '/>
		<polygon fill = 'rgb( 31, 120, 180)' fill-opacity = '0.250000' points = '260.6,316.3 260.6,662.4 262.5,662.4 262.5,313.0 '/>
		<polygon fill = 'rgb( 31, 120, 180)' fill-opacity = '0.250000' points = '262.5,313.0 262.5,662.4 264.4,662.4 264.4,309.7 '/>
		<polygon fill = 'rgb( 31, 120, 180)' fill-opacity = '0.250000' points = '264.4,309.7 264.4,662.4 266.3,662.4 266.3,306.5 '/>
		<polygon fill = 'rgb( 31, 120, 180)' fill-opacity = '0.250000' points = '266.3,306.5 266.3,662.4 268.2,662.4 268.2,303.2 '/>
		<polygon fill = 'rgb( 31, 120, 180)' fill-opacity = '0.250000' points = '268.2,303.2 268.2,662.4 270.1,662.4 270.1,300.0 '/>
		<polygon fill = 'rgb( 31, 120, 180)' fill-opacity = '0.250000' points = '270.1,300.0 270.1,662.4 271.9,662.4 271.9,296.8 '/>
		<polygon fill = 'rgb( 31, 120, 180)' fill-opacity = '0.250000' points = '271.9,296.8 271.9,662.4 273.8,662.4 273.8,293.7 '/>
		<polygon fill = 'rgb( 31, 120, 180)' fill-opacity = '0.250000' points = '273.8,293.7 273.8,662.4 275.7,662.4 275.7,290.5 '/>
		<polygon fill = 'rgb( 31, 120, 180)' fill-opacity = '0.250000' points = '275.7,290.5 275.7,662.4 277.6,662.4 277.6,287.4 '/>
		<polygon fill = 'rgb( 31, 120, 180)' fill-opacity = '0.250000' points = '277.6,287.4 277.6,662.4 279.5,662.4 279.5,284.2 '/>
		<polygon fill = 'rgb( 31, 120, 180)' fill-opacity = '0.250000' points = '279.5,284.2 279.5,662.4 281.4,662.4 281.4,281.0 '/>
		<polygon fill = 'rgb( 31, 120, 180)' fill-opacity = '0.250000' points = '281.4,281.0 281.4,662.4 283.3,662.4 283.3,277.9 '/>
		<polygon fill = 'rgb( 31, 120, 180)' fill-opacity = '0.250000' points = '283.3,277.9 283.3,662.4 285.2,662.4 285.2,274.7 '/>
		<polygon fill = 'rgb( 31, 120, 180)' fill-opacity = '0.250000' points = '285.2,274.7 285.2,662.4 287.0,662.4 287.0,271.5 '/>
		<polygon fill = 'rgb( 31, 120, 180)' fill-opacity = '0.250000' points = '287.0,271.5 287.0,662.4 288.9,662.4 288.9,268.3 '/>
		<polygon fill = 'rgb( 31, 120, 180)' fill-opacity = '0.250000' points = '288.9,268.3 288.9,662.4 290.8,662.4 290.8,265.0 '/>
		<polygon fill = 'rgb( 31, 120, 180)' fill-opacity = '0.250000' points = '290.8,265.0 290.8,662.4 292.7,662.4 292.7,261.8 '/>
		<polygon fill = 'rgb( 31, 120, 180)' fill-opacity = '0.250000' points = '292.7,261.8 292.7,662.4 294.6,662.4 294.6,258.4 '/>
		<polygon fill = 'rgb( 31, 120, 180)' fill-opacity = '0.250000' points = '294.6,258.4 294.6,662.4 296.5,662.4 296.5,255.1 '/>
		<polygon fill = 'rgb( 31, 120, 180)' fill-opacity = '0.250000' points = '296.5,255.1 296.5,662.4 298.4,662.4 298.4,251.7 '/>
		<polygon fill = 'rgb( 31, 120, 180)' fill-opacity = '0.250000' points = '298.4,251.7 298.4,662.4 300.2,662.4 300.2,248.2 '/>
		<polygon fill = 'rgb( 31, 120, 180)' fill-opacity = '0.250000' points = '300.2,248.2 300.2,662.4 302.1,662.4 302.1,244.8 '/>
		<polygon fill = 'rgb( 31, 120, 180)' fill-opacity = '0.250000' points = '302.1,244.8 302.1,662.4 304.0,662.4 304.0,241.2 '/>
		<polygon fill = 'rgb( 31, 120, 180)' fill-opacity = '0.250000' points = '304.0,241.2 304.0,662.4 305.9,662.4 305.9,237.6 '/>
		<polygon fill = 'rgb( 31, 120, 180)' fill-opacity = '0.250000' points = '305.9,237.6 305.9,662.4 307.8,662.4 307.8,234.0 '/>
		<polygon fill = 'rgb( 31, 120, 180)' fill-opacity = '0.250000' points = '307.8,234.0 307.8,662.4 309.7,662.4 309.7,230.3 '/>
		<polygon fill = 'rgb( 31, 120, 180)' fill-opacity = '0.250000' points = '309.7,230.3 309.7,662.4 311.6,662.4 311.6,226.6 '/>
		<polygon fill = 'rgb( 31, 120, 180)' fill-opacity = '0.250000' points = '311.6,226.6 311.6,662.4 313.5,662.4 313.5,222.9 '/>
		<polygon fill = 'rgb( 31, 120, 180)' fill-opacity = '0.250000' points = '313.5,222.9 313.5,662.4 315.3,662.4 315.3,219.1 '/>
		<polygon fill = 'rgb( 31, 120, 180)' fill-opacity = '0.250000' points = '315.3,219.1 315.3,662.4 317.2,662.4 317.2,215.3 '/>
		<polygon fill = 'rgb( 31, 120, 180)' fill-opacity = '0.250000' points = '317.2,215.3 317.2,662.4 319.1,662.4 319.1,211.5 '/>
		<polygon fill = 'rgb( 31, 120, 180)' fill-opacity = '0.250000' points = '319.1,211.5 319.1,662.4 321.0,662.4 321.0,207.6 '/>
		<polygon fill = 'rgb( 31, 120, 180)' fill-opacity = '0.250000' points = '321.0,207.6 321.0,662.4 322.9,662.4 322.9,203.8 '/>
		<polygon fill = 'rgb( 31, 120, 180)' fill-opacity = '0.250000' points = '322.9,203.8 322.9,662.4 324.8,662.4 324.8,200.0 '/>
		<polygon fill = 'rgb( 31, 120, 180)' fill-opacity = '0.250000' points = '324.8,200.0 324.8,662.4 326.7,662.4 326.7,196.3 '/>
		<polygon fill = 'rgb( 31, 120, 180)' fill-opacity = '0.250000' points = '326.7,196.3 326.7,662.4 328.6,662.4 328.6,192.5 '/>
		<polygon fill = 'rgb( 31, 120, 180)' fill-opacity = '0.250000' points = '328.6,192.5 328.6,662.4 330.4,662.4 330.4,188.8 '/>
		<polygon fill = 'rgb( 31, 120, 180)' fill-opacity = '0.250000' points = '330.4,188.8 330.4,662.4 332.3,662.4 332.3,185.2 '/>
		<polygon fill = 'rgb( 31, 120, 180)' fill-opacity = '0.250000' points = '332.3,185.2 332.3,662.4 334.2,662.4 334.2,181.7 '/>
		<polygon fill = 'rgb( 31, 120, 180)' fill-opacity = '0.250000' points = '334.2,181.7 334.2,662.4 336.1,662.4 336.1,178.2 '/>
		<polygon fill = 'rgb( 31, 120, 180)' fill-opacity = '0.250000' points = '336.1,178.2 336.1,662.4 338.0,662.4 338.0,174.9 '/>
		<polygon fill = 'rgb( 31, 120, 180)' fill-opacity = '0.250000' points = '338.0,174.9 338.0,662.4 339.9,662.4 339.9,171.6 '/>
		<polygon fill = 'rgb( 31, 120, 180)' fill-opacity = '0.250000' points = '339.9,171.6 339.9,662.4 341.8,662.4 341.8,168.5 '/>
		<polygon fill = 'rgb( 31, 120, 180)' fill-opacity = '0.250000' points = '341.8,168.5 341.8,662.4 343.7,662.4 343.7,165.5 '/>
		<polygon fill = 'rgb( 31, 120, 180)' fill-opacity = '0.250000' points = '343.7,165.5 343.7,662.4 345.5,662.4 345.5,162.6 '/>
		<polygon fill = 'rgb( 31, 120, 180)' fill-opacity = '0.250000' points = '345.5,162.6 345.5,662.4 347.4,662.4 347.4,159.9 '/>
		<polygon fill = 'rgb( 31, 120, 180)' fill-opacity = '0.250000' points = '347.4,159.9 347.4,662.4 349.3,662.4 349.3,157.2 '/>
		<polygon fill = 'rgb( 31, 120, 180)' fill-opacity = '0.250000' points = '349.3,157.2 349.3,662.4 351.2,662.4 351.2,154.7 '/>
		<polygon fill = 'rgb( 31, 120, 180)' fill-opacity = '0.250000' points = '351.2,154.7 351.2,662.4 353.1,662.4 353.1,152.4 '/>
		<polygon fill = 'rgb( 31, 120, 180)' fill-opacity = '0.250000' points = '353.1,152.4 353.1,662.4 355.0,662.4 355.0,150.1 '/>
		<polygon fill = 'rgb( 31, 120, 180)' fill-opacity = '0.250000' points = '355.0,150.1 355.0,662.4 356.9,662.4 356.9,148.0 '/>
		<polygon fill = 'rgb( 31, 120, 180)' fill-opacity = '0.250000' points = '356.9,148.0 356.9,662.4 358.8,662.4 358.8,145.9 '/>
		<polygon fill = 'rgb( 31, 120, 180)' fill-opacity = '0.250000' points = '358.8,145.9 358.8,662.4 360.6,662.4 360.6,144.0 '/>
		<polygon fill = 'rgb( 31, 120, 180)' fill-opacity = '0.250000' points = '360.6,144.0 360.6,662.4 362.5,662.4 362.5,142.1 '/>
		<polygon fill = 'rgb( 31, 120, 180)' fill-opacity = '0.250000' points = '362.5,142.1 362.5,662.4 364.4,662.4 364.4,140.3 '/>
		<polygon fill = 'rgb( 31, 120, 180)' fill-opacity = '0.250000' points = '364.4,140.3 364.4,662.4 366.3,662.4 366.3,138.6 '/>
		<polygon fill = 'rgb( 31, 120, 180)' fill-opacity = '0.250000' points = '366.3,138.6 366.3,662.4 368.2,662.4 368.2,136.9 '/>
		<polygon fill = 'rgb( 31, 120, 180)' fill-opacity = '0.250000' points = '368.2,136.9 368.2,662.4 370.1,662.4 370.1,135.3 '/>
		<polygon fill = 'rgb( 31, 120, 180)' fill-opacity = '0.250000' points = '370.1,135.3 370.1,662.4 372.0,662.4 372.0,133.7 '/>
		<polygon fill = 'rgb( 31, 120, 180)' fill-opacity = '0.250000' points = '372.0,133.7 372.0,662.4 373.8,662.4 373.8,132.1 '/>
		<polygon fill = 'rgb( 31, 120, 180)' fill-opacity = '0.250000' points = '373.8,132.1 373.8,662.4 375.7,662.4 375.7,130.6 '/>
		<polygon fill = 'rgb( 31, 120, 180)' fill-opacity = '0.250000' points = '375.7,130.6 375.7,662.4 377.6,662.4 377.6,129.0 '/>
		<polygon fill = 'rgb( 31, 120, 180)' fill-opacity = '0.250000' points = '377.6,129.0 377.6,662.4 379.5,662.4 379.5,127.5 '/>
		<polygon fill = 'rgb( 31, 120, 180)' fill-opacity = '0.250000' points = '379.5,127.5 379.5,662.4 381.4,662.4 381.4,125.9 '/>
		<polygon fill = 'rgb( 31, 120, 180)' fill-opacity = '0.250000' points = '381.4,125.9 381.4,662.4 383.3,662.4 383.3,124.4 '/>
		<polygon fill = 'rgb( 31, 120, 180)' fill-opacity = '0.250000' points = '383.3,124.4 383.3,662.4 385.2,662.4 385.2,122.8 '/>
		<polygon fill = 'rgb( 31, 120, 180)' fill-opacity = '0.250000' points = '385.2,122.8 385.2,662.4 387.1,662.4 387.1,121.3 '/>
		<polygon fill = 'rgb( 31, 120, 180)' fill-opacity = '0.250000' points = '387.1,121.3 387.1,662.4 388.9,662.4 388.9,119.8 '/>
		<polygon fill = 'rgb( 31, 120, 180)' fill-opacity = '0.250000' points = '388.9,119.8 388.9,662.4 390.8,662.4 390.8,118.3 '/>
		<polygon fill = 'rgb( 31, 120, 180)' fill-opacity = '0.250000' points = '390.8,118.3 390.8,662.4 392.7,662.4 392.7,116.8 '/>
		<polygon fill = 'rgb( 31, 120, 180)' fill-opacity = '0.250000' points = '392.7,116.8 392.7,662.4 394.6,662.4 394.6,115.4 '/>
		<polygon fill = 'rgb( 31, 120, 180)' fill-opacity = '0.250000' points = '394.6,115.4 394.6,662.4 396.5,662.4 396.5,114.0 '/>
		<polygon fill = 'rgb( 31, 120, 180)' fill-opacity = '0.250000' points = '396.5,114.0 396.5,662.4 398.4,662.4 398.4,112.6 '/>
		<polygon fill = 'rgb( 31, 120, 180)' fill-opacity = '0.250000' points = '398.4,112.6 398.4,662.4 400.3,662.4 400.3,111.3 '/>
		<polygon fill = 'rgb( 31, 120, 180)' fill-opacity = '0.250000' points = '400.3,111.3 400.3,662.4 402.2,662.4 402.2,110.1 '/>
		<polygon fill = 'rgb( 31, 120, 180)' fill-opacity = '0.250000' points = '402.2,110.1 402.2,662.4 404.0,662.4 404.0,108.9 '/>
		<polygon fill = 'rgb( 31, 120, 180)' fill-opacity = '0.250000' points = '404.0,108.9 404.0,662.4 405.9,662.4 405.9,107.9 '/>
		<polygon fill = 'rgb( 31, 120, 180)' fill-opacity = '0.250000' points = '405.9,107.9 405.9,662.4 407.8,662.4 407.8,106.9 '/>
		<polygon fill = 'rgb( 31, 120, 180)' fill-opacity = '0.250000' points = '407.8,106.9 407.8,662.4 409.7,662.4 409.7,106.0 '/>
		<polygon fill = 'rgb( 31, 120, 180)' fill-opacity = '0.250000' points = '409.7,106.0 409.7,662.4 411.6,662.4 411.6,105.2 '/>
		<polygon fill = 'rgb( 31, 120, 180)' fill-opacity = '0.250000' points = '411.6,105.2 411.6,662.4 413.5,662.4 413.5,104.5 '/>
		<polygon fill = 'rgb( 31, 120, 180)' fill-opacity = '0.250000' points = '413.5,104.5 413.5,662.4 415.4,662.4 415.4,103.9 '/>
		<polygon fill = 'rgb( 31, 120, 180)' fill-opacity = '0.250000' points = '415.4,103.9 415.4,662.4 417.3,662.4 417.3,103.4 '/>
		<polygon fill = 'rgb( 31, 120, 180)' fill-opacity = '0.250000' points = '417.3,103.4 417.3,662.4 419.1,662.4 419.1,103.0 '/>
		<polygon fill = 'rgb( 31, 120, 180)' fill-opacity = '0.250000' points = '419.1,103.0 419.1,662.4 421.0,662.4 421.0,102.6 '/>
		<polygon fill = 'rgb( 31, 120, 180)' fill-opacity = '0.250000' points = '421.0,102.6 421.0,662.4 422.9,662.4 422.9,102.4 '/>
		<polygon fill = 'rgb( 31, 120, 180)' fill-opacity = '0.250000' points = '422.9,102.4 422.9,662.4 424.8,662.4 424.8,102.2 '/>
		<polygon fill = 'rgb( 31, 120, 180)' fill-opacity = '0.250000' points = '424.8,102.2 424.8,662.4 426.7,662.4 426.7,102.1 '/>
		<polygon fill = 'rgb( 31, 120, 180)' fill-opacity = '0.250000' points = '426.7,102.1 426.7,662.4 428.6,662.4 428.6,102.1 '/>
		<polygon fill = 'rgb( 31, 120, 180)' fill-opacity = '0.250000' points = '428.6,102.1 428.6,662.4 430.5,662.4 430.5,102.1 '/>
		<polygon fill = 'rgb( 31, 120, 180)' fill-opacity = '0.250000' points = '430.5,102.1 430.5,662.4 432.4,662.4 432.4,102.2 '/>
		<polygon fill = 'rgb( 31, 120, 180)' fill-opacity = '0.250000' points = '432.4,102.2 432.4,662.4 434.2,662.4 434.2,102.3 '/>
		<polygon fill = 'rgb( 31, 120, 180)' fill-opacity = '0.250000' points = '434.2,102.3 434.2,662.4 436.1,662.4 436.1,102.5 '/>
		<polygon fill = 'rgb( 31, 120, 180)' fill-opacity = '0.250000' points = '436.1,102.5 436.1,662.4 438.0,662.4 438.0,102.7 '/>
		<polygon fill = 'rgb( 31, 120, 180)' fill-opacity = '0.250000' points = '438.0,102.7 438.0,662.4 439.9,662.4 439.9,102.9 '/>
		<polygon fill = 'rgb( 31, 120, 180)' fill-opacity = '0.250000' points = '439.9,102.9 439.9,662.4 441.8,662.4 441.8,103.1 '/>
		<polygon fill = 'rgb( 31, 120, 180)' fill-opacity = '0.250000' points = '441.8,103.1 441.8,662.4 443.7,662.4 443.7,103.3 '/>
		<polygon fill = 'rgb( 31, 120, 180)' fill-opacity = '0.250000' points = '443.7,103.3 443.7,662.4 445.6,662.4 445.6,103.6 '/>
		<polygon fill = 'rgb( 31, 120, 180)' fill-opacity = '0.250000' points = '445.6,103.6 445.6,662.4 447.4,662.4 447.4,103.8 '/>
		<polygon fill = 'rgb( 31, 120, 180)' fill-opacity = '0.250000' points = '447.4,103.8 447.4,662.4 449.3,662.4 449.3,104.0 '/>
		<polygon fill = 'rgb( 31, 120, 180)' fill-opacity = '0.250000' points = '449.3,104.0 449.3,662.4 451.2,662.4 451.2,104.3 '/>
		<polygon fill = 'rgb( 31, 120, 180)' fill-opacity = '0.250000' points = '451.2,104.3 451.2,662.4 453.1,662.4 453.1,104.5 '/>
		<polygon fill = 'rgb( 31, 120, 180)' fill-opacity = '0.250000' points = '453.1,104.5 453.1,662.4 455.0,662.4 455.0,104.7 '/>
		<polygon fill = 'rgb( 31, 120, 180)' fill-opacity = '0.250000' points = '455.0,104.7 455.0,662.4 456.9,662.4 456.9,104.9 '/>
		<polygon fill = 'rgb( 31, 120, 180)' fill-opacity = '0.250000' points = '456.9,104.9 456.9,662.4 458.8,662.4 458.8,105.1 '/>
		<polygon fill = 'rgb( 31, 120, 180)' fill-opacity = '0.250000' points = '458.8,105.1 458.8,662.4 460.7,662.4 460.7,105.3 '/>
		<polygon fill = 'rgb( 31, 120, 180)' fill-opacity = '0.250000' points = '460.7,105.3 460.7,662.4 462.5,662.4 462.5,105.5 '/>
		<polygon fill = 'rgb( 31, 120, 180)' fill-opacity = '0.250000' points = '462.5,105.5 462.5,662.4 464.4,662.4 464.4,105.8 '/>
		<polygon fill = 'rgb( 31, 120, 180)' fill-opacity = '0.250000' points = '464.4,105.8 464.4,662.4 466.3,662.4 466.3,106.0 '/>
		<polygon fill = 'rgb( 31, 120, 180)' fill-opacity = '0.250000' points = '466.3,106.0 466.3,662.4 468.2,662.4 468.2,106.3 '/>
		<polygon fill = 'rgb( 31, 120, 180)' fill-opacity = '0.250000' points = '468.2,106.3 468.2,662.4 470.1,662.4 470.1,106.7 '/>
		<polygon fill = 'rgb( 31, 120, 180)' fill-opacity = '0.250000' points = '470.1,106.7 470.1,662.4 472.0,662.4 472.0,107.1 '/>
		<polygon fill = 'rgb( 31, 120, 180)' fill-opacity = '0.250000' points = '472.0,107.1 472.0,662.4 473.9,662.4 473.9,107.6 '/>
		<polygon fill = 'rgb( 31, 120, 180)' fill-opacity = '0.250000' points = '473.9,107.6 473.9,662.4 475.8,662.4 475.8,108.1 '/>
		<polygon fill = 'rgb( 31, 120, 180)' fill-opacity = '0.250000' points = '475.8,108.1 475.8,662.4 477.6,662.4 477.6,108.7 '/>
		<polygon fill = 'rgb( 31, 120, 180)' fill-opacity = '0.250000' points = '477.6,108.7 477.6,662.4 479.5,662.4 479.5,109.5 '/>
		<polygon fill = 'rgb( 31, 120, 180)' fill-opacity = '0.250000' points = '479.5,109.5 479.5,662.4 481.4,662.4 481.4,110.3 '/>
		<polygon fill = 'rgb( 31, 120, 180)' fill-opacity = '0.250000' points = '481.4,110.3 481.4,662.4 483.3,662.4 483.3,111.2 '/>
		<polygon fill = 'rgb( 31, 120, 180)' fill-opacity = '0.250000' points = '483.3,111.2 483.3,662.4 485.2,662.4 485.2,112.3 '/>
		<polygon fill = 'rgb( 31, 120, 180)' fill-opacity = '0.250000' points = '485.2,112.3 485.2,662.4 487.1,662.4 487.1,113.4 '/>
		<polygon fill = 'rgb( 31, 120, 180)' fill-opacity = '0.250000' points = '487.1,113.4 487.1,662.4 489.0,662.4 489.0,114.7 '/>
		<polygon fill = 'rgb( 31, 120, 180)' fill-opacity = '0.250000' points = '489.0,114.7 489.0,662.4 490.9,662.4 490.9,116.1 '/>
		<polygon fill = 'rgb( 31, 120, 180)' fill-opacity = '0.250000' points = '490.9,116.1 490.9,662.4 492.7,662.4 492.7,117.6 '/>
		<polygon fill = 'rgb( 31, 120, 180)' fill-opacity = '0.250000' points = '492.7,117.6 492.7,662.4 494.6,662.4 494.6,119.2 '/>
		<polygon fill = 'rgb( 31, 120, 180)' fill-opacity = '0.250000' points = '494.6,119.2 494.6,662.4 496.5,662.4 496.5,120.9 '/>
		<polygon fill = 'rgb( 31, 120, 180)' fill-opacity = '0.250000' points = '496.5,120.9 496.5,662.4 498.4,662.4 498.4,122.7 '/>
		<polygon fill = 'rgb( 31, 120, 180)' fill-opacity = '0.250000' points = '498.4,122.7 498.4,662.4 500.3,662.4 500.3,124.6 '/>
		<polygon fill = 'rgb( 31, 120, 180)' fill-opacity = '0.250000' points = '500.3,124.6 500.3,662.4 502.2,662.4 502.2,126.6 '/>
		<polygon fill = 'rgb( 31, 120, 180)' fill-opacity = '0.250000' points = '502.2,126.6 502.2,662.4 504.1,662.4 504.1,128.7 '/>
		<polygon fill = 'rgb( 31, 120, 180)' fill-opacity = '0.250000' points = '504.1,128.7 504.1,662.4 506.0,662.4 506.0,130.8 '/>
		<polygon fill = 'rgb( 31, 120, 180)' fill-opacity = '0.250000' points = '506.0,130.8 506.0,662.4 507.8,662.4 507.8,133.0 '/>
		<polygon fill = 'rgb( 31, 120, 180)' fill-opacity = '0.250000' points = '507.8,133.0 507.8,662.4 509.7,662.4 509.7,135.2 '/>
		<polygon fill = 'rgb( 31, 120, 180)' fill-opacity = '0.250000' points = '509.7,135.2 509.7,662.4 511.6,662.4 511.6,137.5 '/>
		<polygon fill = 'rgb( 31, 120, 180)' fill-opacity = '0.250000' points = '511.6,137.5 511.6,662.4 513.5,662.4 513.5,139.8 '/>
		<polygon fill = 'rgb( 31, 120, 180)' fill-opacity = '0.250000' points = '513.5,139.8 513.5,662.4 515.4,662.4 515.4,142.1 '/>
		<polygon fill = 'rgb( 31, 120, 180)' fill-opacity = '0.250000' points = '515.4,142.1 515.4,662.4 517.3,662.4 517.3,144.5 '/>
		<polygon fill = 'rgb( 31, 120, 180)' fill-opacity = '0.250000' points = '517.3,144.5 517.3,662.4 519.2,662.4 519.2,146.9 '/>
		<polygon fill = 'rgb( 31, 120, 180)' fill-opacity = '0.250000' points = '519.2,146.9 519.2,662.4 521.0,662.4 521.0,149.3 '/>
		<polygon fill = 'rgb( 31, 120, 180)' fill-opacity = '0.250000' points = '521.0,149.3 521.0,662.4 522.9,662.4 522.9,151.7 '/>
		<polygon fill = 'rgb( 31, 120, 180)' fill-opacity = '0.250000' points = '522.9,151.7 522.9,662.4 524.8,662.4 524.8,154.1 '/>
		<polygon fill = 'rgb( 31, 120, 180)' fill-opacity = '0.250000' points = '524.8,154.1 524.8,662.4 526.7,662.4 526.7,156.6 '/>
		<polygon fill = 'rgb( 31, 120, 180)' fill-opacity = '0.250000' points = '526.7,156.6 526.7,662.4 528.6,662.4 528.6,159.1 '/>
		<polygon fill = 'rgb( 31, 120, 180)' fill-opacity = '0.250000' points = '528.6,159.1 528.6,662.4 530.5,662.4 530.5,161.6 '/>
		<polygon fill = 'rgb( 31, 120, 180)' fill-opacity = '0.250000' points = '530.5,161.6 530.5,662.4 532.4,662.4 532.4,164.1 '/>
		<polygon fill = 'rgb( 31, 120, 180)' fill-opacity = '0.250000' points = '532.4,164.1 532.4,662.4 534.3,662.4 534.3,166.6 '/>
		<polygon fill = 'rgb( 31, 120, 180)' fill-opacity = '0.250000' points = '534.3,166.6 534.3,662.4 536.1,662.4 536.1,169.2 '/>
		<polygon fill = 'rgb( 31, 120, 180)' fill-opacity = '0.250000' points = '536.1,169.2 536.1,662.4 538.0,662.4 538.0,171.8 '/>
		<polygon fill = 'rgb( 31, 120, 180)' fill-opacity = '0.250000' points = '538.0,171.8 538.0,662.4 539.9,662.4 539.9,174.3 '/>
		<polygon fill = 'rgb( 31, 120, 180)' fill-opacity = '0.250000' points = '539.9,174.3 539.9,662.4 541.8,662.4 541.8,176.9 '/>
		<polygon fill = 'rgb( 31, 120, 180)' fill-opacity = '0.250000' points = '541.8,176.9 541.8,662.4 543.7,662.4 543.7,179.5 '/>
		<polygon fill = 'rgb( 31, 120, 180)' fill-opacity = '0.250000' points = '543.7,179.5 543.7,662.4 545.6,662.4 545.6,182.1 '/>
		<polygon fill = 'rgb( 31, 120, 180)' fill-opacity = '0.250000' points = '545.6,182.1 545.6,662.4 547.5,662.4 547.5,184.7 '/>
		<polygon fill = 'rgb( 31, 120, 180)' fill-opacity = '0.250000' points = '547.5,184.7 547.5,662.4 549.4,662.4 549.4,187.3 '/>
		<polygon fill = 'rgb( 31, 120, 180)' fill-opacity = '0.250000' points = '549.4,187.3 549.4,662.4 551.2,662.4 551.2,189.9 '/>
		<polygon fill = 'rgb( 31, 120, 180)' fill-opacity = '0.250000' points = '551.2,189.9 551.2,662.4 553.1,662.4 553.1,192.5 '/>
		<polygon fill = 'rgb( 31, 120, 180)' fill-opacity = '0.250000' points = '553.1,192.5 553.1,662.4 555.0,662.4 555.0,195.0 '/>
		<polygon fill = 'rgb( 31, 120, 180)' fill-opacity = '0.250000' points = '555.0,195.0 555.0,662.4 556.9,662.4 556.9,197.6 '/>
		<polygon fill = 'rgb( 31, 120, 180)' fill-opacity = '0.250000' points = '556.9,197.6 556.9,662.4 558.8,662.4 558.8,200.1 '/>
		<polygon fill = 'rgb( 31, 120, 180)' fill-opacity = '0.250000' points = '558.8,200.1 558.8,662.4 560.7,662.4 560.7,202.6 '/>
		<polygon fill = 'rgb( 31, 120, 180)' fill-opacity = '0.250000' points = '560.7,202.6 560.7,662.4 562.6,662.4 562.6,205.0 '/>
		<polygon fill = 'rgb( 31, 120, 180)' fill-opacity = '0.250000' points = '562.6,205.0 562.6,662.4 564.5,662.4 564.5,207.4 '/>
		<polygon fill = 'rgb( 31, 120, 180)' fill-opacity = '0.250000' points = '564.5,207.4 564.5,662.4 566.3,662.4 566.3,209.8 '/>
		<polygon fill = 'rgb( 31, 120, 180)' fill-opacity = '0.250000' points = '566.3,209.8 566.3,662.4 568.2,662.4 568.2,212.1 '/>
		<polygon fill = 'rgb( 31, 120, 180)' fill-opacity = '0.250000' points = '568.2,212.1 568.2,662.4 570.1,662.4 570.1,214.4 '/>
		<polygon fill = 'rgb( 31, 120, 180)' fill-opacity = '0.250000' points = '570.1,214.4 570.1,662.4 572.0,662.4 572.0,216.6 '/>
		<polygon fill = 'rgb( 31, 120, 180)' fill-opacity = '0.250000' points = '572.0,216.6 572.0,662.4 573.9,662.4 573.9,218.9 '/>
		<polygon fill = 'rgb( 31, 120, 180)' fill-opacity = '0.250000' points = '573.9,218.9 573.9,662.4 575.8,662.4 575.8,221.1 '/>
		<polygon fill = 'rgb( 31, 120, 180)' fill-opacity = '0.250000' points = '575.8,221.1 575.8,662.4 577.7,662.4 577.7,223.2 '/>
		<polygon fill = 'rgb( 31, 120, 180)' fill-opacity = '0.250000' points = '577.7,223.2 577.7,662.4 579.5,662.4 579.5,225.4 '/>
		<polygon fill = 'rgb( 31, 120, 180)' fill-opacity = '0.250000' points = '579.5,225.4 579.5,662.4 581.4,662.4 581.4,227.5 '/>
		<polygon fill = 'rgb( 31, 120, 180)' fill-opacity = '0.250000' points = '581.4,227.5 581.4,662.4 583.3,662.4 583.3,229.6 '/>
		<polygon fill = 'rgb( 31, 120, 180)' fill-opacity = '0.250000' points = '583.3,229.6 583.3,662.4 585.2,662.4 585.2,231.7 '/>
		<polygon fill = 'rgb( 31, 120, 180)' fill-opacity = '0.250000' points = '585.2,231.7 585.2,662.4 587.1,662.4 587.1,233.8 '/>
		<polygon fill = 'rgb( 31, 120, 180)' fill-opacity = '0.250000' points = '587.1,233.8 587.1,662.4 589.0,662.4 589.0,235.9 '/>
		<polygon fill = 'rgb( 31, 120, 180)' fill-opacity = '0.250000' points = '589.0,235.9 589.0,662.4 590.9,662.4 590.9,238.0 '/>
		<polygon fill = 'rgb( 31, 120, 180)' fill-opacity = '0.250000' points = '590.9,238.0 590.9,662.4 592.8,662.4 592.8,240.1 '/>
		<polygon fill = 'rgb( 31, 120, 180)' fill-opacity = '0.250000' points = '592.8,240.1 592.8,662.4 594.6,662.4 594.6,242.2 '/>
		<polygon fill = 'rgb( 31, 120, 180)' fill-opacity = '0.250000' points = '594.6,242.2 594.6,662.4 596.5,662.4 596.5,244.4 '/>
		<polygon fill = 'rgb( 31, 120, 180)' fill-opacity = '0.250000' points = '596.5,244.4 596.5,662.4 598.4,662.4 598.4,246.6 '/>
		<polygon fill = 'rgb( 31, 120, 180)' fill-opacity = '0.250000' points = '598.4,246.6 598.4,662.4 600.3,662.4 600.3,248.8 '/>
		<polygon fill = 'rgb( 31, 120, 180)' fill-opacity = '0.250000' points = '600.3,248.8 600.3,662.4 602.2,662.4 602.2,251.0 '/>
		<polygon fill = 'rgb( 31, 120, 180)' fill-opacity = '0.250000' points = '602.2,251.0 602.2,662.4 604.1,662.4 604.1,253.3 '/>
		<polygon fill = 'rgb( 31, 120, 180)' fill-opacity = '0.250000' points = '604.1,253.3 604.1,662.4 606.0,662.4 606.0,255.7 '/>
		<polygon fill = 'rgb( 31, 120, 180)' fill-opacity = '0.250000' points = '606.0,255.7 606.0,662.4 607.9,662.4 607.9,258.0 '/>
		<polygon fill = 'rgb( 31, 120, 180)' fill-opacity = '0.250000' points = '607.9,258.0 607.9,662.4 609.7,662.4 609.7,260.4 '/>
		<polygon fill = 'rgb( 31, 120, 180)' fill-opacity = '0.250000' points = '609.7,260.4 609.7,662.4 611.6,662.4 611.6,262.9 '/>
		<polygon fill = 'rgb( 31, 120, 180)' fill-opacity = '0.250000' points = '611.6,262.9 611.6,662.4 613.5,662.4 613.5,265.4 '/>
		<polygon fill = 'rgb( 31, 120, 180)' fill-opacity = '0.250000' points = '613.5,265.4 613.5,662.4 615.4,662.4 615.4,267.9 '/>
		<polygon fill = 'rgb( 31, 120, 180)' fill-opacity = '0.250000' points = '615.4,267.9 615.4,662.4 617.3,662.4 617.3,270.4 '/>
		<polygon fill = 'rgb( 31, 120, 180)' fill-opacity = '0.250000' points = '617.3,270.4 617.3,662.4 619.2,662.4 619.2,273.0 '/>
		<polygon fill = 'rgb( 31, 120, 180)' fill-opacity = '0.250000' points = '619.2,273.0 619.2,662.4 621.1,662.4 621.1,275.7 '/>
		<polygon fill = 'rgb( 31, 120, 180)' fill-opacity = '0.250000' points = '621.1,275.7 621.1,662.4 623.0,662.4 623.0,278.3 '/>
		<polygon fill = 'rgb( 31, 120, 180)' fill-opacity = '0.250000' points = '623.0,278.3 623.0,662.4 624.8,662.4 624.8,281.0 '/>
		<polygon fill = 'rgb( 31, 120, 180)' fill-opacity = '0.250000' points = '624.8,281.0 624.8,662.4 626.7,662.4 626.7,283.6 '/>
		<polygon fill = 'rgb( 31, 120, 180)' fill-opacity = '0.250000' points = '626.7,283.6 626.7,662.4 628.6,662.4 628.6,286.3 '/>
		<polygon fill = 'rgb( 31, 120, 180)' fill-opacity = '0.250000' points = '628.6,286.3 628.6,662.4 630.5,662.4 630.5,289.0 '/>
		<polygon fill = 'rgb( 31, 120, 180)' fill-opacity = '0.250000' points = '630.5,289.0 630.5,662.4 632.4,662.4 632.4,291.8 '/>
		<polygon fill = 'rgb( 31, 120, 180)' fill-opacity = '0.250000' points = '632.4,291.8 632.4,662.4 634.3,662.4 634.3,294.5 '/>
		<polygon fill = 'rgb( 31, 120, 180)' fill-opacity = '0.250000' points = '634.3,294.5 634.3,662.4 636.2,662.4 636.2,297.2 '/>
		<polygon fill = 'rgb( 31, 120, 180)' fill-opacity = '0.250000' points = '636.2,297.2 636.2,662.4 638.1,662.4 638.1,299.9 '/>
		<polygon fill = 'rgb( 31, 120, 180)' fill-opacity = '0.250000' points = '638.1,299.9 638.1,662.4 639.9,662.4 639.9,302.6 '/>
		<polygon fill = 'rgb( 31, 120, 180)' fill-opacity = '0.250000' points = '639.9,302.6 639.9,662.4 641.8,662.4 641.8,305.3 '/>
		<polygon fill = 'rgb( 31, 120, 180)' fill-opacity = '0.250000' points = '641.8,305.3 641.8,662.4 643.7,662.4 643.7,308.0 '/>
		<polygon fill = 'rgb( 31, 120, 180)' fill-opacity = '0.250000' points = '643.7,308.0 643.7,662.4 645.6,662.4 645.6,310.6 '/>
		<polygon fill = 'rgb( 31, 120, 180)' fill-opacity = '0.250000' points = '645.6,310.6 645.6,662.4 647.5,662.4 647.5,313.3 '/>
		<polygon fill = 'rgb( 31, 120, 180)' fill-opacity = '0.250000' points = '647.5,313.3 647.5,662.4 649.4,662.4 649.4,315.9 '/>
		<polygon fill = 'rgb( 31, 120, 180)' fill-opacity = '0.250000' points = '649.4,315.9 649.4,662.4 651.3,662.4 651.3,318.5 '/>
		<polygon fill = 'rgb( 31, 120, 180)' fill-opacity = '0.250000' points = '651.3,318.5 651.3,662.4 653.1,662.4 653.1,321.1 '/>
		<polygon fill = 'rgb( 31, 120, 180)' fill-opacity = '0.250000' points = '653.1,321.1 653.1,662.4 655.0,662.4 655.0,323.7 '/>
		<polygon fill = 'rgb( 31, 120, 180)' fill-opacity = '0.250000' points = '655.0,323.7 655.0,662.4 656.9,662.4 656.9,326.2 '/>
		<polygon fill = 'rgb( 31, 120, 180)' fill-opacity = '0.250000' points = '656.9,326.2 656.9,662.4 658.8,662.4 658.8,328.8 '/>
		<polygon fill = 'rgb( 31, 120, 180)' fill-opacity = '0.250000' points = '658.8,328.8 658.8,662.4 660.7,662.4 660.7,331.3 '/>
		<polygon fill = 'rgb( 31, 120, 180)' fill-opacity = '0.250000' points = '660.7,331.3 660.7,662.4 662.6,662.4 662.6,333.9 '/>
		<polygon fill = 'rgb( 31, 120, 180)' fill-opacity = '0.250000' points = '662.6,333.9 662.6,662.4 664.5,662.4 664.5,336.4 '/>
		<polygon fill = 'rgb( 31, 120, 180)' fill-opacity = '0.250000' points = '664.5,336.4 664.5,662.4 666.4,662.4 666.4,338.9 '/>
		<polygon fill = 'rgb( 31, 120, 180)' fill-opacity = '0.250000' points = '666.4,338.9 666.4,662.4 668.2,662.4 668.2,341.5 '/>
		<polygon fill = 'rgb( 31, 120, 180)' fill-opacity = '0.250000' points = '668.2,341.5 668.2,662.4 670.1,662.4 670.1,344.0 '/>
		<polygon fill = 'rgb( 31, 120, 180)' fill-opacity = '0.250000' points = '670.1,344.0 670.1,662.4 672.0,662.4 672.0,346.6 '/>
		<polygon fill = 'rgb( 31, 120, 180)' fill-opacity = '0.250000' points = '672.0,346.6 672.0,662.4 673.9,662.4 673.9,349.1 '/>
		<polygon fill = 'rgb( 31, 120, 180)' fill-opacity = '0.250000' points = '673.9,349.1 673.9,662.4 675.8,662.4 675.8,351.7 '/>
		<polygon fill = 'rgb( 31, 120, 180)' fill-opacity = '0.250000' points = '675.8,351.7 675.8,662.4 677.7,662.4 677.7,354.4 '/>
		<polygon fill = 'rgb( 31, 120, 180)' fill-opacity = '0.250000' points = '677.7,354.4 677.7,662.4 679.6,662.4 679.6,357.0 '/>
		<polygon fill = 'rgb( 31, 120, 180)' fill-opacity = '0.250000' points = '679.6,357.0 679.6,662.4 681.5,662.4 681.5,359.7 '/>
		<polygon fill = 'rgb( 31, 120, 180)' fill-opacity = '0.250000' points = '681.5,359.7 681.5,662.4 683.3,662.4 683.3,362.3 '/>
		<polygon fill = 'rgb( 31, 120, 180)' fill-opacity = '0.250000' points = '683.3,362.3 683.3,662.4 685.2,662.4 685.2,365.1 '/>
		<polygon fill = 'rgb( 31, 120, 180)' fill-opacity = '0.250000' points = '685.2,365.1 685.2,662.4 687.1,662.4 687.1,367.8 '/>
		<polygon fill = 'rgb( 31, 120, 180)' fill-opacity = '0.250000' points = '687.1,367.8 687.1,662.4 689.0,662.4 689.0,370.6 '/>
		<polygon fill = 'rgb( 31, 120, 180)' fill-opacity = '0.250000' points = '689.0,370.6 689.0,662.4 690.9,662.4 690.9,373.4 '/>
		<polygon fill = 'rgb( 31, 120, 180)' fill-opacity = '0.250000' points = '690.9,373.4 690.9,662.4 692.8,662.4 692.8,376.2 '/>
		<polygon fill = 'rgb( 31, 120, 180)' fill-opacity = '0.250000' points = '692.8,376.2 692.8,662.4 694.7,662.4 694.7,379.1 '/>
		<polygon fill = 'rgb( 31, 120, 180)' fill-opacity = '0.250000' points = '694.7,379.1 694.7,662.4 696.6,662.4 696.6,381.9 '/>
		<polygon fill = 'rgb( 31, 120, 180)' fill-opacity = '0.250000' points = '696.6,381.9 696.6,662.4 698.4,662.4 698.4,384.8 '/>
		<polygon fill = 'rgb( 31, 120, 180)' fill-opacity = '0.250000' points = '698.4,384.8 698.4,662.4 700.3,662.4 700.3,387.7 '/>
		<polygon fill = 'rgb( 31, 120, 180)' fill-opacity = '0.250000' points = '700.3,387.7 700.3,662.4 702.2,662.4 702.2,390.6 '/>
		<polygon fill = 'rgb( 31, 120, 180)' fill-opacity = '0.250000' points = '702.2,390.6 702.2,662.4 704.1,662.4 704.1,393.4 '/>
		<polygon fill = 'rgb( 31, 120, 180)' fill-opacity = '0.250000' points = '704.1,393.4 704.1,662.4 706.0,662.4 706.0,396.3 '/>
		<polygon fill = 'rgb( 31, 120, 180)' fill-opacity = '0.250000' points = '706.0,396.3 706.0,662.4 707.9,662.4 707.9,399.2 '/>
		<polygon fill = 'rgb( 31, 120, 180)' fill-opacity = '0.250000' points = '707.9,399.2 707.9,662.4 709.8,662.4 709.8,402.1 '/>
		<polygon fill = 'rgb( 31, 120, 180)' fill-opacity = '0.250000' points = '709.8,402.1 709.8,662.4 711.7,662.4 711.7,404.9 '/>
		<polygon fill = 'rgb( 31, 120, 180)' fill-opacity = '0.250000' points = '711.7,404.9 711.7,662.4 713.5,662.4 713.5,407.7 '/>
		<polygon fill = 'rgb( 31, 120, 180)' fill-opacity = '0.250000' points = '713.5,407.7 713.5,662.4 715.4,662.4 715.4,410.6 '/>
		<polygon fill = 'rgb( 31, 120, 180)' fill-opacity = '0.250000' points = '715.4,410.6 715.4,662.4 717.3,662.4 717.3,413.3 '/>
		<polygon fill = 'rgb( 31, 120, 180)' fill-opacity = '0.250000' points = '717.3,413.3 717.3,662.4 719.2,662.4 719.2,416.1 '/>
		<polygon fill = 'rgb( 31, 120, 180)' fill-opacity = '0.250000' points = '719.2,416.1 719.2,662.4 721.1,662.4 721.1,418.8 '/>
		<polygon fill = 'rgb( 31, 120, 180)' fill-opacity = '0.250000' points = '721.1,418.8 721.1,662.4 723.0,662.4 723.0,421.5 '/>
		<polygon fill = 'rgb( 31, 120, 180)' fill-opacity = '0.250000' points = '723.0,421.5 723.0,662.4 724.9,662.4 724.9,424.1 '/>
		<polygon fill = 'rgb( 31, 120, 180)' fill-opacity = '0.250000' points = '724.9,424.1 724.9,662.4 726.7,662.4 726.7,426.7 '/>
		<polygon fill = 'rgb( 31, 120, 180)' fill-opacity = '0.250000' points = '726.7,426.7 726.7,662.4 728.6,662.4 728.6,429.3 '/>
		<polygon fill = 'rgb( 31, 120, 180)' fill-opacity = '0.250000' points = '728.6,429.3 728.6,662.4 730.5,662.4 730.5,431.9 '/>
		<polygon fill = 'rgb( 31, 120, 180)' fill-opacity = '0.250000' points = '730.5,431.9 730.5,662.4 732.4,662.4 732.4,434.4 '/>
		<polygon fill = 'rgb( 31, 120, 180)' fill-opacity = '0.250000' points = '732.4,434.4 732.4,662.4 734.3,662.4 734.3,436.8 '/>
		<polygon fill = 'rgb( 31, 120, 180)' fill-opacity = '0.250000' points = '734.3,436.8 734.3,662.4 736.2,662.4 736.2,439.3 '/>
		<polygon fill = 'rgb( 31, 120, 180)' fill-opacity = '0.250000' points = '736.2,439.3 736.2,662.4 738.1,662.4 738.1,441.7 '/>
		<polygon fill = 'rgb( 31, 120, 180)' fill-opacity = '0.250000' points = '738.1,441.7 738.1,662.4 740.0,662.4 740.0,444.0 '/>
		<polygon fill = 'rgb( 31, 120, 180)' fill-opacity = '0.250000' points = '740.0,444.0 740.0,662.4 741.8,662.4 741.8,446.4 '/>
		<polygon fill = 'rgb( 31, 120, 180)' fill-opacity = '0.250000' points = '741.8,446.4 741.8,662.4 743.7,662.4 743.7,448.7 '/>
		<polygon fill = 'rgb( 31, 120, 180)' fill-opacity = '0.250000' points = '743.7,448.7 743.7,662.4 745.6,662.4 745.6,450.9 '/>
		<polygon fill = 'rgb( 31, 120, 180)' fill-opacity = '0.250000' points = '745.6,450.9 745.6,662.4 747.5,662.4 747.5,453.2 '/>
		<polygon fill = 'rgb( 31, 120, 180)' fill-opacity = '0.250000' points = '747.5,453.2 747.5,662.4 749.4,662.4 749.4,455.4 '/>
		<polygon fill = 'rgb( 31, 120, 180)' fill-opacity = '0.250000' points = '749.4,455.4 749.4,662.4 751.3,662.4 751.3,457.6 '/>
		<polygon fill = 'rgb( 31, 120, 180)' fill-opacity = '0.250000' points = '751.3,457.6 751.3,662.4 753.2,662.4 753.2,459.8 '/>
		<polygon fill = 'rgb( 31, 120, 180)' fill-opacity = '0.250000' points = '753.2,459.8 753.2,662.4 755.1,662.4 755.1,461.9 '/>
		<polygon fill = 'rgb( 31, 120, 180)' fill-opacity = '0.250000' points = '755.1,461.9 755.1,662.4 756.9,662.4 756.9,464.0 '/>
		<polygon fill = 'rgb( 31, 120, 180)' fill-opacity = '0.250000' points = '756.9,464.0 756.9,662.4 758.8,662.4 758.8,466.1 '/>
		<polygon fill = 'rgb( 31, 120, 180)' fill-opacity = '0.250000' points = '758.8,466.1 758.8,662.4 760.7,662.4 760.7,468.2 '/>
		<polygon fill = 'rgb( 31, 120, 180)' fill-opacity = '0.250000' points = '760.7,468.2 760.7,662.4 762.6,662.4 762.6,470.3 '/>
		<polygon fill = 'rgb( 31, 120, 180)' fill-opacity = '0.250000' points = '762.6,470.3 762.6,662.4 764.5,662.4 764.5,472.3 '/>
		<polygon fill = 'rgb( 31, 120, 180)' fill-opacity = '0.250000' points = '764.5,472.3 764.5,662.4 766.4,662.4 766.4,474.3 '/>
		<polygon fill = 'rgb( 31, 120, 180)' fill-opacity = '0.250000' points = '766.4,474.3 766.4,662.4 768.3,662.4 768.3,476.3 '/>
		<polygon fill = 'rgb( 31, 120, 180)' fill-opacity = '0.250000' points = '768.3,476.3 768.3,662.4 770.2,662.4 770.2,478.3 '/>
		<polygon fill = 'rgb( 31, 120, 180)' fill-opacity = '0.250000' points = '770.2,478.3 770.2,662.4 772.0,662.4 772.0,480.3 '/>
		<polygon fill = 'rgb( 31, 120, 180)' fill-opacity = '0.250000' points = '772.0,480.3 772.0,662.4 773.9,662.4 773.9,482.2 '/>
		<polygon fill = 'rgb( 31, 120, 180)' fill-opacity = '0.250000' points = '773.9,482.2 773.9,662.4 775.8,662.4 775.8,484.1 '/>
		<polygon fill = 'rgb( 31, 120, 180)' fill-opacity = '0.250000' points = '775.8,484.1 775.8,662.4 777.7,662.4 777.7,486.0 '/>
		<polygon fill = 'rgb( 31, 120, 180)' fill-opacity = '0.250000' points = '777.7,486.0 777.7,662.4 779.6,662.4 779.6,487.9 '/>
		<polygon fill = 'rgb( 31, 120, 180)' fill-opacity = '0.250000' points = '779.6,487.9 779.6,662.4 781.5,662.4 781.5,489.8 '/>
		<polygon fill = 'rgb( 31, 120, 180)' fill-opacity = '0.250000' points = '781.5,489.8 781.5,662.4 783.4,662.4 783.4,491.7 '/>
		<polygon fill = 'rgb( 31, 120, 180)' fill-opacity = '0.250000' points = '783.4,491.7 783.4,662.4 785.3,662.4 785.3,493.6 '/>
		<polygon fill = 'rgb( 31, 120, 180)' fill-opacity = '0.250000' points = '785.3,493.6 785.3,662.4 787.1,662.4 787.1,495.4 '/>
		<polygon fill = 'rgb( 31, 120, 180)' fill-opacity = '0.250000' points = '787.1,495.4 787.1,662.4 789.0,662.4 789.0,497.2 '/>
		<polygon fill = 'rgb( 31, 120, 180)' fill-opacity = '0.250000' points = '789.0,497.2 789.0,662.4 790.9,662.4 790.9,499.1 '/>
		<polygon fill = 'rgb( 31, 120, 180)' fill-opacity = '0.250000' points = '790.9,499.1 790.9,662.4 792.8,662.4 792.8,500.9 '/>
		<polygon fill = 'rgb( 31, 120, 180)' fill-opacity = '0.250000' points = '792.8,500.9 792.8,662.4 794.7,662.4 794.7,502.7 '/>
		<polygon fill = 'rgb( 31, 120, 180)' fill-opacity = '0.250000' points = '794.7,502.7 794.7,662.4 796.6,662.4 796.6,504.4 '/>
		<polygon fill = 'rgb( 31, 120, 180)' fill-opacity = '0.250000' points = '796.6,504.4 796.6,662.4 798.5,662.4 798.5,506.2 '/>
		<polygon fill = 'rgb( 31, 120, 180)' fill-opacity = '0.250000' points = '798.5,506.2 798.5,662.4 800.3,662.4 800.3,507.9 '/>
		<polygon fill = 'rgb( 31, 120, 180)' fill-opacity = '0.250000' points = '800.3,507.9 800.3,662.4 802.2,662.4 802.2,509.7 '/>
		<polygon fill = 'rgb( 31, 120, 180)' fill-opacity = '0.250000' points = '802.2,509.7 802.2,662.4 804.1,662.4 804.1,511.4 '/>
		<polygon fill = 'rgb( 31, 120, 180)' fill-opacity = '0.250000' points = '804.1,511.4 804.1,662.4 806.0,662.4 806.0,513.1 '/>
		<polygon fill = 'rgb( 31, 120, 180)' fill-opacity = '0.250000' points = '806.0,513.1 806.0,662.4 807.9,662.4 807.9,514.8 '/>
		<polygon fill = 'rgb( 31, 120, 180)' fill-opacity = '0.250000' points = '807.9,514.8 807.9,662.4 809.8,662.4 809.8,516.4 '/>
		<polygon fill = 'rgb( 31, 120, 180)' fill-opacity = '0.250000' points = '809.8,516.4 809.8,662.4 811.7,662.4 811.7,518.1 '/>
		<polygon fill = 'rgb( 31, 120, 180)' fill-opacity = '0.250000' points = '811.7,518.1 811.7,662.4 813.6,662.4 813.6,519.7 '/>
		<polygon fill = 'rgb( 31, 120, 180)' fill-opacity = '0.250000' points = '813.6,519.7 813.6,662.4 815.4,662.4 815.4,521.4 '/>
		<polygon fill = 'rgb( 31, 120, 180)' fill-opacity = '0.250000' points = '815.4,521.4 815.4,662.4 817.3,662.4 817.3,523.0 '/>
		<polygon fill = 'rgb( 31, 120, 180)' fill-opacity = '0.250000' points = '817.3,523.0 817.3,662.4 819.2,662.4 819.2,524.6 '/>
		<polygon fill = 'rgb( 31, 120, 180)' fill-opacity = '0.250000' points = '819.2,524.6 819.2,662.4 821.1,662.4 821.1,526.2 '/>
		<polygon fill = 'rgb( 31, 120, 180)' fill-opacity = '0.250000' points = '821.1,526.2 821.1,662.4 823.0,662.4 823.0,527.7 '/>
		<polygon fill = 'rgb( 31, 120, 180)' fill-opacity = '0.250000' points = '823.0,527.7 823.0,662.4 824.9,662.4 824.9,529.3 '/>
		<polygon fill = 'rgb( 31, 120, 180)' fill-opacity = '0.250000' points = '824.9,529.3 824.9,662.4 826.8,662.4 826.8,530.9 '/>
		<polygon fill = 'rgb( 31, 120, 180)' fill-opacity = '0.250000' points = '826.8,530.9 826.8,662.4 828.7,662.4 828.7,532.4 '/>
		<polygon fill = 'rgb( 31, 120, 180)' fill-opacity = '0.250000' points = '828.7,532.4 828.7,662.4 830.5,662.4 830.5,534.0 '/>
		<polygon fill = 'rgb( 31, 120, 180)' fill-opacity = '0.250000' points = '830.5,534.0 830.5,662.4 832.4,662.4 832.4,535.5 '/>
		<polygon fill = 'rgb( 31, 120, 180)' fill-opacity = '0.250000' points = '832.4,535.5 832.4,662.4 834.3,662.4 834.3,537.0 '/>
		<polygon fill = 'rgb( 31, 120, 180)' fill-opacity = '0.250000' points = '834.3,537.0 834.3,662.4 836.2,662.4 836.2,538.5 '/>
		<polygon fill = 'rgb( 31, 120, 180)' fill-opacity = '0.250000' points = '836.2,538.5 836.2,662.4 838.1,662.4 838.1,540.0 '/>
		<polygon fill = 'rgb( 31, 120, 180)' fill-opacity = '0.250000' points = '838.1,540.0 838.1,662.4 840.0,662.4 840.0,541.5 '/>
		<polygon fill = 'rgb( 31, 120, 180)' fill-opacity = '0.250000' points = '840.0,541.5 840.0,662.4 841.9,662.4 841.9,543.0 '/>
		<polygon fill = 'rgb( 31, 120, 180)' fill-opacity = '0.250000' points = '841.9,543.0 841.9,662.4 843.8,662.4 843.8,544.5 '/>
		<polygon fill = 'rgb( 31, 120, 180)' fill-opacity = '0.250000' points = '843.8,544.5 843.8,662.4 845.6,662.4 845.6,546.0 '/>
		<polygon fill = 'rgb( 31, 120, 180)' fill-opacity = '0.250000' points = '845.6,546.0 845.6,662.4 847.5,662.4 847.5,547.5 '/>
		<polygon fill = 'rgb( 31, 120, 180)' fill-opacity = '0.250000' points = '847.5,547.5 847.5,662.4 849.4,662.4 849.4,549.0 '/>
		<polygon fill = 'rgb( 31, 120, 180)' fill-opacity = '0.250000' points = '849.4,549.0 849.4,662.4 851.3,662.4 851.3,550.4 '/>
		<polygon fill = 'rgb( 31, 120, 180)' fill-opacity = '0.250000' points = '851.3,550.4 851.3,662.4 853.2,662.4 853.2,551.9 '/>
		<polygon fill = 'rgb( 31, 120, 180)' fill-opacity = '0.250000' points = '853.2,551.9 853.2,662.4 855.1,662.4 855.1,553.3 '/>
		<polygon fill = 'rgb( 31, 120, 180)' fill-opacity = '0.250000' points = '855.1,553.3 855.1,662.4 857.0,662.4 857.0,554.8 '/>
		<polygon fill = 'rgb( 31, 120, 180)' fill-opacity = '0.250000' points = '857.0,554.8 857.0,662.4 858.9,662.4 858.9,556.2 '/>
		<polygon fill = 'rgb( 31, 120, 180)' fill-opacity = '0.250000' points = '858.9,556.2 858.9,662.4 860.7,662.4 860.7,557.6 '/>
		<polygon fill = 'rgb( 31, 120, 180)' fill-opacity = '0.250000' points = '860.7,557.6 860.7,662.4 862.6,662.4 862.6,559.0 '/>
		<polygon fill = 'rgb( 31, 120, 180)' fill-opacity = '0.250000' points = '862.6,559.0 862.6,662.4 864.5,662.4 864.5,560.4 '/>
		<polygon fill = 'rgb( 31, 120, 180)' fill-opacity = '0.250000' points = '864.5,560.4 864.5,662.4 866.4,662.4 866.4,561.8 '/>
		<polygon fill = 'rgb( 31, 120, 180)' fill-opacity = '0.250000' points = '866.4,561.8 866.4,662.4 868.3,662.4 868.3,563.1 '/>
		<polygon fill = 'rgb( 31, 120, 180)' fill-opacity = '0.250000' points = '868.3,563.1 868.3,662.4 870.2,662.4 870.2,564.5 '/>
		<polygon fill = 'rgb( 31, 120, 180)' fill-opacity = '0.250000' points = '870.2,564.5 870.2,662.4 872.1,662.4 872.1,565.8 '/>
		<polygon fill = 'rgb( 31, 120, 180)' fill-opacity = '0.250000' points = '872.1,565.8 872.1,662.4 873.9,662.4 873.9,567.1 '/>
		<polygon fill = 'rgb( 31, 120, 180)' fill-opacity = '0.250000' points = '873.9,567.1 873.9,662.4 875.8,662.4 875.8,568.4 '/>
		<polygon fill = 'rgb( 31, 120, 180)' fill-opacity = '0.250000' points = '875.8,568.4 875.8,662.4 877.7,662.4 877.7,569.7 '/>
		<polygon fill = 'rgb( 31, 120, 180)' fill-opacity = '0.250000' points = '877.7,569.7 877.7,662.4 879.6,662.4 879.6,570.9 '/>
		<polygon fill = 'rgb( 31, 120, 180)' fill-opacity = '0.250000' points = '879.6,570.9 879.6,662.4 881.5,662.4 881.5,572.2 '/>
		<polygon fill = 'rgb( 31, 120, 180)' fill-opacity = '0.250000' points = '881.5,572.2 881.5,662.4 883.4,662.4 883.4,573.4 '/>
		<polygon fill = 'rgb( 31, 120, 180)' fill-opacity = '0.250000' points = '883.4,573.4 883.4,662.4 885.3,662.4 885.3,574.6 '/>
		<polygon fill = 'rgb( 31, 120, 180)' fill-opacity = '0.250000' points = '885.3,574.6 885.3,662.4 887.2,662.4 887.2,575.8 '/>
		<polygon fill = 'rgb( 31, 120, 180)' fill-opacity = '0.250000' points = '887.2,575.8 887.2,662.4 889.0,662.4 889.0,577.0 '/>
		<polygon fill = 'rgb( 31, 120, 180)' fill-opacity = '0.250000' points = '889.0,577.0 889.0,662.4 890.9,662.4 890.9,578.1 '/>
		<polygon fill = 'rgb( 31, 120, 180)' fill-opacity = '0.250000' points = '890.9,578.1 890.9,662.4 892.8,662.4 892.8,579.3 '/>
		<polygon fill = 'rgb( 31, 120, 180)' fill-opacity = '0.250000' points = '892.8,579.3 892.8,662.4 894.7,662.4 894.7,580.4 '/>
		<polygon fill = 'rgb( 31, 120, 180)' fill-opacity = '0.250000' points = '894.7,580.4 894.7,662.4 896.6,662.4 896.6,581.6 '/>
		<polygon fill = 'rgb( 31, 120, 180)' fill-opacity = '0.250000' points = '896.6,581.6 896.6,662.4 898.5,662.4 898.5,582.7 '/>
		<polygon fill = 'rgb( 31, 120, 180)' fill-opacity = '0.250000' points = '898.5,582.7 898.5,662.4 900.4,662.4 900.4,583.8 '/>
		<polygon fill = 'rgb( 31, 120, 180)' fill-opacity = '0.250000' points = '900.4,583.8 900.4,662.4 902.3,662.4 902.3,584.9 '/>
		<polygon fill = 'rgb( 31, 120, 180)' fill-opacity = '0.250000' points = '902.3,584.9 902.3,662.4 904.1,662.4 904.1,586.0 '/>
		<polygon fill = 'rgb( 31, 120, 180)' fill-opacity = '0.250000' points = '904.1,586.0 904.1,662.4 906.0,662.4 906.0,587.1 '/>
		<polygon fill = 'rgb( 31, 120, 180)' fill-opacity = '0.250000' points = '906.0,587.1 906.0,662.4 907.9,662.4 907.9,588.2 '/>
		<polygon fill = 'rgb( 31, 120, 180)' fill-opacity = '0.250000' points = '907.9,588.2 907.9,662.4 909.8,662.4 909.8,589.3 '/>
		<polygon fill = 'rgb( 31, 120, 180)' fill-opacity = '0.250000' points = '909.8,589.3 909.8,662.4 911.7,662.4 911.7,590.4 '/>
		<polygon fill = 'rgb( 31, 120, 180)' fill-opacity = '0.250000' points = '911.7,590.4 911.7,662.4 913.6,662.4 913.6,591.5 '/>
		<polygon fill = 'rgb( 31, 120, 180)' fill-opacity = '0.250000' points = '913.6,591.5 913.6,662.4 915.5,662.4 915.5,592.6 '/>
		<polygon fill = 'rgb( 31, 120, 180)' fill-opacity = '0.250000' points = '915.5,592.6 915.5,662.4 917.4,662.4 917.4,593.7 '/>
		<polygon fill = 'rgb( 31, 120, 180)' fill-opacity = '0.250000' points = '917.4,593.7 917.4,662.4 919.2,662.4 919.2,594.8 '/>
		<polygon fill = 'rgb( 31, 120, 180)' fill-opacity = '0.250000' points = '919.2,594.8 919.2,662.4 921.1,662.4 921.1,595.8 '/>
		<polygon fill = 'rgb( 31, 120, 180)' fill-opacity = '0.250000' points = '921.1,595.8 921.1,662.4 923.0,662.4 923.0,596.9 '/>
		<polygon fill = 'rgb( 31, 120, 180)' fill-opacity = '0.250000' points = '923.0,596.9 923.0,662.4 924.9,662.4 924.9,598.0 '/>
	</g>
</g>
	</g>
	<g id="gnuplot_plot_3" ><title>Point estimate</title>
<g fill="none" color="white" stroke="rgb( 31, 120, 180)" stroke-width="2.00" stroke-linecap="butt" stroke-linejoin="miter">
</g>
<g fill="none" color="black" stroke="currentColor" stroke-width="2.00" stroke-linecap="butt" stroke-linejoin="miter">
	<g transform="translate(1089.0,103.0)" stroke="none" fill="black" font-family="Helvetica" font-size="12.00"  text-anchor="start">
		<text><tspan font-family="Helvetica" >Point estimate</tspan></text>
	</g>
</g>
<g fill="none" color="black" stroke="currentColor" stroke-width="2.00" stroke-linecap="butt" stroke-linejoin="miter">
	<path stroke='rgb( 31, 120, 180)'  d='M1038.5,99.1 L1080.7,99.1 M492.7,662.4 L492.7,117.5  '/></g>
	</g>
<g fill="none" color="black" stroke="currentColor" stroke-width="2.00" stroke-linecap="butt" stroke-linejoin="miter">
</g>
<g fill="none" color="black" stroke="black" stroke-width="1.00" stroke-linecap="butt" stroke-linejoin="miter">
</g>
<g fill="none" color="black" stroke="currentColor" stroke-width="1.00" stroke-linecap="butt" stroke-linejoin="miter">
	<path stroke='black'  d='M71.9,54.1 L71.9,662.4 L1013.6,662.4 L1013.6,54.1 L71.9,54.1 Z  '/></g>
<g fill="none" color="black" stroke="currentColor" stroke-width="1.00" stroke-linecap="butt" stroke-linejoin="miter">
</g>
</g>
</svg>

