<?xml version="1.0" encoding="utf-8"  standalone="no"?>
<svg 
 viewBox="0 0 1280 720"
 xmlns="http://www.w3.org/2000/svg"
 xmlns:xlink="http://www.w3.org/1999/xlink"
>

<title>Gnuplot</title>
<desc>Produced by GNUPLOT 5.0 patchlevel 6 </desc>

<g id="gnuplot_canvas">

<rect x="0" y="0" width="1280" height="720" fill="none"/>
<defs>

	<circle id='gpDot' r='0.5' stroke-width='0.5'/>
	<path id='gpPt0' stroke-width='0.222' stroke='currentColor' d='M-1,0 h2 M0,-1 v2'/>
	<path id='gpPt1' stroke-width='0.222' stroke='currentColor' d='M-1,-1 L1,1 M1,-1 L-1,1'/>
	<path id='gpPt2' stroke-width='0.222' stroke='currentColor' d='M-1,0 L1,0 M0,-1 L0,1 M-1,-1 L1,1 M-1,1 L1,-1'/>
	<rect id='gpPt3' stroke-width='0.222' stroke='currentColor' x='-1' y='-1' width='2' height='2'/>
	<rect id='gpPt4' stroke-width='0.222' stroke='currentColor' fill='currentColor' x='-1' y='-1' width='2' height='2'/>
	<circle id='gpPt5' stroke-width='0.222' stroke='currentColor' cx='0' cy='0' r='1'/>
	<use xlink:href='#gpPt5' id='gpPt6' fill='currentColor' stroke='none'/>
	<path id='gpPt7' stroke-width='0.222' stroke='currentColor' d='M0,-1.33 L-1.33,0.67 L1.33,0.67 z'/>
	<use xlink:href='#gpPt7' id='gpPt8' fill='currentColor' stroke='none'/>
	<use xlink:href='#gpPt7' id='gpPt9' stroke='currentColor' transform='rotate(180)'/>
	<use xlink:href='#gpPt9' id='gpPt10' fill='currentColor' stroke='none'/>
	<use xlink:href='#gpPt3' id='gpPt11' stroke='currentColor' transform='rotate(45)'/>
	<use xlink:href='#gpPt11' id='gpPt12' fill='currentColor' stroke='none'/>
	<path id='gpPt13' stroke-width='0.222' stroke='currentColor' d='M0,1.330 L1.265,0.411 L0.782,-1.067 L-0.782,-1.076 L-1.265,0.411 z'/>
	<use xlink:href='#gpPt13' id='gpPt14' fill='currentColor' stroke='none'/>
	<filter id='textbox' filterUnits='objectBoundingBox' x='0' y='0' height='1' width='1'>
	  <feFlood flood-color='white' flood-opacity='1' result='bgnd'/>
	  <feComposite in='SourceGraphic' in2='bgnd' operator='atop'/>
	</filter>
	<filter id='greybox' filterUnits='objectBoundingBox' x='0' y='0' height='1' width='1'>
	  <feFlood flood-color='lightgrey' flood-opacity='1' result='grey'/>
	  <feComposite in='SourceGraphic' in2='grey' operator='atop'/>
	</filter>
</defs>
<g fill="none" color="white" stroke="currentColor" stroke-width="1.00" stroke-linecap="butt" stroke-linejoin="miter">
</g>
<g fill="none" color="black" stroke="currentColor" stroke-width="1.00" stroke-linecap="butt" stroke-linejoin="miter">
	<path stroke='black'  d='M63.6,662.4 L72.6,662.4  '/>	<g transform="translate(55.3,666.3)" stroke="none" fill="black" font-family="Helvetica" font-size="12.00"  text-anchor="end">
		<text><tspan font-family="Helvetica" > 0</tspan></text>
	</g>
</g>
<g fill="none" color="black" stroke="currentColor" stroke-width="1.00" stroke-linecap="butt" stroke-linejoin="miter">
	<path stroke='black'  d='M63.6,561.0 L72.6,561.0  '/>	<g transform="translate(55.3,564.9)" stroke="none" fill="black" font-family="Helvetica" font-size="12.00"  text-anchor="end">
		<text><tspan font-family="Helvetica" > 2</tspan></text>
	</g>
</g>
<g fill="none" color="black" stroke="currentColor" stroke-width="1.00" stroke-linecap="butt" stroke-linejoin="miter">
	<path stroke='black'  d='M63.6,459.6 L72.6,459.6  '/>	<g transform="translate(55.3,463.5)" stroke="none" fill="black" font-family="Helvetica" font-size="12.00"  text-anchor="end">
		<text><tspan font-family="Helvetica" > 4</tspan></text>
	</g>
</g>
<g fill="none" color="black" stroke="currentColor" stroke-width="1.00" stroke-linecap="butt" stroke-linejoin="miter">
	<path stroke='black'  d='M63.6,358.2 L72.6,358.2  '/>	<g transform="translate(55.3,362.1)" stroke="none" fill="black" font-family="Helvetica" font-size="12.00"  text-anchor="end">
		<text><tspan font-family="Helvetica" > 6</tspan></text>
	</g>
</g>
<g fill="none" color="black" stroke="currentColor" stroke-width="1.00" stroke-linecap="butt" stroke-linejoin="miter">
	<path stroke='black'  d='M63.6,256.9 L72.6,256.9  '/>	<g transform="translate(55.3,260.8)" stroke="none" fill="black" font-family="Helvetica" font-size="12.00"  text-anchor="end">
		<text><tspan font-family="Helvetica" > 8</tspan></text>
	</g>
</g>
<g fill="none" color="black" stroke="currentColor" stroke-width="1.00" stroke-linecap="butt" stroke-linejoin="miter">
	<path stroke='black'  d='M63.6,155.5 L72.6,155.5  '/>	<g transform="translate(55.3,159.4)" stroke="none" fill="black" font-family="Helvetica" font-size="12.00"  text-anchor="end">
		<text><tspan font-family="Helvetica" > 10</tspan></text>
	</g>
</g>
<g fill="none" color="black" stroke="currentColor" stroke-width="1.00" stroke-linecap="butt" stroke-linejoin="miter">
	<path stroke='black'  d='M63.6,54.1 L72.6,54.1  '/>	<g transform="translate(55.3,58.0)" stroke="none" fill="black" font-family="Helvetica" font-size="12.00"  text-anchor="end">
		<text><tspan font-family="Helvetica" > 12</tspan></text>
	</g>
</g>
<g fill="none" color="black" stroke="currentColor" stroke-width="1.00" stroke-linecap="butt" stroke-linejoin="miter">
	<path stroke='black'  d='M124.9,662.4 L124.9,653.4  '/>	<g transform="translate(124.9,684.3)" stroke="none" fill="black" font-family="Helvetica" font-size="12.00"  text-anchor="middle">
		<text><tspan font-family="Helvetica" > 25.66</tspan></text>
	</g>
</g>
<g fill="none" color="black" stroke="currentColor" stroke-width="1.00" stroke-linecap="butt" stroke-linejoin="miter">
	<path stroke='black'  d='M224.0,662.4 L224.0,653.4  '/>	<g transform="translate(224.0,684.3)" stroke="none" fill="black" font-family="Helvetica" font-size="12.00"  text-anchor="middle">
		<text><tspan font-family="Helvetica" > 25.68</tspan></text>
	</g>
</g>
<g fill="none" color="black" stroke="currentColor" stroke-width="1.00" stroke-linecap="butt" stroke-linejoin="miter">
	<path stroke='black'  d='M323.2,662.4 L323.2,653.4  '/>	<g transform="translate(323.2,684.3)" stroke="none" fill="black" font-family="Helvetica" font-size="12.00"  text-anchor="middle">
		<text><tspan font-family="Helvetica" > 25.7</tspan></text>
	</g>
</g>
<g fill="none" color="black" stroke="currentColor" stroke-width="1.00" stroke-linecap="butt" stroke-linejoin="miter">
	<path stroke='black'  d='M422.3,662.4 L422.3,653.4  '/>	<g transform="translate(422.3,684.3)" stroke="none" fill="black" font-family="Helvetica" font-size="12.00"  text-anchor="middle">
		<text><tspan font-family="Helvetica" > 25.72</tspan></text>
	</g>
</g>
<g fill="none" color="black" stroke="currentColor" stroke-width="1.00" stroke-linecap="butt" stroke-linejoin="miter">
	<path stroke='black'  d='M521.4,662.4 L521.4,653.4  '/>	<g transform="translate(521.4,684.3)" stroke="none" fill="black" font-family="Helvetica" font-size="12.00"  text-anchor="middle">
		<text><tspan font-family="Helvetica" > 25.74</tspan></text>
	</g>
</g>
<g fill="none" color="black" stroke="currentColor" stroke-width="1.00" stroke-linecap="butt" stroke-linejoin="miter">
	<path stroke='black'  d='M620.6,662.4 L620.6,653.4  '/>	<g transform="translate(620.6,684.3)" stroke="none" fill="black" font-family="Helvetica" font-size="12.00"  text-anchor="middle">
		<text><tspan font-family="Helvetica" > 25.76</tspan></text>
	</g>
</g>
<g fill="none" color="black" stroke="currentColor" stroke-width="1.00" stroke-linecap="butt" stroke-linejoin="miter">
	<path stroke='black'  d='M719.7,662.4 L719.7,653.4  '/>	<g transform="translate(719.7,684.3)" stroke="none" fill="black" font-family="Helvetica" font-size="12.00"  text-anchor="middle">
		<text><tspan font-family="Helvetica" > 25.78</tspan></text>
	</g>
</g>
<g fill="none" color="black" stroke="currentColor" stroke-width="1.00" stroke-linecap="butt" stroke-linejoin="miter">
	<path stroke='black'  d='M818.9,662.4 L818.9,653.4  '/>	<g transform="translate(818.9,684.3)" stroke="none" fill="black" font-family="Helvetica" font-size="12.00"  text-anchor="middle">
		<text><tspan font-family="Helvetica" > 25.8</tspan></text>
	</g>
</g>
<g fill="none" color="black" stroke="currentColor" stroke-width="1.00" stroke-linecap="butt" stroke-linejoin="miter">
	<path stroke='black'  d='M918.0,662.4 L918.0,653.4  '/>	<g transform="translate(918.0,684.3)" stroke="none" fill="black" font-family="Helvetica" font-size="12.00"  text-anchor="middle">
		<text><tspan font-family="Helvetica" > 25.82</tspan></text>
	</g>
</g>
<g fill="none" color="black" stroke="currentColor" stroke-width="1.00" stroke-linecap="butt" stroke-linejoin="miter">
</g>
<g fill="none" color="black" stroke="currentColor" stroke-width="1.00" stroke-linecap="butt" stroke-linejoin="miter">
	<path stroke='black'  d='M63.6,54.1 L63.6,662.4 L1013.6,662.4 L1013.6,54.1 L63.6,54.1 Z  '/></g>
<g fill="none" color="black" stroke="currentColor" stroke-width="1.00" stroke-linecap="butt" stroke-linejoin="miter">
	<g transform="translate(17.0,358.3) rotate(270)" stroke="none" fill="black" font-family="Helvetica" font-size="12.00"  text-anchor="middle">
		<text><tspan font-family="Helvetica" >Density (a.u.)</tspan></text>
	</g>
</g>
<g fill="none" color="black" stroke="currentColor" stroke-width="1.00" stroke-linecap="butt" stroke-linejoin="miter">
	<g transform="translate(538.6,711.3)" stroke="none" fill="black" font-family="Helvetica" font-size="12.00"  text-anchor="middle">
		<text><tspan font-family="Helvetica" >Average time (us)</tspan></text>
	</g>
</g>
<g fill="none" color="black" stroke="currentColor" stroke-width="1.00" stroke-linecap="butt" stroke-linejoin="miter">
	<g transform="translate(538.6,31.0)" stroke="none" fill="black" font-family="Helvetica" font-size="12.00"  text-anchor="middle">
		<text><tspan font-family="Helvetica" >language: javascript/parse error: python/examples/trailing-whitespace.py: mean</tspan></text>
	</g>
</g>
	<g id="gnuplot_plot_1" ><title>Bootstrap distribution</title>
<g fill="none" color="white" stroke="black" stroke-width="2.00" stroke-linecap="butt" stroke-linejoin="miter">
</g>
<g fill="none" color="black" stroke="currentColor" stroke-width="2.00" stroke-linecap="butt" stroke-linejoin="miter">
	<g transform="translate(1089.0,67.0)" stroke="none" fill="black" font-family="Helvetica" font-size="12.00"  text-anchor="start">
		<text><tspan font-family="Helvetica" >Bootstrap distribution</tspan></text>
	</g>
</g>
<g fill="none" color="black" stroke="currentColor" stroke-width="2.00" stroke-linecap="butt" stroke-linejoin="miter">
	<path stroke='rgb( 31, 120, 180)'  d='M1038.5,63.1 L1080.7,63.1 M63.6,654.1 L65.5,653.2 L67.4,652.1 L69.3,650.9 L71.2,649.7 L73.1,648.3
		L75.0,646.8 L76.9,645.1 L78.8,643.3 L80.7,641.4 L82.6,639.3 L84.5,637.0 L86.4,634.6 L88.3,632.0
		L90.3,629.2 L92.2,626.2 L94.1,623.0 L96.0,619.6 L97.9,616.0 L99.8,612.1 L101.7,608.1 L103.6,603.7
		L105.5,599.2 L107.4,594.4 L109.3,589.4 L111.2,584.1 L113.1,578.6 L115.0,572.9 L116.9,567.0 L118.8,560.8
		L120.7,554.4 L122.6,547.7 L124.5,540.9 L126.4,533.9 L128.3,526.6 L130.2,519.2 L132.1,511.6 L134.0,503.9
		L135.9,496.0 L137.8,488.0 L139.8,479.8 L141.7,471.5 L143.6,463.1 L145.5,454.6 L147.4,446.1 L149.3,437.5
		L151.2,428.8 L153.1,420.1 L155.0,411.3 L156.9,402.6 L158.8,393.9 L160.7,385.2 L162.6,376.5 L164.5,367.9
		L166.4,359.4 L168.3,350.9 L170.2,342.6 L172.1,334.3 L174.0,326.2 L175.9,318.2 L177.8,310.4 L179.7,302.8
		L181.6,295.3 L183.5,288.0 L185.4,281.0 L187.3,274.1 L189.3,267.5 L191.2,261.1 L193.1,255.0 L195.0,249.2
		L196.9,243.6 L198.8,238.2 L200.7,233.2 L202.6,228.4 L204.5,224.0 L206.4,219.8 L208.3,215.9 L210.2,212.4
		L212.1,209.1 L214.0,206.2 L215.9,203.5 L217.8,201.2 L219.7,199.1 L221.6,197.3 L223.5,195.8 L225.4,194.6
		L227.3,193.7 L229.2,193.1 L231.1,192.7 L233.0,192.6 L234.9,192.7 L236.8,193.1 L238.8,193.7 L240.7,194.5
		L242.6,195.6 L244.5,196.9 L246.4,198.4 L248.3,200.1 L250.2,202.1 L252.1,204.2 L254.0,206.4 L255.9,208.9
		L257.8,211.5 L259.7,214.3 L261.6,217.2 L263.5,220.2 L265.4,223.4 L267.3,226.6 L269.2,230.0 L271.1,233.4
		L273.0,236.8 L274.9,240.3 L276.8,243.9 L278.7,247.4 L280.6,250.9 L282.5,254.4 L284.4,257.8 L286.3,261.2
		L288.2,264.5 L290.2,267.7 L292.1,270.8 L294.0,273.8 L295.9,276.6 L297.8,279.2 L299.7,281.6 L301.6,283.9
		L303.5,285.9 L305.4,287.7 L307.3,289.3 L309.2,290.6 L311.1,291.6 L313.0,292.4 L314.9,292.8 L316.8,293.0
		L318.7,292.8 L320.6,292.4 L322.5,291.6 L324.4,290.5 L326.3,289.1 L328.2,287.4 L330.1,285.4 L332.0,283.2
		L333.9,280.6 L335.8,277.7 L337.7,274.6 L339.7,271.3 L341.6,267.7 L343.5,263.9 L345.4,259.9 L347.3,255.8
		L349.2,251.4 L351.1,247.0 L353.0,242.4 L354.9,237.7 L356.8,232.9 L358.7,228.1 L360.6,223.1 L362.5,218.2
		L364.4,213.2 L366.3,208.2 L368.2,203.3 L370.1,198.3 L372.0,193.3 L373.9,188.5 L375.8,183.6 L377.7,178.8
		L379.6,174.2 L381.5,169.6 L383.4,165.1 L385.3,160.7 L387.2,156.4 L389.2,152.3 L391.1,148.3 L393.0,144.5
		L394.9,140.8 L396.8,137.4 L398.7,134.1 L400.6,131.0 L402.5,128.1 L404.4,125.5 L406.3,123.1 L408.2,120.9
		L410.1,119.0 L412.0,117.3 L413.9,115.9 L415.8,114.8 L417.7,114.0 L419.6,113.4 L421.5,113.1 L423.4,113.1
		L425.3,113.4 L427.2,114.0 L429.1,114.8 L431.0,115.9 L432.9,117.4 L434.8,119.0 L436.7,121.0 L438.7,123.2
		L440.6,125.7 L442.5,128.4 L444.4,131.4 L446.3,134.6 L448.2,138.0 L450.1,141.6 L452.0,145.5 L453.9,149.5
		L455.8,153.7 L457.7,158.1 L459.6,162.7 L461.5,167.4 L463.4,172.3 L465.3,177.3 L467.2,182.4 L469.1,187.6
		L471.0,193.0 L472.9,198.4 L474.8,203.9 L476.7,209.4 L478.6,215.0 L480.5,220.6 L482.4,226.3 L484.3,231.9
		L486.2,237.6 L488.1,243.2 L490.1,248.7 L492.0,254.3 L493.9,259.7 L495.8,265.1 L497.7,270.4 L499.6,275.6
		L501.5,280.7 L503.4,285.7 L505.3,290.6 L507.2,295.3 L509.1,299.9 L511.0,304.3 L512.9,308.6 L514.8,312.7
		L516.7,316.6 L518.6,320.4 L520.5,324.0 L522.4,327.4 L524.3,330.6 L526.2,333.7 L528.1,336.5 L530.0,339.2
		L531.9,341.6 L533.8,343.9 L535.7,346.0 L537.6,347.9 L539.6,349.5 L541.5,351.1 L543.4,352.4 L545.3,353.5
		L547.2,354.5 L549.1,355.3 L551.0,356.0 L552.9,356.5 L554.8,356.9 L556.7,357.1 L558.6,357.2 L560.5,357.3
		L562.4,357.2 L564.3,357.0 L566.2,356.8 L568.1,356.4 L570.0,356.1 L571.9,355.7 L573.8,355.2 L575.7,354.8
		L577.6,354.3 L579.5,353.9 L581.4,353.4 L583.3,353.0 L585.2,352.6 L587.1,352.2 L589.1,351.9 L591.0,351.7
		L592.9,351.5 L594.8,351.3 L596.7,351.2 L598.6,351.2 L600.5,351.3 L602.4,351.5 L604.3,351.7 L606.2,352.0
		L608.1,352.4 L610.0,352.9 L611.9,353.5 L613.8,354.2 L615.7,355.0 L617.6,355.8 L619.5,356.8 L621.4,357.8
		L623.3,358.9 L625.2,360.1 L627.1,361.4 L629.0,362.8 L630.9,364.3 L632.8,365.9 L634.7,367.5 L636.6,369.3
		L638.5,371.1 L640.5,373.0 L642.4,375.0 L644.3,377.1 L646.2,379.3 L648.1,381.5 L650.0,383.9 L651.9,386.3
		L653.8,388.8 L655.7,391.4 L657.6,394.1 L659.5,396.9 L661.4,399.7 L663.3,402.6 L665.2,405.5 L667.1,408.5
		L669.0,411.6 L670.9,414.7 L672.8,417.9 L674.7,421.1 L676.6,424.4 L678.5,427.7 L680.4,431.1 L682.3,434.4
		L684.2,437.8 L686.1,441.2 L688.0,444.6 L690.0,448.0 L691.9,451.5 L693.8,454.9 L695.7,458.3 L697.6,461.7
		L699.5,465.0 L701.4,468.3 L703.3,471.6 L705.2,474.9 L707.1,478.1 L709.0,481.2 L710.9,484.3 L712.8,487.4
		L714.7,490.3 L716.6,493.2 L718.5,496.0 L720.4,498.8 L722.3,501.5 L724.2,504.1 L726.1,506.6 L728.0,509.0
		L729.9,511.3 L731.8,513.6 L733.7,515.8 L735.6,517.8 L737.5,519.8 L739.5,521.7 L741.4,523.5 L743.3,525.3
		L745.2,526.9 L747.1,528.5 L749.0,530.0 L750.9,531.4 L752.8,532.7 L754.7,533.9 L756.6,535.1 L758.5,536.3
		L760.4,537.3 L762.3,538.4 L764.2,539.3 L766.1,540.3 L768.0,541.2 L769.9,542.0 L771.8,542.9 L773.7,543.6
		L775.6,544.4 L777.5,545.2 L779.4,545.9 L781.3,546.6 L783.2,547.3 L785.1,547.9 L787.0,548.6 L789.0,549.2
		L790.9,549.8 L792.8,550.4 L794.7,551.0 L796.6,551.5 L798.5,552.1 L800.4,552.6 L802.3,553.2 L804.2,553.7
		L806.1,554.2 L808.0,554.7 L809.9,555.2 L811.8,555.7 L813.7,556.1 L815.6,556.6 L817.5,557.1 L819.4,557.6
		L821.3,558.0 L823.2,558.5 L825.1,559.0 L827.0,559.5 L828.9,560.0 L830.8,560.5 L832.7,561.0 L834.6,561.6
		L836.5,562.1 L838.4,562.7 L840.4,563.3 L842.3,563.9 L844.2,564.5 L846.1,565.2 L848.0,565.9 L849.9,566.6
		L851.8,567.4 L853.7,568.2 L855.6,569.1 L857.5,569.9 L859.4,570.9 L861.3,571.8 L863.2,572.8 L865.1,573.8
		L867.0,574.9 L868.9,576.0 L870.8,577.1 L872.7,578.3 L874.6,579.5 L876.5,580.8 L878.4,582.0 L880.3,583.3
		L882.2,584.6 L884.1,585.9 L886.0,587.3 L887.9,588.6 L889.9,590.0 L891.8,591.3 L893.7,592.7 L895.6,594.1
		L897.5,595.4 L899.4,596.8 L901.3,598.2 L903.2,599.5 L905.1,600.8 L907.0,602.1 L908.9,603.4 L910.8,604.6
		L912.7,605.9 L914.6,607.1 L916.5,608.2 L918.4,609.4 L920.3,610.5 L922.2,611.6 L924.1,612.6 L926.0,613.7
		L927.9,614.6 L929.8,615.6 L931.7,616.5 L933.6,617.4 L935.5,618.3 L937.4,619.1 L939.4,619.9 L941.3,620.7
		L943.2,621.5 L945.1,622.2 L947.0,622.9 L948.9,623.5 L950.8,624.2 L952.7,624.8 L954.6,625.4 L956.5,625.9
		L958.4,626.5 L960.3,627.0 L962.2,627.5 L964.1,628.0 L966.0,628.4 L967.9,628.8 L969.8,629.2 L971.7,629.6
		L973.6,629.9 L975.5,630.3 L977.4,630.6 L979.3,630.9 L981.2,631.2 L983.1,631.4 L985.0,631.6 L986.9,631.9
		L988.9,632.1 L990.8,632.2 L992.7,632.4 L994.6,632.6 L996.5,632.8 L998.4,632.9 L1000.3,633.1 L1002.2,633.2
		L1004.1,633.3 L1006.0,633.5 L1007.9,633.6 L1009.8,633.8 L1011.7,634.0 L1013.6,634.2  '/></g>
	</g>
	<g id="gnuplot_plot_2" ><title>Confidence interval</title>
<g fill="none" color="white" stroke="rgb( 31, 120, 180)" stroke-width="1.00" stroke-linecap="butt" stroke-linejoin="miter">
</g>
<g fill="none" color="black" stroke="currentColor" stroke-width="1.00" stroke-linecap="butt" stroke-linejoin="miter">
	<g transform="translate(1089.0,85.0)" stroke="none" fill="black" font-family="Helvetica" font-size="12.00"  text-anchor="start">
		<text><tspan font-family="Helvetica" >Confidence interval</tspan></text>
	</g>
</g>
<g fill="none" color="black" stroke="currentColor" stroke-width="1.00" stroke-linecap="butt" stroke-linejoin="miter">
	<g stroke='none' shape-rendering='crispEdges'>
		<polygon fill = 'rgb( 31, 120, 180)' fill-opacity = '0.250000' points = '1038.5,85.6 1080.7,85.6 1080.7,76.6 1038.5,76.6 '/>
		<polygon fill = 'rgb( 31, 120, 180)' fill-opacity = '0.250000' points = '151.2,428.8 151.2,662.4 153.1,662.4 153.1,420.1 '/>
		<polygon fill = 'rgb( 31, 120, 180)' fill-opacity = '0.250000' points = '153.1,420.1 153.1,662.4 155.0,662.4 155.0,411.3 '/>
		<polygon fill = 'rgb( 31, 120, 180)' fill-opacity = '0.250000' points = '155.0,411.3 155.0,662.4 156.9,662.4 156.9,402.6 '/>
		<polygon fill = 'rgb( 31, 120, 180)' fill-opacity = '0.250000' points = '156.9,402.6 156.9,662.4 158.8,662.4 158.8,393.9 '/>
		<polygon fill = 'rgb( 31, 120, 180)' fill-opacity = '0.250000' points = '158.8,393.9 158.8,662.4 160.7,662.4 160.7,385.2 '/>
		<polygon fill = 'rgb( 31, 120, 180)' fill-opacity = '0.250000' points = '160.7,385.2 160.7,662.4 162.6,662.4 162.6,376.5 '/>
		<polygon fill = 'rgb( 31, 120, 180)' fill-opacity = '0.250000' points = '162.6,376.5 162.6,662.4 164.5,662.4 164.5,367.9 '/>
		<polygon fill = 'rgb( 31, 120, 180)' fill-opacity = '0.250000' points = '164.5,367.9 164.5,662.4 166.4,662.4 166.4,359.4 '/>
		<polygon fill = 'rgb( 31, 120, 180)' fill-opacity = '0.250000' points = '166.4,359.4 166.4,662.4 168.3,662.4 168.3,350.9 '/>
		<polygon fill = 'rgb( 31, 120, 180)' fill-opacity = '0.250000' points = '168.3,350.9 168.3,662.4 170.2,662.4 170.2,342.6 '/>
		<polygon fill = 'rgb( 31, 120, 180)' fill-opacity = '0.250000' points = '170.2,342.6 170.2,662.4 172.1,662.4 172.1,334.3 '/>
		<polygon fill = 'rgb( 31, 120, 180)' fill-opacity = '0.250000' points = '172.1,334.3 172.1,662.4 174.0,662.4 174.0,326.2 '/>
		<polygon fill = 'rgb( 31, 120, 180)' fill-opacity = '0.250000' points = '174.0,326.2 174.0,662.4 175.9,662.4 175.9,318.2 '/>
		<polygon fill = 'rgb( 31, 120, 180)' fill-opacity = '0.250000' points = '175.9,318.2 175.9,662.4 177.8,662.4 177.8,310.4 '/>
		<polygon fill = 'rgb( 31, 120, 180)' fill-opacity = '0.250000' points = '177.8,310.4 177.8,662.4 179.7,662.4 179.7,302.8 '/>
		<polygon fill = 'rgb( 31, 120, 180)' fill-opacity = '0.250000' points = '179.7,302.8 179.7,662.4 181.6,662.4 181.6,295.3 '/>
		<polygon fill = 'rgb( 31, 120, 180)' fill-opacity = '0.250000' points = '181.6,295.3 181.6,662.4 183.5,662.4 183.5,288.0 '/>
		<polygon fill = 'rgb( 31, 120, 180)' fill-opacity = '0.250000' points = '183.5,288.0 183.5,662.4 185.4,662.4 185.4,281.0 '/>
		<polygon fill = 'rgb( 31, 120, 180)' fill-opacity = '0.250000' points = '185.4,281.0 185.4,662.4 187.3,662.4 187.3,274.1 '/>
		<polygon fill = 'rgb( 31, 120, 180)' fill-opacity = '0.250000' points = '187.3,274.1 187.3,662.4 189.3,662.4 189.3,267.5 '/>
		<polygon fill = 'rgb( 31, 120, 180)' fill-opacity = '0.250000' points = '189.3,267.5 189.3,662.4 191.2,662.4 191.2,261.1 '/>
		<polygon fill = 'rgb( 31, 120, 180)' fill-opacity = '0.250000' points = '191.2,261.1 191.2,662.4 193.1,662.4 193.1,255.0 '/>
		<polygon fill = 'rgb( 31, 120, 180)' fill-opacity = '0.250000' points = '193.1,255.0 193.1,662.4 195.0,662.4 195.0,249.2 '/>
		<polygon fill = 'rgb( 31, 120, 180)' fill-opacity = '0.250000' points = '195.0,249.2 195.0,662.4 196.9,662.4 196.9,243.6 '/>
		<polygon fill = 'rgb( 31, 120, 180)' fill-opacity = '0.250000' points = '196.9,243.6 196.9,662.4 198.8,662.4 198.8,238.2 '/>
		<polygon fill = 'rgb( 31, 120, 180)' fill-opacity = '0.250000' points = '198.8,238.2 198.8,662.4 200.7,662.4 200.7,233.2 '/>
		<polygon fill = 'rgb( 31, 120, 180)' fill-opacity = '0.250000' points = '200.7,233.2 200.7,662.4 202.6,662.4 202.6,228.4 '/>
		<polygon fill = 'rgb( 31, 120, 180)' fill-opacity = '0.250000' points = '202.6,228.4 202.6,662.4 204.5,662.4 204.5,224.0 '/>
		<polygon fill = 'rgb( 31, 120, 180)' fill-opacity = '0.250000' points = '204.5,224.0 204.5,662.4 206.4,662.4 206.4,219.8 '/>
		<polygon fill = 'rgb( 31, 120, 180)' fill-opacity = '0.250000' points = '206.4,219.8 206.4,662.4 208.3,662.4 208.3,215.9 '/>
		<polygon fill = 'rgb( 31, 120, 180)' fill-opacity = '0.250000' points = '208.3,215.9 208.3,662.4 210.2,662.4 210.2,212.4 '/>
		<polygon fill = 'rgb( 31, 120, 180)' fill-opacity = '0.250000' points = '210.2,212.4 210.2,662.4 212.1,662.4 212.1,209.1 '/>
		<polygon fill = 'rgb( 31, 120, 180)' fill-opacity = '0.250000' points = '212.1,209.1 212.1,662.4 214.0,662.4 214.0,206.2 '/>
		<polygon fill = 'rgb( 31, 120, 180)' fill-opacity = '0.250000' points = '214.0,206.2 214.0,662.4 215.9,662.4 215.9,203.5 '/>
		<polygon fill = 'rgb( 31, 120, 180)' fill-opacity = '0.250000' points = '215.9,203.5 215.9,662.4 217.8,662.4 217.8,201.2 '/>
		<polygon fill = 'rgb( 31, 120, 180)' fill-opacity = '0.250000' points = '217.8,201.2 217.8,662.4 219.7,662.4 219.7,199.1 '/>
		<polygon fill = 'rgb( 31, 120, 180)' fill-opacity = '0.250000' points = '219.7,199.1 219.7,662.4 221.6,662.4 221.6,197.3 '/>
		<polygon fill = 'rgb( 31, 120, 180)' fill-opacity = '0.250000' points = '221.6,197.3 221.6,662.4 223.5,662.4 223.5,195.8 '/>
		<polygon fill = 'rgb( 31, 120, 180)' fill-opacity = '0.250000' points = '223.5,195.8 223.5,662.4 225.4,662.4 225.4,194.6 '/>
		<polygon fill = 'rgb( 31, 120, 180)' fill-opacity = '0.250000' points = '225.4,194.6 225.4,662.4 227.3,662.4 227.3,193.7 '/>
		<polygon fill = 'rgb( 31, 120, 180)' fill-opacity = '0.250000' points = '227.3,193.7 227.3,662.4 229.2,662.4 229.2,193.1 '/>
		<polygon fill = 'rgb( 31, 120, 180)' fill-opacity = '0.250000' points = '229.2,193.1 229.2,662.4 231.1,662.4 231.1,192.7 '/>
		<polygon fill = 'rgb( 31, 120, 180)' fill-opacity = '0.250000' points = '231.1,192.7 231.1,662.4 233.0,662.4 233.0,192.6 '/>
		<polygon fill = 'rgb( 31, 120, 180)' fill-opacity = '0.250000' points = '233.0,192.6 233.0,662.4 234.9,662.4 234.9,192.7 '/>
		<polygon fill = 'rgb( 31, 120, 180)' fill-opacity = '0.250000' points = '234.9,192.7 234.9,662.4 236.8,662.4 236.8,193.1 '/>
		<polygon fill = 'rgb( 31, 120, 180)' fill-opacity = '0.250000' points = '236.8,193.1 236.8,662.4 238.8,662.4 238.8,193.7 '/>
		<polygon fill = 'rgb( 31, 120, 180)' fill-opacity = '0.250000' points = '238.8,193.7 238.8,662.4 240.7,662.4 240.7,194.5 '/>
		<polygon fill = 'rgb( 31, 120, 180)' fill-opacity = '0.250000' points = '240.7,194.5 240.7,662.4 242.6,662.4 242.6,195.6 '/>
		<polygon fill = 'rgb( 31, 120, 180)' fill-opacity = '0.250000' points = '242.6,195.6 242.6,662.4 244.5,662.4 244.5,196.9 '/>
		<polygon fill = 'rgb( 31, 120, 180)' fill-opacity = '0.250000' points = '244.5,196.9 244.5,662.4 246.4,662.4 246.4,198.4 '/>
		<polygon fill = 'rgb( 31, 120, 180)' fill-opacity = '0.250000' points = '246.4,198.4 246.4,662.4 248.3,662.4 248.3,200.1 '/>
		<polygon fill = 'rgb( 31, 120, 180)' fill-opacity = '0.250000' points = '248.3,200.1 248.3,662.4 250.2,662.4 250.2,202.1 '/>
		<polygon fill = 'rgb( 31, 120, 180)' fill-opacity = '0.250000' points = '250.2,202.1 250.2,662.4 252.1,662.4 252.1,204.2 '/>
		<polygon fill = 'rgb( 31, 120, 180)' fill-opacity = '0.250000' points = '252.1,204.2 252.1,662.4 254.0,662.4 254.0,206.4 '/>
		<polygon fill = 'rgb( 31, 120, 180)' fill-opacity = '0.250000' points = '254.0,206.4 254.0,662.4 255.9,662.4 255.9,208.9 '/>
		<polygon fill = 'rgb( 31, 120, 180)' fill-opacity = '0.250000' points = '255.9,208.9 255.9,662.4 257.8,662.4 257.8,211.5 '/>
		<polygon fill = 'rgb( 31, 120, 180)' fill-opacity = '0.250000' points = '257.8,211.5 257.8,662.4 259.7,662.4 259.7,214.3 '/>
		<polygon fill = 'rgb( 31, 120, 180)' fill-opacity = '0.250000' points = '259.7,214.3 259.7,662.4 261.6,662.4 261.6,217.2 '/>
		<polygon fill = 'rgb( 31, 120, 180)' fill-opacity = '0.250000' points = '261.6,217.2 261.6,662.4 263.5,662.4 263.5,220.2 '/>
		<polygon fill = 'rgb( 31, 120, 180)' fill-opacity = '0.250000' points = '263.5,220.2 263.5,662.4 265.4,662.4 265.4,223.4 '/>
		<polygon fill = 'rgb( 31, 120, 180)' fill-opacity = '0.250000' points = '265.4,223.4 265.4,662.4 267.3,662.4 267.3,226.6 '/>
		<polygon fill = 'rgb( 31, 120, 180)' fill-opacity = '0.250000' points = '267.3,226.6 267.3,662.4 269.2,662.4 269.2,230.0 '/>
		<polygon fill = 'rgb( 31, 120, 180)' fill-opacity = '0.250000' points = '269.2,230.0 269.2,662.4 271.1,662.4 271.1,233.4 '/>
		<polygon fill = 'rgb( 31, 120, 180)' fill-opacity = '0.250000' points = '271.1,233.4 271.1,662.4 273.0,662.4 273.0,236.8 '/>
		<polygon fill = 'rgb( 31, 120, 180)' fill-opacity = '0.250000' points = '273.0,236.8 273.0,662.4 274.9,662.4 274.9,240.3 '/>
		<polygon fill = 'rgb( 31, 120, 180)' fill-opacity = '0.250000' points = '274.9,240.3 274.9,662.4 276.8,662.4 276.8,243.9 '/>
		<polygon fill = 'rgb( 31, 120, 180)' fill-opacity = '0.250000' points = '276.8,243.9 276.8,662.4 278.7,662.4 278.7,247.4 '/>
		<polygon fill = 'rgb( 31, 120, 180)' fill-opacity = '0.250000' points = '278.7,247.4 278.7,662.4 280.6,662.4 280.6,250.9 '/>
		<polygon fill = 'rgb( 31, 120, 180)' fill-opacity = '0.250000' points = '280.6,250.9 280.6,662.4 282.5,662.4 282.5,254.4 '/>
		<polygon fill = 'rgb( 31, 120, 180)' fill-opacity = '0.250000' points = '282.5,254.4 282.5,662.4 284.4,662.4 284.4,257.8 '/>
		<polygon fill = 'rgb( 31, 120, 180)' fill-opacity = '0.250000' points = '284.4,257.8 284.4,662.4 286.3,662.4 286.3,261.2 '/>
		<polygon fill = 'rgb( 31, 120, 180)' fill-opacity = '0.250000' points = '286.3,261.2 286.3,662.4 288.2,662.4 288.2,264.5 '/>
		<polygon fill = 'rgb( 31, 120, 180)' fill-opacity = '0.250000' points = '288.2,264.5 288.2,662.4 290.2,662.4 290.2,267.7 '/>
		<polygon fill = 'rgb( 31, 120, 180)' fill-opacity = '0.250000' points = '290.2,267.7 290.2,662.4 292.1,662.4 292.1,270.8 '/>
		<polygon fill = 'rgb( 31, 120, 180)' fill-opacity = '0.250000' points = '292.1,270.8 292.1,662.4 294.0,662.4 294.0,273.8 '/>
		<polygon fill = 'rgb( 31, 120, 180)' fill-opacity = '0.250000' points = '294.0,273.8 294.0,662.4 295.9,662.4 295.9,276.6 '/>
		<polygon fill = 'rgb( 31, 120, 180)' fill-opacity = '0.250000' points = '295.9,276.6 295.9,662.4 297.8,662.4 297.8,279.2 '/>
		<polygon fill = 'rgb( 31, 120, 180)' fill-opacity = '0.250000' points = '297.8,279.2 297.8,662.4 299.7,662.4 299.7,281.6 '/>
		<polygon fill = 'rgb( 31, 120, 180)' fill-opacity = '0.250000' points = '299.7,281.6 299.7,662.4 301.6,662.4 301.6,283.9 '/>
		<polygon fill = 'rgb( 31, 120, 180)' fill-opacity = '0.250000' points = '301.6,283.9 301.6,662.4 303.5,662.4 303.5,285.9 '/>
		<polygon fill = 'rgb( 31, 120, 180)' fill-opacity = '0.250000' points = '303.5,285.9 303.5,662.4 305.4,662.4 305.4,287.7 '/>
		<polygon fill = 'rgb( 31, 120, 180)' fill-opacity = '0.250000' points = '305.4,287.7 305.4,662.4 307.3,662.4 307.3,289.3 '/>
		<polygon fill = 'rgb( 31, 120, 180)' fill-opacity = '0.250000' points = '307.3,289.3 307.3,662.4 309.2,662.4 309.2,290.6 '/>
		<polygon fill = 'rgb( 31, 120, 180)' fill-opacity = '0.250000' points = '309.2,290.6 309.2,662.4 311.1,662.4 311.1,291.6 '/>
		<polygon fill = 'rgb( 31, 120, 180)' fill-opacity = '0.250000' points = '311.1,291.6 311.1,662.4 313.0,662.4 313.0,292.4 '/>
		<polygon fill = 'rgb( 31, 120, 180)' fill-opacity = '0.250000' points = '313.0,292.4 313.0,662.4 314.9,662.4 314.9,292.8 '/>
		<polygon fill = 'rgb( 31, 120, 180)' fill-opacity = '0.250000' points = '314.9,292.8 314.9,662.4 316.8,662.4 316.8,293.0 '/>
		<polygon fill = 'rgb( 31, 120, 180)' fill-opacity = '0.250000' points = '316.8,293.0 316.8,662.4 318.7,662.4 318.7,292.8 '/>
		<polygon fill = 'rgb( 31, 120, 180)' fill-opacity = '0.250000' points = '318.7,292.8 318.7,662.4 320.6,662.4 320.6,292.4 '/>
		<polygon fill = 'rgb( 31, 120, 180)' fill-opacity = '0.250000' points = '320.6,292.4 320.6,662.4 322.5,662.4 322.5,291.6 '/>
		<polygon fill = 'rgb( 31, 120, 180)' fill-opacity = '0.250000' points = '322.5,291.6 322.5,662.4 324.4,662.4 324.4,290.5 '/>
		<polygon fill = 'rgb( 31, 120, 180)' fill-opacity = '0.250000' points = '324.4,290.5 324.4,662.4 326.3,662.4 326.3,289.1 '/>
		<polygon fill = 'rgb( 31, 120, 180)' fill-opacity = '0.250000' points = '326.3,289.1 326.3,662.4 328.2,662.4 328.2,287.4 '/>
		<polygon fill = 'rgb( 31, 120, 180)' fill-opacity = '0.250000' points = '328.2,287.4 328.2,662.4 330.1,662.4 330.1,285.4 '/>
		<polygon fill = 'rgb( 31, 120, 180)' fill-opacity = '0.250000' points = '330.1,285.4 330.1,662.4 332.0,662.4 332.0,283.2 '/>
		<polygon fill = 'rgb( 31, 120, 180)' fill-opacity = '0.250000' points = '332.0,283.2 332.0,662.4 333.9,662.4 333.9,280.6 '/>
		<polygon fill = 'rgb( 31, 120, 180)' fill-opacity = '0.250000' points = '333.9,280.6 333.9,662.4 335.8,662.4 335.8,277.7 '/>
		<polygon fill = 'rgb( 31, 120, 180)' fill-opacity = '0.250000' points = '335.8,277.7 335.8,662.4 337.7,662.4 337.7,274.6 '/>
		<polygon fill = 'rgb( 31, 120, 180)' fill-opacity = '0.250000' points = '337.7,274.6 337.7,662.4 339.7,662.4 339.7,271.3 '/>
		<polygon fill = 'rgb( 31, 120, 180)' fill-opacity = '0.250000' points = '339.7,271.3 339.7,662.4 341.6,662.4 341.6,267.7 '/>
		<polygon fill = 'rgb( 31, 120, 180)' fill-opacity = '0.250000' points = '341.6,267.7 341.6,662.4 343.5,662.4 343.5,263.9 '/>
		<polygon fill = 'rgb( 31, 120, 180)' fill-opacity = '0.250000' points = '343.5,263.9 343.5,662.4 345.4,662.4 345.4,259.9 '/>
		<polygon fill = 'rgb( 31, 120, 180)' fill-opacity = '0.250000' points = '345.4,259.9 345.4,662.4 347.3,662.4 347.3,255.8 '/>
		<polygon fill = 'rgb( 31, 120, 180)' fill-opacity = '0.250000' points = '347.3,255.8 347.3,662.4 349.2,662.4 349.2,251.4 '/>
		<polygon fill = 'rgb( 31, 120, 180)' fill-opacity = '0.250000' points = '349.2,251.4 349.2,662.4 351.1,662.4 351.1,247.0 '/>
		<polygon fill = 'rgb( 31, 120, 180)' fill-opacity = '0.250000' points = '351.1,247.0 351.1,662.4 353.0,662.4 353.0,242.4 '/>
		<polygon fill = 'rgb( 31, 120, 180)' fill-opacity = '0.250000' points = '353.0,242.4 353.0,662.4 354.9,662.4 354.9,237.7 '/>
		<polygon fill = 'rgb( 31, 120, 180)' fill-opacity = '0.250000' points = '354.9,237.7 354.9,662.4 356.8,662.4 356.8,232.9 '/>
		<polygon fill = 'rgb( 31, 120, 180)' fill-opacity = '0.250000' points = '356.8,232.9 356.8,662.4 358.7,662.4 358.7,228.1 '/>
		<polygon fill = 'rgb( 31, 120, 180)' fill-opacity = '0.250000' points = '358.7,228.1 358.7,662.4 360.6,662.4 360.6,223.1 '/>
		<polygon fill = 'rgb( 31, 120, 180)' fill-opacity = '0.250000' points = '360.6,223.1 360.6,662.4 362.5,662.4 362.5,218.2 '/>
		<polygon fill = 'rgb( 31, 120, 180)' fill-opacity = '0.250000' points = '362.5,218.2 362.5,662.4 364.4,662.4 364.4,213.2 '/>
		<polygon fill = 'rgb( 31, 120, 180)' fill-opacity = '0.250000' points = '364.4,213.2 364.4,662.4 366.3,662.4 366.3,208.2 '/>
		<polygon fill = 'rgb( 31, 120, 180)' fill-opacity = '0.250000' points = '366.3,208.2 366.3,662.4 368.2,662.4 368.2,203.3 '/>
		<polygon fill = 'rgb( 31, 120, 180)' fill-opacity = '0.250000' points = '368.2,203.3 368.2,662.4 370.1,662.4 370.1,198.3 '/>
		<polygon fill = 'rgb( 31, 120, 180)' fill-opacity = '0.250000' points = '370.1,198.3 370.1,662.4 372.0,662.4 372.0,193.3 '/>
		<polygon fill = 'rgb( 31, 120, 180)' fill-opacity = '0.250000' points = '372.0,193.3 372.0,662.4 373.9,662.4 373.9,188.5 '/>
		<polygon fill = 'rgb( 31, 120, 180)' fill-opacity = '0.250000' points = '373.9,188.5 373.9,662.4 375.8,662.4 375.8,183.6 '/>
		<polygon fill = 'rgb( 31, 120, 180)' fill-opacity = '0.250000' points = '375.8,183.6 375.8,662.4 377.7,662.4 377.7,178.8 '/>
		<polygon fill = 'rgb( 31, 120, 180)' fill-opacity = '0.250000' points = '377.7,178.8 377.7,662.4 379.6,662.4 379.6,174.2 '/>
		<polygon fill = 'rgb( 31, 120, 180)' fill-opacity = '0.250000' points = '379.6,174.2 379.6,662.4 381.5,662.4 381.5,169.6 '/>
		<polygon fill = 'rgb( 31, 120, 180)' fill-opacity = '0.250000' points = '381.5,169.6 381.5,662.4 383.4,662.4 383.4,165.1 '/>
		<polygon fill = 'rgb( 31, 120, 180)' fill-opacity = '0.250000' points = '383.4,165.1 383.4,662.4 385.3,662.4 385.3,160.7 '/>
		<polygon fill = 'rgb( 31, 120, 180)' fill-opacity = '0.250000' points = '385.3,160.7 385.3,662.4 387.2,662.4 387.2,156.4 '/>
		<polygon fill = 'rgb( 31, 120, 180)' fill-opacity = '0.250000' points = '387.2,156.4 387.2,662.4 389.2,662.4 389.2,152.3 '/>
		<polygon fill = 'rgb( 31, 120, 180)' fill-opacity = '0.250000' points = '389.2,152.3 389.2,662.4 391.1,662.4 391.1,148.3 '/>
		<polygon fill = 'rgb( 31, 120, 180)' fill-opacity = '0.250000' points = '391.1,148.3 391.1,662.4 393.0,662.4 393.0,144.5 '/>
		<polygon fill = 'rgb( 31, 120, 180)' fill-opacity = '0.250000' points = '393.0,144.5 393.0,662.4 394.9,662.4 394.9,140.8 '/>
		<polygon fill = 'rgb( 31, 120, 180)' fill-opacity = '0.250000' points = '394.9,140.8 394.9,662.4 396.8,662.4 396.8,137.4 '/>
		<polygon fill = 'rgb( 31, 120, 180)' fill-opacity = '0.250000' points = '396.8,137.4 396.8,662.4 398.7,662.4 398.7,134.1 '/>
		<polygon fill = 'rgb( 31, 120, 180)' fill-opacity = '0.250000' points = '398.7,134.1 398.7,662.4 400.6,662.4 400.6,131.0 '/>
		<polygon fill = 'rgb( 31, 120, 180)' fill-opacity = '0.250000' points = '400.6,131.0 400.6,662.4 402.5,662.4 402.5,128.1 '/>
		<polygon fill = 'rgb( 31, 120, 180)' fill-opacity = '0.250000' points = '402.5,128.1 402.5,662.4 404.4,662.4 404.4,125.5 '/>
		<polygon fill = 'rgb( 31, 120, 180)' fill-opacity = '0.250000' points = '404.4,125.5 404.4,662.4 406.3,662.4 406.3,123.1 '/>
		<polygon fill = 'rgb( 31, 120, 180)' fill-opacity = '0.250000' points = '406.3,123.1 406.3,662.4 408.2,662.4 408.2,120.9 '/>
		<polygon fill = 'rgb( 31, 120, 180)' fill-opacity = '0.250000' points = '408.2,120.9 408.2,662.4 410.1,662.4 410.1,119.0 '/>
		<polygon fill = 'rgb( 31, 120, 180)' fill-opacity = '0.250000' points = '410.1,119.0 410.1,662.4 412.0,662.4 412.0,117.3 '/>
		<polygon fill = 'rgb( 31, 120, 180)' fill-opacity = '0.250000' points = '412.0,117.3 412.0,662.4 413.9,662.4 413.9,115.9 '/>
		<polygon fill = 'rgb( 31, 120, 180)' fill-opacity = '0.250000' points = '413.9,115.9 413.9,662.4 415.8,662.4 415.8,114.8 '/>
		<polygon fill = 'rgb( 31, 120, 180)' fill-opacity = '0.250000' points = '415.8,114.8 415.8,662.4 417.7,662.4 417.7,114.0 '/>
		<polygon fill = 'rgb( 31, 120, 180)' fill-opacity = '0.250000' points = '417.7,114.0 417.7,662.4 419.6,662.4 419.6,113.4 '/>
		<polygon fill = 'rgb( 31, 120, 180)' fill-opacity = '0.250000' points = '419.6,113.4 419.6,662.4 421.5,662.4 421.5,113.1 '/>
		<polygon fill = 'rgb( 31, 120, 180)' fill-opacity = '0.250000' points = '421.5,113.1 421.5,662.4 423.4,662.4 423.4,113.1 '/>
		<polygon fill = 'rgb( 31, 120, 180)' fill-opacity = '0.250000' points = '423.4,113.1 423.4,662.4 425.3,662.4 425.3,113.4 '/>
		<polygon fill = 'rgb( 31, 120, 180)' fill-opacity = '0.250000' points = '425.3,113.4 425.3,662.4 427.2,662.4 427.2,114.0 '/>
		<polygon fill = 'rgb( 31, 120, 180)' fill-opacity = '0.250000' points = '427.2,114.0 427.2,662.4 429.1,662.4 429.1,114.8 '/>
		<polygon fill = 'rgb( 31, 120, 180)' fill-opacity = '0.250000' points = '429.1,114.8 429.1,662.4 431.0,662.4 431.0,115.9 '/>
		<polygon fill = 'rgb( 31, 120, 180)' fill-opacity = '0.250000' points = '431.0,115.9 431.0,662.4 432.9,662.4 432.9,117.4 '/>
		<polygon fill = 'rgb( 31, 120, 180)' fill-opacity = '0.250000' points = '432.9,117.4 432.9,662.4 434.8,662.4 434.8,119.0 '/>
		<polygon fill = 'rgb( 31, 120, 180)' fill-opacity = '0.250000' points = '434.8,119.0 434.8,662.4 436.7,662.4 436.7,121.0 '/>
		<polygon fill = 'rgb( 31, 120, 180)' fill-opacity = '0.250000' points = '436.7,121.0 436.7,662.4 438.7,662.4 438.7,123.2 '/>
		<polygon fill = 'rgb( 31, 120, 180)' fill-opacity = '0.250000' points = '438.7,123.2 438.7,662.4 440.6,662.4 440.6,125.7 '/>
		<polygon fill = 'rgb( 31, 120, 180)' fill-opacity = '0.250000' points = '440.6,125.7 440.6,662.4 442.5,662.4 442.5,128.4 '/>
		<polygon fill = 'rgb( 31, 120, 180)' fill-opacity = '0.250000' points = '442.5,128.4 442.5,662.4 444.4,662.4 444.4,131.4 '/>
		<polygon fill = 'rgb( 31, 120, 180)' fill-opacity = '0.250000' points = '444.4,131.4 444.4,662.4 446.3,662.4 446.3,134.6 '/>
		<polygon fill = 'rgb( 31, 120, 180)' fill-opacity = '0.250000' points = '446.3,134.6 446.3,662.4 448.2,662.4 448.2,138.0 '/>
		<polygon fill = 'rgb( 31, 120, 180)' fill-opacity = '0.250000' points = '448.2,138.0 448.2,662.4 450.1,662.4 450.1,141.6 '/>
		<polygon fill = 'rgb( 31, 120, 180)' fill-opacity = '0.250000' points = '450.1,141.6 450.1,662.4 452.0,662.4 452.0,145.5 '/>
		<polygon fill = 'rgb( 31, 120, 180)' fill-opacity = '0.250000' points = '452.0,145.5 452.0,662.4 453.9,662.4 453.9,149.5 '/>
		<polygon fill = 'rgb( 31, 120, 180)' fill-opacity = '0.250000' points = '453.9,149.5 453.9,662.4 455.8,662.4 455.8,153.7 '/>
		<polygon fill = 'rgb( 31, 120, 180)' fill-opacity = '0.250000' points = '455.8,153.7 455.8,662.4 457.7,662.4 457.7,158.1 '/>
		<polygon fill = 'rgb( 31, 120, 180)' fill-opacity = '0.250000' points = '457.7,158.1 457.7,662.4 459.6,662.4 459.6,162.7 '/>
		<polygon fill = 'rgb( 31, 120, 180)' fill-opacity = '0.250000' points = '459.6,162.7 459.6,662.4 461.5,662.4 461.5,167.4 '/>
		<polygon fill = 'rgb( 31, 120, 180)' fill-opacity = '0.250000' points = '461.5,167.4 461.5,662.4 463.4,662.4 463.4,172.3 '/>
		<polygon fill = 'rgb( 31, 120, 180)' fill-opacity = '0.250000' points = '463.4,172.3 463.4,662.4 465.3,662.4 465.3,177.3 '/>
		<polygon fill = 'rgb( 31, 120, 180)' fill-opacity = '0.250000' points = '465.3,177.3 465.3,662.4 467.2,662.4 467.2,182.4 '/>
		<polygon fill = 'rgb( 31, 120, 180)' fill-opacity = '0.250000' points = '467.2,182.4 467.2,662.4 469.1,662.4 469.1,187.6 '/>
		<polygon fill = 'rgb( 31, 120, 180)' fill-opacity = '0.250000' points = '469.1,187.6 469.1,662.4 471.0,662.4 471.0,193.0 '/>
		<polygon fill = 'rgb( 31, 120, 180)' fill-opacity = '0.250000' points = '471.0,193.0 471.0,662.4 472.9,662.4 472.9,198.4 '/>
		<polygon fill = 'rgb( 31, 120, 180)' fill-opacity = '0.250000' points = '472.9,198.4 472.9,662.4 474.8,662.4 474.8,203.9 '/>
		<polygon fill = 'rgb( 31, 120, 180)' fill-opacity = '0.250000' points = '474.8,203.9 474.8,662.4 476.7,662.4 476.7,209.4 '/>
		<polygon fill = 'rgb( 31, 120, 180)' fill-opacity = '0.250000' points = '476.7,209.4 476.7,662.4 478.6,662.4 478.6,215.0 '/>
		<polygon fill = 'rgb( 31, 120, 180)' fill-opacity = '0.250000' points = '478.6,215.0 478.6,662.4 480.5,662.4 480.5,220.6 '/>
		<polygon fill = 'rgb( 31, 120, 180)' fill-opacity = '0.250000' points = '480.5,220.6 480.5,662.4 482.4,662.4 482.4,226.3 '/>
		<polygon fill = 'rgb( 31, 120, 180)' fill-opacity = '0.250000' points = '482.4,226.3 482.4,662.4 484.3,662.4 484.3,231.9 '/>
		<polygon fill = 'rgb( 31, 120, 180)' fill-opacity = '0.250000' points = '484.3,231.9 484.3,662.4 486.2,662.4 486.2,237.6 '/>
		<polygon fill = 'rgb( 31, 120, 180)' fill-opacity = '0.250000' points = '486.2,237.6 486.2,662.4 488.1,662.4 488.1,243.2 '/>
		<polygon fill = 'rgb( 31, 120, 180)' fill-opacity = '0.250000' points = '488.1,243.2 488.1,662.4 490.1,662.4 490.1,248.7 '/>
		<polygon fill = 'rgb( 31, 120, 180)' fill-opacity = '0.250000' points = '490.1,248.7 490.1,662.4 492.0,662.4 492.0,254.3 '/>
		<polygon fill = 'rgb( 31, 120, 180)' fill-opacity = '0.250000' points = '492.0,254.3 492.0,662.4 493.9,662.4 493.9,259.7 '/>
		<polygon fill = 'rgb( 31, 120, 180)' fill-opacity = '0.250000' points = '493.9,259.7 493.9,662.4 495.8,662.4 495.8,265.1 '/>
		<polygon fill = 'rgb( 31, 120, 180)' fill-opacity = '0.250000' points = '495.8,265.1 495.8,662.4 497.7,662.4 497.7,270.4 '/>
		<polygon fill = 'rgb( 31, 120, 180)' fill-opacity = '0.250000' points = '497.7,270.4 497.7,662.4 499.6,662.4 499.6,275.6 '/>
		<polygon fill = 'rgb( 31, 120, 180)' fill-opacity = '0.250000' points = '499.6,275.6 499.6,662.4 501.5,662.4 501.5,280.7 '/>
		<polygon fill = 'rgb( 31, 120, 180)' fill-opacity = '0.250000' points = '501.5,280.7 501.5,662.4 503.4,662.4 503.4,285.7 '/>
		<polygon fill = 'rgb( 31, 120, 180)' fill-opacity = '0.250000' points = '503.4,285.7 503.4,662.4 505.3,662.4 505.3,290.6 '/>
		<polygon fill = 'rgb( 31, 120, 180)' fill-opacity = '0.250000' points = '505.3,290.6 505.3,662.4 507.2,662.4 507.2,295.3 '/>
		<polygon fill = 'rgb( 31, 120, 180)' fill-opacity = '0.250000' points = '507.2,295.3 507.2,662.4 509.1,662.4 509.1,299.9 '/>
		<polygon fill = 'rgb( 31, 120, 180)' fill-opacity = '0.250000' points = '509.1,299.9 509.1,662.4 511.0,662.4 511.0,304.3 '/>
		<polygon fill = 'rgb( 31, 120, 180)' fill-opacity = '0.250000' points = '511.0,304.3 511.0,662.4 512.9,662.4 512.9,308.6 '/>
		<polygon fill = 'rgb( 31, 120, 180)' fill-opacity = '0.250000' points = '512.9,308.6 512.9,662.4 514.8,662.4 514.8,312.7 '/>
		<polygon fill = 'rgb( 31, 120, 180)' fill-opacity = '0.250000' points = '514.8,312.7 514.8,662.4 516.7,662.4 516.7,316.6 '/>
		<polygon fill = 'rgb( 31, 120, 180)' fill-opacity = '0.250000' points = '516.7,316.6 516.7,662.4 518.6,662.4 518.6,320.4 '/>
		<polygon fill = 'rgb( 31, 120, 180)' fill-opacity = '0.250000' points = '518.6,320.4 518.6,662.4 520.5,662.4 520.5,324.0 '/>
		<polygon fill = 'rgb( 31, 120, 180)' fill-opacity = '0.250000' points = '520.5,324.0 520.5,662.4 522.4,662.4 522.4,327.4 '/>
		<polygon fill = 'rgb( 31, 120, 180)' fill-opacity = '0.250000' points = '522.4,327.4 522.4,662.4 524.3,662.4 524.3,330.6 '/>
		<polygon fill = 'rgb( 31, 120, 180)' fill-opacity = '0.250000' points = '524.3,330.6 524.3,662.4 526.2,662.4 526.2,333.7 '/>
		<polygon fill = 'rgb( 31, 120, 180)' fill-opacity = '0.250000' points = '526.2,333.7 526.2,662.4 528.1,662.4 528.1,336.5 '/>
		<polygon fill = 'rgb( 31, 120, 180)' fill-opacity = '0.250000' points = '528.1,336.5 528.1,662.4 530.0,662.4 530.0,339.2 '/>
		<polygon fill = 'rgb( 31, 120, 180)' fill-opacity = '0.250000' points = '530.0,339.2 530.0,662.4 531.9,662.4 531.9,341.6 '/>
		<polygon fill = 'rgb( 31, 120, 180)' fill-opacity = '0.250000' points = '531.9,341.6 531.9,662.4 533.8,662.4 533.8,343.9 '/>
		<polygon fill = 'rgb( 31, 120, 180)' fill-opacity = '0.250000' points = '533.8,343.9 533.8,662.4 535.7,662.4 535.7,346.0 '/>
		<polygon fill = 'rgb( 31, 120, 180)' fill-opacity = '0.250000' points = '535.7,346.0 535.7,662.4 537.6,662.4 537.6,347.9 '/>
		<polygon fill = 'rgb( 31, 120, 180)' fill-opacity = '0.250000' points = '537.6,347.9 537.6,662.4 539.6,662.4 539.6,349.5 '/>
		<polygon fill = 'rgb( 31, 120, 180)' fill-opacity = '0.250000' points = '539.6,349.5 539.6,662.4 541.5,662.4 541.5,351.1 '/>
		<polygon fill = 'rgb( 31, 120, 180)' fill-opacity = '0.250000' points = '541.5,351.1 541.5,662.4 543.4,662.4 543.4,352.4 '/>
		<polygon fill = 'rgb( 31, 120, 180)' fill-opacity = '0.250000' points = '543.4,352.4 543.4,662.4 545.3,662.4 545.3,353.5 '/>
		<polygon fill = 'rgb( 31, 120, 180)' fill-opacity = '0.250000' points = '545.3,353.5 545.3,662.4 547.2,662.4 547.2,354.5 '/>
		<polygon fill = 'rgb( 31, 120, 180)' fill-opacity = '0.250000' points = '547.2,354.5 547.2,662.4 549.1,662.4 549.1,355.3 '/>
		<polygon fill = 'rgb( 31, 120, 180)' fill-opacity = '0.250000' points = '549.1,355.3 549.1,662.4 551.0,662.4 551.0,356.0 '/>
		<polygon fill = 'rgb( 31, 120, 180)' fill-opacity = '0.250000' points = '551.0,356.0 551.0,662.4 552.9,662.4 552.9,356.5 '/>
		<polygon fill = 'rgb( 31, 120, 180)' fill-opacity = '0.250000' points = '552.9,356.5 552.9,662.4 554.8,662.4 554.8,356.9 '/>
		<polygon fill = 'rgb( 31, 120, 180)' fill-opacity = '0.250000' points = '554.8,356.9 554.8,662.4 556.7,662.4 556.7,357.1 '/>
		<polygon fill = 'rgb( 31, 120, 180)' fill-opacity = '0.250000' points = '556.7,357.1 556.7,662.4 558.6,662.4 558.6,357.2 '/>
		<polygon fill = 'rgb( 31, 120, 180)' fill-opacity = '0.250000' points = '558.6,357.2 558.6,662.4 560.5,662.4 560.5,357.3 '/>
		<polygon fill = 'rgb( 31, 120, 180)' fill-opacity = '0.250000' points = '560.5,357.3 560.5,662.4 562.4,662.4 562.4,357.2 '/>
		<polygon fill = 'rgb( 31, 120, 180)' fill-opacity = '0.250000' points = '562.4,357.2 562.4,662.4 564.3,662.4 564.3,357.0 '/>
		<polygon fill = 'rgb( 31, 120, 180)' fill-opacity = '0.250000' points = '564.3,357.0 564.3,662.4 566.2,662.4 566.2,356.8 '/>
		<polygon fill = 'rgb( 31, 120, 180)' fill-opacity = '0.250000' points = '566.2,356.8 566.2,662.4 568.1,662.4 568.1,356.4 '/>
		<polygon fill = 'rgb( 31, 120, 180)' fill-opacity = '0.250000' points = '568.1,356.4 568.1,662.4 570.0,662.4 570.0,356.1 '/>
		<polygon fill = 'rgb( 31, 120, 180)' fill-opacity = '0.250000' points = '570.0,356.1 570.0,662.4 571.9,662.4 571.9,355.7 '/>
		<polygon fill = 'rgb( 31, 120, 180)' fill-opacity = '0.250000' points = '571.9,355.7 571.9,662.4 573.8,662.4 573.8,355.2 '/>
		<polygon fill = 'rgb( 31, 120, 180)' fill-opacity = '0.250000' points = '573.8,355.2 573.8,662.4 575.7,662.4 575.7,354.8 '/>
		<polygon fill = 'rgb( 31, 120, 180)' fill-opacity = '0.250000' points = '575.7,354.8 575.7,662.4 577.6,662.4 577.6,354.3 '/>
		<polygon fill = 'rgb( 31, 120, 180)' fill-opacity = '0.250000' points = '577.6,354.3 577.6,662.4 579.5,662.4 579.5,353.9 '/>
		<polygon fill = 'rgb( 31, 120, 180)' fill-opacity = '0.250000' points = '579.5,353.9 579.5,662.4 581.4,662.4 581.4,353.4 '/>
		<polygon fill = 'rgb( 31, 120, 180)' fill-opacity = '0.250000' points = '581.4,353.4 581.4,662.4 583.3,662.4 583.3,353.0 '/>
		<polygon fill = 'rgb( 31, 120, 180)' fill-opacity = '0.250000' points = '583.3,353.0 583.3,662.4 585.2,662.4 585.2,352.6 '/>
		<polygon fill = 'rgb( 31, 120, 180)' fill-opacity = '0.250000' points = '585.2,352.6 585.2,662.4 587.1,662.4 587.1,352.2 '/>
		<polygon fill = 'rgb( 31, 120, 180)' fill-opacity = '0.250000' points = '587.1,352.2 587.1,662.4 589.1,662.4 589.1,351.9 '/>
		<polygon fill = 'rgb( 31, 120, 180)' fill-opacity = '0.250000' points = '589.1,351.9 589.1,662.4 591.0,662.4 591.0,351.7 '/>
		<polygon fill = 'rgb( 31, 120, 180)' fill-opacity = '0.250000' points = '591.0,351.7 591.0,662.4 592.9,662.4 592.9,351.5 '/>
		<polygon fill = 'rgb( 31, 120, 180)' fill-opacity = '0.250000' points = '592.9,351.5 592.9,662.4 594.8,662.4 594.8,351.3 '/>
		<polygon fill = 'rgb( 31, 120, 180)' fill-opacity = '0.250000' points = '594.8,351.3 594.8,662.4 596.7,662.4 596.7,351.2 '/>
		<polygon fill = 'rgb( 31, 120, 180)' fill-opacity = '0.250000' points = '596.7,351.2 596.7,662.4 598.6,662.4 598.6,351.2 '/>
		<polygon fill = 'rgb( 31, 120, 180)' fill-opacity = '0.250000' points = '598.6,351.2 598.6,662.4 600.5,662.4 600.5,351.3 '/>
		<polygon fill = 'rgb( 31, 120, 180)' fill-opacity = '0.250000' points = '600.5,351.3 600.5,662.4 602.4,662.4 602.4,351.5 '/>
		<polygon fill = 'rgb( 31, 120, 180)' fill-opacity = '0.250000' points = '602.4,351.5 602.4,662.4 604.3,662.4 604.3,351.7 '/>
		<polygon fill = 'rgb( 31, 120, 180)' fill-opacity = '0.250000' points = '604.3,351.7 604.3,662.4 606.2,662.4 606.2,352.0 '/>
		<polygon fill = 'rgb( 31, 120, 180)' fill-opacity = '0.250000' points = '606.2,352.0 606.2,662.4 608.1,662.4 608.1,352.4 '/>
		<polygon fill = 'rgb( 31, 120, 180)' fill-opacity = '0.250000' points = '608.1,352.4 608.1,662.4 610.0,662.4 610.0,352.9 '/>
		<polygon fill = 'rgb( 31, 120, 180)' fill-opacity = '0.250000' points = '610.0,352.9 610.0,662.4 611.9,662.4 611.9,353.5 '/>
		<polygon fill = 'rgb( 31, 120, 180)' fill-opacity = '0.250000' points = '611.9,353.5 611.9,662.4 613.8,662.4 613.8,354.2 '/>
		<polygon fill = 'rgb( 31, 120, 180)' fill-opacity = '0.250000' points = '613.8,354.2 613.8,662.4 615.7,662.4 615.7,355.0 '/>
		<polygon fill = 'rgb( 31, 120, 180)' fill-opacity = '0.250000' points = '615.7,355.0 615.7,662.4 617.6,662.4 617.6,355.8 '/>
		<polygon fill = 'rgb( 31, 120, 180)' fill-opacity = '0.250000' points = '617.6,355.8 617.6,662.4 619.5,662.4 619.5,356.8 '/>
		<polygon fill = 'rgb( 31, 120, 180)' fill-opacity = '0.250000' points = '619.5,356.8 619.5,662.4 621.4,662.4 621.4,357.8 '/>
		<polygon fill = 'rgb( 31, 120, 180)' fill-opacity = '0.250000' points = '621.4,357.8 621.4,662.4 623.3,662.4 623.3,358.9 '/>
		<polygon fill = 'rgb( 31, 120, 180)' fill-opacity = '0.250000' points = '623.3,358.9 623.3,662.4 625.2,662.4 625.2,360.1 '/>
		<polygon fill = 'rgb( 31, 120, 180)' fill-opacity = '0.250000' points = '625.2,360.1 625.2,662.4 627.1,662.4 627.1,361.4 '/>
		<polygon fill = 'rgb( 31, 120, 180)' fill-opacity = '0.250000' points = '627.1,361.4 627.1,662.4 629.0,662.4 629.0,362.8 '/>
		<polygon fill = 'rgb( 31, 120, 180)' fill-opacity = '0.250000' points = '629.0,362.8 629.0,662.4 630.9,662.4 630.9,364.3 '/>
		<polygon fill = 'rgb( 31, 120, 180)' fill-opacity = '0.250000' points = '630.9,364.3 630.9,662.4 632.8,662.4 632.8,365.9 '/>
		<polygon fill = 'rgb( 31, 120, 180)' fill-opacity = '0.250000' points = '632.8,365.9 632.8,662.4 634.7,662.4 634.7,367.5 '/>
		<polygon fill = 'rgb( 31, 120, 180)' fill-opacity = '0.250000' points = '634.7,367.5 634.7,662.4 636.6,662.4 636.6,369.3 '/>
		<polygon fill = 'rgb( 31, 120, 180)' fill-opacity = '0.250000' points = '636.6,369.3 636.6,662.4 638.5,662.4 638.5,371.1 '/>
		<polygon fill = 'rgb( 31, 120, 180)' fill-opacity = '0.250000' points = '638.5,371.1 638.5,662.4 640.5,662.4 640.5,373.0 '/>
		<polygon fill = 'rgb( 31, 120, 180)' fill-opacity = '0.250000' points = '640.5,373.0 640.5,662.4 642.4,662.4 642.4,375.0 '/>
		<polygon fill = 'rgb( 31, 120, 180)' fill-opacity = '0.250000' points = '642.4,375.0 642.4,662.4 644.3,662.4 644.3,377.1 '/>
		<polygon fill = 'rgb( 31, 120, 180)' fill-opacity = '0.250000' points = '644.3,377.1 644.3,662.4 646.2,662.4 646.2,379.3 '/>
		<polygon fill = 'rgb( 31, 120, 180)' fill-opacity = '0.250000' points = '646.2,379.3 646.2,662.4 648.1,662.4 648.1,381.5 '/>
		<polygon fill = 'rgb( 31, 120, 180)' fill-opacity = '0.250000' points = '648.1,381.5 648.1,662.4 650.0,662.4 650.0,383.9 '/>
		<polygon fill = 'rgb( 31, 120, 180)' fill-opacity = '0.250000' points = '650.0,383.9 650.0,662.4 651.9,662.4 651.9,386.3 '/>
		<polygon fill = 'rgb( 31, 120, 180)' fill-opacity = '0.250000' points = '651.9,386.3 651.9,662.4 653.8,662.4 653.8,388.8 '/>
		<polygon fill = 'rgb( 31, 120, 180)' fill-opacity = '0.250000' points = '653.8,388.8 653.8,662.4 655.7,662.4 655.7,391.4 '/>
		<polygon fill = 'rgb( 31, 120, 180)' fill-opacity = '0.250000' points = '655.7,391.4 655.7,662.4 657.6,662.4 657.6,394.1 '/>
		<polygon fill = 'rgb( 31, 120, 180)' fill-opacity = '0.250000' points = '657.6,394.1 657.6,662.4 659.5,662.4 659.5,396.9 '/>
		<polygon fill = 'rgb( 31, 120, 180)' fill-opacity = '0.250000' points = '659.5,396.9 659.5,662.4 661.4,662.4 661.4,399.7 '/>
		<polygon fill = 'rgb( 31, 120, 180)' fill-opacity = '0.250000' points = '661.4,399.7 661.4,662.4 663.3,662.4 663.3,402.6 '/>
		<polygon fill = 'rgb( 31, 120, 180)' fill-opacity = '0.250000' points = '663.3,402.6 663.3,662.4 665.2,662.4 665.2,405.5 '/>
		<polygon fill = 'rgb( 31, 120, 180)' fill-opacity = '0.250000' points = '665.2,405.5 665.2,662.4 667.1,662.4 667.1,408.5 '/>
		<polygon fill = 'rgb( 31, 120, 180)' fill-opacity = '0.250000' points = '667.1,408.5 667.1,662.4 669.0,662.4 669.0,411.6 '/>
		<polygon fill = 'rgb( 31, 120, 180)' fill-opacity = '0.250000' points = '669.0,411.6 669.0,662.4 670.9,662.4 670.9,414.7 '/>
		<polygon fill = 'rgb( 31, 120, 180)' fill-opacity = '0.250000' points = '670.9,414.7 670.9,662.4 672.8,662.4 672.8,417.9 '/>
		<polygon fill = 'rgb( 31, 120, 180)' fill-opacity = '0.250000' points = '672.8,417.9 672.8,662.4 674.7,662.4 674.7,421.1 '/>
		<polygon fill = 'rgb( 31, 120, 180)' fill-opacity = '0.250000' points = '674.7,421.1 674.7,662.4 676.6,662.4 676.6,424.4 '/>
		<polygon fill = 'rgb( 31, 120, 180)' fill-opacity = '0.250000' points = '676.6,424.4 676.6,662.4 678.5,662.4 678.5,427.7 '/>
		<polygon fill = 'rgb( 31, 120, 180)' fill-opacity = '0.250000' points = '678.5,427.7 678.5,662.4 680.4,662.4 680.4,431.1 '/>
		<polygon fill = 'rgb( 31, 120, 180)' fill-opacity = '0.250000' points = '680.4,431.1 680.4,662.4 682.3,662.4 682.3,434.4 '/>
		<polygon fill = 'rgb( 31, 120, 180)' fill-opacity = '0.250000' points = '682.3,434.4 682.3,662.4 684.2,662.4 684.2,437.8 '/>
		<polygon fill = 'rgb( 31, 120, 180)' fill-opacity = '0.250000' points = '684.2,437.8 684.2,662.4 686.1,662.4 686.1,441.2 '/>
		<polygon fill = 'rgb( 31, 120, 180)' fill-opacity = '0.250000' points = '686.1,441.2 686.1,662.4 688.0,662.4 688.0,444.6 '/>
		<polygon fill = 'rgb( 31, 120, 180)' fill-opacity = '0.250000' points = '688.0,444.6 688.0,662.4 690.0,662.4 690.0,448.0 '/>
		<polygon fill = 'rgb( 31, 120, 180)' fill-opacity = '0.250000' points = '690.0,448.0 690.0,662.4 691.9,662.4 691.9,451.5 '/>
		<polygon fill = 'rgb( 31, 120, 180)' fill-opacity = '0.250000' points = '691.9,451.5 691.9,662.4 693.8,662.4 693.8,454.9 '/>
		<polygon fill = 'rgb( 31, 120, 180)' fill-opacity = '0.250000' points = '693.8,454.9 693.8,662.4 695.7,662.4 695.7,458.3 '/>
		<polygon fill = 'rgb( 31, 120, 180)' fill-opacity = '0.250000' points = '695.7,458.3 695.7,662.4 697.6,662.4 697.6,461.7 '/>
		<polygon fill = 'rgb( 31, 120, 180)' fill-opacity = '0.250000' points = '697.6,461.7 697.6,662.4 699.5,662.4 699.5,465.0 '/>
		<polygon fill = 'rgb( 31, 120, 180)' fill-opacity = '0.250000' points = '699.5,465.0 699.5,662.4 701.4,662.4 701.4,468.3 '/>
		<polygon fill = 'rgb( 31, 120, 180)' fill-opacity = '0.250000' points = '701.4,468.3 701.4,662.4 703.3,662.4 703.3,471.6 '/>
		<polygon fill = 'rgb( 31, 120, 180)' fill-opacity = '0.250000' points = '703.3,471.6 703.3,662.4 705.2,662.4 705.2,474.9 '/>
		<polygon fill = 'rgb( 31, 120, 180)' fill-opacity = '0.250000' points = '705.2,474.9 705.2,662.4 707.1,662.4 707.1,478.1 '/>
		<polygon fill = 'rgb( 31, 120, 180)' fill-opacity = '0.250000' points = '707.1,478.1 707.1,662.4 709.0,662.4 709.0,481.2 '/>
		<polygon fill = 'rgb( 31, 120, 180)' fill-opacity = '0.250000' points = '709.0,481.2 709.0,662.4 710.9,662.4 710.9,484.3 '/>
		<polygon fill = 'rgb( 31, 120, 180)' fill-opacity = '0.250000' points = '710.9,484.3 710.9,662.4 712.8,662.4 712.8,487.4 '/>
		<polygon fill = 'rgb( 31, 120, 180)' fill-opacity = '0.250000' points = '712.8,487.4 712.8,662.4 714.7,662.4 714.7,490.3 '/>
		<polygon fill = 'rgb( 31, 120, 180)' fill-opacity = '0.250000' points = '714.7,490.3 714.7,662.4 716.6,662.4 716.6,493.2 '/>
		<polygon fill = 'rgb( 31, 120, 180)' fill-opacity = '0.250000' points = '716.6,493.2 716.6,662.4 718.5,662.4 718.5,496.0 '/>
		<polygon fill = 'rgb( 31, 120, 180)' fill-opacity = '0.250000' points = '718.5,496.0 718.5,662.4 720.4,662.4 720.4,498.8 '/>
		<polygon fill = 'rgb( 31, 120, 180)' fill-opacity = '0.250000' points = '720.4,498.8 720.4,662.4 722.3,662.4 722.3,501.5 '/>
		<polygon fill = 'rgb( 31, 120, 180)' fill-opacity = '0.250000' points = '722.3,501.5 722.3,662.4 724.2,662.4 724.2,504.1 '/>
		<polygon fill = 'rgb( 31, 120, 180)' fill-opacity = '0.250000' points = '724.2,504.1 724.2,662.4 726.1,662.4 726.1,506.6 '/>
		<polygon fill = 'rgb( 31, 120, 180)' fill-opacity = '0.250000' points = '726.1,506.6 726.1,662.4 728.0,662.4 728.0,509.0 '/>
		<polygon fill = 'rgb( 31, 120, 180)' fill-opacity = '0.250000' points = '728.0,509.0 728.0,662.4 729.9,662.4 729.9,511.3 '/>
		<polygon fill = 'rgb( 31, 120, 180)' fill-opacity = '0.250000' points = '729.9,511.3 729.9,662.4 731.8,662.4 731.8,513.6 '/>
		<polygon fill = 'rgb( 31, 120, 180)' fill-opacity = '0.250000' points = '731.8,513.6 731.8,662.4 733.7,662.4 733.7,515.8 '/>
		<polygon fill = 'rgb( 31, 120, 180)' fill-opacity = '0.250000' points = '733.7,515.8 733.7,662.4 735.6,662.4 735.6,517.8 '/>
		<polygon fill = 'rgb( 31, 120, 180)' fill-opacity = '0.250000' points = '735.6,517.8 735.6,662.4 737.5,662.4 737.5,519.8 '/>
		<polygon fill = 'rgb( 31, 120, 180)' fill-opacity = '0.250000' points = '737.5,519.8 737.5,662.4 739.5,662.4 739.5,521.7 '/>
		<polygon fill = 'rgb( 31, 120, 180)' fill-opacity = '0.250000' points = '739.5,521.7 739.5,662.4 741.4,662.4 741.4,523.5 '/>
		<polygon fill = 'rgb( 31, 120, 180)' fill-opacity = '0.250000' points = '741.4,523.5 741.4,662.4 743.3,662.4 743.3,525.3 '/>
		<polygon fill = 'rgb( 31, 120, 180)' fill-opacity = '0.250000' points = '743.3,525.3 743.3,662.4 745.2,662.4 745.2,526.9 '/>
		<polygon fill = 'rgb( 31, 120, 180)' fill-opacity = '0.250000' points = '745.2,526.9 745.2,662.4 747.1,662.4 747.1,528.5 '/>
		<polygon fill = 'rgb( 31, 120, 180)' fill-opacity = '0.250000' points = '747.1,528.5 747.1,662.4 749.0,662.4 749.0,530.0 '/>
		<polygon fill = 'rgb( 31, 120, 180)' fill-opacity = '0.250000' points = '749.0,530.0 749.0,662.4 750.9,662.4 750.9,531.4 '/>
		<polygon fill = 'rgb( 31, 120, 180)' fill-opacity = '0.250000' points = '750.9,531.4 750.9,662.4 752.8,662.4 752.8,532.7 '/>
		<polygon fill = 'rgb( 31, 120, 180)' fill-opacity = '0.250000' points = '752.8,532.7 752.8,662.4 754.7,662.4 754.7,533.9 '/>
		<polygon fill = 'rgb( 31, 120, 180)' fill-opacity = '0.250000' points = '754.7,533.9 754.7,662.4 756.6,662.4 756.6,535.1 '/>
		<polygon fill = 'rgb( 31, 120, 180)' fill-opacity = '0.250000' points = '756.6,535.1 756.6,662.4 758.5,662.4 758.5,536.3 '/>
		<polygon fill = 'rgb( 31, 120, 180)' fill-opacity = '0.250000' points = '758.5,536.3 758.5,662.4 760.4,662.4 760.4,537.3 '/>
		<polygon fill = 'rgb( 31, 120, 180)' fill-opacity = '0.250000' points = '760.4,537.3 760.4,662.4 762.3,662.4 762.3,538.4 '/>
		<polygon fill = 'rgb( 31, 120, 180)' fill-opacity = '0.250000' points = '762.3,538.4 762.3,662.4 764.2,662.4 764.2,539.3 '/>
		<polygon fill = 'rgb( 31, 120, 180)' fill-opacity = '0.250000' points = '764.2,539.3 764.2,662.4 766.1,662.4 766.1,540.3 '/>
		<polygon fill = 'rgb( 31, 120, 180)' fill-opacity = '0.250000' points = '766.1,540.3 766.1,662.4 768.0,662.4 768.0,541.2 '/>
		<polygon fill = 'rgb( 31, 120, 180)' fill-opacity = '0.250000' points = '768.0,541.2 768.0,662.4 769.9,662.4 769.9,542.0 '/>
		<polygon fill = 'rgb( 31, 120, 180)' fill-opacity = '0.250000' points = '769.9,542.0 769.9,662.4 771.8,662.4 771.8,542.9 '/>
		<polygon fill = 'rgb( 31, 120, 180)' fill-opacity = '0.250000' points = '771.8,542.9 771.8,662.4 773.7,662.4 773.7,543.6 '/>
		<polygon fill = 'rgb( 31, 120, 180)' fill-opacity = '0.250000' points = '773.7,543.6 773.7,662.4 775.6,662.4 775.6,544.4 '/>
		<polygon fill = 'rgb( 31, 120, 180)' fill-opacity = '0.250000' points = '775.6,544.4 775.6,662.4 777.5,662.4 777.5,545.2 '/>
		<polygon fill = 'rgb( 31, 120, 180)' fill-opacity = '0.250000' points = '777.5,545.2 777.5,662.4 779.4,662.4 779.4,545.9 '/>
		<polygon fill = 'rgb( 31, 120, 180)' fill-opacity = '0.250000' points = '779.4,545.9 779.4,662.4 781.3,662.4 781.3,546.6 '/>
		<polygon fill = 'rgb( 31, 120, 180)' fill-opacity = '0.250000' points = '781.3,546.6 781.3,662.4 783.2,662.4 783.2,547.3 '/>
		<polygon fill = 'rgb( 31, 120, 180)' fill-opacity = '0.250000' points = '783.2,547.3 783.2,662.4 785.1,662.4 785.1,547.9 '/>
		<polygon fill = 'rgb( 31, 120, 180)' fill-opacity = '0.250000' points = '785.1,547.9 785.1,662.4 787.0,662.4 787.0,548.6 '/>
		<polygon fill = 'rgb( 31, 120, 180)' fill-opacity = '0.250000' points = '787.0,548.6 787.0,662.4 789.0,662.4 789.0,549.2 '/>
		<polygon fill = 'rgb( 31, 120, 180)' fill-opacity = '0.250000' points = '789.0,549.2 789.0,662.4 790.9,662.4 790.9,549.8 '/>
		<polygon fill = 'rgb( 31, 120, 180)' fill-opacity = '0.250000' points = '790.9,549.8 790.9,662.4 792.8,662.4 792.8,550.4 '/>
		<polygon fill = 'rgb( 31, 120, 180)' fill-opacity = '0.250000' points = '792.8,550.4 792.8,662.4 794.7,662.4 794.7,551.0 '/>
		<polygon fill = 'rgb( 31, 120, 180)' fill-opacity = '0.250000' points = '794.7,551.0 794.7,662.4 796.6,662.4 796.6,551.5 '/>
		<polygon fill = 'rgb( 31, 120, 180)' fill-opacity = '0.250000' points = '796.6,551.5 796.6,662.4 798.5,662.4 798.5,552.1 '/>
		<polygon fill = 'rgb( 31, 120, 180)' fill-opacity = '0.250000' points = '798.5,552.1 798.5,662.4 800.4,662.4 800.4,552.6 '/>
		<polygon fill = 'rgb( 31, 120, 180)' fill-opacity = '0.250000' points = '800.4,552.6 800.4,662.4 802.3,662.4 802.3,553.2 '/>
		<polygon fill = 'rgb( 31, 120, 180)' fill-opacity = '0.250000' points = '802.3,553.2 802.3,662.4 804.2,662.4 804.2,553.7 '/>
		<polygon fill = 'rgb( 31, 120, 180)' fill-opacity = '0.250000' points = '804.2,553.7 804.2,662.4 806.1,662.4 806.1,554.2 '/>
		<polygon fill = 'rgb( 31, 120, 180)' fill-opacity = '0.250000' points = '806.1,554.2 806.1,662.4 808.0,662.4 808.0,554.7 '/>
		<polygon fill = 'rgb( 31, 120, 180)' fill-opacity = '0.250000' points = '808.0,554.7 808.0,662.4 809.9,662.4 809.9,555.2 '/>
		<polygon fill = 'rgb( 31, 120, 180)' fill-opacity = '0.250000' points = '809.9,555.2 809.9,662.4 811.8,662.4 811.8,555.7 '/>
		<polygon fill = 'rgb( 31, 120, 180)' fill-opacity = '0.250000' points = '811.8,555.7 811.8,662.4 813.7,662.4 813.7,556.1 '/>
		<polygon fill = 'rgb( 31, 120, 180)' fill-opacity = '0.250000' points = '813.7,556.1 813.7,662.4 815.6,662.4 815.6,556.6 '/>
		<polygon fill = 'rgb( 31, 120, 180)' fill-opacity = '0.250000' points = '815.6,556.6 815.6,662.4 817.5,662.4 817.5,557.1 '/>
		<polygon fill = 'rgb( 31, 120, 180)' fill-opacity = '0.250000' points = '817.5,557.1 817.5,662.4 819.4,662.4 819.4,557.6 '/>
		<polygon fill = 'rgb( 31, 120, 180)' fill-opacity = '0.250000' points = '819.4,557.6 819.4,662.4 821.3,662.4 821.3,558.0 '/>
		<polygon fill = 'rgb( 31, 120, 180)' fill-opacity = '0.250000' points = '821.3,558.0 821.3,662.4 823.2,662.4 823.2,558.5 '/>
		<polygon fill = 'rgb( 31, 120, 180)' fill-opacity = '0.250000' points = '823.2,558.5 823.2,662.4 825.1,662.4 825.1,559.0 '/>
		<polygon fill = 'rgb( 31, 120, 180)' fill-opacity = '0.250000' points = '825.1,559.0 825.1,662.4 827.0,662.4 827.0,559.5 '/>
		<polygon fill = 'rgb( 31, 120, 180)' fill-opacity = '0.250000' points = '827.0,559.5 827.0,662.4 828.9,662.4 828.9,560.0 '/>
		<polygon fill = 'rgb( 31, 120, 180)' fill-opacity = '0.250000' points = '828.9,560.0 828.9,662.4 830.8,662.4 830.8,560.5 '/>
		<polygon fill = 'rgb( 31, 120, 180)' fill-opacity = '0.250000' points = '830.8,560.5 830.8,662.4 832.7,662.4 832.7,561.0 '/>
		<polygon fill = 'rgb( 31, 120, 180)' fill-opacity = '0.250000' points = '832.7,561.0 832.7,662.4 834.6,662.4 834.6,561.6 '/>
		<polygon fill = 'rgb( 31, 120, 180)' fill-opacity = '0.250000' points = '834.6,561.6 834.6,662.4 836.5,662.4 836.5,562.1 '/>
		<polygon fill = 'rgb( 31, 120, 180)' fill-opacity = '0.250000' points = '836.5,562.1 836.5,662.4 838.4,662.4 838.4,562.7 '/>
		<polygon fill = 'rgb( 31, 120, 180)' fill-opacity = '0.250000' points = '838.4,562.7 838.4,662.4 840.4,662.4 840.4,563.3 '/>
		<polygon fill = 'rgb( 31, 120, 180)' fill-opacity = '0.250000' points = '840.4,563.3 840.4,662.4 842.3,662.4 842.3,563.9 '/>
		<polygon fill = 'rgb( 31, 120, 180)' fill-opacity = '0.250000' points = '842.3,563.9 842.3,662.4 844.2,662.4 844.2,564.5 '/>
		<polygon fill = 'rgb( 31, 120, 180)' fill-opacity = '0.250000' points = '844.2,564.5 844.2,662.4 846.1,662.4 846.1,565.2 '/>
		<polygon fill = 'rgb( 31, 120, 180)' fill-opacity = '0.250000' points = '846.1,565.2 846.1,662.4 848.0,662.4 848.0,565.9 '/>
		<polygon fill = 'rgb( 31, 120, 180)' fill-opacity = '0.250000' points = '848.0,565.9 848.0,662.4 849.9,662.4 849.9,566.6 '/>
		<polygon fill = 'rgb( 31, 120, 180)' fill-opacity = '0.250000' points = '849.9,566.6 849.9,662.4 851.8,662.4 851.8,567.4 '/>
		<polygon fill = 'rgb( 31, 120, 180)' fill-opacity = '0.250000' points = '851.8,567.4 851.8,662.4 853.7,662.4 853.7,568.2 '/>
		<polygon fill = 'rgb( 31, 120, 180)' fill-opacity = '0.250000' points = '853.7,568.2 853.7,662.4 855.6,662.4 855.6,569.1 '/>
		<polygon fill = 'rgb( 31, 120, 180)' fill-opacity = '0.250000' points = '855.6,569.1 855.6,662.4 857.5,662.4 857.5,569.9 '/>
		<polygon fill = 'rgb( 31, 120, 180)' fill-opacity = '0.250000' points = '857.5,569.9 857.5,662.4 859.4,662.4 859.4,570.9 '/>
		<polygon fill = 'rgb( 31, 120, 180)' fill-opacity = '0.250000' points = '859.4,570.9 859.4,662.4 861.3,662.4 861.3,571.8 '/>
		<polygon fill = 'rgb( 31, 120, 180)' fill-opacity = '0.250000' points = '861.3,571.8 861.3,662.4 863.2,662.4 863.2,572.8 '/>
		<polygon fill = 'rgb( 31, 120, 180)' fill-opacity = '0.250000' points = '863.2,572.8 863.2,662.4 865.1,662.4 865.1,573.8 '/>
		<polygon fill = 'rgb( 31, 120, 180)' fill-opacity = '0.250000' points = '865.1,573.8 865.1,662.4 867.0,662.4 867.0,574.9 '/>
		<polygon fill = 'rgb( 31, 120, 180)' fill-opacity = '0.250000' points = '867.0,574.9 867.0,662.4 868.9,662.4 868.9,576.0 '/>
		<polygon fill = 'rgb( 31, 120, 180)' fill-opacity = '0.250000' points = '868.9,576.0 868.9,662.4 870.8,662.4 870.8,577.1 '/>
		<polygon fill = 'rgb( 31, 120, 180)' fill-opacity = '0.250000' points = '870.8,577.1 870.8,662.4 872.7,662.4 872.7,578.3 '/>
		<polygon fill = 'rgb( 31, 120, 180)' fill-opacity = '0.250000' points = '872.7,578.3 872.7,662.4 874.6,662.4 874.6,579.5 '/>
		<polygon fill = 'rgb( 31, 120, 180)' fill-opacity = '0.250000' points = '874.6,579.5 874.6,662.4 876.5,662.4 876.5,580.8 '/>
		<polygon fill = 'rgb( 31, 120, 180)' fill-opacity = '0.250000' points = '876.5,580.8 876.5,662.4 878.4,662.4 878.4,582.0 '/>
		<polygon fill = 'rgb( 31, 120, 180)' fill-opacity = '0.250000' points = '878.4,582.0 878.4,662.4 880.3,662.4 880.3,583.3 '/>
		<polygon fill = 'rgb( 31, 120, 180)' fill-opacity = '0.250000' points = '880.3,583.3 880.3,662.4 882.2,662.4 882.2,584.6 '/>
		<polygon fill = 'rgb( 31, 120, 180)' fill-opacity = '0.250000' points = '882.2,584.6 882.2,662.4 884.1,662.4 884.1,585.9 '/>
		<polygon fill = 'rgb( 31, 120, 180)' fill-opacity = '0.250000' points = '884.1,585.9 884.1,662.4 886.0,662.4 886.0,587.3 '/>
		<polygon fill = 'rgb( 31, 120, 180)' fill-opacity = '0.250000' points = '886.0,587.3 886.0,662.4 887.9,662.4 887.9,588.6 '/>
		<polygon fill = 'rgb( 31, 120, 180)' fill-opacity = '0.250000' points = '887.9,588.6 887.9,662.4 889.9,662.4 889.9,590.0 '/>
		<polygon fill = 'rgb( 31, 120, 180)' fill-opacity = '0.250000' points = '889.9,590.0 889.9,662.4 891.8,662.4 891.8,591.3 '/>
		<polygon fill = 'rgb( 31, 120, 180)' fill-opacity = '0.250000' points = '891.8,591.3 891.8,662.4 893.7,662.4 893.7,592.7 '/>
		<polygon fill = 'rgb( 31, 120, 180)' fill-opacity = '0.250000' points = '893.7,592.7 893.7,662.4 895.6,662.4 895.6,594.1 '/>
		<polygon fill = 'rgb( 31, 120, 180)' fill-opacity = '0.250000' points = '895.6,594.1 895.6,662.4 897.5,662.4 897.5,595.4 '/>
		<polygon fill = 'rgb( 31, 120, 180)' fill-opacity = '0.250000' points = '897.5,595.4 897.5,662.4 899.4,662.4 899.4,596.8 '/>
		<polygon fill = 'rgb( 31, 120, 180)' fill-opacity = '0.250000' points = '899.4,596.8 899.4,662.4 901.3,662.4 901.3,598.2 '/>
		<polygon fill = 'rgb( 31, 120, 180)' fill-opacity = '0.250000' points = '901.3,598.2 901.3,662.4 903.2,662.4 903.2,599.5 '/>
		<polygon fill = 'rgb( 31, 120, 180)' fill-opacity = '0.250000' points = '903.2,599.5 903.2,662.4 905.1,662.4 905.1,600.8 '/>
		<polygon fill = 'rgb( 31, 120, 180)' fill-opacity = '0.250000' points = '905.1,600.8 905.1,662.4 907.0,662.4 907.0,602.1 '/>
		<polygon fill = 'rgb( 31, 120, 180)' fill-opacity = '0.250000' points = '907.0,602.1 907.0,662.4 908.9,662.4 908.9,603.4 '/>
		<polygon fill = 'rgb( 31, 120, 180)' fill-opacity = '0.250000' points = '908.9,603.4 908.9,662.4 910.8,662.4 910.8,604.6 '/>
		<polygon fill = 'rgb( 31, 120, 180)' fill-opacity = '0.250000' points = '910.8,604.6 910.8,662.4 912.7,662.4 912.7,605.9 '/>
		<polygon fill = 'rgb( 31, 120, 180)' fill-opacity = '0.250000' points = '912.7,605.9 912.7,662.4 914.6,662.4 914.6,607.1 '/>
		<polygon fill = 'rgb( 31, 120, 180)' fill-opacity = '0.250000' points = '914.6,607.1 914.6,662.4 916.5,662.4 916.5,608.2 '/>
		<polygon fill = 'rgb( 31, 120, 180)' fill-opacity = '0.250000' points = '916.5,608.2 916.5,662.4 918.4,662.4 918.4,609.4 '/>
		<polygon fill = 'rgb( 31, 120, 180)' fill-opacity = '0.250000' points = '918.4,609.4 918.4,662.4 920.3,662.4 920.3,610.5 '/>
		<polygon fill = 'rgb( 31, 120, 180)' fill-opacity = '0.250000' points = '920.3,610.5 920.3,662.4 922.2,662.4 922.2,611.6 '/>
		<polygon fill = 'rgb( 31, 120, 180)' fill-opacity = '0.250000' points = '922.2,611.6 922.2,662.4 924.1,662.4 924.1,612.6 '/>
	</g>
</g>
	</g>
	<g id="gnuplot_plot_3" ><title>Point estimate</title>
<g fill="none" color="white" stroke="rgb( 31, 120, 180)" stroke-width="2.00" stroke-linecap="butt" stroke-linejoin="miter">
</g>
<g fill="none" color="black" stroke="currentColor" stroke-width="2.00" stroke-linecap="butt" stroke-linejoin="miter">
	<g transform="translate(1089.0,103.0)" stroke="none" fill="black" font-family="Helvetica" font-size="12.00"  text-anchor="start">
		<text><tspan font-family="Helvetica" >Point estimate</tspan></text>
	</g>
</g>
<g fill="none" color="black" stroke="currentColor" stroke-width="2.00" stroke-linecap="butt" stroke-linejoin="miter">
	<path stroke='rgb( 31, 120, 180)'  d='M1038.5,99.1 L1080.7,99.1 M453.0,662.4 L453.0,147.6  '/></g>
	</g>
<g fill="none" color="black" stroke="currentColor" stroke-width="2.00" stroke-linecap="butt" stroke-linejoin="miter">
</g>
<g fill="none" color="black" stroke="black" stroke-width="1.00" stroke-linecap="butt" stroke-linejoin="miter">
</g>
<g fill="none" color="black" stroke="currentColor" stroke-width="1.00" stroke-linecap="butt" stroke-linejoin="miter">
	<path stroke='black'  d='M63.6,54.1 L63.6,662.4 L1013.6,662.4 L1013.6,54.1 L63.6,54.1 Z  '/></g>
<g fill="none" color="black" stroke="currentColor" stroke-width="1.00" stroke-linecap="butt" stroke-linejoin="miter">
</g>
</g>
</svg>

