<?xml version="1.0" encoding="utf-8"  standalone="no"?>
<svg 
 viewBox="0 0 1280 720"
 xmlns="http://www.w3.org/2000/svg"
 xmlns:xlink="http://www.w3.org/1999/xlink"
>

<title>Gnuplot</title>
<desc>Produced by GNUPLOT 5.0 patchlevel 6 </desc>

<g id="gnuplot_canvas">

<rect x="0" y="0" width="1280" height="720" fill="none"/>
<defs>

	<circle id='gpDot' r='0.5' stroke-width='0.5'/>
	<path id='gpPt0' stroke-width='0.222' stroke='currentColor' d='M-1,0 h2 M0,-1 v2'/>
	<path id='gpPt1' stroke-width='0.222' stroke='currentColor' d='M-1,-1 L1,1 M1,-1 L-1,1'/>
	<path id='gpPt2' stroke-width='0.222' stroke='currentColor' d='M-1,0 L1,0 M0,-1 L0,1 M-1,-1 L1,1 M-1,1 L1,-1'/>
	<rect id='gpPt3' stroke-width='0.222' stroke='currentColor' x='-1' y='-1' width='2' height='2'/>
	<rect id='gpPt4' stroke-width='0.222' stroke='currentColor' fill='currentColor' x='-1' y='-1' width='2' height='2'/>
	<circle id='gpPt5' stroke-width='0.222' stroke='currentColor' cx='0' cy='0' r='1'/>
	<use xlink:href='#gpPt5' id='gpPt6' fill='currentColor' stroke='none'/>
	<path id='gpPt7' stroke-width='0.222' stroke='currentColor' d='M0,-1.33 L-1.33,0.67 L1.33,0.67 z'/>
	<use xlink:href='#gpPt7' id='gpPt8' fill='currentColor' stroke='none'/>
	<use xlink:href='#gpPt7' id='gpPt9' stroke='currentColor' transform='rotate(180)'/>
	<use xlink:href='#gpPt9' id='gpPt10' fill='currentColor' stroke='none'/>
	<use xlink:href='#gpPt3' id='gpPt11' stroke='currentColor' transform='rotate(45)'/>
	<use xlink:href='#gpPt11' id='gpPt12' fill='currentColor' stroke='none'/>
	<path id='gpPt13' stroke-width='0.222' stroke='currentColor' d='M0,1.330 L1.265,0.411 L0.782,-1.067 L-0.782,-1.076 L-1.265,0.411 z'/>
	<use xlink:href='#gpPt13' id='gpPt14' fill='currentColor' stroke='none'/>
	<filter id='textbox' filterUnits='objectBoundingBox' x='0' y='0' height='1' width='1'>
	  <feFlood flood-color='white' flood-opacity='1' result='bgnd'/>
	  <feComposite in='SourceGraphic' in2='bgnd' operator='atop'/>
	</filter>
	<filter id='greybox' filterUnits='objectBoundingBox' x='0' y='0' height='1' width='1'>
	  <feFlood flood-color='lightgrey' flood-opacity='1' result='grey'/>
	  <feComposite in='SourceGraphic' in2='grey' operator='atop'/>
	</filter>
</defs>
<g fill="none" color="white" stroke="currentColor" stroke-width="1.00" stroke-linecap="butt" stroke-linejoin="miter">
</g>
<g fill="none" color="black" stroke="currentColor" stroke-width="1.00" stroke-linecap="butt" stroke-linejoin="miter">
	<path stroke='black'  d='M63.6,662.4 L72.6,662.4  '/>	<g transform="translate(55.3,666.3)" stroke="none" fill="black" font-family="Helvetica" font-size="12.00"  text-anchor="end">
		<text><tspan font-family="Helvetica" > 0</tspan></text>
	</g>
</g>
<g fill="none" color="black" stroke="currentColor" stroke-width="1.00" stroke-linecap="butt" stroke-linejoin="miter">
	<path stroke='black'  d='M63.6,540.7 L72.6,540.7  '/>	<g transform="translate(55.3,544.6)" stroke="none" fill="black" font-family="Helvetica" font-size="12.00"  text-anchor="end">
		<text><tspan font-family="Helvetica" > 5</tspan></text>
	</g>
</g>
<g fill="none" color="black" stroke="currentColor" stroke-width="1.00" stroke-linecap="butt" stroke-linejoin="miter">
	<path stroke='black'  d='M63.6,419.1 L72.6,419.1  '/>	<g transform="translate(55.3,423.0)" stroke="none" fill="black" font-family="Helvetica" font-size="12.00"  text-anchor="end">
		<text><tspan font-family="Helvetica" > 10</tspan></text>
	</g>
</g>
<g fill="none" color="black" stroke="currentColor" stroke-width="1.00" stroke-linecap="butt" stroke-linejoin="miter">
	<path stroke='black'  d='M63.6,297.4 L72.6,297.4  '/>	<g transform="translate(55.3,301.3)" stroke="none" fill="black" font-family="Helvetica" font-size="12.00"  text-anchor="end">
		<text><tspan font-family="Helvetica" > 15</tspan></text>
	</g>
</g>
<g fill="none" color="black" stroke="currentColor" stroke-width="1.00" stroke-linecap="butt" stroke-linejoin="miter">
	<path stroke='black'  d='M63.6,175.8 L72.6,175.8  '/>	<g transform="translate(55.3,179.7)" stroke="none" fill="black" font-family="Helvetica" font-size="12.00"  text-anchor="end">
		<text><tspan font-family="Helvetica" > 20</tspan></text>
	</g>
</g>
<g fill="none" color="black" stroke="currentColor" stroke-width="1.00" stroke-linecap="butt" stroke-linejoin="miter">
	<path stroke='black'  d='M63.6,54.1 L72.6,54.1  '/>	<g transform="translate(55.3,58.0)" stroke="none" fill="black" font-family="Helvetica" font-size="12.00"  text-anchor="end">
		<text><tspan font-family="Helvetica" > 25</tspan></text>
	</g>
</g>
<g fill="none" color="black" stroke="currentColor" stroke-width="1.00" stroke-linecap="butt" stroke-linejoin="miter">
	<path stroke='black'  d='M143.5,662.4 L143.5,653.4  '/>	<g transform="translate(143.5,684.3)" stroke="none" fill="black" font-family="Helvetica" font-size="12.00"  text-anchor="middle">
		<text><tspan font-family="Helvetica" > 33.37</tspan></text>
	</g>
</g>
<g fill="none" color="black" stroke="currentColor" stroke-width="1.00" stroke-linecap="butt" stroke-linejoin="miter">
	<path stroke='black'  d='M263.3,662.4 L263.3,653.4  '/>	<g transform="translate(263.3,684.3)" stroke="none" fill="black" font-family="Helvetica" font-size="12.00"  text-anchor="middle">
		<text><tspan font-family="Helvetica" > 33.38</tspan></text>
	</g>
</g>
<g fill="none" color="black" stroke="currentColor" stroke-width="1.00" stroke-linecap="butt" stroke-linejoin="miter">
	<path stroke='black'  d='M383.1,662.4 L383.1,653.4  '/>	<g transform="translate(383.1,684.3)" stroke="none" fill="black" font-family="Helvetica" font-size="12.00"  text-anchor="middle">
		<text><tspan font-family="Helvetica" > 33.39</tspan></text>
	</g>
</g>
<g fill="none" color="black" stroke="currentColor" stroke-width="1.00" stroke-linecap="butt" stroke-linejoin="miter">
	<path stroke='black'  d='M502.8,662.4 L502.8,653.4  '/>	<g transform="translate(502.8,684.3)" stroke="none" fill="black" font-family="Helvetica" font-size="12.00"  text-anchor="middle">
		<text><tspan font-family="Helvetica" > 33.4</tspan></text>
	</g>
</g>
<g fill="none" color="black" stroke="currentColor" stroke-width="1.00" stroke-linecap="butt" stroke-linejoin="miter">
	<path stroke='black'  d='M622.6,662.4 L622.6,653.4  '/>	<g transform="translate(622.6,684.3)" stroke="none" fill="black" font-family="Helvetica" font-size="12.00"  text-anchor="middle">
		<text><tspan font-family="Helvetica" > 33.41</tspan></text>
	</g>
</g>
<g fill="none" color="black" stroke="currentColor" stroke-width="1.00" stroke-linecap="butt" stroke-linejoin="miter">
	<path stroke='black'  d='M742.4,662.4 L742.4,653.4  '/>	<g transform="translate(742.4,684.3)" stroke="none" fill="black" font-family="Helvetica" font-size="12.00"  text-anchor="middle">
		<text><tspan font-family="Helvetica" > 33.42</tspan></text>
	</g>
</g>
<g fill="none" color="black" stroke="currentColor" stroke-width="1.00" stroke-linecap="butt" stroke-linejoin="miter">
	<path stroke='black'  d='M862.1,662.4 L862.1,653.4  '/>	<g transform="translate(862.1,684.3)" stroke="none" fill="black" font-family="Helvetica" font-size="12.00"  text-anchor="middle">
		<text><tspan font-family="Helvetica" > 33.43</tspan></text>
	</g>
</g>
<g fill="none" color="black" stroke="currentColor" stroke-width="1.00" stroke-linecap="butt" stroke-linejoin="miter">
	<path stroke='black'  d='M981.9,662.4 L981.9,653.4  '/>	<g transform="translate(981.9,684.3)" stroke="none" fill="black" font-family="Helvetica" font-size="12.00"  text-anchor="middle">
		<text><tspan font-family="Helvetica" > 33.44</tspan></text>
	</g>
</g>
<g fill="none" color="black" stroke="currentColor" stroke-width="1.00" stroke-linecap="butt" stroke-linejoin="miter">
</g>
<g fill="none" color="black" stroke="currentColor" stroke-width="1.00" stroke-linecap="butt" stroke-linejoin="miter">
	<path stroke='black'  d='M63.6,54.1 L63.6,662.4 L1013.6,662.4 L1013.6,54.1 L63.6,54.1 Z  '/></g>
<g fill="none" color="black" stroke="currentColor" stroke-width="1.00" stroke-linecap="butt" stroke-linejoin="miter">
	<g transform="translate(17.0,358.3) rotate(270)" stroke="none" fill="black" font-family="Helvetica" font-size="12.00"  text-anchor="middle">
		<text><tspan font-family="Helvetica" >Density (a.u.)</tspan></text>
	</g>
</g>
<g fill="none" color="black" stroke="currentColor" stroke-width="1.00" stroke-linecap="butt" stroke-linejoin="miter">
	<g transform="translate(538.6,711.3)" stroke="none" fill="black" font-family="Helvetica" font-size="12.00"  text-anchor="middle">
		<text><tspan font-family="Helvetica" >Average time (ms)</tspan></text>
	</g>
</g>
<g fill="none" color="black" stroke="currentColor" stroke-width="1.00" stroke-linecap="butt" stroke-linejoin="miter">
	<g transform="translate(538.6,31.0)" stroke="none" fill="black" font-family="Helvetica" font-size="12.00"  text-anchor="middle">
		<text><tspan font-family="Helvetica" >language: json/parse error: python/examples/python3-grammar-crlf.py: mean</tspan></text>
	</g>
</g>
	<g id="gnuplot_plot_1" ><title>Bootstrap distribution</title>
<g fill="none" color="white" stroke="black" stroke-width="2.00" stroke-linecap="butt" stroke-linejoin="miter">
</g>
<g fill="none" color="black" stroke="currentColor" stroke-width="2.00" stroke-linecap="butt" stroke-linejoin="miter">
	<g transform="translate(1089.0,67.0)" stroke="none" fill="black" font-family="Helvetica" font-size="12.00"  text-anchor="start">
		<text><tspan font-family="Helvetica" >Bootstrap distribution</tspan></text>
	</g>
</g>
<g fill="none" color="black" stroke="currentColor" stroke-width="2.00" stroke-linecap="butt" stroke-linejoin="miter">
	<path stroke='rgb( 31, 120, 180)'  d='M1038.5,63.1 L1080.7,63.1 M63.6,628.1 L65.5,627.4 L67.4,626.8 L69.3,626.1 L71.2,625.4 L73.1,624.7
		L75.0,624.0 L76.9,623.3 L78.8,622.6 L80.7,621.8 L82.6,621.1 L84.5,620.3 L86.4,619.4 L88.3,618.6
		L90.3,617.7 L92.2,616.8 L94.1,615.8 L96.0,614.8 L97.9,613.8 L99.8,612.8 L101.7,611.7 L103.6,610.6
		L105.5,609.4 L107.4,608.2 L109.3,606.9 L111.2,605.6 L113.1,604.3 L115.0,603.0 L116.9,601.6 L118.8,600.1
		L120.7,598.7 L122.6,597.2 L124.5,595.7 L126.4,594.2 L128.3,592.6 L130.2,591.1 L132.1,589.5 L134.0,587.9
		L135.9,586.3 L137.8,584.8 L139.8,583.2 L141.7,581.6 L143.6,580.0 L145.5,578.5 L147.4,576.9 L149.3,575.3
		L151.2,573.8 L153.1,572.2 L155.0,570.6 L156.9,569.0 L158.8,567.4 L160.7,565.7 L162.6,564.1 L164.5,562.4
		L166.4,560.6 L168.3,558.8 L170.2,557.0 L172.1,555.1 L174.0,553.2 L175.9,551.2 L177.8,549.2 L179.7,547.1
		L181.6,545.0 L183.5,542.8 L185.4,540.6 L187.3,538.3 L189.3,536.0 L191.2,533.6 L193.1,531.2 L195.0,528.8
		L196.9,526.4 L198.8,523.9 L200.7,521.4 L202.6,519.0 L204.5,516.5 L206.4,514.0 L208.3,511.6 L210.2,509.1
		L212.1,506.6 L214.0,504.2 L215.9,501.8 L217.8,499.4 L219.7,497.0 L221.6,494.6 L223.5,492.2 L225.4,489.8
		L227.3,487.5 L229.2,485.1 L231.1,482.7 L233.0,480.3 L234.9,477.9 L236.8,475.5 L238.8,473.0 L240.7,470.5
		L242.6,468.0 L244.5,465.4 L246.4,462.8 L248.3,460.2 L250.2,457.5 L252.1,454.8 L254.0,452.0 L255.9,449.2
		L257.8,446.3 L259.7,443.4 L261.6,440.5 L263.5,437.6 L265.4,434.6 L267.3,431.6 L269.2,428.6 L271.1,425.6
		L273.0,422.6 L274.9,419.5 L276.8,416.5 L278.7,413.5 L280.6,410.5 L282.5,407.5 L284.4,404.6 L286.3,401.6
		L288.2,398.6 L290.2,395.7 L292.1,392.8 L294.0,389.8 L295.9,386.9 L297.8,383.9 L299.7,380.9 L301.6,377.9
		L303.5,374.9 L305.4,371.8 L307.3,368.7 L309.2,365.6 L311.1,362.4 L313.0,359.1 L314.9,355.8 L316.8,352.5
		L318.7,349.1 L320.6,345.7 L322.5,342.2 L324.4,338.7 L326.3,335.2 L328.2,331.7 L330.1,328.1 L332.0,324.5
		L333.9,320.9 L335.8,317.4 L337.7,313.8 L339.7,310.2 L341.6,306.7 L343.5,303.1 L345.4,299.6 L347.3,296.1
		L349.2,292.6 L351.1,289.2 L353.0,285.7 L354.9,282.3 L356.8,278.9 L358.7,275.5 L360.6,272.1 L362.5,268.8
		L364.4,265.4 L366.3,262.1 L368.2,258.8 L370.1,255.5 L372.0,252.3 L373.9,249.0 L375.8,245.8 L377.7,242.7
		L379.6,239.5 L381.5,236.4 L383.4,233.3 L385.3,230.3 L387.2,227.3 L389.2,224.4 L391.1,221.5 L393.0,218.6
		L394.9,215.8 L396.8,213.0 L398.7,210.3 L400.6,207.6 L402.5,205.0 L404.4,202.3 L406.3,199.8 L408.2,197.2
		L410.1,194.7 L412.0,192.2 L413.9,189.7 L415.8,187.2 L417.7,184.8 L419.6,182.3 L421.5,179.9 L423.4,177.4
		L425.3,174.9 L427.2,172.4 L429.1,169.9 L431.0,167.4 L432.9,164.9 L434.8,162.3 L436.7,159.8 L438.7,157.3
		L440.6,154.7 L442.5,152.2 L444.4,149.7 L446.3,147.2 L448.2,144.8 L450.1,142.4 L452.0,140.1 L453.9,137.8
		L455.8,135.5 L457.7,133.3 L459.6,131.1 L461.5,129.1 L463.4,127.0 L465.3,125.0 L467.2,123.1 L469.1,121.1
		L471.0,119.3 L472.9,117.4 L474.8,115.6 L476.7,113.8 L478.6,112.0 L480.5,110.3 L482.4,108.5 L484.3,106.8
		L486.2,105.2 L488.1,103.5 L490.1,101.9 L492.0,100.3 L493.9,98.8 L495.8,97.4 L497.7,96.0 L499.6,94.7
		L501.5,93.4 L503.4,92.2 L505.3,91.2 L507.2,90.2 L509.1,89.3 L511.0,88.4 L512.9,87.7 L514.8,87.0
		L516.7,86.4 L518.6,85.8 L520.5,85.3 L522.4,84.9 L524.3,84.4 L526.2,84.1 L528.1,83.7 L530.0,83.4
		L531.9,83.1 L533.8,82.8 L535.7,82.6 L537.6,82.4 L539.6,82.2 L541.5,82.1 L543.4,82.0 L545.3,81.9
		L547.2,81.9 L549.1,82.0 L551.0,82.1 L552.9,82.3 L554.8,82.6 L556.7,83.0 L558.6,83.5 L560.5,84.1
		L562.4,84.7 L564.3,85.5 L566.2,86.3 L568.1,87.3 L570.0,88.3 L571.9,89.4 L573.8,90.6 L575.7,91.8
		L577.6,93.1 L579.5,94.5 L581.4,95.9 L583.3,97.3 L585.2,98.8 L587.1,100.3 L589.1,101.9 L591.0,103.4
		L592.9,105.0 L594.8,106.6 L596.7,108.1 L598.6,109.7 L600.5,111.3 L602.4,112.8 L604.3,114.3 L606.2,115.9
		L608.1,117.3 L610.0,118.8 L611.9,120.3 L613.8,121.7 L615.7,123.1 L617.6,124.4 L619.5,125.8 L621.4,127.1
		L623.3,128.4 L625.2,129.8 L627.1,131.1 L629.0,132.4 L630.9,133.7 L632.8,135.1 L634.7,136.5 L636.6,138.0
		L638.5,139.5 L640.5,141.0 L642.4,142.7 L644.3,144.4 L646.2,146.2 L648.1,148.2 L650.0,150.2 L651.9,152.3
		L653.8,154.6 L655.7,157.0 L657.6,159.5 L659.5,162.1 L661.4,164.8 L663.3,167.6 L665.2,170.5 L667.1,173.5
		L669.0,176.7 L670.9,179.9 L672.8,183.2 L674.7,186.5 L676.6,190.0 L678.5,193.5 L680.4,197.1 L682.3,200.7
		L684.2,204.4 L686.1,208.2 L688.0,211.9 L690.0,215.7 L691.9,219.6 L693.8,223.5 L695.7,227.3 L697.6,231.2
		L699.5,235.1 L701.4,239.0 L703.3,242.9 L705.2,246.8 L707.1,250.7 L709.0,254.5 L710.9,258.3 L712.8,262.1
		L714.7,265.9 L716.6,269.6 L718.5,273.2 L720.4,276.9 L722.3,280.5 L724.2,284.0 L726.1,287.5 L728.0,291.0
		L729.9,294.4 L731.8,297.8 L733.7,301.1 L735.6,304.4 L737.5,307.6 L739.5,310.8 L741.4,314.0 L743.3,317.2
		L745.2,320.3 L747.1,323.4 L749.0,326.4 L750.9,329.5 L752.8,332.5 L754.7,335.5 L756.6,338.5 L758.5,341.5
		L760.4,344.5 L762.3,347.5 L764.2,350.5 L766.1,353.5 L768.0,356.5 L769.9,359.5 L771.8,362.6 L773.7,365.6
		L775.6,368.7 L777.5,371.8 L779.4,374.9 L781.3,378.1 L783.2,381.2 L785.1,384.4 L787.0,387.6 L789.0,390.7
		L790.9,393.9 L792.8,397.2 L794.7,400.4 L796.6,403.6 L798.5,406.8 L800.4,410.0 L802.3,413.3 L804.2,416.5
		L806.1,419.7 L808.0,422.9 L809.9,426.1 L811.8,429.3 L813.7,432.5 L815.6,435.7 L817.5,438.8 L819.4,442.0
		L821.3,445.1 L823.2,448.2 L825.1,451.3 L827.0,454.4 L828.9,457.4 L830.8,460.5 L832.7,463.5 L834.6,466.5
		L836.5,469.4 L838.4,472.3 L840.4,475.2 L842.3,478.0 L844.2,480.8 L846.1,483.6 L848.0,486.3 L849.9,488.9
		L851.8,491.5 L853.7,494.1 L855.6,496.7 L857.5,499.2 L859.4,501.6 L861.3,504.1 L863.2,506.5 L865.1,508.9
		L867.0,511.2 L868.9,513.6 L870.8,515.9 L872.7,518.3 L874.6,520.6 L876.5,522.9 L878.4,525.3 L880.3,527.6
		L882.2,529.9 L884.1,532.2 L886.0,534.6 L887.9,536.9 L889.9,539.2 L891.8,541.5 L893.7,543.8 L895.6,546.0
		L897.5,548.3 L899.4,550.5 L901.3,552.7 L903.2,554.8 L905.1,556.9 L907.0,558.9 L908.9,560.9 L910.8,562.9
		L912.7,564.8 L914.6,566.6 L916.5,568.4 L918.4,570.1 L920.3,571.8 L922.2,573.4 L924.1,575.0 L926.0,576.6
		L927.9,578.1 L929.8,579.5 L931.7,581.0 L933.6,582.4 L935.5,583.8 L937.4,585.1 L939.4,586.4 L941.3,587.8
		L943.2,589.1 L945.1,590.4 L947.0,591.6 L948.9,592.9 L950.8,594.2 L952.7,595.4 L954.6,596.7 L956.5,597.9
		L958.4,599.2 L960.3,600.4 L962.2,601.6 L964.1,602.8 L966.0,604.0 L967.9,605.2 L969.8,606.3 L971.7,607.5
		L973.6,608.6 L975.5,609.7 L977.4,610.7 L979.3,611.8 L981.2,612.8 L983.1,613.8 L985.0,614.8 L986.9,615.7
		L988.9,616.7 L990.8,617.6 L992.7,618.5 L994.6,619.4 L996.5,620.3 L998.4,621.2 L1000.3,622.0 L1002.2,622.9
		L1004.1,623.7 L1006.0,624.6 L1007.9,625.4 L1009.8,626.2 L1011.7,627.0 L1013.6,627.8  '/></g>
	</g>
	<g id="gnuplot_plot_2" ><title>Confidence interval</title>
<g fill="none" color="white" stroke="rgb( 31, 120, 180)" stroke-width="1.00" stroke-linecap="butt" stroke-linejoin="miter">
</g>
<g fill="none" color="black" stroke="currentColor" stroke-width="1.00" stroke-linecap="butt" stroke-linejoin="miter">
	<g transform="translate(1089.0,85.0)" stroke="none" fill="black" font-family="Helvetica" font-size="12.00"  text-anchor="start">
		<text><tspan font-family="Helvetica" >Confidence interval</tspan></text>
	</g>
</g>
<g fill="none" color="black" stroke="currentColor" stroke-width="1.00" stroke-linecap="butt" stroke-linejoin="miter">
	<g stroke='none' shape-rendering='crispEdges'>
		<polygon fill = 'rgb( 31, 120, 180)' fill-opacity = '0.250000' points = '1038.5,85.6 1080.7,85.6 1080.7,76.6 1038.5,76.6 '/>
		<polygon fill = 'rgb( 31, 120, 180)' fill-opacity = '0.250000' points = '151.2,573.8 151.2,662.4 153.1,662.4 153.1,572.2 '/>
		<polygon fill = 'rgb( 31, 120, 180)' fill-opacity = '0.250000' points = '153.1,572.2 153.1,662.4 155.0,662.4 155.0,570.6 '/>
		<polygon fill = 'rgb( 31, 120, 180)' fill-opacity = '0.250000' points = '155.0,570.6 155.0,662.4 156.9,662.4 156.9,569.0 '/>
		<polygon fill = 'rgb( 31, 120, 180)' fill-opacity = '0.250000' points = '156.9,569.0 156.9,662.4 158.8,662.4 158.8,567.4 '/>
		<polygon fill = 'rgb( 31, 120, 180)' fill-opacity = '0.250000' points = '158.8,567.4 158.8,662.4 160.7,662.4 160.7,565.7 '/>
		<polygon fill = 'rgb( 31, 120, 180)' fill-opacity = '0.250000' points = '160.7,565.7 160.7,662.4 162.6,662.4 162.6,564.1 '/>
		<polygon fill = 'rgb( 31, 120, 180)' fill-opacity = '0.250000' points = '162.6,564.1 162.6,662.4 164.5,662.4 164.5,562.4 '/>
		<polygon fill = 'rgb( 31, 120, 180)' fill-opacity = '0.250000' points = '164.5,562.4 164.5,662.4 166.4,662.4 166.4,560.6 '/>
		<polygon fill = 'rgb( 31, 120, 180)' fill-opacity = '0.250000' points = '166.4,560.6 166.4,662.4 168.3,662.4 168.3,558.8 '/>
		<polygon fill = 'rgb( 31, 120, 180)' fill-opacity = '0.250000' points = '168.3,558.8 168.3,662.4 170.2,662.4 170.2,557.0 '/>
		<polygon fill = 'rgb( 31, 120, 180)' fill-opacity = '0.250000' points = '170.2,557.0 170.2,662.4 172.1,662.4 172.1,555.1 '/>
		<polygon fill = 'rgb( 31, 120, 180)' fill-opacity = '0.250000' points = '172.1,555.1 172.1,662.4 174.0,662.4 174.0,553.2 '/>
		<polygon fill = 'rgb( 31, 120, 180)' fill-opacity = '0.250000' points = '174.0,553.2 174.0,662.4 175.9,662.4 175.9,551.2 '/>
		<polygon fill = 'rgb( 31, 120, 180)' fill-opacity = '0.250000' points = '175.9,551.2 175.9,662.4 177.8,662.4 177.8,549.2 '/>
		<polygon fill = 'rgb( 31, 120, 180)' fill-opacity = '0.250000' points = '177.8,549.2 177.8,662.4 179.7,662.4 179.7,547.1 '/>
		<polygon fill = 'rgb( 31, 120, 180)' fill-opacity = '0.250000' points = '179.7,547.1 179.7,662.4 181.6,662.4 181.6,545.0 '/>
		<polygon fill = 'rgb( 31, 120, 180)' fill-opacity = '0.250000' points = '181.6,545.0 181.6,662.4 183.5,662.4 183.5,542.8 '/>
		<polygon fill = 'rgb( 31, 120, 180)' fill-opacity = '0.250000' points = '183.5,542.8 183.5,662.4 185.4,662.4 185.4,540.6 '/>
		<polygon fill = 'rgb( 31, 120, 180)' fill-opacity = '0.250000' points = '185.4,540.6 185.4,662.4 187.3,662.4 187.3,538.3 '/>
		<polygon fill = 'rgb( 31, 120, 180)' fill-opacity = '0.250000' points = '187.3,538.3 187.3,662.4 189.3,662.4 189.3,536.0 '/>
		<polygon fill = 'rgb( 31, 120, 180)' fill-opacity = '0.250000' points = '189.3,536.0 189.3,662.4 191.2,662.4 191.2,533.6 '/>
		<polygon fill = 'rgb( 31, 120, 180)' fill-opacity = '0.250000' points = '191.2,533.6 191.2,662.4 193.1,662.4 193.1,531.2 '/>
		<polygon fill = 'rgb( 31, 120, 180)' fill-opacity = '0.250000' points = '193.1,531.2 193.1,662.4 195.0,662.4 195.0,528.8 '/>
		<polygon fill = 'rgb( 31, 120, 180)' fill-opacity = '0.250000' points = '195.0,528.8 195.0,662.4 196.9,662.4 196.9,526.4 '/>
		<polygon fill = 'rgb( 31, 120, 180)' fill-opacity = '0.250000' points = '196.9,526.4 196.9,662.4 198.8,662.4 198.8,523.9 '/>
		<polygon fill = 'rgb( 31, 120, 180)' fill-opacity = '0.250000' points = '198.8,523.9 198.8,662.4 200.7,662.4 200.7,521.4 '/>
		<polygon fill = 'rgb( 31, 120, 180)' fill-opacity = '0.250000' points = '200.7,521.4 200.7,662.4 202.6,662.4 202.6,519.0 '/>
		<polygon fill = 'rgb( 31, 120, 180)' fill-opacity = '0.250000' points = '202.6,519.0 202.6,662.4 204.5,662.4 204.5,516.5 '/>
		<polygon fill = 'rgb( 31, 120, 180)' fill-opacity = '0.250000' points = '204.5,516.5 204.5,662.4 206.4,662.4 206.4,514.0 '/>
		<polygon fill = 'rgb( 31, 120, 180)' fill-opacity = '0.250000' points = '206.4,514.0 206.4,662.4 208.3,662.4 208.3,511.6 '/>
		<polygon fill = 'rgb( 31, 120, 180)' fill-opacity = '0.250000' points = '208.3,511.6 208.3,662.4 210.2,662.4 210.2,509.1 '/>
		<polygon fill = 'rgb( 31, 120, 180)' fill-opacity = '0.250000' points = '210.2,509.1 210.2,662.4 212.1,662.4 212.1,506.6 '/>
		<polygon fill = 'rgb( 31, 120, 180)' fill-opacity = '0.250000' points = '212.1,506.6 212.1,662.4 214.0,662.4 214.0,504.2 '/>
		<polygon fill = 'rgb( 31, 120, 180)' fill-opacity = '0.250000' points = '214.0,504.2 214.0,662.4 215.9,662.4 215.9,501.8 '/>
		<polygon fill = 'rgb( 31, 120, 180)' fill-opacity = '0.250000' points = '215.9,501.8 215.9,662.4 217.8,662.4 217.8,499.4 '/>
		<polygon fill = 'rgb( 31, 120, 180)' fill-opacity = '0.250000' points = '217.8,499.4 217.8,662.4 219.7,662.4 219.7,497.0 '/>
		<polygon fill = 'rgb( 31, 120, 180)' fill-opacity = '0.250000' points = '219.7,497.0 219.7,662.4 221.6,662.4 221.6,494.6 '/>
		<polygon fill = 'rgb( 31, 120, 180)' fill-opacity = '0.250000' points = '221.6,494.6 221.6,662.4 223.5,662.4 223.5,492.2 '/>
		<polygon fill = 'rgb( 31, 120, 180)' fill-opacity = '0.250000' points = '223.5,492.2 223.5,662.4 225.4,662.4 225.4,489.8 '/>
		<polygon fill = 'rgb( 31, 120, 180)' fill-opacity = '0.250000' points = '225.4,489.8 225.4,662.4 227.3,662.4 227.3,487.5 '/>
		<polygon fill = 'rgb( 31, 120, 180)' fill-opacity = '0.250000' points = '227.3,487.5 227.3,662.4 229.2,662.4 229.2,485.1 '/>
		<polygon fill = 'rgb( 31, 120, 180)' fill-opacity = '0.250000' points = '229.2,485.1 229.2,662.4 231.1,662.4 231.1,482.7 '/>
		<polygon fill = 'rgb( 31, 120, 180)' fill-opacity = '0.250000' points = '231.1,482.7 231.1,662.4 233.0,662.4 233.0,480.3 '/>
		<polygon fill = 'rgb( 31, 120, 180)' fill-opacity = '0.250000' points = '233.0,480.3 233.0,662.4 234.9,662.4 234.9,477.9 '/>
		<polygon fill = 'rgb( 31, 120, 180)' fill-opacity = '0.250000' points = '234.9,477.9 234.9,662.4 236.8,662.4 236.8,475.5 '/>
		<polygon fill = 'rgb( 31, 120, 180)' fill-opacity = '0.250000' points = '236.8,475.5 236.8,662.4 238.8,662.4 238.8,473.0 '/>
		<polygon fill = 'rgb( 31, 120, 180)' fill-opacity = '0.250000' points = '238.8,473.0 238.8,662.4 240.7,662.4 240.7,470.5 '/>
		<polygon fill = 'rgb( 31, 120, 180)' fill-opacity = '0.250000' points = '240.7,470.5 240.7,662.4 242.6,662.4 242.6,468.0 '/>
		<polygon fill = 'rgb( 31, 120, 180)' fill-opacity = '0.250000' points = '242.6,468.0 242.6,662.4 244.5,662.4 244.5,465.4 '/>
		<polygon fill = 'rgb( 31, 120, 180)' fill-opacity = '0.250000' points = '244.5,465.4 244.5,662.4 246.4,662.4 246.4,462.8 '/>
		<polygon fill = 'rgb( 31, 120, 180)' fill-opacity = '0.250000' points = '246.4,462.8 246.4,662.4 248.3,662.4 248.3,460.2 '/>
		<polygon fill = 'rgb( 31, 120, 180)' fill-opacity = '0.250000' points = '248.3,460.2 248.3,662.4 250.2,662.4 250.2,457.5 '/>
		<polygon fill = 'rgb( 31, 120, 180)' fill-opacity = '0.250000' points = '250.2,457.5 250.2,662.4 252.1,662.4 252.1,454.8 '/>
		<polygon fill = 'rgb( 31, 120, 180)' fill-opacity = '0.250000' points = '252.1,454.8 252.1,662.4 254.0,662.4 254.0,452.0 '/>
		<polygon fill = 'rgb( 31, 120, 180)' fill-opacity = '0.250000' points = '254.0,452.0 254.0,662.4 255.9,662.4 255.9,449.2 '/>
		<polygon fill = 'rgb( 31, 120, 180)' fill-opacity = '0.250000' points = '255.9,449.2 255.9,662.4 257.8,662.4 257.8,446.3 '/>
		<polygon fill = 'rgb( 31, 120, 180)' fill-opacity = '0.250000' points = '257.8,446.3 257.8,662.4 259.7,662.4 259.7,443.4 '/>
		<polygon fill = 'rgb( 31, 120, 180)' fill-opacity = '0.250000' points = '259.7,443.4 259.7,662.4 261.6,662.4 261.6,440.5 '/>
		<polygon fill = 'rgb( 31, 120, 180)' fill-opacity = '0.250000' points = '261.6,440.5 261.6,662.4 263.5,662.4 263.5,437.6 '/>
		<polygon fill = 'rgb( 31, 120, 180)' fill-opacity = '0.250000' points = '263.5,437.6 263.5,662.4 265.4,662.4 265.4,434.6 '/>
		<polygon fill = 'rgb( 31, 120, 180)' fill-opacity = '0.250000' points = '265.4,434.6 265.4,662.4 267.3,662.4 267.3,431.6 '/>
		<polygon fill = 'rgb( 31, 120, 180)' fill-opacity = '0.250000' points = '267.3,431.6 267.3,662.4 269.2,662.4 269.2,428.6 '/>
		<polygon fill = 'rgb( 31, 120, 180)' fill-opacity = '0.250000' points = '269.2,428.6 269.2,662.4 271.1,662.4 271.1,425.6 '/>
		<polygon fill = 'rgb( 31, 120, 180)' fill-opacity = '0.250000' points = '271.1,425.6 271.1,662.4 273.0,662.4 273.0,422.6 '/>
		<polygon fill = 'rgb( 31, 120, 180)' fill-opacity = '0.250000' points = '273.0,422.6 273.0,662.4 274.9,662.4 274.9,419.5 '/>
		<polygon fill = 'rgb( 31, 120, 180)' fill-opacity = '0.250000' points = '274.9,419.5 274.9,662.4 276.8,662.4 276.8,416.5 '/>
		<polygon fill = 'rgb( 31, 120, 180)' fill-opacity = '0.250000' points = '276.8,416.5 276.8,662.4 278.7,662.4 278.7,413.5 '/>
		<polygon fill = 'rgb( 31, 120, 180)' fill-opacity = '0.250000' points = '278.7,413.5 278.7,662.4 280.6,662.4 280.6,410.5 '/>
		<polygon fill = 'rgb( 31, 120, 180)' fill-opacity = '0.250000' points = '280.6,410.5 280.6,662.4 282.5,662.4 282.5,407.5 '/>
		<polygon fill = 'rgb( 31, 120, 180)' fill-opacity = '0.250000' points = '282.5,407.5 282.5,662.4 284.4,662.4 284.4,404.6 '/>
		<polygon fill = 'rgb( 31, 120, 180)' fill-opacity = '0.250000' points = '284.4,404.6 284.4,662.4 286.3,662.4 286.3,401.6 '/>
		<polygon fill = 'rgb( 31, 120, 180)' fill-opacity = '0.250000' points = '286.3,401.6 286.3,662.4 288.2,662.4 288.2,398.6 '/>
		<polygon fill = 'rgb( 31, 120, 180)' fill-opacity = '0.250000' points = '288.2,398.6 288.2,662.4 290.2,662.4 290.2,395.7 '/>
		<polygon fill = 'rgb( 31, 120, 180)' fill-opacity = '0.250000' points = '290.2,395.7 290.2,662.4 292.1,662.4 292.1,392.8 '/>
		<polygon fill = 'rgb( 31, 120, 180)' fill-opacity = '0.250000' points = '292.1,392.8 292.1,662.4 294.0,662.4 294.0,389.8 '/>
		<polygon fill = 'rgb( 31, 120, 180)' fill-opacity = '0.250000' points = '294.0,389.8 294.0,662.4 295.9,662.4 295.9,386.9 '/>
		<polygon fill = 'rgb( 31, 120, 180)' fill-opacity = '0.250000' points = '295.9,386.9 295.9,662.4 297.8,662.4 297.8,383.9 '/>
		<polygon fill = 'rgb( 31, 120, 180)' fill-opacity = '0.250000' points = '297.8,383.9 297.8,662.4 299.7,662.4 299.7,380.9 '/>
		<polygon fill = 'rgb( 31, 120, 180)' fill-opacity = '0.250000' points = '299.7,380.9 299.7,662.4 301.6,662.4 301.6,377.9 '/>
		<polygon fill = 'rgb( 31, 120, 180)' fill-opacity = '0.250000' points = '301.6,377.9 301.6,662.4 303.5,662.4 303.5,374.9 '/>
		<polygon fill = 'rgb( 31, 120, 180)' fill-opacity = '0.250000' points = '303.5,374.9 303.5,662.4 305.4,662.4 305.4,371.8 '/>
		<polygon fill = 'rgb( 31, 120, 180)' fill-opacity = '0.250000' points = '305.4,371.8 305.4,662.4 307.3,662.4 307.3,368.7 '/>
		<polygon fill = 'rgb( 31, 120, 180)' fill-opacity = '0.250000' points = '307.3,368.7 307.3,662.4 309.2,662.4 309.2,365.6 '/>
		<polygon fill = 'rgb( 31, 120, 180)' fill-opacity = '0.250000' points = '309.2,365.6 309.2,662.4 311.1,662.4 311.1,362.4 '/>
		<polygon fill = 'rgb( 31, 120, 180)' fill-opacity = '0.250000' points = '311.1,362.4 311.1,662.4 313.0,662.4 313.0,359.1 '/>
		<polygon fill = 'rgb( 31, 120, 180)' fill-opacity = '0.250000' points = '313.0,359.1 313.0,662.4 314.9,662.4 314.9,355.8 '/>
		<polygon fill = 'rgb( 31, 120, 180)' fill-opacity = '0.250000' points = '314.9,355.8 314.9,662.4 316.8,662.4 316.8,352.5 '/>
		<polygon fill = 'rgb( 31, 120, 180)' fill-opacity = '0.250000' points = '316.8,352.5 316.8,662.4 318.7,662.4 318.7,349.1 '/>
		<polygon fill = 'rgb( 31, 120, 180)' fill-opacity = '0.250000' points = '318.7,349.1 318.7,662.4 320.6,662.4 320.6,345.7 '/>
		<polygon fill = 'rgb( 31, 120, 180)' fill-opacity = '0.250000' points = '320.6,345.7 320.6,662.4 322.5,662.4 322.5,342.2 '/>
		<polygon fill = 'rgb( 31, 120, 180)' fill-opacity = '0.250000' points = '322.5,342.2 322.5,662.4 324.4,662.4 324.4,338.7 '/>
		<polygon fill = 'rgb( 31, 120, 180)' fill-opacity = '0.250000' points = '324.4,338.7 324.4,662.4 326.3,662.4 326.3,335.2 '/>
		<polygon fill = 'rgb( 31, 120, 180)' fill-opacity = '0.250000' points = '326.3,335.2 326.3,662.4 328.2,662.4 328.2,331.7 '/>
		<polygon fill = 'rgb( 31, 120, 180)' fill-opacity = '0.250000' points = '328.2,331.7 328.2,662.4 330.1,662.4 330.1,328.1 '/>
		<polygon fill = 'rgb( 31, 120, 180)' fill-opacity = '0.250000' points = '330.1,328.1 330.1,662.4 332.0,662.4 332.0,324.5 '/>
		<polygon fill = 'rgb( 31, 120, 180)' fill-opacity = '0.250000' points = '332.0,324.5 332.0,662.4 333.9,662.4 333.9,320.9 '/>
		<polygon fill = 'rgb( 31, 120, 180)' fill-opacity = '0.250000' points = '333.9,320.9 333.9,662.4 335.8,662.4 335.8,317.4 '/>
		<polygon fill = 'rgb( 31, 120, 180)' fill-opacity = '0.250000' points = '335.8,317.4 335.8,662.4 337.7,662.4 337.7,313.8 '/>
		<polygon fill = 'rgb( 31, 120, 180)' fill-opacity = '0.250000' points = '337.7,313.8 337.7,662.4 339.7,662.4 339.7,310.2 '/>
		<polygon fill = 'rgb( 31, 120, 180)' fill-opacity = '0.250000' points = '339.7,310.2 339.7,662.4 341.6,662.4 341.6,306.7 '/>
		<polygon fill = 'rgb( 31, 120, 180)' fill-opacity = '0.250000' points = '341.6,306.7 341.6,662.4 343.5,662.4 343.5,303.1 '/>
		<polygon fill = 'rgb( 31, 120, 180)' fill-opacity = '0.250000' points = '343.5,303.1 343.5,662.4 345.4,662.4 345.4,299.6 '/>
		<polygon fill = 'rgb( 31, 120, 180)' fill-opacity = '0.250000' points = '345.4,299.6 345.4,662.4 347.3,662.4 347.3,296.1 '/>
		<polygon fill = 'rgb( 31, 120, 180)' fill-opacity = '0.250000' points = '347.3,296.1 347.3,662.4 349.2,662.4 349.2,292.6 '/>
		<polygon fill = 'rgb( 31, 120, 180)' fill-opacity = '0.250000' points = '349.2,292.6 349.2,662.4 351.1,662.4 351.1,289.2 '/>
		<polygon fill = 'rgb( 31, 120, 180)' fill-opacity = '0.250000' points = '351.1,289.2 351.1,662.4 353.0,662.4 353.0,285.7 '/>
		<polygon fill = 'rgb( 31, 120, 180)' fill-opacity = '0.250000' points = '353.0,285.7 353.0,662.4 354.9,662.4 354.9,282.3 '/>
		<polygon fill = 'rgb( 31, 120, 180)' fill-opacity = '0.250000' points = '354.9,282.3 354.9,662.4 356.8,662.4 356.8,278.9 '/>
		<polygon fill = 'rgb( 31, 120, 180)' fill-opacity = '0.250000' points = '356.8,278.9 356.8,662.4 358.7,662.4 358.7,275.5 '/>
		<polygon fill = 'rgb( 31, 120, 180)' fill-opacity = '0.250000' points = '358.7,275.5 358.7,662.4 360.6,662.4 360.6,272.1 '/>
		<polygon fill = 'rgb( 31, 120, 180)' fill-opacity = '0.250000' points = '360.6,272.1 360.6,662.4 362.5,662.4 362.5,268.8 '/>
		<polygon fill = 'rgb( 31, 120, 180)' fill-opacity = '0.250000' points = '362.5,268.8 362.5,662.4 364.4,662.4 364.4,265.4 '/>
		<polygon fill = 'rgb( 31, 120, 180)' fill-opacity = '0.250000' points = '364.4,265.4 364.4,662.4 366.3,662.4 366.3,262.1 '/>
		<polygon fill = 'rgb( 31, 120, 180)' fill-opacity = '0.250000' points = '366.3,262.1 366.3,662.4 368.2,662.4 368.2,258.8 '/>
		<polygon fill = 'rgb( 31, 120, 180)' fill-opacity = '0.250000' points = '368.2,258.8 368.2,662.4 370.1,662.4 370.1,255.5 '/>
		<polygon fill = 'rgb( 31, 120, 180)' fill-opacity = '0.250000' points = '370.1,255.5 370.1,662.4 372.0,662.4 372.0,252.3 '/>
		<polygon fill = 'rgb( 31, 120, 180)' fill-opacity = '0.250000' points = '372.0,252.3 372.0,662.4 373.9,662.4 373.9,249.0 '/>
		<polygon fill = 'rgb( 31, 120, 180)' fill-opacity = '0.250000' points = '373.9,249.0 373.9,662.4 375.8,662.4 375.8,245.8 '/>
		<polygon fill = 'rgb( 31, 120, 180)' fill-opacity = '0.250000' points = '375.8,245.8 375.8,662.4 377.7,662.4 377.7,242.7 '/>
		<polygon fill = 'rgb( 31, 120, 180)' fill-opacity = '0.250000' points = '377.7,242.7 377.7,662.4 379.6,662.4 379.6,239.5 '/>
		<polygon fill = 'rgb( 31, 120, 180)' fill-opacity = '0.250000' points = '379.6,239.5 379.6,662.4 381.5,662.4 381.5,236.4 '/>
		<polygon fill = 'rgb( 31, 120, 180)' fill-opacity = '0.250000' points = '381.5,236.4 381.5,662.4 383.4,662.4 383.4,233.3 '/>
		<polygon fill = 'rgb( 31, 120, 180)' fill-opacity = '0.250000' points = '383.4,233.3 383.4,662.4 385.3,662.4 385.3,230.3 '/>
		<polygon fill = 'rgb( 31, 120, 180)' fill-opacity = '0.250000' points = '385.3,230.3 385.3,662.4 387.2,662.4 387.2,227.3 '/>
		<polygon fill = 'rgb( 31, 120, 180)' fill-opacity = '0.250000' points = '387.2,227.3 387.2,662.4 389.2,662.4 389.2,224.4 '/>
		<polygon fill = 'rgb( 31, 120, 180)' fill-opacity = '0.250000' points = '389.2,224.4 389.2,662.4 391.1,662.4 391.1,221.5 '/>
		<polygon fill = 'rgb( 31, 120, 180)' fill-opacity = '0.250000' points = '391.1,221.5 391.1,662.4 393.0,662.4 393.0,218.6 '/>
		<polygon fill = 'rgb( 31, 120, 180)' fill-opacity = '0.250000' points = '393.0,218.6 393.0,662.4 394.9,662.4 394.9,215.8 '/>
		<polygon fill = 'rgb( 31, 120, 180)' fill-opacity = '0.250000' points = '394.9,215.8 394.9,662.4 396.8,662.4 396.8,213.0 '/>
		<polygon fill = 'rgb( 31, 120, 180)' fill-opacity = '0.250000' points = '396.8,213.0 396.8,662.4 398.7,662.4 398.7,210.3 '/>
		<polygon fill = 'rgb( 31, 120, 180)' fill-opacity = '0.250000' points = '398.7,210.3 398.7,662.4 400.6,662.4 400.6,207.6 '/>
		<polygon fill = 'rgb( 31, 120, 180)' fill-opacity = '0.250000' points = '400.6,207.6 400.6,662.4 402.5,662.4 402.5,205.0 '/>
		<polygon fill = 'rgb( 31, 120, 180)' fill-opacity = '0.250000' points = '402.5,205.0 402.5,662.4 404.4,662.4 404.4,202.3 '/>
		<polygon fill = 'rgb( 31, 120, 180)' fill-opacity = '0.250000' points = '404.4,202.3 404.4,662.4 406.3,662.4 406.3,199.8 '/>
		<polygon fill = 'rgb( 31, 120, 180)' fill-opacity = '0.250000' points = '406.3,199.8 406.3,662.4 408.2,662.4 408.2,197.2 '/>
		<polygon fill = 'rgb( 31, 120, 180)' fill-opacity = '0.250000' points = '408.2,197.2 408.2,662.4 410.1,662.4 410.1,194.7 '/>
		<polygon fill = 'rgb( 31, 120, 180)' fill-opacity = '0.250000' points = '410.1,194.7 410.1,662.4 412.0,662.4 412.0,192.2 '/>
		<polygon fill = 'rgb( 31, 120, 180)' fill-opacity = '0.250000' points = '412.0,192.2 412.0,662.4 413.9,662.4 413.9,189.7 '/>
		<polygon fill = 'rgb( 31, 120, 180)' fill-opacity = '0.250000' points = '413.9,189.7 413.9,662.4 415.8,662.4 415.8,187.2 '/>
		<polygon fill = 'rgb( 31, 120, 180)' fill-opacity = '0.250000' points = '415.8,187.2 415.8,662.4 417.7,662.4 417.7,184.8 '/>
		<polygon fill = 'rgb( 31, 120, 180)' fill-opacity = '0.250000' points = '417.7,184.8 417.7,662.4 419.6,662.4 419.6,182.3 '/>
		<polygon fill = 'rgb( 31, 120, 180)' fill-opacity = '0.250000' points = '419.6,182.3 419.6,662.4 421.5,662.4 421.5,179.9 '/>
		<polygon fill = 'rgb( 31, 120, 180)' fill-opacity = '0.250000' points = '421.5,179.9 421.5,662.4 423.4,662.4 423.4,177.4 '/>
		<polygon fill = 'rgb( 31, 120, 180)' fill-opacity = '0.250000' points = '423.4,177.4 423.4,662.4 425.3,662.4 425.3,174.9 '/>
		<polygon fill = 'rgb( 31, 120, 180)' fill-opacity = '0.250000' points = '425.3,174.9 425.3,662.4 427.2,662.4 427.2,172.4 '/>
		<polygon fill = 'rgb( 31, 120, 180)' fill-opacity = '0.250000' points = '427.2,172.4 427.2,662.4 429.1,662.4 429.1,169.9 '/>
		<polygon fill = 'rgb( 31, 120, 180)' fill-opacity = '0.250000' points = '429.1,169.9 429.1,662.4 431.0,662.4 431.0,167.4 '/>
		<polygon fill = 'rgb( 31, 120, 180)' fill-opacity = '0.250000' points = '431.0,167.4 431.0,662.4 432.9,662.4 432.9,164.9 '/>
		<polygon fill = 'rgb( 31, 120, 180)' fill-opacity = '0.250000' points = '432.9,164.9 432.9,662.4 434.8,662.4 434.8,162.3 '/>
		<polygon fill = 'rgb( 31, 120, 180)' fill-opacity = '0.250000' points = '434.8,162.3 434.8,662.4 436.7,662.4 436.7,159.8 '/>
		<polygon fill = 'rgb( 31, 120, 180)' fill-opacity = '0.250000' points = '436.7,159.8 436.7,662.4 438.7,662.4 438.7,157.3 '/>
		<polygon fill = 'rgb( 31, 120, 180)' fill-opacity = '0.250000' points = '438.7,157.3 438.7,662.4 440.6,662.4 440.6,154.7 '/>
		<polygon fill = 'rgb( 31, 120, 180)' fill-opacity = '0.250000' points = '440.6,154.7 440.6,662.4 442.5,662.4 442.5,152.2 '/>
		<polygon fill = 'rgb( 31, 120, 180)' fill-opacity = '0.250000' points = '442.5,152.2 442.5,662.4 444.4,662.4 444.4,149.7 '/>
		<polygon fill = 'rgb( 31, 120, 180)' fill-opacity = '0.250000' points = '444.4,149.7 444.4,662.4 446.3,662.4 446.3,147.2 '/>
		<polygon fill = 'rgb( 31, 120, 180)' fill-opacity = '0.250000' points = '446.3,147.2 446.3,662.4 448.2,662.4 448.2,144.8 '/>
		<polygon fill = 'rgb( 31, 120, 180)' fill-opacity = '0.250000' points = '448.2,144.8 448.2,662.4 450.1,662.4 450.1,142.4 '/>
		<polygon fill = 'rgb( 31, 120, 180)' fill-opacity = '0.250000' points = '450.1,142.4 450.1,662.4 452.0,662.4 452.0,140.1 '/>
		<polygon fill = 'rgb( 31, 120, 180)' fill-opacity = '0.250000' points = '452.0,140.1 452.0,662.4 453.9,662.4 453.9,137.8 '/>
		<polygon fill = 'rgb( 31, 120, 180)' fill-opacity = '0.250000' points = '453.9,137.8 453.9,662.4 455.8,662.4 455.8,135.5 '/>
		<polygon fill = 'rgb( 31, 120, 180)' fill-opacity = '0.250000' points = '455.8,135.5 455.8,662.4 457.7,662.4 457.7,133.3 '/>
		<polygon fill = 'rgb( 31, 120, 180)' fill-opacity = '0.250000' points = '457.7,133.3 457.7,662.4 459.6,662.4 459.6,131.1 '/>
		<polygon fill = 'rgb( 31, 120, 180)' fill-opacity = '0.250000' points = '459.6,131.1 459.6,662.4 461.5,662.4 461.5,129.1 '/>
		<polygon fill = 'rgb( 31, 120, 180)' fill-opacity = '0.250000' points = '461.5,129.1 461.5,662.4 463.4,662.4 463.4,127.0 '/>
		<polygon fill = 'rgb( 31, 120, 180)' fill-opacity = '0.250000' points = '463.4,127.0 463.4,662.4 465.3,662.4 465.3,125.0 '/>
		<polygon fill = 'rgb( 31, 120, 180)' fill-opacity = '0.250000' points = '465.3,125.0 465.3,662.4 467.2,662.4 467.2,123.1 '/>
		<polygon fill = 'rgb( 31, 120, 180)' fill-opacity = '0.250000' points = '467.2,123.1 467.2,662.4 469.1,662.4 469.1,121.1 '/>
		<polygon fill = 'rgb( 31, 120, 180)' fill-opacity = '0.250000' points = '469.1,121.1 469.1,662.4 471.0,662.4 471.0,119.3 '/>
		<polygon fill = 'rgb( 31, 120, 180)' fill-opacity = '0.250000' points = '471.0,119.3 471.0,662.4 472.9,662.4 472.9,117.4 '/>
		<polygon fill = 'rgb( 31, 120, 180)' fill-opacity = '0.250000' points = '472.9,117.4 472.9,662.4 474.8,662.4 474.8,115.6 '/>
		<polygon fill = 'rgb( 31, 120, 180)' fill-opacity = '0.250000' points = '474.8,115.6 474.8,662.4 476.7,662.4 476.7,113.8 '/>
		<polygon fill = 'rgb( 31, 120, 180)' fill-opacity = '0.250000' points = '476.7,113.8 476.7,662.4 478.6,662.4 478.6,112.0 '/>
		<polygon fill = 'rgb( 31, 120, 180)' fill-opacity = '0.250000' points = '478.6,112.0 478.6,662.4 480.5,662.4 480.5,110.3 '/>
		<polygon fill = 'rgb( 31, 120, 180)' fill-opacity = '0.250000' points = '480.5,110.3 480.5,662.4 482.4,662.4 482.4,108.5 '/>
		<polygon fill = 'rgb( 31, 120, 180)' fill-opacity = '0.250000' points = '482.4,108.5 482.4,662.4 484.3,662.4 484.3,106.8 '/>
		<polygon fill = 'rgb( 31, 120, 180)' fill-opacity = '0.250000' points = '484.3,106.8 484.3,662.4 486.2,662.4 486.2,105.2 '/>
		<polygon fill = 'rgb( 31, 120, 180)' fill-opacity = '0.250000' points = '486.2,105.2 486.2,662.4 488.1,662.4 488.1,103.5 '/>
		<polygon fill = 'rgb( 31, 120, 180)' fill-opacity = '0.250000' points = '488.1,103.5 488.1,662.4 490.1,662.4 490.1,101.9 '/>
		<polygon fill = 'rgb( 31, 120, 180)' fill-opacity = '0.250000' points = '490.1,101.9 490.1,662.4 492.0,662.4 492.0,100.3 '/>
		<polygon fill = 'rgb( 31, 120, 180)' fill-opacity = '0.250000' points = '492.0,100.3 492.0,662.4 493.9,662.4 493.9,98.8 '/>
		<polygon fill = 'rgb( 31, 120, 180)' fill-opacity = '0.250000' points = '493.9,98.8 493.9,662.4 495.8,662.4 495.8,97.4 '/>
		<polygon fill = 'rgb( 31, 120, 180)' fill-opacity = '0.250000' points = '495.8,97.4 495.8,662.4 497.7,662.4 497.7,96.0 '/>
		<polygon fill = 'rgb( 31, 120, 180)' fill-opacity = '0.250000' points = '497.7,96.0 497.7,662.4 499.6,662.4 499.6,94.7 '/>
		<polygon fill = 'rgb( 31, 120, 180)' fill-opacity = '0.250000' points = '499.6,94.7 499.6,662.4 501.5,662.4 501.5,93.4 '/>
		<polygon fill = 'rgb( 31, 120, 180)' fill-opacity = '0.250000' points = '501.5,93.4 501.5,662.4 503.4,662.4 503.4,92.2 '/>
		<polygon fill = 'rgb( 31, 120, 180)' fill-opacity = '0.250000' points = '503.4,92.2 503.4,662.4 505.3,662.4 505.3,91.2 '/>
		<polygon fill = 'rgb( 31, 120, 180)' fill-opacity = '0.250000' points = '505.3,91.2 505.3,662.4 507.2,662.4 507.2,90.2 '/>
		<polygon fill = 'rgb( 31, 120, 180)' fill-opacity = '0.250000' points = '507.2,90.2 507.2,662.4 509.1,662.4 509.1,89.3 '/>
		<polygon fill = 'rgb( 31, 120, 180)' fill-opacity = '0.250000' points = '509.1,89.3 509.1,662.4 511.0,662.4 511.0,88.4 '/>
		<polygon fill = 'rgb( 31, 120, 180)' fill-opacity = '0.250000' points = '511.0,88.4 511.0,662.4 512.9,662.4 512.9,87.7 '/>
		<polygon fill = 'rgb( 31, 120, 180)' fill-opacity = '0.250000' points = '512.9,87.7 512.9,662.4 514.8,662.4 514.8,87.0 '/>
		<polygon fill = 'rgb( 31, 120, 180)' fill-opacity = '0.250000' points = '514.8,87.0 514.8,662.4 516.7,662.4 516.7,86.4 '/>
		<polygon fill = 'rgb( 31, 120, 180)' fill-opacity = '0.250000' points = '516.7,86.4 516.7,662.4 518.6,662.4 518.6,85.8 '/>
		<polygon fill = 'rgb( 31, 120, 180)' fill-opacity = '0.250000' points = '518.6,85.8 518.6,662.4 520.5,662.4 520.5,85.3 '/>
		<polygon fill = 'rgb( 31, 120, 180)' fill-opacity = '0.250000' points = '520.5,85.3 520.5,662.4 522.4,662.4 522.4,84.9 '/>
		<polygon fill = 'rgb( 31, 120, 180)' fill-opacity = '0.250000' points = '522.4,84.9 522.4,662.4 524.3,662.4 524.3,84.4 '/>
		<polygon fill = 'rgb( 31, 120, 180)' fill-opacity = '0.250000' points = '524.3,84.4 524.3,662.4 526.2,662.4 526.2,84.1 '/>
		<polygon fill = 'rgb( 31, 120, 180)' fill-opacity = '0.250000' points = '526.2,84.1 526.2,662.4 528.1,662.4 528.1,83.7 '/>
		<polygon fill = 'rgb( 31, 120, 180)' fill-opacity = '0.250000' points = '528.1,83.7 528.1,662.4 530.0,662.4 530.0,83.4 '/>
		<polygon fill = 'rgb( 31, 120, 180)' fill-opacity = '0.250000' points = '530.0,83.4 530.0,662.4 531.9,662.4 531.9,83.1 '/>
		<polygon fill = 'rgb( 31, 120, 180)' fill-opacity = '0.250000' points = '531.9,83.1 531.9,662.4 533.8,662.4 533.8,82.8 '/>
		<polygon fill = 'rgb( 31, 120, 180)' fill-opacity = '0.250000' points = '533.8,82.8 533.8,662.4 535.7,662.4 535.7,82.6 '/>
		<polygon fill = 'rgb( 31, 120, 180)' fill-opacity = '0.250000' points = '535.7,82.6 535.7,662.4 537.6,662.4 537.6,82.4 '/>
		<polygon fill = 'rgb( 31, 120, 180)' fill-opacity = '0.250000' points = '537.6,82.4 537.6,662.4 539.6,662.4 539.6,82.2 '/>
		<polygon fill = 'rgb( 31, 120, 180)' fill-opacity = '0.250000' points = '539.6,82.2 539.6,662.4 541.5,662.4 541.5,82.1 '/>
		<polygon fill = 'rgb( 31, 120, 180)' fill-opacity = '0.250000' points = '541.5,82.1 541.5,662.4 543.4,662.4 543.4,82.0 '/>
		<polygon fill = 'rgb( 31, 120, 180)' fill-opacity = '0.250000' points = '543.4,82.0 543.4,662.4 545.3,662.4 545.3,81.9 '/>
		<polygon fill = 'rgb( 31, 120, 180)' fill-opacity = '0.250000' points = '545.3,81.9 545.3,662.4 547.2,662.4 547.2,81.9 '/>
		<polygon fill = 'rgb( 31, 120, 180)' fill-opacity = '0.250000' points = '547.2,81.9 547.2,662.4 549.1,662.4 549.1,82.0 '/>
		<polygon fill = 'rgb( 31, 120, 180)' fill-opacity = '0.250000' points = '549.1,82.0 549.1,662.4 551.0,662.4 551.0,82.1 '/>
		<polygon fill = 'rgb( 31, 120, 180)' fill-opacity = '0.250000' points = '551.0,82.1 551.0,662.4 552.9,662.4 552.9,82.3 '/>
		<polygon fill = 'rgb( 31, 120, 180)' fill-opacity = '0.250000' points = '552.9,82.3 552.9,662.4 554.8,662.4 554.8,82.6 '/>
		<polygon fill = 'rgb( 31, 120, 180)' fill-opacity = '0.250000' points = '554.8,82.6 554.8,662.4 556.7,662.4 556.7,83.0 '/>
		<polygon fill = 'rgb( 31, 120, 180)' fill-opacity = '0.250000' points = '556.7,83.0 556.7,662.4 558.6,662.4 558.6,83.5 '/>
		<polygon fill = 'rgb( 31, 120, 180)' fill-opacity = '0.250000' points = '558.6,83.5 558.6,662.4 560.5,662.4 560.5,84.1 '/>
		<polygon fill = 'rgb( 31, 120, 180)' fill-opacity = '0.250000' points = '560.5,84.1 560.5,662.4 562.4,662.4 562.4,84.7 '/>
		<polygon fill = 'rgb( 31, 120, 180)' fill-opacity = '0.250000' points = '562.4,84.7 562.4,662.4 564.3,662.4 564.3,85.5 '/>
		<polygon fill = 'rgb( 31, 120, 180)' fill-opacity = '0.250000' points = '564.3,85.5 564.3,662.4 566.2,662.4 566.2,86.3 '/>
		<polygon fill = 'rgb( 31, 120, 180)' fill-opacity = '0.250000' points = '566.2,86.3 566.2,662.4 568.1,662.4 568.1,87.3 '/>
		<polygon fill = 'rgb( 31, 120, 180)' fill-opacity = '0.250000' points = '568.1,87.3 568.1,662.4 570.0,662.4 570.0,88.3 '/>
		<polygon fill = 'rgb( 31, 120, 180)' fill-opacity = '0.250000' points = '570.0,88.3 570.0,662.4 571.9,662.4 571.9,89.4 '/>
		<polygon fill = 'rgb( 31, 120, 180)' fill-opacity = '0.250000' points = '571.9,89.4 571.9,662.4 573.8,662.4 573.8,90.6 '/>
		<polygon fill = 'rgb( 31, 120, 180)' fill-opacity = '0.250000' points = '573.8,90.6 573.8,662.4 575.7,662.4 575.7,91.8 '/>
		<polygon fill = 'rgb( 31, 120, 180)' fill-opacity = '0.250000' points = '575.7,91.8 575.7,662.4 577.6,662.4 577.6,93.1 '/>
		<polygon fill = 'rgb( 31, 120, 180)' fill-opacity = '0.250000' points = '577.6,93.1 577.6,662.4 579.5,662.4 579.5,94.5 '/>
		<polygon fill = 'rgb( 31, 120, 180)' fill-opacity = '0.250000' points = '579.5,94.5 579.5,662.4 581.4,662.4 581.4,95.9 '/>
		<polygon fill = 'rgb( 31, 120, 180)' fill-opacity = '0.250000' points = '581.4,95.9 581.4,662.4 583.3,662.4 583.3,97.3 '/>
		<polygon fill = 'rgb( 31, 120, 180)' fill-opacity = '0.250000' points = '583.3,97.3 583.3,662.4 585.2,662.4 585.2,98.8 '/>
		<polygon fill = 'rgb( 31, 120, 180)' fill-opacity = '0.250000' points = '585.2,98.8 585.2,662.4 587.1,662.4 587.1,100.3 '/>
		<polygon fill = 'rgb( 31, 120, 180)' fill-opacity = '0.250000' points = '587.1,100.3 587.1,662.4 589.1,662.4 589.1,101.9 '/>
		<polygon fill = 'rgb( 31, 120, 180)' fill-opacity = '0.250000' points = '589.1,101.9 589.1,662.4 591.0,662.4 591.0,103.4 '/>
		<polygon fill = 'rgb( 31, 120, 180)' fill-opacity = '0.250000' points = '591.0,103.4 591.0,662.4 592.9,662.4 592.9,105.0 '/>
		<polygon fill = 'rgb( 31, 120, 180)' fill-opacity = '0.250000' points = '592.9,105.0 592.9,662.4 594.8,662.4 594.8,106.6 '/>
		<polygon fill = 'rgb( 31, 120, 180)' fill-opacity = '0.250000' points = '594.8,106.6 594.8,662.4 596.7,662.4 596.7,108.1 '/>
		<polygon fill = 'rgb( 31, 120, 180)' fill-opacity = '0.250000' points = '596.7,108.1 596.7,662.4 598.6,662.4 598.6,109.7 '/>
		<polygon fill = 'rgb( 31, 120, 180)' fill-opacity = '0.250000' points = '598.6,109.7 598.6,662.4 600.5,662.4 600.5,111.3 '/>
		<polygon fill = 'rgb( 31, 120, 180)' fill-opacity = '0.250000' points = '600.5,111.3 600.5,662.4 602.4,662.4 602.4,112.8 '/>
		<polygon fill = 'rgb( 31, 120, 180)' fill-opacity = '0.250000' points = '602.4,112.8 602.4,662.4 604.3,662.4 604.3,114.3 '/>
		<polygon fill = 'rgb( 31, 120, 180)' fill-opacity = '0.250000' points = '604.3,114.3 604.3,662.4 606.2,662.4 606.2,115.9 '/>
		<polygon fill = 'rgb( 31, 120, 180)' fill-opacity = '0.250000' points = '606.2,115.9 606.2,662.4 608.1,662.4 608.1,117.3 '/>
		<polygon fill = 'rgb( 31, 120, 180)' fill-opacity = '0.250000' points = '608.1,117.3 608.1,662.4 610.0,662.4 610.0,118.8 '/>
		<polygon fill = 'rgb( 31, 120, 180)' fill-opacity = '0.250000' points = '610.0,118.8 610.0,662.4 611.9,662.4 611.9,120.3 '/>
		<polygon fill = 'rgb( 31, 120, 180)' fill-opacity = '0.250000' points = '611.9,120.3 611.9,662.4 613.8,662.4 613.8,121.7 '/>
		<polygon fill = 'rgb( 31, 120, 180)' fill-opacity = '0.250000' points = '613.8,121.7 613.8,662.4 615.7,662.4 615.7,123.1 '/>
		<polygon fill = 'rgb( 31, 120, 180)' fill-opacity = '0.250000' points = '615.7,123.1 615.7,662.4 617.6,662.4 617.6,124.4 '/>
		<polygon fill = 'rgb( 31, 120, 180)' fill-opacity = '0.250000' points = '617.6,124.4 617.6,662.4 619.5,662.4 619.5,125.8 '/>
		<polygon fill = 'rgb( 31, 120, 180)' fill-opacity = '0.250000' points = '619.5,125.8 619.5,662.4 621.4,662.4 621.4,127.1 '/>
		<polygon fill = 'rgb( 31, 120, 180)' fill-opacity = '0.250000' points = '621.4,127.1 621.4,662.4 623.3,662.4 623.3,128.4 '/>
		<polygon fill = 'rgb( 31, 120, 180)' fill-opacity = '0.250000' points = '623.3,128.4 623.3,662.4 625.2,662.4 625.2,129.8 '/>
		<polygon fill = 'rgb( 31, 120, 180)' fill-opacity = '0.250000' points = '625.2,129.8 625.2,662.4 627.1,662.4 627.1,131.1 '/>
		<polygon fill = 'rgb( 31, 120, 180)' fill-opacity = '0.250000' points = '627.1,131.1 627.1,662.4 629.0,662.4 629.0,132.4 '/>
		<polygon fill = 'rgb( 31, 120, 180)' fill-opacity = '0.250000' points = '629.0,132.4 629.0,662.4 630.9,662.4 630.9,133.7 '/>
		<polygon fill = 'rgb( 31, 120, 180)' fill-opacity = '0.250000' points = '630.9,133.7 630.9,662.4 632.8,662.4 632.8,135.1 '/>
		<polygon fill = 'rgb( 31, 120, 180)' fill-opacity = '0.250000' points = '632.8,135.1 632.8,662.4 634.7,662.4 634.7,136.5 '/>
		<polygon fill = 'rgb( 31, 120, 180)' fill-opacity = '0.250000' points = '634.7,136.5 634.7,662.4 636.6,662.4 636.6,138.0 '/>
		<polygon fill = 'rgb( 31, 120, 180)' fill-opacity = '0.250000' points = '636.6,138.0 636.6,662.4 638.5,662.4 638.5,139.5 '/>
		<polygon fill = 'rgb( 31, 120, 180)' fill-opacity = '0.250000' points = '638.5,139.5 638.5,662.4 640.5,662.4 640.5,141.0 '/>
		<polygon fill = 'rgb( 31, 120, 180)' fill-opacity = '0.250000' points = '640.5,141.0 640.5,662.4 642.4,662.4 642.4,142.7 '/>
		<polygon fill = 'rgb( 31, 120, 180)' fill-opacity = '0.250000' points = '642.4,142.7 642.4,662.4 644.3,662.4 644.3,144.4 '/>
		<polygon fill = 'rgb( 31, 120, 180)' fill-opacity = '0.250000' points = '644.3,144.4 644.3,662.4 646.2,662.4 646.2,146.2 '/>
		<polygon fill = 'rgb( 31, 120, 180)' fill-opacity = '0.250000' points = '646.2,146.2 646.2,662.4 648.1,662.4 648.1,148.2 '/>
		<polygon fill = 'rgb( 31, 120, 180)' fill-opacity = '0.250000' points = '648.1,148.2 648.1,662.4 650.0,662.4 650.0,150.2 '/>
		<polygon fill = 'rgb( 31, 120, 180)' fill-opacity = '0.250000' points = '650.0,150.2 650.0,662.4 651.9,662.4 651.9,152.3 '/>
		<polygon fill = 'rgb( 31, 120, 180)' fill-opacity = '0.250000' points = '651.9,152.3 651.9,662.4 653.8,662.4 653.8,154.6 '/>
		<polygon fill = 'rgb( 31, 120, 180)' fill-opacity = '0.250000' points = '653.8,154.6 653.8,662.4 655.7,662.4 655.7,157.0 '/>
		<polygon fill = 'rgb( 31, 120, 180)' fill-opacity = '0.250000' points = '655.7,157.0 655.7,662.4 657.6,662.4 657.6,159.5 '/>
		<polygon fill = 'rgb( 31, 120, 180)' fill-opacity = '0.250000' points = '657.6,159.5 657.6,662.4 659.5,662.4 659.5,162.1 '/>
		<polygon fill = 'rgb( 31, 120, 180)' fill-opacity = '0.250000' points = '659.5,162.1 659.5,662.4 661.4,662.4 661.4,164.8 '/>
		<polygon fill = 'rgb( 31, 120, 180)' fill-opacity = '0.250000' points = '661.4,164.8 661.4,662.4 663.3,662.4 663.3,167.6 '/>
		<polygon fill = 'rgb( 31, 120, 180)' fill-opacity = '0.250000' points = '663.3,167.6 663.3,662.4 665.2,662.4 665.2,170.5 '/>
		<polygon fill = 'rgb( 31, 120, 180)' fill-opacity = '0.250000' points = '665.2,170.5 665.2,662.4 667.1,662.4 667.1,173.5 '/>
		<polygon fill = 'rgb( 31, 120, 180)' fill-opacity = '0.250000' points = '667.1,173.5 667.1,662.4 669.0,662.4 669.0,176.7 '/>
		<polygon fill = 'rgb( 31, 120, 180)' fill-opacity = '0.250000' points = '669.0,176.7 669.0,662.4 670.9,662.4 670.9,179.9 '/>
		<polygon fill = 'rgb( 31, 120, 180)' fill-opacity = '0.250000' points = '670.9,179.9 670.9,662.4 672.8,662.4 672.8,183.2 '/>
		<polygon fill = 'rgb( 31, 120, 180)' fill-opacity = '0.250000' points = '672.8,183.2 672.8,662.4 674.7,662.4 674.7,186.5 '/>
		<polygon fill = 'rgb( 31, 120, 180)' fill-opacity = '0.250000' points = '674.7,186.5 674.7,662.4 676.6,662.4 676.6,190.0 '/>
		<polygon fill = 'rgb( 31, 120, 180)' fill-opacity = '0.250000' points = '676.6,190.0 676.6,662.4 678.5,662.4 678.5,193.5 '/>
		<polygon fill = 'rgb( 31, 120, 180)' fill-opacity = '0.250000' points = '678.5,193.5 678.5,662.4 680.4,662.4 680.4,197.1 '/>
		<polygon fill = 'rgb( 31, 120, 180)' fill-opacity = '0.250000' points = '680.4,197.1 680.4,662.4 682.3,662.4 682.3,200.7 '/>
		<polygon fill = 'rgb( 31, 120, 180)' fill-opacity = '0.250000' points = '682.3,200.7 682.3,662.4 684.2,662.4 684.2,204.4 '/>
		<polygon fill = 'rgb( 31, 120, 180)' fill-opacity = '0.250000' points = '684.2,204.4 684.2,662.4 686.1,662.4 686.1,208.2 '/>
		<polygon fill = 'rgb( 31, 120, 180)' fill-opacity = '0.250000' points = '686.1,208.2 686.1,662.4 688.0,662.4 688.0,211.9 '/>
		<polygon fill = 'rgb( 31, 120, 180)' fill-opacity = '0.250000' points = '688.0,211.9 688.0,662.4 690.0,662.4 690.0,215.7 '/>
		<polygon fill = 'rgb( 31, 120, 180)' fill-opacity = '0.250000' points = '690.0,215.7 690.0,662.4 691.9,662.4 691.9,219.6 '/>
		<polygon fill = 'rgb( 31, 120, 180)' fill-opacity = '0.250000' points = '691.9,219.6 691.9,662.4 693.8,662.4 693.8,223.5 '/>
		<polygon fill = 'rgb( 31, 120, 180)' fill-opacity = '0.250000' points = '693.8,223.5 693.8,662.4 695.7,662.4 695.7,227.3 '/>
		<polygon fill = 'rgb( 31, 120, 180)' fill-opacity = '0.250000' points = '695.7,227.3 695.7,662.4 697.6,662.4 697.6,231.2 '/>
		<polygon fill = 'rgb( 31, 120, 180)' fill-opacity = '0.250000' points = '697.6,231.2 697.6,662.4 699.5,662.4 699.5,235.1 '/>
		<polygon fill = 'rgb( 31, 120, 180)' fill-opacity = '0.250000' points = '699.5,235.1 699.5,662.4 701.4,662.4 701.4,239.0 '/>
		<polygon fill = 'rgb( 31, 120, 180)' fill-opacity = '0.250000' points = '701.4,239.0 701.4,662.4 703.3,662.4 703.3,242.9 '/>
		<polygon fill = 'rgb( 31, 120, 180)' fill-opacity = '0.250000' points = '703.3,242.9 703.3,662.4 705.2,662.4 705.2,246.8 '/>
		<polygon fill = 'rgb( 31, 120, 180)' fill-opacity = '0.250000' points = '705.2,246.8 705.2,662.4 707.1,662.4 707.1,250.7 '/>
		<polygon fill = 'rgb( 31, 120, 180)' fill-opacity = '0.250000' points = '707.1,250.7 707.1,662.4 709.0,662.4 709.0,254.5 '/>
		<polygon fill = 'rgb( 31, 120, 180)' fill-opacity = '0.250000' points = '709.0,254.5 709.0,662.4 710.9,662.4 710.9,258.3 '/>
		<polygon fill = 'rgb( 31, 120, 180)' fill-opacity = '0.250000' points = '710.9,258.3 710.9,662.4 712.8,662.4 712.8,262.1 '/>
		<polygon fill = 'rgb( 31, 120, 180)' fill-opacity = '0.250000' points = '712.8,262.1 712.8,662.4 714.7,662.4 714.7,265.9 '/>
		<polygon fill = 'rgb( 31, 120, 180)' fill-opacity = '0.250000' points = '714.7,265.9 714.7,662.4 716.6,662.4 716.6,269.6 '/>
		<polygon fill = 'rgb( 31, 120, 180)' fill-opacity = '0.250000' points = '716.6,269.6 716.6,662.4 718.5,662.4 718.5,273.2 '/>
		<polygon fill = 'rgb( 31, 120, 180)' fill-opacity = '0.250000' points = '718.5,273.2 718.5,662.4 720.4,662.4 720.4,276.9 '/>
		<polygon fill = 'rgb( 31, 120, 180)' fill-opacity = '0.250000' points = '720.4,276.9 720.4,662.4 722.3,662.4 722.3,280.5 '/>
		<polygon fill = 'rgb( 31, 120, 180)' fill-opacity = '0.250000' points = '722.3,280.5 722.3,662.4 724.2,662.4 724.2,284.0 '/>
		<polygon fill = 'rgb( 31, 120, 180)' fill-opacity = '0.250000' points = '724.2,284.0 724.2,662.4 726.1,662.4 726.1,287.5 '/>
		<polygon fill = 'rgb( 31, 120, 180)' fill-opacity = '0.250000' points = '726.1,287.5 726.1,662.4 728.0,662.4 728.0,291.0 '/>
		<polygon fill = 'rgb( 31, 120, 180)' fill-opacity = '0.250000' points = '728.0,291.0 728.0,662.4 729.9,662.4 729.9,294.4 '/>
		<polygon fill = 'rgb( 31, 120, 180)' fill-opacity = '0.250000' points = '729.9,294.4 729.9,662.4 731.8,662.4 731.8,297.8 '/>
		<polygon fill = 'rgb( 31, 120, 180)' fill-opacity = '0.250000' points = '731.8,297.8 731.8,662.4 733.7,662.4 733.7,301.1 '/>
		<polygon fill = 'rgb( 31, 120, 180)' fill-opacity = '0.250000' points = '733.7,301.1 733.7,662.4 735.6,662.4 735.6,304.4 '/>
		<polygon fill = 'rgb( 31, 120, 180)' fill-opacity = '0.250000' points = '735.6,304.4 735.6,662.4 737.5,662.4 737.5,307.6 '/>
		<polygon fill = 'rgb( 31, 120, 180)' fill-opacity = '0.250000' points = '737.5,307.6 737.5,662.4 739.5,662.4 739.5,310.8 '/>
		<polygon fill = 'rgb( 31, 120, 180)' fill-opacity = '0.250000' points = '739.5,310.8 739.5,662.4 741.4,662.4 741.4,314.0 '/>
		<polygon fill = 'rgb( 31, 120, 180)' fill-opacity = '0.250000' points = '741.4,314.0 741.4,662.4 743.3,662.4 743.3,317.2 '/>
		<polygon fill = 'rgb( 31, 120, 180)' fill-opacity = '0.250000' points = '743.3,317.2 743.3,662.4 745.2,662.4 745.2,320.3 '/>
		<polygon fill = 'rgb( 31, 120, 180)' fill-opacity = '0.250000' points = '745.2,320.3 745.2,662.4 747.1,662.4 747.1,323.4 '/>
		<polygon fill = 'rgb( 31, 120, 180)' fill-opacity = '0.250000' points = '747.1,323.4 747.1,662.4 749.0,662.4 749.0,326.4 '/>
		<polygon fill = 'rgb( 31, 120, 180)' fill-opacity = '0.250000' points = '749.0,326.4 749.0,662.4 750.9,662.4 750.9,329.5 '/>
		<polygon fill = 'rgb( 31, 120, 180)' fill-opacity = '0.250000' points = '750.9,329.5 750.9,662.4 752.8,662.4 752.8,332.5 '/>
		<polygon fill = 'rgb( 31, 120, 180)' fill-opacity = '0.250000' points = '752.8,332.5 752.8,662.4 754.7,662.4 754.7,335.5 '/>
		<polygon fill = 'rgb( 31, 120, 180)' fill-opacity = '0.250000' points = '754.7,335.5 754.7,662.4 756.6,662.4 756.6,338.5 '/>
		<polygon fill = 'rgb( 31, 120, 180)' fill-opacity = '0.250000' points = '756.6,338.5 756.6,662.4 758.5,662.4 758.5,341.5 '/>
		<polygon fill = 'rgb( 31, 120, 180)' fill-opacity = '0.250000' points = '758.5,341.5 758.5,662.4 760.4,662.4 760.4,344.5 '/>
		<polygon fill = 'rgb( 31, 120, 180)' fill-opacity = '0.250000' points = '760.4,344.5 760.4,662.4 762.3,662.4 762.3,347.5 '/>
		<polygon fill = 'rgb( 31, 120, 180)' fill-opacity = '0.250000' points = '762.3,347.5 762.3,662.4 764.2,662.4 764.2,350.5 '/>
		<polygon fill = 'rgb( 31, 120, 180)' fill-opacity = '0.250000' points = '764.2,350.5 764.2,662.4 766.1,662.4 766.1,353.5 '/>
		<polygon fill = 'rgb( 31, 120, 180)' fill-opacity = '0.250000' points = '766.1,353.5 766.1,662.4 768.0,662.4 768.0,356.5 '/>
		<polygon fill = 'rgb( 31, 120, 180)' fill-opacity = '0.250000' points = '768.0,356.5 768.0,662.4 769.9,662.4 769.9,359.5 '/>
		<polygon fill = 'rgb( 31, 120, 180)' fill-opacity = '0.250000' points = '769.9,359.5 769.9,662.4 771.8,662.4 771.8,362.6 '/>
		<polygon fill = 'rgb( 31, 120, 180)' fill-opacity = '0.250000' points = '771.8,362.6 771.8,662.4 773.7,662.4 773.7,365.6 '/>
		<polygon fill = 'rgb( 31, 120, 180)' fill-opacity = '0.250000' points = '773.7,365.6 773.7,662.4 775.6,662.4 775.6,368.7 '/>
		<polygon fill = 'rgb( 31, 120, 180)' fill-opacity = '0.250000' points = '775.6,368.7 775.6,662.4 777.5,662.4 777.5,371.8 '/>
		<polygon fill = 'rgb( 31, 120, 180)' fill-opacity = '0.250000' points = '777.5,371.8 777.5,662.4 779.4,662.4 779.4,374.9 '/>
		<polygon fill = 'rgb( 31, 120, 180)' fill-opacity = '0.250000' points = '779.4,374.9 779.4,662.4 781.3,662.4 781.3,378.1 '/>
		<polygon fill = 'rgb( 31, 120, 180)' fill-opacity = '0.250000' points = '781.3,378.1 781.3,662.4 783.2,662.4 783.2,381.2 '/>
		<polygon fill = 'rgb( 31, 120, 180)' fill-opacity = '0.250000' points = '783.2,381.2 783.2,662.4 785.1,662.4 785.1,384.4 '/>
		<polygon fill = 'rgb( 31, 120, 180)' fill-opacity = '0.250000' points = '785.1,384.4 785.1,662.4 787.0,662.4 787.0,387.6 '/>
		<polygon fill = 'rgb( 31, 120, 180)' fill-opacity = '0.250000' points = '787.0,387.6 787.0,662.4 789.0,662.4 789.0,390.7 '/>
		<polygon fill = 'rgb( 31, 120, 180)' fill-opacity = '0.250000' points = '789.0,390.7 789.0,662.4 790.9,662.4 790.9,393.9 '/>
		<polygon fill = 'rgb( 31, 120, 180)' fill-opacity = '0.250000' points = '790.9,393.9 790.9,662.4 792.8,662.4 792.8,397.2 '/>
		<polygon fill = 'rgb( 31, 120, 180)' fill-opacity = '0.250000' points = '792.8,397.2 792.8,662.4 794.7,662.4 794.7,400.4 '/>
		<polygon fill = 'rgb( 31, 120, 180)' fill-opacity = '0.250000' points = '794.7,400.4 794.7,662.4 796.6,662.4 796.6,403.6 '/>
		<polygon fill = 'rgb( 31, 120, 180)' fill-opacity = '0.250000' points = '796.6,403.6 796.6,662.4 798.5,662.4 798.5,406.8 '/>
		<polygon fill = 'rgb( 31, 120, 180)' fill-opacity = '0.250000' points = '798.5,406.8 798.5,662.4 800.4,662.4 800.4,410.0 '/>
		<polygon fill = 'rgb( 31, 120, 180)' fill-opacity = '0.250000' points = '800.4,410.0 800.4,662.4 802.3,662.4 802.3,413.3 '/>
		<polygon fill = 'rgb( 31, 120, 180)' fill-opacity = '0.250000' points = '802.3,413.3 802.3,662.4 804.2,662.4 804.2,416.5 '/>
		<polygon fill = 'rgb( 31, 120, 180)' fill-opacity = '0.250000' points = '804.2,416.5 804.2,662.4 806.1,662.4 806.1,419.7 '/>
		<polygon fill = 'rgb( 31, 120, 180)' fill-opacity = '0.250000' points = '806.1,419.7 806.1,662.4 808.0,662.4 808.0,422.9 '/>
		<polygon fill = 'rgb( 31, 120, 180)' fill-opacity = '0.250000' points = '808.0,422.9 808.0,662.4 809.9,662.4 809.9,426.1 '/>
		<polygon fill = 'rgb( 31, 120, 180)' fill-opacity = '0.250000' points = '809.9,426.1 809.9,662.4 811.8,662.4 811.8,429.3 '/>
		<polygon fill = 'rgb( 31, 120, 180)' fill-opacity = '0.250000' points = '811.8,429.3 811.8,662.4 813.7,662.4 813.7,432.5 '/>
		<polygon fill = 'rgb( 31, 120, 180)' fill-opacity = '0.250000' points = '813.7,432.5 813.7,662.4 815.6,662.4 815.6,435.7 '/>
		<polygon fill = 'rgb( 31, 120, 180)' fill-opacity = '0.250000' points = '815.6,435.7 815.6,662.4 817.5,662.4 817.5,438.8 '/>
		<polygon fill = 'rgb( 31, 120, 180)' fill-opacity = '0.250000' points = '817.5,438.8 817.5,662.4 819.4,662.4 819.4,442.0 '/>
		<polygon fill = 'rgb( 31, 120, 180)' fill-opacity = '0.250000' points = '819.4,442.0 819.4,662.4 821.3,662.4 821.3,445.1 '/>
		<polygon fill = 'rgb( 31, 120, 180)' fill-opacity = '0.250000' points = '821.3,445.1 821.3,662.4 823.2,662.4 823.2,448.2 '/>
		<polygon fill = 'rgb( 31, 120, 180)' fill-opacity = '0.250000' points = '823.2,448.2 823.2,662.4 825.1,662.4 825.1,451.3 '/>
		<polygon fill = 'rgb( 31, 120, 180)' fill-opacity = '0.250000' points = '825.1,451.3 825.1,662.4 827.0,662.4 827.0,454.4 '/>
		<polygon fill = 'rgb( 31, 120, 180)' fill-opacity = '0.250000' points = '827.0,454.4 827.0,662.4 828.9,662.4 828.9,457.4 '/>
		<polygon fill = 'rgb( 31, 120, 180)' fill-opacity = '0.250000' points = '828.9,457.4 828.9,662.4 830.8,662.4 830.8,460.5 '/>
		<polygon fill = 'rgb( 31, 120, 180)' fill-opacity = '0.250000' points = '830.8,460.5 830.8,662.4 832.7,662.4 832.7,463.5 '/>
		<polygon fill = 'rgb( 31, 120, 180)' fill-opacity = '0.250000' points = '832.7,463.5 832.7,662.4 834.6,662.4 834.6,466.5 '/>
		<polygon fill = 'rgb( 31, 120, 180)' fill-opacity = '0.250000' points = '834.6,466.5 834.6,662.4 836.5,662.4 836.5,469.4 '/>
		<polygon fill = 'rgb( 31, 120, 180)' fill-opacity = '0.250000' points = '836.5,469.4 836.5,662.4 838.4,662.4 838.4,472.3 '/>
		<polygon fill = 'rgb( 31, 120, 180)' fill-opacity = '0.250000' points = '838.4,472.3 838.4,662.4 840.4,662.4 840.4,475.2 '/>
		<polygon fill = 'rgb( 31, 120, 180)' fill-opacity = '0.250000' points = '840.4,475.2 840.4,662.4 842.3,662.4 842.3,478.0 '/>
		<polygon fill = 'rgb( 31, 120, 180)' fill-opacity = '0.250000' points = '842.3,478.0 842.3,662.4 844.2,662.4 844.2,480.8 '/>
		<polygon fill = 'rgb( 31, 120, 180)' fill-opacity = '0.250000' points = '844.2,480.8 844.2,662.4 846.1,662.4 846.1,483.6 '/>
		<polygon fill = 'rgb( 31, 120, 180)' fill-opacity = '0.250000' points = '846.1,483.6 846.1,662.4 848.0,662.4 848.0,486.3 '/>
		<polygon fill = 'rgb( 31, 120, 180)' fill-opacity = '0.250000' points = '848.0,486.3 848.0,662.4 849.9,662.4 849.9,488.9 '/>
		<polygon fill = 'rgb( 31, 120, 180)' fill-opacity = '0.250000' points = '849.9,488.9 849.9,662.4 851.8,662.4 851.8,491.5 '/>
		<polygon fill = 'rgb( 31, 120, 180)' fill-opacity = '0.250000' points = '851.8,491.5 851.8,662.4 853.7,662.4 853.7,494.1 '/>
		<polygon fill = 'rgb( 31, 120, 180)' fill-opacity = '0.250000' points = '853.7,494.1 853.7,662.4 855.6,662.4 855.6,496.7 '/>
		<polygon fill = 'rgb( 31, 120, 180)' fill-opacity = '0.250000' points = '855.6,496.7 855.6,662.4 857.5,662.4 857.5,499.2 '/>
		<polygon fill = 'rgb( 31, 120, 180)' fill-opacity = '0.250000' points = '857.5,499.2 857.5,662.4 859.4,662.4 859.4,501.6 '/>
		<polygon fill = 'rgb( 31, 120, 180)' fill-opacity = '0.250000' points = '859.4,501.6 859.4,662.4 861.3,662.4 861.3,504.1 '/>
		<polygon fill = 'rgb( 31, 120, 180)' fill-opacity = '0.250000' points = '861.3,504.1 861.3,662.4 863.2,662.4 863.2,506.5 '/>
		<polygon fill = 'rgb( 31, 120, 180)' fill-opacity = '0.250000' points = '863.2,506.5 863.2,662.4 865.1,662.4 865.1,508.9 '/>
		<polygon fill = 'rgb( 31, 120, 180)' fill-opacity = '0.250000' points = '865.1,508.9 865.1,662.4 867.0,662.4 867.0,511.2 '/>
		<polygon fill = 'rgb( 31, 120, 180)' fill-opacity = '0.250000' points = '867.0,511.2 867.0,662.4 868.9,662.4 868.9,513.6 '/>
		<polygon fill = 'rgb( 31, 120, 180)' fill-opacity = '0.250000' points = '868.9,513.6 868.9,662.4 870.8,662.4 870.8,515.9 '/>
		<polygon fill = 'rgb( 31, 120, 180)' fill-opacity = '0.250000' points = '870.8,515.9 870.8,662.4 872.7,662.4 872.7,518.3 '/>
		<polygon fill = 'rgb( 31, 120, 180)' fill-opacity = '0.250000' points = '872.7,518.3 872.7,662.4 874.6,662.4 874.6,520.6 '/>
		<polygon fill = 'rgb( 31, 120, 180)' fill-opacity = '0.250000' points = '874.6,520.6 874.6,662.4 876.5,662.4 876.5,522.9 '/>
		<polygon fill = 'rgb( 31, 120, 180)' fill-opacity = '0.250000' points = '876.5,522.9 876.5,662.4 878.4,662.4 878.4,525.3 '/>
		<polygon fill = 'rgb( 31, 120, 180)' fill-opacity = '0.250000' points = '878.4,525.3 878.4,662.4 880.3,662.4 880.3,527.6 '/>
		<polygon fill = 'rgb( 31, 120, 180)' fill-opacity = '0.250000' points = '880.3,527.6 880.3,662.4 882.2,662.4 882.2,529.9 '/>
		<polygon fill = 'rgb( 31, 120, 180)' fill-opacity = '0.250000' points = '882.2,529.9 882.2,662.4 884.1,662.4 884.1,532.2 '/>
		<polygon fill = 'rgb( 31, 120, 180)' fill-opacity = '0.250000' points = '884.1,532.2 884.1,662.4 886.0,662.4 886.0,534.6 '/>
		<polygon fill = 'rgb( 31, 120, 180)' fill-opacity = '0.250000' points = '886.0,534.6 886.0,662.4 887.9,662.4 887.9,536.9 '/>
		<polygon fill = 'rgb( 31, 120, 180)' fill-opacity = '0.250000' points = '887.9,536.9 887.9,662.4 889.9,662.4 889.9,539.2 '/>
		<polygon fill = 'rgb( 31, 120, 180)' fill-opacity = '0.250000' points = '889.9,539.2 889.9,662.4 891.8,662.4 891.8,541.5 '/>
		<polygon fill = 'rgb( 31, 120, 180)' fill-opacity = '0.250000' points = '891.8,541.5 891.8,662.4 893.7,662.4 893.7,543.8 '/>
		<polygon fill = 'rgb( 31, 120, 180)' fill-opacity = '0.250000' points = '893.7,543.8 893.7,662.4 895.6,662.4 895.6,546.0 '/>
		<polygon fill = 'rgb( 31, 120, 180)' fill-opacity = '0.250000' points = '895.6,546.0 895.6,662.4 897.5,662.4 897.5,548.3 '/>
		<polygon fill = 'rgb( 31, 120, 180)' fill-opacity = '0.250000' points = '897.5,548.3 897.5,662.4 899.4,662.4 899.4,550.5 '/>
		<polygon fill = 'rgb( 31, 120, 180)' fill-opacity = '0.250000' points = '899.4,550.5 899.4,662.4 901.3,662.4 901.3,552.7 '/>
		<polygon fill = 'rgb( 31, 120, 180)' fill-opacity = '0.250000' points = '901.3,552.7 901.3,662.4 903.2,662.4 903.2,554.8 '/>
		<polygon fill = 'rgb( 31, 120, 180)' fill-opacity = '0.250000' points = '903.2,554.8 903.2,662.4 905.1,662.4 905.1,556.9 '/>
		<polygon fill = 'rgb( 31, 120, 180)' fill-opacity = '0.250000' points = '905.1,556.9 905.1,662.4 907.0,662.4 907.0,558.9 '/>
		<polygon fill = 'rgb( 31, 120, 180)' fill-opacity = '0.250000' points = '907.0,558.9 907.0,662.4 908.9,662.4 908.9,560.9 '/>
		<polygon fill = 'rgb( 31, 120, 180)' fill-opacity = '0.250000' points = '908.9,560.9 908.9,662.4 910.8,662.4 910.8,562.9 '/>
		<polygon fill = 'rgb( 31, 120, 180)' fill-opacity = '0.250000' points = '910.8,562.9 910.8,662.4 912.7,662.4 912.7,564.8 '/>
		<polygon fill = 'rgb( 31, 120, 180)' fill-opacity = '0.250000' points = '912.7,564.8 912.7,662.4 914.6,662.4 914.6,566.6 '/>
		<polygon fill = 'rgb( 31, 120, 180)' fill-opacity = '0.250000' points = '914.6,566.6 914.6,662.4 916.5,662.4 916.5,568.4 '/>
		<polygon fill = 'rgb( 31, 120, 180)' fill-opacity = '0.250000' points = '916.5,568.4 916.5,662.4 918.4,662.4 918.4,570.1 '/>
		<polygon fill = 'rgb( 31, 120, 180)' fill-opacity = '0.250000' points = '918.4,570.1 918.4,662.4 920.3,662.4 920.3,571.8 '/>
		<polygon fill = 'rgb( 31, 120, 180)' fill-opacity = '0.250000' points = '920.3,571.8 920.3,662.4 922.2,662.4 922.2,573.4 '/>
		<polygon fill = 'rgb( 31, 120, 180)' fill-opacity = '0.250000' points = '922.2,573.4 922.2,662.4 924.1,662.4 924.1,575.0 '/>
	</g>
</g>
	</g>
	<g id="gnuplot_plot_3" ><title>Point estimate</title>
<g fill="none" color="white" stroke="rgb( 31, 120, 180)" stroke-width="2.00" stroke-linecap="butt" stroke-linejoin="miter">
</g>
<g fill="none" color="black" stroke="currentColor" stroke-width="2.00" stroke-linecap="butt" stroke-linejoin="miter">
	<g transform="translate(1089.0,103.0)" stroke="none" fill="black" font-family="Helvetica" font-size="12.00"  text-anchor="start">
		<text><tspan font-family="Helvetica" >Point estimate</tspan></text>
	</g>
</g>
<g fill="none" color="black" stroke="currentColor" stroke-width="2.00" stroke-linecap="butt" stroke-linejoin="miter">
	<path stroke='rgb( 31, 120, 180)'  d='M1038.5,99.1 L1080.7,99.1 M539.2,662.4 L539.2,82.2  '/></g>
	</g>
<g fill="none" color="black" stroke="currentColor" stroke-width="2.00" stroke-linecap="butt" stroke-linejoin="miter">
</g>
<g fill="none" color="black" stroke="black" stroke-width="1.00" stroke-linecap="butt" stroke-linejoin="miter">
</g>
<g fill="none" color="black" stroke="currentColor" stroke-width="1.00" stroke-linecap="butt" stroke-linejoin="miter">
	<path stroke='black'  d='M63.6,54.1 L63.6,662.4 L1013.6,662.4 L1013.6,54.1 L63.6,54.1 Z  '/></g>
<g fill="none" color="black" stroke="currentColor" stroke-width="1.00" stroke-linecap="butt" stroke-linejoin="miter">
</g>
</g>
</svg>

