<?xml version="1.0" encoding="utf-8"  standalone="no"?>
<svg 
 viewBox="0 0 1280 720"
 xmlns="http://www.w3.org/2000/svg"
 xmlns:xlink="http://www.w3.org/1999/xlink"
>

<title>Gnuplot</title>
<desc>Produced by GNUPLOT 5.0 patchlevel 6 </desc>

<g id="gnuplot_canvas">

<rect x="0" y="0" width="1280" height="720" fill="none"/>
<defs>

	<circle id='gpDot' r='0.5' stroke-width='0.5'/>
	<path id='gpPt0' stroke-width='0.222' stroke='currentColor' d='M-1,0 h2 M0,-1 v2'/>
	<path id='gpPt1' stroke-width='0.222' stroke='currentColor' d='M-1,-1 L1,1 M1,-1 L-1,1'/>
	<path id='gpPt2' stroke-width='0.222' stroke='currentColor' d='M-1,0 L1,0 M0,-1 L0,1 M-1,-1 L1,1 M-1,1 L1,-1'/>
	<rect id='gpPt3' stroke-width='0.222' stroke='currentColor' x='-1' y='-1' width='2' height='2'/>
	<rect id='gpPt4' stroke-width='0.222' stroke='currentColor' fill='currentColor' x='-1' y='-1' width='2' height='2'/>
	<circle id='gpPt5' stroke-width='0.222' stroke='currentColor' cx='0' cy='0' r='1'/>
	<use xlink:href='#gpPt5' id='gpPt6' fill='currentColor' stroke='none'/>
	<path id='gpPt7' stroke-width='0.222' stroke='currentColor' d='M0,-1.33 L-1.33,0.67 L1.33,0.67 z'/>
	<use xlink:href='#gpPt7' id='gpPt8' fill='currentColor' stroke='none'/>
	<use xlink:href='#gpPt7' id='gpPt9' stroke='currentColor' transform='rotate(180)'/>
	<use xlink:href='#gpPt9' id='gpPt10' fill='currentColor' stroke='none'/>
	<use xlink:href='#gpPt3' id='gpPt11' stroke='currentColor' transform='rotate(45)'/>
	<use xlink:href='#gpPt11' id='gpPt12' fill='currentColor' stroke='none'/>
	<path id='gpPt13' stroke-width='0.222' stroke='currentColor' d='M0,1.330 L1.265,0.411 L0.782,-1.067 L-0.782,-1.076 L-1.265,0.411 z'/>
	<use xlink:href='#gpPt13' id='gpPt14' fill='currentColor' stroke='none'/>
	<filter id='textbox' filterUnits='objectBoundingBox' x='0' y='0' height='1' width='1'>
	  <feFlood flood-color='white' flood-opacity='1' result='bgnd'/>
	  <feComposite in='SourceGraphic' in2='bgnd' operator='atop'/>
	</filter>
	<filter id='greybox' filterUnits='objectBoundingBox' x='0' y='0' height='1' width='1'>
	  <feFlood flood-color='lightgrey' flood-opacity='1' result='grey'/>
	  <feComposite in='SourceGraphic' in2='grey' operator='atop'/>
	</filter>
</defs>
<g fill="none" color="white" stroke="currentColor" stroke-width="1.00" stroke-linecap="butt" stroke-linejoin="miter">
</g>
<g fill="none" color="black" stroke="currentColor" stroke-width="1.00" stroke-linecap="butt" stroke-linejoin="miter">
	<path stroke='black'  d='M71.9,662.4 L80.9,662.4  '/>	<g transform="translate(63.6,666.3)" stroke="none" fill="black" font-family="Helvetica" font-size="12.00"  text-anchor="end">
		<text><tspan font-family="Helvetica" > 0</tspan></text>
	</g>
</g>
<g fill="none" color="black" stroke="currentColor" stroke-width="1.00" stroke-linecap="butt" stroke-linejoin="miter">
	<path stroke='black'  d='M71.9,601.6 L80.9,601.6  '/>	<g transform="translate(63.6,605.5)" stroke="none" fill="black" font-family="Helvetica" font-size="12.00"  text-anchor="end">
		<text><tspan font-family="Helvetica" > 20</tspan></text>
	</g>
</g>
<g fill="none" color="black" stroke="currentColor" stroke-width="1.00" stroke-linecap="butt" stroke-linejoin="miter">
	<path stroke='black'  d='M71.9,540.7 L80.9,540.7  '/>	<g transform="translate(63.6,544.6)" stroke="none" fill="black" font-family="Helvetica" font-size="12.00"  text-anchor="end">
		<text><tspan font-family="Helvetica" > 40</tspan></text>
	</g>
</g>
<g fill="none" color="black" stroke="currentColor" stroke-width="1.00" stroke-linecap="butt" stroke-linejoin="miter">
	<path stroke='black'  d='M71.9,479.9 L80.9,479.9  '/>	<g transform="translate(63.6,483.8)" stroke="none" fill="black" font-family="Helvetica" font-size="12.00"  text-anchor="end">
		<text><tspan font-family="Helvetica" > 60</tspan></text>
	</g>
</g>
<g fill="none" color="black" stroke="currentColor" stroke-width="1.00" stroke-linecap="butt" stroke-linejoin="miter">
	<path stroke='black'  d='M71.9,419.1 L80.9,419.1  '/>	<g transform="translate(63.6,423.0)" stroke="none" fill="black" font-family="Helvetica" font-size="12.00"  text-anchor="end">
		<text><tspan font-family="Helvetica" > 80</tspan></text>
	</g>
</g>
<g fill="none" color="black" stroke="currentColor" stroke-width="1.00" stroke-linecap="butt" stroke-linejoin="miter">
	<path stroke='black'  d='M71.9,358.2 L80.9,358.2  '/>	<g transform="translate(63.6,362.1)" stroke="none" fill="black" font-family="Helvetica" font-size="12.00"  text-anchor="end">
		<text><tspan font-family="Helvetica" > 100</tspan></text>
	</g>
</g>
<g fill="none" color="black" stroke="currentColor" stroke-width="1.00" stroke-linecap="butt" stroke-linejoin="miter">
	<path stroke='black'  d='M71.9,297.4 L80.9,297.4  '/>	<g transform="translate(63.6,301.3)" stroke="none" fill="black" font-family="Helvetica" font-size="12.00"  text-anchor="end">
		<text><tspan font-family="Helvetica" > 120</tspan></text>
	</g>
</g>
<g fill="none" color="black" stroke="currentColor" stroke-width="1.00" stroke-linecap="butt" stroke-linejoin="miter">
	<path stroke='black'  d='M71.9,236.6 L80.9,236.6  '/>	<g transform="translate(63.6,240.5)" stroke="none" fill="black" font-family="Helvetica" font-size="12.00"  text-anchor="end">
		<text><tspan font-family="Helvetica" > 140</tspan></text>
	</g>
</g>
<g fill="none" color="black" stroke="currentColor" stroke-width="1.00" stroke-linecap="butt" stroke-linejoin="miter">
	<path stroke='black'  d='M71.9,175.8 L80.9,175.8  '/>	<g transform="translate(63.6,179.7)" stroke="none" fill="black" font-family="Helvetica" font-size="12.00"  text-anchor="end">
		<text><tspan font-family="Helvetica" > 160</tspan></text>
	</g>
</g>
<g fill="none" color="black" stroke="currentColor" stroke-width="1.00" stroke-linecap="butt" stroke-linejoin="miter">
	<path stroke='black'  d='M71.9,114.9 L80.9,114.9  '/>	<g transform="translate(63.6,118.8)" stroke="none" fill="black" font-family="Helvetica" font-size="12.00"  text-anchor="end">
		<text><tspan font-family="Helvetica" > 180</tspan></text>
	</g>
</g>
<g fill="none" color="black" stroke="currentColor" stroke-width="1.00" stroke-linecap="butt" stroke-linejoin="miter">
	<path stroke='black'  d='M71.9,54.1 L80.9,54.1  '/>	<g transform="translate(63.6,58.0)" stroke="none" fill="black" font-family="Helvetica" font-size="12.00"  text-anchor="end">
		<text><tspan font-family="Helvetica" > 200</tspan></text>
	</g>
</g>
<g fill="none" color="black" stroke="currentColor" stroke-width="1.00" stroke-linecap="butt" stroke-linejoin="miter">
	<path stroke='black'  d='M102.3,662.4 L102.3,653.4  '/>	<g transform="translate(102.3,684.3)" stroke="none" fill="black" font-family="Helvetica" font-size="12.00"  text-anchor="middle">
		<text><tspan font-family="Helvetica" > 0.4</tspan></text>
	</g>
</g>
<g fill="none" color="black" stroke="currentColor" stroke-width="1.00" stroke-linecap="butt" stroke-linejoin="miter">
	<path stroke='black'  d='M282.2,662.4 L282.2,653.4  '/>	<g transform="translate(282.2,684.3)" stroke="none" fill="black" font-family="Helvetica" font-size="12.00"  text-anchor="middle">
		<text><tspan font-family="Helvetica" > 0.6</tspan></text>
	</g>
</g>
<g fill="none" color="black" stroke="currentColor" stroke-width="1.00" stroke-linecap="butt" stroke-linejoin="miter">
	<path stroke='black'  d='M462.2,662.4 L462.2,653.4  '/>	<g transform="translate(462.2,684.3)" stroke="none" fill="black" font-family="Helvetica" font-size="12.00"  text-anchor="middle">
		<text><tspan font-family="Helvetica" > 0.8</tspan></text>
	</g>
</g>
<g fill="none" color="black" stroke="currentColor" stroke-width="1.00" stroke-linecap="butt" stroke-linejoin="miter">
	<path stroke='black'  d='M642.2,662.4 L642.2,653.4  '/>	<g transform="translate(642.2,684.3)" stroke="none" fill="black" font-family="Helvetica" font-size="12.00"  text-anchor="middle">
		<text><tspan font-family="Helvetica" > 1</tspan></text>
	</g>
</g>
<g fill="none" color="black" stroke="currentColor" stroke-width="1.00" stroke-linecap="butt" stroke-linejoin="miter">
	<path stroke='black'  d='M822.2,662.4 L822.2,653.4  '/>	<g transform="translate(822.2,684.3)" stroke="none" fill="black" font-family="Helvetica" font-size="12.00"  text-anchor="middle">
		<text><tspan font-family="Helvetica" > 1.2</tspan></text>
	</g>
</g>
<g fill="none" color="black" stroke="currentColor" stroke-width="1.00" stroke-linecap="butt" stroke-linejoin="miter">
	<path stroke='black'  d='M1002.2,662.4 L1002.2,653.4  '/>	<g transform="translate(1002.2,684.3)" stroke="none" fill="black" font-family="Helvetica" font-size="12.00"  text-anchor="middle">
		<text><tspan font-family="Helvetica" > 1.4</tspan></text>
	</g>
</g>
<g fill="none" color="black" stroke="currentColor" stroke-width="1.00" stroke-linecap="butt" stroke-linejoin="miter">
</g>
<g fill="none" color="black" stroke="currentColor" stroke-width="1.00" stroke-linecap="butt" stroke-linejoin="miter">
	<path stroke='black'  d='M71.9,54.1 L71.9,662.4 L1013.6,662.4 L1013.6,54.1 L71.9,54.1 Z  '/></g>
<g fill="none" color="black" stroke="currentColor" stroke-width="1.00" stroke-linecap="butt" stroke-linejoin="miter">
	<g transform="translate(17.0,358.3) rotate(270)" stroke="none" fill="black" font-family="Helvetica" font-size="12.00"  text-anchor="middle">
		<text><tspan font-family="Helvetica" >Density (a.u.)</tspan></text>
	</g>
</g>
<g fill="none" color="black" stroke="currentColor" stroke-width="1.00" stroke-linecap="butt" stroke-linejoin="miter">
	<g transform="translate(542.7,711.3)" stroke="none" fill="black" font-family="Helvetica" font-size="12.00"  text-anchor="middle">
		<text><tspan font-family="Helvetica" >Relative change (%)</tspan></text>
	</g>
</g>
<g fill="none" color="black" stroke="currentColor" stroke-width="1.00" stroke-linecap="butt" stroke-linejoin="miter">
	<g transform="translate(542.7,31.0)" stroke="none" fill="black" font-family="Helvetica" font-size="12.00"  text-anchor="middle">
		<text><tspan font-family="Helvetica" >language: go/parse error: c/examples/malloc.c: mean</tspan></text>
	</g>
</g>
	<g id="gnuplot_plot_1" ><title>Bootstrap distribution</title>
<g fill="none" color="white" stroke="black" stroke-width="2.00" stroke-linecap="butt" stroke-linejoin="miter">
</g>
<g fill="none" color="black" stroke="currentColor" stroke-width="2.00" stroke-linecap="butt" stroke-linejoin="miter">
	<g transform="translate(1089.0,67.0)" stroke="none" fill="black" font-family="Helvetica" font-size="12.00"  text-anchor="start">
		<text><tspan font-family="Helvetica" >Bootstrap distribution</tspan></text>
	</g>
</g>
<g fill="none" color="black" stroke="currentColor" stroke-width="2.00" stroke-linecap="butt" stroke-linejoin="miter">
	<path stroke='rgb( 31, 120, 180)'  d='M1038.5,63.1 L1080.7,63.1 M71.9,631.0 L73.8,630.3 L75.7,629.5 L77.6,628.8 L79.4,628.0 L81.3,627.2
		L83.2,626.4 L85.1,625.6 L87.0,624.8 L88.9,623.9 L90.8,623.0 L92.7,622.1 L94.5,621.1 L96.4,620.1
		L98.3,619.1 L100.2,618.0 L102.1,616.9 L104.0,615.8 L105.9,614.6 L107.8,613.3 L109.6,612.1 L111.5,610.7
		L113.4,609.3 L115.3,607.9 L117.2,606.4 L119.1,604.9 L121.0,603.4 L122.9,601.8 L124.7,600.1 L126.6,598.5
		L128.5,596.8 L130.4,595.0 L132.3,593.3 L134.2,591.5 L136.1,589.7 L138.0,587.8 L139.8,586.0 L141.7,584.1
		L143.6,582.2 L145.5,580.3 L147.4,578.4 L149.3,576.4 L151.2,574.5 L153.0,572.5 L154.9,570.5 L156.8,568.5
		L158.7,566.4 L160.6,564.4 L162.5,562.3 L164.4,560.1 L166.3,558.0 L168.1,555.8 L170.0,553.6 L171.9,551.3
		L173.8,549.0 L175.7,546.7 L177.6,544.4 L179.5,541.9 L181.4,539.5 L183.2,537.0 L185.1,534.5 L187.0,531.9
		L188.9,529.3 L190.8,526.6 L192.7,523.9 L194.6,521.1 L196.5,518.3 L198.3,515.4 L200.2,512.5 L202.1,509.6
		L204.0,506.6 L205.9,503.5 L207.8,500.4 L209.7,497.3 L211.6,494.2 L213.4,491.0 L215.3,487.8 L217.2,484.5
		L219.1,481.3 L221.0,478.0 L222.9,474.7 L224.8,471.3 L226.6,468.0 L228.5,464.6 L230.4,461.2 L232.3,457.8
		L234.2,454.4 L236.1,450.9 L238.0,447.4 L239.9,443.9 L241.7,440.4 L243.6,436.9 L245.5,433.3 L247.4,429.7
		L249.3,426.0 L251.2,422.3 L253.1,418.6 L255.0,414.9 L256.8,411.1 L258.7,407.2 L260.6,403.4 L262.5,399.5
		L264.4,395.5 L266.3,391.5 L268.2,387.5 L270.1,383.4 L271.9,379.4 L273.8,375.2 L275.7,371.1 L277.6,366.9
		L279.5,362.7 L281.4,358.6 L283.3,354.4 L285.2,350.2 L287.0,346.0 L288.9,341.9 L290.8,337.8 L292.7,333.7
		L294.6,329.6 L296.5,325.6 L298.4,321.7 L300.2,317.8 L302.1,313.9 L304.0,310.1 L305.9,306.4 L307.8,302.7
		L309.7,299.0 L311.6,295.4 L313.5,291.8 L315.3,288.3 L317.2,284.8 L319.1,281.3 L321.0,277.8 L322.9,274.3
		L324.8,270.8 L326.7,267.3 L328.6,263.8 L330.4,260.3 L332.3,256.7 L334.2,253.1 L336.1,249.5 L338.0,245.9
		L339.9,242.2 L341.8,238.5 L343.7,234.8 L345.5,231.1 L347.4,227.4 L349.3,223.6 L351.2,219.9 L353.1,216.2
		L355.0,212.4 L356.9,208.8 L358.8,205.1 L360.6,201.5 L362.5,197.9 L364.4,194.4 L366.3,191.0 L368.2,187.6
		L370.1,184.4 L372.0,181.2 L373.8,178.1 L375.7,175.1 L377.6,172.1 L379.5,169.3 L381.4,166.6 L383.3,164.0
		L385.2,161.5 L387.1,159.1 L388.9,156.8 L390.8,154.6 L392.7,152.5 L394.6,150.5 L396.5,148.5 L398.4,146.6
		L400.3,144.9 L402.2,143.1 L404.0,141.5 L405.9,139.9 L407.8,138.4 L409.7,136.9 L411.6,135.4 L413.5,134.0
		L415.4,132.7 L417.3,131.3 L419.1,130.0 L421.0,128.7 L422.9,127.4 L424.8,126.2 L426.7,125.0 L428.6,123.8
		L430.5,122.6 L432.4,121.5 L434.2,120.4 L436.1,119.3 L438.0,118.3 L439.9,117.4 L441.8,116.4 L443.7,115.6
		L445.6,114.8 L447.4,114.1 L449.3,113.4 L451.2,112.8 L453.1,112.3 L455.0,111.9 L456.9,111.5 L458.8,111.2
		L460.7,111.0 L462.5,110.8 L464.4,110.7 L466.3,110.7 L468.2,110.7 L470.1,110.8 L472.0,110.9 L473.9,111.1
		L475.8,111.3 L477.6,111.6 L479.5,111.9 L481.4,112.3 L483.3,112.7 L485.2,113.1 L487.1,113.6 L489.0,114.1
		L490.9,114.6 L492.7,115.2 L494.6,115.8 L496.5,116.5 L498.4,117.2 L500.3,118.0 L502.2,118.8 L504.1,119.7
		L506.0,120.6 L507.8,121.5 L509.7,122.5 L511.6,123.6 L513.5,124.7 L515.4,125.9 L517.3,127.2 L519.2,128.4
		L521.0,129.8 L522.9,131.2 L524.8,132.6 L526.7,134.1 L528.6,135.6 L530.5,137.2 L532.4,138.8 L534.3,140.4
		L536.1,142.1 L538.0,143.9 L539.9,145.6 L541.8,147.5 L543.7,149.3 L545.6,151.2 L547.5,153.2 L549.4,155.2
		L551.2,157.2 L553.1,159.3 L555.0,161.4 L556.9,163.6 L558.8,165.7 L560.7,168.0 L562.6,170.2 L564.5,172.4
		L566.3,174.7 L568.2,177.0 L570.1,179.3 L572.0,181.6 L573.9,183.8 L575.8,186.1 L577.7,188.3 L579.5,190.5
		L581.4,192.7 L583.3,194.9 L585.2,197.0 L587.1,199.1 L589.0,201.1 L590.9,203.2 L592.8,205.1 L594.6,207.1
		L596.5,209.0 L598.4,210.9 L600.3,212.8 L602.2,214.6 L604.1,216.5 L606.0,218.3 L607.9,220.2 L609.7,222.1
		L611.6,224.0 L613.5,225.9 L615.4,227.8 L617.3,229.8 L619.2,231.9 L621.1,234.0 L623.0,236.1 L624.8,238.3
		L626.7,240.6 L628.6,243.0 L630.5,245.4 L632.4,247.8 L634.3,250.4 L636.2,252.9 L638.1,255.6 L639.9,258.2
		L641.8,260.9 L643.7,263.7 L645.6,266.4 L647.5,269.1 L649.4,271.9 L651.3,274.6 L653.1,277.3 L655.0,279.9
		L656.9,282.5 L658.8,285.0 L660.7,287.5 L662.6,289.9 L664.5,292.2 L666.4,294.5 L668.2,296.7 L670.1,298.8
		L672.0,300.8 L673.9,302.8 L675.8,304.7 L677.7,306.6 L679.6,308.4 L681.5,310.2 L683.3,311.9 L685.2,313.7
		L687.1,315.5 L689.0,317.3 L690.9,319.1 L692.8,320.9 L694.7,322.8 L696.6,324.8 L698.4,326.9 L700.3,329.0
		L702.2,331.2 L704.1,333.5 L706.0,335.9 L707.9,338.3 L709.8,340.9 L711.7,343.5 L713.5,346.2 L715.4,349.0
		L717.3,351.9 L719.2,354.8 L721.1,357.7 L723.0,360.7 L724.9,363.7 L726.7,366.7 L728.6,369.7 L730.5,372.8
		L732.4,375.8 L734.3,378.8 L736.2,381.7 L738.1,384.7 L740.0,387.6 L741.8,390.5 L743.7,393.3 L745.6,396.1
		L747.5,398.9 L749.4,401.6 L751.3,404.3 L753.2,407.0 L755.1,409.6 L756.9,412.2 L758.8,414.8 L760.7,417.3
		L762.6,419.8 L764.5,422.3 L766.4,424.8 L768.3,427.2 L770.2,429.6 L772.0,432.0 L773.9,434.4 L775.8,436.8
		L777.7,439.1 L779.6,441.4 L781.5,443.7 L783.4,446.0 L785.3,448.3 L787.1,450.5 L789.0,452.8 L790.9,455.0
		L792.8,457.3 L794.7,459.5 L796.6,461.7 L798.5,463.9 L800.3,466.1 L802.2,468.3 L804.1,470.5 L806.0,472.7
		L807.9,474.9 L809.8,477.1 L811.7,479.3 L813.6,481.5 L815.4,483.7 L817.3,485.9 L819.2,488.1 L821.1,490.3
		L823.0,492.4 L824.9,494.6 L826.8,496.8 L828.7,498.9 L830.5,501.1 L832.4,503.2 L834.3,505.3 L836.2,507.4
		L838.1,509.5 L840.0,511.5 L841.9,513.6 L843.8,515.6 L845.6,517.7 L847.5,519.7 L849.4,521.7 L851.3,523.6
		L853.2,525.6 L855.1,527.5 L857.0,529.4 L858.9,531.3 L860.7,533.2 L862.6,535.0 L864.5,536.9 L866.4,538.7
		L868.3,540.5 L870.2,542.2 L872.1,544.0 L873.9,545.7 L875.8,547.4 L877.7,549.0 L879.6,550.6 L881.5,552.2
		L883.4,553.8 L885.3,555.4 L887.2,556.9 L889.0,558.4 L890.9,559.9 L892.8,561.3 L894.7,562.7 L896.6,564.1
		L898.5,565.5 L900.4,566.8 L902.3,568.2 L904.1,569.5 L906.0,570.7 L907.9,572.0 L909.8,573.3 L911.7,574.5
		L913.6,575.8 L915.5,577.0 L917.4,578.2 L919.2,579.5 L921.1,580.7 L923.0,581.9 L924.9,583.1 L926.8,584.4
		L928.7,585.6 L930.6,586.8 L932.5,588.0 L934.3,589.2 L936.2,590.4 L938.1,591.6 L940.0,592.8 L941.9,594.0
		L943.8,595.1 L945.7,596.3 L947.5,597.4 L949.4,598.5 L951.3,599.6 L953.2,600.7 L955.1,601.8 L957.0,602.9
		L958.9,603.9 L960.8,604.9 L962.6,606.0 L964.5,607.0 L966.4,607.9 L968.3,608.9 L970.2,609.9 L972.1,610.8
		L974.0,611.7 L975.9,612.6 L977.7,613.5 L979.6,614.4 L981.5,615.2 L983.4,616.0 L985.3,616.9 L987.2,617.7
		L989.1,618.4 L991.0,619.2 L992.8,620.0 L994.7,620.7 L996.6,621.5 L998.5,622.2 L1000.4,622.9 L1002.3,623.6
		L1004.2,624.4 L1006.1,625.1 L1007.9,625.8 L1009.8,626.5 L1011.7,627.2 L1013.6,627.9  '/></g>
	</g>
	<g id="gnuplot_plot_2" ><title>Confidence interval</title>
<g fill="none" color="white" stroke="rgb( 31, 120, 180)" stroke-width="1.00" stroke-linecap="butt" stroke-linejoin="miter">
</g>
<g fill="none" color="black" stroke="currentColor" stroke-width="1.00" stroke-linecap="butt" stroke-linejoin="miter">
	<g transform="translate(1089.0,85.0)" stroke="none" fill="black" font-family="Helvetica" font-size="12.00"  text-anchor="start">
		<text><tspan font-family="Helvetica" >Confidence interval</tspan></text>
	</g>
</g>
<g fill="none" color="black" stroke="currentColor" stroke-width="1.00" stroke-linecap="butt" stroke-linejoin="miter">
	<g stroke='none' shape-rendering='crispEdges'>
		<polygon fill = 'rgb( 31, 120, 180)' fill-opacity = '0.250000' points = '1038.5,85.6 1080.7,85.6 1080.7,76.6 1038.5,76.6 '/>
		<polygon fill = 'rgb( 31, 120, 180)' fill-opacity = '0.250000' points = '158.7,566.4 158.7,662.4 160.6,662.4 160.6,564.4 '/>
		<polygon fill = 'rgb( 31, 120, 180)' fill-opacity = '0.250000' points = '160.6,564.4 160.6,662.4 162.5,662.4 162.5,562.3 '/>
		<polygon fill = 'rgb( 31, 120, 180)' fill-opacity = '0.250000' points = '162.5,562.3 162.5,662.4 164.4,662.4 164.4,560.1 '/>
		<polygon fill = 'rgb( 31, 120, 180)' fill-opacity = '0.250000' points = '164.4,560.1 164.4,662.4 166.3,662.4 166.3,558.0 '/>
		<polygon fill = 'rgb( 31, 120, 180)' fill-opacity = '0.250000' points = '166.3,558.0 166.3,662.4 168.1,662.4 168.1,555.8 '/>
		<polygon fill = 'rgb( 31, 120, 180)' fill-opacity = '0.250000' points = '168.1,555.8 168.1,662.4 170.0,662.4 170.0,553.6 '/>
		<polygon fill = 'rgb( 31, 120, 180)' fill-opacity = '0.250000' points = '170.0,553.6 170.0,662.4 171.9,662.4 171.9,551.3 '/>
		<polygon fill = 'rgb( 31, 120, 180)' fill-opacity = '0.250000' points = '171.9,551.3 171.9,662.4 173.8,662.4 173.8,549.0 '/>
		<polygon fill = 'rgb( 31, 120, 180)' fill-opacity = '0.250000' points = '173.8,549.0 173.8,662.4 175.7,662.4 175.7,546.7 '/>
		<polygon fill = 'rgb( 31, 120, 180)' fill-opacity = '0.250000' points = '175.7,546.7 175.7,662.4 177.6,662.4 177.6,544.4 '/>
		<polygon fill = 'rgb( 31, 120, 180)' fill-opacity = '0.250000' points = '177.6,544.4 177.6,662.4 179.5,662.4 179.5,541.9 '/>
		<polygon fill = 'rgb( 31, 120, 180)' fill-opacity = '0.250000' points = '179.5,541.9 179.5,662.4 181.4,662.4 181.4,539.5 '/>
		<polygon fill = 'rgb( 31, 120, 180)' fill-opacity = '0.250000' points = '181.4,539.5 181.4,662.4 183.2,662.4 183.2,537.0 '/>
		<polygon fill = 'rgb( 31, 120, 180)' fill-opacity = '0.250000' points = '183.2,537.0 183.2,662.4 185.1,662.4 185.1,534.5 '/>
		<polygon fill = 'rgb( 31, 120, 180)' fill-opacity = '0.250000' points = '185.1,534.5 185.1,662.4 187.0,662.4 187.0,531.9 '/>
		<polygon fill = 'rgb( 31, 120, 180)' fill-opacity = '0.250000' points = '187.0,531.9 187.0,662.4 188.9,662.4 188.9,529.3 '/>
		<polygon fill = 'rgb( 31, 120, 180)' fill-opacity = '0.250000' points = '188.9,529.3 188.9,662.4 190.8,662.4 190.8,526.6 '/>
		<polygon fill = 'rgb( 31, 120, 180)' fill-opacity = '0.250000' points = '190.8,526.6 190.8,662.4 192.7,662.4 192.7,523.9 '/>
		<polygon fill = 'rgb( 31, 120, 180)' fill-opacity = '0.250000' points = '192.7,523.9 192.7,662.4 194.6,662.4 194.6,521.1 '/>
		<polygon fill = 'rgb( 31, 120, 180)' fill-opacity = '0.250000' points = '194.6,521.1 194.6,662.4 196.5,662.4 196.5,518.3 '/>
		<polygon fill = 'rgb( 31, 120, 180)' fill-opacity = '0.250000' points = '196.5,518.3 196.5,662.4 198.3,662.4 198.3,515.4 '/>
		<polygon fill = 'rgb( 31, 120, 180)' fill-opacity = '0.250000' points = '198.3,515.4 198.3,662.4 200.2,662.4 200.2,512.5 '/>
		<polygon fill = 'rgb( 31, 120, 180)' fill-opacity = '0.250000' points = '200.2,512.5 200.2,662.4 202.1,662.4 202.1,509.6 '/>
		<polygon fill = 'rgb( 31, 120, 180)' fill-opacity = '0.250000' points = '202.1,509.6 202.1,662.4 204.0,662.4 204.0,506.6 '/>
		<polygon fill = 'rgb( 31, 120, 180)' fill-opacity = '0.250000' points = '204.0,506.6 204.0,662.4 205.9,662.4 205.9,503.5 '/>
		<polygon fill = 'rgb( 31, 120, 180)' fill-opacity = '0.250000' points = '205.9,503.5 205.9,662.4 207.8,662.4 207.8,500.4 '/>
		<polygon fill = 'rgb( 31, 120, 180)' fill-opacity = '0.250000' points = '207.8,500.4 207.8,662.4 209.7,662.4 209.7,497.3 '/>
		<polygon fill = 'rgb( 31, 120, 180)' fill-opacity = '0.250000' points = '209.7,497.3 209.7,662.4 211.6,662.4 211.6,494.2 '/>
		<polygon fill = 'rgb( 31, 120, 180)' fill-opacity = '0.250000' points = '211.6,494.2 211.6,662.4 213.4,662.4 213.4,491.0 '/>
		<polygon fill = 'rgb( 31, 120, 180)' fill-opacity = '0.250000' points = '213.4,491.0 213.4,662.4 215.3,662.4 215.3,487.8 '/>
		<polygon fill = 'rgb( 31, 120, 180)' fill-opacity = '0.250000' points = '215.3,487.8 215.3,662.4 217.2,662.4 217.2,484.5 '/>
		<polygon fill = 'rgb( 31, 120, 180)' fill-opacity = '0.250000' points = '217.2,484.5 217.2,662.4 219.1,662.4 219.1,481.3 '/>
		<polygon fill = 'rgb( 31, 120, 180)' fill-opacity = '0.250000' points = '219.1,481.3 219.1,662.4 221.0,662.4 221.0,478.0 '/>
		<polygon fill = 'rgb( 31, 120, 180)' fill-opacity = '0.250000' points = '221.0,478.0 221.0,662.4 222.9,662.4 222.9,474.7 '/>
		<polygon fill = 'rgb( 31, 120, 180)' fill-opacity = '0.250000' points = '222.9,474.7 222.9,662.4 224.8,662.4 224.8,471.3 '/>
		<polygon fill = 'rgb( 31, 120, 180)' fill-opacity = '0.250000' points = '224.8,471.3 224.8,662.4 226.6,662.4 226.6,468.0 '/>
		<polygon fill = 'rgb( 31, 120, 180)' fill-opacity = '0.250000' points = '226.6,468.0 226.6,662.4 228.5,662.4 228.5,464.6 '/>
		<polygon fill = 'rgb( 31, 120, 180)' fill-opacity = '0.250000' points = '228.5,464.6 228.5,662.4 230.4,662.4 230.4,461.2 '/>
		<polygon fill = 'rgb( 31, 120, 180)' fill-opacity = '0.250000' points = '230.4,461.2 230.4,662.4 232.3,662.4 232.3,457.8 '/>
		<polygon fill = 'rgb( 31, 120, 180)' fill-opacity = '0.250000' points = '232.3,457.8 232.3,662.4 234.2,662.4 234.2,454.4 '/>
		<polygon fill = 'rgb( 31, 120, 180)' fill-opacity = '0.250000' points = '234.2,454.4 234.2,662.4 236.1,662.4 236.1,450.9 '/>
		<polygon fill = 'rgb( 31, 120, 180)' fill-opacity = '0.250000' points = '236.1,450.9 236.1,662.4 238.0,662.4 238.0,447.4 '/>
		<polygon fill = 'rgb( 31, 120, 180)' fill-opacity = '0.250000' points = '238.0,447.4 238.0,662.4 239.9,662.4 239.9,443.9 '/>
		<polygon fill = 'rgb( 31, 120, 180)' fill-opacity = '0.250000' points = '239.9,443.9 239.9,662.4 241.7,662.4 241.7,440.4 '/>
		<polygon fill = 'rgb( 31, 120, 180)' fill-opacity = '0.250000' points = '241.7,440.4 241.7,662.4 243.6,662.4 243.6,436.9 '/>
		<polygon fill = 'rgb( 31, 120, 180)' fill-opacity = '0.250000' points = '243.6,436.9 243.6,662.4 245.5,662.4 245.5,433.3 '/>
		<polygon fill = 'rgb( 31, 120, 180)' fill-opacity = '0.250000' points = '245.5,433.3 245.5,662.4 247.4,662.4 247.4,429.7 '/>
		<polygon fill = 'rgb( 31, 120, 180)' fill-opacity = '0.250000' points = '247.4,429.7 247.4,662.4 249.3,662.4 249.3,426.0 '/>
		<polygon fill = 'rgb( 31, 120, 180)' fill-opacity = '0.250000' points = '249.3,426.0 249.3,662.4 251.2,662.4 251.2,422.3 '/>
		<polygon fill = 'rgb( 31, 120, 180)' fill-opacity = '0.250000' points = '251.2,422.3 251.2,662.4 253.1,662.4 253.1,418.6 '/>
		<polygon fill = 'rgb( 31, 120, 180)' fill-opacity = '0.250000' points = '253.1,418.6 253.1,662.4 255.0,662.4 255.0,414.9 '/>
		<polygon fill = 'rgb( 31, 120, 180)' fill-opacity = '0.250000' points = '255.0,414.9 255.0,662.4 256.8,662.4 256.8,411.1 '/>
		<polygon fill = 'rgb( 31, 120, 180)' fill-opacity = '0.250000' points = '256.8,411.1 256.8,662.4 258.7,662.4 258.7,407.2 '/>
		<polygon fill = 'rgb( 31, 120, 180)' fill-opacity = '0.250000' points = '258.7,407.2 258.7,662.4 260.6,662.4 260.6,403.4 '/>
		<polygon fill = 'rgb( 31, 120, 180)' fill-opacity = '0.250000' points = '260.6,403.4 260.6,662.4 262.5,662.4 262.5,399.5 '/>
		<polygon fill = 'rgb( 31, 120, 180)' fill-opacity = '0.250000' points = '262.5,399.5 262.5,662.4 264.4,662.4 264.4,395.5 '/>
		<polygon fill = 'rgb( 31, 120, 180)' fill-opacity = '0.250000' points = '264.4,395.5 264.4,662.4 266.3,662.4 266.3,391.5 '/>
		<polygon fill = 'rgb( 31, 120, 180)' fill-opacity = '0.250000' points = '266.3,391.5 266.3,662.4 268.2,662.4 268.2,387.5 '/>
		<polygon fill = 'rgb( 31, 120, 180)' fill-opacity = '0.250000' points = '268.2,387.5 268.2,662.4 270.1,662.4 270.1,383.4 '/>
		<polygon fill = 'rgb( 31, 120, 180)' fill-opacity = '0.250000' points = '270.1,383.4 270.1,662.4 271.9,662.4 271.9,379.4 '/>
		<polygon fill = 'rgb( 31, 120, 180)' fill-opacity = '0.250000' points = '271.9,379.4 271.9,662.4 273.8,662.4 273.8,375.2 '/>
		<polygon fill = 'rgb( 31, 120, 180)' fill-opacity = '0.250000' points = '273.8,375.2 273.8,662.4 275.7,662.4 275.7,371.1 '/>
		<polygon fill = 'rgb( 31, 120, 180)' fill-opacity = '0.250000' points = '275.7,371.1 275.7,662.4 277.6,662.4 277.6,366.9 '/>
		<polygon fill = 'rgb( 31, 120, 180)' fill-opacity = '0.250000' points = '277.6,366.9 277.6,662.4 279.5,662.4 279.5,362.7 '/>
		<polygon fill = 'rgb( 31, 120, 180)' fill-opacity = '0.250000' points = '279.5,362.7 279.5,662.4 281.4,662.4 281.4,358.6 '/>
		<polygon fill = 'rgb( 31, 120, 180)' fill-opacity = '0.250000' points = '281.4,358.6 281.4,662.4 283.3,662.4 283.3,354.4 '/>
		<polygon fill = 'rgb( 31, 120, 180)' fill-opacity = '0.250000' points = '283.3,354.4 283.3,662.4 285.2,662.4 285.2,350.2 '/>
		<polygon fill = 'rgb( 31, 120, 180)' fill-opacity = '0.250000' points = '285.2,350.2 285.2,662.4 287.0,662.4 287.0,346.0 '/>
		<polygon fill = 'rgb( 31, 120, 180)' fill-opacity = '0.250000' points = '287.0,346.0 287.0,662.4 288.9,662.4 288.9,341.9 '/>
		<polygon fill = 'rgb( 31, 120, 180)' fill-opacity = '0.250000' points = '288.9,341.9 288.9,662.4 290.8,662.4 290.8,337.8 '/>
		<polygon fill = 'rgb( 31, 120, 180)' fill-opacity = '0.250000' points = '290.8,337.8 290.8,662.4 292.7,662.4 292.7,333.7 '/>
		<polygon fill = 'rgb( 31, 120, 180)' fill-opacity = '0.250000' points = '292.7,333.7 292.7,662.4 294.6,662.4 294.6,329.6 '/>
		<polygon fill = 'rgb( 31, 120, 180)' fill-opacity = '0.250000' points = '294.6,329.6 294.6,662.4 296.5,662.4 296.5,325.6 '/>
		<polygon fill = 'rgb( 31, 120, 180)' fill-opacity = '0.250000' points = '296.5,325.6 296.5,662.4 298.4,662.4 298.4,321.7 '/>
		<polygon fill = 'rgb( 31, 120, 180)' fill-opacity = '0.250000' points = '298.4,321.7 298.4,662.4 300.2,662.4 300.2,317.8 '/>
		<polygon fill = 'rgb( 31, 120, 180)' fill-opacity = '0.250000' points = '300.2,317.8 300.2,662.4 302.1,662.4 302.1,313.9 '/>
		<polygon fill = 'rgb( 31, 120, 180)' fill-opacity = '0.250000' points = '302.1,313.9 302.1,662.4 304.0,662.4 304.0,310.1 '/>
		<polygon fill = 'rgb( 31, 120, 180)' fill-opacity = '0.250000' points = '304.0,310.1 304.0,662.4 305.9,662.4 305.9,306.4 '/>
		<polygon fill = 'rgb( 31, 120, 180)' fill-opacity = '0.250000' points = '305.9,306.4 305.9,662.4 307.8,662.4 307.8,302.7 '/>
		<polygon fill = 'rgb( 31, 120, 180)' fill-opacity = '0.250000' points = '307.8,302.7 307.8,662.4 309.7,662.4 309.7,299.0 '/>
		<polygon fill = 'rgb( 31, 120, 180)' fill-opacity = '0.250000' points = '309.7,299.0 309.7,662.4 311.6,662.4 311.6,295.4 '/>
		<polygon fill = 'rgb( 31, 120, 180)' fill-opacity = '0.250000' points = '311.6,295.4 311.6,662.4 313.5,662.4 313.5,291.8 '/>
		<polygon fill = 'rgb( 31, 120, 180)' fill-opacity = '0.250000' points = '313.5,291.8 313.5,662.4 315.3,662.4 315.3,288.3 '/>
		<polygon fill = 'rgb( 31, 120, 180)' fill-opacity = '0.250000' points = '315.3,288.3 315.3,662.4 317.2,662.4 317.2,284.8 '/>
		<polygon fill = 'rgb( 31, 120, 180)' fill-opacity = '0.250000' points = '317.2,284.8 317.2,662.4 319.1,662.4 319.1,281.3 '/>
		<polygon fill = 'rgb( 31, 120, 180)' fill-opacity = '0.250000' points = '319.1,281.3 319.1,662.4 321.0,662.4 321.0,277.8 '/>
		<polygon fill = 'rgb( 31, 120, 180)' fill-opacity = '0.250000' points = '321.0,277.8 321.0,662.4 322.9,662.4 322.9,274.3 '/>
		<polygon fill = 'rgb( 31, 120, 180)' fill-opacity = '0.250000' points = '322.9,274.3 322.9,662.4 324.8,662.4 324.8,270.8 '/>
		<polygon fill = 'rgb( 31, 120, 180)' fill-opacity = '0.250000' points = '324.8,270.8 324.8,662.4 326.7,662.4 326.7,267.3 '/>
		<polygon fill = 'rgb( 31, 120, 180)' fill-opacity = '0.250000' points = '326.7,267.3 326.7,662.4 328.6,662.4 328.6,263.8 '/>
		<polygon fill = 'rgb( 31, 120, 180)' fill-opacity = '0.250000' points = '328.6,263.8 328.6,662.4 330.4,662.4 330.4,260.3 '/>
		<polygon fill = 'rgb( 31, 120, 180)' fill-opacity = '0.250000' points = '330.4,260.3 330.4,662.4 332.3,662.4 332.3,256.7 '/>
		<polygon fill = 'rgb( 31, 120, 180)' fill-opacity = '0.250000' points = '332.3,256.7 332.3,662.4 334.2,662.4 334.2,253.1 '/>
		<polygon fill = 'rgb( 31, 120, 180)' fill-opacity = '0.250000' points = '334.2,253.1 334.2,662.4 336.1,662.4 336.1,249.5 '/>
		<polygon fill = 'rgb( 31, 120, 180)' fill-opacity = '0.250000' points = '336.1,249.5 336.1,662.4 338.0,662.4 338.0,245.9 '/>
		<polygon fill = 'rgb( 31, 120, 180)' fill-opacity = '0.250000' points = '338.0,245.9 338.0,662.4 339.9,662.4 339.9,242.2 '/>
		<polygon fill = 'rgb( 31, 120, 180)' fill-opacity = '0.250000' points = '339.9,242.2 339.9,662.4 341.8,662.4 341.8,238.5 '/>
		<polygon fill = 'rgb( 31, 120, 180)' fill-opacity = '0.250000' points = '341.8,238.5 341.8,662.4 343.7,662.4 343.7,234.8 '/>
		<polygon fill = 'rgb( 31, 120, 180)' fill-opacity = '0.250000' points = '343.7,234.8 343.7,662.4 345.5,662.4 345.5,231.1 '/>
		<polygon fill = 'rgb( 31, 120, 180)' fill-opacity = '0.250000' points = '345.5,231.1 345.5,662.4 347.4,662.4 347.4,227.4 '/>
		<polygon fill = 'rgb( 31, 120, 180)' fill-opacity = '0.250000' points = '347.4,227.4 347.4,662.4 349.3,662.4 349.3,223.6 '/>
		<polygon fill = 'rgb( 31, 120, 180)' fill-opacity = '0.250000' points = '349.3,223.6 349.3,662.4 351.2,662.4 351.2,219.9 '/>
		<polygon fill = 'rgb( 31, 120, 180)' fill-opacity = '0.250000' points = '351.2,219.9 351.2,662.4 353.1,662.4 353.1,216.2 '/>
		<polygon fill = 'rgb( 31, 120, 180)' fill-opacity = '0.250000' points = '353.1,216.2 353.1,662.4 355.0,662.4 355.0,212.4 '/>
		<polygon fill = 'rgb( 31, 120, 180)' fill-opacity = '0.250000' points = '355.0,212.4 355.0,662.4 356.9,662.4 356.9,208.8 '/>
		<polygon fill = 'rgb( 31, 120, 180)' fill-opacity = '0.250000' points = '356.9,208.8 356.9,662.4 358.8,662.4 358.8,205.1 '/>
		<polygon fill = 'rgb( 31, 120, 180)' fill-opacity = '0.250000' points = '358.8,205.1 358.8,662.4 360.6,662.4 360.6,201.5 '/>
		<polygon fill = 'rgb( 31, 120, 180)' fill-opacity = '0.250000' points = '360.6,201.5 360.6,662.4 362.5,662.4 362.5,197.9 '/>
		<polygon fill = 'rgb( 31, 120, 180)' fill-opacity = '0.250000' points = '362.5,197.9 362.5,662.4 364.4,662.4 364.4,194.4 '/>
		<polygon fill = 'rgb( 31, 120, 180)' fill-opacity = '0.250000' points = '364.4,194.4 364.4,662.4 366.3,662.4 366.3,191.0 '/>
		<polygon fill = 'rgb( 31, 120, 180)' fill-opacity = '0.250000' points = '366.3,191.0 366.3,662.4 368.2,662.4 368.2,187.6 '/>
		<polygon fill = 'rgb( 31, 120, 180)' fill-opacity = '0.250000' points = '368.2,187.6 368.2,662.4 370.1,662.4 370.1,184.4 '/>
		<polygon fill = 'rgb( 31, 120, 180)' fill-opacity = '0.250000' points = '370.1,184.4 370.1,662.4 372.0,662.4 372.0,181.2 '/>
		<polygon fill = 'rgb( 31, 120, 180)' fill-opacity = '0.250000' points = '372.0,181.2 372.0,662.4 373.8,662.4 373.8,178.1 '/>
		<polygon fill = 'rgb( 31, 120, 180)' fill-opacity = '0.250000' points = '373.8,178.1 373.8,662.4 375.7,662.4 375.7,175.1 '/>
		<polygon fill = 'rgb( 31, 120, 180)' fill-opacity = '0.250000' points = '375.7,175.1 375.7,662.4 377.6,662.4 377.6,172.1 '/>
		<polygon fill = 'rgb( 31, 120, 180)' fill-opacity = '0.250000' points = '377.6,172.1 377.6,662.4 379.5,662.4 379.5,169.3 '/>
		<polygon fill = 'rgb( 31, 120, 180)' fill-opacity = '0.250000' points = '379.5,169.3 379.5,662.4 381.4,662.4 381.4,166.6 '/>
		<polygon fill = 'rgb( 31, 120, 180)' fill-opacity = '0.250000' points = '381.4,166.6 381.4,662.4 383.3,662.4 383.3,164.0 '/>
		<polygon fill = 'rgb( 31, 120, 180)' fill-opacity = '0.250000' points = '383.3,164.0 383.3,662.4 385.2,662.4 385.2,161.5 '/>
		<polygon fill = 'rgb( 31, 120, 180)' fill-opacity = '0.250000' points = '385.2,161.5 385.2,662.4 387.1,662.4 387.1,159.1 '/>
		<polygon fill = 'rgb( 31, 120, 180)' fill-opacity = '0.250000' points = '387.1,159.1 387.1,662.4 388.9,662.4 388.9,156.8 '/>
		<polygon fill = 'rgb( 31, 120, 180)' fill-opacity = '0.250000' points = '388.9,156.8 388.9,662.4 390.8,662.4 390.8,154.6 '/>
		<polygon fill = 'rgb( 31, 120, 180)' fill-opacity = '0.250000' points = '390.8,154.6 390.8,662.4 392.7,662.4 392.7,152.5 '/>
		<polygon fill = 'rgb( 31, 120, 180)' fill-opacity = '0.250000' points = '392.7,152.5 392.7,662.4 394.6,662.4 394.6,150.5 '/>
		<polygon fill = 'rgb( 31, 120, 180)' fill-opacity = '0.250000' points = '394.6,150.5 394.6,662.4 396.5,662.4 396.5,148.5 '/>
		<polygon fill = 'rgb( 31, 120, 180)' fill-opacity = '0.250000' points = '396.5,148.5 396.5,662.4 398.4,662.4 398.4,146.6 '/>
		<polygon fill = 'rgb( 31, 120, 180)' fill-opacity = '0.250000' points = '398.4,146.6 398.4,662.4 400.3,662.4 400.3,144.9 '/>
		<polygon fill = 'rgb( 31, 120, 180)' fill-opacity = '0.250000' points = '400.3,144.9 400.3,662.4 402.2,662.4 402.2,143.1 '/>
		<polygon fill = 'rgb( 31, 120, 180)' fill-opacity = '0.250000' points = '402.2,143.1 402.2,662.4 404.0,662.4 404.0,141.5 '/>
		<polygon fill = 'rgb( 31, 120, 180)' fill-opacity = '0.250000' points = '404.0,141.5 404.0,662.4 405.9,662.4 405.9,139.9 '/>
		<polygon fill = 'rgb( 31, 120, 180)' fill-opacity = '0.250000' points = '405.9,139.9 405.9,662.4 407.8,662.4 407.8,138.4 '/>
		<polygon fill = 'rgb( 31, 120, 180)' fill-opacity = '0.250000' points = '407.8,138.4 407.8,662.4 409.7,662.4 409.7,136.9 '/>
		<polygon fill = 'rgb( 31, 120, 180)' fill-opacity = '0.250000' points = '409.7,136.9 409.7,662.4 411.6,662.4 411.6,135.4 '/>
		<polygon fill = 'rgb( 31, 120, 180)' fill-opacity = '0.250000' points = '411.6,135.4 411.6,662.4 413.5,662.4 413.5,134.0 '/>
		<polygon fill = 'rgb( 31, 120, 180)' fill-opacity = '0.250000' points = '413.5,134.0 413.5,662.4 415.4,662.4 415.4,132.7 '/>
		<polygon fill = 'rgb( 31, 120, 180)' fill-opacity = '0.250000' points = '415.4,132.7 415.4,662.4 417.3,662.4 417.3,131.3 '/>
		<polygon fill = 'rgb( 31, 120, 180)' fill-opacity = '0.250000' points = '417.3,131.3 417.3,662.4 419.1,662.4 419.1,130.0 '/>
		<polygon fill = 'rgb( 31, 120, 180)' fill-opacity = '0.250000' points = '419.1,130.0 419.1,662.4 421.0,662.4 421.0,128.7 '/>
		<polygon fill = 'rgb( 31, 120, 180)' fill-opacity = '0.250000' points = '421.0,128.7 421.0,662.4 422.9,662.4 422.9,127.4 '/>
		<polygon fill = 'rgb( 31, 120, 180)' fill-opacity = '0.250000' points = '422.9,127.4 422.9,662.4 424.8,662.4 424.8,126.2 '/>
		<polygon fill = 'rgb( 31, 120, 180)' fill-opacity = '0.250000' points = '424.8,126.2 424.8,662.4 426.7,662.4 426.7,125.0 '/>
		<polygon fill = 'rgb( 31, 120, 180)' fill-opacity = '0.250000' points = '426.7,125.0 426.7,662.4 428.6,662.4 428.6,123.8 '/>
		<polygon fill = 'rgb( 31, 120, 180)' fill-opacity = '0.250000' points = '428.6,123.8 428.6,662.4 430.5,662.4 430.5,122.6 '/>
		<polygon fill = 'rgb( 31, 120, 180)' fill-opacity = '0.250000' points = '430.5,122.6 430.5,662.4 432.4,662.4 432.4,121.5 '/>
		<polygon fill = 'rgb( 31, 120, 180)' fill-opacity = '0.250000' points = '432.4,121.5 432.4,662.4 434.2,662.4 434.2,120.4 '/>
		<polygon fill = 'rgb( 31, 120, 180)' fill-opacity = '0.250000' points = '434.2,120.4 434.2,662.4 436.1,662.4 436.1,119.3 '/>
		<polygon fill = 'rgb( 31, 120, 180)' fill-opacity = '0.250000' points = '436.1,119.3 436.1,662.4 438.0,662.4 438.0,118.3 '/>
		<polygon fill = 'rgb( 31, 120, 180)' fill-opacity = '0.250000' points = '438.0,118.3 438.0,662.4 439.9,662.4 439.9,117.4 '/>
		<polygon fill = 'rgb( 31, 120, 180)' fill-opacity = '0.250000' points = '439.9,117.4 439.9,662.4 441.8,662.4 441.8,116.4 '/>
		<polygon fill = 'rgb( 31, 120, 180)' fill-opacity = '0.250000' points = '441.8,116.4 441.8,662.4 443.7,662.4 443.7,115.6 '/>
		<polygon fill = 'rgb( 31, 120, 180)' fill-opacity = '0.250000' points = '443.7,115.6 443.7,662.4 445.6,662.4 445.6,114.8 '/>
		<polygon fill = 'rgb( 31, 120, 180)' fill-opacity = '0.250000' points = '445.6,114.8 445.6,662.4 447.4,662.4 447.4,114.1 '/>
		<polygon fill = 'rgb( 31, 120, 180)' fill-opacity = '0.250000' points = '447.4,114.1 447.4,662.4 449.3,662.4 449.3,113.4 '/>
		<polygon fill = 'rgb( 31, 120, 180)' fill-opacity = '0.250000' points = '449.3,113.4 449.3,662.4 451.2,662.4 451.2,112.8 '/>
		<polygon fill = 'rgb( 31, 120, 180)' fill-opacity = '0.250000' points = '451.2,112.8 451.2,662.4 453.1,662.4 453.1,112.3 '/>
		<polygon fill = 'rgb( 31, 120, 180)' fill-opacity = '0.250000' points = '453.1,112.3 453.1,662.4 455.0,662.4 455.0,111.9 '/>
		<polygon fill = 'rgb( 31, 120, 180)' fill-opacity = '0.250000' points = '455.0,111.9 455.0,662.4 456.9,662.4 456.9,111.5 '/>
		<polygon fill = 'rgb( 31, 120, 180)' fill-opacity = '0.250000' points = '456.9,111.5 456.9,662.4 458.8,662.4 458.8,111.2 '/>
		<polygon fill = 'rgb( 31, 120, 180)' fill-opacity = '0.250000' points = '458.8,111.2 458.8,662.4 460.7,662.4 460.7,111.0 '/>
		<polygon fill = 'rgb( 31, 120, 180)' fill-opacity = '0.250000' points = '460.7,111.0 460.7,662.4 462.5,662.4 462.5,110.8 '/>
		<polygon fill = 'rgb( 31, 120, 180)' fill-opacity = '0.250000' points = '462.5,110.8 462.5,662.4 464.4,662.4 464.4,110.7 '/>
		<polygon fill = 'rgb( 31, 120, 180)' fill-opacity = '0.250000' points = '464.4,110.7 464.4,662.4 466.3,662.4 466.3,110.7 '/>
		<polygon fill = 'rgb( 31, 120, 180)' fill-opacity = '0.250000' points = '466.3,110.7 466.3,662.4 468.2,662.4 468.2,110.7 '/>
		<polygon fill = 'rgb( 31, 120, 180)' fill-opacity = '0.250000' points = '468.2,110.7 468.2,662.4 470.1,662.4 470.1,110.8 '/>
		<polygon fill = 'rgb( 31, 120, 180)' fill-opacity = '0.250000' points = '470.1,110.8 470.1,662.4 472.0,662.4 472.0,110.9 '/>
		<polygon fill = 'rgb( 31, 120, 180)' fill-opacity = '0.250000' points = '472.0,110.9 472.0,662.4 473.9,662.4 473.9,111.1 '/>
		<polygon fill = 'rgb( 31, 120, 180)' fill-opacity = '0.250000' points = '473.9,111.1 473.9,662.4 475.8,662.4 475.8,111.3 '/>
		<polygon fill = 'rgb( 31, 120, 180)' fill-opacity = '0.250000' points = '475.8,111.3 475.8,662.4 477.6,662.4 477.6,111.6 '/>
		<polygon fill = 'rgb( 31, 120, 180)' fill-opacity = '0.250000' points = '477.6,111.6 477.6,662.4 479.5,662.4 479.5,111.9 '/>
		<polygon fill = 'rgb( 31, 120, 180)' fill-opacity = '0.250000' points = '479.5,111.9 479.5,662.4 481.4,662.4 481.4,112.3 '/>
		<polygon fill = 'rgb( 31, 120, 180)' fill-opacity = '0.250000' points = '481.4,112.3 481.4,662.4 483.3,662.4 483.3,112.7 '/>
		<polygon fill = 'rgb( 31, 120, 180)' fill-opacity = '0.250000' points = '483.3,112.7 483.3,662.4 485.2,662.4 485.2,113.1 '/>
		<polygon fill = 'rgb( 31, 120, 180)' fill-opacity = '0.250000' points = '485.2,113.1 485.2,662.4 487.1,662.4 487.1,113.6 '/>
		<polygon fill = 'rgb( 31, 120, 180)' fill-opacity = '0.250000' points = '487.1,113.6 487.1,662.4 489.0,662.4 489.0,114.1 '/>
		<polygon fill = 'rgb( 31, 120, 180)' fill-opacity = '0.250000' points = '489.0,114.1 489.0,662.4 490.9,662.4 490.9,114.6 '/>
		<polygon fill = 'rgb( 31, 120, 180)' fill-opacity = '0.250000' points = '490.9,114.6 490.9,662.4 492.7,662.4 492.7,115.2 '/>
		<polygon fill = 'rgb( 31, 120, 180)' fill-opacity = '0.250000' points = '492.7,115.2 492.7,662.4 494.6,662.4 494.6,115.8 '/>
		<polygon fill = 'rgb( 31, 120, 180)' fill-opacity = '0.250000' points = '494.6,115.8 494.6,662.4 496.5,662.4 496.5,116.5 '/>
		<polygon fill = 'rgb( 31, 120, 180)' fill-opacity = '0.250000' points = '496.5,116.5 496.5,662.4 498.4,662.4 498.4,117.2 '/>
		<polygon fill = 'rgb( 31, 120, 180)' fill-opacity = '0.250000' points = '498.4,117.2 498.4,662.4 500.3,662.4 500.3,118.0 '/>
		<polygon fill = 'rgb( 31, 120, 180)' fill-opacity = '0.250000' points = '500.3,118.0 500.3,662.4 502.2,662.4 502.2,118.8 '/>
		<polygon fill = 'rgb( 31, 120, 180)' fill-opacity = '0.250000' points = '502.2,118.8 502.2,662.4 504.1,662.4 504.1,119.7 '/>
		<polygon fill = 'rgb( 31, 120, 180)' fill-opacity = '0.250000' points = '504.1,119.7 504.1,662.4 506.0,662.4 506.0,120.6 '/>
		<polygon fill = 'rgb( 31, 120, 180)' fill-opacity = '0.250000' points = '506.0,120.6 506.0,662.4 507.8,662.4 507.8,121.5 '/>
		<polygon fill = 'rgb( 31, 120, 180)' fill-opacity = '0.250000' points = '507.8,121.5 507.8,662.4 509.7,662.4 509.7,122.5 '/>
		<polygon fill = 'rgb( 31, 120, 180)' fill-opacity = '0.250000' points = '509.7,122.5 509.7,662.4 511.6,662.4 511.6,123.6 '/>
		<polygon fill = 'rgb( 31, 120, 180)' fill-opacity = '0.250000' points = '511.6,123.6 511.6,662.4 513.5,662.4 513.5,124.7 '/>
		<polygon fill = 'rgb( 31, 120, 180)' fill-opacity = '0.250000' points = '513.5,124.7 513.5,662.4 515.4,662.4 515.4,125.9 '/>
		<polygon fill = 'rgb( 31, 120, 180)' fill-opacity = '0.250000' points = '515.4,125.9 515.4,662.4 517.3,662.4 517.3,127.2 '/>
		<polygon fill = 'rgb( 31, 120, 180)' fill-opacity = '0.250000' points = '517.3,127.2 517.3,662.4 519.2,662.4 519.2,128.4 '/>
		<polygon fill = 'rgb( 31, 120, 180)' fill-opacity = '0.250000' points = '519.2,128.4 519.2,662.4 521.0,662.4 521.0,129.8 '/>
		<polygon fill = 'rgb( 31, 120, 180)' fill-opacity = '0.250000' points = '521.0,129.8 521.0,662.4 522.9,662.4 522.9,131.2 '/>
		<polygon fill = 'rgb( 31, 120, 180)' fill-opacity = '0.250000' points = '522.9,131.2 522.9,662.4 524.8,662.4 524.8,132.6 '/>
		<polygon fill = 'rgb( 31, 120, 180)' fill-opacity = '0.250000' points = '524.8,132.6 524.8,662.4 526.7,662.4 526.7,134.1 '/>
		<polygon fill = 'rgb( 31, 120, 180)' fill-opacity = '0.250000' points = '526.7,134.1 526.7,662.4 528.6,662.4 528.6,135.6 '/>
		<polygon fill = 'rgb( 31, 120, 180)' fill-opacity = '0.250000' points = '528.6,135.6 528.6,662.4 530.5,662.4 530.5,137.2 '/>
		<polygon fill = 'rgb( 31, 120, 180)' fill-opacity = '0.250000' points = '530.5,137.2 530.5,662.4 532.4,662.4 532.4,138.8 '/>
		<polygon fill = 'rgb( 31, 120, 180)' fill-opacity = '0.250000' points = '532.4,138.8 532.4,662.4 534.3,662.4 534.3,140.4 '/>
		<polygon fill = 'rgb( 31, 120, 180)' fill-opacity = '0.250000' points = '534.3,140.4 534.3,662.4 536.1,662.4 536.1,142.1 '/>
		<polygon fill = 'rgb( 31, 120, 180)' fill-opacity = '0.250000' points = '536.1,142.1 536.1,662.4 538.0,662.4 538.0,143.9 '/>
		<polygon fill = 'rgb( 31, 120, 180)' fill-opacity = '0.250000' points = '538.0,143.9 538.0,662.4 539.9,662.4 539.9,145.6 '/>
		<polygon fill = 'rgb( 31, 120, 180)' fill-opacity = '0.250000' points = '539.9,145.6 539.9,662.4 541.8,662.4 541.8,147.5 '/>
		<polygon fill = 'rgb( 31, 120, 180)' fill-opacity = '0.250000' points = '541.8,147.5 541.8,662.4 543.7,662.4 543.7,149.3 '/>
		<polygon fill = 'rgb( 31, 120, 180)' fill-opacity = '0.250000' points = '543.7,149.3 543.7,662.4 545.6,662.4 545.6,151.2 '/>
		<polygon fill = 'rgb( 31, 120, 180)' fill-opacity = '0.250000' points = '545.6,151.2 545.6,662.4 547.5,662.4 547.5,153.2 '/>
		<polygon fill = 'rgb( 31, 120, 180)' fill-opacity = '0.250000' points = '547.5,153.2 547.5,662.4 549.4,662.4 549.4,155.2 '/>
		<polygon fill = 'rgb( 31, 120, 180)' fill-opacity = '0.250000' points = '549.4,155.2 549.4,662.4 551.2,662.4 551.2,157.2 '/>
		<polygon fill = 'rgb( 31, 120, 180)' fill-opacity = '0.250000' points = '551.2,157.2 551.2,662.4 553.1,662.4 553.1,159.3 '/>
		<polygon fill = 'rgb( 31, 120, 180)' fill-opacity = '0.250000' points = '553.1,159.3 553.1,662.4 555.0,662.4 555.0,161.4 '/>
		<polygon fill = 'rgb( 31, 120, 180)' fill-opacity = '0.250000' points = '555.0,161.4 555.0,662.4 556.9,662.4 556.9,163.6 '/>
		<polygon fill = 'rgb( 31, 120, 180)' fill-opacity = '0.250000' points = '556.9,163.6 556.9,662.4 558.8,662.4 558.8,165.7 '/>
		<polygon fill = 'rgb( 31, 120, 180)' fill-opacity = '0.250000' points = '558.8,165.7 558.8,662.4 560.7,662.4 560.7,168.0 '/>
		<polygon fill = 'rgb( 31, 120, 180)' fill-opacity = '0.250000' points = '560.7,168.0 560.7,662.4 562.6,662.4 562.6,170.2 '/>
		<polygon fill = 'rgb( 31, 120, 180)' fill-opacity = '0.250000' points = '562.6,170.2 562.6,662.4 564.5,662.4 564.5,172.4 '/>
		<polygon fill = 'rgb( 31, 120, 180)' fill-opacity = '0.250000' points = '564.5,172.4 564.5,662.4 566.3,662.4 566.3,174.7 '/>
		<polygon fill = 'rgb( 31, 120, 180)' fill-opacity = '0.250000' points = '566.3,174.7 566.3,662.4 568.2,662.4 568.2,177.0 '/>
		<polygon fill = 'rgb( 31, 120, 180)' fill-opacity = '0.250000' points = '568.2,177.0 568.2,662.4 570.1,662.4 570.1,179.3 '/>
		<polygon fill = 'rgb( 31, 120, 180)' fill-opacity = '0.250000' points = '570.1,179.3 570.1,662.4 572.0,662.4 572.0,181.6 '/>
		<polygon fill = 'rgb( 31, 120, 180)' fill-opacity = '0.250000' points = '572.0,181.6 572.0,662.4 573.9,662.4 573.9,183.8 '/>
		<polygon fill = 'rgb( 31, 120, 180)' fill-opacity = '0.250000' points = '573.9,183.8 573.9,662.4 575.8,662.4 575.8,186.1 '/>
		<polygon fill = 'rgb( 31, 120, 180)' fill-opacity = '0.250000' points = '575.8,186.1 575.8,662.4 577.7,662.4 577.7,188.3 '/>
		<polygon fill = 'rgb( 31, 120, 180)' fill-opacity = '0.250000' points = '577.7,188.3 577.7,662.4 579.5,662.4 579.5,190.5 '/>
		<polygon fill = 'rgb( 31, 120, 180)' fill-opacity = '0.250000' points = '579.5,190.5 579.5,662.4 581.4,662.4 581.4,192.7 '/>
		<polygon fill = 'rgb( 31, 120, 180)' fill-opacity = '0.250000' points = '581.4,192.7 581.4,662.4 583.3,662.4 583.3,194.9 '/>
		<polygon fill = 'rgb( 31, 120, 180)' fill-opacity = '0.250000' points = '583.3,194.9 583.3,662.4 585.2,662.4 585.2,197.0 '/>
		<polygon fill = 'rgb( 31, 120, 180)' fill-opacity = '0.250000' points = '585.2,197.0 585.2,662.4 587.1,662.4 587.1,199.1 '/>
		<polygon fill = 'rgb( 31, 120, 180)' fill-opacity = '0.250000' points = '587.1,199.1 587.1,662.4 589.0,662.4 589.0,201.1 '/>
		<polygon fill = 'rgb( 31, 120, 180)' fill-opacity = '0.250000' points = '589.0,201.1 589.0,662.4 590.9,662.4 590.9,203.2 '/>
		<polygon fill = 'rgb( 31, 120, 180)' fill-opacity = '0.250000' points = '590.9,203.2 590.9,662.4 592.8,662.4 592.8,205.1 '/>
		<polygon fill = 'rgb( 31, 120, 180)' fill-opacity = '0.250000' points = '592.8,205.1 592.8,662.4 594.6,662.4 594.6,207.1 '/>
		<polygon fill = 'rgb( 31, 120, 180)' fill-opacity = '0.250000' points = '594.6,207.1 594.6,662.4 596.5,662.4 596.5,209.0 '/>
		<polygon fill = 'rgb( 31, 120, 180)' fill-opacity = '0.250000' points = '596.5,209.0 596.5,662.4 598.4,662.4 598.4,210.9 '/>
		<polygon fill = 'rgb( 31, 120, 180)' fill-opacity = '0.250000' points = '598.4,210.9 598.4,662.4 600.3,662.4 600.3,212.8 '/>
		<polygon fill = 'rgb( 31, 120, 180)' fill-opacity = '0.250000' points = '600.3,212.8 600.3,662.4 602.2,662.4 602.2,214.6 '/>
		<polygon fill = 'rgb( 31, 120, 180)' fill-opacity = '0.250000' points = '602.2,214.6 602.2,662.4 604.1,662.4 604.1,216.5 '/>
		<polygon fill = 'rgb( 31, 120, 180)' fill-opacity = '0.250000' points = '604.1,216.5 604.1,662.4 606.0,662.4 606.0,218.3 '/>
		<polygon fill = 'rgb( 31, 120, 180)' fill-opacity = '0.250000' points = '606.0,218.3 606.0,662.4 607.9,662.4 607.9,220.2 '/>
		<polygon fill = 'rgb( 31, 120, 180)' fill-opacity = '0.250000' points = '607.9,220.2 607.9,662.4 609.7,662.4 609.7,222.1 '/>
		<polygon fill = 'rgb( 31, 120, 180)' fill-opacity = '0.250000' points = '609.7,222.1 609.7,662.4 611.6,662.4 611.6,224.0 '/>
		<polygon fill = 'rgb( 31, 120, 180)' fill-opacity = '0.250000' points = '611.6,224.0 611.6,662.4 613.5,662.4 613.5,225.9 '/>
		<polygon fill = 'rgb( 31, 120, 180)' fill-opacity = '0.250000' points = '613.5,225.9 613.5,662.4 615.4,662.4 615.4,227.8 '/>
		<polygon fill = 'rgb( 31, 120, 180)' fill-opacity = '0.250000' points = '615.4,227.8 615.4,662.4 617.3,662.4 617.3,229.8 '/>
		<polygon fill = 'rgb( 31, 120, 180)' fill-opacity = '0.250000' points = '617.3,229.8 617.3,662.4 619.2,662.4 619.2,231.9 '/>
		<polygon fill = 'rgb( 31, 120, 180)' fill-opacity = '0.250000' points = '619.2,231.9 619.2,662.4 621.1,662.4 621.1,234.0 '/>
		<polygon fill = 'rgb( 31, 120, 180)' fill-opacity = '0.250000' points = '621.1,234.0 621.1,662.4 623.0,662.4 623.0,236.1 '/>
		<polygon fill = 'rgb( 31, 120, 180)' fill-opacity = '0.250000' points = '623.0,236.1 623.0,662.4 624.8,662.4 624.8,238.3 '/>
		<polygon fill = 'rgb( 31, 120, 180)' fill-opacity = '0.250000' points = '624.8,238.3 624.8,662.4 626.7,662.4 626.7,240.6 '/>
		<polygon fill = 'rgb( 31, 120, 180)' fill-opacity = '0.250000' points = '626.7,240.6 626.7,662.4 628.6,662.4 628.6,243.0 '/>
		<polygon fill = 'rgb( 31, 120, 180)' fill-opacity = '0.250000' points = '628.6,243.0 628.6,662.4 630.5,662.4 630.5,245.4 '/>
		<polygon fill = 'rgb( 31, 120, 180)' fill-opacity = '0.250000' points = '630.5,245.4 630.5,662.4 632.4,662.4 632.4,247.8 '/>
		<polygon fill = 'rgb( 31, 120, 180)' fill-opacity = '0.250000' points = '632.4,247.8 632.4,662.4 634.3,662.4 634.3,250.4 '/>
		<polygon fill = 'rgb( 31, 120, 180)' fill-opacity = '0.250000' points = '634.3,250.4 634.3,662.4 636.2,662.4 636.2,252.9 '/>
		<polygon fill = 'rgb( 31, 120, 180)' fill-opacity = '0.250000' points = '636.2,252.9 636.2,662.4 638.1,662.4 638.1,255.6 '/>
		<polygon fill = 'rgb( 31, 120, 180)' fill-opacity = '0.250000' points = '638.1,255.6 638.1,662.4 639.9,662.4 639.9,258.2 '/>
		<polygon fill = 'rgb( 31, 120, 180)' fill-opacity = '0.250000' points = '639.9,258.2 639.9,662.4 641.8,662.4 641.8,260.9 '/>
		<polygon fill = 'rgb( 31, 120, 180)' fill-opacity = '0.250000' points = '641.8,260.9 641.8,662.4 643.7,662.4 643.7,263.7 '/>
		<polygon fill = 'rgb( 31, 120, 180)' fill-opacity = '0.250000' points = '643.7,263.7 643.7,662.4 645.6,662.4 645.6,266.4 '/>
		<polygon fill = 'rgb( 31, 120, 180)' fill-opacity = '0.250000' points = '645.6,266.4 645.6,662.4 647.5,662.4 647.5,269.1 '/>
		<polygon fill = 'rgb( 31, 120, 180)' fill-opacity = '0.250000' points = '647.5,269.1 647.5,662.4 649.4,662.4 649.4,271.9 '/>
		<polygon fill = 'rgb( 31, 120, 180)' fill-opacity = '0.250000' points = '649.4,271.9 649.4,662.4 651.3,662.4 651.3,274.6 '/>
		<polygon fill = 'rgb( 31, 120, 180)' fill-opacity = '0.250000' points = '651.3,274.6 651.3,662.4 653.1,662.4 653.1,277.3 '/>
		<polygon fill = 'rgb( 31, 120, 180)' fill-opacity = '0.250000' points = '653.1,277.3 653.1,662.4 655.0,662.4 655.0,279.9 '/>
		<polygon fill = 'rgb( 31, 120, 180)' fill-opacity = '0.250000' points = '655.0,279.9 655.0,662.4 656.9,662.4 656.9,282.5 '/>
		<polygon fill = 'rgb( 31, 120, 180)' fill-opacity = '0.250000' points = '656.9,282.5 656.9,662.4 658.8,662.4 658.8,285.0 '/>
		<polygon fill = 'rgb( 31, 120, 180)' fill-opacity = '0.250000' points = '658.8,285.0 658.8,662.4 660.7,662.4 660.7,287.5 '/>
		<polygon fill = 'rgb( 31, 120, 180)' fill-opacity = '0.250000' points = '660.7,287.5 660.7,662.4 662.6,662.4 662.6,289.9 '/>
		<polygon fill = 'rgb( 31, 120, 180)' fill-opacity = '0.250000' points = '662.6,289.9 662.6,662.4 664.5,662.4 664.5,292.2 '/>
		<polygon fill = 'rgb( 31, 120, 180)' fill-opacity = '0.250000' points = '664.5,292.2 664.5,662.4 666.4,662.4 666.4,294.5 '/>
		<polygon fill = 'rgb( 31, 120, 180)' fill-opacity = '0.250000' points = '666.4,294.5 666.4,662.4 668.2,662.4 668.2,296.7 '/>
		<polygon fill = 'rgb( 31, 120, 180)' fill-opacity = '0.250000' points = '668.2,296.7 668.2,662.4 670.1,662.4 670.1,298.8 '/>
		<polygon fill = 'rgb( 31, 120, 180)' fill-opacity = '0.250000' points = '670.1,298.8 670.1,662.4 672.0,662.4 672.0,300.8 '/>
		<polygon fill = 'rgb( 31, 120, 180)' fill-opacity = '0.250000' points = '672.0,300.8 672.0,662.4 673.9,662.4 673.9,302.8 '/>
		<polygon fill = 'rgb( 31, 120, 180)' fill-opacity = '0.250000' points = '673.9,302.8 673.9,662.4 675.8,662.4 675.8,304.7 '/>
		<polygon fill = 'rgb( 31, 120, 180)' fill-opacity = '0.250000' points = '675.8,304.7 675.8,662.4 677.7,662.4 677.7,306.6 '/>
		<polygon fill = 'rgb( 31, 120, 180)' fill-opacity = '0.250000' points = '677.7,306.6 677.7,662.4 679.6,662.4 679.6,308.4 '/>
		<polygon fill = 'rgb( 31, 120, 180)' fill-opacity = '0.250000' points = '679.6,308.4 679.6,662.4 681.5,662.4 681.5,310.2 '/>
		<polygon fill = 'rgb( 31, 120, 180)' fill-opacity = '0.250000' points = '681.5,310.2 681.5,662.4 683.3,662.4 683.3,311.9 '/>
		<polygon fill = 'rgb( 31, 120, 180)' fill-opacity = '0.250000' points = '683.3,311.9 683.3,662.4 685.2,662.4 685.2,313.7 '/>
		<polygon fill = 'rgb( 31, 120, 180)' fill-opacity = '0.250000' points = '685.2,313.7 685.2,662.4 687.1,662.4 687.1,315.5 '/>
		<polygon fill = 'rgb( 31, 120, 180)' fill-opacity = '0.250000' points = '687.1,315.5 687.1,662.4 689.0,662.4 689.0,317.3 '/>
		<polygon fill = 'rgb( 31, 120, 180)' fill-opacity = '0.250000' points = '689.0,317.3 689.0,662.4 690.9,662.4 690.9,319.1 '/>
		<polygon fill = 'rgb( 31, 120, 180)' fill-opacity = '0.250000' points = '690.9,319.1 690.9,662.4 692.8,662.4 692.8,320.9 '/>
		<polygon fill = 'rgb( 31, 120, 180)' fill-opacity = '0.250000' points = '692.8,320.9 692.8,662.4 694.7,662.4 694.7,322.8 '/>
		<polygon fill = 'rgb( 31, 120, 180)' fill-opacity = '0.250000' points = '694.7,322.8 694.7,662.4 696.6,662.4 696.6,324.8 '/>
		<polygon fill = 'rgb( 31, 120, 180)' fill-opacity = '0.250000' points = '696.6,324.8 696.6,662.4 698.4,662.4 698.4,326.9 '/>
		<polygon fill = 'rgb( 31, 120, 180)' fill-opacity = '0.250000' points = '698.4,326.9 698.4,662.4 700.3,662.4 700.3,329.0 '/>
		<polygon fill = 'rgb( 31, 120, 180)' fill-opacity = '0.250000' points = '700.3,329.0 700.3,662.4 702.2,662.4 702.2,331.2 '/>
		<polygon fill = 'rgb( 31, 120, 180)' fill-opacity = '0.250000' points = '702.2,331.2 702.2,662.4 704.1,662.4 704.1,333.5 '/>
		<polygon fill = 'rgb( 31, 120, 180)' fill-opacity = '0.250000' points = '704.1,333.5 704.1,662.4 706.0,662.4 706.0,335.9 '/>
		<polygon fill = 'rgb( 31, 120, 180)' fill-opacity = '0.250000' points = '706.0,335.9 706.0,662.4 707.9,662.4 707.9,338.3 '/>
		<polygon fill = 'rgb( 31, 120, 180)' fill-opacity = '0.250000' points = '707.9,338.3 707.9,662.4 709.8,662.4 709.8,340.9 '/>
		<polygon fill = 'rgb( 31, 120, 180)' fill-opacity = '0.250000' points = '709.8,340.9 709.8,662.4 711.7,662.4 711.7,343.5 '/>
		<polygon fill = 'rgb( 31, 120, 180)' fill-opacity = '0.250000' points = '711.7,343.5 711.7,662.4 713.5,662.4 713.5,346.2 '/>
		<polygon fill = 'rgb( 31, 120, 180)' fill-opacity = '0.250000' points = '713.5,346.2 713.5,662.4 715.4,662.4 715.4,349.0 '/>
		<polygon fill = 'rgb( 31, 120, 180)' fill-opacity = '0.250000' points = '715.4,349.0 715.4,662.4 717.3,662.4 717.3,351.9 '/>
		<polygon fill = 'rgb( 31, 120, 180)' fill-opacity = '0.250000' points = '717.3,351.9 717.3,662.4 719.2,662.4 719.2,354.8 '/>
		<polygon fill = 'rgb( 31, 120, 180)' fill-opacity = '0.250000' points = '719.2,354.8 719.2,662.4 721.1,662.4 721.1,357.7 '/>
		<polygon fill = 'rgb( 31, 120, 180)' fill-opacity = '0.250000' points = '721.1,357.7 721.1,662.4 723.0,662.4 723.0,360.7 '/>
		<polygon fill = 'rgb( 31, 120, 180)' fill-opacity = '0.250000' points = '723.0,360.7 723.0,662.4 724.9,662.4 724.9,363.7 '/>
		<polygon fill = 'rgb( 31, 120, 180)' fill-opacity = '0.250000' points = '724.9,363.7 724.9,662.4 726.7,662.4 726.7,366.7 '/>
		<polygon fill = 'rgb( 31, 120, 180)' fill-opacity = '0.250000' points = '726.7,366.7 726.7,662.4 728.6,662.4 728.6,369.7 '/>
		<polygon fill = 'rgb( 31, 120, 180)' fill-opacity = '0.250000' points = '728.6,369.7 728.6,662.4 730.5,662.4 730.5,372.8 '/>
		<polygon fill = 'rgb( 31, 120, 180)' fill-opacity = '0.250000' points = '730.5,372.8 730.5,662.4 732.4,662.4 732.4,375.8 '/>
		<polygon fill = 'rgb( 31, 120, 180)' fill-opacity = '0.250000' points = '732.4,375.8 732.4,662.4 734.3,662.4 734.3,378.8 '/>
		<polygon fill = 'rgb( 31, 120, 180)' fill-opacity = '0.250000' points = '734.3,378.8 734.3,662.4 736.2,662.4 736.2,381.7 '/>
		<polygon fill = 'rgb( 31, 120, 180)' fill-opacity = '0.250000' points = '736.2,381.7 736.2,662.4 738.1,662.4 738.1,384.7 '/>
		<polygon fill = 'rgb( 31, 120, 180)' fill-opacity = '0.250000' points = '738.1,384.7 738.1,662.4 740.0,662.4 740.0,387.6 '/>
		<polygon fill = 'rgb( 31, 120, 180)' fill-opacity = '0.250000' points = '740.0,387.6 740.0,662.4 741.8,662.4 741.8,390.5 '/>
		<polygon fill = 'rgb( 31, 120, 180)' fill-opacity = '0.250000' points = '741.8,390.5 741.8,662.4 743.7,662.4 743.7,393.3 '/>
		<polygon fill = 'rgb( 31, 120, 180)' fill-opacity = '0.250000' points = '743.7,393.3 743.7,662.4 745.6,662.4 745.6,396.1 '/>
		<polygon fill = 'rgb( 31, 120, 180)' fill-opacity = '0.250000' points = '745.6,396.1 745.6,662.4 747.5,662.4 747.5,398.9 '/>
		<polygon fill = 'rgb( 31, 120, 180)' fill-opacity = '0.250000' points = '747.5,398.9 747.5,662.4 749.4,662.4 749.4,401.6 '/>
		<polygon fill = 'rgb( 31, 120, 180)' fill-opacity = '0.250000' points = '749.4,401.6 749.4,662.4 751.3,662.4 751.3,404.3 '/>
		<polygon fill = 'rgb( 31, 120, 180)' fill-opacity = '0.250000' points = '751.3,404.3 751.3,662.4 753.2,662.4 753.2,407.0 '/>
		<polygon fill = 'rgb( 31, 120, 180)' fill-opacity = '0.250000' points = '753.2,407.0 753.2,662.4 755.1,662.4 755.1,409.6 '/>
		<polygon fill = 'rgb( 31, 120, 180)' fill-opacity = '0.250000' points = '755.1,409.6 755.1,662.4 756.9,662.4 756.9,412.2 '/>
		<polygon fill = 'rgb( 31, 120, 180)' fill-opacity = '0.250000' points = '756.9,412.2 756.9,662.4 758.8,662.4 758.8,414.8 '/>
		<polygon fill = 'rgb( 31, 120, 180)' fill-opacity = '0.250000' points = '758.8,414.8 758.8,662.4 760.7,662.4 760.7,417.3 '/>
		<polygon fill = 'rgb( 31, 120, 180)' fill-opacity = '0.250000' points = '760.7,417.3 760.7,662.4 762.6,662.4 762.6,419.8 '/>
		<polygon fill = 'rgb( 31, 120, 180)' fill-opacity = '0.250000' points = '762.6,419.8 762.6,662.4 764.5,662.4 764.5,422.3 '/>
		<polygon fill = 'rgb( 31, 120, 180)' fill-opacity = '0.250000' points = '764.5,422.3 764.5,662.4 766.4,662.4 766.4,424.8 '/>
		<polygon fill = 'rgb( 31, 120, 180)' fill-opacity = '0.250000' points = '766.4,424.8 766.4,662.4 768.3,662.4 768.3,427.2 '/>
		<polygon fill = 'rgb( 31, 120, 180)' fill-opacity = '0.250000' points = '768.3,427.2 768.3,662.4 770.2,662.4 770.2,429.6 '/>
		<polygon fill = 'rgb( 31, 120, 180)' fill-opacity = '0.250000' points = '770.2,429.6 770.2,662.4 772.0,662.4 772.0,432.0 '/>
		<polygon fill = 'rgb( 31, 120, 180)' fill-opacity = '0.250000' points = '772.0,432.0 772.0,662.4 773.9,662.4 773.9,434.4 '/>
		<polygon fill = 'rgb( 31, 120, 180)' fill-opacity = '0.250000' points = '773.9,434.4 773.9,662.4 775.8,662.4 775.8,436.8 '/>
		<polygon fill = 'rgb( 31, 120, 180)' fill-opacity = '0.250000' points = '775.8,436.8 775.8,662.4 777.7,662.4 777.7,439.1 '/>
		<polygon fill = 'rgb( 31, 120, 180)' fill-opacity = '0.250000' points = '777.7,439.1 777.7,662.4 779.6,662.4 779.6,441.4 '/>
		<polygon fill = 'rgb( 31, 120, 180)' fill-opacity = '0.250000' points = '779.6,441.4 779.6,662.4 781.5,662.4 781.5,443.7 '/>
		<polygon fill = 'rgb( 31, 120, 180)' fill-opacity = '0.250000' points = '781.5,443.7 781.5,662.4 783.4,662.4 783.4,446.0 '/>
		<polygon fill = 'rgb( 31, 120, 180)' fill-opacity = '0.250000' points = '783.4,446.0 783.4,662.4 785.3,662.4 785.3,448.3 '/>
		<polygon fill = 'rgb( 31, 120, 180)' fill-opacity = '0.250000' points = '785.3,448.3 785.3,662.4 787.1,662.4 787.1,450.5 '/>
		<polygon fill = 'rgb( 31, 120, 180)' fill-opacity = '0.250000' points = '787.1,450.5 787.1,662.4 789.0,662.4 789.0,452.8 '/>
		<polygon fill = 'rgb( 31, 120, 180)' fill-opacity = '0.250000' points = '789.0,452.8 789.0,662.4 790.9,662.4 790.9,455.0 '/>
		<polygon fill = 'rgb( 31, 120, 180)' fill-opacity = '0.250000' points = '790.9,455.0 790.9,662.4 792.8,662.4 792.8,457.3 '/>
		<polygon fill = 'rgb( 31, 120, 180)' fill-opacity = '0.250000' points = '792.8,457.3 792.8,662.4 794.7,662.4 794.7,459.5 '/>
		<polygon fill = 'rgb( 31, 120, 180)' fill-opacity = '0.250000' points = '794.7,459.5 794.7,662.4 796.6,662.4 796.6,461.7 '/>
		<polygon fill = 'rgb( 31, 120, 180)' fill-opacity = '0.250000' points = '796.6,461.7 796.6,662.4 798.5,662.4 798.5,463.9 '/>
		<polygon fill = 'rgb( 31, 120, 180)' fill-opacity = '0.250000' points = '798.5,463.9 798.5,662.4 800.3,662.4 800.3,466.1 '/>
		<polygon fill = 'rgb( 31, 120, 180)' fill-opacity = '0.250000' points = '800.3,466.1 800.3,662.4 802.2,662.4 802.2,468.3 '/>
		<polygon fill = 'rgb( 31, 120, 180)' fill-opacity = '0.250000' points = '802.2,468.3 802.2,662.4 804.1,662.4 804.1,470.5 '/>
		<polygon fill = 'rgb( 31, 120, 180)' fill-opacity = '0.250000' points = '804.1,470.5 804.1,662.4 806.0,662.4 806.0,472.7 '/>
		<polygon fill = 'rgb( 31, 120, 180)' fill-opacity = '0.250000' points = '806.0,472.7 806.0,662.4 807.9,662.4 807.9,474.9 '/>
		<polygon fill = 'rgb( 31, 120, 180)' fill-opacity = '0.250000' points = '807.9,474.9 807.9,662.4 809.8,662.4 809.8,477.1 '/>
		<polygon fill = 'rgb( 31, 120, 180)' fill-opacity = '0.250000' points = '809.8,477.1 809.8,662.4 811.7,662.4 811.7,479.3 '/>
		<polygon fill = 'rgb( 31, 120, 180)' fill-opacity = '0.250000' points = '811.7,479.3 811.7,662.4 813.6,662.4 813.6,481.5 '/>
		<polygon fill = 'rgb( 31, 120, 180)' fill-opacity = '0.250000' points = '813.6,481.5 813.6,662.4 815.4,662.4 815.4,483.7 '/>
		<polygon fill = 'rgb( 31, 120, 180)' fill-opacity = '0.250000' points = '815.4,483.7 815.4,662.4 817.3,662.4 817.3,485.9 '/>
		<polygon fill = 'rgb( 31, 120, 180)' fill-opacity = '0.250000' points = '817.3,485.9 817.3,662.4 819.2,662.4 819.2,488.1 '/>
		<polygon fill = 'rgb( 31, 120, 180)' fill-opacity = '0.250000' points = '819.2,488.1 819.2,662.4 821.1,662.4 821.1,490.3 '/>
		<polygon fill = 'rgb( 31, 120, 180)' fill-opacity = '0.250000' points = '821.1,490.3 821.1,662.4 823.0,662.4 823.0,492.4 '/>
		<polygon fill = 'rgb( 31, 120, 180)' fill-opacity = '0.250000' points = '823.0,492.4 823.0,662.4 824.9,662.4 824.9,494.6 '/>
		<polygon fill = 'rgb( 31, 120, 180)' fill-opacity = '0.250000' points = '824.9,494.6 824.9,662.4 826.8,662.4 826.8,496.8 '/>
		<polygon fill = 'rgb( 31, 120, 180)' fill-opacity = '0.250000' points = '826.8,496.8 826.8,662.4 828.7,662.4 828.7,498.9 '/>
		<polygon fill = 'rgb( 31, 120, 180)' fill-opacity = '0.250000' points = '828.7,498.9 828.7,662.4 830.5,662.4 830.5,501.1 '/>
		<polygon fill = 'rgb( 31, 120, 180)' fill-opacity = '0.250000' points = '830.5,501.1 830.5,662.4 832.4,662.4 832.4,503.2 '/>
		<polygon fill = 'rgb( 31, 120, 180)' fill-opacity = '0.250000' points = '832.4,503.2 832.4,662.4 834.3,662.4 834.3,505.3 '/>
		<polygon fill = 'rgb( 31, 120, 180)' fill-opacity = '0.250000' points = '834.3,505.3 834.3,662.4 836.2,662.4 836.2,507.4 '/>
		<polygon fill = 'rgb( 31, 120, 180)' fill-opacity = '0.250000' points = '836.2,507.4 836.2,662.4 838.1,662.4 838.1,509.5 '/>
		<polygon fill = 'rgb( 31, 120, 180)' fill-opacity = '0.250000' points = '838.1,509.5 838.1,662.4 840.0,662.4 840.0,511.5 '/>
		<polygon fill = 'rgb( 31, 120, 180)' fill-opacity = '0.250000' points = '840.0,511.5 840.0,662.4 841.9,662.4 841.9,513.6 '/>
		<polygon fill = 'rgb( 31, 120, 180)' fill-opacity = '0.250000' points = '841.9,513.6 841.9,662.4 843.8,662.4 843.8,515.6 '/>
		<polygon fill = 'rgb( 31, 120, 180)' fill-opacity = '0.250000' points = '843.8,515.6 843.8,662.4 845.6,662.4 845.6,517.7 '/>
		<polygon fill = 'rgb( 31, 120, 180)' fill-opacity = '0.250000' points = '845.6,517.7 845.6,662.4 847.5,662.4 847.5,519.7 '/>
		<polygon fill = 'rgb( 31, 120, 180)' fill-opacity = '0.250000' points = '847.5,519.7 847.5,662.4 849.4,662.4 849.4,521.7 '/>
		<polygon fill = 'rgb( 31, 120, 180)' fill-opacity = '0.250000' points = '849.4,521.7 849.4,662.4 851.3,662.4 851.3,523.6 '/>
		<polygon fill = 'rgb( 31, 120, 180)' fill-opacity = '0.250000' points = '851.3,523.6 851.3,662.4 853.2,662.4 853.2,525.6 '/>
		<polygon fill = 'rgb( 31, 120, 180)' fill-opacity = '0.250000' points = '853.2,525.6 853.2,662.4 855.1,662.4 855.1,527.5 '/>
		<polygon fill = 'rgb( 31, 120, 180)' fill-opacity = '0.250000' points = '855.1,527.5 855.1,662.4 857.0,662.4 857.0,529.4 '/>
		<polygon fill = 'rgb( 31, 120, 180)' fill-opacity = '0.250000' points = '857.0,529.4 857.0,662.4 858.9,662.4 858.9,531.3 '/>
		<polygon fill = 'rgb( 31, 120, 180)' fill-opacity = '0.250000' points = '858.9,531.3 858.9,662.4 860.7,662.4 860.7,533.2 '/>
		<polygon fill = 'rgb( 31, 120, 180)' fill-opacity = '0.250000' points = '860.7,533.2 860.7,662.4 862.6,662.4 862.6,535.0 '/>
		<polygon fill = 'rgb( 31, 120, 180)' fill-opacity = '0.250000' points = '862.6,535.0 862.6,662.4 864.5,662.4 864.5,536.9 '/>
		<polygon fill = 'rgb( 31, 120, 180)' fill-opacity = '0.250000' points = '864.5,536.9 864.5,662.4 866.4,662.4 866.4,538.7 '/>
		<polygon fill = 'rgb( 31, 120, 180)' fill-opacity = '0.250000' points = '866.4,538.7 866.4,662.4 868.3,662.4 868.3,540.5 '/>
		<polygon fill = 'rgb( 31, 120, 180)' fill-opacity = '0.250000' points = '868.3,540.5 868.3,662.4 870.2,662.4 870.2,542.2 '/>
		<polygon fill = 'rgb( 31, 120, 180)' fill-opacity = '0.250000' points = '870.2,542.2 870.2,662.4 872.1,662.4 872.1,544.0 '/>
		<polygon fill = 'rgb( 31, 120, 180)' fill-opacity = '0.250000' points = '872.1,544.0 872.1,662.4 873.9,662.4 873.9,545.7 '/>
		<polygon fill = 'rgb( 31, 120, 180)' fill-opacity = '0.250000' points = '873.9,545.7 873.9,662.4 875.8,662.4 875.8,547.4 '/>
		<polygon fill = 'rgb( 31, 120, 180)' fill-opacity = '0.250000' points = '875.8,547.4 875.8,662.4 877.7,662.4 877.7,549.0 '/>
		<polygon fill = 'rgb( 31, 120, 180)' fill-opacity = '0.250000' points = '877.7,549.0 877.7,662.4 879.6,662.4 879.6,550.6 '/>
		<polygon fill = 'rgb( 31, 120, 180)' fill-opacity = '0.250000' points = '879.6,550.6 879.6,662.4 881.5,662.4 881.5,552.2 '/>
		<polygon fill = 'rgb( 31, 120, 180)' fill-opacity = '0.250000' points = '881.5,552.2 881.5,662.4 883.4,662.4 883.4,553.8 '/>
		<polygon fill = 'rgb( 31, 120, 180)' fill-opacity = '0.250000' points = '883.4,553.8 883.4,662.4 885.3,662.4 885.3,555.4 '/>
		<polygon fill = 'rgb( 31, 120, 180)' fill-opacity = '0.250000' points = '885.3,555.4 885.3,662.4 887.2,662.4 887.2,556.9 '/>
		<polygon fill = 'rgb( 31, 120, 180)' fill-opacity = '0.250000' points = '887.2,556.9 887.2,662.4 889.0,662.4 889.0,558.4 '/>
		<polygon fill = 'rgb( 31, 120, 180)' fill-opacity = '0.250000' points = '889.0,558.4 889.0,662.4 890.9,662.4 890.9,559.9 '/>
		<polygon fill = 'rgb( 31, 120, 180)' fill-opacity = '0.250000' points = '890.9,559.9 890.9,662.4 892.8,662.4 892.8,561.3 '/>
		<polygon fill = 'rgb( 31, 120, 180)' fill-opacity = '0.250000' points = '892.8,561.3 892.8,662.4 894.7,662.4 894.7,562.7 '/>
		<polygon fill = 'rgb( 31, 120, 180)' fill-opacity = '0.250000' points = '894.7,562.7 894.7,662.4 896.6,662.4 896.6,564.1 '/>
		<polygon fill = 'rgb( 31, 120, 180)' fill-opacity = '0.250000' points = '896.6,564.1 896.6,662.4 898.5,662.4 898.5,565.5 '/>
		<polygon fill = 'rgb( 31, 120, 180)' fill-opacity = '0.250000' points = '898.5,565.5 898.5,662.4 900.4,662.4 900.4,566.8 '/>
		<polygon fill = 'rgb( 31, 120, 180)' fill-opacity = '0.250000' points = '900.4,566.8 900.4,662.4 902.3,662.4 902.3,568.2 '/>
		<polygon fill = 'rgb( 31, 120, 180)' fill-opacity = '0.250000' points = '902.3,568.2 902.3,662.4 904.1,662.4 904.1,569.5 '/>
		<polygon fill = 'rgb( 31, 120, 180)' fill-opacity = '0.250000' points = '904.1,569.5 904.1,662.4 906.0,662.4 906.0,570.7 '/>
		<polygon fill = 'rgb( 31, 120, 180)' fill-opacity = '0.250000' points = '906.0,570.7 906.0,662.4 907.9,662.4 907.9,572.0 '/>
		<polygon fill = 'rgb( 31, 120, 180)' fill-opacity = '0.250000' points = '907.9,572.0 907.9,662.4 909.8,662.4 909.8,573.3 '/>
		<polygon fill = 'rgb( 31, 120, 180)' fill-opacity = '0.250000' points = '909.8,573.3 909.8,662.4 911.7,662.4 911.7,574.5 '/>
		<polygon fill = 'rgb( 31, 120, 180)' fill-opacity = '0.250000' points = '911.7,574.5 911.7,662.4 913.6,662.4 913.6,575.8 '/>
		<polygon fill = 'rgb( 31, 120, 180)' fill-opacity = '0.250000' points = '913.6,575.8 913.6,662.4 915.5,662.4 915.5,577.0 '/>
		<polygon fill = 'rgb( 31, 120, 180)' fill-opacity = '0.250000' points = '915.5,577.0 915.5,662.4 917.4,662.4 917.4,578.2 '/>
		<polygon fill = 'rgb( 31, 120, 180)' fill-opacity = '0.250000' points = '917.4,578.2 917.4,662.4 919.2,662.4 919.2,579.5 '/>
		<polygon fill = 'rgb( 31, 120, 180)' fill-opacity = '0.250000' points = '919.2,579.5 919.2,662.4 921.1,662.4 921.1,580.7 '/>
		<polygon fill = 'rgb( 31, 120, 180)' fill-opacity = '0.250000' points = '921.1,580.7 921.1,662.4 923.0,662.4 923.0,581.9 '/>
		<polygon fill = 'rgb( 31, 120, 180)' fill-opacity = '0.250000' points = '923.0,581.9 923.0,662.4 924.9,662.4 924.9,583.1 '/>
	</g>
</g>
	</g>
	<g id="gnuplot_plot_3" ><title>Point estimate</title>
<g fill="none" color="white" stroke="rgb( 31, 120, 180)" stroke-width="2.00" stroke-linecap="butt" stroke-linejoin="miter">
</g>
<g fill="none" color="black" stroke="currentColor" stroke-width="2.00" stroke-linecap="butt" stroke-linejoin="miter">
	<g transform="translate(1089.0,103.0)" stroke="none" fill="black" font-family="Helvetica" font-size="12.00"  text-anchor="start">
		<text><tspan font-family="Helvetica" >Point estimate</tspan></text>
	</g>
</g>
<g fill="none" color="black" stroke="currentColor" stroke-width="2.00" stroke-linecap="butt" stroke-linejoin="miter">
	<path stroke='rgb( 31, 120, 180)'  d='M1038.5,99.1 L1080.7,99.1 M514.3,662.4 L514.3,125.3  '/></g>
	</g>
	<g id="gnuplot_plot_4" ><title>Noise threshold</title>
<g fill="none" color="white" stroke="rgb( 31, 120, 180)" stroke-width="1.00" stroke-linecap="butt" stroke-linejoin="miter">
</g>
<g fill="none" color="black" stroke="currentColor" stroke-width="1.00" stroke-linecap="butt" stroke-linejoin="miter">
	<g transform="translate(1089.0,121.0)" stroke="none" fill="black" font-family="Helvetica" font-size="12.00"  text-anchor="start">
		<text><tspan font-family="Helvetica" >Noise threshold</tspan></text>
	</g>
</g>
<g fill="none" color="black" stroke="currentColor" stroke-width="1.00" stroke-linecap="butt" stroke-linejoin="miter">
	<g stroke='none' shape-rendering='crispEdges'>
		<polygon fill = 'rgb(227,  26,  28)' fill-opacity = '0.100000' points = '1038.5,121.6 1080.7,121.6 1080.7,112.6 1038.5,112.6 '/>
		<polygon fill = 'rgb(227,  26,  28)' fill-opacity = '0.100000' points = '71.9,54.1 71.9,662.4 642.2,662.4 642.2,54.1 '/>
	</g>
</g>
	</g>
<g fill="none" color="white" stroke="rgb(227,  26,  28)" stroke-width="2.00" stroke-linecap="butt" stroke-linejoin="miter">
</g>
<g fill="none" color="black" stroke="currentColor" stroke-width="2.00" stroke-linecap="butt" stroke-linejoin="miter">
</g>
<g fill="none" color="black" stroke="black" stroke-width="1.00" stroke-linecap="butt" stroke-linejoin="miter">
</g>
<g fill="none" color="black" stroke="currentColor" stroke-width="1.00" stroke-linecap="butt" stroke-linejoin="miter">
	<path stroke='black'  d='M71.9,54.1 L71.9,662.4 L1013.6,662.4 L1013.6,54.1 L71.9,54.1 Z  '/></g>
<g fill="none" color="black" stroke="currentColor" stroke-width="1.00" stroke-linecap="butt" stroke-linejoin="miter">
</g>
</g>
</svg>

