<?xml version="1.0" encoding="utf-8"  standalone="no"?>
<svg 
 viewBox="0 0 1280 720"
 xmlns="http://www.w3.org/2000/svg"
 xmlns:xlink="http://www.w3.org/1999/xlink"
>

<title>Gnuplot</title>
<desc>Produced by GNUPLOT 5.0 patchlevel 6 </desc>

<g id="gnuplot_canvas">

<rect x="0" y="0" width="1280" height="720" fill="none"/>
<defs>

	<circle id='gpDot' r='0.5' stroke-width='0.5'/>
	<path id='gpPt0' stroke-width='0.222' stroke='currentColor' d='M-1,0 h2 M0,-1 v2'/>
	<path id='gpPt1' stroke-width='0.222' stroke='currentColor' d='M-1,-1 L1,1 M1,-1 L-1,1'/>
	<path id='gpPt2' stroke-width='0.222' stroke='currentColor' d='M-1,0 L1,0 M0,-1 L0,1 M-1,-1 L1,1 M-1,1 L1,-1'/>
	<rect id='gpPt3' stroke-width='0.222' stroke='currentColor' x='-1' y='-1' width='2' height='2'/>
	<rect id='gpPt4' stroke-width='0.222' stroke='currentColor' fill='currentColor' x='-1' y='-1' width='2' height='2'/>
	<circle id='gpPt5' stroke-width='0.222' stroke='currentColor' cx='0' cy='0' r='1'/>
	<use xlink:href='#gpPt5' id='gpPt6' fill='currentColor' stroke='none'/>
	<path id='gpPt7' stroke-width='0.222' stroke='currentColor' d='M0,-1.33 L-1.33,0.67 L1.33,0.67 z'/>
	<use xlink:href='#gpPt7' id='gpPt8' fill='currentColor' stroke='none'/>
	<use xlink:href='#gpPt7' id='gpPt9' stroke='currentColor' transform='rotate(180)'/>
	<use xlink:href='#gpPt9' id='gpPt10' fill='currentColor' stroke='none'/>
	<use xlink:href='#gpPt3' id='gpPt11' stroke='currentColor' transform='rotate(45)'/>
	<use xlink:href='#gpPt11' id='gpPt12' fill='currentColor' stroke='none'/>
	<path id='gpPt13' stroke-width='0.222' stroke='currentColor' d='M0,1.330 L1.265,0.411 L0.782,-1.067 L-0.782,-1.076 L-1.265,0.411 z'/>
	<use xlink:href='#gpPt13' id='gpPt14' fill='currentColor' stroke='none'/>
	<filter id='textbox' filterUnits='objectBoundingBox' x='0' y='0' height='1' width='1'>
	  <feFlood flood-color='white' flood-opacity='1' result='bgnd'/>
	  <feComposite in='SourceGraphic' in2='bgnd' operator='atop'/>
	</filter>
	<filter id='greybox' filterUnits='objectBoundingBox' x='0' y='0' height='1' width='1'>
	  <feFlood flood-color='lightgrey' flood-opacity='1' result='grey'/>
	  <feComposite in='SourceGraphic' in2='grey' operator='atop'/>
	</filter>
</defs>
<g fill="none" color="white" stroke="currentColor" stroke-width="1.00" stroke-linecap="butt" stroke-linejoin="miter">
</g>
<g fill="none" color="black" stroke="currentColor" stroke-width="1.00" stroke-linecap="butt" stroke-linejoin="miter">
	<path stroke='black'  d='M71.9,662.4 L80.9,662.4  '/>	<g transform="translate(63.6,666.3)" stroke="none" fill="black" font-family="Helvetica" font-size="12.00"  text-anchor="end">
		<text><tspan font-family="Helvetica" > 0</tspan></text>
	</g>
</g>
<g fill="none" color="black" stroke="currentColor" stroke-width="1.00" stroke-linecap="butt" stroke-linejoin="miter">
	<path stroke='black'  d='M71.9,561.0 L80.9,561.0  '/>	<g transform="translate(63.6,564.9)" stroke="none" fill="black" font-family="Helvetica" font-size="12.00"  text-anchor="end">
		<text><tspan font-family="Helvetica" > 50</tspan></text>
	</g>
</g>
<g fill="none" color="black" stroke="currentColor" stroke-width="1.00" stroke-linecap="butt" stroke-linejoin="miter">
	<path stroke='black'  d='M71.9,459.6 L80.9,459.6  '/>	<g transform="translate(63.6,463.5)" stroke="none" fill="black" font-family="Helvetica" font-size="12.00"  text-anchor="end">
		<text><tspan font-family="Helvetica" > 100</tspan></text>
	</g>
</g>
<g fill="none" color="black" stroke="currentColor" stroke-width="1.00" stroke-linecap="butt" stroke-linejoin="miter">
	<path stroke='black'  d='M71.9,358.2 L80.9,358.2  '/>	<g transform="translate(63.6,362.1)" stroke="none" fill="black" font-family="Helvetica" font-size="12.00"  text-anchor="end">
		<text><tspan font-family="Helvetica" > 150</tspan></text>
	</g>
</g>
<g fill="none" color="black" stroke="currentColor" stroke-width="1.00" stroke-linecap="butt" stroke-linejoin="miter">
	<path stroke='black'  d='M71.9,256.9 L80.9,256.9  '/>	<g transform="translate(63.6,260.8)" stroke="none" fill="black" font-family="Helvetica" font-size="12.00"  text-anchor="end">
		<text><tspan font-family="Helvetica" > 200</tspan></text>
	</g>
</g>
<g fill="none" color="black" stroke="currentColor" stroke-width="1.00" stroke-linecap="butt" stroke-linejoin="miter">
	<path stroke='black'  d='M71.9,155.5 L80.9,155.5  '/>	<g transform="translate(63.6,159.4)" stroke="none" fill="black" font-family="Helvetica" font-size="12.00"  text-anchor="end">
		<text><tspan font-family="Helvetica" > 250</tspan></text>
	</g>
</g>
<g fill="none" color="black" stroke="currentColor" stroke-width="1.00" stroke-linecap="butt" stroke-linejoin="miter">
	<path stroke='black'  d='M71.9,54.1 L80.9,54.1  '/>	<g transform="translate(63.6,58.0)" stroke="none" fill="black" font-family="Helvetica" font-size="12.00"  text-anchor="end">
		<text><tspan font-family="Helvetica" > 300</tspan></text>
	</g>
</g>
<g fill="none" color="black" stroke="currentColor" stroke-width="1.00" stroke-linecap="butt" stroke-linejoin="miter">
	<path stroke='black'  d='M130.7,662.4 L130.7,653.4  '/>	<g transform="translate(130.7,684.3)" stroke="none" fill="black" font-family="Helvetica" font-size="12.00"  text-anchor="middle">
		<text><tspan font-family="Helvetica" >-0.6</tspan></text>
	</g>
</g>
<g fill="none" color="black" stroke="currentColor" stroke-width="1.00" stroke-linecap="butt" stroke-linejoin="miter">
	<path stroke='black'  d='M241.7,662.4 L241.7,653.4  '/>	<g transform="translate(241.7,684.3)" stroke="none" fill="black" font-family="Helvetica" font-size="12.00"  text-anchor="middle">
		<text><tspan font-family="Helvetica" >-0.5</tspan></text>
	</g>
</g>
<g fill="none" color="black" stroke="currentColor" stroke-width="1.00" stroke-linecap="butt" stroke-linejoin="miter">
	<path stroke='black'  d='M352.7,662.4 L352.7,653.4  '/>	<g transform="translate(352.7,684.3)" stroke="none" fill="black" font-family="Helvetica" font-size="12.00"  text-anchor="middle">
		<text><tspan font-family="Helvetica" >-0.4</tspan></text>
	</g>
</g>
<g fill="none" color="black" stroke="currentColor" stroke-width="1.00" stroke-linecap="butt" stroke-linejoin="miter">
	<path stroke='black'  d='M463.8,662.4 L463.8,653.4  '/>	<g transform="translate(463.8,684.3)" stroke="none" fill="black" font-family="Helvetica" font-size="12.00"  text-anchor="middle">
		<text><tspan font-family="Helvetica" >-0.3</tspan></text>
	</g>
</g>
<g fill="none" color="black" stroke="currentColor" stroke-width="1.00" stroke-linecap="butt" stroke-linejoin="miter">
	<path stroke='black'  d='M574.8,662.4 L574.8,653.4  '/>	<g transform="translate(574.8,684.3)" stroke="none" fill="black" font-family="Helvetica" font-size="12.00"  text-anchor="middle">
		<text><tspan font-family="Helvetica" >-0.2</tspan></text>
	</g>
</g>
<g fill="none" color="black" stroke="currentColor" stroke-width="1.00" stroke-linecap="butt" stroke-linejoin="miter">
	<path stroke='black'  d='M685.9,662.4 L685.9,653.4  '/>	<g transform="translate(685.9,684.3)" stroke="none" fill="black" font-family="Helvetica" font-size="12.00"  text-anchor="middle">
		<text><tspan font-family="Helvetica" >-0.1</tspan></text>
	</g>
</g>
<g fill="none" color="black" stroke="currentColor" stroke-width="1.00" stroke-linecap="butt" stroke-linejoin="miter">
	<path stroke='black'  d='M796.9,662.4 L796.9,653.4  '/>	<g transform="translate(796.9,684.3)" stroke="none" fill="black" font-family="Helvetica" font-size="12.00"  text-anchor="middle">
		<text><tspan font-family="Helvetica" > 0</tspan></text>
	</g>
</g>
<g fill="none" color="black" stroke="currentColor" stroke-width="1.00" stroke-linecap="butt" stroke-linejoin="miter">
	<path stroke='black'  d='M908.0,662.4 L908.0,653.4  '/>	<g transform="translate(908.0,684.3)" stroke="none" fill="black" font-family="Helvetica" font-size="12.00"  text-anchor="middle">
		<text><tspan font-family="Helvetica" > 0.1</tspan></text>
	</g>
</g>
<g fill="none" color="black" stroke="currentColor" stroke-width="1.00" stroke-linecap="butt" stroke-linejoin="miter">
</g>
<g fill="none" color="black" stroke="currentColor" stroke-width="1.00" stroke-linecap="butt" stroke-linejoin="miter">
	<path stroke='black'  d='M71.9,54.1 L71.9,662.4 L1013.6,662.4 L1013.6,54.1 L71.9,54.1 Z  '/></g>
<g fill="none" color="black" stroke="currentColor" stroke-width="1.00" stroke-linecap="butt" stroke-linejoin="miter">
	<g transform="translate(17.0,358.3) rotate(270)" stroke="none" fill="black" font-family="Helvetica" font-size="12.00"  text-anchor="middle">
		<text><tspan font-family="Helvetica" >Density (a.u.)</tspan></text>
	</g>
</g>
<g fill="none" color="black" stroke="currentColor" stroke-width="1.00" stroke-linecap="butt" stroke-linejoin="miter">
	<g transform="translate(542.7,711.3)" stroke="none" fill="black" font-family="Helvetica" font-size="12.00"  text-anchor="middle">
		<text><tspan font-family="Helvetica" >Relative change (%)</tspan></text>
	</g>
</g>
<g fill="none" color="black" stroke="currentColor" stroke-width="1.00" stroke-linecap="butt" stroke-linejoin="miter">
	<g transform="translate(542.7,31.0)" stroke="none" fill="black" font-family="Helvetica" font-size="12.00"  text-anchor="middle">
		<text><tspan font-family="Helvetica" >language: ruby/parse error: bash/examples/atom.sh: median</tspan></text>
	</g>
</g>
	<g id="gnuplot_plot_1" ><title>Bootstrap distribution</title>
<g fill="none" color="white" stroke="black" stroke-width="2.00" stroke-linecap="butt" stroke-linejoin="miter">
</g>
<g fill="none" color="black" stroke="currentColor" stroke-width="2.00" stroke-linecap="butt" stroke-linejoin="miter">
	<g transform="translate(1089.0,67.0)" stroke="none" fill="black" font-family="Helvetica" font-size="12.00"  text-anchor="start">
		<text><tspan font-family="Helvetica" >Bootstrap distribution</tspan></text>
	</g>
</g>
<g fill="none" color="black" stroke="currentColor" stroke-width="2.00" stroke-linecap="butt" stroke-linejoin="miter">
	<path stroke='rgb( 31, 120, 180)'  d='M1038.5,63.1 L1080.7,63.1 M71.9,629.8 L73.8,628.7 L75.7,627.7 L77.6,626.6 L79.4,625.6 L81.3,624.5
		L83.2,623.5 L85.1,622.5 L87.0,621.4 L88.9,620.4 L90.8,619.4 L92.7,618.4 L94.5,617.4 L96.4,616.4
		L98.3,615.5 L100.2,614.6 L102.1,613.6 L104.0,612.8 L105.9,611.9 L107.8,611.1 L109.6,610.3 L111.5,609.6
		L113.4,608.9 L115.3,608.3 L117.2,607.7 L119.1,607.2 L121.0,606.8 L122.9,606.4 L124.7,606.1 L126.6,605.8
		L128.5,605.6 L130.4,605.5 L132.3,605.3 L134.2,605.2 L136.1,605.1 L138.0,605.0 L139.8,604.8 L141.7,604.7
		L143.6,604.4 L145.5,604.1 L147.4,603.7 L149.3,603.3 L151.2,602.7 L153.0,602.1 L154.9,601.4 L156.8,600.5
		L158.7,599.6 L160.6,598.6 L162.5,597.6 L164.4,596.4 L166.3,595.2 L168.1,594.0 L170.0,592.7 L171.9,591.4
		L173.8,590.2 L175.7,588.9 L177.6,587.7 L179.5,586.6 L181.4,585.6 L183.2,584.6 L185.1,583.7 L187.0,583.0
		L188.9,582.3 L190.8,581.8 L192.7,581.3 L194.6,580.9 L196.5,580.6 L198.3,580.2 L200.2,579.9 L202.1,579.6
		L204.0,579.2 L205.9,578.7 L207.8,578.1 L209.7,577.5 L211.6,576.6 L213.4,575.6 L215.3,574.4 L217.2,573.1
		L219.1,571.6 L221.0,569.9 L222.9,568.1 L224.8,566.1 L226.6,564.0 L228.5,561.8 L230.4,559.5 L232.3,557.2
		L234.2,554.8 L236.1,552.4 L238.0,550.1 L239.9,547.9 L241.7,545.8 L243.6,543.7 L245.5,541.8 L247.4,540.1
		L249.3,538.5 L251.2,537.1 L253.1,535.8 L255.0,534.7 L256.8,533.7 L258.7,532.7 L260.6,531.8 L262.5,531.0
		L264.4,530.1 L266.3,529.2 L268.2,528.2 L270.1,527.1 L271.9,525.9 L273.8,524.5 L275.7,523.0 L277.6,521.3
		L279.5,519.5 L281.4,517.6 L283.3,515.5 L285.2,513.4 L287.0,511.3 L288.9,509.2 L290.8,507.1 L292.7,505.2
		L294.6,503.3 L296.5,501.6 L298.4,500.0 L300.2,498.6 L302.1,497.4 L304.0,496.3 L305.9,495.3 L307.8,494.5
		L309.7,493.7 L311.6,492.9 L313.5,492.1 L315.3,491.3 L317.2,490.4 L319.1,489.3 L321.0,488.1 L322.9,486.7
		L324.8,485.1 L326.7,483.3 L328.6,481.3 L330.4,479.1 L332.3,476.8 L334.2,474.4 L336.1,471.8 L338.0,469.3
		L339.9,466.7 L341.8,464.2 L343.7,461.7 L345.5,459.4 L347.4,457.3 L349.3,455.3 L351.2,453.5 L353.1,452.0
		L355.0,450.7 L356.9,449.5 L358.8,448.6 L360.6,447.8 L362.5,447.1 L364.4,446.6 L366.3,446.0 L368.2,445.5
		L370.1,444.9 L372.0,444.3 L373.8,443.5 L375.7,442.5 L377.6,441.3 L379.5,439.9 L381.4,438.3 L383.3,436.5
		L385.2,434.4 L387.1,432.2 L388.9,429.8 L390.8,427.2 L392.7,424.6 L394.6,421.9 L396.5,419.3 L398.4,416.7
		L400.3,414.2 L402.2,411.9 L404.0,409.7 L405.9,407.8 L407.8,406.1 L409.7,404.6 L411.6,403.4 L413.5,402.5
		L415.4,401.8 L417.3,401.3 L419.1,400.9 L421.0,400.7 L422.9,400.6 L424.8,400.4 L426.7,400.3 L428.6,400.1
		L430.5,399.7 L432.4,399.2 L434.2,398.5 L436.1,397.5 L438.0,396.2 L439.9,394.7 L441.8,392.8 L443.7,390.6
		L445.6,388.1 L447.4,385.3 L449.3,382.2 L451.2,378.8 L453.1,375.1 L455.0,371.2 L456.9,367.1 L458.8,362.9
		L460.7,358.5 L462.5,354.0 L464.4,349.4 L466.3,344.8 L468.2,340.2 L470.1,335.5 L472.0,330.8 L473.9,326.1
		L475.8,321.4 L477.6,316.6 L479.5,311.8 L481.4,306.8 L483.3,301.7 L485.2,296.5 L487.1,291.1 L489.0,285.5
		L490.9,279.7 L492.7,273.7 L494.6,267.5 L496.5,261.1 L498.4,254.4 L500.3,247.6 L502.2,240.6 L504.1,233.5
		L506.0,226.3 L507.8,219.0 L509.7,211.7 L511.6,204.3 L513.5,197.0 L515.4,189.7 L517.3,182.6 L519.2,175.6
		L521.0,168.8 L522.9,162.4 L524.8,156.2 L526.7,150.4 L528.6,145.1 L530.5,140.4 L532.4,136.1 L534.3,132.5
		L536.1,129.4 L538.0,127.0 L539.9,125.2 L541.8,124.0 L543.7,123.3 L545.6,123.0 L547.5,123.2 L549.4,123.8
		L551.2,124.6 L553.1,125.6 L555.0,126.8 L556.9,128.0 L558.8,129.2 L560.7,130.4 L562.6,131.6 L564.5,132.7
		L566.3,133.7 L568.2,134.7 L570.1,135.7 L572.0,136.6 L573.9,137.6 L575.8,138.5 L577.7,139.5 L579.5,140.4
		L581.4,141.4 L583.3,142.5 L585.2,143.5 L587.1,144.6 L589.0,145.7 L590.9,146.8 L592.8,147.8 L594.6,148.9
		L596.5,150.0 L598.4,151.1 L600.3,152.2 L602.2,153.3 L604.1,154.4 L606.0,155.6 L607.9,156.7 L609.7,157.9
		L611.6,159.1 L613.5,160.2 L615.4,161.4 L617.3,162.6 L619.2,163.7 L621.1,164.8 L623.0,165.8 L624.8,166.8
		L626.7,167.8 L628.6,168.6 L630.5,169.5 L632.4,170.2 L634.3,171.0 L636.2,171.8 L638.1,172.5 L639.9,173.4
		L641.8,174.2 L643.7,175.2 L645.6,176.3 L647.5,177.5 L649.4,178.9 L651.3,180.5 L653.1,182.2 L655.0,184.2
		L656.9,186.5 L658.8,188.9 L660.7,191.6 L662.6,194.6 L664.5,197.8 L666.4,201.2 L668.2,204.8 L670.1,208.6
		L672.0,212.5 L673.9,216.5 L675.8,220.7 L677.7,224.9 L679.6,229.1 L681.5,233.3 L683.3,237.4 L685.2,241.6
		L687.1,245.6 L689.0,249.6 L690.9,253.5 L692.8,257.3 L694.7,261.1 L696.6,264.8 L698.4,268.5 L700.3,272.3
		L702.2,276.1 L704.1,279.9 L706.0,283.9 L707.9,287.9 L709.8,292.0 L711.7,296.2 L713.5,300.4 L715.4,304.7
		L717.3,309.0 L719.2,313.4 L721.1,317.6 L723.0,321.8 L724.9,325.9 L726.7,329.9 L728.6,333.7 L730.5,337.3
		L732.4,340.8 L734.3,344.1 L736.2,347.3 L738.1,350.4 L740.0,353.3 L741.8,356.2 L743.7,359.1 L745.6,362.0
		L747.5,365.0 L749.4,368.0 L751.3,371.1 L753.2,374.3 L755.1,377.6 L756.9,380.9 L758.8,384.3 L760.7,387.7
		L762.6,391.1 L764.5,394.5 L766.4,397.7 L768.3,400.8 L770.2,403.8 L772.0,406.5 L773.9,409.1 L775.8,411.4
		L777.7,413.5 L779.6,415.4 L781.5,417.1 L783.4,418.6 L785.3,420.1 L787.1,421.5 L789.0,422.9 L790.9,424.2
		L792.8,425.7 L794.7,427.2 L796.6,428.8 L798.5,430.5 L800.3,432.3 L802.2,434.2 L804.1,436.2 L806.0,438.2
		L807.9,440.3 L809.8,442.3 L811.7,444.4 L813.6,446.4 L815.4,448.4 L817.3,450.2 L819.2,452.1 L821.1,453.8
		L823.0,455.5 L824.9,457.2 L826.8,459.0 L828.7,460.7 L830.5,462.6 L832.4,464.5 L834.3,466.6 L836.2,468.8
		L838.1,471.2 L840.0,473.7 L841.9,476.4 L843.8,479.2 L845.6,482.1 L847.5,485.1 L849.4,488.0 L851.3,491.0
		L853.2,493.9 L855.1,496.8 L857.0,499.5 L858.9,502.1 L860.7,504.6 L862.6,506.9 L864.5,509.0 L866.4,511.0
		L868.3,512.9 L870.2,514.7 L872.1,516.5 L873.9,518.1 L875.8,519.8 L877.7,521.5 L879.6,523.2 L881.5,524.9
		L883.4,526.6 L885.3,528.4 L887.2,530.2 L889.0,532.0 L890.9,533.9 L892.8,535.7 L894.7,537.5 L896.6,539.3
		L898.5,541.1 L900.4,542.8 L902.3,544.4 L904.1,546.0 L906.0,547.6 L907.9,549.2 L909.8,550.8 L911.7,552.4
		L913.6,554.0 L915.5,555.6 L917.4,557.4 L919.2,559.2 L921.1,561.1 L923.0,563.1 L924.9,565.2 L926.8,567.4
		L928.7,569.6 L930.6,572.0 L932.5,574.4 L934.3,576.8 L936.2,579.2 L938.1,581.7 L940.0,584.1 L941.9,586.5
		L943.8,588.9 L945.7,591.2 L947.5,593.4 L949.4,595.6 L951.3,597.8 L953.2,599.8 L955.1,601.8 L957.0,603.7
		L958.9,605.6 L960.8,607.4 L962.6,609.2 L964.5,611.0 L966.4,612.6 L968.3,614.3 L970.2,615.9 L972.1,617.5
		L974.0,619.0 L975.9,620.5 L977.7,621.9 L979.6,623.3 L981.5,624.6 L983.4,625.9 L985.3,627.0 L987.2,628.2
		L989.1,629.2 L991.0,630.3 L992.8,631.2 L994.7,632.1 L996.6,632.9 L998.5,633.7 L1000.4,634.4 L1002.3,635.1
		L1004.2,635.7 L1006.1,636.3 L1007.9,636.8 L1009.8,637.3 L1011.7,637.8 L1013.6,638.3  '/></g>
	</g>
	<g id="gnuplot_plot_2" ><title>Confidence interval</title>
<g fill="none" color="white" stroke="rgb( 31, 120, 180)" stroke-width="1.00" stroke-linecap="butt" stroke-linejoin="miter">
</g>
<g fill="none" color="black" stroke="currentColor" stroke-width="1.00" stroke-linecap="butt" stroke-linejoin="miter">
	<g transform="translate(1089.0,85.0)" stroke="none" fill="black" font-family="Helvetica" font-size="12.00"  text-anchor="start">
		<text><tspan font-family="Helvetica" >Confidence interval</tspan></text>
	</g>
</g>
<g fill="none" color="black" stroke="currentColor" stroke-width="1.00" stroke-linecap="butt" stroke-linejoin="miter">
	<g stroke='none' shape-rendering='crispEdges'>
		<polygon fill = 'rgb( 31, 120, 180)' fill-opacity = '0.250000' points = '1038.5,85.6 1080.7,85.6 1080.7,76.6 1038.5,76.6 '/>
		<polygon fill = 'rgb( 31, 120, 180)' fill-opacity = '0.250000' points = '158.7,599.6 158.7,662.4 160.6,662.4 160.6,598.6 '/>
		<polygon fill = 'rgb( 31, 120, 180)' fill-opacity = '0.250000' points = '160.6,598.6 160.6,662.4 162.5,662.4 162.5,597.6 '/>
		<polygon fill = 'rgb( 31, 120, 180)' fill-opacity = '0.250000' points = '162.5,597.6 162.5,662.4 164.4,662.4 164.4,596.4 '/>
		<polygon fill = 'rgb( 31, 120, 180)' fill-opacity = '0.250000' points = '164.4,596.4 164.4,662.4 166.3,662.4 166.3,595.2 '/>
		<polygon fill = 'rgb( 31, 120, 180)' fill-opacity = '0.250000' points = '166.3,595.2 166.3,662.4 168.1,662.4 168.1,594.0 '/>
		<polygon fill = 'rgb( 31, 120, 180)' fill-opacity = '0.250000' points = '168.1,594.0 168.1,662.4 170.0,662.4 170.0,592.7 '/>
		<polygon fill = 'rgb( 31, 120, 180)' fill-opacity = '0.250000' points = '170.0,592.7 170.0,662.4 171.9,662.4 171.9,591.4 '/>
		<polygon fill = 'rgb( 31, 120, 180)' fill-opacity = '0.250000' points = '171.9,591.4 171.9,662.4 173.8,662.4 173.8,590.2 '/>
		<polygon fill = 'rgb( 31, 120, 180)' fill-opacity = '0.250000' points = '173.8,590.2 173.8,662.4 175.7,662.4 175.7,588.9 '/>
		<polygon fill = 'rgb( 31, 120, 180)' fill-opacity = '0.250000' points = '175.7,588.9 175.7,662.4 177.6,662.4 177.6,587.7 '/>
		<polygon fill = 'rgb( 31, 120, 180)' fill-opacity = '0.250000' points = '177.6,587.7 177.6,662.4 179.5,662.4 179.5,586.6 '/>
		<polygon fill = 'rgb( 31, 120, 180)' fill-opacity = '0.250000' points = '179.5,586.6 179.5,662.4 181.4,662.4 181.4,585.6 '/>
		<polygon fill = 'rgb( 31, 120, 180)' fill-opacity = '0.250000' points = '181.4,585.6 181.4,662.4 183.2,662.4 183.2,584.6 '/>
		<polygon fill = 'rgb( 31, 120, 180)' fill-opacity = '0.250000' points = '183.2,584.6 183.2,662.4 185.1,662.4 185.1,583.7 '/>
		<polygon fill = 'rgb( 31, 120, 180)' fill-opacity = '0.250000' points = '185.1,583.7 185.1,662.4 187.0,662.4 187.0,583.0 '/>
		<polygon fill = 'rgb( 31, 120, 180)' fill-opacity = '0.250000' points = '187.0,583.0 187.0,662.4 188.9,662.4 188.9,582.3 '/>
		<polygon fill = 'rgb( 31, 120, 180)' fill-opacity = '0.250000' points = '188.9,582.3 188.9,662.4 190.8,662.4 190.8,581.8 '/>
		<polygon fill = 'rgb( 31, 120, 180)' fill-opacity = '0.250000' points = '190.8,581.8 190.8,662.4 192.7,662.4 192.7,581.3 '/>
		<polygon fill = 'rgb( 31, 120, 180)' fill-opacity = '0.250000' points = '192.7,581.3 192.7,662.4 194.6,662.4 194.6,580.9 '/>
		<polygon fill = 'rgb( 31, 120, 180)' fill-opacity = '0.250000' points = '194.6,580.9 194.6,662.4 196.5,662.4 196.5,580.6 '/>
		<polygon fill = 'rgb( 31, 120, 180)' fill-opacity = '0.250000' points = '196.5,580.6 196.5,662.4 198.3,662.4 198.3,580.2 '/>
		<polygon fill = 'rgb( 31, 120, 180)' fill-opacity = '0.250000' points = '198.3,580.2 198.3,662.4 200.2,662.4 200.2,579.9 '/>
		<polygon fill = 'rgb( 31, 120, 180)' fill-opacity = '0.250000' points = '200.2,579.9 200.2,662.4 202.1,662.4 202.1,579.6 '/>
		<polygon fill = 'rgb( 31, 120, 180)' fill-opacity = '0.250000' points = '202.1,579.6 202.1,662.4 204.0,662.4 204.0,579.2 '/>
		<polygon fill = 'rgb( 31, 120, 180)' fill-opacity = '0.250000' points = '204.0,579.2 204.0,662.4 205.9,662.4 205.9,578.7 '/>
		<polygon fill = 'rgb( 31, 120, 180)' fill-opacity = '0.250000' points = '205.9,578.7 205.9,662.4 207.8,662.4 207.8,578.1 '/>
		<polygon fill = 'rgb( 31, 120, 180)' fill-opacity = '0.250000' points = '207.8,578.1 207.8,662.4 209.7,662.4 209.7,577.5 '/>
		<polygon fill = 'rgb( 31, 120, 180)' fill-opacity = '0.250000' points = '209.7,577.5 209.7,662.4 211.6,662.4 211.6,576.6 '/>
		<polygon fill = 'rgb( 31, 120, 180)' fill-opacity = '0.250000' points = '211.6,576.6 211.6,662.4 213.4,662.4 213.4,575.6 '/>
		<polygon fill = 'rgb( 31, 120, 180)' fill-opacity = '0.250000' points = '213.4,575.6 213.4,662.4 215.3,662.4 215.3,574.4 '/>
		<polygon fill = 'rgb( 31, 120, 180)' fill-opacity = '0.250000' points = '215.3,574.4 215.3,662.4 217.2,662.4 217.2,573.1 '/>
		<polygon fill = 'rgb( 31, 120, 180)' fill-opacity = '0.250000' points = '217.2,573.1 217.2,662.4 219.1,662.4 219.1,571.6 '/>
		<polygon fill = 'rgb( 31, 120, 180)' fill-opacity = '0.250000' points = '219.1,571.6 219.1,662.4 221.0,662.4 221.0,569.9 '/>
		<polygon fill = 'rgb( 31, 120, 180)' fill-opacity = '0.250000' points = '221.0,569.9 221.0,662.4 222.9,662.4 222.9,568.1 '/>
		<polygon fill = 'rgb( 31, 120, 180)' fill-opacity = '0.250000' points = '222.9,568.1 222.9,662.4 224.8,662.4 224.8,566.1 '/>
		<polygon fill = 'rgb( 31, 120, 180)' fill-opacity = '0.250000' points = '224.8,566.1 224.8,662.4 226.6,662.4 226.6,564.0 '/>
		<polygon fill = 'rgb( 31, 120, 180)' fill-opacity = '0.250000' points = '226.6,564.0 226.6,662.4 228.5,662.4 228.5,561.8 '/>
		<polygon fill = 'rgb( 31, 120, 180)' fill-opacity = '0.250000' points = '228.5,561.8 228.5,662.4 230.4,662.4 230.4,559.5 '/>
		<polygon fill = 'rgb( 31, 120, 180)' fill-opacity = '0.250000' points = '230.4,559.5 230.4,662.4 232.3,662.4 232.3,557.2 '/>
		<polygon fill = 'rgb( 31, 120, 180)' fill-opacity = '0.250000' points = '232.3,557.2 232.3,662.4 234.2,662.4 234.2,554.8 '/>
		<polygon fill = 'rgb( 31, 120, 180)' fill-opacity = '0.250000' points = '234.2,554.8 234.2,662.4 236.1,662.4 236.1,552.4 '/>
		<polygon fill = 'rgb( 31, 120, 180)' fill-opacity = '0.250000' points = '236.1,552.4 236.1,662.4 238.0,662.4 238.0,550.1 '/>
		<polygon fill = 'rgb( 31, 120, 180)' fill-opacity = '0.250000' points = '238.0,550.1 238.0,662.4 239.9,662.4 239.9,547.9 '/>
		<polygon fill = 'rgb( 31, 120, 180)' fill-opacity = '0.250000' points = '239.9,547.9 239.9,662.4 241.7,662.4 241.7,545.8 '/>
		<polygon fill = 'rgb( 31, 120, 180)' fill-opacity = '0.250000' points = '241.7,545.8 241.7,662.4 243.6,662.4 243.6,543.7 '/>
		<polygon fill = 'rgb( 31, 120, 180)' fill-opacity = '0.250000' points = '243.6,543.7 243.6,662.4 245.5,662.4 245.5,541.8 '/>
		<polygon fill = 'rgb( 31, 120, 180)' fill-opacity = '0.250000' points = '245.5,541.8 245.5,662.4 247.4,662.4 247.4,540.1 '/>
		<polygon fill = 'rgb( 31, 120, 180)' fill-opacity = '0.250000' points = '247.4,540.1 247.4,662.4 249.3,662.4 249.3,538.5 '/>
		<polygon fill = 'rgb( 31, 120, 180)' fill-opacity = '0.250000' points = '249.3,538.5 249.3,662.4 251.2,662.4 251.2,537.1 '/>
		<polygon fill = 'rgb( 31, 120, 180)' fill-opacity = '0.250000' points = '251.2,537.1 251.2,662.4 253.1,662.4 253.1,535.8 '/>
		<polygon fill = 'rgb( 31, 120, 180)' fill-opacity = '0.250000' points = '253.1,535.8 253.1,662.4 255.0,662.4 255.0,534.7 '/>
		<polygon fill = 'rgb( 31, 120, 180)' fill-opacity = '0.250000' points = '255.0,534.7 255.0,662.4 256.8,662.4 256.8,533.7 '/>
		<polygon fill = 'rgb( 31, 120, 180)' fill-opacity = '0.250000' points = '256.8,533.7 256.8,662.4 258.7,662.4 258.7,532.7 '/>
		<polygon fill = 'rgb( 31, 120, 180)' fill-opacity = '0.250000' points = '258.7,532.7 258.7,662.4 260.6,662.4 260.6,531.8 '/>
		<polygon fill = 'rgb( 31, 120, 180)' fill-opacity = '0.250000' points = '260.6,531.8 260.6,662.4 262.5,662.4 262.5,531.0 '/>
		<polygon fill = 'rgb( 31, 120, 180)' fill-opacity = '0.250000' points = '262.5,531.0 262.5,662.4 264.4,662.4 264.4,530.1 '/>
		<polygon fill = 'rgb( 31, 120, 180)' fill-opacity = '0.250000' points = '264.4,530.1 264.4,662.4 266.3,662.4 266.3,529.2 '/>
		<polygon fill = 'rgb( 31, 120, 180)' fill-opacity = '0.250000' points = '266.3,529.2 266.3,662.4 268.2,662.4 268.2,528.2 '/>
		<polygon fill = 'rgb( 31, 120, 180)' fill-opacity = '0.250000' points = '268.2,528.2 268.2,662.4 270.1,662.4 270.1,527.1 '/>
		<polygon fill = 'rgb( 31, 120, 180)' fill-opacity = '0.250000' points = '270.1,527.1 270.1,662.4 271.9,662.4 271.9,525.9 '/>
		<polygon fill = 'rgb( 31, 120, 180)' fill-opacity = '0.250000' points = '271.9,525.9 271.9,662.4 273.8,662.4 273.8,524.5 '/>
		<polygon fill = 'rgb( 31, 120, 180)' fill-opacity = '0.250000' points = '273.8,524.5 273.8,662.4 275.7,662.4 275.7,523.0 '/>
		<polygon fill = 'rgb( 31, 120, 180)' fill-opacity = '0.250000' points = '275.7,523.0 275.7,662.4 277.6,662.4 277.6,521.3 '/>
		<polygon fill = 'rgb( 31, 120, 180)' fill-opacity = '0.250000' points = '277.6,521.3 277.6,662.4 279.5,662.4 279.5,519.5 '/>
		<polygon fill = 'rgb( 31, 120, 180)' fill-opacity = '0.250000' points = '279.5,519.5 279.5,662.4 281.4,662.4 281.4,517.6 '/>
		<polygon fill = 'rgb( 31, 120, 180)' fill-opacity = '0.250000' points = '281.4,517.6 281.4,662.4 283.3,662.4 283.3,515.5 '/>
		<polygon fill = 'rgb( 31, 120, 180)' fill-opacity = '0.250000' points = '283.3,515.5 283.3,662.4 285.2,662.4 285.2,513.4 '/>
		<polygon fill = 'rgb( 31, 120, 180)' fill-opacity = '0.250000' points = '285.2,513.4 285.2,662.4 287.0,662.4 287.0,511.3 '/>
		<polygon fill = 'rgb( 31, 120, 180)' fill-opacity = '0.250000' points = '287.0,511.3 287.0,662.4 288.9,662.4 288.9,509.2 '/>
		<polygon fill = 'rgb( 31, 120, 180)' fill-opacity = '0.250000' points = '288.9,509.2 288.9,662.4 290.8,662.4 290.8,507.1 '/>
		<polygon fill = 'rgb( 31, 120, 180)' fill-opacity = '0.250000' points = '290.8,507.1 290.8,662.4 292.7,662.4 292.7,505.2 '/>
		<polygon fill = 'rgb( 31, 120, 180)' fill-opacity = '0.250000' points = '292.7,505.2 292.7,662.4 294.6,662.4 294.6,503.3 '/>
		<polygon fill = 'rgb( 31, 120, 180)' fill-opacity = '0.250000' points = '294.6,503.3 294.6,662.4 296.5,662.4 296.5,501.6 '/>
		<polygon fill = 'rgb( 31, 120, 180)' fill-opacity = '0.250000' points = '296.5,501.6 296.5,662.4 298.4,662.4 298.4,500.0 '/>
		<polygon fill = 'rgb( 31, 120, 180)' fill-opacity = '0.250000' points = '298.4,500.0 298.4,662.4 300.2,662.4 300.2,498.6 '/>
		<polygon fill = 'rgb( 31, 120, 180)' fill-opacity = '0.250000' points = '300.2,498.6 300.2,662.4 302.1,662.4 302.1,497.4 '/>
		<polygon fill = 'rgb( 31, 120, 180)' fill-opacity = '0.250000' points = '302.1,497.4 302.1,662.4 304.0,662.4 304.0,496.3 '/>
		<polygon fill = 'rgb( 31, 120, 180)' fill-opacity = '0.250000' points = '304.0,496.3 304.0,662.4 305.9,662.4 305.9,495.3 '/>
		<polygon fill = 'rgb( 31, 120, 180)' fill-opacity = '0.250000' points = '305.9,495.3 305.9,662.4 307.8,662.4 307.8,494.5 '/>
		<polygon fill = 'rgb( 31, 120, 180)' fill-opacity = '0.250000' points = '307.8,494.5 307.8,662.4 309.7,662.4 309.7,493.7 '/>
		<polygon fill = 'rgb( 31, 120, 180)' fill-opacity = '0.250000' points = '309.7,493.7 309.7,662.4 311.6,662.4 311.6,492.9 '/>
		<polygon fill = 'rgb( 31, 120, 180)' fill-opacity = '0.250000' points = '311.6,492.9 311.6,662.4 313.5,662.4 313.5,492.1 '/>
		<polygon fill = 'rgb( 31, 120, 180)' fill-opacity = '0.250000' points = '313.5,492.1 313.5,662.4 315.3,662.4 315.3,491.3 '/>
		<polygon fill = 'rgb( 31, 120, 180)' fill-opacity = '0.250000' points = '315.3,491.3 315.3,662.4 317.2,662.4 317.2,490.4 '/>
		<polygon fill = 'rgb( 31, 120, 180)' fill-opacity = '0.250000' points = '317.2,490.4 317.2,662.4 319.1,662.4 319.1,489.3 '/>
		<polygon fill = 'rgb( 31, 120, 180)' fill-opacity = '0.250000' points = '319.1,489.3 319.1,662.4 321.0,662.4 321.0,488.1 '/>
		<polygon fill = 'rgb( 31, 120, 180)' fill-opacity = '0.250000' points = '321.0,488.1 321.0,662.4 322.9,662.4 322.9,486.7 '/>
		<polygon fill = 'rgb( 31, 120, 180)' fill-opacity = '0.250000' points = '322.9,486.7 322.9,662.4 324.8,662.4 324.8,485.1 '/>
		<polygon fill = 'rgb( 31, 120, 180)' fill-opacity = '0.250000' points = '324.8,485.1 324.8,662.4 326.7,662.4 326.7,483.3 '/>
		<polygon fill = 'rgb( 31, 120, 180)' fill-opacity = '0.250000' points = '326.7,483.3 326.7,662.4 328.6,662.4 328.6,481.3 '/>
		<polygon fill = 'rgb( 31, 120, 180)' fill-opacity = '0.250000' points = '328.6,481.3 328.6,662.4 330.4,662.4 330.4,479.1 '/>
		<polygon fill = 'rgb( 31, 120, 180)' fill-opacity = '0.250000' points = '330.4,479.1 330.4,662.4 332.3,662.4 332.3,476.8 '/>
		<polygon fill = 'rgb( 31, 120, 180)' fill-opacity = '0.250000' points = '332.3,476.8 332.3,662.4 334.2,662.4 334.2,474.4 '/>
		<polygon fill = 'rgb( 31, 120, 180)' fill-opacity = '0.250000' points = '334.2,474.4 334.2,662.4 336.1,662.4 336.1,471.8 '/>
		<polygon fill = 'rgb( 31, 120, 180)' fill-opacity = '0.250000' points = '336.1,471.8 336.1,662.4 338.0,662.4 338.0,469.3 '/>
		<polygon fill = 'rgb( 31, 120, 180)' fill-opacity = '0.250000' points = '338.0,469.3 338.0,662.4 339.9,662.4 339.9,466.7 '/>
		<polygon fill = 'rgb( 31, 120, 180)' fill-opacity = '0.250000' points = '339.9,466.7 339.9,662.4 341.8,662.4 341.8,464.2 '/>
		<polygon fill = 'rgb( 31, 120, 180)' fill-opacity = '0.250000' points = '341.8,464.2 341.8,662.4 343.7,662.4 343.7,461.7 '/>
		<polygon fill = 'rgb( 31, 120, 180)' fill-opacity = '0.250000' points = '343.7,461.7 343.7,662.4 345.5,662.4 345.5,459.4 '/>
		<polygon fill = 'rgb( 31, 120, 180)' fill-opacity = '0.250000' points = '345.5,459.4 345.5,662.4 347.4,662.4 347.4,457.3 '/>
		<polygon fill = 'rgb( 31, 120, 180)' fill-opacity = '0.250000' points = '347.4,457.3 347.4,662.4 349.3,662.4 349.3,455.3 '/>
		<polygon fill = 'rgb( 31, 120, 180)' fill-opacity = '0.250000' points = '349.3,455.3 349.3,662.4 351.2,662.4 351.2,453.5 '/>
		<polygon fill = 'rgb( 31, 120, 180)' fill-opacity = '0.250000' points = '351.2,453.5 351.2,662.4 353.1,662.4 353.1,452.0 '/>
		<polygon fill = 'rgb( 31, 120, 180)' fill-opacity = '0.250000' points = '353.1,452.0 353.1,662.4 355.0,662.4 355.0,450.7 '/>
		<polygon fill = 'rgb( 31, 120, 180)' fill-opacity = '0.250000' points = '355.0,450.7 355.0,662.4 356.9,662.4 356.9,449.5 '/>
		<polygon fill = 'rgb( 31, 120, 180)' fill-opacity = '0.250000' points = '356.9,449.5 356.9,662.4 358.8,662.4 358.8,448.6 '/>
		<polygon fill = 'rgb( 31, 120, 180)' fill-opacity = '0.250000' points = '358.8,448.6 358.8,662.4 360.6,662.4 360.6,447.8 '/>
		<polygon fill = 'rgb( 31, 120, 180)' fill-opacity = '0.250000' points = '360.6,447.8 360.6,662.4 362.5,662.4 362.5,447.1 '/>
		<polygon fill = 'rgb( 31, 120, 180)' fill-opacity = '0.250000' points = '362.5,447.1 362.5,662.4 364.4,662.4 364.4,446.6 '/>
		<polygon fill = 'rgb( 31, 120, 180)' fill-opacity = '0.250000' points = '364.4,446.6 364.4,662.4 366.3,662.4 366.3,446.0 '/>
		<polygon fill = 'rgb( 31, 120, 180)' fill-opacity = '0.250000' points = '366.3,446.0 366.3,662.4 368.2,662.4 368.2,445.5 '/>
		<polygon fill = 'rgb( 31, 120, 180)' fill-opacity = '0.250000' points = '368.2,445.5 368.2,662.4 370.1,662.4 370.1,444.9 '/>
		<polygon fill = 'rgb( 31, 120, 180)' fill-opacity = '0.250000' points = '370.1,444.9 370.1,662.4 372.0,662.4 372.0,444.3 '/>
		<polygon fill = 'rgb( 31, 120, 180)' fill-opacity = '0.250000' points = '372.0,444.3 372.0,662.4 373.8,662.4 373.8,443.5 '/>
		<polygon fill = 'rgb( 31, 120, 180)' fill-opacity = '0.250000' points = '373.8,443.5 373.8,662.4 375.7,662.4 375.7,442.5 '/>
		<polygon fill = 'rgb( 31, 120, 180)' fill-opacity = '0.250000' points = '375.7,442.5 375.7,662.4 377.6,662.4 377.6,441.3 '/>
		<polygon fill = 'rgb( 31, 120, 180)' fill-opacity = '0.250000' points = '377.6,441.3 377.6,662.4 379.5,662.4 379.5,439.9 '/>
		<polygon fill = 'rgb( 31, 120, 180)' fill-opacity = '0.250000' points = '379.5,439.9 379.5,662.4 381.4,662.4 381.4,438.3 '/>
		<polygon fill = 'rgb( 31, 120, 180)' fill-opacity = '0.250000' points = '381.4,438.3 381.4,662.4 383.3,662.4 383.3,436.5 '/>
		<polygon fill = 'rgb( 31, 120, 180)' fill-opacity = '0.250000' points = '383.3,436.5 383.3,662.4 385.2,662.4 385.2,434.4 '/>
		<polygon fill = 'rgb( 31, 120, 180)' fill-opacity = '0.250000' points = '385.2,434.4 385.2,662.4 387.1,662.4 387.1,432.2 '/>
		<polygon fill = 'rgb( 31, 120, 180)' fill-opacity = '0.250000' points = '387.1,432.2 387.1,662.4 388.9,662.4 388.9,429.8 '/>
		<polygon fill = 'rgb( 31, 120, 180)' fill-opacity = '0.250000' points = '388.9,429.8 388.9,662.4 390.8,662.4 390.8,427.2 '/>
		<polygon fill = 'rgb( 31, 120, 180)' fill-opacity = '0.250000' points = '390.8,427.2 390.8,662.4 392.7,662.4 392.7,424.6 '/>
		<polygon fill = 'rgb( 31, 120, 180)' fill-opacity = '0.250000' points = '392.7,424.6 392.7,662.4 394.6,662.4 394.6,421.9 '/>
		<polygon fill = 'rgb( 31, 120, 180)' fill-opacity = '0.250000' points = '394.6,421.9 394.6,662.4 396.5,662.4 396.5,419.3 '/>
		<polygon fill = 'rgb( 31, 120, 180)' fill-opacity = '0.250000' points = '396.5,419.3 396.5,662.4 398.4,662.4 398.4,416.7 '/>
		<polygon fill = 'rgb( 31, 120, 180)' fill-opacity = '0.250000' points = '398.4,416.7 398.4,662.4 400.3,662.4 400.3,414.2 '/>
		<polygon fill = 'rgb( 31, 120, 180)' fill-opacity = '0.250000' points = '400.3,414.2 400.3,662.4 402.2,662.4 402.2,411.9 '/>
		<polygon fill = 'rgb( 31, 120, 180)' fill-opacity = '0.250000' points = '402.2,411.9 402.2,662.4 404.0,662.4 404.0,409.7 '/>
		<polygon fill = 'rgb( 31, 120, 180)' fill-opacity = '0.250000' points = '404.0,409.7 404.0,662.4 405.9,662.4 405.9,407.8 '/>
		<polygon fill = 'rgb( 31, 120, 180)' fill-opacity = '0.250000' points = '405.9,407.8 405.9,662.4 407.8,662.4 407.8,406.1 '/>
		<polygon fill = 'rgb( 31, 120, 180)' fill-opacity = '0.250000' points = '407.8,406.1 407.8,662.4 409.7,662.4 409.7,404.6 '/>
		<polygon fill = 'rgb( 31, 120, 180)' fill-opacity = '0.250000' points = '409.7,404.6 409.7,662.4 411.6,662.4 411.6,403.4 '/>
		<polygon fill = 'rgb( 31, 120, 180)' fill-opacity = '0.250000' points = '411.6,403.4 411.6,662.4 413.5,662.4 413.5,402.5 '/>
		<polygon fill = 'rgb( 31, 120, 180)' fill-opacity = '0.250000' points = '413.5,402.5 413.5,662.4 415.4,662.4 415.4,401.8 '/>
		<polygon fill = 'rgb( 31, 120, 180)' fill-opacity = '0.250000' points = '415.4,401.8 415.4,662.4 417.3,662.4 417.3,401.3 '/>
		<polygon fill = 'rgb( 31, 120, 180)' fill-opacity = '0.250000' points = '417.3,401.3 417.3,662.4 419.1,662.4 419.1,400.9 '/>
		<polygon fill = 'rgb( 31, 120, 180)' fill-opacity = '0.250000' points = '419.1,400.9 419.1,662.4 421.0,662.4 421.0,400.7 '/>
		<polygon fill = 'rgb( 31, 120, 180)' fill-opacity = '0.250000' points = '421.0,400.7 421.0,662.4 422.9,662.4 422.9,400.6 '/>
		<polygon fill = 'rgb( 31, 120, 180)' fill-opacity = '0.250000' points = '422.9,400.6 422.9,662.4 424.8,662.4 424.8,400.4 '/>
		<polygon fill = 'rgb( 31, 120, 180)' fill-opacity = '0.250000' points = '424.8,400.4 424.8,662.4 426.7,662.4 426.7,400.3 '/>
		<polygon fill = 'rgb( 31, 120, 180)' fill-opacity = '0.250000' points = '426.7,400.3 426.7,662.4 428.6,662.4 428.6,400.1 '/>
		<polygon fill = 'rgb( 31, 120, 180)' fill-opacity = '0.250000' points = '428.6,400.1 428.6,662.4 430.5,662.4 430.5,399.7 '/>
		<polygon fill = 'rgb( 31, 120, 180)' fill-opacity = '0.250000' points = '430.5,399.7 430.5,662.4 432.4,662.4 432.4,399.2 '/>
		<polygon fill = 'rgb( 31, 120, 180)' fill-opacity = '0.250000' points = '432.4,399.2 432.4,662.4 434.2,662.4 434.2,398.5 '/>
		<polygon fill = 'rgb( 31, 120, 180)' fill-opacity = '0.250000' points = '434.2,398.5 434.2,662.4 436.1,662.4 436.1,397.5 '/>
		<polygon fill = 'rgb( 31, 120, 180)' fill-opacity = '0.250000' points = '436.1,397.5 436.1,662.4 438.0,662.4 438.0,396.2 '/>
		<polygon fill = 'rgb( 31, 120, 180)' fill-opacity = '0.250000' points = '438.0,396.2 438.0,662.4 439.9,662.4 439.9,394.7 '/>
		<polygon fill = 'rgb( 31, 120, 180)' fill-opacity = '0.250000' points = '439.9,394.7 439.9,662.4 441.8,662.4 441.8,392.8 '/>
		<polygon fill = 'rgb( 31, 120, 180)' fill-opacity = '0.250000' points = '441.8,392.8 441.8,662.4 443.7,662.4 443.7,390.6 '/>
		<polygon fill = 'rgb( 31, 120, 180)' fill-opacity = '0.250000' points = '443.7,390.6 443.7,662.4 445.6,662.4 445.6,388.1 '/>
		<polygon fill = 'rgb( 31, 120, 180)' fill-opacity = '0.250000' points = '445.6,388.1 445.6,662.4 447.4,662.4 447.4,385.3 '/>
		<polygon fill = 'rgb( 31, 120, 180)' fill-opacity = '0.250000' points = '447.4,385.3 447.4,662.4 449.3,662.4 449.3,382.2 '/>
		<polygon fill = 'rgb( 31, 120, 180)' fill-opacity = '0.250000' points = '449.3,382.2 449.3,662.4 451.2,662.4 451.2,378.8 '/>
		<polygon fill = 'rgb( 31, 120, 180)' fill-opacity = '0.250000' points = '451.2,378.8 451.2,662.4 453.1,662.4 453.1,375.1 '/>
		<polygon fill = 'rgb( 31, 120, 180)' fill-opacity = '0.250000' points = '453.1,375.1 453.1,662.4 455.0,662.4 455.0,371.2 '/>
		<polygon fill = 'rgb( 31, 120, 180)' fill-opacity = '0.250000' points = '455.0,371.2 455.0,662.4 456.9,662.4 456.9,367.1 '/>
		<polygon fill = 'rgb( 31, 120, 180)' fill-opacity = '0.250000' points = '456.9,367.1 456.9,662.4 458.8,662.4 458.8,362.9 '/>
		<polygon fill = 'rgb( 31, 120, 180)' fill-opacity = '0.250000' points = '458.8,362.9 458.8,662.4 460.7,662.4 460.7,358.5 '/>
		<polygon fill = 'rgb( 31, 120, 180)' fill-opacity = '0.250000' points = '460.7,358.5 460.7,662.4 462.5,662.4 462.5,354.0 '/>
		<polygon fill = 'rgb( 31, 120, 180)' fill-opacity = '0.250000' points = '462.5,354.0 462.5,662.4 464.4,662.4 464.4,349.4 '/>
		<polygon fill = 'rgb( 31, 120, 180)' fill-opacity = '0.250000' points = '464.4,349.4 464.4,662.4 466.3,662.4 466.3,344.8 '/>
		<polygon fill = 'rgb( 31, 120, 180)' fill-opacity = '0.250000' points = '466.3,344.8 466.3,662.4 468.2,662.4 468.2,340.2 '/>
		<polygon fill = 'rgb( 31, 120, 180)' fill-opacity = '0.250000' points = '468.2,340.2 468.2,662.4 470.1,662.4 470.1,335.5 '/>
		<polygon fill = 'rgb( 31, 120, 180)' fill-opacity = '0.250000' points = '470.1,335.5 470.1,662.4 472.0,662.4 472.0,330.8 '/>
		<polygon fill = 'rgb( 31, 120, 180)' fill-opacity = '0.250000' points = '472.0,330.8 472.0,662.4 473.9,662.4 473.9,326.1 '/>
		<polygon fill = 'rgb( 31, 120, 180)' fill-opacity = '0.250000' points = '473.9,326.1 473.9,662.4 475.8,662.4 475.8,321.4 '/>
		<polygon fill = 'rgb( 31, 120, 180)' fill-opacity = '0.250000' points = '475.8,321.4 475.8,662.4 477.6,662.4 477.6,316.6 '/>
		<polygon fill = 'rgb( 31, 120, 180)' fill-opacity = '0.250000' points = '477.6,316.6 477.6,662.4 479.5,662.4 479.5,311.8 '/>
		<polygon fill = 'rgb( 31, 120, 180)' fill-opacity = '0.250000' points = '479.5,311.8 479.5,662.4 481.4,662.4 481.4,306.8 '/>
		<polygon fill = 'rgb( 31, 120, 180)' fill-opacity = '0.250000' points = '481.4,306.8 481.4,662.4 483.3,662.4 483.3,301.7 '/>
		<polygon fill = 'rgb( 31, 120, 180)' fill-opacity = '0.250000' points = '483.3,301.7 483.3,662.4 485.2,662.4 485.2,296.5 '/>
		<polygon fill = 'rgb( 31, 120, 180)' fill-opacity = '0.250000' points = '485.2,296.5 485.2,662.4 487.1,662.4 487.1,291.1 '/>
		<polygon fill = 'rgb( 31, 120, 180)' fill-opacity = '0.250000' points = '487.1,291.1 487.1,662.4 489.0,662.4 489.0,285.5 '/>
		<polygon fill = 'rgb( 31, 120, 180)' fill-opacity = '0.250000' points = '489.0,285.5 489.0,662.4 490.9,662.4 490.9,279.7 '/>
		<polygon fill = 'rgb( 31, 120, 180)' fill-opacity = '0.250000' points = '490.9,279.7 490.9,662.4 492.7,662.4 492.7,273.7 '/>
		<polygon fill = 'rgb( 31, 120, 180)' fill-opacity = '0.250000' points = '492.7,273.7 492.7,662.4 494.6,662.4 494.6,267.5 '/>
		<polygon fill = 'rgb( 31, 120, 180)' fill-opacity = '0.250000' points = '494.6,267.5 494.6,662.4 496.5,662.4 496.5,261.1 '/>
		<polygon fill = 'rgb( 31, 120, 180)' fill-opacity = '0.250000' points = '496.5,261.1 496.5,662.4 498.4,662.4 498.4,254.4 '/>
		<polygon fill = 'rgb( 31, 120, 180)' fill-opacity = '0.250000' points = '498.4,254.4 498.4,662.4 500.3,662.4 500.3,247.6 '/>
		<polygon fill = 'rgb( 31, 120, 180)' fill-opacity = '0.250000' points = '500.3,247.6 500.3,662.4 502.2,662.4 502.2,240.6 '/>
		<polygon fill = 'rgb( 31, 120, 180)' fill-opacity = '0.250000' points = '502.2,240.6 502.2,662.4 504.1,662.4 504.1,233.5 '/>
		<polygon fill = 'rgb( 31, 120, 180)' fill-opacity = '0.250000' points = '504.1,233.5 504.1,662.4 506.0,662.4 506.0,226.3 '/>
		<polygon fill = 'rgb( 31, 120, 180)' fill-opacity = '0.250000' points = '506.0,226.3 506.0,662.4 507.8,662.4 507.8,219.0 '/>
		<polygon fill = 'rgb( 31, 120, 180)' fill-opacity = '0.250000' points = '507.8,219.0 507.8,662.4 509.7,662.4 509.7,211.7 '/>
		<polygon fill = 'rgb( 31, 120, 180)' fill-opacity = '0.250000' points = '509.7,211.7 509.7,662.4 511.6,662.4 511.6,204.3 '/>
		<polygon fill = 'rgb( 31, 120, 180)' fill-opacity = '0.250000' points = '511.6,204.3 511.6,662.4 513.5,662.4 513.5,197.0 '/>
		<polygon fill = 'rgb( 31, 120, 180)' fill-opacity = '0.250000' points = '513.5,197.0 513.5,662.4 515.4,662.4 515.4,189.7 '/>
		<polygon fill = 'rgb( 31, 120, 180)' fill-opacity = '0.250000' points = '515.4,189.7 515.4,662.4 517.3,662.4 517.3,182.6 '/>
		<polygon fill = 'rgb( 31, 120, 180)' fill-opacity = '0.250000' points = '517.3,182.6 517.3,662.4 519.2,662.4 519.2,175.6 '/>
		<polygon fill = 'rgb( 31, 120, 180)' fill-opacity = '0.250000' points = '519.2,175.6 519.2,662.4 521.0,662.4 521.0,168.8 '/>
		<polygon fill = 'rgb( 31, 120, 180)' fill-opacity = '0.250000' points = '521.0,168.8 521.0,662.4 522.9,662.4 522.9,162.4 '/>
		<polygon fill = 'rgb( 31, 120, 180)' fill-opacity = '0.250000' points = '522.9,162.4 522.9,662.4 524.8,662.4 524.8,156.2 '/>
		<polygon fill = 'rgb( 31, 120, 180)' fill-opacity = '0.250000' points = '524.8,156.2 524.8,662.4 526.7,662.4 526.7,150.4 '/>
		<polygon fill = 'rgb( 31, 120, 180)' fill-opacity = '0.250000' points = '526.7,150.4 526.7,662.4 528.6,662.4 528.6,145.1 '/>
		<polygon fill = 'rgb( 31, 120, 180)' fill-opacity = '0.250000' points = '528.6,145.1 528.6,662.4 530.5,662.4 530.5,140.4 '/>
		<polygon fill = 'rgb( 31, 120, 180)' fill-opacity = '0.250000' points = '530.5,140.4 530.5,662.4 532.4,662.4 532.4,136.1 '/>
		<polygon fill = 'rgb( 31, 120, 180)' fill-opacity = '0.250000' points = '532.4,136.1 532.4,662.4 534.3,662.4 534.3,132.5 '/>
		<polygon fill = 'rgb( 31, 120, 180)' fill-opacity = '0.250000' points = '534.3,132.5 534.3,662.4 536.1,662.4 536.1,129.4 '/>
		<polygon fill = 'rgb( 31, 120, 180)' fill-opacity = '0.250000' points = '536.1,129.4 536.1,662.4 538.0,662.4 538.0,127.0 '/>
		<polygon fill = 'rgb( 31, 120, 180)' fill-opacity = '0.250000' points = '538.0,127.0 538.0,662.4 539.9,662.4 539.9,125.2 '/>
		<polygon fill = 'rgb( 31, 120, 180)' fill-opacity = '0.250000' points = '539.9,125.2 539.9,662.4 541.8,662.4 541.8,124.0 '/>
		<polygon fill = 'rgb( 31, 120, 180)' fill-opacity = '0.250000' points = '541.8,124.0 541.8,662.4 543.7,662.4 543.7,123.3 '/>
		<polygon fill = 'rgb( 31, 120, 180)' fill-opacity = '0.250000' points = '543.7,123.3 543.7,662.4 545.6,662.4 545.6,123.0 '/>
		<polygon fill = 'rgb( 31, 120, 180)' fill-opacity = '0.250000' points = '545.6,123.0 545.6,662.4 547.5,662.4 547.5,123.2 '/>
		<polygon fill = 'rgb( 31, 120, 180)' fill-opacity = '0.250000' points = '547.5,123.2 547.5,662.4 549.4,662.4 549.4,123.8 '/>
		<polygon fill = 'rgb( 31, 120, 180)' fill-opacity = '0.250000' points = '549.4,123.8 549.4,662.4 551.2,662.4 551.2,124.6 '/>
		<polygon fill = 'rgb( 31, 120, 180)' fill-opacity = '0.250000' points = '551.2,124.6 551.2,662.4 553.1,662.4 553.1,125.6 '/>
		<polygon fill = 'rgb( 31, 120, 180)' fill-opacity = '0.250000' points = '553.1,125.6 553.1,662.4 555.0,662.4 555.0,126.8 '/>
		<polygon fill = 'rgb( 31, 120, 180)' fill-opacity = '0.250000' points = '555.0,126.8 555.0,662.4 556.9,662.4 556.9,128.0 '/>
		<polygon fill = 'rgb( 31, 120, 180)' fill-opacity = '0.250000' points = '556.9,128.0 556.9,662.4 558.8,662.4 558.8,129.2 '/>
		<polygon fill = 'rgb( 31, 120, 180)' fill-opacity = '0.250000' points = '558.8,129.2 558.8,662.4 560.7,662.4 560.7,130.4 '/>
		<polygon fill = 'rgb( 31, 120, 180)' fill-opacity = '0.250000' points = '560.7,130.4 560.7,662.4 562.6,662.4 562.6,131.6 '/>
		<polygon fill = 'rgb( 31, 120, 180)' fill-opacity = '0.250000' points = '562.6,131.6 562.6,662.4 564.5,662.4 564.5,132.7 '/>
		<polygon fill = 'rgb( 31, 120, 180)' fill-opacity = '0.250000' points = '564.5,132.7 564.5,662.4 566.3,662.4 566.3,133.7 '/>
		<polygon fill = 'rgb( 31, 120, 180)' fill-opacity = '0.250000' points = '566.3,133.7 566.3,662.4 568.2,662.4 568.2,134.7 '/>
		<polygon fill = 'rgb( 31, 120, 180)' fill-opacity = '0.250000' points = '568.2,134.7 568.2,662.4 570.1,662.4 570.1,135.7 '/>
		<polygon fill = 'rgb( 31, 120, 180)' fill-opacity = '0.250000' points = '570.1,135.7 570.1,662.4 572.0,662.4 572.0,136.6 '/>
		<polygon fill = 'rgb( 31, 120, 180)' fill-opacity = '0.250000' points = '572.0,136.6 572.0,662.4 573.9,662.4 573.9,137.6 '/>
		<polygon fill = 'rgb( 31, 120, 180)' fill-opacity = '0.250000' points = '573.9,137.6 573.9,662.4 575.8,662.4 575.8,138.5 '/>
		<polygon fill = 'rgb( 31, 120, 180)' fill-opacity = '0.250000' points = '575.8,138.5 575.8,662.4 577.7,662.4 577.7,139.5 '/>
		<polygon fill = 'rgb( 31, 120, 180)' fill-opacity = '0.250000' points = '577.7,139.5 577.7,662.4 579.5,662.4 579.5,140.4 '/>
		<polygon fill = 'rgb( 31, 120, 180)' fill-opacity = '0.250000' points = '579.5,140.4 579.5,662.4 581.4,662.4 581.4,141.4 '/>
		<polygon fill = 'rgb( 31, 120, 180)' fill-opacity = '0.250000' points = '581.4,141.4 581.4,662.4 583.3,662.4 583.3,142.5 '/>
		<polygon fill = 'rgb( 31, 120, 180)' fill-opacity = '0.250000' points = '583.3,142.5 583.3,662.4 585.2,662.4 585.2,143.5 '/>
		<polygon fill = 'rgb( 31, 120, 180)' fill-opacity = '0.250000' points = '585.2,143.5 585.2,662.4 587.1,662.4 587.1,144.6 '/>
		<polygon fill = 'rgb( 31, 120, 180)' fill-opacity = '0.250000' points = '587.1,144.6 587.1,662.4 589.0,662.4 589.0,145.7 '/>
		<polygon fill = 'rgb( 31, 120, 180)' fill-opacity = '0.250000' points = '589.0,145.7 589.0,662.4 590.9,662.4 590.9,146.8 '/>
		<polygon fill = 'rgb( 31, 120, 180)' fill-opacity = '0.250000' points = '590.9,146.8 590.9,662.4 592.8,662.4 592.8,147.8 '/>
		<polygon fill = 'rgb( 31, 120, 180)' fill-opacity = '0.250000' points = '592.8,147.8 592.8,662.4 594.6,662.4 594.6,148.9 '/>
		<polygon fill = 'rgb( 31, 120, 180)' fill-opacity = '0.250000' points = '594.6,148.9 594.6,662.4 596.5,662.4 596.5,150.0 '/>
		<polygon fill = 'rgb( 31, 120, 180)' fill-opacity = '0.250000' points = '596.5,150.0 596.5,662.4 598.4,662.4 598.4,151.1 '/>
		<polygon fill = 'rgb( 31, 120, 180)' fill-opacity = '0.250000' points = '598.4,151.1 598.4,662.4 600.3,662.4 600.3,152.2 '/>
		<polygon fill = 'rgb( 31, 120, 180)' fill-opacity = '0.250000' points = '600.3,152.2 600.3,662.4 602.2,662.4 602.2,153.3 '/>
		<polygon fill = 'rgb( 31, 120, 180)' fill-opacity = '0.250000' points = '602.2,153.3 602.2,662.4 604.1,662.4 604.1,154.4 '/>
		<polygon fill = 'rgb( 31, 120, 180)' fill-opacity = '0.250000' points = '604.1,154.4 604.1,662.4 606.0,662.4 606.0,155.6 '/>
		<polygon fill = 'rgb( 31, 120, 180)' fill-opacity = '0.250000' points = '606.0,155.6 606.0,662.4 607.9,662.4 607.9,156.7 '/>
		<polygon fill = 'rgb( 31, 120, 180)' fill-opacity = '0.250000' points = '607.9,156.7 607.9,662.4 609.7,662.4 609.7,157.9 '/>
		<polygon fill = 'rgb( 31, 120, 180)' fill-opacity = '0.250000' points = '609.7,157.9 609.7,662.4 611.6,662.4 611.6,159.1 '/>
		<polygon fill = 'rgb( 31, 120, 180)' fill-opacity = '0.250000' points = '611.6,159.1 611.6,662.4 613.5,662.4 613.5,160.2 '/>
		<polygon fill = 'rgb( 31, 120, 180)' fill-opacity = '0.250000' points = '613.5,160.2 613.5,662.4 615.4,662.4 615.4,161.4 '/>
		<polygon fill = 'rgb( 31, 120, 180)' fill-opacity = '0.250000' points = '615.4,161.4 615.4,662.4 617.3,662.4 617.3,162.6 '/>
		<polygon fill = 'rgb( 31, 120, 180)' fill-opacity = '0.250000' points = '617.3,162.6 617.3,662.4 619.2,662.4 619.2,163.7 '/>
		<polygon fill = 'rgb( 31, 120, 180)' fill-opacity = '0.250000' points = '619.2,163.7 619.2,662.4 621.1,662.4 621.1,164.8 '/>
		<polygon fill = 'rgb( 31, 120, 180)' fill-opacity = '0.250000' points = '621.1,164.8 621.1,662.4 623.0,662.4 623.0,165.8 '/>
		<polygon fill = 'rgb( 31, 120, 180)' fill-opacity = '0.250000' points = '623.0,165.8 623.0,662.4 624.8,662.4 624.8,166.8 '/>
		<polygon fill = 'rgb( 31, 120, 180)' fill-opacity = '0.250000' points = '624.8,166.8 624.8,662.4 626.7,662.4 626.7,167.8 '/>
		<polygon fill = 'rgb( 31, 120, 180)' fill-opacity = '0.250000' points = '626.7,167.8 626.7,662.4 628.6,662.4 628.6,168.6 '/>
		<polygon fill = 'rgb( 31, 120, 180)' fill-opacity = '0.250000' points = '628.6,168.6 628.6,662.4 630.5,662.4 630.5,169.5 '/>
		<polygon fill = 'rgb( 31, 120, 180)' fill-opacity = '0.250000' points = '630.5,169.5 630.5,662.4 632.4,662.4 632.4,170.2 '/>
		<polygon fill = 'rgb( 31, 120, 180)' fill-opacity = '0.250000' points = '632.4,170.2 632.4,662.4 634.3,662.4 634.3,171.0 '/>
		<polygon fill = 'rgb( 31, 120, 180)' fill-opacity = '0.250000' points = '634.3,171.0 634.3,662.4 636.2,662.4 636.2,171.8 '/>
		<polygon fill = 'rgb( 31, 120, 180)' fill-opacity = '0.250000' points = '636.2,171.8 636.2,662.4 638.1,662.4 638.1,172.5 '/>
		<polygon fill = 'rgb( 31, 120, 180)' fill-opacity = '0.250000' points = '638.1,172.5 638.1,662.4 639.9,662.4 639.9,173.4 '/>
		<polygon fill = 'rgb( 31, 120, 180)' fill-opacity = '0.250000' points = '639.9,173.4 639.9,662.4 641.8,662.4 641.8,174.2 '/>
		<polygon fill = 'rgb( 31, 120, 180)' fill-opacity = '0.250000' points = '641.8,174.2 641.8,662.4 643.7,662.4 643.7,175.2 '/>
		<polygon fill = 'rgb( 31, 120, 180)' fill-opacity = '0.250000' points = '643.7,175.2 643.7,662.4 645.6,662.4 645.6,176.3 '/>
		<polygon fill = 'rgb( 31, 120, 180)' fill-opacity = '0.250000' points = '645.6,176.3 645.6,662.4 647.5,662.4 647.5,177.5 '/>
		<polygon fill = 'rgb( 31, 120, 180)' fill-opacity = '0.250000' points = '647.5,177.5 647.5,662.4 649.4,662.4 649.4,178.9 '/>
		<polygon fill = 'rgb( 31, 120, 180)' fill-opacity = '0.250000' points = '649.4,178.9 649.4,662.4 651.3,662.4 651.3,180.5 '/>
		<polygon fill = 'rgb( 31, 120, 180)' fill-opacity = '0.250000' points = '651.3,180.5 651.3,662.4 653.1,662.4 653.1,182.2 '/>
		<polygon fill = 'rgb( 31, 120, 180)' fill-opacity = '0.250000' points = '653.1,182.2 653.1,662.4 655.0,662.4 655.0,184.2 '/>
		<polygon fill = 'rgb( 31, 120, 180)' fill-opacity = '0.250000' points = '655.0,184.2 655.0,662.4 656.9,662.4 656.9,186.5 '/>
		<polygon fill = 'rgb( 31, 120, 180)' fill-opacity = '0.250000' points = '656.9,186.5 656.9,662.4 658.8,662.4 658.8,188.9 '/>
		<polygon fill = 'rgb( 31, 120, 180)' fill-opacity = '0.250000' points = '658.8,188.9 658.8,662.4 660.7,662.4 660.7,191.6 '/>
		<polygon fill = 'rgb( 31, 120, 180)' fill-opacity = '0.250000' points = '660.7,191.6 660.7,662.4 662.6,662.4 662.6,194.6 '/>
		<polygon fill = 'rgb( 31, 120, 180)' fill-opacity = '0.250000' points = '662.6,194.6 662.6,662.4 664.5,662.4 664.5,197.8 '/>
		<polygon fill = 'rgb( 31, 120, 180)' fill-opacity = '0.250000' points = '664.5,197.8 664.5,662.4 666.4,662.4 666.4,201.2 '/>
		<polygon fill = 'rgb( 31, 120, 180)' fill-opacity = '0.250000' points = '666.4,201.2 666.4,662.4 668.2,662.4 668.2,204.8 '/>
		<polygon fill = 'rgb( 31, 120, 180)' fill-opacity = '0.250000' points = '668.2,204.8 668.2,662.4 670.1,662.4 670.1,208.6 '/>
		<polygon fill = 'rgb( 31, 120, 180)' fill-opacity = '0.250000' points = '670.1,208.6 670.1,662.4 672.0,662.4 672.0,212.5 '/>
		<polygon fill = 'rgb( 31, 120, 180)' fill-opacity = '0.250000' points = '672.0,212.5 672.0,662.4 673.9,662.4 673.9,216.5 '/>
		<polygon fill = 'rgb( 31, 120, 180)' fill-opacity = '0.250000' points = '673.9,216.5 673.9,662.4 675.8,662.4 675.8,220.7 '/>
		<polygon fill = 'rgb( 31, 120, 180)' fill-opacity = '0.250000' points = '675.8,220.7 675.8,662.4 677.7,662.4 677.7,224.9 '/>
		<polygon fill = 'rgb( 31, 120, 180)' fill-opacity = '0.250000' points = '677.7,224.9 677.7,662.4 679.6,662.4 679.6,229.1 '/>
		<polygon fill = 'rgb( 31, 120, 180)' fill-opacity = '0.250000' points = '679.6,229.1 679.6,662.4 681.5,662.4 681.5,233.3 '/>
		<polygon fill = 'rgb( 31, 120, 180)' fill-opacity = '0.250000' points = '681.5,233.3 681.5,662.4 683.3,662.4 683.3,237.4 '/>
		<polygon fill = 'rgb( 31, 120, 180)' fill-opacity = '0.250000' points = '683.3,237.4 683.3,662.4 685.2,662.4 685.2,241.6 '/>
		<polygon fill = 'rgb( 31, 120, 180)' fill-opacity = '0.250000' points = '685.2,241.6 685.2,662.4 687.1,662.4 687.1,245.6 '/>
		<polygon fill = 'rgb( 31, 120, 180)' fill-opacity = '0.250000' points = '687.1,245.6 687.1,662.4 689.0,662.4 689.0,249.6 '/>
		<polygon fill = 'rgb( 31, 120, 180)' fill-opacity = '0.250000' points = '689.0,249.6 689.0,662.4 690.9,662.4 690.9,253.5 '/>
		<polygon fill = 'rgb( 31, 120, 180)' fill-opacity = '0.250000' points = '690.9,253.5 690.9,662.4 692.8,662.4 692.8,257.3 '/>
		<polygon fill = 'rgb( 31, 120, 180)' fill-opacity = '0.250000' points = '692.8,257.3 692.8,662.4 694.7,662.4 694.7,261.1 '/>
		<polygon fill = 'rgb( 31, 120, 180)' fill-opacity = '0.250000' points = '694.7,261.1 694.7,662.4 696.6,662.4 696.6,264.8 '/>
		<polygon fill = 'rgb( 31, 120, 180)' fill-opacity = '0.250000' points = '696.6,264.8 696.6,662.4 698.4,662.4 698.4,268.5 '/>
		<polygon fill = 'rgb( 31, 120, 180)' fill-opacity = '0.250000' points = '698.4,268.5 698.4,662.4 700.3,662.4 700.3,272.3 '/>
		<polygon fill = 'rgb( 31, 120, 180)' fill-opacity = '0.250000' points = '700.3,272.3 700.3,662.4 702.2,662.4 702.2,276.1 '/>
		<polygon fill = 'rgb( 31, 120, 180)' fill-opacity = '0.250000' points = '702.2,276.1 702.2,662.4 704.1,662.4 704.1,279.9 '/>
		<polygon fill = 'rgb( 31, 120, 180)' fill-opacity = '0.250000' points = '704.1,279.9 704.1,662.4 706.0,662.4 706.0,283.9 '/>
		<polygon fill = 'rgb( 31, 120, 180)' fill-opacity = '0.250000' points = '706.0,283.9 706.0,662.4 707.9,662.4 707.9,287.9 '/>
		<polygon fill = 'rgb( 31, 120, 180)' fill-opacity = '0.250000' points = '707.9,287.9 707.9,662.4 709.8,662.4 709.8,292.0 '/>
		<polygon fill = 'rgb( 31, 120, 180)' fill-opacity = '0.250000' points = '709.8,292.0 709.8,662.4 711.7,662.4 711.7,296.2 '/>
		<polygon fill = 'rgb( 31, 120, 180)' fill-opacity = '0.250000' points = '711.7,296.2 711.7,662.4 713.5,662.4 713.5,300.4 '/>
		<polygon fill = 'rgb( 31, 120, 180)' fill-opacity = '0.250000' points = '713.5,300.4 713.5,662.4 715.4,662.4 715.4,304.7 '/>
		<polygon fill = 'rgb( 31, 120, 180)' fill-opacity = '0.250000' points = '715.4,304.7 715.4,662.4 717.3,662.4 717.3,309.0 '/>
		<polygon fill = 'rgb( 31, 120, 180)' fill-opacity = '0.250000' points = '717.3,309.0 717.3,662.4 719.2,662.4 719.2,313.4 '/>
		<polygon fill = 'rgb( 31, 120, 180)' fill-opacity = '0.250000' points = '719.2,313.4 719.2,662.4 721.1,662.4 721.1,317.6 '/>
		<polygon fill = 'rgb( 31, 120, 180)' fill-opacity = '0.250000' points = '721.1,317.6 721.1,662.4 723.0,662.4 723.0,321.8 '/>
		<polygon fill = 'rgb( 31, 120, 180)' fill-opacity = '0.250000' points = '723.0,321.8 723.0,662.4 724.9,662.4 724.9,325.9 '/>
		<polygon fill = 'rgb( 31, 120, 180)' fill-opacity = '0.250000' points = '724.9,325.9 724.9,662.4 726.7,662.4 726.7,329.9 '/>
		<polygon fill = 'rgb( 31, 120, 180)' fill-opacity = '0.250000' points = '726.7,329.9 726.7,662.4 728.6,662.4 728.6,333.7 '/>
		<polygon fill = 'rgb( 31, 120, 180)' fill-opacity = '0.250000' points = '728.6,333.7 728.6,662.4 730.5,662.4 730.5,337.3 '/>
		<polygon fill = 'rgb( 31, 120, 180)' fill-opacity = '0.250000' points = '730.5,337.3 730.5,662.4 732.4,662.4 732.4,340.8 '/>
		<polygon fill = 'rgb( 31, 120, 180)' fill-opacity = '0.250000' points = '732.4,340.8 732.4,662.4 734.3,662.4 734.3,344.1 '/>
		<polygon fill = 'rgb( 31, 120, 180)' fill-opacity = '0.250000' points = '734.3,344.1 734.3,662.4 736.2,662.4 736.2,347.3 '/>
		<polygon fill = 'rgb( 31, 120, 180)' fill-opacity = '0.250000' points = '736.2,347.3 736.2,662.4 738.1,662.4 738.1,350.4 '/>
		<polygon fill = 'rgb( 31, 120, 180)' fill-opacity = '0.250000' points = '738.1,350.4 738.1,662.4 740.0,662.4 740.0,353.3 '/>
		<polygon fill = 'rgb( 31, 120, 180)' fill-opacity = '0.250000' points = '740.0,353.3 740.0,662.4 741.8,662.4 741.8,356.2 '/>
		<polygon fill = 'rgb( 31, 120, 180)' fill-opacity = '0.250000' points = '741.8,356.2 741.8,662.4 743.7,662.4 743.7,359.1 '/>
		<polygon fill = 'rgb( 31, 120, 180)' fill-opacity = '0.250000' points = '743.7,359.1 743.7,662.4 745.6,662.4 745.6,362.0 '/>
		<polygon fill = 'rgb( 31, 120, 180)' fill-opacity = '0.250000' points = '745.6,362.0 745.6,662.4 747.5,662.4 747.5,365.0 '/>
		<polygon fill = 'rgb( 31, 120, 180)' fill-opacity = '0.250000' points = '747.5,365.0 747.5,662.4 749.4,662.4 749.4,368.0 '/>
		<polygon fill = 'rgb( 31, 120, 180)' fill-opacity = '0.250000' points = '749.4,368.0 749.4,662.4 751.3,662.4 751.3,371.1 '/>
		<polygon fill = 'rgb( 31, 120, 180)' fill-opacity = '0.250000' points = '751.3,371.1 751.3,662.4 753.2,662.4 753.2,374.3 '/>
		<polygon fill = 'rgb( 31, 120, 180)' fill-opacity = '0.250000' points = '753.2,374.3 753.2,662.4 755.1,662.4 755.1,377.6 '/>
		<polygon fill = 'rgb( 31, 120, 180)' fill-opacity = '0.250000' points = '755.1,377.6 755.1,662.4 756.9,662.4 756.9,380.9 '/>
		<polygon fill = 'rgb( 31, 120, 180)' fill-opacity = '0.250000' points = '756.9,380.9 756.9,662.4 758.8,662.4 758.8,384.3 '/>
		<polygon fill = 'rgb( 31, 120, 180)' fill-opacity = '0.250000' points = '758.8,384.3 758.8,662.4 760.7,662.4 760.7,387.7 '/>
		<polygon fill = 'rgb( 31, 120, 180)' fill-opacity = '0.250000' points = '760.7,387.7 760.7,662.4 762.6,662.4 762.6,391.1 '/>
		<polygon fill = 'rgb( 31, 120, 180)' fill-opacity = '0.250000' points = '762.6,391.1 762.6,662.4 764.5,662.4 764.5,394.5 '/>
		<polygon fill = 'rgb( 31, 120, 180)' fill-opacity = '0.250000' points = '764.5,394.5 764.5,662.4 766.4,662.4 766.4,397.7 '/>
		<polygon fill = 'rgb( 31, 120, 180)' fill-opacity = '0.250000' points = '766.4,397.7 766.4,662.4 768.3,662.4 768.3,400.8 '/>
		<polygon fill = 'rgb( 31, 120, 180)' fill-opacity = '0.250000' points = '768.3,400.8 768.3,662.4 770.2,662.4 770.2,403.8 '/>
		<polygon fill = 'rgb( 31, 120, 180)' fill-opacity = '0.250000' points = '770.2,403.8 770.2,662.4 772.0,662.4 772.0,406.5 '/>
		<polygon fill = 'rgb( 31, 120, 180)' fill-opacity = '0.250000' points = '772.0,406.5 772.0,662.4 773.9,662.4 773.9,409.1 '/>
		<polygon fill = 'rgb( 31, 120, 180)' fill-opacity = '0.250000' points = '773.9,409.1 773.9,662.4 775.8,662.4 775.8,411.4 '/>
		<polygon fill = 'rgb( 31, 120, 180)' fill-opacity = '0.250000' points = '775.8,411.4 775.8,662.4 777.7,662.4 777.7,413.5 '/>
		<polygon fill = 'rgb( 31, 120, 180)' fill-opacity = '0.250000' points = '777.7,413.5 777.7,662.4 779.6,662.4 779.6,415.4 '/>
		<polygon fill = 'rgb( 31, 120, 180)' fill-opacity = '0.250000' points = '779.6,415.4 779.6,662.4 781.5,662.4 781.5,417.1 '/>
		<polygon fill = 'rgb( 31, 120, 180)' fill-opacity = '0.250000' points = '781.5,417.1 781.5,662.4 783.4,662.4 783.4,418.6 '/>
		<polygon fill = 'rgb( 31, 120, 180)' fill-opacity = '0.250000' points = '783.4,418.6 783.4,662.4 785.3,662.4 785.3,420.1 '/>
		<polygon fill = 'rgb( 31, 120, 180)' fill-opacity = '0.250000' points = '785.3,420.1 785.3,662.4 787.1,662.4 787.1,421.5 '/>
		<polygon fill = 'rgb( 31, 120, 180)' fill-opacity = '0.250000' points = '787.1,421.5 787.1,662.4 789.0,662.4 789.0,422.9 '/>
		<polygon fill = 'rgb( 31, 120, 180)' fill-opacity = '0.250000' points = '789.0,422.9 789.0,662.4 790.9,662.4 790.9,424.2 '/>
		<polygon fill = 'rgb( 31, 120, 180)' fill-opacity = '0.250000' points = '790.9,424.2 790.9,662.4 792.8,662.4 792.8,425.7 '/>
		<polygon fill = 'rgb( 31, 120, 180)' fill-opacity = '0.250000' points = '792.8,425.7 792.8,662.4 794.7,662.4 794.7,427.2 '/>
		<polygon fill = 'rgb( 31, 120, 180)' fill-opacity = '0.250000' points = '794.7,427.2 794.7,662.4 796.6,662.4 796.6,428.8 '/>
		<polygon fill = 'rgb( 31, 120, 180)' fill-opacity = '0.250000' points = '796.6,428.8 796.6,662.4 798.5,662.4 798.5,430.5 '/>
		<polygon fill = 'rgb( 31, 120, 180)' fill-opacity = '0.250000' points = '798.5,430.5 798.5,662.4 800.3,662.4 800.3,432.3 '/>
		<polygon fill = 'rgb( 31, 120, 180)' fill-opacity = '0.250000' points = '800.3,432.3 800.3,662.4 802.2,662.4 802.2,434.2 '/>
		<polygon fill = 'rgb( 31, 120, 180)' fill-opacity = '0.250000' points = '802.2,434.2 802.2,662.4 804.1,662.4 804.1,436.2 '/>
		<polygon fill = 'rgb( 31, 120, 180)' fill-opacity = '0.250000' points = '804.1,436.2 804.1,662.4 806.0,662.4 806.0,438.2 '/>
		<polygon fill = 'rgb( 31, 120, 180)' fill-opacity = '0.250000' points = '806.0,438.2 806.0,662.4 807.9,662.4 807.9,440.3 '/>
		<polygon fill = 'rgb( 31, 120, 180)' fill-opacity = '0.250000' points = '807.9,440.3 807.9,662.4 809.8,662.4 809.8,442.3 '/>
		<polygon fill = 'rgb( 31, 120, 180)' fill-opacity = '0.250000' points = '809.8,442.3 809.8,662.4 811.7,662.4 811.7,444.4 '/>
		<polygon fill = 'rgb( 31, 120, 180)' fill-opacity = '0.250000' points = '811.7,444.4 811.7,662.4 813.6,662.4 813.6,446.4 '/>
		<polygon fill = 'rgb( 31, 120, 180)' fill-opacity = '0.250000' points = '813.6,446.4 813.6,662.4 815.4,662.4 815.4,448.4 '/>
		<polygon fill = 'rgb( 31, 120, 180)' fill-opacity = '0.250000' points = '815.4,448.4 815.4,662.4 817.3,662.4 817.3,450.2 '/>
		<polygon fill = 'rgb( 31, 120, 180)' fill-opacity = '0.250000' points = '817.3,450.2 817.3,662.4 819.2,662.4 819.2,452.1 '/>
		<polygon fill = 'rgb( 31, 120, 180)' fill-opacity = '0.250000' points = '819.2,452.1 819.2,662.4 821.1,662.4 821.1,453.8 '/>
		<polygon fill = 'rgb( 31, 120, 180)' fill-opacity = '0.250000' points = '821.1,453.8 821.1,662.4 823.0,662.4 823.0,455.5 '/>
		<polygon fill = 'rgb( 31, 120, 180)' fill-opacity = '0.250000' points = '823.0,455.5 823.0,662.4 824.9,662.4 824.9,457.2 '/>
		<polygon fill = 'rgb( 31, 120, 180)' fill-opacity = '0.250000' points = '824.9,457.2 824.9,662.4 826.8,662.4 826.8,459.0 '/>
		<polygon fill = 'rgb( 31, 120, 180)' fill-opacity = '0.250000' points = '826.8,459.0 826.8,662.4 828.7,662.4 828.7,460.7 '/>
		<polygon fill = 'rgb( 31, 120, 180)' fill-opacity = '0.250000' points = '828.7,460.7 828.7,662.4 830.5,662.4 830.5,462.6 '/>
		<polygon fill = 'rgb( 31, 120, 180)' fill-opacity = '0.250000' points = '830.5,462.6 830.5,662.4 832.4,662.4 832.4,464.5 '/>
		<polygon fill = 'rgb( 31, 120, 180)' fill-opacity = '0.250000' points = '832.4,464.5 832.4,662.4 834.3,662.4 834.3,466.6 '/>
		<polygon fill = 'rgb( 31, 120, 180)' fill-opacity = '0.250000' points = '834.3,466.6 834.3,662.4 836.2,662.4 836.2,468.8 '/>
		<polygon fill = 'rgb( 31, 120, 180)' fill-opacity = '0.250000' points = '836.2,468.8 836.2,662.4 838.1,662.4 838.1,471.2 '/>
		<polygon fill = 'rgb( 31, 120, 180)' fill-opacity = '0.250000' points = '838.1,471.2 838.1,662.4 840.0,662.4 840.0,473.7 '/>
		<polygon fill = 'rgb( 31, 120, 180)' fill-opacity = '0.250000' points = '840.0,473.7 840.0,662.4 841.9,662.4 841.9,476.4 '/>
		<polygon fill = 'rgb( 31, 120, 180)' fill-opacity = '0.250000' points = '841.9,476.4 841.9,662.4 843.8,662.4 843.8,479.2 '/>
		<polygon fill = 'rgb( 31, 120, 180)' fill-opacity = '0.250000' points = '843.8,479.2 843.8,662.4 845.6,662.4 845.6,482.1 '/>
		<polygon fill = 'rgb( 31, 120, 180)' fill-opacity = '0.250000' points = '845.6,482.1 845.6,662.4 847.5,662.4 847.5,485.1 '/>
		<polygon fill = 'rgb( 31, 120, 180)' fill-opacity = '0.250000' points = '847.5,485.1 847.5,662.4 849.4,662.4 849.4,488.0 '/>
		<polygon fill = 'rgb( 31, 120, 180)' fill-opacity = '0.250000' points = '849.4,488.0 849.4,662.4 851.3,662.4 851.3,491.0 '/>
		<polygon fill = 'rgb( 31, 120, 180)' fill-opacity = '0.250000' points = '851.3,491.0 851.3,662.4 853.2,662.4 853.2,493.9 '/>
		<polygon fill = 'rgb( 31, 120, 180)' fill-opacity = '0.250000' points = '853.2,493.9 853.2,662.4 855.1,662.4 855.1,496.8 '/>
		<polygon fill = 'rgb( 31, 120, 180)' fill-opacity = '0.250000' points = '855.1,496.8 855.1,662.4 857.0,662.4 857.0,499.5 '/>
		<polygon fill = 'rgb( 31, 120, 180)' fill-opacity = '0.250000' points = '857.0,499.5 857.0,662.4 858.9,662.4 858.9,502.1 '/>
		<polygon fill = 'rgb( 31, 120, 180)' fill-opacity = '0.250000' points = '858.9,502.1 858.9,662.4 860.7,662.4 860.7,504.6 '/>
		<polygon fill = 'rgb( 31, 120, 180)' fill-opacity = '0.250000' points = '860.7,504.6 860.7,662.4 862.6,662.4 862.6,506.9 '/>
		<polygon fill = 'rgb( 31, 120, 180)' fill-opacity = '0.250000' points = '862.6,506.9 862.6,662.4 864.5,662.4 864.5,509.0 '/>
		<polygon fill = 'rgb( 31, 120, 180)' fill-opacity = '0.250000' points = '864.5,509.0 864.5,662.4 866.4,662.4 866.4,511.0 '/>
		<polygon fill = 'rgb( 31, 120, 180)' fill-opacity = '0.250000' points = '866.4,511.0 866.4,662.4 868.3,662.4 868.3,512.9 '/>
		<polygon fill = 'rgb( 31, 120, 180)' fill-opacity = '0.250000' points = '868.3,512.9 868.3,662.4 870.2,662.4 870.2,514.7 '/>
		<polygon fill = 'rgb( 31, 120, 180)' fill-opacity = '0.250000' points = '870.2,514.7 870.2,662.4 872.1,662.4 872.1,516.5 '/>
		<polygon fill = 'rgb( 31, 120, 180)' fill-opacity = '0.250000' points = '872.1,516.5 872.1,662.4 873.9,662.4 873.9,518.1 '/>
		<polygon fill = 'rgb( 31, 120, 180)' fill-opacity = '0.250000' points = '873.9,518.1 873.9,662.4 875.8,662.4 875.8,519.8 '/>
		<polygon fill = 'rgb( 31, 120, 180)' fill-opacity = '0.250000' points = '875.8,519.8 875.8,662.4 877.7,662.4 877.7,521.5 '/>
		<polygon fill = 'rgb( 31, 120, 180)' fill-opacity = '0.250000' points = '877.7,521.5 877.7,662.4 879.6,662.4 879.6,523.2 '/>
		<polygon fill = 'rgb( 31, 120, 180)' fill-opacity = '0.250000' points = '879.6,523.2 879.6,662.4 881.5,662.4 881.5,524.9 '/>
		<polygon fill = 'rgb( 31, 120, 180)' fill-opacity = '0.250000' points = '881.5,524.9 881.5,662.4 883.4,662.4 883.4,526.6 '/>
		<polygon fill = 'rgb( 31, 120, 180)' fill-opacity = '0.250000' points = '883.4,526.6 883.4,662.4 885.3,662.4 885.3,528.4 '/>
		<polygon fill = 'rgb( 31, 120, 180)' fill-opacity = '0.250000' points = '885.3,528.4 885.3,662.4 887.2,662.4 887.2,530.2 '/>
		<polygon fill = 'rgb( 31, 120, 180)' fill-opacity = '0.250000' points = '887.2,530.2 887.2,662.4 889.0,662.4 889.0,532.0 '/>
		<polygon fill = 'rgb( 31, 120, 180)' fill-opacity = '0.250000' points = '889.0,532.0 889.0,662.4 890.9,662.4 890.9,533.9 '/>
		<polygon fill = 'rgb( 31, 120, 180)' fill-opacity = '0.250000' points = '890.9,533.9 890.9,662.4 892.8,662.4 892.8,535.7 '/>
		<polygon fill = 'rgb( 31, 120, 180)' fill-opacity = '0.250000' points = '892.8,535.7 892.8,662.4 894.7,662.4 894.7,537.5 '/>
		<polygon fill = 'rgb( 31, 120, 180)' fill-opacity = '0.250000' points = '894.7,537.5 894.7,662.4 896.6,662.4 896.6,539.3 '/>
		<polygon fill = 'rgb( 31, 120, 180)' fill-opacity = '0.250000' points = '896.6,539.3 896.6,662.4 898.5,662.4 898.5,541.1 '/>
		<polygon fill = 'rgb( 31, 120, 180)' fill-opacity = '0.250000' points = '898.5,541.1 898.5,662.4 900.4,662.4 900.4,542.8 '/>
		<polygon fill = 'rgb( 31, 120, 180)' fill-opacity = '0.250000' points = '900.4,542.8 900.4,662.4 902.3,662.4 902.3,544.4 '/>
		<polygon fill = 'rgb( 31, 120, 180)' fill-opacity = '0.250000' points = '902.3,544.4 902.3,662.4 904.1,662.4 904.1,546.0 '/>
		<polygon fill = 'rgb( 31, 120, 180)' fill-opacity = '0.250000' points = '904.1,546.0 904.1,662.4 906.0,662.4 906.0,547.6 '/>
		<polygon fill = 'rgb( 31, 120, 180)' fill-opacity = '0.250000' points = '906.0,547.6 906.0,662.4 907.9,662.4 907.9,549.2 '/>
		<polygon fill = 'rgb( 31, 120, 180)' fill-opacity = '0.250000' points = '907.9,549.2 907.9,662.4 909.8,662.4 909.8,550.8 '/>
		<polygon fill = 'rgb( 31, 120, 180)' fill-opacity = '0.250000' points = '909.8,550.8 909.8,662.4 911.7,662.4 911.7,552.4 '/>
		<polygon fill = 'rgb( 31, 120, 180)' fill-opacity = '0.250000' points = '911.7,552.4 911.7,662.4 913.6,662.4 913.6,554.0 '/>
		<polygon fill = 'rgb( 31, 120, 180)' fill-opacity = '0.250000' points = '913.6,554.0 913.6,662.4 915.5,662.4 915.5,555.6 '/>
		<polygon fill = 'rgb( 31, 120, 180)' fill-opacity = '0.250000' points = '915.5,555.6 915.5,662.4 917.4,662.4 917.4,557.4 '/>
		<polygon fill = 'rgb( 31, 120, 180)' fill-opacity = '0.250000' points = '917.4,557.4 917.4,662.4 919.2,662.4 919.2,559.2 '/>
		<polygon fill = 'rgb( 31, 120, 180)' fill-opacity = '0.250000' points = '919.2,559.2 919.2,662.4 921.1,662.4 921.1,561.1 '/>
		<polygon fill = 'rgb( 31, 120, 180)' fill-opacity = '0.250000' points = '921.1,561.1 921.1,662.4 923.0,662.4 923.0,563.1 '/>
		<polygon fill = 'rgb( 31, 120, 180)' fill-opacity = '0.250000' points = '923.0,563.1 923.0,662.4 924.9,662.4 924.9,565.2 '/>
	</g>
</g>
	</g>
	<g id="gnuplot_plot_3" ><title>Point estimate</title>
<g fill="none" color="white" stroke="rgb( 31, 120, 180)" stroke-width="2.00" stroke-linecap="butt" stroke-linejoin="miter">
</g>
<g fill="none" color="black" stroke="currentColor" stroke-width="2.00" stroke-linecap="butt" stroke-linejoin="miter">
	<g transform="translate(1089.0,103.0)" stroke="none" fill="black" font-family="Helvetica" font-size="12.00"  text-anchor="start">
		<text><tspan font-family="Helvetica" >Point estimate</tspan></text>
	</g>
</g>
<g fill="none" color="black" stroke="currentColor" stroke-width="2.00" stroke-linecap="butt" stroke-linejoin="miter">
	<path stroke='rgb( 31, 120, 180)'  d='M1038.5,99.1 L1080.7,99.1 M599.4,662.4 L599.4,151.7  '/></g>
	</g>
	<g id="gnuplot_plot_4" ><title>Noise threshold</title>
<g fill="none" color="white" stroke="rgb( 31, 120, 180)" stroke-width="1.00" stroke-linecap="butt" stroke-linejoin="miter">
</g>
<g fill="none" color="black" stroke="currentColor" stroke-width="1.00" stroke-linecap="butt" stroke-linejoin="miter">
	<g transform="translate(1089.0,121.0)" stroke="none" fill="black" font-family="Helvetica" font-size="12.00"  text-anchor="start">
		<text><tspan font-family="Helvetica" >Noise threshold</tspan></text>
	</g>
</g>
<g fill="none" color="black" stroke="currentColor" stroke-width="1.00" stroke-linecap="butt" stroke-linejoin="miter">
	<g stroke='none' shape-rendering='crispEdges'>
		<polygon fill = 'rgb(227,  26,  28)' fill-opacity = '0.100000' points = '1038.5,121.6 1080.7,121.6 1080.7,112.6 1038.5,112.6 '/>
		<polygon fill = 'rgb(227,  26,  28)' fill-opacity = '0.100000' points = '71.9,54.1 71.9,662.4 1013.6,662.4 1013.6,54.1 '/>
	</g>
</g>
	</g>
<g fill="none" color="white" stroke="rgb(227,  26,  28)" stroke-width="2.00" stroke-linecap="butt" stroke-linejoin="miter">
</g>
<g fill="none" color="black" stroke="currentColor" stroke-width="2.00" stroke-linecap="butt" stroke-linejoin="miter">
</g>
<g fill="none" color="black" stroke="black" stroke-width="1.00" stroke-linecap="butt" stroke-linejoin="miter">
</g>
<g fill="none" color="black" stroke="currentColor" stroke-width="1.00" stroke-linecap="butt" stroke-linejoin="miter">
	<path stroke='black'  d='M71.9,54.1 L71.9,662.4 L1013.6,662.4 L1013.6,54.1 L71.9,54.1 Z  '/></g>
<g fill="none" color="black" stroke="currentColor" stroke-width="1.00" stroke-linecap="butt" stroke-linejoin="miter">
</g>
</g>
</svg>

