<?xml version="1.0" encoding="utf-8"  standalone="no"?>
<svg 
 viewBox="0 0 1280 720"
 xmlns="http://www.w3.org/2000/svg"
 xmlns:xlink="http://www.w3.org/1999/xlink"
>

<title>Gnuplot</title>
<desc>Produced by GNUPLOT 5.0 patchlevel 6 </desc>

<g id="gnuplot_canvas">

<rect x="0" y="0" width="1280" height="720" fill="none"/>
<defs>

	<circle id='gpDot' r='0.5' stroke-width='0.5'/>
	<path id='gpPt0' stroke-width='0.222' stroke='currentColor' d='M-1,0 h2 M0,-1 v2'/>
	<path id='gpPt1' stroke-width='0.222' stroke='currentColor' d='M-1,-1 L1,1 M1,-1 L-1,1'/>
	<path id='gpPt2' stroke-width='0.222' stroke='currentColor' d='M-1,0 L1,0 M0,-1 L0,1 M-1,-1 L1,1 M-1,1 L1,-1'/>
	<rect id='gpPt3' stroke-width='0.222' stroke='currentColor' x='-1' y='-1' width='2' height='2'/>
	<rect id='gpPt4' stroke-width='0.222' stroke='currentColor' fill='currentColor' x='-1' y='-1' width='2' height='2'/>
	<circle id='gpPt5' stroke-width='0.222' stroke='currentColor' cx='0' cy='0' r='1'/>
	<use xlink:href='#gpPt5' id='gpPt6' fill='currentColor' stroke='none'/>
	<path id='gpPt7' stroke-width='0.222' stroke='currentColor' d='M0,-1.33 L-1.33,0.67 L1.33,0.67 z'/>
	<use xlink:href='#gpPt7' id='gpPt8' fill='currentColor' stroke='none'/>
	<use xlink:href='#gpPt7' id='gpPt9' stroke='currentColor' transform='rotate(180)'/>
	<use xlink:href='#gpPt9' id='gpPt10' fill='currentColor' stroke='none'/>
	<use xlink:href='#gpPt3' id='gpPt11' stroke='currentColor' transform='rotate(45)'/>
	<use xlink:href='#gpPt11' id='gpPt12' fill='currentColor' stroke='none'/>
	<path id='gpPt13' stroke-width='0.222' stroke='currentColor' d='M0,1.330 L1.265,0.411 L0.782,-1.067 L-0.782,-1.076 L-1.265,0.411 z'/>
	<use xlink:href='#gpPt13' id='gpPt14' fill='currentColor' stroke='none'/>
	<filter id='textbox' filterUnits='objectBoundingBox' x='0' y='0' height='1' width='1'>
	  <feFlood flood-color='white' flood-opacity='1' result='bgnd'/>
	  <feComposite in='SourceGraphic' in2='bgnd' operator='atop'/>
	</filter>
	<filter id='greybox' filterUnits='objectBoundingBox' x='0' y='0' height='1' width='1'>
	  <feFlood flood-color='lightgrey' flood-opacity='1' result='grey'/>
	  <feComposite in='SourceGraphic' in2='grey' operator='atop'/>
	</filter>
</defs>
<g fill="none" color="white" stroke="currentColor" stroke-width="1.00" stroke-linecap="butt" stroke-linejoin="miter">
</g>
<g fill="none" color="black" stroke="currentColor" stroke-width="1.00" stroke-linecap="butt" stroke-linejoin="miter">
	<path stroke='black'  d='M63.6,662.4 L72.6,662.4  '/>	<g transform="translate(55.3,666.3)" stroke="none" fill="black" font-family="Helvetica" font-size="12.00"  text-anchor="end">
		<text><tspan font-family="Helvetica" > 0</tspan></text>
	</g>
</g>
<g fill="none" color="black" stroke="currentColor" stroke-width="1.00" stroke-linecap="butt" stroke-linejoin="miter">
	<path stroke='black'  d='M63.6,575.5 L72.6,575.5  '/>	<g transform="translate(55.3,579.4)" stroke="none" fill="black" font-family="Helvetica" font-size="12.00"  text-anchor="end">
		<text><tspan font-family="Helvetica" > 10</tspan></text>
	</g>
</g>
<g fill="none" color="black" stroke="currentColor" stroke-width="1.00" stroke-linecap="butt" stroke-linejoin="miter">
	<path stroke='black'  d='M63.6,488.6 L72.6,488.6  '/>	<g transform="translate(55.3,492.5)" stroke="none" fill="black" font-family="Helvetica" font-size="12.00"  text-anchor="end">
		<text><tspan font-family="Helvetica" > 20</tspan></text>
	</g>
</g>
<g fill="none" color="black" stroke="currentColor" stroke-width="1.00" stroke-linecap="butt" stroke-linejoin="miter">
	<path stroke='black'  d='M63.6,401.7 L72.6,401.7  '/>	<g transform="translate(55.3,405.6)" stroke="none" fill="black" font-family="Helvetica" font-size="12.00"  text-anchor="end">
		<text><tspan font-family="Helvetica" > 30</tspan></text>
	</g>
</g>
<g fill="none" color="black" stroke="currentColor" stroke-width="1.00" stroke-linecap="butt" stroke-linejoin="miter">
	<path stroke='black'  d='M63.6,314.8 L72.6,314.8  '/>	<g transform="translate(55.3,318.7)" stroke="none" fill="black" font-family="Helvetica" font-size="12.00"  text-anchor="end">
		<text><tspan font-family="Helvetica" > 40</tspan></text>
	</g>
</g>
<g fill="none" color="black" stroke="currentColor" stroke-width="1.00" stroke-linecap="butt" stroke-linejoin="miter">
	<path stroke='black'  d='M63.6,227.9 L72.6,227.9  '/>	<g transform="translate(55.3,231.8)" stroke="none" fill="black" font-family="Helvetica" font-size="12.00"  text-anchor="end">
		<text><tspan font-family="Helvetica" > 50</tspan></text>
	</g>
</g>
<g fill="none" color="black" stroke="currentColor" stroke-width="1.00" stroke-linecap="butt" stroke-linejoin="miter">
	<path stroke='black'  d='M63.6,141.0 L72.6,141.0  '/>	<g transform="translate(55.3,144.9)" stroke="none" fill="black" font-family="Helvetica" font-size="12.00"  text-anchor="end">
		<text><tspan font-family="Helvetica" > 60</tspan></text>
	</g>
</g>
<g fill="none" color="black" stroke="currentColor" stroke-width="1.00" stroke-linecap="butt" stroke-linejoin="miter">
	<path stroke='black'  d='M63.6,54.1 L72.6,54.1  '/>	<g transform="translate(55.3,58.0)" stroke="none" fill="black" font-family="Helvetica" font-size="12.00"  text-anchor="end">
		<text><tspan font-family="Helvetica" > 70</tspan></text>
	</g>
</g>
<g fill="none" color="black" stroke="currentColor" stroke-width="1.00" stroke-linecap="butt" stroke-linejoin="miter">
	<path stroke='black'  d='M130.7,662.4 L130.7,653.4  '/>	<g transform="translate(130.7,684.3)" stroke="none" fill="black" font-family="Helvetica" font-size="12.00"  text-anchor="middle">
		<text><tspan font-family="Helvetica" > 4.495</tspan></text>
	</g>
</g>
<g fill="none" color="black" stroke="currentColor" stroke-width="1.00" stroke-linecap="butt" stroke-linejoin="miter">
	<path stroke='black'  d='M293.8,662.4 L293.8,653.4  '/>	<g transform="translate(293.8,684.3)" stroke="none" fill="black" font-family="Helvetica" font-size="12.00"  text-anchor="middle">
		<text><tspan font-family="Helvetica" > 4.5</tspan></text>
	</g>
</g>
<g fill="none" color="black" stroke="currentColor" stroke-width="1.00" stroke-linecap="butt" stroke-linejoin="miter">
	<path stroke='black'  d='M456.9,662.4 L456.9,653.4  '/>	<g transform="translate(456.9,684.3)" stroke="none" fill="black" font-family="Helvetica" font-size="12.00"  text-anchor="middle">
		<text><tspan font-family="Helvetica" > 4.505</tspan></text>
	</g>
</g>
<g fill="none" color="black" stroke="currentColor" stroke-width="1.00" stroke-linecap="butt" stroke-linejoin="miter">
	<path stroke='black'  d='M620.1,662.4 L620.1,653.4  '/>	<g transform="translate(620.1,684.3)" stroke="none" fill="black" font-family="Helvetica" font-size="12.00"  text-anchor="middle">
		<text><tspan font-family="Helvetica" > 4.51</tspan></text>
	</g>
</g>
<g fill="none" color="black" stroke="currentColor" stroke-width="1.00" stroke-linecap="butt" stroke-linejoin="miter">
	<path stroke='black'  d='M783.2,662.4 L783.2,653.4  '/>	<g transform="translate(783.2,684.3)" stroke="none" fill="black" font-family="Helvetica" font-size="12.00"  text-anchor="middle">
		<text><tspan font-family="Helvetica" > 4.515</tspan></text>
	</g>
</g>
<g fill="none" color="black" stroke="currentColor" stroke-width="1.00" stroke-linecap="butt" stroke-linejoin="miter">
	<path stroke='black'  d='M946.3,662.4 L946.3,653.4  '/>	<g transform="translate(946.3,684.3)" stroke="none" fill="black" font-family="Helvetica" font-size="12.00"  text-anchor="middle">
		<text><tspan font-family="Helvetica" > 4.52</tspan></text>
	</g>
</g>
<g fill="none" color="black" stroke="currentColor" stroke-width="1.00" stroke-linecap="butt" stroke-linejoin="miter">
</g>
<g fill="none" color="black" stroke="currentColor" stroke-width="1.00" stroke-linecap="butt" stroke-linejoin="miter">
	<path stroke='black'  d='M63.6,54.1 L63.6,662.4 L1013.6,662.4 L1013.6,54.1 L63.6,54.1 Z  '/></g>
<g fill="none" color="black" stroke="currentColor" stroke-width="1.00" stroke-linecap="butt" stroke-linejoin="miter">
	<g transform="translate(17.0,358.3) rotate(270)" stroke="none" fill="black" font-family="Helvetica" font-size="12.00"  text-anchor="middle">
		<text><tspan font-family="Helvetica" >Density (a.u.)</tspan></text>
	</g>
</g>
<g fill="none" color="black" stroke="currentColor" stroke-width="1.00" stroke-linecap="butt" stroke-linejoin="miter">
	<g transform="translate(538.6,711.3)" stroke="none" fill="black" font-family="Helvetica" font-size="12.00"  text-anchor="middle">
		<text><tspan font-family="Helvetica" >Average time (ms)</tspan></text>
	</g>
</g>
<g fill="none" color="black" stroke="currentColor" stroke-width="1.00" stroke-linecap="butt" stroke-linejoin="miter">
	<g transform="translate(538.6,31.0)" stroke="none" fill="black" font-family="Helvetica" font-size="12.00"  text-anchor="middle">
		<text><tspan font-family="Helvetica" >language: bash/parse error: cpp/examples/rule.cc: mean</tspan></text>
	</g>
</g>
	<g id="gnuplot_plot_1" ><title>Bootstrap distribution</title>
<g fill="none" color="white" stroke="black" stroke-width="2.00" stroke-linecap="butt" stroke-linejoin="miter">
</g>
<g fill="none" color="black" stroke="currentColor" stroke-width="2.00" stroke-linecap="butt" stroke-linejoin="miter">
	<g transform="translate(1089.0,67.0)" stroke="none" fill="black" font-family="Helvetica" font-size="12.00"  text-anchor="start">
		<text><tspan font-family="Helvetica" >Bootstrap distribution</tspan></text>
	</g>
</g>
<g fill="none" color="black" stroke="currentColor" stroke-width="2.00" stroke-linecap="butt" stroke-linejoin="miter">
	<path stroke='rgb( 31, 120, 180)'  d='M1038.5,63.1 L1080.7,63.1 M63.6,631.1 L65.5,629.9 L67.4,628.7 L69.3,627.4 L71.2,626.2 L73.1,624.8
		L75.0,623.5 L76.9,622.1 L78.8,620.7 L80.7,619.2 L82.6,617.7 L84.5,616.2 L86.4,614.6 L88.3,613.0
		L90.3,611.3 L92.2,609.7 L94.1,607.9 L96.0,606.1 L97.9,604.3 L99.8,602.5 L101.7,600.6 L103.6,598.6
		L105.5,596.6 L107.4,594.6 L109.3,592.5 L111.2,590.4 L113.1,588.2 L115.0,586.0 L116.9,583.7 L118.8,581.4
		L120.7,579.0 L122.6,576.6 L124.5,574.1 L126.4,571.6 L128.3,569.0 L130.2,566.3 L132.1,563.6 L134.0,560.9
		L135.9,558.1 L137.8,555.2 L139.8,552.3 L141.7,549.4 L143.6,546.4 L145.5,543.4 L147.4,540.3 L149.3,537.2
		L151.2,534.0 L153.1,530.8 L155.0,527.6 L156.9,524.3 L158.8,521.0 L160.7,517.7 L162.6,514.3 L164.5,510.9
		L166.4,507.5 L168.3,504.1 L170.2,500.7 L172.1,497.2 L174.0,493.7 L175.9,490.2 L177.8,486.7 L179.7,483.1
		L181.6,479.6 L183.5,476.0 L185.4,472.4 L187.3,468.8 L189.3,465.1 L191.2,461.4 L193.1,457.8 L195.0,454.0
		L196.9,450.3 L198.8,446.5 L200.7,442.7 L202.6,438.9 L204.5,435.1 L206.4,431.2 L208.3,427.3 L210.2,423.4
		L212.1,419.5 L214.0,415.6 L215.9,411.6 L217.8,407.7 L219.7,403.7 L221.6,399.8 L223.5,395.8 L225.4,391.8
		L227.3,387.9 L229.2,383.9 L231.1,379.9 L233.0,376.0 L234.9,372.0 L236.8,368.0 L238.8,364.0 L240.7,360.0
		L242.6,356.0 L244.5,352.0 L246.4,347.9 L248.3,343.8 L250.2,339.7 L252.1,335.6 L254.0,331.4 L255.9,327.2
		L257.8,323.0 L259.7,318.8 L261.6,314.5 L263.5,310.3 L265.4,306.0 L267.3,301.7 L269.2,297.5 L271.1,293.3
		L273.0,289.1 L274.9,284.9 L276.8,280.8 L278.7,276.7 L280.6,272.7 L282.5,268.7 L284.4,264.7 L286.3,260.9
		L288.2,257.0 L290.2,253.3 L292.1,249.6 L294.0,245.9 L295.9,242.3 L297.8,238.7 L299.7,235.2 L301.6,231.8
		L303.5,228.3 L305.4,224.9 L307.3,221.6 L309.2,218.3 L311.1,215.0 L313.0,211.7 L314.9,208.5 L316.8,205.2
		L318.7,202.1 L320.6,198.9 L322.5,195.7 L324.4,192.6 L326.3,189.5 L328.2,186.4 L330.1,183.3 L332.0,180.3
		L333.9,177.3 L335.8,174.3 L337.7,171.3 L339.7,168.3 L341.6,165.4 L343.5,162.6 L345.4,159.7 L347.3,156.9
		L349.2,154.2 L351.1,151.5 L353.0,148.8 L354.9,146.2 L356.8,143.6 L358.7,141.1 L360.6,138.7 L362.5,136.3
		L364.4,134.0 L366.3,131.7 L368.2,129.5 L370.1,127.4 L372.0,125.4 L373.9,123.4 L375.8,121.5 L377.7,119.7
		L379.6,118.0 L381.5,116.4 L383.4,114.9 L385.3,113.5 L387.2,112.2 L389.2,111.0 L391.1,109.9 L393.0,108.9
		L394.9,108.0 L396.8,107.2 L398.7,106.6 L400.6,106.0 L402.5,105.5 L404.4,105.0 L406.3,104.7 L408.2,104.4
		L410.1,104.1 L412.0,103.9 L413.9,103.6 L415.8,103.4 L417.7,103.2 L419.6,103.0 L421.5,102.7 L423.4,102.4
		L425.3,102.0 L427.2,101.6 L429.1,101.2 L431.0,100.7 L432.9,100.2 L434.8,99.6 L436.7,99.0 L438.7,98.3
		L440.6,97.7 L442.5,97.1 L444.4,96.4 L446.3,95.8 L448.2,95.3 L450.1,94.7 L452.0,94.3 L453.9,93.9
		L455.8,93.7 L457.7,93.5 L459.6,93.4 L461.5,93.4 L463.4,93.5 L465.3,93.8 L467.2,94.2 L469.1,94.6
		L471.0,95.2 L472.9,95.9 L474.8,96.7 L476.7,97.5 L478.6,98.5 L480.5,99.5 L482.4,100.6 L484.3,101.7
		L486.2,102.9 L488.1,104.2 L490.1,105.5 L492.0,106.9 L493.9,108.3 L495.8,109.7 L497.7,111.2 L499.6,112.7
		L501.5,114.3 L503.4,115.9 L505.3,117.5 L507.2,119.2 L509.1,120.8 L511.0,122.5 L512.9,124.2 L514.8,126.0
		L516.7,127.7 L518.6,129.5 L520.5,131.2 L522.4,133.0 L524.3,134.7 L526.2,136.5 L528.1,138.3 L530.0,140.1
		L531.9,141.8 L533.8,143.6 L535.7,145.4 L537.6,147.2 L539.6,149.1 L541.5,150.9 L543.4,152.8 L545.3,154.7
		L547.2,156.7 L549.1,158.7 L551.0,160.7 L552.9,162.8 L554.8,165.0 L556.7,167.2 L558.6,169.4 L560.5,171.7
		L562.4,174.1 L564.3,176.5 L566.2,178.9 L568.1,181.4 L570.0,183.9 L571.9,186.5 L573.8,189.0 L575.7,191.6
		L577.6,194.3 L579.5,197.0 L581.4,199.7 L583.3,202.4 L585.2,205.1 L587.1,207.9 L589.1,210.7 L591.0,213.5
		L592.9,216.3 L594.8,219.2 L596.7,222.1 L598.6,225.0 L600.5,227.9 L602.4,230.8 L604.3,233.7 L606.2,236.7
		L608.1,239.7 L610.0,242.6 L611.9,245.6 L613.8,248.6 L615.7,251.6 L617.6,254.5 L619.5,257.5 L621.4,260.5
		L623.3,263.4 L625.2,266.3 L627.1,269.2 L629.0,272.1 L630.9,275.0 L632.8,277.8 L634.7,280.6 L636.6,283.4
		L638.5,286.2 L640.5,289.0 L642.4,291.7 L644.3,294.4 L646.2,297.1 L648.1,299.8 L650.0,302.5 L651.9,305.2
		L653.8,307.8 L655.7,310.5 L657.6,313.2 L659.5,315.9 L661.4,318.6 L663.3,321.3 L665.2,324.0 L667.1,326.8
		L669.0,329.6 L670.9,332.3 L672.8,335.2 L674.7,338.0 L676.6,340.9 L678.5,343.7 L680.4,346.6 L682.3,349.5
		L684.2,352.4 L686.1,355.3 L688.0,358.2 L690.0,361.1 L691.9,364.0 L693.8,366.9 L695.7,369.7 L697.6,372.6
		L699.5,375.4 L701.4,378.2 L703.3,381.0 L705.2,383.7 L707.1,386.4 L709.0,389.1 L710.9,391.8 L712.8,394.4
		L714.7,397.0 L716.6,399.6 L718.5,402.1 L720.4,404.7 L722.3,407.2 L724.2,409.7 L726.1,412.2 L728.0,414.7
		L729.9,417.2 L731.8,419.7 L733.7,422.1 L735.6,424.6 L737.5,427.1 L739.5,429.6 L741.4,432.0 L743.3,434.5
		L745.2,437.0 L747.1,439.4 L749.0,441.9 L750.9,444.4 L752.8,446.9 L754.7,449.3 L756.6,451.8 L758.5,454.2
		L760.4,456.7 L762.3,459.1 L764.2,461.6 L766.1,464.0 L768.0,466.4 L769.9,468.7 L771.8,471.1 L773.7,473.4
		L775.6,475.7 L777.5,478.0 L779.4,480.3 L781.3,482.5 L783.2,484.7 L785.1,486.9 L787.0,489.1 L789.0,491.2
		L790.9,493.3 L792.8,495.4 L794.7,497.4 L796.6,499.4 L798.5,501.4 L800.4,503.4 L802.3,505.3 L804.2,507.2
		L806.1,509.1 L808.0,511.0 L809.9,512.8 L811.8,514.7 L813.7,516.4 L815.6,518.2 L817.5,520.0 L819.4,521.7
		L821.3,523.4 L823.2,525.1 L825.1,526.8 L827.0,528.5 L828.9,530.1 L830.8,531.7 L832.7,533.3 L834.6,534.9
		L836.5,536.5 L838.4,538.1 L840.4,539.7 L842.3,541.2 L844.2,542.8 L846.1,544.3 L848.0,545.8 L849.9,547.3
		L851.8,548.8 L853.7,550.3 L855.6,551.8 L857.5,553.3 L859.4,554.8 L861.3,556.2 L863.2,557.7 L865.1,559.1
		L867.0,560.6 L868.9,562.0 L870.8,563.4 L872.7,564.9 L874.6,566.3 L876.5,567.7 L878.4,569.1 L880.3,570.5
		L882.2,571.9 L884.1,573.3 L886.0,574.7 L887.9,576.1 L889.9,577.4 L891.8,578.8 L893.7,580.2 L895.6,581.5
		L897.5,582.9 L899.4,584.2 L901.3,585.5 L903.2,586.8 L905.1,588.1 L907.0,589.3 L908.9,590.5 L910.8,591.7
		L912.7,592.8 L914.6,594.0 L916.5,595.0 L918.4,596.1 L920.3,597.1 L922.2,598.1 L924.1,599.0 L926.0,599.9
		L927.9,600.8 L929.8,601.6 L931.7,602.5 L933.6,603.3 L935.5,604.0 L937.4,604.8 L939.4,605.5 L941.3,606.2
		L943.2,606.9 L945.1,607.6 L947.0,608.3 L948.9,608.9 L950.8,609.6 L952.7,610.2 L954.6,610.9 L956.5,611.5
		L958.4,612.2 L960.3,612.8 L962.2,613.4 L964.1,614.1 L966.0,614.7 L967.9,615.4 L969.8,616.0 L971.7,616.7
		L973.6,617.3 L975.5,617.9 L977.4,618.6 L979.3,619.2 L981.2,619.9 L983.1,620.5 L985.0,621.1 L986.9,621.7
		L988.9,622.3 L990.8,622.9 L992.7,623.5 L994.6,624.1 L996.5,624.7 L998.4,625.2 L1000.3,625.8 L1002.2,626.3
		L1004.1,626.8 L1006.0,627.4 L1007.9,627.9 L1009.8,628.4 L1011.7,628.9 L1013.6,629.4  '/></g>
	</g>
	<g id="gnuplot_plot_2" ><title>Confidence interval</title>
<g fill="none" color="white" stroke="rgb( 31, 120, 180)" stroke-width="1.00" stroke-linecap="butt" stroke-linejoin="miter">
</g>
<g fill="none" color="black" stroke="currentColor" stroke-width="1.00" stroke-linecap="butt" stroke-linejoin="miter">
	<g transform="translate(1089.0,85.0)" stroke="none" fill="black" font-family="Helvetica" font-size="12.00"  text-anchor="start">
		<text><tspan font-family="Helvetica" >Confidence interval</tspan></text>
	</g>
</g>
<g fill="none" color="black" stroke="currentColor" stroke-width="1.00" stroke-linecap="butt" stroke-linejoin="miter">
	<g stroke='none' shape-rendering='crispEdges'>
		<polygon fill = 'rgb( 31, 120, 180)' fill-opacity = '0.250000' points = '1038.5,85.6 1080.7,85.6 1080.7,76.6 1038.5,76.6 '/>
		<polygon fill = 'rgb( 31, 120, 180)' fill-opacity = '0.250000' points = '151.2,534.0 151.2,662.4 153.1,662.4 153.1,530.8 '/>
		<polygon fill = 'rgb( 31, 120, 180)' fill-opacity = '0.250000' points = '153.1,530.8 153.1,662.4 155.0,662.4 155.0,527.6 '/>
		<polygon fill = 'rgb( 31, 120, 180)' fill-opacity = '0.250000' points = '155.0,527.6 155.0,662.4 156.9,662.4 156.9,524.3 '/>
		<polygon fill = 'rgb( 31, 120, 180)' fill-opacity = '0.250000' points = '156.9,524.3 156.9,662.4 158.8,662.4 158.8,521.0 '/>
		<polygon fill = 'rgb( 31, 120, 180)' fill-opacity = '0.250000' points = '158.8,521.0 158.8,662.4 160.7,662.4 160.7,517.7 '/>
		<polygon fill = 'rgb( 31, 120, 180)' fill-opacity = '0.250000' points = '160.7,517.7 160.7,662.4 162.6,662.4 162.6,514.3 '/>
		<polygon fill = 'rgb( 31, 120, 180)' fill-opacity = '0.250000' points = '162.6,514.3 162.6,662.4 164.5,662.4 164.5,510.9 '/>
		<polygon fill = 'rgb( 31, 120, 180)' fill-opacity = '0.250000' points = '164.5,510.9 164.5,662.4 166.4,662.4 166.4,507.5 '/>
		<polygon fill = 'rgb( 31, 120, 180)' fill-opacity = '0.250000' points = '166.4,507.5 166.4,662.4 168.3,662.4 168.3,504.1 '/>
		<polygon fill = 'rgb( 31, 120, 180)' fill-opacity = '0.250000' points = '168.3,504.1 168.3,662.4 170.2,662.4 170.2,500.7 '/>
		<polygon fill = 'rgb( 31, 120, 180)' fill-opacity = '0.250000' points = '170.2,500.7 170.2,662.4 172.1,662.4 172.1,497.2 '/>
		<polygon fill = 'rgb( 31, 120, 180)' fill-opacity = '0.250000' points = '172.1,497.2 172.1,662.4 174.0,662.4 174.0,493.7 '/>
		<polygon fill = 'rgb( 31, 120, 180)' fill-opacity = '0.250000' points = '174.0,493.7 174.0,662.4 175.9,662.4 175.9,490.2 '/>
		<polygon fill = 'rgb( 31, 120, 180)' fill-opacity = '0.250000' points = '175.9,490.2 175.9,662.4 177.8,662.4 177.8,486.7 '/>
		<polygon fill = 'rgb( 31, 120, 180)' fill-opacity = '0.250000' points = '177.8,486.7 177.8,662.4 179.7,662.4 179.7,483.1 '/>
		<polygon fill = 'rgb( 31, 120, 180)' fill-opacity = '0.250000' points = '179.7,483.1 179.7,662.4 181.6,662.4 181.6,479.6 '/>
		<polygon fill = 'rgb( 31, 120, 180)' fill-opacity = '0.250000' points = '181.6,479.6 181.6,662.4 183.5,662.4 183.5,476.0 '/>
		<polygon fill = 'rgb( 31, 120, 180)' fill-opacity = '0.250000' points = '183.5,476.0 183.5,662.4 185.4,662.4 185.4,472.4 '/>
		<polygon fill = 'rgb( 31, 120, 180)' fill-opacity = '0.250000' points = '185.4,472.4 185.4,662.4 187.3,662.4 187.3,468.8 '/>
		<polygon fill = 'rgb( 31, 120, 180)' fill-opacity = '0.250000' points = '187.3,468.8 187.3,662.4 189.3,662.4 189.3,465.1 '/>
		<polygon fill = 'rgb( 31, 120, 180)' fill-opacity = '0.250000' points = '189.3,465.1 189.3,662.4 191.2,662.4 191.2,461.4 '/>
		<polygon fill = 'rgb( 31, 120, 180)' fill-opacity = '0.250000' points = '191.2,461.4 191.2,662.4 193.1,662.4 193.1,457.8 '/>
		<polygon fill = 'rgb( 31, 120, 180)' fill-opacity = '0.250000' points = '193.1,457.8 193.1,662.4 195.0,662.4 195.0,454.0 '/>
		<polygon fill = 'rgb( 31, 120, 180)' fill-opacity = '0.250000' points = '195.0,454.0 195.0,662.4 196.9,662.4 196.9,450.3 '/>
		<polygon fill = 'rgb( 31, 120, 180)' fill-opacity = '0.250000' points = '196.9,450.3 196.9,662.4 198.8,662.4 198.8,446.5 '/>
		<polygon fill = 'rgb( 31, 120, 180)' fill-opacity = '0.250000' points = '198.8,446.5 198.8,662.4 200.7,662.4 200.7,442.7 '/>
		<polygon fill = 'rgb( 31, 120, 180)' fill-opacity = '0.250000' points = '200.7,442.7 200.7,662.4 202.6,662.4 202.6,438.9 '/>
		<polygon fill = 'rgb( 31, 120, 180)' fill-opacity = '0.250000' points = '202.6,438.9 202.6,662.4 204.5,662.4 204.5,435.1 '/>
		<polygon fill = 'rgb( 31, 120, 180)' fill-opacity = '0.250000' points = '204.5,435.1 204.5,662.4 206.4,662.4 206.4,431.2 '/>
		<polygon fill = 'rgb( 31, 120, 180)' fill-opacity = '0.250000' points = '206.4,431.2 206.4,662.4 208.3,662.4 208.3,427.3 '/>
		<polygon fill = 'rgb( 31, 120, 180)' fill-opacity = '0.250000' points = '208.3,427.3 208.3,662.4 210.2,662.4 210.2,423.4 '/>
		<polygon fill = 'rgb( 31, 120, 180)' fill-opacity = '0.250000' points = '210.2,423.4 210.2,662.4 212.1,662.4 212.1,419.5 '/>
		<polygon fill = 'rgb( 31, 120, 180)' fill-opacity = '0.250000' points = '212.1,419.5 212.1,662.4 214.0,662.4 214.0,415.6 '/>
		<polygon fill = 'rgb( 31, 120, 180)' fill-opacity = '0.250000' points = '214.0,415.6 214.0,662.4 215.9,662.4 215.9,411.6 '/>
		<polygon fill = 'rgb( 31, 120, 180)' fill-opacity = '0.250000' points = '215.9,411.6 215.9,662.4 217.8,662.4 217.8,407.7 '/>
		<polygon fill = 'rgb( 31, 120, 180)' fill-opacity = '0.250000' points = '217.8,407.7 217.8,662.4 219.7,662.4 219.7,403.7 '/>
		<polygon fill = 'rgb( 31, 120, 180)' fill-opacity = '0.250000' points = '219.7,403.7 219.7,662.4 221.6,662.4 221.6,399.8 '/>
		<polygon fill = 'rgb( 31, 120, 180)' fill-opacity = '0.250000' points = '221.6,399.8 221.6,662.4 223.5,662.4 223.5,395.8 '/>
		<polygon fill = 'rgb( 31, 120, 180)' fill-opacity = '0.250000' points = '223.5,395.8 223.5,662.4 225.4,662.4 225.4,391.8 '/>
		<polygon fill = 'rgb( 31, 120, 180)' fill-opacity = '0.250000' points = '225.4,391.8 225.4,662.4 227.3,662.4 227.3,387.9 '/>
		<polygon fill = 'rgb( 31, 120, 180)' fill-opacity = '0.250000' points = '227.3,387.9 227.3,662.4 229.2,662.4 229.2,383.9 '/>
		<polygon fill = 'rgb( 31, 120, 180)' fill-opacity = '0.250000' points = '229.2,383.9 229.2,662.4 231.1,662.4 231.1,379.9 '/>
		<polygon fill = 'rgb( 31, 120, 180)' fill-opacity = '0.250000' points = '231.1,379.9 231.1,662.4 233.0,662.4 233.0,376.0 '/>
		<polygon fill = 'rgb( 31, 120, 180)' fill-opacity = '0.250000' points = '233.0,376.0 233.0,662.4 234.9,662.4 234.9,372.0 '/>
		<polygon fill = 'rgb( 31, 120, 180)' fill-opacity = '0.250000' points = '234.9,372.0 234.9,662.4 236.8,662.4 236.8,368.0 '/>
		<polygon fill = 'rgb( 31, 120, 180)' fill-opacity = '0.250000' points = '236.8,368.0 236.8,662.4 238.8,662.4 238.8,364.0 '/>
		<polygon fill = 'rgb( 31, 120, 180)' fill-opacity = '0.250000' points = '238.8,364.0 238.8,662.4 240.7,662.4 240.7,360.0 '/>
		<polygon fill = 'rgb( 31, 120, 180)' fill-opacity = '0.250000' points = '240.7,360.0 240.7,662.4 242.6,662.4 242.6,356.0 '/>
		<polygon fill = 'rgb( 31, 120, 180)' fill-opacity = '0.250000' points = '242.6,356.0 242.6,662.4 244.5,662.4 244.5,352.0 '/>
		<polygon fill = 'rgb( 31, 120, 180)' fill-opacity = '0.250000' points = '244.5,352.0 244.5,662.4 246.4,662.4 246.4,347.9 '/>
		<polygon fill = 'rgb( 31, 120, 180)' fill-opacity = '0.250000' points = '246.4,347.9 246.4,662.4 248.3,662.4 248.3,343.8 '/>
		<polygon fill = 'rgb( 31, 120, 180)' fill-opacity = '0.250000' points = '248.3,343.8 248.3,662.4 250.2,662.4 250.2,339.7 '/>
		<polygon fill = 'rgb( 31, 120, 180)' fill-opacity = '0.250000' points = '250.2,339.7 250.2,662.4 252.1,662.4 252.1,335.6 '/>
		<polygon fill = 'rgb( 31, 120, 180)' fill-opacity = '0.250000' points = '252.1,335.6 252.1,662.4 254.0,662.4 254.0,331.4 '/>
		<polygon fill = 'rgb( 31, 120, 180)' fill-opacity = '0.250000' points = '254.0,331.4 254.0,662.4 255.9,662.4 255.9,327.2 '/>
		<polygon fill = 'rgb( 31, 120, 180)' fill-opacity = '0.250000' points = '255.9,327.2 255.9,662.4 257.8,662.4 257.8,323.0 '/>
		<polygon fill = 'rgb( 31, 120, 180)' fill-opacity = '0.250000' points = '257.8,323.0 257.8,662.4 259.7,662.4 259.7,318.8 '/>
		<polygon fill = 'rgb( 31, 120, 180)' fill-opacity = '0.250000' points = '259.7,318.8 259.7,662.4 261.6,662.4 261.6,314.5 '/>
		<polygon fill = 'rgb( 31, 120, 180)' fill-opacity = '0.250000' points = '261.6,314.5 261.6,662.4 263.5,662.4 263.5,310.3 '/>
		<polygon fill = 'rgb( 31, 120, 180)' fill-opacity = '0.250000' points = '263.5,310.3 263.5,662.4 265.4,662.4 265.4,306.0 '/>
		<polygon fill = 'rgb( 31, 120, 180)' fill-opacity = '0.250000' points = '265.4,306.0 265.4,662.4 267.3,662.4 267.3,301.7 '/>
		<polygon fill = 'rgb( 31, 120, 180)' fill-opacity = '0.250000' points = '267.3,301.7 267.3,662.4 269.2,662.4 269.2,297.5 '/>
		<polygon fill = 'rgb( 31, 120, 180)' fill-opacity = '0.250000' points = '269.2,297.5 269.2,662.4 271.1,662.4 271.1,293.3 '/>
		<polygon fill = 'rgb( 31, 120, 180)' fill-opacity = '0.250000' points = '271.1,293.3 271.1,662.4 273.0,662.4 273.0,289.1 '/>
		<polygon fill = 'rgb( 31, 120, 180)' fill-opacity = '0.250000' points = '273.0,289.1 273.0,662.4 274.9,662.4 274.9,284.9 '/>
		<polygon fill = 'rgb( 31, 120, 180)' fill-opacity = '0.250000' points = '274.9,284.9 274.9,662.4 276.8,662.4 276.8,280.8 '/>
		<polygon fill = 'rgb( 31, 120, 180)' fill-opacity = '0.250000' points = '276.8,280.8 276.8,662.4 278.7,662.4 278.7,276.7 '/>
		<polygon fill = 'rgb( 31, 120, 180)' fill-opacity = '0.250000' points = '278.7,276.7 278.7,662.4 280.6,662.4 280.6,272.7 '/>
		<polygon fill = 'rgb( 31, 120, 180)' fill-opacity = '0.250000' points = '280.6,272.7 280.6,662.4 282.5,662.4 282.5,268.7 '/>
		<polygon fill = 'rgb( 31, 120, 180)' fill-opacity = '0.250000' points = '282.5,268.7 282.5,662.4 284.4,662.4 284.4,264.7 '/>
		<polygon fill = 'rgb( 31, 120, 180)' fill-opacity = '0.250000' points = '284.4,264.7 284.4,662.4 286.3,662.4 286.3,260.9 '/>
		<polygon fill = 'rgb( 31, 120, 180)' fill-opacity = '0.250000' points = '286.3,260.9 286.3,662.4 288.2,662.4 288.2,257.0 '/>
		<polygon fill = 'rgb( 31, 120, 180)' fill-opacity = '0.250000' points = '288.2,257.0 288.2,662.4 290.2,662.4 290.2,253.3 '/>
		<polygon fill = 'rgb( 31, 120, 180)' fill-opacity = '0.250000' points = '290.2,253.3 290.2,662.4 292.1,662.4 292.1,249.6 '/>
		<polygon fill = 'rgb( 31, 120, 180)' fill-opacity = '0.250000' points = '292.1,249.6 292.1,662.4 294.0,662.4 294.0,245.9 '/>
		<polygon fill = 'rgb( 31, 120, 180)' fill-opacity = '0.250000' points = '294.0,245.9 294.0,662.4 295.9,662.4 295.9,242.3 '/>
		<polygon fill = 'rgb( 31, 120, 180)' fill-opacity = '0.250000' points = '295.9,242.3 295.9,662.4 297.8,662.4 297.8,238.7 '/>
		<polygon fill = 'rgb( 31, 120, 180)' fill-opacity = '0.250000' points = '297.8,238.7 297.8,662.4 299.7,662.4 299.7,235.2 '/>
		<polygon fill = 'rgb( 31, 120, 180)' fill-opacity = '0.250000' points = '299.7,235.2 299.7,662.4 301.6,662.4 301.6,231.8 '/>
		<polygon fill = 'rgb( 31, 120, 180)' fill-opacity = '0.250000' points = '301.6,231.8 301.6,662.4 303.5,662.4 303.5,228.3 '/>
		<polygon fill = 'rgb( 31, 120, 180)' fill-opacity = '0.250000' points = '303.5,228.3 303.5,662.4 305.4,662.4 305.4,224.9 '/>
		<polygon fill = 'rgb( 31, 120, 180)' fill-opacity = '0.250000' points = '305.4,224.9 305.4,662.4 307.3,662.4 307.3,221.6 '/>
		<polygon fill = 'rgb( 31, 120, 180)' fill-opacity = '0.250000' points = '307.3,221.6 307.3,662.4 309.2,662.4 309.2,218.3 '/>
		<polygon fill = 'rgb( 31, 120, 180)' fill-opacity = '0.250000' points = '309.2,218.3 309.2,662.4 311.1,662.4 311.1,215.0 '/>
		<polygon fill = 'rgb( 31, 120, 180)' fill-opacity = '0.250000' points = '311.1,215.0 311.1,662.4 313.0,662.4 313.0,211.7 '/>
		<polygon fill = 'rgb( 31, 120, 180)' fill-opacity = '0.250000' points = '313.0,211.7 313.0,662.4 314.9,662.4 314.9,208.5 '/>
		<polygon fill = 'rgb( 31, 120, 180)' fill-opacity = '0.250000' points = '314.9,208.5 314.9,662.4 316.8,662.4 316.8,205.2 '/>
		<polygon fill = 'rgb( 31, 120, 180)' fill-opacity = '0.250000' points = '316.8,205.2 316.8,662.4 318.7,662.4 318.7,202.1 '/>
		<polygon fill = 'rgb( 31, 120, 180)' fill-opacity = '0.250000' points = '318.7,202.1 318.7,662.4 320.6,662.4 320.6,198.9 '/>
		<polygon fill = 'rgb( 31, 120, 180)' fill-opacity = '0.250000' points = '320.6,198.9 320.6,662.4 322.5,662.4 322.5,195.7 '/>
		<polygon fill = 'rgb( 31, 120, 180)' fill-opacity = '0.250000' points = '322.5,195.7 322.5,662.4 324.4,662.4 324.4,192.6 '/>
		<polygon fill = 'rgb( 31, 120, 180)' fill-opacity = '0.250000' points = '324.4,192.6 324.4,662.4 326.3,662.4 326.3,189.5 '/>
		<polygon fill = 'rgb( 31, 120, 180)' fill-opacity = '0.250000' points = '326.3,189.5 326.3,662.4 328.2,662.4 328.2,186.4 '/>
		<polygon fill = 'rgb( 31, 120, 180)' fill-opacity = '0.250000' points = '328.2,186.4 328.2,662.4 330.1,662.4 330.1,183.3 '/>
		<polygon fill = 'rgb( 31, 120, 180)' fill-opacity = '0.250000' points = '330.1,183.3 330.1,662.4 332.0,662.4 332.0,180.3 '/>
		<polygon fill = 'rgb( 31, 120, 180)' fill-opacity = '0.250000' points = '332.0,180.3 332.0,662.4 333.9,662.4 333.9,177.3 '/>
		<polygon fill = 'rgb( 31, 120, 180)' fill-opacity = '0.250000' points = '333.9,177.3 333.9,662.4 335.8,662.4 335.8,174.3 '/>
		<polygon fill = 'rgb( 31, 120, 180)' fill-opacity = '0.250000' points = '335.8,174.3 335.8,662.4 337.7,662.4 337.7,171.3 '/>
		<polygon fill = 'rgb( 31, 120, 180)' fill-opacity = '0.250000' points = '337.7,171.3 337.7,662.4 339.7,662.4 339.7,168.3 '/>
		<polygon fill = 'rgb( 31, 120, 180)' fill-opacity = '0.250000' points = '339.7,168.3 339.7,662.4 341.6,662.4 341.6,165.4 '/>
		<polygon fill = 'rgb( 31, 120, 180)' fill-opacity = '0.250000' points = '341.6,165.4 341.6,662.4 343.5,662.4 343.5,162.6 '/>
		<polygon fill = 'rgb( 31, 120, 180)' fill-opacity = '0.250000' points = '343.5,162.6 343.5,662.4 345.4,662.4 345.4,159.7 '/>
		<polygon fill = 'rgb( 31, 120, 180)' fill-opacity = '0.250000' points = '345.4,159.7 345.4,662.4 347.3,662.4 347.3,156.9 '/>
		<polygon fill = 'rgb( 31, 120, 180)' fill-opacity = '0.250000' points = '347.3,156.9 347.3,662.4 349.2,662.4 349.2,154.2 '/>
		<polygon fill = 'rgb( 31, 120, 180)' fill-opacity = '0.250000' points = '349.2,154.2 349.2,662.4 351.1,662.4 351.1,151.5 '/>
		<polygon fill = 'rgb( 31, 120, 180)' fill-opacity = '0.250000' points = '351.1,151.5 351.1,662.4 353.0,662.4 353.0,148.8 '/>
		<polygon fill = 'rgb( 31, 120, 180)' fill-opacity = '0.250000' points = '353.0,148.8 353.0,662.4 354.9,662.4 354.9,146.2 '/>
		<polygon fill = 'rgb( 31, 120, 180)' fill-opacity = '0.250000' points = '354.9,146.2 354.9,662.4 356.8,662.4 356.8,143.6 '/>
		<polygon fill = 'rgb( 31, 120, 180)' fill-opacity = '0.250000' points = '356.8,143.6 356.8,662.4 358.7,662.4 358.7,141.1 '/>
		<polygon fill = 'rgb( 31, 120, 180)' fill-opacity = '0.250000' points = '358.7,141.1 358.7,662.4 360.6,662.4 360.6,138.7 '/>
		<polygon fill = 'rgb( 31, 120, 180)' fill-opacity = '0.250000' points = '360.6,138.7 360.6,662.4 362.5,662.4 362.5,136.3 '/>
		<polygon fill = 'rgb( 31, 120, 180)' fill-opacity = '0.250000' points = '362.5,136.3 362.5,662.4 364.4,662.4 364.4,134.0 '/>
		<polygon fill = 'rgb( 31, 120, 180)' fill-opacity = '0.250000' points = '364.4,134.0 364.4,662.4 366.3,662.4 366.3,131.7 '/>
		<polygon fill = 'rgb( 31, 120, 180)' fill-opacity = '0.250000' points = '366.3,131.7 366.3,662.4 368.2,662.4 368.2,129.5 '/>
		<polygon fill = 'rgb( 31, 120, 180)' fill-opacity = '0.250000' points = '368.2,129.5 368.2,662.4 370.1,662.4 370.1,127.4 '/>
		<polygon fill = 'rgb( 31, 120, 180)' fill-opacity = '0.250000' points = '370.1,127.4 370.1,662.4 372.0,662.4 372.0,125.4 '/>
		<polygon fill = 'rgb( 31, 120, 180)' fill-opacity = '0.250000' points = '372.0,125.4 372.0,662.4 373.9,662.4 373.9,123.4 '/>
		<polygon fill = 'rgb( 31, 120, 180)' fill-opacity = '0.250000' points = '373.9,123.4 373.9,662.4 375.8,662.4 375.8,121.5 '/>
		<polygon fill = 'rgb( 31, 120, 180)' fill-opacity = '0.250000' points = '375.8,121.5 375.8,662.4 377.7,662.4 377.7,119.7 '/>
		<polygon fill = 'rgb( 31, 120, 180)' fill-opacity = '0.250000' points = '377.7,119.7 377.7,662.4 379.6,662.4 379.6,118.0 '/>
		<polygon fill = 'rgb( 31, 120, 180)' fill-opacity = '0.250000' points = '379.6,118.0 379.6,662.4 381.5,662.4 381.5,116.4 '/>
		<polygon fill = 'rgb( 31, 120, 180)' fill-opacity = '0.250000' points = '381.5,116.4 381.5,662.4 383.4,662.4 383.4,114.9 '/>
		<polygon fill = 'rgb( 31, 120, 180)' fill-opacity = '0.250000' points = '383.4,114.9 383.4,662.4 385.3,662.4 385.3,113.5 '/>
		<polygon fill = 'rgb( 31, 120, 180)' fill-opacity = '0.250000' points = '385.3,113.5 385.3,662.4 387.2,662.4 387.2,112.2 '/>
		<polygon fill = 'rgb( 31, 120, 180)' fill-opacity = '0.250000' points = '387.2,112.2 387.2,662.4 389.2,662.4 389.2,111.0 '/>
		<polygon fill = 'rgb( 31, 120, 180)' fill-opacity = '0.250000' points = '389.2,111.0 389.2,662.4 391.1,662.4 391.1,109.9 '/>
		<polygon fill = 'rgb( 31, 120, 180)' fill-opacity = '0.250000' points = '391.1,109.9 391.1,662.4 393.0,662.4 393.0,108.9 '/>
		<polygon fill = 'rgb( 31, 120, 180)' fill-opacity = '0.250000' points = '393.0,108.9 393.0,662.4 394.9,662.4 394.9,108.0 '/>
		<polygon fill = 'rgb( 31, 120, 180)' fill-opacity = '0.250000' points = '394.9,108.0 394.9,662.4 396.8,662.4 396.8,107.2 '/>
		<polygon fill = 'rgb( 31, 120, 180)' fill-opacity = '0.250000' points = '396.8,107.2 396.8,662.4 398.7,662.4 398.7,106.6 '/>
		<polygon fill = 'rgb( 31, 120, 180)' fill-opacity = '0.250000' points = '398.7,106.6 398.7,662.4 400.6,662.4 400.6,106.0 '/>
		<polygon fill = 'rgb( 31, 120, 180)' fill-opacity = '0.250000' points = '400.6,106.0 400.6,662.4 402.5,662.4 402.5,105.5 '/>
		<polygon fill = 'rgb( 31, 120, 180)' fill-opacity = '0.250000' points = '402.5,105.5 402.5,662.4 404.4,662.4 404.4,105.0 '/>
		<polygon fill = 'rgb( 31, 120, 180)' fill-opacity = '0.250000' points = '404.4,105.0 404.4,662.4 406.3,662.4 406.3,104.7 '/>
		<polygon fill = 'rgb( 31, 120, 180)' fill-opacity = '0.250000' points = '406.3,104.7 406.3,662.4 408.2,662.4 408.2,104.4 '/>
		<polygon fill = 'rgb( 31, 120, 180)' fill-opacity = '0.250000' points = '408.2,104.4 408.2,662.4 410.1,662.4 410.1,104.1 '/>
		<polygon fill = 'rgb( 31, 120, 180)' fill-opacity = '0.250000' points = '410.1,104.1 410.1,662.4 412.0,662.4 412.0,103.9 '/>
		<polygon fill = 'rgb( 31, 120, 180)' fill-opacity = '0.250000' points = '412.0,103.9 412.0,662.4 413.9,662.4 413.9,103.6 '/>
		<polygon fill = 'rgb( 31, 120, 180)' fill-opacity = '0.250000' points = '413.9,103.6 413.9,662.4 415.8,662.4 415.8,103.4 '/>
		<polygon fill = 'rgb( 31, 120, 180)' fill-opacity = '0.250000' points = '415.8,103.4 415.8,662.4 417.7,662.4 417.7,103.2 '/>
		<polygon fill = 'rgb( 31, 120, 180)' fill-opacity = '0.250000' points = '417.7,103.2 417.7,662.4 419.6,662.4 419.6,103.0 '/>
		<polygon fill = 'rgb( 31, 120, 180)' fill-opacity = '0.250000' points = '419.6,103.0 419.6,662.4 421.5,662.4 421.5,102.7 '/>
		<polygon fill = 'rgb( 31, 120, 180)' fill-opacity = '0.250000' points = '421.5,102.7 421.5,662.4 423.4,662.4 423.4,102.4 '/>
		<polygon fill = 'rgb( 31, 120, 180)' fill-opacity = '0.250000' points = '423.4,102.4 423.4,662.4 425.3,662.4 425.3,102.0 '/>
		<polygon fill = 'rgb( 31, 120, 180)' fill-opacity = '0.250000' points = '425.3,102.0 425.3,662.4 427.2,662.4 427.2,101.6 '/>
		<polygon fill = 'rgb( 31, 120, 180)' fill-opacity = '0.250000' points = '427.2,101.6 427.2,662.4 429.1,662.4 429.1,101.2 '/>
		<polygon fill = 'rgb( 31, 120, 180)' fill-opacity = '0.250000' points = '429.1,101.2 429.1,662.4 431.0,662.4 431.0,100.7 '/>
		<polygon fill = 'rgb( 31, 120, 180)' fill-opacity = '0.250000' points = '431.0,100.7 431.0,662.4 432.9,662.4 432.9,100.2 '/>
		<polygon fill = 'rgb( 31, 120, 180)' fill-opacity = '0.250000' points = '432.9,100.2 432.9,662.4 434.8,662.4 434.8,99.6 '/>
		<polygon fill = 'rgb( 31, 120, 180)' fill-opacity = '0.250000' points = '434.8,99.6 434.8,662.4 436.7,662.4 436.7,99.0 '/>
		<polygon fill = 'rgb( 31, 120, 180)' fill-opacity = '0.250000' points = '436.7,99.0 436.7,662.4 438.7,662.4 438.7,98.3 '/>
		<polygon fill = 'rgb( 31, 120, 180)' fill-opacity = '0.250000' points = '438.7,98.3 438.7,662.4 440.6,662.4 440.6,97.7 '/>
		<polygon fill = 'rgb( 31, 120, 180)' fill-opacity = '0.250000' points = '440.6,97.7 440.6,662.4 442.5,662.4 442.5,97.1 '/>
		<polygon fill = 'rgb( 31, 120, 180)' fill-opacity = '0.250000' points = '442.5,97.1 442.5,662.4 444.4,662.4 444.4,96.4 '/>
		<polygon fill = 'rgb( 31, 120, 180)' fill-opacity = '0.250000' points = '444.4,96.4 444.4,662.4 446.3,662.4 446.3,95.8 '/>
		<polygon fill = 'rgb( 31, 120, 180)' fill-opacity = '0.250000' points = '446.3,95.8 446.3,662.4 448.2,662.4 448.2,95.3 '/>
		<polygon fill = 'rgb( 31, 120, 180)' fill-opacity = '0.250000' points = '448.2,95.3 448.2,662.4 450.1,662.4 450.1,94.7 '/>
		<polygon fill = 'rgb( 31, 120, 180)' fill-opacity = '0.250000' points = '450.1,94.7 450.1,662.4 452.0,662.4 452.0,94.3 '/>
		<polygon fill = 'rgb( 31, 120, 180)' fill-opacity = '0.250000' points = '452.0,94.3 452.0,662.4 453.9,662.4 453.9,93.9 '/>
		<polygon fill = 'rgb( 31, 120, 180)' fill-opacity = '0.250000' points = '453.9,93.9 453.9,662.4 455.8,662.4 455.8,93.7 '/>
		<polygon fill = 'rgb( 31, 120, 180)' fill-opacity = '0.250000' points = '455.8,93.7 455.8,662.4 457.7,662.4 457.7,93.5 '/>
		<polygon fill = 'rgb( 31, 120, 180)' fill-opacity = '0.250000' points = '457.7,93.5 457.7,662.4 459.6,662.4 459.6,93.4 '/>
		<polygon fill = 'rgb( 31, 120, 180)' fill-opacity = '0.250000' points = '459.6,93.4 459.6,662.4 461.5,662.4 461.5,93.4 '/>
		<polygon fill = 'rgb( 31, 120, 180)' fill-opacity = '0.250000' points = '461.5,93.4 461.5,662.4 463.4,662.4 463.4,93.5 '/>
		<polygon fill = 'rgb( 31, 120, 180)' fill-opacity = '0.250000' points = '463.4,93.5 463.4,662.4 465.3,662.4 465.3,93.8 '/>
		<polygon fill = 'rgb( 31, 120, 180)' fill-opacity = '0.250000' points = '465.3,93.8 465.3,662.4 467.2,662.4 467.2,94.2 '/>
		<polygon fill = 'rgb( 31, 120, 180)' fill-opacity = '0.250000' points = '467.2,94.2 467.2,662.4 469.1,662.4 469.1,94.6 '/>
		<polygon fill = 'rgb( 31, 120, 180)' fill-opacity = '0.250000' points = '469.1,94.6 469.1,662.4 471.0,662.4 471.0,95.2 '/>
		<polygon fill = 'rgb( 31, 120, 180)' fill-opacity = '0.250000' points = '471.0,95.2 471.0,662.4 472.9,662.4 472.9,95.9 '/>
		<polygon fill = 'rgb( 31, 120, 180)' fill-opacity = '0.250000' points = '472.9,95.9 472.9,662.4 474.8,662.4 474.8,96.7 '/>
		<polygon fill = 'rgb( 31, 120, 180)' fill-opacity = '0.250000' points = '474.8,96.7 474.8,662.4 476.7,662.4 476.7,97.5 '/>
		<polygon fill = 'rgb( 31, 120, 180)' fill-opacity = '0.250000' points = '476.7,97.5 476.7,662.4 478.6,662.4 478.6,98.5 '/>
		<polygon fill = 'rgb( 31, 120, 180)' fill-opacity = '0.250000' points = '478.6,98.5 478.6,662.4 480.5,662.4 480.5,99.5 '/>
		<polygon fill = 'rgb( 31, 120, 180)' fill-opacity = '0.250000' points = '480.5,99.5 480.5,662.4 482.4,662.4 482.4,100.6 '/>
		<polygon fill = 'rgb( 31, 120, 180)' fill-opacity = '0.250000' points = '482.4,100.6 482.4,662.4 484.3,662.4 484.3,101.7 '/>
		<polygon fill = 'rgb( 31, 120, 180)' fill-opacity = '0.250000' points = '484.3,101.7 484.3,662.4 486.2,662.4 486.2,102.9 '/>
		<polygon fill = 'rgb( 31, 120, 180)' fill-opacity = '0.250000' points = '486.2,102.9 486.2,662.4 488.1,662.4 488.1,104.2 '/>
		<polygon fill = 'rgb( 31, 120, 180)' fill-opacity = '0.250000' points = '488.1,104.2 488.1,662.4 490.1,662.4 490.1,105.5 '/>
		<polygon fill = 'rgb( 31, 120, 180)' fill-opacity = '0.250000' points = '490.1,105.5 490.1,662.4 492.0,662.4 492.0,106.9 '/>
		<polygon fill = 'rgb( 31, 120, 180)' fill-opacity = '0.250000' points = '492.0,106.9 492.0,662.4 493.9,662.4 493.9,108.3 '/>
		<polygon fill = 'rgb( 31, 120, 180)' fill-opacity = '0.250000' points = '493.9,108.3 493.9,662.4 495.8,662.4 495.8,109.7 '/>
		<polygon fill = 'rgb( 31, 120, 180)' fill-opacity = '0.250000' points = '495.8,109.7 495.8,662.4 497.7,662.4 497.7,111.2 '/>
		<polygon fill = 'rgb( 31, 120, 180)' fill-opacity = '0.250000' points = '497.7,111.2 497.7,662.4 499.6,662.4 499.6,112.7 '/>
		<polygon fill = 'rgb( 31, 120, 180)' fill-opacity = '0.250000' points = '499.6,112.7 499.6,662.4 501.5,662.4 501.5,114.3 '/>
		<polygon fill = 'rgb( 31, 120, 180)' fill-opacity = '0.250000' points = '501.5,114.3 501.5,662.4 503.4,662.4 503.4,115.9 '/>
		<polygon fill = 'rgb( 31, 120, 180)' fill-opacity = '0.250000' points = '503.4,115.9 503.4,662.4 505.3,662.4 505.3,117.5 '/>
		<polygon fill = 'rgb( 31, 120, 180)' fill-opacity = '0.250000' points = '505.3,117.5 505.3,662.4 507.2,662.4 507.2,119.2 '/>
		<polygon fill = 'rgb( 31, 120, 180)' fill-opacity = '0.250000' points = '507.2,119.2 507.2,662.4 509.1,662.4 509.1,120.8 '/>
		<polygon fill = 'rgb( 31, 120, 180)' fill-opacity = '0.250000' points = '509.1,120.8 509.1,662.4 511.0,662.4 511.0,122.5 '/>
		<polygon fill = 'rgb( 31, 120, 180)' fill-opacity = '0.250000' points = '511.0,122.5 511.0,662.4 512.9,662.4 512.9,124.2 '/>
		<polygon fill = 'rgb( 31, 120, 180)' fill-opacity = '0.250000' points = '512.9,124.2 512.9,662.4 514.8,662.4 514.8,126.0 '/>
		<polygon fill = 'rgb( 31, 120, 180)' fill-opacity = '0.250000' points = '514.8,126.0 514.8,662.4 516.7,662.4 516.7,127.7 '/>
		<polygon fill = 'rgb( 31, 120, 180)' fill-opacity = '0.250000' points = '516.7,127.7 516.7,662.4 518.6,662.4 518.6,129.5 '/>
		<polygon fill = 'rgb( 31, 120, 180)' fill-opacity = '0.250000' points = '518.6,129.5 518.6,662.4 520.5,662.4 520.5,131.2 '/>
		<polygon fill = 'rgb( 31, 120, 180)' fill-opacity = '0.250000' points = '520.5,131.2 520.5,662.4 522.4,662.4 522.4,133.0 '/>
		<polygon fill = 'rgb( 31, 120, 180)' fill-opacity = '0.250000' points = '522.4,133.0 522.4,662.4 524.3,662.4 524.3,134.7 '/>
		<polygon fill = 'rgb( 31, 120, 180)' fill-opacity = '0.250000' points = '524.3,134.7 524.3,662.4 526.2,662.4 526.2,136.5 '/>
		<polygon fill = 'rgb( 31, 120, 180)' fill-opacity = '0.250000' points = '526.2,136.5 526.2,662.4 528.1,662.4 528.1,138.3 '/>
		<polygon fill = 'rgb( 31, 120, 180)' fill-opacity = '0.250000' points = '528.1,138.3 528.1,662.4 530.0,662.4 530.0,140.1 '/>
		<polygon fill = 'rgb( 31, 120, 180)' fill-opacity = '0.250000' points = '530.0,140.1 530.0,662.4 531.9,662.4 531.9,141.8 '/>
		<polygon fill = 'rgb( 31, 120, 180)' fill-opacity = '0.250000' points = '531.9,141.8 531.9,662.4 533.8,662.4 533.8,143.6 '/>
		<polygon fill = 'rgb( 31, 120, 180)' fill-opacity = '0.250000' points = '533.8,143.6 533.8,662.4 535.7,662.4 535.7,145.4 '/>
		<polygon fill = 'rgb( 31, 120, 180)' fill-opacity = '0.250000' points = '535.7,145.4 535.7,662.4 537.6,662.4 537.6,147.2 '/>
		<polygon fill = 'rgb( 31, 120, 180)' fill-opacity = '0.250000' points = '537.6,147.2 537.6,662.4 539.6,662.4 539.6,149.1 '/>
		<polygon fill = 'rgb( 31, 120, 180)' fill-opacity = '0.250000' points = '539.6,149.1 539.6,662.4 541.5,662.4 541.5,150.9 '/>
		<polygon fill = 'rgb( 31, 120, 180)' fill-opacity = '0.250000' points = '541.5,150.9 541.5,662.4 543.4,662.4 543.4,152.8 '/>
		<polygon fill = 'rgb( 31, 120, 180)' fill-opacity = '0.250000' points = '543.4,152.8 543.4,662.4 545.3,662.4 545.3,154.7 '/>
		<polygon fill = 'rgb( 31, 120, 180)' fill-opacity = '0.250000' points = '545.3,154.7 545.3,662.4 547.2,662.4 547.2,156.7 '/>
		<polygon fill = 'rgb( 31, 120, 180)' fill-opacity = '0.250000' points = '547.2,156.7 547.2,662.4 549.1,662.4 549.1,158.7 '/>
		<polygon fill = 'rgb( 31, 120, 180)' fill-opacity = '0.250000' points = '549.1,158.7 549.1,662.4 551.0,662.4 551.0,160.7 '/>
		<polygon fill = 'rgb( 31, 120, 180)' fill-opacity = '0.250000' points = '551.0,160.7 551.0,662.4 552.9,662.4 552.9,162.8 '/>
		<polygon fill = 'rgb( 31, 120, 180)' fill-opacity = '0.250000' points = '552.9,162.8 552.9,662.4 554.8,662.4 554.8,165.0 '/>
		<polygon fill = 'rgb( 31, 120, 180)' fill-opacity = '0.250000' points = '554.8,165.0 554.8,662.4 556.7,662.4 556.7,167.2 '/>
		<polygon fill = 'rgb( 31, 120, 180)' fill-opacity = '0.250000' points = '556.7,167.2 556.7,662.4 558.6,662.4 558.6,169.4 '/>
		<polygon fill = 'rgb( 31, 120, 180)' fill-opacity = '0.250000' points = '558.6,169.4 558.6,662.4 560.5,662.4 560.5,171.7 '/>
		<polygon fill = 'rgb( 31, 120, 180)' fill-opacity = '0.250000' points = '560.5,171.7 560.5,662.4 562.4,662.4 562.4,174.1 '/>
		<polygon fill = 'rgb( 31, 120, 180)' fill-opacity = '0.250000' points = '562.4,174.1 562.4,662.4 564.3,662.4 564.3,176.5 '/>
		<polygon fill = 'rgb( 31, 120, 180)' fill-opacity = '0.250000' points = '564.3,176.5 564.3,662.4 566.2,662.4 566.2,178.9 '/>
		<polygon fill = 'rgb( 31, 120, 180)' fill-opacity = '0.250000' points = '566.2,178.9 566.2,662.4 568.1,662.4 568.1,181.4 '/>
		<polygon fill = 'rgb( 31, 120, 180)' fill-opacity = '0.250000' points = '568.1,181.4 568.1,662.4 570.0,662.4 570.0,183.9 '/>
		<polygon fill = 'rgb( 31, 120, 180)' fill-opacity = '0.250000' points = '570.0,183.9 570.0,662.4 571.9,662.4 571.9,186.5 '/>
		<polygon fill = 'rgb( 31, 120, 180)' fill-opacity = '0.250000' points = '571.9,186.5 571.9,662.4 573.8,662.4 573.8,189.0 '/>
		<polygon fill = 'rgb( 31, 120, 180)' fill-opacity = '0.250000' points = '573.8,189.0 573.8,662.4 575.7,662.4 575.7,191.6 '/>
		<polygon fill = 'rgb( 31, 120, 180)' fill-opacity = '0.250000' points = '575.7,191.6 575.7,662.4 577.6,662.4 577.6,194.3 '/>
		<polygon fill = 'rgb( 31, 120, 180)' fill-opacity = '0.250000' points = '577.6,194.3 577.6,662.4 579.5,662.4 579.5,197.0 '/>
		<polygon fill = 'rgb( 31, 120, 180)' fill-opacity = '0.250000' points = '579.5,197.0 579.5,662.4 581.4,662.4 581.4,199.7 '/>
		<polygon fill = 'rgb( 31, 120, 180)' fill-opacity = '0.250000' points = '581.4,199.7 581.4,662.4 583.3,662.4 583.3,202.4 '/>
		<polygon fill = 'rgb( 31, 120, 180)' fill-opacity = '0.250000' points = '583.3,202.4 583.3,662.4 585.2,662.4 585.2,205.1 '/>
		<polygon fill = 'rgb( 31, 120, 180)' fill-opacity = '0.250000' points = '585.2,205.1 585.2,662.4 587.1,662.4 587.1,207.9 '/>
		<polygon fill = 'rgb( 31, 120, 180)' fill-opacity = '0.250000' points = '587.1,207.9 587.1,662.4 589.1,662.4 589.1,210.7 '/>
		<polygon fill = 'rgb( 31, 120, 180)' fill-opacity = '0.250000' points = '589.1,210.7 589.1,662.4 591.0,662.4 591.0,213.5 '/>
		<polygon fill = 'rgb( 31, 120, 180)' fill-opacity = '0.250000' points = '591.0,213.5 591.0,662.4 592.9,662.4 592.9,216.3 '/>
		<polygon fill = 'rgb( 31, 120, 180)' fill-opacity = '0.250000' points = '592.9,216.3 592.9,662.4 594.8,662.4 594.8,219.2 '/>
		<polygon fill = 'rgb( 31, 120, 180)' fill-opacity = '0.250000' points = '594.8,219.2 594.8,662.4 596.7,662.4 596.7,222.1 '/>
		<polygon fill = 'rgb( 31, 120, 180)' fill-opacity = '0.250000' points = '596.7,222.1 596.7,662.4 598.6,662.4 598.6,225.0 '/>
		<polygon fill = 'rgb( 31, 120, 180)' fill-opacity = '0.250000' points = '598.6,225.0 598.6,662.4 600.5,662.4 600.5,227.9 '/>
		<polygon fill = 'rgb( 31, 120, 180)' fill-opacity = '0.250000' points = '600.5,227.9 600.5,662.4 602.4,662.4 602.4,230.8 '/>
		<polygon fill = 'rgb( 31, 120, 180)' fill-opacity = '0.250000' points = '602.4,230.8 602.4,662.4 604.3,662.4 604.3,233.7 '/>
		<polygon fill = 'rgb( 31, 120, 180)' fill-opacity = '0.250000' points = '604.3,233.7 604.3,662.4 606.2,662.4 606.2,236.7 '/>
		<polygon fill = 'rgb( 31, 120, 180)' fill-opacity = '0.250000' points = '606.2,236.7 606.2,662.4 608.1,662.4 608.1,239.7 '/>
		<polygon fill = 'rgb( 31, 120, 180)' fill-opacity = '0.250000' points = '608.1,239.7 608.1,662.4 610.0,662.4 610.0,242.6 '/>
		<polygon fill = 'rgb( 31, 120, 180)' fill-opacity = '0.250000' points = '610.0,242.6 610.0,662.4 611.9,662.4 611.9,245.6 '/>
		<polygon fill = 'rgb( 31, 120, 180)' fill-opacity = '0.250000' points = '611.9,245.6 611.9,662.4 613.8,662.4 613.8,248.6 '/>
		<polygon fill = 'rgb( 31, 120, 180)' fill-opacity = '0.250000' points = '613.8,248.6 613.8,662.4 615.7,662.4 615.7,251.6 '/>
		<polygon fill = 'rgb( 31, 120, 180)' fill-opacity = '0.250000' points = '615.7,251.6 615.7,662.4 617.6,662.4 617.6,254.5 '/>
		<polygon fill = 'rgb( 31, 120, 180)' fill-opacity = '0.250000' points = '617.6,254.5 617.6,662.4 619.5,662.4 619.5,257.5 '/>
		<polygon fill = 'rgb( 31, 120, 180)' fill-opacity = '0.250000' points = '619.5,257.5 619.5,662.4 621.4,662.4 621.4,260.5 '/>
		<polygon fill = 'rgb( 31, 120, 180)' fill-opacity = '0.250000' points = '621.4,260.5 621.4,662.4 623.3,662.4 623.3,263.4 '/>
		<polygon fill = 'rgb( 31, 120, 180)' fill-opacity = '0.250000' points = '623.3,263.4 623.3,662.4 625.2,662.4 625.2,266.3 '/>
		<polygon fill = 'rgb( 31, 120, 180)' fill-opacity = '0.250000' points = '625.2,266.3 625.2,662.4 627.1,662.4 627.1,269.2 '/>
		<polygon fill = 'rgb( 31, 120, 180)' fill-opacity = '0.250000' points = '627.1,269.2 627.1,662.4 629.0,662.4 629.0,272.1 '/>
		<polygon fill = 'rgb( 31, 120, 180)' fill-opacity = '0.250000' points = '629.0,272.1 629.0,662.4 630.9,662.4 630.9,275.0 '/>
		<polygon fill = 'rgb( 31, 120, 180)' fill-opacity = '0.250000' points = '630.9,275.0 630.9,662.4 632.8,662.4 632.8,277.8 '/>
		<polygon fill = 'rgb( 31, 120, 180)' fill-opacity = '0.250000' points = '632.8,277.8 632.8,662.4 634.7,662.4 634.7,280.6 '/>
		<polygon fill = 'rgb( 31, 120, 180)' fill-opacity = '0.250000' points = '634.7,280.6 634.7,662.4 636.6,662.4 636.6,283.4 '/>
		<polygon fill = 'rgb( 31, 120, 180)' fill-opacity = '0.250000' points = '636.6,283.4 636.6,662.4 638.5,662.4 638.5,286.2 '/>
		<polygon fill = 'rgb( 31, 120, 180)' fill-opacity = '0.250000' points = '638.5,286.2 638.5,662.4 640.5,662.4 640.5,289.0 '/>
		<polygon fill = 'rgb( 31, 120, 180)' fill-opacity = '0.250000' points = '640.5,289.0 640.5,662.4 642.4,662.4 642.4,291.7 '/>
		<polygon fill = 'rgb( 31, 120, 180)' fill-opacity = '0.250000' points = '642.4,291.7 642.4,662.4 644.3,662.4 644.3,294.4 '/>
		<polygon fill = 'rgb( 31, 120, 180)' fill-opacity = '0.250000' points = '644.3,294.4 644.3,662.4 646.2,662.4 646.2,297.1 '/>
		<polygon fill = 'rgb( 31, 120, 180)' fill-opacity = '0.250000' points = '646.2,297.1 646.2,662.4 648.1,662.4 648.1,299.8 '/>
		<polygon fill = 'rgb( 31, 120, 180)' fill-opacity = '0.250000' points = '648.1,299.8 648.1,662.4 650.0,662.4 650.0,302.5 '/>
		<polygon fill = 'rgb( 31, 120, 180)' fill-opacity = '0.250000' points = '650.0,302.5 650.0,662.4 651.9,662.4 651.9,305.2 '/>
		<polygon fill = 'rgb( 31, 120, 180)' fill-opacity = '0.250000' points = '651.9,305.2 651.9,662.4 653.8,662.4 653.8,307.8 '/>
		<polygon fill = 'rgb( 31, 120, 180)' fill-opacity = '0.250000' points = '653.8,307.8 653.8,662.4 655.7,662.4 655.7,310.5 '/>
		<polygon fill = 'rgb( 31, 120, 180)' fill-opacity = '0.250000' points = '655.7,310.5 655.7,662.4 657.6,662.4 657.6,313.2 '/>
		<polygon fill = 'rgb( 31, 120, 180)' fill-opacity = '0.250000' points = '657.6,313.2 657.6,662.4 659.5,662.4 659.5,315.9 '/>
		<polygon fill = 'rgb( 31, 120, 180)' fill-opacity = '0.250000' points = '659.5,315.9 659.5,662.4 661.4,662.4 661.4,318.6 '/>
		<polygon fill = 'rgb( 31, 120, 180)' fill-opacity = '0.250000' points = '661.4,318.6 661.4,662.4 663.3,662.4 663.3,321.3 '/>
		<polygon fill = 'rgb( 31, 120, 180)' fill-opacity = '0.250000' points = '663.3,321.3 663.3,662.4 665.2,662.4 665.2,324.0 '/>
		<polygon fill = 'rgb( 31, 120, 180)' fill-opacity = '0.250000' points = '665.2,324.0 665.2,662.4 667.1,662.4 667.1,326.8 '/>
		<polygon fill = 'rgb( 31, 120, 180)' fill-opacity = '0.250000' points = '667.1,326.8 667.1,662.4 669.0,662.4 669.0,329.6 '/>
		<polygon fill = 'rgb( 31, 120, 180)' fill-opacity = '0.250000' points = '669.0,329.6 669.0,662.4 670.9,662.4 670.9,332.3 '/>
		<polygon fill = 'rgb( 31, 120, 180)' fill-opacity = '0.250000' points = '670.9,332.3 670.9,662.4 672.8,662.4 672.8,335.2 '/>
		<polygon fill = 'rgb( 31, 120, 180)' fill-opacity = '0.250000' points = '672.8,335.2 672.8,662.4 674.7,662.4 674.7,338.0 '/>
		<polygon fill = 'rgb( 31, 120, 180)' fill-opacity = '0.250000' points = '674.7,338.0 674.7,662.4 676.6,662.4 676.6,340.9 '/>
		<polygon fill = 'rgb( 31, 120, 180)' fill-opacity = '0.250000' points = '676.6,340.9 676.6,662.4 678.5,662.4 678.5,343.7 '/>
		<polygon fill = 'rgb( 31, 120, 180)' fill-opacity = '0.250000' points = '678.5,343.7 678.5,662.4 680.4,662.4 680.4,346.6 '/>
		<polygon fill = 'rgb( 31, 120, 180)' fill-opacity = '0.250000' points = '680.4,346.6 680.4,662.4 682.3,662.4 682.3,349.5 '/>
		<polygon fill = 'rgb( 31, 120, 180)' fill-opacity = '0.250000' points = '682.3,349.5 682.3,662.4 684.2,662.4 684.2,352.4 '/>
		<polygon fill = 'rgb( 31, 120, 180)' fill-opacity = '0.250000' points = '684.2,352.4 684.2,662.4 686.1,662.4 686.1,355.3 '/>
		<polygon fill = 'rgb( 31, 120, 180)' fill-opacity = '0.250000' points = '686.1,355.3 686.1,662.4 688.0,662.4 688.0,358.2 '/>
		<polygon fill = 'rgb( 31, 120, 180)' fill-opacity = '0.250000' points = '688.0,358.2 688.0,662.4 690.0,662.4 690.0,361.1 '/>
		<polygon fill = 'rgb( 31, 120, 180)' fill-opacity = '0.250000' points = '690.0,361.1 690.0,662.4 691.9,662.4 691.9,364.0 '/>
		<polygon fill = 'rgb( 31, 120, 180)' fill-opacity = '0.250000' points = '691.9,364.0 691.9,662.4 693.8,662.4 693.8,366.9 '/>
		<polygon fill = 'rgb( 31, 120, 180)' fill-opacity = '0.250000' points = '693.8,366.9 693.8,662.4 695.7,662.4 695.7,369.7 '/>
		<polygon fill = 'rgb( 31, 120, 180)' fill-opacity = '0.250000' points = '695.7,369.7 695.7,662.4 697.6,662.4 697.6,372.6 '/>
		<polygon fill = 'rgb( 31, 120, 180)' fill-opacity = '0.250000' points = '697.6,372.6 697.6,662.4 699.5,662.4 699.5,375.4 '/>
		<polygon fill = 'rgb( 31, 120, 180)' fill-opacity = '0.250000' points = '699.5,375.4 699.5,662.4 701.4,662.4 701.4,378.2 '/>
		<polygon fill = 'rgb( 31, 120, 180)' fill-opacity = '0.250000' points = '701.4,378.2 701.4,662.4 703.3,662.4 703.3,381.0 '/>
		<polygon fill = 'rgb( 31, 120, 180)' fill-opacity = '0.250000' points = '703.3,381.0 703.3,662.4 705.2,662.4 705.2,383.7 '/>
		<polygon fill = 'rgb( 31, 120, 180)' fill-opacity = '0.250000' points = '705.2,383.7 705.2,662.4 707.1,662.4 707.1,386.4 '/>
		<polygon fill = 'rgb( 31, 120, 180)' fill-opacity = '0.250000' points = '707.1,386.4 707.1,662.4 709.0,662.4 709.0,389.1 '/>
		<polygon fill = 'rgb( 31, 120, 180)' fill-opacity = '0.250000' points = '709.0,389.1 709.0,662.4 710.9,662.4 710.9,391.8 '/>
		<polygon fill = 'rgb( 31, 120, 180)' fill-opacity = '0.250000' points = '710.9,391.8 710.9,662.4 712.8,662.4 712.8,394.4 '/>
		<polygon fill = 'rgb( 31, 120, 180)' fill-opacity = '0.250000' points = '712.8,394.4 712.8,662.4 714.7,662.4 714.7,397.0 '/>
		<polygon fill = 'rgb( 31, 120, 180)' fill-opacity = '0.250000' points = '714.7,397.0 714.7,662.4 716.6,662.4 716.6,399.6 '/>
		<polygon fill = 'rgb( 31, 120, 180)' fill-opacity = '0.250000' points = '716.6,399.6 716.6,662.4 718.5,662.4 718.5,402.1 '/>
		<polygon fill = 'rgb( 31, 120, 180)' fill-opacity = '0.250000' points = '718.5,402.1 718.5,662.4 720.4,662.4 720.4,404.7 '/>
		<polygon fill = 'rgb( 31, 120, 180)' fill-opacity = '0.250000' points = '720.4,404.7 720.4,662.4 722.3,662.4 722.3,407.2 '/>
		<polygon fill = 'rgb( 31, 120, 180)' fill-opacity = '0.250000' points = '722.3,407.2 722.3,662.4 724.2,662.4 724.2,409.7 '/>
		<polygon fill = 'rgb( 31, 120, 180)' fill-opacity = '0.250000' points = '724.2,409.7 724.2,662.4 726.1,662.4 726.1,412.2 '/>
		<polygon fill = 'rgb( 31, 120, 180)' fill-opacity = '0.250000' points = '726.1,412.2 726.1,662.4 728.0,662.4 728.0,414.7 '/>
		<polygon fill = 'rgb( 31, 120, 180)' fill-opacity = '0.250000' points = '728.0,414.7 728.0,662.4 729.9,662.4 729.9,417.2 '/>
		<polygon fill = 'rgb( 31, 120, 180)' fill-opacity = '0.250000' points = '729.9,417.2 729.9,662.4 731.8,662.4 731.8,419.7 '/>
		<polygon fill = 'rgb( 31, 120, 180)' fill-opacity = '0.250000' points = '731.8,419.7 731.8,662.4 733.7,662.4 733.7,422.1 '/>
		<polygon fill = 'rgb( 31, 120, 180)' fill-opacity = '0.250000' points = '733.7,422.1 733.7,662.4 735.6,662.4 735.6,424.6 '/>
		<polygon fill = 'rgb( 31, 120, 180)' fill-opacity = '0.250000' points = '735.6,424.6 735.6,662.4 737.5,662.4 737.5,427.1 '/>
		<polygon fill = 'rgb( 31, 120, 180)' fill-opacity = '0.250000' points = '737.5,427.1 737.5,662.4 739.5,662.4 739.5,429.6 '/>
		<polygon fill = 'rgb( 31, 120, 180)' fill-opacity = '0.250000' points = '739.5,429.6 739.5,662.4 741.4,662.4 741.4,432.0 '/>
		<polygon fill = 'rgb( 31, 120, 180)' fill-opacity = '0.250000' points = '741.4,432.0 741.4,662.4 743.3,662.4 743.3,434.5 '/>
		<polygon fill = 'rgb( 31, 120, 180)' fill-opacity = '0.250000' points = '743.3,434.5 743.3,662.4 745.2,662.4 745.2,437.0 '/>
		<polygon fill = 'rgb( 31, 120, 180)' fill-opacity = '0.250000' points = '745.2,437.0 745.2,662.4 747.1,662.4 747.1,439.4 '/>
		<polygon fill = 'rgb( 31, 120, 180)' fill-opacity = '0.250000' points = '747.1,439.4 747.1,662.4 749.0,662.4 749.0,441.9 '/>
		<polygon fill = 'rgb( 31, 120, 180)' fill-opacity = '0.250000' points = '749.0,441.9 749.0,662.4 750.9,662.4 750.9,444.4 '/>
		<polygon fill = 'rgb( 31, 120, 180)' fill-opacity = '0.250000' points = '750.9,444.4 750.9,662.4 752.8,662.4 752.8,446.9 '/>
		<polygon fill = 'rgb( 31, 120, 180)' fill-opacity = '0.250000' points = '752.8,446.9 752.8,662.4 754.7,662.4 754.7,449.3 '/>
		<polygon fill = 'rgb( 31, 120, 180)' fill-opacity = '0.250000' points = '754.7,449.3 754.7,662.4 756.6,662.4 756.6,451.8 '/>
		<polygon fill = 'rgb( 31, 120, 180)' fill-opacity = '0.250000' points = '756.6,451.8 756.6,662.4 758.5,662.4 758.5,454.2 '/>
		<polygon fill = 'rgb( 31, 120, 180)' fill-opacity = '0.250000' points = '758.5,454.2 758.5,662.4 760.4,662.4 760.4,456.7 '/>
		<polygon fill = 'rgb( 31, 120, 180)' fill-opacity = '0.250000' points = '760.4,456.7 760.4,662.4 762.3,662.4 762.3,459.1 '/>
		<polygon fill = 'rgb( 31, 120, 180)' fill-opacity = '0.250000' points = '762.3,459.1 762.3,662.4 764.2,662.4 764.2,461.6 '/>
		<polygon fill = 'rgb( 31, 120, 180)' fill-opacity = '0.250000' points = '764.2,461.6 764.2,662.4 766.1,662.4 766.1,464.0 '/>
		<polygon fill = 'rgb( 31, 120, 180)' fill-opacity = '0.250000' points = '766.1,464.0 766.1,662.4 768.0,662.4 768.0,466.4 '/>
		<polygon fill = 'rgb( 31, 120, 180)' fill-opacity = '0.250000' points = '768.0,466.4 768.0,662.4 769.9,662.4 769.9,468.7 '/>
		<polygon fill = 'rgb( 31, 120, 180)' fill-opacity = '0.250000' points = '769.9,468.7 769.9,662.4 771.8,662.4 771.8,471.1 '/>
		<polygon fill = 'rgb( 31, 120, 180)' fill-opacity = '0.250000' points = '771.8,471.1 771.8,662.4 773.7,662.4 773.7,473.4 '/>
		<polygon fill = 'rgb( 31, 120, 180)' fill-opacity = '0.250000' points = '773.7,473.4 773.7,662.4 775.6,662.4 775.6,475.7 '/>
		<polygon fill = 'rgb( 31, 120, 180)' fill-opacity = '0.250000' points = '775.6,475.7 775.6,662.4 777.5,662.4 777.5,478.0 '/>
		<polygon fill = 'rgb( 31, 120, 180)' fill-opacity = '0.250000' points = '777.5,478.0 777.5,662.4 779.4,662.4 779.4,480.3 '/>
		<polygon fill = 'rgb( 31, 120, 180)' fill-opacity = '0.250000' points = '779.4,480.3 779.4,662.4 781.3,662.4 781.3,482.5 '/>
		<polygon fill = 'rgb( 31, 120, 180)' fill-opacity = '0.250000' points = '781.3,482.5 781.3,662.4 783.2,662.4 783.2,484.7 '/>
		<polygon fill = 'rgb( 31, 120, 180)' fill-opacity = '0.250000' points = '783.2,484.7 783.2,662.4 785.1,662.4 785.1,486.9 '/>
		<polygon fill = 'rgb( 31, 120, 180)' fill-opacity = '0.250000' points = '785.1,486.9 785.1,662.4 787.0,662.4 787.0,489.1 '/>
		<polygon fill = 'rgb( 31, 120, 180)' fill-opacity = '0.250000' points = '787.0,489.1 787.0,662.4 789.0,662.4 789.0,491.2 '/>
		<polygon fill = 'rgb( 31, 120, 180)' fill-opacity = '0.250000' points = '789.0,491.2 789.0,662.4 790.9,662.4 790.9,493.3 '/>
		<polygon fill = 'rgb( 31, 120, 180)' fill-opacity = '0.250000' points = '790.9,493.3 790.9,662.4 792.8,662.4 792.8,495.4 '/>
		<polygon fill = 'rgb( 31, 120, 180)' fill-opacity = '0.250000' points = '792.8,495.4 792.8,662.4 794.7,662.4 794.7,497.4 '/>
		<polygon fill = 'rgb( 31, 120, 180)' fill-opacity = '0.250000' points = '794.7,497.4 794.7,662.4 796.6,662.4 796.6,499.4 '/>
		<polygon fill = 'rgb( 31, 120, 180)' fill-opacity = '0.250000' points = '796.6,499.4 796.6,662.4 798.5,662.4 798.5,501.4 '/>
		<polygon fill = 'rgb( 31, 120, 180)' fill-opacity = '0.250000' points = '798.5,501.4 798.5,662.4 800.4,662.4 800.4,503.4 '/>
		<polygon fill = 'rgb( 31, 120, 180)' fill-opacity = '0.250000' points = '800.4,503.4 800.4,662.4 802.3,662.4 802.3,505.3 '/>
		<polygon fill = 'rgb( 31, 120, 180)' fill-opacity = '0.250000' points = '802.3,505.3 802.3,662.4 804.2,662.4 804.2,507.2 '/>
		<polygon fill = 'rgb( 31, 120, 180)' fill-opacity = '0.250000' points = '804.2,507.2 804.2,662.4 806.1,662.4 806.1,509.1 '/>
		<polygon fill = 'rgb( 31, 120, 180)' fill-opacity = '0.250000' points = '806.1,509.1 806.1,662.4 808.0,662.4 808.0,511.0 '/>
		<polygon fill = 'rgb( 31, 120, 180)' fill-opacity = '0.250000' points = '808.0,511.0 808.0,662.4 809.9,662.4 809.9,512.8 '/>
		<polygon fill = 'rgb( 31, 120, 180)' fill-opacity = '0.250000' points = '809.9,512.8 809.9,662.4 811.8,662.4 811.8,514.7 '/>
		<polygon fill = 'rgb( 31, 120, 180)' fill-opacity = '0.250000' points = '811.8,514.7 811.8,662.4 813.7,662.4 813.7,516.4 '/>
		<polygon fill = 'rgb( 31, 120, 180)' fill-opacity = '0.250000' points = '813.7,516.4 813.7,662.4 815.6,662.4 815.6,518.2 '/>
		<polygon fill = 'rgb( 31, 120, 180)' fill-opacity = '0.250000' points = '815.6,518.2 815.6,662.4 817.5,662.4 817.5,520.0 '/>
		<polygon fill = 'rgb( 31, 120, 180)' fill-opacity = '0.250000' points = '817.5,520.0 817.5,662.4 819.4,662.4 819.4,521.7 '/>
		<polygon fill = 'rgb( 31, 120, 180)' fill-opacity = '0.250000' points = '819.4,521.7 819.4,662.4 821.3,662.4 821.3,523.4 '/>
		<polygon fill = 'rgb( 31, 120, 180)' fill-opacity = '0.250000' points = '821.3,523.4 821.3,662.4 823.2,662.4 823.2,525.1 '/>
		<polygon fill = 'rgb( 31, 120, 180)' fill-opacity = '0.250000' points = '823.2,525.1 823.2,662.4 825.1,662.4 825.1,526.8 '/>
		<polygon fill = 'rgb( 31, 120, 180)' fill-opacity = '0.250000' points = '825.1,526.8 825.1,662.4 827.0,662.4 827.0,528.5 '/>
		<polygon fill = 'rgb( 31, 120, 180)' fill-opacity = '0.250000' points = '827.0,528.5 827.0,662.4 828.9,662.4 828.9,530.1 '/>
		<polygon fill = 'rgb( 31, 120, 180)' fill-opacity = '0.250000' points = '828.9,530.1 828.9,662.4 830.8,662.4 830.8,531.7 '/>
		<polygon fill = 'rgb( 31, 120, 180)' fill-opacity = '0.250000' points = '830.8,531.7 830.8,662.4 832.7,662.4 832.7,533.3 '/>
		<polygon fill = 'rgb( 31, 120, 180)' fill-opacity = '0.250000' points = '832.7,533.3 832.7,662.4 834.6,662.4 834.6,534.9 '/>
		<polygon fill = 'rgb( 31, 120, 180)' fill-opacity = '0.250000' points = '834.6,534.9 834.6,662.4 836.5,662.4 836.5,536.5 '/>
		<polygon fill = 'rgb( 31, 120, 180)' fill-opacity = '0.250000' points = '836.5,536.5 836.5,662.4 838.4,662.4 838.4,538.1 '/>
		<polygon fill = 'rgb( 31, 120, 180)' fill-opacity = '0.250000' points = '838.4,538.1 838.4,662.4 840.4,662.4 840.4,539.7 '/>
		<polygon fill = 'rgb( 31, 120, 180)' fill-opacity = '0.250000' points = '840.4,539.7 840.4,662.4 842.3,662.4 842.3,541.2 '/>
		<polygon fill = 'rgb( 31, 120, 180)' fill-opacity = '0.250000' points = '842.3,541.2 842.3,662.4 844.2,662.4 844.2,542.8 '/>
		<polygon fill = 'rgb( 31, 120, 180)' fill-opacity = '0.250000' points = '844.2,542.8 844.2,662.4 846.1,662.4 846.1,544.3 '/>
		<polygon fill = 'rgb( 31, 120, 180)' fill-opacity = '0.250000' points = '846.1,544.3 846.1,662.4 848.0,662.4 848.0,545.8 '/>
		<polygon fill = 'rgb( 31, 120, 180)' fill-opacity = '0.250000' points = '848.0,545.8 848.0,662.4 849.9,662.4 849.9,547.3 '/>
		<polygon fill = 'rgb( 31, 120, 180)' fill-opacity = '0.250000' points = '849.9,547.3 849.9,662.4 851.8,662.4 851.8,548.8 '/>
		<polygon fill = 'rgb( 31, 120, 180)' fill-opacity = '0.250000' points = '851.8,548.8 851.8,662.4 853.7,662.4 853.7,550.3 '/>
		<polygon fill = 'rgb( 31, 120, 180)' fill-opacity = '0.250000' points = '853.7,550.3 853.7,662.4 855.6,662.4 855.6,551.8 '/>
		<polygon fill = 'rgb( 31, 120, 180)' fill-opacity = '0.250000' points = '855.6,551.8 855.6,662.4 857.5,662.4 857.5,553.3 '/>
		<polygon fill = 'rgb( 31, 120, 180)' fill-opacity = '0.250000' points = '857.5,553.3 857.5,662.4 859.4,662.4 859.4,554.8 '/>
		<polygon fill = 'rgb( 31, 120, 180)' fill-opacity = '0.250000' points = '859.4,554.8 859.4,662.4 861.3,662.4 861.3,556.2 '/>
		<polygon fill = 'rgb( 31, 120, 180)' fill-opacity = '0.250000' points = '861.3,556.2 861.3,662.4 863.2,662.4 863.2,557.7 '/>
		<polygon fill = 'rgb( 31, 120, 180)' fill-opacity = '0.250000' points = '863.2,557.7 863.2,662.4 865.1,662.4 865.1,559.1 '/>
		<polygon fill = 'rgb( 31, 120, 180)' fill-opacity = '0.250000' points = '865.1,559.1 865.1,662.4 867.0,662.4 867.0,560.6 '/>
		<polygon fill = 'rgb( 31, 120, 180)' fill-opacity = '0.250000' points = '867.0,560.6 867.0,662.4 868.9,662.4 868.9,562.0 '/>
		<polygon fill = 'rgb( 31, 120, 180)' fill-opacity = '0.250000' points = '868.9,562.0 868.9,662.4 870.8,662.4 870.8,563.4 '/>
		<polygon fill = 'rgb( 31, 120, 180)' fill-opacity = '0.250000' points = '870.8,563.4 870.8,662.4 872.7,662.4 872.7,564.9 '/>
		<polygon fill = 'rgb( 31, 120, 180)' fill-opacity = '0.250000' points = '872.7,564.9 872.7,662.4 874.6,662.4 874.6,566.3 '/>
		<polygon fill = 'rgb( 31, 120, 180)' fill-opacity = '0.250000' points = '874.6,566.3 874.6,662.4 876.5,662.4 876.5,567.7 '/>
		<polygon fill = 'rgb( 31, 120, 180)' fill-opacity = '0.250000' points = '876.5,567.7 876.5,662.4 878.4,662.4 878.4,569.1 '/>
		<polygon fill = 'rgb( 31, 120, 180)' fill-opacity = '0.250000' points = '878.4,569.1 878.4,662.4 880.3,662.4 880.3,570.5 '/>
		<polygon fill = 'rgb( 31, 120, 180)' fill-opacity = '0.250000' points = '880.3,570.5 880.3,662.4 882.2,662.4 882.2,571.9 '/>
		<polygon fill = 'rgb( 31, 120, 180)' fill-opacity = '0.250000' points = '882.2,571.9 882.2,662.4 884.1,662.4 884.1,573.3 '/>
		<polygon fill = 'rgb( 31, 120, 180)' fill-opacity = '0.250000' points = '884.1,573.3 884.1,662.4 886.0,662.4 886.0,574.7 '/>
		<polygon fill = 'rgb( 31, 120, 180)' fill-opacity = '0.250000' points = '886.0,574.7 886.0,662.4 887.9,662.4 887.9,576.1 '/>
		<polygon fill = 'rgb( 31, 120, 180)' fill-opacity = '0.250000' points = '887.9,576.1 887.9,662.4 889.9,662.4 889.9,577.4 '/>
		<polygon fill = 'rgb( 31, 120, 180)' fill-opacity = '0.250000' points = '889.9,577.4 889.9,662.4 891.8,662.4 891.8,578.8 '/>
		<polygon fill = 'rgb( 31, 120, 180)' fill-opacity = '0.250000' points = '891.8,578.8 891.8,662.4 893.7,662.4 893.7,580.2 '/>
		<polygon fill = 'rgb( 31, 120, 180)' fill-opacity = '0.250000' points = '893.7,580.2 893.7,662.4 895.6,662.4 895.6,581.5 '/>
		<polygon fill = 'rgb( 31, 120, 180)' fill-opacity = '0.250000' points = '895.6,581.5 895.6,662.4 897.5,662.4 897.5,582.9 '/>
		<polygon fill = 'rgb( 31, 120, 180)' fill-opacity = '0.250000' points = '897.5,582.9 897.5,662.4 899.4,662.4 899.4,584.2 '/>
		<polygon fill = 'rgb( 31, 120, 180)' fill-opacity = '0.250000' points = '899.4,584.2 899.4,662.4 901.3,662.4 901.3,585.5 '/>
		<polygon fill = 'rgb( 31, 120, 180)' fill-opacity = '0.250000' points = '901.3,585.5 901.3,662.4 903.2,662.4 903.2,586.8 '/>
		<polygon fill = 'rgb( 31, 120, 180)' fill-opacity = '0.250000' points = '903.2,586.8 903.2,662.4 905.1,662.4 905.1,588.1 '/>
		<polygon fill = 'rgb( 31, 120, 180)' fill-opacity = '0.250000' points = '905.1,588.1 905.1,662.4 907.0,662.4 907.0,589.3 '/>
		<polygon fill = 'rgb( 31, 120, 180)' fill-opacity = '0.250000' points = '907.0,589.3 907.0,662.4 908.9,662.4 908.9,590.5 '/>
		<polygon fill = 'rgb( 31, 120, 180)' fill-opacity = '0.250000' points = '908.9,590.5 908.9,662.4 910.8,662.4 910.8,591.7 '/>
		<polygon fill = 'rgb( 31, 120, 180)' fill-opacity = '0.250000' points = '910.8,591.7 910.8,662.4 912.7,662.4 912.7,592.8 '/>
		<polygon fill = 'rgb( 31, 120, 180)' fill-opacity = '0.250000' points = '912.7,592.8 912.7,662.4 914.6,662.4 914.6,594.0 '/>
		<polygon fill = 'rgb( 31, 120, 180)' fill-opacity = '0.250000' points = '914.6,594.0 914.6,662.4 916.5,662.4 916.5,595.0 '/>
		<polygon fill = 'rgb( 31, 120, 180)' fill-opacity = '0.250000' points = '916.5,595.0 916.5,662.4 918.4,662.4 918.4,596.1 '/>
		<polygon fill = 'rgb( 31, 120, 180)' fill-opacity = '0.250000' points = '918.4,596.1 918.4,662.4 920.3,662.4 920.3,597.1 '/>
		<polygon fill = 'rgb( 31, 120, 180)' fill-opacity = '0.250000' points = '920.3,597.1 920.3,662.4 922.2,662.4 922.2,598.1 '/>
		<polygon fill = 'rgb( 31, 120, 180)' fill-opacity = '0.250000' points = '922.2,598.1 922.2,662.4 924.1,662.4 924.1,599.0 '/>
	</g>
</g>
	</g>
	<g id="gnuplot_plot_3" ><title>Point estimate</title>
<g fill="none" color="white" stroke="rgb( 31, 120, 180)" stroke-width="2.00" stroke-linecap="butt" stroke-linejoin="miter">
</g>
<g fill="none" color="black" stroke="currentColor" stroke-width="2.00" stroke-linecap="butt" stroke-linejoin="miter">
	<g transform="translate(1089.0,103.0)" stroke="none" fill="black" font-family="Helvetica" font-size="12.00"  text-anchor="start">
		<text><tspan font-family="Helvetica" >Point estimate</tspan></text>
	</g>
</g>
<g fill="none" color="black" stroke="currentColor" stroke-width="2.00" stroke-linecap="butt" stroke-linejoin="miter">
	<path stroke='rgb( 31, 120, 180)'  d='M1038.5,99.1 L1080.7,99.1 M492.1,662.4 L492.1,107.0  '/></g>
	</g>
<g fill="none" color="black" stroke="currentColor" stroke-width="2.00" stroke-linecap="butt" stroke-linejoin="miter">
</g>
<g fill="none" color="black" stroke="black" stroke-width="1.00" stroke-linecap="butt" stroke-linejoin="miter">
</g>
<g fill="none" color="black" stroke="currentColor" stroke-width="1.00" stroke-linecap="butt" stroke-linejoin="miter">
	<path stroke='black'  d='M63.6,54.1 L63.6,662.4 L1013.6,662.4 L1013.6,54.1 L63.6,54.1 Z  '/></g>
<g fill="none" color="black" stroke="currentColor" stroke-width="1.00" stroke-linecap="butt" stroke-linejoin="miter">
</g>
</g>
</svg>

