<?xml version="1.0" encoding="utf-8"  standalone="no"?>
<svg 
 viewBox="0 0 1280 720"
 xmlns="http://www.w3.org/2000/svg"
 xmlns:xlink="http://www.w3.org/1999/xlink"
>

<title>Gnuplot</title>
<desc>Produced by GNUPLOT 5.0 patchlevel 6 </desc>

<g id="gnuplot_canvas">

<rect x="0" y="0" width="1280" height="720" fill="none"/>
<defs>

	<circle id='gpDot' r='0.5' stroke-width='0.5'/>
	<path id='gpPt0' stroke-width='0.222' stroke='currentColor' d='M-1,0 h2 M0,-1 v2'/>
	<path id='gpPt1' stroke-width='0.222' stroke='currentColor' d='M-1,-1 L1,1 M1,-1 L-1,1'/>
	<path id='gpPt2' stroke-width='0.222' stroke='currentColor' d='M-1,0 L1,0 M0,-1 L0,1 M-1,-1 L1,1 M-1,1 L1,-1'/>
	<rect id='gpPt3' stroke-width='0.222' stroke='currentColor' x='-1' y='-1' width='2' height='2'/>
	<rect id='gpPt4' stroke-width='0.222' stroke='currentColor' fill='currentColor' x='-1' y='-1' width='2' height='2'/>
	<circle id='gpPt5' stroke-width='0.222' stroke='currentColor' cx='0' cy='0' r='1'/>
	<use xlink:href='#gpPt5' id='gpPt6' fill='currentColor' stroke='none'/>
	<path id='gpPt7' stroke-width='0.222' stroke='currentColor' d='M0,-1.33 L-1.33,0.67 L1.33,0.67 z'/>
	<use xlink:href='#gpPt7' id='gpPt8' fill='currentColor' stroke='none'/>
	<use xlink:href='#gpPt7' id='gpPt9' stroke='currentColor' transform='rotate(180)'/>
	<use xlink:href='#gpPt9' id='gpPt10' fill='currentColor' stroke='none'/>
	<use xlink:href='#gpPt3' id='gpPt11' stroke='currentColor' transform='rotate(45)'/>
	<use xlink:href='#gpPt11' id='gpPt12' fill='currentColor' stroke='none'/>
	<path id='gpPt13' stroke-width='0.222' stroke='currentColor' d='M0,1.330 L1.265,0.411 L0.782,-1.067 L-0.782,-1.076 L-1.265,0.411 z'/>
	<use xlink:href='#gpPt13' id='gpPt14' fill='currentColor' stroke='none'/>
	<filter id='textbox' filterUnits='objectBoundingBox' x='0' y='0' height='1' width='1'>
	  <feFlood flood-color='white' flood-opacity='1' result='bgnd'/>
	  <feComposite in='SourceGraphic' in2='bgnd' operator='atop'/>
	</filter>
	<filter id='greybox' filterUnits='objectBoundingBox' x='0' y='0' height='1' width='1'>
	  <feFlood flood-color='lightgrey' flood-opacity='1' result='grey'/>
	  <feComposite in='SourceGraphic' in2='grey' operator='atop'/>
	</filter>
</defs>
<g fill="none" color="white" stroke="currentColor" stroke-width="1.00" stroke-linecap="butt" stroke-linejoin="miter">
</g>
<g fill="none" color="black" stroke="currentColor" stroke-width="1.00" stroke-linecap="butt" stroke-linejoin="miter">
	<path stroke='black'  d='M71.9,662.4 L80.9,662.4  '/>	<g transform="translate(63.6,666.3)" stroke="none" fill="black" font-family="Helvetica" font-size="12.00"  text-anchor="end">
		<text><tspan font-family="Helvetica" > 0</tspan></text>
	</g>
</g>
<g fill="none" color="black" stroke="currentColor" stroke-width="1.00" stroke-linecap="butt" stroke-linejoin="miter">
	<path stroke='black'  d='M71.9,561.0 L80.9,561.0  '/>	<g transform="translate(63.6,564.9)" stroke="none" fill="black" font-family="Helvetica" font-size="12.00"  text-anchor="end">
		<text><tspan font-family="Helvetica" > 20</tspan></text>
	</g>
</g>
<g fill="none" color="black" stroke="currentColor" stroke-width="1.00" stroke-linecap="butt" stroke-linejoin="miter">
	<path stroke='black'  d='M71.9,459.6 L80.9,459.6  '/>	<g transform="translate(63.6,463.5)" stroke="none" fill="black" font-family="Helvetica" font-size="12.00"  text-anchor="end">
		<text><tspan font-family="Helvetica" > 40</tspan></text>
	</g>
</g>
<g fill="none" color="black" stroke="currentColor" stroke-width="1.00" stroke-linecap="butt" stroke-linejoin="miter">
	<path stroke='black'  d='M71.9,358.2 L80.9,358.2  '/>	<g transform="translate(63.6,362.1)" stroke="none" fill="black" font-family="Helvetica" font-size="12.00"  text-anchor="end">
		<text><tspan font-family="Helvetica" > 60</tspan></text>
	</g>
</g>
<g fill="none" color="black" stroke="currentColor" stroke-width="1.00" stroke-linecap="butt" stroke-linejoin="miter">
	<path stroke='black'  d='M71.9,256.9 L80.9,256.9  '/>	<g transform="translate(63.6,260.8)" stroke="none" fill="black" font-family="Helvetica" font-size="12.00"  text-anchor="end">
		<text><tspan font-family="Helvetica" > 80</tspan></text>
	</g>
</g>
<g fill="none" color="black" stroke="currentColor" stroke-width="1.00" stroke-linecap="butt" stroke-linejoin="miter">
	<path stroke='black'  d='M71.9,155.5 L80.9,155.5  '/>	<g transform="translate(63.6,159.4)" stroke="none" fill="black" font-family="Helvetica" font-size="12.00"  text-anchor="end">
		<text><tspan font-family="Helvetica" > 100</tspan></text>
	</g>
</g>
<g fill="none" color="black" stroke="currentColor" stroke-width="1.00" stroke-linecap="butt" stroke-linejoin="miter">
	<path stroke='black'  d='M71.9,54.1 L80.9,54.1  '/>	<g transform="translate(63.6,58.0)" stroke="none" fill="black" font-family="Helvetica" font-size="12.00"  text-anchor="end">
		<text><tspan font-family="Helvetica" > 120</tspan></text>
	</g>
</g>
<g fill="none" color="black" stroke="currentColor" stroke-width="1.00" stroke-linecap="butt" stroke-linejoin="miter">
	<path stroke='black'  d='M168.8,662.4 L168.8,653.4  '/>	<g transform="translate(168.8,684.3)" stroke="none" fill="black" font-family="Helvetica" font-size="12.00"  text-anchor="middle">
		<text><tspan font-family="Helvetica" > 4.498</tspan></text>
	</g>
</g>
<g fill="none" color="black" stroke="currentColor" stroke-width="1.00" stroke-linecap="butt" stroke-linejoin="miter">
	<path stroke='black'  d='M281.1,662.4 L281.1,653.4  '/>	<g transform="translate(281.1,684.3)" stroke="none" fill="black" font-family="Helvetica" font-size="12.00"  text-anchor="middle">
		<text><tspan font-family="Helvetica" > 4.5</tspan></text>
	</g>
</g>
<g fill="none" color="black" stroke="currentColor" stroke-width="1.00" stroke-linecap="butt" stroke-linejoin="miter">
	<path stroke='black'  d='M393.5,662.4 L393.5,653.4  '/>	<g transform="translate(393.5,684.3)" stroke="none" fill="black" font-family="Helvetica" font-size="12.00"  text-anchor="middle">
		<text><tspan font-family="Helvetica" > 4.502</tspan></text>
	</g>
</g>
<g fill="none" color="black" stroke="currentColor" stroke-width="1.00" stroke-linecap="butt" stroke-linejoin="miter">
	<path stroke='black'  d='M505.9,662.4 L505.9,653.4  '/>	<g transform="translate(505.9,684.3)" stroke="none" fill="black" font-family="Helvetica" font-size="12.00"  text-anchor="middle">
		<text><tspan font-family="Helvetica" > 4.504</tspan></text>
	</g>
</g>
<g fill="none" color="black" stroke="currentColor" stroke-width="1.00" stroke-linecap="butt" stroke-linejoin="miter">
	<path stroke='black'  d='M618.3,662.4 L618.3,653.4  '/>	<g transform="translate(618.3,684.3)" stroke="none" fill="black" font-family="Helvetica" font-size="12.00"  text-anchor="middle">
		<text><tspan font-family="Helvetica" > 4.506</tspan></text>
	</g>
</g>
<g fill="none" color="black" stroke="currentColor" stroke-width="1.00" stroke-linecap="butt" stroke-linejoin="miter">
	<path stroke='black'  d='M730.6,662.4 L730.6,653.4  '/>	<g transform="translate(730.6,684.3)" stroke="none" fill="black" font-family="Helvetica" font-size="12.00"  text-anchor="middle">
		<text><tspan font-family="Helvetica" > 4.508</tspan></text>
	</g>
</g>
<g fill="none" color="black" stroke="currentColor" stroke-width="1.00" stroke-linecap="butt" stroke-linejoin="miter">
	<path stroke='black'  d='M843.0,662.4 L843.0,653.4  '/>	<g transform="translate(843.0,684.3)" stroke="none" fill="black" font-family="Helvetica" font-size="12.00"  text-anchor="middle">
		<text><tspan font-family="Helvetica" > 4.51</tspan></text>
	</g>
</g>
<g fill="none" color="black" stroke="currentColor" stroke-width="1.00" stroke-linecap="butt" stroke-linejoin="miter">
	<path stroke='black'  d='M955.4,662.4 L955.4,653.4  '/>	<g transform="translate(955.4,684.3)" stroke="none" fill="black" font-family="Helvetica" font-size="12.00"  text-anchor="middle">
		<text><tspan font-family="Helvetica" > 4.512</tspan></text>
	</g>
</g>
<g fill="none" color="black" stroke="currentColor" stroke-width="1.00" stroke-linecap="butt" stroke-linejoin="miter">
</g>
<g fill="none" color="black" stroke="currentColor" stroke-width="1.00" stroke-linecap="butt" stroke-linejoin="miter">
	<path stroke='black'  d='M71.9,54.1 L71.9,662.4 L1013.6,662.4 L1013.6,54.1 L71.9,54.1 Z  '/></g>
<g fill="none" color="black" stroke="currentColor" stroke-width="1.00" stroke-linecap="butt" stroke-linejoin="miter">
	<g transform="translate(17.0,358.3) rotate(270)" stroke="none" fill="black" font-family="Helvetica" font-size="12.00"  text-anchor="middle">
		<text><tspan font-family="Helvetica" >Density (a.u.)</tspan></text>
	</g>
</g>
<g fill="none" color="black" stroke="currentColor" stroke-width="1.00" stroke-linecap="butt" stroke-linejoin="miter">
	<g transform="translate(542.7,711.3)" stroke="none" fill="black" font-family="Helvetica" font-size="12.00"  text-anchor="middle">
		<text><tspan font-family="Helvetica" >Average time (ms)</tspan></text>
	</g>
</g>
<g fill="none" color="black" stroke="currentColor" stroke-width="1.00" stroke-linecap="butt" stroke-linejoin="miter">
	<g transform="translate(542.7,31.0)" stroke="none" fill="black" font-family="Helvetica" font-size="12.00"  text-anchor="middle">
		<text><tspan font-family="Helvetica" >language: bash/parse error: cpp/examples/rule.cc: slope</tspan></text>
	</g>
</g>
	<g id="gnuplot_plot_1" ><title>Bootstrap distribution</title>
<g fill="none" color="white" stroke="black" stroke-width="2.00" stroke-linecap="butt" stroke-linejoin="miter">
</g>
<g fill="none" color="black" stroke="currentColor" stroke-width="2.00" stroke-linecap="butt" stroke-linejoin="miter">
	<g transform="translate(1089.0,67.0)" stroke="none" fill="black" font-family="Helvetica" font-size="12.00"  text-anchor="start">
		<text><tspan font-family="Helvetica" >Bootstrap distribution</tspan></text>
	</g>
</g>
<g fill="none" color="black" stroke="currentColor" stroke-width="2.00" stroke-linecap="butt" stroke-linejoin="miter">
	<path stroke='rgb( 31, 120, 180)'  d='M1038.5,63.1 L1080.7,63.1 M71.9,631.0 L73.8,629.7 L75.7,628.4 L77.6,627.0 L79.4,625.6 L81.3,624.2
		L83.2,622.7 L85.1,621.2 L87.0,619.7 L88.9,618.2 L90.8,616.6 L92.7,614.9 L94.5,613.2 L96.4,611.5
		L98.3,609.8 L100.2,608.0 L102.1,606.2 L104.0,604.3 L105.9,602.4 L107.8,600.4 L109.6,598.4 L111.5,596.4
		L113.4,594.3 L115.3,592.1 L117.2,589.9 L119.1,587.7 L121.0,585.4 L122.9,583.1 L124.7,580.8 L126.6,578.4
		L128.5,575.9 L130.4,573.5 L132.3,571.0 L134.2,568.5 L136.1,565.9 L138.0,563.3 L139.8,560.7 L141.7,558.1
		L143.6,555.5 L145.5,552.9 L147.4,550.2 L149.3,547.5 L151.2,544.8 L153.0,542.1 L154.9,539.4 L156.8,536.7
		L158.7,533.9 L160.6,531.2 L162.5,528.4 L164.4,525.6 L166.3,522.8 L168.1,519.9 L170.0,517.1 L171.9,514.2
		L173.8,511.2 L175.7,508.3 L177.6,505.3 L179.5,502.3 L181.4,499.2 L183.2,496.1 L185.1,493.0 L187.0,489.8
		L188.9,486.6 L190.8,483.3 L192.7,480.1 L194.6,476.8 L196.5,473.5 L198.3,470.2 L200.2,466.9 L202.1,463.5
		L204.0,460.2 L205.9,456.9 L207.8,453.5 L209.7,450.2 L211.6,446.9 L213.4,443.6 L215.3,440.3 L217.2,437.1
		L219.1,433.8 L221.0,430.6 L222.9,427.5 L224.8,424.4 L226.6,421.3 L228.5,418.3 L230.4,415.3 L232.3,412.4
		L234.2,409.5 L236.1,406.7 L238.0,403.9 L239.9,401.1 L241.7,398.5 L243.6,395.8 L245.5,393.2 L247.4,390.6
		L249.3,388.1 L251.2,385.6 L253.1,383.1 L255.0,380.7 L256.8,378.2 L258.7,375.8 L260.6,373.3 L262.5,370.9
		L264.4,368.4 L266.3,365.9 L268.2,363.4 L270.1,360.8 L271.9,358.3 L273.8,355.7 L275.7,353.0 L277.6,350.4
		L279.5,347.7 L281.4,344.9 L283.3,342.2 L285.2,339.4 L287.0,336.6 L288.9,333.8 L290.8,331.0 L292.7,328.2
		L294.6,325.4 L296.5,322.5 L298.4,319.7 L300.2,317.0 L302.1,314.2 L304.0,311.4 L305.9,308.7 L307.8,306.0
		L309.7,303.3 L311.6,300.7 L313.5,298.0 L315.3,295.4 L317.2,292.8 L319.1,290.2 L321.0,287.6 L322.9,285.0
		L324.8,282.5 L326.7,279.9 L328.6,277.4 L330.4,274.8 L332.3,272.2 L334.2,269.7 L336.1,267.1 L338.0,264.5
		L339.9,262.0 L341.8,259.4 L343.7,256.8 L345.5,254.1 L347.4,251.5 L349.3,248.9 L351.2,246.2 L353.1,243.5
		L355.0,240.8 L356.9,238.1 L358.8,235.4 L360.6,232.6 L362.5,229.9 L364.4,227.1 L366.3,224.2 L368.2,221.4
		L370.1,218.6 L372.0,215.7 L373.8,212.8 L375.7,209.9 L377.6,207.1 L379.5,204.2 L381.4,201.3 L383.3,198.5
		L385.2,195.7 L387.1,192.9 L388.9,190.2 L390.8,187.5 L392.7,184.8 L394.6,182.2 L396.5,179.7 L398.4,177.3
		L400.3,174.9 L402.2,172.6 L404.0,170.4 L405.9,168.3 L407.8,166.2 L409.7,164.2 L411.6,162.3 L413.5,160.5
		L415.4,158.7 L417.3,157.0 L419.1,155.3 L421.0,153.7 L422.9,152.2 L424.8,150.6 L426.7,149.1 L428.6,147.7
		L430.5,146.2 L432.4,144.8 L434.2,143.4 L436.1,142.0 L438.0,140.7 L439.9,139.3 L441.8,138.0 L443.7,136.7
		L445.6,135.5 L447.4,134.3 L449.3,133.1 L451.2,132.0 L453.1,130.9 L455.0,129.9 L456.9,129.0 L458.8,128.1
		L460.7,127.3 L462.5,126.6 L464.4,125.9 L466.3,125.3 L468.2,124.7 L470.1,124.2 L472.0,123.7 L473.9,123.2
		L475.8,122.7 L477.6,122.3 L479.5,121.9 L481.4,121.4 L483.3,121.0 L485.2,120.5 L487.1,120.0 L489.0,119.5
		L490.9,119.1 L492.7,118.5 L494.6,118.0 L496.5,117.5 L498.4,117.1 L500.3,116.6 L502.2,116.2 L504.1,115.8
		L506.0,115.5 L507.8,115.2 L509.7,115.0 L511.6,114.9 L513.5,114.8 L515.4,114.9 L517.3,115.1 L519.2,115.3
		L521.0,115.7 L522.9,116.1 L524.8,116.7 L526.7,117.3 L528.6,118.0 L530.5,118.8 L532.4,119.7 L534.3,120.6
		L536.1,121.5 L538.0,122.5 L539.9,123.6 L541.8,124.7 L543.7,125.8 L545.6,126.9 L547.5,128.0 L549.4,129.1
		L551.2,130.3 L553.1,131.4 L555.0,132.6 L556.9,133.8 L558.8,135.0 L560.7,136.2 L562.6,137.5 L564.5,138.8
		L566.3,140.1 L568.2,141.5 L570.1,143.0 L572.0,144.5 L573.9,146.0 L575.8,147.6 L577.7,149.3 L579.5,151.0
		L581.4,152.8 L583.3,154.7 L585.2,156.6 L587.1,158.6 L589.0,160.6 L590.9,162.7 L592.8,164.8 L594.6,166.9
		L596.5,169.1 L598.4,171.2 L600.3,173.4 L602.2,175.6 L604.1,177.8 L606.0,180.1 L607.9,182.3 L609.7,184.5
		L611.6,186.7 L613.5,188.9 L615.4,191.2 L617.3,193.4 L619.2,195.6 L621.1,197.8 L623.0,200.1 L624.8,202.3
		L626.7,204.6 L628.6,206.8 L630.5,209.1 L632.4,211.4 L634.3,213.8 L636.2,216.1 L638.1,218.5 L639.9,220.8
		L641.8,223.2 L643.7,225.6 L645.6,228.0 L647.5,230.4 L649.4,232.8 L651.3,235.2 L653.1,237.6 L655.0,240.0
		L656.9,242.3 L658.8,244.6 L660.7,247.0 L662.6,249.2 L664.5,251.5 L666.4,253.7 L668.2,256.0 L670.1,258.2
		L672.0,260.4 L673.9,262.6 L675.8,264.7 L677.7,267.0 L679.6,269.2 L681.5,271.5 L683.3,273.8 L685.2,276.1
		L687.1,278.6 L689.0,281.0 L690.9,283.6 L692.8,286.3 L694.7,289.0 L696.6,291.8 L698.4,294.8 L700.3,297.8
		L702.2,300.9 L704.1,304.2 L706.0,307.5 L707.9,310.9 L709.8,314.4 L711.7,317.9 L713.5,321.5 L715.4,325.2
		L717.3,328.9 L719.2,332.6 L721.1,336.4 L723.0,340.1 L724.9,343.8 L726.7,347.5 L728.6,351.1 L730.5,354.7
		L732.4,358.2 L734.3,361.7 L736.2,365.0 L738.1,368.3 L740.0,371.4 L741.8,374.5 L743.7,377.5 L745.6,380.3
		L747.5,383.1 L749.4,385.7 L751.3,388.3 L753.2,390.8 L755.1,393.1 L756.9,395.5 L758.8,397.7 L760.7,399.9
		L762.6,402.0 L764.5,404.1 L766.4,406.2 L768.3,408.2 L770.2,410.3 L772.0,412.3 L773.9,414.4 L775.8,416.4
		L777.7,418.5 L779.6,420.6 L781.5,422.7 L783.4,424.9 L785.3,427.1 L787.1,429.4 L789.0,431.7 L790.9,434.0
		L792.8,436.4 L794.7,438.9 L796.6,441.4 L798.5,443.9 L800.3,446.4 L802.2,449.0 L804.1,451.7 L806.0,454.3
		L807.9,457.0 L809.8,459.6 L811.7,462.3 L813.6,465.0 L815.4,467.7 L817.3,470.3 L819.2,473.0 L821.1,475.6
		L823.0,478.2 L824.9,480.7 L826.8,483.3 L828.7,485.7 L830.5,488.2 L832.4,490.6 L834.3,492.9 L836.2,495.2
		L838.1,497.5 L840.0,499.7 L841.9,501.9 L843.8,504.0 L845.6,506.1 L847.5,508.2 L849.4,510.2 L851.3,512.2
		L853.2,514.2 L855.1,516.1 L857.0,518.1 L858.9,520.0 L860.7,521.9 L862.6,523.8 L864.5,525.7 L866.4,527.6
		L868.3,529.5 L870.2,531.4 L872.1,533.4 L873.9,535.3 L875.8,537.2 L877.7,539.1 L879.6,541.0 L881.5,542.9
		L883.4,544.9 L885.3,546.8 L887.2,548.7 L889.0,550.5 L890.9,552.4 L892.8,554.3 L894.7,556.1 L896.6,557.9
		L898.5,559.7 L900.4,561.4 L902.3,563.2 L904.1,564.9 L906.0,566.5 L907.9,568.2 L909.8,569.8 L911.7,571.4
		L913.6,572.9 L915.5,574.4 L917.4,575.9 L919.2,577.4 L921.1,578.9 L923.0,580.3 L924.9,581.7 L926.8,583.1
		L928.7,584.4 L930.6,585.8 L932.5,587.1 L934.3,588.4 L936.2,589.6 L938.1,590.9 L940.0,592.1 L941.9,593.3
		L943.8,594.5 L945.7,595.7 L947.5,596.9 L949.4,598.0 L951.3,599.1 L953.2,600.2 L955.1,601.3 L957.0,602.3
		L958.9,603.3 L960.8,604.4 L962.6,605.3 L964.5,606.3 L966.4,607.3 L968.3,608.2 L970.2,609.2 L972.1,610.1
		L974.0,611.0 L975.9,611.9 L977.7,612.8 L979.6,613.7 L981.5,614.5 L983.4,615.4 L985.3,616.3 L987.2,617.1
		L989.1,618.0 L991.0,618.9 L992.8,619.7 L994.7,620.6 L996.6,621.4 L998.5,622.3 L1000.4,623.1 L1002.3,623.9
		L1004.2,624.8 L1006.1,625.6 L1007.9,626.4 L1009.8,627.2 L1011.7,628.0 L1013.6,628.8  '/></g>
	</g>
	<g id="gnuplot_plot_2" ><title>Confidence interval</title>
<g fill="none" color="white" stroke="rgb( 31, 120, 180)" stroke-width="1.00" stroke-linecap="butt" stroke-linejoin="miter">
</g>
<g fill="none" color="black" stroke="currentColor" stroke-width="1.00" stroke-linecap="butt" stroke-linejoin="miter">
	<g transform="translate(1089.0,85.0)" stroke="none" fill="black" font-family="Helvetica" font-size="12.00"  text-anchor="start">
		<text><tspan font-family="Helvetica" >Confidence interval</tspan></text>
	</g>
</g>
<g fill="none" color="black" stroke="currentColor" stroke-width="1.00" stroke-linecap="butt" stroke-linejoin="miter">
	<g stroke='none' shape-rendering='crispEdges'>
		<polygon fill = 'rgb( 31, 120, 180)' fill-opacity = '0.250000' points = '1038.5,85.6 1080.7,85.6 1080.7,76.6 1038.5,76.6 '/>
		<polygon fill = 'rgb( 31, 120, 180)' fill-opacity = '0.250000' points = '158.7,533.9 158.7,662.4 160.6,662.4 160.6,531.2 '/>
		<polygon fill = 'rgb( 31, 120, 180)' fill-opacity = '0.250000' points = '160.6,531.2 160.6,662.4 162.5,662.4 162.5,528.4 '/>
		<polygon fill = 'rgb( 31, 120, 180)' fill-opacity = '0.250000' points = '162.5,528.4 162.5,662.4 164.4,662.4 164.4,525.6 '/>
		<polygon fill = 'rgb( 31, 120, 180)' fill-opacity = '0.250000' points = '164.4,525.6 164.4,662.4 166.3,662.4 166.3,522.8 '/>
		<polygon fill = 'rgb( 31, 120, 180)' fill-opacity = '0.250000' points = '166.3,522.8 166.3,662.4 168.1,662.4 168.1,519.9 '/>
		<polygon fill = 'rgb( 31, 120, 180)' fill-opacity = '0.250000' points = '168.1,519.9 168.1,662.4 170.0,662.4 170.0,517.1 '/>
		<polygon fill = 'rgb( 31, 120, 180)' fill-opacity = '0.250000' points = '170.0,517.1 170.0,662.4 171.9,662.4 171.9,514.2 '/>
		<polygon fill = 'rgb( 31, 120, 180)' fill-opacity = '0.250000' points = '171.9,514.2 171.9,662.4 173.8,662.4 173.8,511.2 '/>
		<polygon fill = 'rgb( 31, 120, 180)' fill-opacity = '0.250000' points = '173.8,511.2 173.8,662.4 175.7,662.4 175.7,508.3 '/>
		<polygon fill = 'rgb( 31, 120, 180)' fill-opacity = '0.250000' points = '175.7,508.3 175.7,662.4 177.6,662.4 177.6,505.3 '/>
		<polygon fill = 'rgb( 31, 120, 180)' fill-opacity = '0.250000' points = '177.6,505.3 177.6,662.4 179.5,662.4 179.5,502.3 '/>
		<polygon fill = 'rgb( 31, 120, 180)' fill-opacity = '0.250000' points = '179.5,502.3 179.5,662.4 181.4,662.4 181.4,499.2 '/>
		<polygon fill = 'rgb( 31, 120, 180)' fill-opacity = '0.250000' points = '181.4,499.2 181.4,662.4 183.2,662.4 183.2,496.1 '/>
		<polygon fill = 'rgb( 31, 120, 180)' fill-opacity = '0.250000' points = '183.2,496.1 183.2,662.4 185.1,662.4 185.1,493.0 '/>
		<polygon fill = 'rgb( 31, 120, 180)' fill-opacity = '0.250000' points = '185.1,493.0 185.1,662.4 187.0,662.4 187.0,489.8 '/>
		<polygon fill = 'rgb( 31, 120, 180)' fill-opacity = '0.250000' points = '187.0,489.8 187.0,662.4 188.9,662.4 188.9,486.6 '/>
		<polygon fill = 'rgb( 31, 120, 180)' fill-opacity = '0.250000' points = '188.9,486.6 188.9,662.4 190.8,662.4 190.8,483.3 '/>
		<polygon fill = 'rgb( 31, 120, 180)' fill-opacity = '0.250000' points = '190.8,483.3 190.8,662.4 192.7,662.4 192.7,480.1 '/>
		<polygon fill = 'rgb( 31, 120, 180)' fill-opacity = '0.250000' points = '192.7,480.1 192.7,662.4 194.6,662.4 194.6,476.8 '/>
		<polygon fill = 'rgb( 31, 120, 180)' fill-opacity = '0.250000' points = '194.6,476.8 194.6,662.4 196.5,662.4 196.5,473.5 '/>
		<polygon fill = 'rgb( 31, 120, 180)' fill-opacity = '0.250000' points = '196.5,473.5 196.5,662.4 198.3,662.4 198.3,470.2 '/>
		<polygon fill = 'rgb( 31, 120, 180)' fill-opacity = '0.250000' points = '198.3,470.2 198.3,662.4 200.2,662.4 200.2,466.9 '/>
		<polygon fill = 'rgb( 31, 120, 180)' fill-opacity = '0.250000' points = '200.2,466.9 200.2,662.4 202.1,662.4 202.1,463.5 '/>
		<polygon fill = 'rgb( 31, 120, 180)' fill-opacity = '0.250000' points = '202.1,463.5 202.1,662.4 204.0,662.4 204.0,460.2 '/>
		<polygon fill = 'rgb( 31, 120, 180)' fill-opacity = '0.250000' points = '204.0,460.2 204.0,662.4 205.9,662.4 205.9,456.9 '/>
		<polygon fill = 'rgb( 31, 120, 180)' fill-opacity = '0.250000' points = '205.9,456.9 205.9,662.4 207.8,662.4 207.8,453.5 '/>
		<polygon fill = 'rgb( 31, 120, 180)' fill-opacity = '0.250000' points = '207.8,453.5 207.8,662.4 209.7,662.4 209.7,450.2 '/>
		<polygon fill = 'rgb( 31, 120, 180)' fill-opacity = '0.250000' points = '209.7,450.2 209.7,662.4 211.6,662.4 211.6,446.9 '/>
		<polygon fill = 'rgb( 31, 120, 180)' fill-opacity = '0.250000' points = '211.6,446.9 211.6,662.4 213.4,662.4 213.4,443.6 '/>
		<polygon fill = 'rgb( 31, 120, 180)' fill-opacity = '0.250000' points = '213.4,443.6 213.4,662.4 215.3,662.4 215.3,440.3 '/>
		<polygon fill = 'rgb( 31, 120, 180)' fill-opacity = '0.250000' points = '215.3,440.3 215.3,662.4 217.2,662.4 217.2,437.1 '/>
		<polygon fill = 'rgb( 31, 120, 180)' fill-opacity = '0.250000' points = '217.2,437.1 217.2,662.4 219.1,662.4 219.1,433.8 '/>
		<polygon fill = 'rgb( 31, 120, 180)' fill-opacity = '0.250000' points = '219.1,433.8 219.1,662.4 221.0,662.4 221.0,430.6 '/>
		<polygon fill = 'rgb( 31, 120, 180)' fill-opacity = '0.250000' points = '221.0,430.6 221.0,662.4 222.9,662.4 222.9,427.5 '/>
		<polygon fill = 'rgb( 31, 120, 180)' fill-opacity = '0.250000' points = '222.9,427.5 222.9,662.4 224.8,662.4 224.8,424.4 '/>
		<polygon fill = 'rgb( 31, 120, 180)' fill-opacity = '0.250000' points = '224.8,424.4 224.8,662.4 226.6,662.4 226.6,421.3 '/>
		<polygon fill = 'rgb( 31, 120, 180)' fill-opacity = '0.250000' points = '226.6,421.3 226.6,662.4 228.5,662.4 228.5,418.3 '/>
		<polygon fill = 'rgb( 31, 120, 180)' fill-opacity = '0.250000' points = '228.5,418.3 228.5,662.4 230.4,662.4 230.4,415.3 '/>
		<polygon fill = 'rgb( 31, 120, 180)' fill-opacity = '0.250000' points = '230.4,415.3 230.4,662.4 232.3,662.4 232.3,412.4 '/>
		<polygon fill = 'rgb( 31, 120, 180)' fill-opacity = '0.250000' points = '232.3,412.4 232.3,662.4 234.2,662.4 234.2,409.5 '/>
		<polygon fill = 'rgb( 31, 120, 180)' fill-opacity = '0.250000' points = '234.2,409.5 234.2,662.4 236.1,662.4 236.1,406.7 '/>
		<polygon fill = 'rgb( 31, 120, 180)' fill-opacity = '0.250000' points = '236.1,406.7 236.1,662.4 238.0,662.4 238.0,403.9 '/>
		<polygon fill = 'rgb( 31, 120, 180)' fill-opacity = '0.250000' points = '238.0,403.9 238.0,662.4 239.9,662.4 239.9,401.1 '/>
		<polygon fill = 'rgb( 31, 120, 180)' fill-opacity = '0.250000' points = '239.9,401.1 239.9,662.4 241.7,662.4 241.7,398.5 '/>
		<polygon fill = 'rgb( 31, 120, 180)' fill-opacity = '0.250000' points = '241.7,398.5 241.7,662.4 243.6,662.4 243.6,395.8 '/>
		<polygon fill = 'rgb( 31, 120, 180)' fill-opacity = '0.250000' points = '243.6,395.8 243.6,662.4 245.5,662.4 245.5,393.2 '/>
		<polygon fill = 'rgb( 31, 120, 180)' fill-opacity = '0.250000' points = '245.5,393.2 245.5,662.4 247.4,662.4 247.4,390.6 '/>
		<polygon fill = 'rgb( 31, 120, 180)' fill-opacity = '0.250000' points = '247.4,390.6 247.4,662.4 249.3,662.4 249.3,388.1 '/>
		<polygon fill = 'rgb( 31, 120, 180)' fill-opacity = '0.250000' points = '249.3,388.1 249.3,662.4 251.2,662.4 251.2,385.6 '/>
		<polygon fill = 'rgb( 31, 120, 180)' fill-opacity = '0.250000' points = '251.2,385.6 251.2,662.4 253.1,662.4 253.1,383.1 '/>
		<polygon fill = 'rgb( 31, 120, 180)' fill-opacity = '0.250000' points = '253.1,383.1 253.1,662.4 255.0,662.4 255.0,380.7 '/>
		<polygon fill = 'rgb( 31, 120, 180)' fill-opacity = '0.250000' points = '255.0,380.7 255.0,662.4 256.8,662.4 256.8,378.2 '/>
		<polygon fill = 'rgb( 31, 120, 180)' fill-opacity = '0.250000' points = '256.8,378.2 256.8,662.4 258.7,662.4 258.7,375.8 '/>
		<polygon fill = 'rgb( 31, 120, 180)' fill-opacity = '0.250000' points = '258.7,375.8 258.7,662.4 260.6,662.4 260.6,373.3 '/>
		<polygon fill = 'rgb( 31, 120, 180)' fill-opacity = '0.250000' points = '260.6,373.3 260.6,662.4 262.5,662.4 262.5,370.9 '/>
		<polygon fill = 'rgb( 31, 120, 180)' fill-opacity = '0.250000' points = '262.5,370.9 262.5,662.4 264.4,662.4 264.4,368.4 '/>
		<polygon fill = 'rgb( 31, 120, 180)' fill-opacity = '0.250000' points = '264.4,368.4 264.4,662.4 266.3,662.4 266.3,365.9 '/>
		<polygon fill = 'rgb( 31, 120, 180)' fill-opacity = '0.250000' points = '266.3,365.9 266.3,662.4 268.2,662.4 268.2,363.4 '/>
		<polygon fill = 'rgb( 31, 120, 180)' fill-opacity = '0.250000' points = '268.2,363.4 268.2,662.4 270.1,662.4 270.1,360.8 '/>
		<polygon fill = 'rgb( 31, 120, 180)' fill-opacity = '0.250000' points = '270.1,360.8 270.1,662.4 271.9,662.4 271.9,358.3 '/>
		<polygon fill = 'rgb( 31, 120, 180)' fill-opacity = '0.250000' points = '271.9,358.3 271.9,662.4 273.8,662.4 273.8,355.7 '/>
		<polygon fill = 'rgb( 31, 120, 180)' fill-opacity = '0.250000' points = '273.8,355.7 273.8,662.4 275.7,662.4 275.7,353.0 '/>
		<polygon fill = 'rgb( 31, 120, 180)' fill-opacity = '0.250000' points = '275.7,353.0 275.7,662.4 277.6,662.4 277.6,350.4 '/>
		<polygon fill = 'rgb( 31, 120, 180)' fill-opacity = '0.250000' points = '277.6,350.4 277.6,662.4 279.5,662.4 279.5,347.7 '/>
		<polygon fill = 'rgb( 31, 120, 180)' fill-opacity = '0.250000' points = '279.5,347.7 279.5,662.4 281.4,662.4 281.4,344.9 '/>
		<polygon fill = 'rgb( 31, 120, 180)' fill-opacity = '0.250000' points = '281.4,344.9 281.4,662.4 283.3,662.4 283.3,342.2 '/>
		<polygon fill = 'rgb( 31, 120, 180)' fill-opacity = '0.250000' points = '283.3,342.2 283.3,662.4 285.2,662.4 285.2,339.4 '/>
		<polygon fill = 'rgb( 31, 120, 180)' fill-opacity = '0.250000' points = '285.2,339.4 285.2,662.4 287.0,662.4 287.0,336.6 '/>
		<polygon fill = 'rgb( 31, 120, 180)' fill-opacity = '0.250000' points = '287.0,336.6 287.0,662.4 288.9,662.4 288.9,333.8 '/>
		<polygon fill = 'rgb( 31, 120, 180)' fill-opacity = '0.250000' points = '288.9,333.8 288.9,662.4 290.8,662.4 290.8,331.0 '/>
		<polygon fill = 'rgb( 31, 120, 180)' fill-opacity = '0.250000' points = '290.8,331.0 290.8,662.4 292.7,662.4 292.7,328.2 '/>
		<polygon fill = 'rgb( 31, 120, 180)' fill-opacity = '0.250000' points = '292.7,328.2 292.7,662.4 294.6,662.4 294.6,325.4 '/>
		<polygon fill = 'rgb( 31, 120, 180)' fill-opacity = '0.250000' points = '294.6,325.4 294.6,662.4 296.5,662.4 296.5,322.5 '/>
		<polygon fill = 'rgb( 31, 120, 180)' fill-opacity = '0.250000' points = '296.5,322.5 296.5,662.4 298.4,662.4 298.4,319.7 '/>
		<polygon fill = 'rgb( 31, 120, 180)' fill-opacity = '0.250000' points = '298.4,319.7 298.4,662.4 300.2,662.4 300.2,317.0 '/>
		<polygon fill = 'rgb( 31, 120, 180)' fill-opacity = '0.250000' points = '300.2,317.0 300.2,662.4 302.1,662.4 302.1,314.2 '/>
		<polygon fill = 'rgb( 31, 120, 180)' fill-opacity = '0.250000' points = '302.1,314.2 302.1,662.4 304.0,662.4 304.0,311.4 '/>
		<polygon fill = 'rgb( 31, 120, 180)' fill-opacity = '0.250000' points = '304.0,311.4 304.0,662.4 305.9,662.4 305.9,308.7 '/>
		<polygon fill = 'rgb( 31, 120, 180)' fill-opacity = '0.250000' points = '305.9,308.7 305.9,662.4 307.8,662.4 307.8,306.0 '/>
		<polygon fill = 'rgb( 31, 120, 180)' fill-opacity = '0.250000' points = '307.8,306.0 307.8,662.4 309.7,662.4 309.7,303.3 '/>
		<polygon fill = 'rgb( 31, 120, 180)' fill-opacity = '0.250000' points = '309.7,303.3 309.7,662.4 311.6,662.4 311.6,300.7 '/>
		<polygon fill = 'rgb( 31, 120, 180)' fill-opacity = '0.250000' points = '311.6,300.7 311.6,662.4 313.5,662.4 313.5,298.0 '/>
		<polygon fill = 'rgb( 31, 120, 180)' fill-opacity = '0.250000' points = '313.5,298.0 313.5,662.4 315.3,662.4 315.3,295.4 '/>
		<polygon fill = 'rgb( 31, 120, 180)' fill-opacity = '0.250000' points = '315.3,295.4 315.3,662.4 317.2,662.4 317.2,292.8 '/>
		<polygon fill = 'rgb( 31, 120, 180)' fill-opacity = '0.250000' points = '317.2,292.8 317.2,662.4 319.1,662.4 319.1,290.2 '/>
		<polygon fill = 'rgb( 31, 120, 180)' fill-opacity = '0.250000' points = '319.1,290.2 319.1,662.4 321.0,662.4 321.0,287.6 '/>
		<polygon fill = 'rgb( 31, 120, 180)' fill-opacity = '0.250000' points = '321.0,287.6 321.0,662.4 322.9,662.4 322.9,285.0 '/>
		<polygon fill = 'rgb( 31, 120, 180)' fill-opacity = '0.250000' points = '322.9,285.0 322.9,662.4 324.8,662.4 324.8,282.5 '/>
		<polygon fill = 'rgb( 31, 120, 180)' fill-opacity = '0.250000' points = '324.8,282.5 324.8,662.4 326.7,662.4 326.7,279.9 '/>
		<polygon fill = 'rgb( 31, 120, 180)' fill-opacity = '0.250000' points = '326.7,279.9 326.7,662.4 328.6,662.4 328.6,277.4 '/>
		<polygon fill = 'rgb( 31, 120, 180)' fill-opacity = '0.250000' points = '328.6,277.4 328.6,662.4 330.4,662.4 330.4,274.8 '/>
		<polygon fill = 'rgb( 31, 120, 180)' fill-opacity = '0.250000' points = '330.4,274.8 330.4,662.4 332.3,662.4 332.3,272.2 '/>
		<polygon fill = 'rgb( 31, 120, 180)' fill-opacity = '0.250000' points = '332.3,272.2 332.3,662.4 334.2,662.4 334.2,269.7 '/>
		<polygon fill = 'rgb( 31, 120, 180)' fill-opacity = '0.250000' points = '334.2,269.7 334.2,662.4 336.1,662.4 336.1,267.1 '/>
		<polygon fill = 'rgb( 31, 120, 180)' fill-opacity = '0.250000' points = '336.1,267.1 336.1,662.4 338.0,662.4 338.0,264.5 '/>
		<polygon fill = 'rgb( 31, 120, 180)' fill-opacity = '0.250000' points = '338.0,264.5 338.0,662.4 339.9,662.4 339.9,262.0 '/>
		<polygon fill = 'rgb( 31, 120, 180)' fill-opacity = '0.250000' points = '339.9,262.0 339.9,662.4 341.8,662.4 341.8,259.4 '/>
		<polygon fill = 'rgb( 31, 120, 180)' fill-opacity = '0.250000' points = '341.8,259.4 341.8,662.4 343.7,662.4 343.7,256.8 '/>
		<polygon fill = 'rgb( 31, 120, 180)' fill-opacity = '0.250000' points = '343.7,256.8 343.7,662.4 345.5,662.4 345.5,254.1 '/>
		<polygon fill = 'rgb( 31, 120, 180)' fill-opacity = '0.250000' points = '345.5,254.1 345.5,662.4 347.4,662.4 347.4,251.5 '/>
		<polygon fill = 'rgb( 31, 120, 180)' fill-opacity = '0.250000' points = '347.4,251.5 347.4,662.4 349.3,662.4 349.3,248.9 '/>
		<polygon fill = 'rgb( 31, 120, 180)' fill-opacity = '0.250000' points = '349.3,248.9 349.3,662.4 351.2,662.4 351.2,246.2 '/>
		<polygon fill = 'rgb( 31, 120, 180)' fill-opacity = '0.250000' points = '351.2,246.2 351.2,662.4 353.1,662.4 353.1,243.5 '/>
		<polygon fill = 'rgb( 31, 120, 180)' fill-opacity = '0.250000' points = '353.1,243.5 353.1,662.4 355.0,662.4 355.0,240.8 '/>
		<polygon fill = 'rgb( 31, 120, 180)' fill-opacity = '0.250000' points = '355.0,240.8 355.0,662.4 356.9,662.4 356.9,238.1 '/>
		<polygon fill = 'rgb( 31, 120, 180)' fill-opacity = '0.250000' points = '356.9,238.1 356.9,662.4 358.8,662.4 358.8,235.4 '/>
		<polygon fill = 'rgb( 31, 120, 180)' fill-opacity = '0.250000' points = '358.8,235.4 358.8,662.4 360.6,662.4 360.6,232.6 '/>
		<polygon fill = 'rgb( 31, 120, 180)' fill-opacity = '0.250000' points = '360.6,232.6 360.6,662.4 362.5,662.4 362.5,229.9 '/>
		<polygon fill = 'rgb( 31, 120, 180)' fill-opacity = '0.250000' points = '362.5,229.9 362.5,662.4 364.4,662.4 364.4,227.1 '/>
		<polygon fill = 'rgb( 31, 120, 180)' fill-opacity = '0.250000' points = '364.4,227.1 364.4,662.4 366.3,662.4 366.3,224.2 '/>
		<polygon fill = 'rgb( 31, 120, 180)' fill-opacity = '0.250000' points = '366.3,224.2 366.3,662.4 368.2,662.4 368.2,221.4 '/>
		<polygon fill = 'rgb( 31, 120, 180)' fill-opacity = '0.250000' points = '368.2,221.4 368.2,662.4 370.1,662.4 370.1,218.6 '/>
		<polygon fill = 'rgb( 31, 120, 180)' fill-opacity = '0.250000' points = '370.1,218.6 370.1,662.4 372.0,662.4 372.0,215.7 '/>
		<polygon fill = 'rgb( 31, 120, 180)' fill-opacity = '0.250000' points = '372.0,215.7 372.0,662.4 373.8,662.4 373.8,212.8 '/>
		<polygon fill = 'rgb( 31, 120, 180)' fill-opacity = '0.250000' points = '373.8,212.8 373.8,662.4 375.7,662.4 375.7,209.9 '/>
		<polygon fill = 'rgb( 31, 120, 180)' fill-opacity = '0.250000' points = '375.7,209.9 375.7,662.4 377.6,662.4 377.6,207.1 '/>
		<polygon fill = 'rgb( 31, 120, 180)' fill-opacity = '0.250000' points = '377.6,207.1 377.6,662.4 379.5,662.4 379.5,204.2 '/>
		<polygon fill = 'rgb( 31, 120, 180)' fill-opacity = '0.250000' points = '379.5,204.2 379.5,662.4 381.4,662.4 381.4,201.3 '/>
		<polygon fill = 'rgb( 31, 120, 180)' fill-opacity = '0.250000' points = '381.4,201.3 381.4,662.4 383.3,662.4 383.3,198.5 '/>
		<polygon fill = 'rgb( 31, 120, 180)' fill-opacity = '0.250000' points = '383.3,198.5 383.3,662.4 385.2,662.4 385.2,195.7 '/>
		<polygon fill = 'rgb( 31, 120, 180)' fill-opacity = '0.250000' points = '385.2,195.7 385.2,662.4 387.1,662.4 387.1,192.9 '/>
		<polygon fill = 'rgb( 31, 120, 180)' fill-opacity = '0.250000' points = '387.1,192.9 387.1,662.4 388.9,662.4 388.9,190.2 '/>
		<polygon fill = 'rgb( 31, 120, 180)' fill-opacity = '0.250000' points = '388.9,190.2 388.9,662.4 390.8,662.4 390.8,187.5 '/>
		<polygon fill = 'rgb( 31, 120, 180)' fill-opacity = '0.250000' points = '390.8,187.5 390.8,662.4 392.7,662.4 392.7,184.8 '/>
		<polygon fill = 'rgb( 31, 120, 180)' fill-opacity = '0.250000' points = '392.7,184.8 392.7,662.4 394.6,662.4 394.6,182.2 '/>
		<polygon fill = 'rgb( 31, 120, 180)' fill-opacity = '0.250000' points = '394.6,182.2 394.6,662.4 396.5,662.4 396.5,179.7 '/>
		<polygon fill = 'rgb( 31, 120, 180)' fill-opacity = '0.250000' points = '396.5,179.7 396.5,662.4 398.4,662.4 398.4,177.3 '/>
		<polygon fill = 'rgb( 31, 120, 180)' fill-opacity = '0.250000' points = '398.4,177.3 398.4,662.4 400.3,662.4 400.3,174.9 '/>
		<polygon fill = 'rgb( 31, 120, 180)' fill-opacity = '0.250000' points = '400.3,174.9 400.3,662.4 402.2,662.4 402.2,172.6 '/>
		<polygon fill = 'rgb( 31, 120, 180)' fill-opacity = '0.250000' points = '402.2,172.6 402.2,662.4 404.0,662.4 404.0,170.4 '/>
		<polygon fill = 'rgb( 31, 120, 180)' fill-opacity = '0.250000' points = '404.0,170.4 404.0,662.4 405.9,662.4 405.9,168.3 '/>
		<polygon fill = 'rgb( 31, 120, 180)' fill-opacity = '0.250000' points = '405.9,168.3 405.9,662.4 407.8,662.4 407.8,166.2 '/>
		<polygon fill = 'rgb( 31, 120, 180)' fill-opacity = '0.250000' points = '407.8,166.2 407.8,662.4 409.7,662.4 409.7,164.2 '/>
		<polygon fill = 'rgb( 31, 120, 180)' fill-opacity = '0.250000' points = '409.7,164.2 409.7,662.4 411.6,662.4 411.6,162.3 '/>
		<polygon fill = 'rgb( 31, 120, 180)' fill-opacity = '0.250000' points = '411.6,162.3 411.6,662.4 413.5,662.4 413.5,160.5 '/>
		<polygon fill = 'rgb( 31, 120, 180)' fill-opacity = '0.250000' points = '413.5,160.5 413.5,662.4 415.4,662.4 415.4,158.7 '/>
		<polygon fill = 'rgb( 31, 120, 180)' fill-opacity = '0.250000' points = '415.4,158.7 415.4,662.4 417.3,662.4 417.3,157.0 '/>
		<polygon fill = 'rgb( 31, 120, 180)' fill-opacity = '0.250000' points = '417.3,157.0 417.3,662.4 419.1,662.4 419.1,155.3 '/>
		<polygon fill = 'rgb( 31, 120, 180)' fill-opacity = '0.250000' points = '419.1,155.3 419.1,662.4 421.0,662.4 421.0,153.7 '/>
		<polygon fill = 'rgb( 31, 120, 180)' fill-opacity = '0.250000' points = '421.0,153.7 421.0,662.4 422.9,662.4 422.9,152.2 '/>
		<polygon fill = 'rgb( 31, 120, 180)' fill-opacity = '0.250000' points = '422.9,152.2 422.9,662.4 424.8,662.4 424.8,150.6 '/>
		<polygon fill = 'rgb( 31, 120, 180)' fill-opacity = '0.250000' points = '424.8,150.6 424.8,662.4 426.7,662.4 426.7,149.1 '/>
		<polygon fill = 'rgb( 31, 120, 180)' fill-opacity = '0.250000' points = '426.7,149.1 426.7,662.4 428.6,662.4 428.6,147.7 '/>
		<polygon fill = 'rgb( 31, 120, 180)' fill-opacity = '0.250000' points = '428.6,147.7 428.6,662.4 430.5,662.4 430.5,146.2 '/>
		<polygon fill = 'rgb( 31, 120, 180)' fill-opacity = '0.250000' points = '430.5,146.2 430.5,662.4 432.4,662.4 432.4,144.8 '/>
		<polygon fill = 'rgb( 31, 120, 180)' fill-opacity = '0.250000' points = '432.4,144.8 432.4,662.4 434.2,662.4 434.2,143.4 '/>
		<polygon fill = 'rgb( 31, 120, 180)' fill-opacity = '0.250000' points = '434.2,143.4 434.2,662.4 436.1,662.4 436.1,142.0 '/>
		<polygon fill = 'rgb( 31, 120, 180)' fill-opacity = '0.250000' points = '436.1,142.0 436.1,662.4 438.0,662.4 438.0,140.7 '/>
		<polygon fill = 'rgb( 31, 120, 180)' fill-opacity = '0.250000' points = '438.0,140.7 438.0,662.4 439.9,662.4 439.9,139.3 '/>
		<polygon fill = 'rgb( 31, 120, 180)' fill-opacity = '0.250000' points = '439.9,139.3 439.9,662.4 441.8,662.4 441.8,138.0 '/>
		<polygon fill = 'rgb( 31, 120, 180)' fill-opacity = '0.250000' points = '441.8,138.0 441.8,662.4 443.7,662.4 443.7,136.7 '/>
		<polygon fill = 'rgb( 31, 120, 180)' fill-opacity = '0.250000' points = '443.7,136.7 443.7,662.4 445.6,662.4 445.6,135.5 '/>
		<polygon fill = 'rgb( 31, 120, 180)' fill-opacity = '0.250000' points = '445.6,135.5 445.6,662.4 447.4,662.4 447.4,134.3 '/>
		<polygon fill = 'rgb( 31, 120, 180)' fill-opacity = '0.250000' points = '447.4,134.3 447.4,662.4 449.3,662.4 449.3,133.1 '/>
		<polygon fill = 'rgb( 31, 120, 180)' fill-opacity = '0.250000' points = '449.3,133.1 449.3,662.4 451.2,662.4 451.2,132.0 '/>
		<polygon fill = 'rgb( 31, 120, 180)' fill-opacity = '0.250000' points = '451.2,132.0 451.2,662.4 453.1,662.4 453.1,130.9 '/>
		<polygon fill = 'rgb( 31, 120, 180)' fill-opacity = '0.250000' points = '453.1,130.9 453.1,662.4 455.0,662.4 455.0,129.9 '/>
		<polygon fill = 'rgb( 31, 120, 180)' fill-opacity = '0.250000' points = '455.0,129.9 455.0,662.4 456.9,662.4 456.9,129.0 '/>
		<polygon fill = 'rgb( 31, 120, 180)' fill-opacity = '0.250000' points = '456.9,129.0 456.9,662.4 458.8,662.4 458.8,128.1 '/>
		<polygon fill = 'rgb( 31, 120, 180)' fill-opacity = '0.250000' points = '458.8,128.1 458.8,662.4 460.7,662.4 460.7,127.3 '/>
		<polygon fill = 'rgb( 31, 120, 180)' fill-opacity = '0.250000' points = '460.7,127.3 460.7,662.4 462.5,662.4 462.5,126.6 '/>
		<polygon fill = 'rgb( 31, 120, 180)' fill-opacity = '0.250000' points = '462.5,126.6 462.5,662.4 464.4,662.4 464.4,125.9 '/>
		<polygon fill = 'rgb( 31, 120, 180)' fill-opacity = '0.250000' points = '464.4,125.9 464.4,662.4 466.3,662.4 466.3,125.3 '/>
		<polygon fill = 'rgb( 31, 120, 180)' fill-opacity = '0.250000' points = '466.3,125.3 466.3,662.4 468.2,662.4 468.2,124.7 '/>
		<polygon fill = 'rgb( 31, 120, 180)' fill-opacity = '0.250000' points = '468.2,124.7 468.2,662.4 470.1,662.4 470.1,124.2 '/>
		<polygon fill = 'rgb( 31, 120, 180)' fill-opacity = '0.250000' points = '470.1,124.2 470.1,662.4 472.0,662.4 472.0,123.7 '/>
		<polygon fill = 'rgb( 31, 120, 180)' fill-opacity = '0.250000' points = '472.0,123.7 472.0,662.4 473.9,662.4 473.9,123.2 '/>
		<polygon fill = 'rgb( 31, 120, 180)' fill-opacity = '0.250000' points = '473.9,123.2 473.9,662.4 475.8,662.4 475.8,122.7 '/>
		<polygon fill = 'rgb( 31, 120, 180)' fill-opacity = '0.250000' points = '475.8,122.7 475.8,662.4 477.6,662.4 477.6,122.3 '/>
		<polygon fill = 'rgb( 31, 120, 180)' fill-opacity = '0.250000' points = '477.6,122.3 477.6,662.4 479.5,662.4 479.5,121.9 '/>
		<polygon fill = 'rgb( 31, 120, 180)' fill-opacity = '0.250000' points = '479.5,121.9 479.5,662.4 481.4,662.4 481.4,121.4 '/>
		<polygon fill = 'rgb( 31, 120, 180)' fill-opacity = '0.250000' points = '481.4,121.4 481.4,662.4 483.3,662.4 483.3,121.0 '/>
		<polygon fill = 'rgb( 31, 120, 180)' fill-opacity = '0.250000' points = '483.3,121.0 483.3,662.4 485.2,662.4 485.2,120.5 '/>
		<polygon fill = 'rgb( 31, 120, 180)' fill-opacity = '0.250000' points = '485.2,120.5 485.2,662.4 487.1,662.4 487.1,120.0 '/>
		<polygon fill = 'rgb( 31, 120, 180)' fill-opacity = '0.250000' points = '487.1,120.0 487.1,662.4 489.0,662.4 489.0,119.5 '/>
		<polygon fill = 'rgb( 31, 120, 180)' fill-opacity = '0.250000' points = '489.0,119.5 489.0,662.4 490.9,662.4 490.9,119.1 '/>
		<polygon fill = 'rgb( 31, 120, 180)' fill-opacity = '0.250000' points = '490.9,119.1 490.9,662.4 492.7,662.4 492.7,118.5 '/>
		<polygon fill = 'rgb( 31, 120, 180)' fill-opacity = '0.250000' points = '492.7,118.5 492.7,662.4 494.6,662.4 494.6,118.0 '/>
		<polygon fill = 'rgb( 31, 120, 180)' fill-opacity = '0.250000' points = '494.6,118.0 494.6,662.4 496.5,662.4 496.5,117.5 '/>
		<polygon fill = 'rgb( 31, 120, 180)' fill-opacity = '0.250000' points = '496.5,117.5 496.5,662.4 498.4,662.4 498.4,117.1 '/>
		<polygon fill = 'rgb( 31, 120, 180)' fill-opacity = '0.250000' points = '498.4,117.1 498.4,662.4 500.3,662.4 500.3,116.6 '/>
		<polygon fill = 'rgb( 31, 120, 180)' fill-opacity = '0.250000' points = '500.3,116.6 500.3,662.4 502.2,662.4 502.2,116.2 '/>
		<polygon fill = 'rgb( 31, 120, 180)' fill-opacity = '0.250000' points = '502.2,116.2 502.2,662.4 504.1,662.4 504.1,115.8 '/>
		<polygon fill = 'rgb( 31, 120, 180)' fill-opacity = '0.250000' points = '504.1,115.8 504.1,662.4 506.0,662.4 506.0,115.5 '/>
		<polygon fill = 'rgb( 31, 120, 180)' fill-opacity = '0.250000' points = '506.0,115.5 506.0,662.4 507.8,662.4 507.8,115.2 '/>
		<polygon fill = 'rgb( 31, 120, 180)' fill-opacity = '0.250000' points = '507.8,115.2 507.8,662.4 509.7,662.4 509.7,115.0 '/>
		<polygon fill = 'rgb( 31, 120, 180)' fill-opacity = '0.250000' points = '509.7,115.0 509.7,662.4 511.6,662.4 511.6,114.9 '/>
		<polygon fill = 'rgb( 31, 120, 180)' fill-opacity = '0.250000' points = '511.6,114.9 511.6,662.4 513.5,662.4 513.5,114.8 '/>
		<polygon fill = 'rgb( 31, 120, 180)' fill-opacity = '0.250000' points = '513.5,114.8 513.5,662.4 515.4,662.4 515.4,114.9 '/>
		<polygon fill = 'rgb( 31, 120, 180)' fill-opacity = '0.250000' points = '515.4,114.9 515.4,662.4 517.3,662.4 517.3,115.1 '/>
		<polygon fill = 'rgb( 31, 120, 180)' fill-opacity = '0.250000' points = '517.3,115.1 517.3,662.4 519.2,662.4 519.2,115.3 '/>
		<polygon fill = 'rgb( 31, 120, 180)' fill-opacity = '0.250000' points = '519.2,115.3 519.2,662.4 521.0,662.4 521.0,115.7 '/>
		<polygon fill = 'rgb( 31, 120, 180)' fill-opacity = '0.250000' points = '521.0,115.7 521.0,662.4 522.9,662.4 522.9,116.1 '/>
		<polygon fill = 'rgb( 31, 120, 180)' fill-opacity = '0.250000' points = '522.9,116.1 522.9,662.4 524.8,662.4 524.8,116.7 '/>
		<polygon fill = 'rgb( 31, 120, 180)' fill-opacity = '0.250000' points = '524.8,116.7 524.8,662.4 526.7,662.4 526.7,117.3 '/>
		<polygon fill = 'rgb( 31, 120, 180)' fill-opacity = '0.250000' points = '526.7,117.3 526.7,662.4 528.6,662.4 528.6,118.0 '/>
		<polygon fill = 'rgb( 31, 120, 180)' fill-opacity = '0.250000' points = '528.6,118.0 528.6,662.4 530.5,662.4 530.5,118.8 '/>
		<polygon fill = 'rgb( 31, 120, 180)' fill-opacity = '0.250000' points = '530.5,118.8 530.5,662.4 532.4,662.4 532.4,119.7 '/>
		<polygon fill = 'rgb( 31, 120, 180)' fill-opacity = '0.250000' points = '532.4,119.7 532.4,662.4 534.3,662.4 534.3,120.6 '/>
		<polygon fill = 'rgb( 31, 120, 180)' fill-opacity = '0.250000' points = '534.3,120.6 534.3,662.4 536.1,662.4 536.1,121.5 '/>
		<polygon fill = 'rgb( 31, 120, 180)' fill-opacity = '0.250000' points = '536.1,121.5 536.1,662.4 538.0,662.4 538.0,122.5 '/>
		<polygon fill = 'rgb( 31, 120, 180)' fill-opacity = '0.250000' points = '538.0,122.5 538.0,662.4 539.9,662.4 539.9,123.6 '/>
		<polygon fill = 'rgb( 31, 120, 180)' fill-opacity = '0.250000' points = '539.9,123.6 539.9,662.4 541.8,662.4 541.8,124.7 '/>
		<polygon fill = 'rgb( 31, 120, 180)' fill-opacity = '0.250000' points = '541.8,124.7 541.8,662.4 543.7,662.4 543.7,125.8 '/>
		<polygon fill = 'rgb( 31, 120, 180)' fill-opacity = '0.250000' points = '543.7,125.8 543.7,662.4 545.6,662.4 545.6,126.9 '/>
		<polygon fill = 'rgb( 31, 120, 180)' fill-opacity = '0.250000' points = '545.6,126.9 545.6,662.4 547.5,662.4 547.5,128.0 '/>
		<polygon fill = 'rgb( 31, 120, 180)' fill-opacity = '0.250000' points = '547.5,128.0 547.5,662.4 549.4,662.4 549.4,129.1 '/>
		<polygon fill = 'rgb( 31, 120, 180)' fill-opacity = '0.250000' points = '549.4,129.1 549.4,662.4 551.2,662.4 551.2,130.3 '/>
		<polygon fill = 'rgb( 31, 120, 180)' fill-opacity = '0.250000' points = '551.2,130.3 551.2,662.4 553.1,662.4 553.1,131.4 '/>
		<polygon fill = 'rgb( 31, 120, 180)' fill-opacity = '0.250000' points = '553.1,131.4 553.1,662.4 555.0,662.4 555.0,132.6 '/>
		<polygon fill = 'rgb( 31, 120, 180)' fill-opacity = '0.250000' points = '555.0,132.6 555.0,662.4 556.9,662.4 556.9,133.8 '/>
		<polygon fill = 'rgb( 31, 120, 180)' fill-opacity = '0.250000' points = '556.9,133.8 556.9,662.4 558.8,662.4 558.8,135.0 '/>
		<polygon fill = 'rgb( 31, 120, 180)' fill-opacity = '0.250000' points = '558.8,135.0 558.8,662.4 560.7,662.4 560.7,136.2 '/>
		<polygon fill = 'rgb( 31, 120, 180)' fill-opacity = '0.250000' points = '560.7,136.2 560.7,662.4 562.6,662.4 562.6,137.5 '/>
		<polygon fill = 'rgb( 31, 120, 180)' fill-opacity = '0.250000' points = '562.6,137.5 562.6,662.4 564.5,662.4 564.5,138.8 '/>
		<polygon fill = 'rgb( 31, 120, 180)' fill-opacity = '0.250000' points = '564.5,138.8 564.5,662.4 566.3,662.4 566.3,140.1 '/>
		<polygon fill = 'rgb( 31, 120, 180)' fill-opacity = '0.250000' points = '566.3,140.1 566.3,662.4 568.2,662.4 568.2,141.5 '/>
		<polygon fill = 'rgb( 31, 120, 180)' fill-opacity = '0.250000' points = '568.2,141.5 568.2,662.4 570.1,662.4 570.1,143.0 '/>
		<polygon fill = 'rgb( 31, 120, 180)' fill-opacity = '0.250000' points = '570.1,143.0 570.1,662.4 572.0,662.4 572.0,144.5 '/>
		<polygon fill = 'rgb( 31, 120, 180)' fill-opacity = '0.250000' points = '572.0,144.5 572.0,662.4 573.9,662.4 573.9,146.0 '/>
		<polygon fill = 'rgb( 31, 120, 180)' fill-opacity = '0.250000' points = '573.9,146.0 573.9,662.4 575.8,662.4 575.8,147.6 '/>
		<polygon fill = 'rgb( 31, 120, 180)' fill-opacity = '0.250000' points = '575.8,147.6 575.8,662.4 577.7,662.4 577.7,149.3 '/>
		<polygon fill = 'rgb( 31, 120, 180)' fill-opacity = '0.250000' points = '577.7,149.3 577.7,662.4 579.5,662.4 579.5,151.0 '/>
		<polygon fill = 'rgb( 31, 120, 180)' fill-opacity = '0.250000' points = '579.5,151.0 579.5,662.4 581.4,662.4 581.4,152.8 '/>
		<polygon fill = 'rgb( 31, 120, 180)' fill-opacity = '0.250000' points = '581.4,152.8 581.4,662.4 583.3,662.4 583.3,154.7 '/>
		<polygon fill = 'rgb( 31, 120, 180)' fill-opacity = '0.250000' points = '583.3,154.7 583.3,662.4 585.2,662.4 585.2,156.6 '/>
		<polygon fill = 'rgb( 31, 120, 180)' fill-opacity = '0.250000' points = '585.2,156.6 585.2,662.4 587.1,662.4 587.1,158.6 '/>
		<polygon fill = 'rgb( 31, 120, 180)' fill-opacity = '0.250000' points = '587.1,158.6 587.1,662.4 589.0,662.4 589.0,160.6 '/>
		<polygon fill = 'rgb( 31, 120, 180)' fill-opacity = '0.250000' points = '589.0,160.6 589.0,662.4 590.9,662.4 590.9,162.7 '/>
		<polygon fill = 'rgb( 31, 120, 180)' fill-opacity = '0.250000' points = '590.9,162.7 590.9,662.4 592.8,662.4 592.8,164.8 '/>
		<polygon fill = 'rgb( 31, 120, 180)' fill-opacity = '0.250000' points = '592.8,164.8 592.8,662.4 594.6,662.4 594.6,166.9 '/>
		<polygon fill = 'rgb( 31, 120, 180)' fill-opacity = '0.250000' points = '594.6,166.9 594.6,662.4 596.5,662.4 596.5,169.1 '/>
		<polygon fill = 'rgb( 31, 120, 180)' fill-opacity = '0.250000' points = '596.5,169.1 596.5,662.4 598.4,662.4 598.4,171.2 '/>
		<polygon fill = 'rgb( 31, 120, 180)' fill-opacity = '0.250000' points = '598.4,171.2 598.4,662.4 600.3,662.4 600.3,173.4 '/>
		<polygon fill = 'rgb( 31, 120, 180)' fill-opacity = '0.250000' points = '600.3,173.4 600.3,662.4 602.2,662.4 602.2,175.6 '/>
		<polygon fill = 'rgb( 31, 120, 180)' fill-opacity = '0.250000' points = '602.2,175.6 602.2,662.4 604.1,662.4 604.1,177.8 '/>
		<polygon fill = 'rgb( 31, 120, 180)' fill-opacity = '0.250000' points = '604.1,177.8 604.1,662.4 606.0,662.4 606.0,180.1 '/>
		<polygon fill = 'rgb( 31, 120, 180)' fill-opacity = '0.250000' points = '606.0,180.1 606.0,662.4 607.9,662.4 607.9,182.3 '/>
		<polygon fill = 'rgb( 31, 120, 180)' fill-opacity = '0.250000' points = '607.9,182.3 607.9,662.4 609.7,662.4 609.7,184.5 '/>
		<polygon fill = 'rgb( 31, 120, 180)' fill-opacity = '0.250000' points = '609.7,184.5 609.7,662.4 611.6,662.4 611.6,186.7 '/>
		<polygon fill = 'rgb( 31, 120, 180)' fill-opacity = '0.250000' points = '611.6,186.7 611.6,662.4 613.5,662.4 613.5,188.9 '/>
		<polygon fill = 'rgb( 31, 120, 180)' fill-opacity = '0.250000' points = '613.5,188.9 613.5,662.4 615.4,662.4 615.4,191.2 '/>
		<polygon fill = 'rgb( 31, 120, 180)' fill-opacity = '0.250000' points = '615.4,191.2 615.4,662.4 617.3,662.4 617.3,193.4 '/>
		<polygon fill = 'rgb( 31, 120, 180)' fill-opacity = '0.250000' points = '617.3,193.4 617.3,662.4 619.2,662.4 619.2,195.6 '/>
		<polygon fill = 'rgb( 31, 120, 180)' fill-opacity = '0.250000' points = '619.2,195.6 619.2,662.4 621.1,662.4 621.1,197.8 '/>
		<polygon fill = 'rgb( 31, 120, 180)' fill-opacity = '0.250000' points = '621.1,197.8 621.1,662.4 623.0,662.4 623.0,200.1 '/>
		<polygon fill = 'rgb( 31, 120, 180)' fill-opacity = '0.250000' points = '623.0,200.1 623.0,662.4 624.8,662.4 624.8,202.3 '/>
		<polygon fill = 'rgb( 31, 120, 180)' fill-opacity = '0.250000' points = '624.8,202.3 624.8,662.4 626.7,662.4 626.7,204.6 '/>
		<polygon fill = 'rgb( 31, 120, 180)' fill-opacity = '0.250000' points = '626.7,204.6 626.7,662.4 628.6,662.4 628.6,206.8 '/>
		<polygon fill = 'rgb( 31, 120, 180)' fill-opacity = '0.250000' points = '628.6,206.8 628.6,662.4 630.5,662.4 630.5,209.1 '/>
		<polygon fill = 'rgb( 31, 120, 180)' fill-opacity = '0.250000' points = '630.5,209.1 630.5,662.4 632.4,662.4 632.4,211.4 '/>
		<polygon fill = 'rgb( 31, 120, 180)' fill-opacity = '0.250000' points = '632.4,211.4 632.4,662.4 634.3,662.4 634.3,213.8 '/>
		<polygon fill = 'rgb( 31, 120, 180)' fill-opacity = '0.250000' points = '634.3,213.8 634.3,662.4 636.2,662.4 636.2,216.1 '/>
		<polygon fill = 'rgb( 31, 120, 180)' fill-opacity = '0.250000' points = '636.2,216.1 636.2,662.4 638.1,662.4 638.1,218.5 '/>
		<polygon fill = 'rgb( 31, 120, 180)' fill-opacity = '0.250000' points = '638.1,218.5 638.1,662.4 639.9,662.4 639.9,220.8 '/>
		<polygon fill = 'rgb( 31, 120, 180)' fill-opacity = '0.250000' points = '639.9,220.8 639.9,662.4 641.8,662.4 641.8,223.2 '/>
		<polygon fill = 'rgb( 31, 120, 180)' fill-opacity = '0.250000' points = '641.8,223.2 641.8,662.4 643.7,662.4 643.7,225.6 '/>
		<polygon fill = 'rgb( 31, 120, 180)' fill-opacity = '0.250000' points = '643.7,225.6 643.7,662.4 645.6,662.4 645.6,228.0 '/>
		<polygon fill = 'rgb( 31, 120, 180)' fill-opacity = '0.250000' points = '645.6,228.0 645.6,662.4 647.5,662.4 647.5,230.4 '/>
		<polygon fill = 'rgb( 31, 120, 180)' fill-opacity = '0.250000' points = '647.5,230.4 647.5,662.4 649.4,662.4 649.4,232.8 '/>
		<polygon fill = 'rgb( 31, 120, 180)' fill-opacity = '0.250000' points = '649.4,232.8 649.4,662.4 651.3,662.4 651.3,235.2 '/>
		<polygon fill = 'rgb( 31, 120, 180)' fill-opacity = '0.250000' points = '651.3,235.2 651.3,662.4 653.1,662.4 653.1,237.6 '/>
		<polygon fill = 'rgb( 31, 120, 180)' fill-opacity = '0.250000' points = '653.1,237.6 653.1,662.4 655.0,662.4 655.0,240.0 '/>
		<polygon fill = 'rgb( 31, 120, 180)' fill-opacity = '0.250000' points = '655.0,240.0 655.0,662.4 656.9,662.4 656.9,242.3 '/>
		<polygon fill = 'rgb( 31, 120, 180)' fill-opacity = '0.250000' points = '656.9,242.3 656.9,662.4 658.8,662.4 658.8,244.6 '/>
		<polygon fill = 'rgb( 31, 120, 180)' fill-opacity = '0.250000' points = '658.8,244.6 658.8,662.4 660.7,662.4 660.7,247.0 '/>
		<polygon fill = 'rgb( 31, 120, 180)' fill-opacity = '0.250000' points = '660.7,247.0 660.7,662.4 662.6,662.4 662.6,249.2 '/>
		<polygon fill = 'rgb( 31, 120, 180)' fill-opacity = '0.250000' points = '662.6,249.2 662.6,662.4 664.5,662.4 664.5,251.5 '/>
		<polygon fill = 'rgb( 31, 120, 180)' fill-opacity = '0.250000' points = '664.5,251.5 664.5,662.4 666.4,662.4 666.4,253.7 '/>
		<polygon fill = 'rgb( 31, 120, 180)' fill-opacity = '0.250000' points = '666.4,253.7 666.4,662.4 668.2,662.4 668.2,256.0 '/>
		<polygon fill = 'rgb( 31, 120, 180)' fill-opacity = '0.250000' points = '668.2,256.0 668.2,662.4 670.1,662.4 670.1,258.2 '/>
		<polygon fill = 'rgb( 31, 120, 180)' fill-opacity = '0.250000' points = '670.1,258.2 670.1,662.4 672.0,662.4 672.0,260.4 '/>
		<polygon fill = 'rgb( 31, 120, 180)' fill-opacity = '0.250000' points = '672.0,260.4 672.0,662.4 673.9,662.4 673.9,262.6 '/>
		<polygon fill = 'rgb( 31, 120, 180)' fill-opacity = '0.250000' points = '673.9,262.6 673.9,662.4 675.8,662.4 675.8,264.7 '/>
		<polygon fill = 'rgb( 31, 120, 180)' fill-opacity = '0.250000' points = '675.8,264.7 675.8,662.4 677.7,662.4 677.7,267.0 '/>
		<polygon fill = 'rgb( 31, 120, 180)' fill-opacity = '0.250000' points = '677.7,267.0 677.7,662.4 679.6,662.4 679.6,269.2 '/>
		<polygon fill = 'rgb( 31, 120, 180)' fill-opacity = '0.250000' points = '679.6,269.2 679.6,662.4 681.5,662.4 681.5,271.5 '/>
		<polygon fill = 'rgb( 31, 120, 180)' fill-opacity = '0.250000' points = '681.5,271.5 681.5,662.4 683.3,662.4 683.3,273.8 '/>
		<polygon fill = 'rgb( 31, 120, 180)' fill-opacity = '0.250000' points = '683.3,273.8 683.3,662.4 685.2,662.4 685.2,276.1 '/>
		<polygon fill = 'rgb( 31, 120, 180)' fill-opacity = '0.250000' points = '685.2,276.1 685.2,662.4 687.1,662.4 687.1,278.6 '/>
		<polygon fill = 'rgb( 31, 120, 180)' fill-opacity = '0.250000' points = '687.1,278.6 687.1,662.4 689.0,662.4 689.0,281.0 '/>
		<polygon fill = 'rgb( 31, 120, 180)' fill-opacity = '0.250000' points = '689.0,281.0 689.0,662.4 690.9,662.4 690.9,283.6 '/>
		<polygon fill = 'rgb( 31, 120, 180)' fill-opacity = '0.250000' points = '690.9,283.6 690.9,662.4 692.8,662.4 692.8,286.3 '/>
		<polygon fill = 'rgb( 31, 120, 180)' fill-opacity = '0.250000' points = '692.8,286.3 692.8,662.4 694.7,662.4 694.7,289.0 '/>
		<polygon fill = 'rgb( 31, 120, 180)' fill-opacity = '0.250000' points = '694.7,289.0 694.7,662.4 696.6,662.4 696.6,291.8 '/>
		<polygon fill = 'rgb( 31, 120, 180)' fill-opacity = '0.250000' points = '696.6,291.8 696.6,662.4 698.4,662.4 698.4,294.8 '/>
		<polygon fill = 'rgb( 31, 120, 180)' fill-opacity = '0.250000' points = '698.4,294.8 698.4,662.4 700.3,662.4 700.3,297.8 '/>
		<polygon fill = 'rgb( 31, 120, 180)' fill-opacity = '0.250000' points = '700.3,297.8 700.3,662.4 702.2,662.4 702.2,300.9 '/>
		<polygon fill = 'rgb( 31, 120, 180)' fill-opacity = '0.250000' points = '702.2,300.9 702.2,662.4 704.1,662.4 704.1,304.2 '/>
		<polygon fill = 'rgb( 31, 120, 180)' fill-opacity = '0.250000' points = '704.1,304.2 704.1,662.4 706.0,662.4 706.0,307.5 '/>
		<polygon fill = 'rgb( 31, 120, 180)' fill-opacity = '0.250000' points = '706.0,307.5 706.0,662.4 707.9,662.4 707.9,310.9 '/>
		<polygon fill = 'rgb( 31, 120, 180)' fill-opacity = '0.250000' points = '707.9,310.9 707.9,662.4 709.8,662.4 709.8,314.4 '/>
		<polygon fill = 'rgb( 31, 120, 180)' fill-opacity = '0.250000' points = '709.8,314.4 709.8,662.4 711.7,662.4 711.7,317.9 '/>
		<polygon fill = 'rgb( 31, 120, 180)' fill-opacity = '0.250000' points = '711.7,317.9 711.7,662.4 713.5,662.4 713.5,321.5 '/>
		<polygon fill = 'rgb( 31, 120, 180)' fill-opacity = '0.250000' points = '713.5,321.5 713.5,662.4 715.4,662.4 715.4,325.2 '/>
		<polygon fill = 'rgb( 31, 120, 180)' fill-opacity = '0.250000' points = '715.4,325.2 715.4,662.4 717.3,662.4 717.3,328.9 '/>
		<polygon fill = 'rgb( 31, 120, 180)' fill-opacity = '0.250000' points = '717.3,328.9 717.3,662.4 719.2,662.4 719.2,332.6 '/>
		<polygon fill = 'rgb( 31, 120, 180)' fill-opacity = '0.250000' points = '719.2,332.6 719.2,662.4 721.1,662.4 721.1,336.4 '/>
		<polygon fill = 'rgb( 31, 120, 180)' fill-opacity = '0.250000' points = '721.1,336.4 721.1,662.4 723.0,662.4 723.0,340.1 '/>
		<polygon fill = 'rgb( 31, 120, 180)' fill-opacity = '0.250000' points = '723.0,340.1 723.0,662.4 724.9,662.4 724.9,343.8 '/>
		<polygon fill = 'rgb( 31, 120, 180)' fill-opacity = '0.250000' points = '724.9,343.8 724.9,662.4 726.7,662.4 726.7,347.5 '/>
		<polygon fill = 'rgb( 31, 120, 180)' fill-opacity = '0.250000' points = '726.7,347.5 726.7,662.4 728.6,662.4 728.6,351.1 '/>
		<polygon fill = 'rgb( 31, 120, 180)' fill-opacity = '0.250000' points = '728.6,351.1 728.6,662.4 730.5,662.4 730.5,354.7 '/>
		<polygon fill = 'rgb( 31, 120, 180)' fill-opacity = '0.250000' points = '730.5,354.7 730.5,662.4 732.4,662.4 732.4,358.2 '/>
		<polygon fill = 'rgb( 31, 120, 180)' fill-opacity = '0.250000' points = '732.4,358.2 732.4,662.4 734.3,662.4 734.3,361.7 '/>
		<polygon fill = 'rgb( 31, 120, 180)' fill-opacity = '0.250000' points = '734.3,361.7 734.3,662.4 736.2,662.4 736.2,365.0 '/>
		<polygon fill = 'rgb( 31, 120, 180)' fill-opacity = '0.250000' points = '736.2,365.0 736.2,662.4 738.1,662.4 738.1,368.3 '/>
		<polygon fill = 'rgb( 31, 120, 180)' fill-opacity = '0.250000' points = '738.1,368.3 738.1,662.4 740.0,662.4 740.0,371.4 '/>
		<polygon fill = 'rgb( 31, 120, 180)' fill-opacity = '0.250000' points = '740.0,371.4 740.0,662.4 741.8,662.4 741.8,374.5 '/>
		<polygon fill = 'rgb( 31, 120, 180)' fill-opacity = '0.250000' points = '741.8,374.5 741.8,662.4 743.7,662.4 743.7,377.5 '/>
		<polygon fill = 'rgb( 31, 120, 180)' fill-opacity = '0.250000' points = '743.7,377.5 743.7,662.4 745.6,662.4 745.6,380.3 '/>
		<polygon fill = 'rgb( 31, 120, 180)' fill-opacity = '0.250000' points = '745.6,380.3 745.6,662.4 747.5,662.4 747.5,383.1 '/>
		<polygon fill = 'rgb( 31, 120, 180)' fill-opacity = '0.250000' points = '747.5,383.1 747.5,662.4 749.4,662.4 749.4,385.7 '/>
		<polygon fill = 'rgb( 31, 120, 180)' fill-opacity = '0.250000' points = '749.4,385.7 749.4,662.4 751.3,662.4 751.3,388.3 '/>
		<polygon fill = 'rgb( 31, 120, 180)' fill-opacity = '0.250000' points = '751.3,388.3 751.3,662.4 753.2,662.4 753.2,390.8 '/>
		<polygon fill = 'rgb( 31, 120, 180)' fill-opacity = '0.250000' points = '753.2,390.8 753.2,662.4 755.1,662.4 755.1,393.1 '/>
		<polygon fill = 'rgb( 31, 120, 180)' fill-opacity = '0.250000' points = '755.1,393.1 755.1,662.4 756.9,662.4 756.9,395.5 '/>
		<polygon fill = 'rgb( 31, 120, 180)' fill-opacity = '0.250000' points = '756.9,395.5 756.9,662.4 758.8,662.4 758.8,397.7 '/>
		<polygon fill = 'rgb( 31, 120, 180)' fill-opacity = '0.250000' points = '758.8,397.7 758.8,662.4 760.7,662.4 760.7,399.9 '/>
		<polygon fill = 'rgb( 31, 120, 180)' fill-opacity = '0.250000' points = '760.7,399.9 760.7,662.4 762.6,662.4 762.6,402.0 '/>
		<polygon fill = 'rgb( 31, 120, 180)' fill-opacity = '0.250000' points = '762.6,402.0 762.6,662.4 764.5,662.4 764.5,404.1 '/>
		<polygon fill = 'rgb( 31, 120, 180)' fill-opacity = '0.250000' points = '764.5,404.1 764.5,662.4 766.4,662.4 766.4,406.2 '/>
		<polygon fill = 'rgb( 31, 120, 180)' fill-opacity = '0.250000' points = '766.4,406.2 766.4,662.4 768.3,662.4 768.3,408.2 '/>
		<polygon fill = 'rgb( 31, 120, 180)' fill-opacity = '0.250000' points = '768.3,408.2 768.3,662.4 770.2,662.4 770.2,410.3 '/>
		<polygon fill = 'rgb( 31, 120, 180)' fill-opacity = '0.250000' points = '770.2,410.3 770.2,662.4 772.0,662.4 772.0,412.3 '/>
		<polygon fill = 'rgb( 31, 120, 180)' fill-opacity = '0.250000' points = '772.0,412.3 772.0,662.4 773.9,662.4 773.9,414.4 '/>
		<polygon fill = 'rgb( 31, 120, 180)' fill-opacity = '0.250000' points = '773.9,414.4 773.9,662.4 775.8,662.4 775.8,416.4 '/>
		<polygon fill = 'rgb( 31, 120, 180)' fill-opacity = '0.250000' points = '775.8,416.4 775.8,662.4 777.7,662.4 777.7,418.5 '/>
		<polygon fill = 'rgb( 31, 120, 180)' fill-opacity = '0.250000' points = '777.7,418.5 777.7,662.4 779.6,662.4 779.6,420.6 '/>
		<polygon fill = 'rgb( 31, 120, 180)' fill-opacity = '0.250000' points = '779.6,420.6 779.6,662.4 781.5,662.4 781.5,422.7 '/>
		<polygon fill = 'rgb( 31, 120, 180)' fill-opacity = '0.250000' points = '781.5,422.7 781.5,662.4 783.4,662.4 783.4,424.9 '/>
		<polygon fill = 'rgb( 31, 120, 180)' fill-opacity = '0.250000' points = '783.4,424.9 783.4,662.4 785.3,662.4 785.3,427.1 '/>
		<polygon fill = 'rgb( 31, 120, 180)' fill-opacity = '0.250000' points = '785.3,427.1 785.3,662.4 787.1,662.4 787.1,429.4 '/>
		<polygon fill = 'rgb( 31, 120, 180)' fill-opacity = '0.250000' points = '787.1,429.4 787.1,662.4 789.0,662.4 789.0,431.7 '/>
		<polygon fill = 'rgb( 31, 120, 180)' fill-opacity = '0.250000' points = '789.0,431.7 789.0,662.4 790.9,662.4 790.9,434.0 '/>
		<polygon fill = 'rgb( 31, 120, 180)' fill-opacity = '0.250000' points = '790.9,434.0 790.9,662.4 792.8,662.4 792.8,436.4 '/>
		<polygon fill = 'rgb( 31, 120, 180)' fill-opacity = '0.250000' points = '792.8,436.4 792.8,662.4 794.7,662.4 794.7,438.9 '/>
		<polygon fill = 'rgb( 31, 120, 180)' fill-opacity = '0.250000' points = '794.7,438.9 794.7,662.4 796.6,662.4 796.6,441.4 '/>
		<polygon fill = 'rgb( 31, 120, 180)' fill-opacity = '0.250000' points = '796.6,441.4 796.6,662.4 798.5,662.4 798.5,443.9 '/>
		<polygon fill = 'rgb( 31, 120, 180)' fill-opacity = '0.250000' points = '798.5,443.9 798.5,662.4 800.3,662.4 800.3,446.4 '/>
		<polygon fill = 'rgb( 31, 120, 180)' fill-opacity = '0.250000' points = '800.3,446.4 800.3,662.4 802.2,662.4 802.2,449.0 '/>
		<polygon fill = 'rgb( 31, 120, 180)' fill-opacity = '0.250000' points = '802.2,449.0 802.2,662.4 804.1,662.4 804.1,451.7 '/>
		<polygon fill = 'rgb( 31, 120, 180)' fill-opacity = '0.250000' points = '804.1,451.7 804.1,662.4 806.0,662.4 806.0,454.3 '/>
		<polygon fill = 'rgb( 31, 120, 180)' fill-opacity = '0.250000' points = '806.0,454.3 806.0,662.4 807.9,662.4 807.9,457.0 '/>
		<polygon fill = 'rgb( 31, 120, 180)' fill-opacity = '0.250000' points = '807.9,457.0 807.9,662.4 809.8,662.4 809.8,459.6 '/>
		<polygon fill = 'rgb( 31, 120, 180)' fill-opacity = '0.250000' points = '809.8,459.6 809.8,662.4 811.7,662.4 811.7,462.3 '/>
		<polygon fill = 'rgb( 31, 120, 180)' fill-opacity = '0.250000' points = '811.7,462.3 811.7,662.4 813.6,662.4 813.6,465.0 '/>
		<polygon fill = 'rgb( 31, 120, 180)' fill-opacity = '0.250000' points = '813.6,465.0 813.6,662.4 815.4,662.4 815.4,467.7 '/>
		<polygon fill = 'rgb( 31, 120, 180)' fill-opacity = '0.250000' points = '815.4,467.7 815.4,662.4 817.3,662.4 817.3,470.3 '/>
		<polygon fill = 'rgb( 31, 120, 180)' fill-opacity = '0.250000' points = '817.3,470.3 817.3,662.4 819.2,662.4 819.2,473.0 '/>
		<polygon fill = 'rgb( 31, 120, 180)' fill-opacity = '0.250000' points = '819.2,473.0 819.2,662.4 821.1,662.4 821.1,475.6 '/>
		<polygon fill = 'rgb( 31, 120, 180)' fill-opacity = '0.250000' points = '821.1,475.6 821.1,662.4 823.0,662.4 823.0,478.2 '/>
		<polygon fill = 'rgb( 31, 120, 180)' fill-opacity = '0.250000' points = '823.0,478.2 823.0,662.4 824.9,662.4 824.9,480.7 '/>
		<polygon fill = 'rgb( 31, 120, 180)' fill-opacity = '0.250000' points = '824.9,480.7 824.9,662.4 826.8,662.4 826.8,483.3 '/>
		<polygon fill = 'rgb( 31, 120, 180)' fill-opacity = '0.250000' points = '826.8,483.3 826.8,662.4 828.7,662.4 828.7,485.7 '/>
		<polygon fill = 'rgb( 31, 120, 180)' fill-opacity = '0.250000' points = '828.7,485.7 828.7,662.4 830.5,662.4 830.5,488.2 '/>
		<polygon fill = 'rgb( 31, 120, 180)' fill-opacity = '0.250000' points = '830.5,488.2 830.5,662.4 832.4,662.4 832.4,490.6 '/>
		<polygon fill = 'rgb( 31, 120, 180)' fill-opacity = '0.250000' points = '832.4,490.6 832.4,662.4 834.3,662.4 834.3,492.9 '/>
		<polygon fill = 'rgb( 31, 120, 180)' fill-opacity = '0.250000' points = '834.3,492.9 834.3,662.4 836.2,662.4 836.2,495.2 '/>
		<polygon fill = 'rgb( 31, 120, 180)' fill-opacity = '0.250000' points = '836.2,495.2 836.2,662.4 838.1,662.4 838.1,497.5 '/>
		<polygon fill = 'rgb( 31, 120, 180)' fill-opacity = '0.250000' points = '838.1,497.5 838.1,662.4 840.0,662.4 840.0,499.7 '/>
		<polygon fill = 'rgb( 31, 120, 180)' fill-opacity = '0.250000' points = '840.0,499.7 840.0,662.4 841.9,662.4 841.9,501.9 '/>
		<polygon fill = 'rgb( 31, 120, 180)' fill-opacity = '0.250000' points = '841.9,501.9 841.9,662.4 843.8,662.4 843.8,504.0 '/>
		<polygon fill = 'rgb( 31, 120, 180)' fill-opacity = '0.250000' points = '843.8,504.0 843.8,662.4 845.6,662.4 845.6,506.1 '/>
		<polygon fill = 'rgb( 31, 120, 180)' fill-opacity = '0.250000' points = '845.6,506.1 845.6,662.4 847.5,662.4 847.5,508.2 '/>
		<polygon fill = 'rgb( 31, 120, 180)' fill-opacity = '0.250000' points = '847.5,508.2 847.5,662.4 849.4,662.4 849.4,510.2 '/>
		<polygon fill = 'rgb( 31, 120, 180)' fill-opacity = '0.250000' points = '849.4,510.2 849.4,662.4 851.3,662.4 851.3,512.2 '/>
		<polygon fill = 'rgb( 31, 120, 180)' fill-opacity = '0.250000' points = '851.3,512.2 851.3,662.4 853.2,662.4 853.2,514.2 '/>
		<polygon fill = 'rgb( 31, 120, 180)' fill-opacity = '0.250000' points = '853.2,514.2 853.2,662.4 855.1,662.4 855.1,516.1 '/>
		<polygon fill = 'rgb( 31, 120, 180)' fill-opacity = '0.250000' points = '855.1,516.1 855.1,662.4 857.0,662.4 857.0,518.1 '/>
		<polygon fill = 'rgb( 31, 120, 180)' fill-opacity = '0.250000' points = '857.0,518.1 857.0,662.4 858.9,662.4 858.9,520.0 '/>
		<polygon fill = 'rgb( 31, 120, 180)' fill-opacity = '0.250000' points = '858.9,520.0 858.9,662.4 860.7,662.4 860.7,521.9 '/>
		<polygon fill = 'rgb( 31, 120, 180)' fill-opacity = '0.250000' points = '860.7,521.9 860.7,662.4 862.6,662.4 862.6,523.8 '/>
		<polygon fill = 'rgb( 31, 120, 180)' fill-opacity = '0.250000' points = '862.6,523.8 862.6,662.4 864.5,662.4 864.5,525.7 '/>
		<polygon fill = 'rgb( 31, 120, 180)' fill-opacity = '0.250000' points = '864.5,525.7 864.5,662.4 866.4,662.4 866.4,527.6 '/>
		<polygon fill = 'rgb( 31, 120, 180)' fill-opacity = '0.250000' points = '866.4,527.6 866.4,662.4 868.3,662.4 868.3,529.5 '/>
		<polygon fill = 'rgb( 31, 120, 180)' fill-opacity = '0.250000' points = '868.3,529.5 868.3,662.4 870.2,662.4 870.2,531.4 '/>
		<polygon fill = 'rgb( 31, 120, 180)' fill-opacity = '0.250000' points = '870.2,531.4 870.2,662.4 872.1,662.4 872.1,533.4 '/>
		<polygon fill = 'rgb( 31, 120, 180)' fill-opacity = '0.250000' points = '872.1,533.4 872.1,662.4 873.9,662.4 873.9,535.3 '/>
		<polygon fill = 'rgb( 31, 120, 180)' fill-opacity = '0.250000' points = '873.9,535.3 873.9,662.4 875.8,662.4 875.8,537.2 '/>
		<polygon fill = 'rgb( 31, 120, 180)' fill-opacity = '0.250000' points = '875.8,537.2 875.8,662.4 877.7,662.4 877.7,539.1 '/>
		<polygon fill = 'rgb( 31, 120, 180)' fill-opacity = '0.250000' points = '877.7,539.1 877.7,662.4 879.6,662.4 879.6,541.0 '/>
		<polygon fill = 'rgb( 31, 120, 180)' fill-opacity = '0.250000' points = '879.6,541.0 879.6,662.4 881.5,662.4 881.5,542.9 '/>
		<polygon fill = 'rgb( 31, 120, 180)' fill-opacity = '0.250000' points = '881.5,542.9 881.5,662.4 883.4,662.4 883.4,544.9 '/>
		<polygon fill = 'rgb( 31, 120, 180)' fill-opacity = '0.250000' points = '883.4,544.9 883.4,662.4 885.3,662.4 885.3,546.8 '/>
		<polygon fill = 'rgb( 31, 120, 180)' fill-opacity = '0.250000' points = '885.3,546.8 885.3,662.4 887.2,662.4 887.2,548.7 '/>
		<polygon fill = 'rgb( 31, 120, 180)' fill-opacity = '0.250000' points = '887.2,548.7 887.2,662.4 889.0,662.4 889.0,550.5 '/>
		<polygon fill = 'rgb( 31, 120, 180)' fill-opacity = '0.250000' points = '889.0,550.5 889.0,662.4 890.9,662.4 890.9,552.4 '/>
		<polygon fill = 'rgb( 31, 120, 180)' fill-opacity = '0.250000' points = '890.9,552.4 890.9,662.4 892.8,662.4 892.8,554.3 '/>
		<polygon fill = 'rgb( 31, 120, 180)' fill-opacity = '0.250000' points = '892.8,554.3 892.8,662.4 894.7,662.4 894.7,556.1 '/>
		<polygon fill = 'rgb( 31, 120, 180)' fill-opacity = '0.250000' points = '894.7,556.1 894.7,662.4 896.6,662.4 896.6,557.9 '/>
		<polygon fill = 'rgb( 31, 120, 180)' fill-opacity = '0.250000' points = '896.6,557.9 896.6,662.4 898.5,662.4 898.5,559.7 '/>
		<polygon fill = 'rgb( 31, 120, 180)' fill-opacity = '0.250000' points = '898.5,559.7 898.5,662.4 900.4,662.4 900.4,561.4 '/>
		<polygon fill = 'rgb( 31, 120, 180)' fill-opacity = '0.250000' points = '900.4,561.4 900.4,662.4 902.3,662.4 902.3,563.2 '/>
		<polygon fill = 'rgb( 31, 120, 180)' fill-opacity = '0.250000' points = '902.3,563.2 902.3,662.4 904.1,662.4 904.1,564.9 '/>
		<polygon fill = 'rgb( 31, 120, 180)' fill-opacity = '0.250000' points = '904.1,564.9 904.1,662.4 906.0,662.4 906.0,566.5 '/>
		<polygon fill = 'rgb( 31, 120, 180)' fill-opacity = '0.250000' points = '906.0,566.5 906.0,662.4 907.9,662.4 907.9,568.2 '/>
		<polygon fill = 'rgb( 31, 120, 180)' fill-opacity = '0.250000' points = '907.9,568.2 907.9,662.4 909.8,662.4 909.8,569.8 '/>
		<polygon fill = 'rgb( 31, 120, 180)' fill-opacity = '0.250000' points = '909.8,569.8 909.8,662.4 911.7,662.4 911.7,571.4 '/>
		<polygon fill = 'rgb( 31, 120, 180)' fill-opacity = '0.250000' points = '911.7,571.4 911.7,662.4 913.6,662.4 913.6,572.9 '/>
		<polygon fill = 'rgb( 31, 120, 180)' fill-opacity = '0.250000' points = '913.6,572.9 913.6,662.4 915.5,662.4 915.5,574.4 '/>
		<polygon fill = 'rgb( 31, 120, 180)' fill-opacity = '0.250000' points = '915.5,574.4 915.5,662.4 917.4,662.4 917.4,575.9 '/>
		<polygon fill = 'rgb( 31, 120, 180)' fill-opacity = '0.250000' points = '917.4,575.9 917.4,662.4 919.2,662.4 919.2,577.4 '/>
		<polygon fill = 'rgb( 31, 120, 180)' fill-opacity = '0.250000' points = '919.2,577.4 919.2,662.4 921.1,662.4 921.1,578.9 '/>
		<polygon fill = 'rgb( 31, 120, 180)' fill-opacity = '0.250000' points = '921.1,578.9 921.1,662.4 923.0,662.4 923.0,580.3 '/>
		<polygon fill = 'rgb( 31, 120, 180)' fill-opacity = '0.250000' points = '923.0,580.3 923.0,662.4 924.9,662.4 924.9,581.7 '/>
	</g>
</g>
	</g>
	<g id="gnuplot_plot_3" ><title>Point estimate</title>
<g fill="none" color="white" stroke="rgb( 31, 120, 180)" stroke-width="2.00" stroke-linecap="butt" stroke-linejoin="miter">
</g>
<g fill="none" color="black" stroke="currentColor" stroke-width="2.00" stroke-linecap="butt" stroke-linejoin="miter">
	<g transform="translate(1089.0,103.0)" stroke="none" fill="black" font-family="Helvetica" font-size="12.00"  text-anchor="start">
		<text><tspan font-family="Helvetica" >Point estimate</tspan></text>
	</g>
</g>
<g fill="none" color="black" stroke="currentColor" stroke-width="2.00" stroke-linecap="butt" stroke-linejoin="miter">
	<path stroke='rgb( 31, 120, 180)'  d='M1038.5,99.1 L1080.7,99.1 M527.3,662.4 L527.3,117.5  '/></g>
	</g>
<g fill="none" color="black" stroke="currentColor" stroke-width="2.00" stroke-linecap="butt" stroke-linejoin="miter">
</g>
<g fill="none" color="black" stroke="black" stroke-width="1.00" stroke-linecap="butt" stroke-linejoin="miter">
</g>
<g fill="none" color="black" stroke="currentColor" stroke-width="1.00" stroke-linecap="butt" stroke-linejoin="miter">
	<path stroke='black'  d='M71.9,54.1 L71.9,662.4 L1013.6,662.4 L1013.6,54.1 L71.9,54.1 Z  '/></g>
<g fill="none" color="black" stroke="currentColor" stroke-width="1.00" stroke-linecap="butt" stroke-linejoin="miter">
</g>
</g>
</svg>

