<?xml version="1.0" encoding="utf-8"  standalone="no"?>
<svg 
 viewBox="0 0 1280 720"
 xmlns="http://www.w3.org/2000/svg"
 xmlns:xlink="http://www.w3.org/1999/xlink"
>

<title>Gnuplot</title>
<desc>Produced by GNUPLOT 5.0 patchlevel 6 </desc>

<g id="gnuplot_canvas">

<rect x="0" y="0" width="1280" height="720" fill="none"/>
<defs>

	<circle id='gpDot' r='0.5' stroke-width='0.5'/>
	<path id='gpPt0' stroke-width='0.222' stroke='currentColor' d='M-1,0 h2 M0,-1 v2'/>
	<path id='gpPt1' stroke-width='0.222' stroke='currentColor' d='M-1,-1 L1,1 M1,-1 L-1,1'/>
	<path id='gpPt2' stroke-width='0.222' stroke='currentColor' d='M-1,0 L1,0 M0,-1 L0,1 M-1,-1 L1,1 M-1,1 L1,-1'/>
	<rect id='gpPt3' stroke-width='0.222' stroke='currentColor' x='-1' y='-1' width='2' height='2'/>
	<rect id='gpPt4' stroke-width='0.222' stroke='currentColor' fill='currentColor' x='-1' y='-1' width='2' height='2'/>
	<circle id='gpPt5' stroke-width='0.222' stroke='currentColor' cx='0' cy='0' r='1'/>
	<use xlink:href='#gpPt5' id='gpPt6' fill='currentColor' stroke='none'/>
	<path id='gpPt7' stroke-width='0.222' stroke='currentColor' d='M0,-1.33 L-1.33,0.67 L1.33,0.67 z'/>
	<use xlink:href='#gpPt7' id='gpPt8' fill='currentColor' stroke='none'/>
	<use xlink:href='#gpPt7' id='gpPt9' stroke='currentColor' transform='rotate(180)'/>
	<use xlink:href='#gpPt9' id='gpPt10' fill='currentColor' stroke='none'/>
	<use xlink:href='#gpPt3' id='gpPt11' stroke='currentColor' transform='rotate(45)'/>
	<use xlink:href='#gpPt11' id='gpPt12' fill='currentColor' stroke='none'/>
	<path id='gpPt13' stroke-width='0.222' stroke='currentColor' d='M0,1.330 L1.265,0.411 L0.782,-1.067 L-0.782,-1.076 L-1.265,0.411 z'/>
	<use xlink:href='#gpPt13' id='gpPt14' fill='currentColor' stroke='none'/>
	<filter id='textbox' filterUnits='objectBoundingBox' x='0' y='0' height='1' width='1'>
	  <feFlood flood-color='white' flood-opacity='1' result='bgnd'/>
	  <feComposite in='SourceGraphic' in2='bgnd' operator='atop'/>
	</filter>
	<filter id='greybox' filterUnits='objectBoundingBox' x='0' y='0' height='1' width='1'>
	  <feFlood flood-color='lightgrey' flood-opacity='1' result='grey'/>
	  <feComposite in='SourceGraphic' in2='grey' operator='atop'/>
	</filter>
</defs>
<g fill="none" color="white" stroke="currentColor" stroke-width="1.00" stroke-linecap="butt" stroke-linejoin="miter">
</g>
<g fill="none" color="black" stroke="currentColor" stroke-width="1.00" stroke-linecap="butt" stroke-linejoin="miter">
	<path stroke='black'  d='M71.9,662.4 L80.9,662.4  '/>	<g transform="translate(63.6,666.3)" stroke="none" fill="black" font-family="Helvetica" font-size="12.00"  text-anchor="end">
		<text><tspan font-family="Helvetica" > 0</tspan></text>
	</g>
</g>
<g fill="none" color="black" stroke="currentColor" stroke-width="1.00" stroke-linecap="butt" stroke-linejoin="miter">
	<path stroke='black'  d='M71.9,575.5 L80.9,575.5  '/>	<g transform="translate(63.6,579.4)" stroke="none" fill="black" font-family="Helvetica" font-size="12.00"  text-anchor="end">
		<text><tspan font-family="Helvetica" > 20</tspan></text>
	</g>
</g>
<g fill="none" color="black" stroke="currentColor" stroke-width="1.00" stroke-linecap="butt" stroke-linejoin="miter">
	<path stroke='black'  d='M71.9,488.6 L80.9,488.6  '/>	<g transform="translate(63.6,492.5)" stroke="none" fill="black" font-family="Helvetica" font-size="12.00"  text-anchor="end">
		<text><tspan font-family="Helvetica" > 40</tspan></text>
	</g>
</g>
<g fill="none" color="black" stroke="currentColor" stroke-width="1.00" stroke-linecap="butt" stroke-linejoin="miter">
	<path stroke='black'  d='M71.9,401.7 L80.9,401.7  '/>	<g transform="translate(63.6,405.6)" stroke="none" fill="black" font-family="Helvetica" font-size="12.00"  text-anchor="end">
		<text><tspan font-family="Helvetica" > 60</tspan></text>
	</g>
</g>
<g fill="none" color="black" stroke="currentColor" stroke-width="1.00" stroke-linecap="butt" stroke-linejoin="miter">
	<path stroke='black'  d='M71.9,314.8 L80.9,314.8  '/>	<g transform="translate(63.6,318.7)" stroke="none" fill="black" font-family="Helvetica" font-size="12.00"  text-anchor="end">
		<text><tspan font-family="Helvetica" > 80</tspan></text>
	</g>
</g>
<g fill="none" color="black" stroke="currentColor" stroke-width="1.00" stroke-linecap="butt" stroke-linejoin="miter">
	<path stroke='black'  d='M71.9,227.9 L80.9,227.9  '/>	<g transform="translate(63.6,231.8)" stroke="none" fill="black" font-family="Helvetica" font-size="12.00"  text-anchor="end">
		<text><tspan font-family="Helvetica" > 100</tspan></text>
	</g>
</g>
<g fill="none" color="black" stroke="currentColor" stroke-width="1.00" stroke-linecap="butt" stroke-linejoin="miter">
	<path stroke='black'  d='M71.9,141.0 L80.9,141.0  '/>	<g transform="translate(63.6,144.9)" stroke="none" fill="black" font-family="Helvetica" font-size="12.00"  text-anchor="end">
		<text><tspan font-family="Helvetica" > 120</tspan></text>
	</g>
</g>
<g fill="none" color="black" stroke="currentColor" stroke-width="1.00" stroke-linecap="butt" stroke-linejoin="miter">
	<path stroke='black'  d='M71.9,54.1 L80.9,54.1  '/>	<g transform="translate(63.6,58.0)" stroke="none" fill="black" font-family="Helvetica" font-size="12.00"  text-anchor="end">
		<text><tspan font-family="Helvetica" > 140</tspan></text>
	</g>
</g>
<g fill="none" color="black" stroke="currentColor" stroke-width="1.00" stroke-linecap="butt" stroke-linejoin="miter">
	<path stroke='black'  d='M179.1,662.4 L179.1,653.4  '/>	<g transform="translate(179.1,684.3)" stroke="none" fill="black" font-family="Helvetica" font-size="12.00"  text-anchor="middle">
		<text><tspan font-family="Helvetica" > 3.895</tspan></text>
	</g>
</g>
<g fill="none" color="black" stroke="currentColor" stroke-width="1.00" stroke-linecap="butt" stroke-linejoin="miter">
	<path stroke='black'  d='M353.7,662.4 L353.7,653.4  '/>	<g transform="translate(353.7,684.3)" stroke="none" fill="black" font-family="Helvetica" font-size="12.00"  text-anchor="middle">
		<text><tspan font-family="Helvetica" > 3.9</tspan></text>
	</g>
</g>
<g fill="none" color="black" stroke="currentColor" stroke-width="1.00" stroke-linecap="butt" stroke-linejoin="miter">
	<path stroke='black'  d='M528.4,662.4 L528.4,653.4  '/>	<g transform="translate(528.4,684.3)" stroke="none" fill="black" font-family="Helvetica" font-size="12.00"  text-anchor="middle">
		<text><tspan font-family="Helvetica" > 3.905</tspan></text>
	</g>
</g>
<g fill="none" color="black" stroke="currentColor" stroke-width="1.00" stroke-linecap="butt" stroke-linejoin="miter">
	<path stroke='black'  d='M703.0,662.4 L703.0,653.4  '/>	<g transform="translate(703.0,684.3)" stroke="none" fill="black" font-family="Helvetica" font-size="12.00"  text-anchor="middle">
		<text><tspan font-family="Helvetica" > 3.91</tspan></text>
	</g>
</g>
<g fill="none" color="black" stroke="currentColor" stroke-width="1.00" stroke-linecap="butt" stroke-linejoin="miter">
	<path stroke='black'  d='M877.6,662.4 L877.6,653.4  '/>	<g transform="translate(877.6,684.3)" stroke="none" fill="black" font-family="Helvetica" font-size="12.00"  text-anchor="middle">
		<text><tspan font-family="Helvetica" > 3.915</tspan></text>
	</g>
</g>
<g fill="none" color="black" stroke="currentColor" stroke-width="1.00" stroke-linecap="butt" stroke-linejoin="miter">
</g>
<g fill="none" color="black" stroke="currentColor" stroke-width="1.00" stroke-linecap="butt" stroke-linejoin="miter">
	<path stroke='black'  d='M71.9,54.1 L71.9,662.4 L1013.6,662.4 L1013.6,54.1 L71.9,54.1 Z  '/></g>
<g fill="none" color="black" stroke="currentColor" stroke-width="1.00" stroke-linecap="butt" stroke-linejoin="miter">
	<g transform="translate(17.0,358.3) rotate(270)" stroke="none" fill="black" font-family="Helvetica" font-size="12.00"  text-anchor="middle">
		<text><tspan font-family="Helvetica" >Density (a.u.)</tspan></text>
	</g>
</g>
<g fill="none" color="black" stroke="currentColor" stroke-width="1.00" stroke-linecap="butt" stroke-linejoin="miter">
	<g transform="translate(542.7,711.3)" stroke="none" fill="black" font-family="Helvetica" font-size="12.00"  text-anchor="middle">
		<text><tspan font-family="Helvetica" >Average time (ms)</tspan></text>
	</g>
</g>
<g fill="none" color="black" stroke="currentColor" stroke-width="1.00" stroke-linecap="butt" stroke-linejoin="miter">
	<g transform="translate(542.7,31.0)" stroke="none" fill="black" font-family="Helvetica" font-size="12.00"  text-anchor="middle">
		<text><tspan font-family="Helvetica" >language: cpp/parse error: bash/examples/install.sh: median</tspan></text>
	</g>
</g>
	<g id="gnuplot_plot_1" ><title>Bootstrap distribution</title>
<g fill="none" color="white" stroke="black" stroke-width="2.00" stroke-linecap="butt" stroke-linejoin="miter">
</g>
<g fill="none" color="black" stroke="currentColor" stroke-width="2.00" stroke-linecap="butt" stroke-linejoin="miter">
	<g transform="translate(1089.0,67.0)" stroke="none" fill="black" font-family="Helvetica" font-size="12.00"  text-anchor="start">
		<text><tspan font-family="Helvetica" >Bootstrap distribution</tspan></text>
	</g>
</g>
<g fill="none" color="black" stroke="currentColor" stroke-width="2.00" stroke-linecap="butt" stroke-linejoin="miter">
	<path stroke='rgb( 31, 120, 180)'  d='M1038.5,63.1 L1080.7,63.1 M71.9,652.5 L73.8,652.6 L75.7,652.8 L77.6,652.9 L79.4,653.0 L81.3,653.2
		L83.2,653.3 L85.1,653.4 L87.0,653.5 L88.9,653.5 L90.8,653.6 L92.7,653.6 L94.5,653.6 L96.4,653.6
		L98.3,653.6 L100.2,653.5 L102.1,653.3 L104.0,653.1 L105.9,652.9 L107.8,652.5 L109.6,652.1 L111.5,651.6
		L113.4,651.0 L115.3,650.4 L117.2,649.6 L119.1,648.7 L121.0,647.7 L122.9,646.5 L124.7,645.3 L126.6,644.0
		L128.5,642.5 L130.4,640.9 L132.3,639.3 L134.2,637.6 L136.1,635.8 L138.0,634.0 L139.8,632.2 L141.7,630.4
		L143.6,628.7 L145.5,627.0 L147.4,625.4 L149.3,623.9 L151.2,622.6 L153.0,621.4 L154.9,620.3 L156.8,619.4
		L158.7,618.7 L160.6,618.1 L162.5,617.7 L164.4,617.5 L166.3,617.3 L168.1,617.3 L170.0,617.5 L171.9,617.7
		L173.8,618.0 L175.7,618.4 L177.6,618.8 L179.5,619.3 L181.4,619.8 L183.2,620.4 L185.1,621.1 L187.0,621.7
		L188.9,622.5 L190.8,623.2 L192.7,624.1 L194.6,625.0 L196.5,626.0 L198.3,627.0 L200.2,628.2 L202.1,629.4
		L204.0,630.6 L205.9,632.0 L207.8,633.4 L209.7,634.9 L211.6,636.3 L213.4,637.8 L215.3,639.3 L217.2,640.8
		L219.1,642.3 L221.0,643.7 L222.9,645.0 L224.8,646.2 L226.6,647.4 L228.5,648.4 L230.4,649.3 L232.3,650.1
		L234.2,650.7 L236.1,651.2 L238.0,651.5 L239.9,651.7 L241.7,651.7 L243.6,651.5 L245.5,651.2 L247.4,650.6
		L249.3,649.9 L251.2,649.0 L253.1,647.9 L255.0,646.6 L256.8,645.0 L258.7,643.3 L260.6,641.4 L262.5,639.2
		L264.4,636.9 L266.3,634.3 L268.2,631.6 L270.1,628.7 L271.9,625.6 L273.8,622.5 L275.7,619.2 L277.6,615.8
		L279.5,612.3 L281.4,608.8 L283.3,605.2 L285.2,601.7 L287.0,598.1 L288.9,594.5 L290.8,590.8 L292.7,587.2
		L294.6,583.5 L296.5,579.8 L298.4,576.0 L300.2,572.1 L302.1,568.1 L304.0,563.9 L305.9,559.6 L307.8,555.1
		L309.7,550.3 L311.6,545.3 L313.5,540.0 L315.3,534.5 L317.2,528.6 L319.1,522.4 L321.0,515.9 L322.9,509.0
		L324.8,501.7 L326.7,494.0 L328.6,485.9 L330.4,477.3 L332.3,468.2 L334.2,458.6 L336.1,448.4 L338.0,437.7
		L339.9,426.3 L341.8,414.3 L343.7,401.8 L345.5,388.7 L347.4,375.0 L349.3,361.0 L351.2,346.7 L353.1,332.2
		L355.0,317.8 L356.9,303.5 L358.8,289.7 L360.6,276.6 L362.5,264.4 L364.4,253.3 L366.3,243.6 L368.2,235.4
		L370.1,229.0 L372.0,224.5 L373.8,221.9 L375.7,221.4 L377.6,222.7 L379.5,226.0 L381.4,231.1 L383.3,237.8
		L385.2,245.8 L387.1,255.0 L388.9,265.0 L390.8,275.5 L392.7,286.3 L394.6,297.1 L396.5,307.5 L398.4,317.5
		L400.3,326.7 L402.2,335.0 L404.0,342.4 L405.9,348.8 L407.8,354.1 L409.7,358.6 L411.6,362.2 L413.5,365.1
		L415.4,367.4 L417.3,369.4 L419.1,371.2 L421.0,373.1 L422.9,375.0 L424.8,377.3 L426.7,380.0 L428.6,383.3
		L430.5,387.1 L432.4,391.4 L434.2,396.3 L436.1,401.6 L438.0,407.3 L439.9,413.3 L441.8,419.3 L443.7,425.3
		L445.6,431.1 L447.4,436.6 L449.3,441.7 L451.2,446.1 L453.1,450.0 L455.0,453.1 L456.9,455.6 L458.8,457.4
		L460.7,458.6 L462.5,459.2 L464.4,459.4 L466.3,459.3 L468.2,459.1 L470.1,458.8 L472.0,458.7 L473.9,458.8
		L475.8,459.3 L477.6,460.4 L479.5,462.0 L481.4,464.2 L483.3,467.1 L485.2,470.7 L487.1,474.8 L489.0,479.5
		L490.9,484.6 L492.7,490.1 L494.6,495.7 L496.5,501.4 L498.4,507.0 L500.3,512.4 L502.2,517.4 L504.1,521.9
		L506.0,525.8 L507.8,529.0 L509.7,531.4 L511.6,533.0 L513.5,533.8 L515.4,533.9 L517.3,533.1 L519.2,531.7
		L521.0,529.6 L522.9,527.1 L524.8,524.1 L526.7,520.8 L528.6,517.2 L530.5,513.6 L532.4,510.0 L534.3,506.5
		L536.1,503.1 L538.0,499.8 L539.9,496.7 L541.8,493.8 L543.7,491.1 L545.6,488.4 L547.5,485.7 L549.4,482.9
		L551.2,479.9 L553.1,476.6 L555.0,472.9 L556.9,468.7 L558.8,464.0 L560.7,458.6 L562.6,452.6 L564.5,445.9
		L566.3,438.6 L568.2,430.8 L570.1,422.6 L572.0,414.0 L573.9,405.3 L575.8,396.6 L577.7,388.2 L579.5,380.3
		L581.4,373.1 L583.3,366.8 L585.2,361.5 L587.1,357.6 L589.0,355.1 L590.9,354.2 L592.8,354.8 L594.6,357.2
		L596.5,361.2 L598.4,366.8 L600.3,374.0 L602.2,382.6 L604.1,392.5 L606.0,403.5 L607.9,415.5 L609.7,428.1
		L611.6,441.3 L613.5,454.9 L615.4,468.5 L617.3,482.2 L619.2,495.6 L621.1,508.6 L623.0,521.2 L624.8,533.2
		L626.7,544.6 L628.6,555.2 L630.5,565.0 L632.4,574.0 L634.3,582.2 L636.2,589.5 L638.1,595.9 L639.9,601.4
		L641.8,606.0 L643.7,609.6 L645.6,612.3 L647.5,613.9 L649.4,614.5 L651.3,613.9 L653.1,612.1 L655.0,609.0
		L656.9,604.5 L658.8,598.5 L660.7,591.0 L662.6,581.8 L664.5,570.9 L666.4,558.2 L668.2,543.6 L670.1,527.3
		L672.0,509.0 L673.9,489.0 L675.8,467.3 L677.7,444.0 L679.6,419.3 L681.5,393.4 L683.3,366.5 L685.2,339.0
		L687.1,311.1 L689.0,283.3 L690.9,255.8 L692.8,229.0 L694.7,203.4 L696.6,179.2 L698.4,156.8 L700.3,136.5
		L702.2,118.6 L704.1,103.1 L706.0,90.3 L707.9,80.3 L709.8,73.0 L711.7,68.5 L713.5,66.5 L715.4,67.1
		L717.3,69.9 L719.2,74.8 L721.1,81.4 L723.0,89.6 L724.9,99.1 L726.7,109.6 L728.6,120.7 L730.5,132.4
		L732.4,144.3 L734.3,156.3 L736.2,168.2 L738.1,179.9 L740.0,191.2 L741.8,202.0 L743.7,212.4 L745.6,222.2
		L747.5,231.5 L749.4,240.3 L751.3,248.6 L753.2,256.4 L755.1,263.7 L756.9,270.8 L758.8,277.5 L760.7,284.1
		L762.6,290.5 L764.5,297.0 L766.4,303.6 L768.3,310.4 L770.2,317.5 L772.0,325.0 L773.9,333.0 L775.8,341.6
		L777.7,350.8 L779.6,360.7 L781.5,371.3 L783.4,382.5 L785.3,394.5 L787.1,407.0 L789.0,420.1 L790.9,433.6
		L792.8,447.5 L794.7,461.6 L796.6,475.8 L798.5,490.0 L800.3,504.1 L802.2,517.8 L804.1,531.2 L806.0,544.1
		L807.9,556.4 L809.8,568.0 L811.7,578.9 L813.6,589.0 L815.4,598.3 L817.3,606.8 L819.2,614.4 L821.1,621.3
		L823.0,627.4 L824.9,632.8 L826.8,637.5 L828.7,641.6 L830.5,645.0 L832.4,648.0 L834.3,650.4 L836.2,652.4
		L838.1,654.1 L840.0,655.4 L841.9,656.4 L843.8,657.1 L845.6,657.6 L847.5,657.9 L849.4,658.0 L851.3,657.9
		L853.2,657.7 L855.1,657.4 L857.0,656.9 L858.9,656.4 L860.7,655.7 L862.6,655.0 L864.5,654.1 L866.4,653.1
		L868.3,652.1 L870.2,651.0 L872.1,649.8 L873.9,648.5 L875.8,647.1 L877.7,645.6 L879.6,644.1 L881.5,642.5
		L883.4,640.7 L885.3,638.9 L887.2,637.0 L889.0,635.0 L890.9,633.0 L892.8,630.8 L894.7,628.6 L896.6,626.2
		L898.5,623.9 L900.4,621.5 L902.3,619.1 L904.1,616.7 L906.0,614.3 L907.9,612.0 L909.8,609.8 L911.7,607.7
		L913.6,605.8 L915.5,604.0 L917.4,602.6 L919.2,601.4 L921.1,600.4 L923.0,599.8 L924.9,599.6 L926.8,599.6
		L928.7,600.0 L930.6,600.8 L932.5,601.8 L934.3,603.2 L936.2,604.8 L938.1,606.7 L940.0,608.8 L941.9,611.1
		L943.8,613.5 L945.7,616.0 L947.5,618.6 L949.4,621.2 L951.3,623.7 L953.2,626.3 L955.1,628.8 L957.0,631.2
		L958.9,633.5 L960.8,635.6 L962.6,637.7 L964.5,639.7 L966.4,641.5 L968.3,643.2 L970.2,644.8 L972.1,646.3
		L974.0,647.6 L975.9,648.9 L977.7,650.1 L979.6,651.2 L981.5,652.2 L983.4,653.2 L985.3,654.1 L987.2,654.9
		L989.1,655.7 L991.0,656.4 L992.8,657.0 L994.7,657.6 L996.6,658.2 L998.5,658.7 L1000.4,659.1 L1002.3,659.5
		L1004.2,659.8 L1006.1,660.1 L1007.9,660.3 L1009.8,660.5 L1011.7,660.6 L1013.6,660.6  '/></g>
	</g>
	<g id="gnuplot_plot_2" ><title>Confidence interval</title>
<g fill="none" color="white" stroke="rgb( 31, 120, 180)" stroke-width="1.00" stroke-linecap="butt" stroke-linejoin="miter">
</g>
<g fill="none" color="black" stroke="currentColor" stroke-width="1.00" stroke-linecap="butt" stroke-linejoin="miter">
	<g transform="translate(1089.0,85.0)" stroke="none" fill="black" font-family="Helvetica" font-size="12.00"  text-anchor="start">
		<text><tspan font-family="Helvetica" >Confidence interval</tspan></text>
	</g>
</g>
<g fill="none" color="black" stroke="currentColor" stroke-width="1.00" stroke-linecap="butt" stroke-linejoin="miter">
	<g stroke='none' shape-rendering='crispEdges'>
		<polygon fill = 'rgb( 31, 120, 180)' fill-opacity = '0.250000' points = '1038.5,85.6 1080.7,85.6 1080.7,76.6 1038.5,76.6 '/>
		<polygon fill = 'rgb( 31, 120, 180)' fill-opacity = '0.250000' points = '158.7,618.7 158.7,662.4 160.6,662.4 160.6,618.1 '/>
		<polygon fill = 'rgb( 31, 120, 180)' fill-opacity = '0.250000' points = '160.6,618.1 160.6,662.4 162.5,662.4 162.5,617.7 '/>
		<polygon fill = 'rgb( 31, 120, 180)' fill-opacity = '0.250000' points = '162.5,617.7 162.5,662.4 164.4,662.4 164.4,617.5 '/>
		<polygon fill = 'rgb( 31, 120, 180)' fill-opacity = '0.250000' points = '164.4,617.5 164.4,662.4 166.3,662.4 166.3,617.3 '/>
		<polygon fill = 'rgb( 31, 120, 180)' fill-opacity = '0.250000' points = '166.3,617.3 166.3,662.4 168.1,662.4 168.1,617.3 '/>
		<polygon fill = 'rgb( 31, 120, 180)' fill-opacity = '0.250000' points = '168.1,617.3 168.1,662.4 170.0,662.4 170.0,617.5 '/>
		<polygon fill = 'rgb( 31, 120, 180)' fill-opacity = '0.250000' points = '170.0,617.5 170.0,662.4 171.9,662.4 171.9,617.7 '/>
		<polygon fill = 'rgb( 31, 120, 180)' fill-opacity = '0.250000' points = '171.9,617.7 171.9,662.4 173.8,662.4 173.8,618.0 '/>
		<polygon fill = 'rgb( 31, 120, 180)' fill-opacity = '0.250000' points = '173.8,618.0 173.8,662.4 175.7,662.4 175.7,618.4 '/>
		<polygon fill = 'rgb( 31, 120, 180)' fill-opacity = '0.250000' points = '175.7,618.4 175.7,662.4 177.6,662.4 177.6,618.8 '/>
		<polygon fill = 'rgb( 31, 120, 180)' fill-opacity = '0.250000' points = '177.6,618.8 177.6,662.4 179.5,662.4 179.5,619.3 '/>
		<polygon fill = 'rgb( 31, 120, 180)' fill-opacity = '0.250000' points = '179.5,619.3 179.5,662.4 181.4,662.4 181.4,619.8 '/>
		<polygon fill = 'rgb( 31, 120, 180)' fill-opacity = '0.250000' points = '181.4,619.8 181.4,662.4 183.2,662.4 183.2,620.4 '/>
		<polygon fill = 'rgb( 31, 120, 180)' fill-opacity = '0.250000' points = '183.2,620.4 183.2,662.4 185.1,662.4 185.1,621.1 '/>
		<polygon fill = 'rgb( 31, 120, 180)' fill-opacity = '0.250000' points = '185.1,621.1 185.1,662.4 187.0,662.4 187.0,621.7 '/>
		<polygon fill = 'rgb( 31, 120, 180)' fill-opacity = '0.250000' points = '187.0,621.7 187.0,662.4 188.9,662.4 188.9,622.5 '/>
		<polygon fill = 'rgb( 31, 120, 180)' fill-opacity = '0.250000' points = '188.9,622.5 188.9,662.4 190.8,662.4 190.8,623.2 '/>
		<polygon fill = 'rgb( 31, 120, 180)' fill-opacity = '0.250000' points = '190.8,623.2 190.8,662.4 192.7,662.4 192.7,624.1 '/>
		<polygon fill = 'rgb( 31, 120, 180)' fill-opacity = '0.250000' points = '192.7,624.1 192.7,662.4 194.6,662.4 194.6,625.0 '/>
		<polygon fill = 'rgb( 31, 120, 180)' fill-opacity = '0.250000' points = '194.6,625.0 194.6,662.4 196.5,662.4 196.5,626.0 '/>
		<polygon fill = 'rgb( 31, 120, 180)' fill-opacity = '0.250000' points = '196.5,626.0 196.5,662.4 198.3,662.4 198.3,627.0 '/>
		<polygon fill = 'rgb( 31, 120, 180)' fill-opacity = '0.250000' points = '198.3,627.0 198.3,662.4 200.2,662.4 200.2,628.2 '/>
		<polygon fill = 'rgb( 31, 120, 180)' fill-opacity = '0.250000' points = '200.2,628.2 200.2,662.4 202.1,662.4 202.1,629.4 '/>
		<polygon fill = 'rgb( 31, 120, 180)' fill-opacity = '0.250000' points = '202.1,629.4 202.1,662.4 204.0,662.4 204.0,630.6 '/>
		<polygon fill = 'rgb( 31, 120, 180)' fill-opacity = '0.250000' points = '204.0,630.6 204.0,662.4 205.9,662.4 205.9,632.0 '/>
		<polygon fill = 'rgb( 31, 120, 180)' fill-opacity = '0.250000' points = '205.9,632.0 205.9,662.4 207.8,662.4 207.8,633.4 '/>
		<polygon fill = 'rgb( 31, 120, 180)' fill-opacity = '0.250000' points = '207.8,633.4 207.8,662.4 209.7,662.4 209.7,634.9 '/>
		<polygon fill = 'rgb( 31, 120, 180)' fill-opacity = '0.250000' points = '209.7,634.9 209.7,662.4 211.6,662.4 211.6,636.3 '/>
		<polygon fill = 'rgb( 31, 120, 180)' fill-opacity = '0.250000' points = '211.6,636.3 211.6,662.4 213.4,662.4 213.4,637.8 '/>
		<polygon fill = 'rgb( 31, 120, 180)' fill-opacity = '0.250000' points = '213.4,637.8 213.4,662.4 215.3,662.4 215.3,639.3 '/>
		<polygon fill = 'rgb( 31, 120, 180)' fill-opacity = '0.250000' points = '215.3,639.3 215.3,662.4 217.2,662.4 217.2,640.8 '/>
		<polygon fill = 'rgb( 31, 120, 180)' fill-opacity = '0.250000' points = '217.2,640.8 217.2,662.4 219.1,662.4 219.1,642.3 '/>
		<polygon fill = 'rgb( 31, 120, 180)' fill-opacity = '0.250000' points = '219.1,642.3 219.1,662.4 221.0,662.4 221.0,643.7 '/>
		<polygon fill = 'rgb( 31, 120, 180)' fill-opacity = '0.250000' points = '221.0,643.7 221.0,662.4 222.9,662.4 222.9,645.0 '/>
		<polygon fill = 'rgb( 31, 120, 180)' fill-opacity = '0.250000' points = '222.9,645.0 222.9,662.4 224.8,662.4 224.8,646.2 '/>
		<polygon fill = 'rgb( 31, 120, 180)' fill-opacity = '0.250000' points = '224.8,646.2 224.8,662.4 226.6,662.4 226.6,647.4 '/>
		<polygon fill = 'rgb( 31, 120, 180)' fill-opacity = '0.250000' points = '226.6,647.4 226.6,662.4 228.5,662.4 228.5,648.4 '/>
		<polygon fill = 'rgb( 31, 120, 180)' fill-opacity = '0.250000' points = '228.5,648.4 228.5,662.4 230.4,662.4 230.4,649.3 '/>
		<polygon fill = 'rgb( 31, 120, 180)' fill-opacity = '0.250000' points = '230.4,649.3 230.4,662.4 232.3,662.4 232.3,650.1 '/>
		<polygon fill = 'rgb( 31, 120, 180)' fill-opacity = '0.250000' points = '232.3,650.1 232.3,662.4 234.2,662.4 234.2,650.7 '/>
		<polygon fill = 'rgb( 31, 120, 180)' fill-opacity = '0.250000' points = '234.2,650.7 234.2,662.4 236.1,662.4 236.1,651.2 '/>
		<polygon fill = 'rgb( 31, 120, 180)' fill-opacity = '0.250000' points = '236.1,651.2 236.1,662.4 238.0,662.4 238.0,651.5 '/>
		<polygon fill = 'rgb( 31, 120, 180)' fill-opacity = '0.250000' points = '238.0,651.5 238.0,662.4 239.9,662.4 239.9,651.7 '/>
		<polygon fill = 'rgb( 31, 120, 180)' fill-opacity = '0.250000' points = '239.9,651.7 239.9,662.4 241.7,662.4 241.7,651.7 '/>
		<polygon fill = 'rgb( 31, 120, 180)' fill-opacity = '0.250000' points = '241.7,651.7 241.7,662.4 243.6,662.4 243.6,651.5 '/>
		<polygon fill = 'rgb( 31, 120, 180)' fill-opacity = '0.250000' points = '243.6,651.5 243.6,662.4 245.5,662.4 245.5,651.2 '/>
		<polygon fill = 'rgb( 31, 120, 180)' fill-opacity = '0.250000' points = '245.5,651.2 245.5,662.4 247.4,662.4 247.4,650.6 '/>
		<polygon fill = 'rgb( 31, 120, 180)' fill-opacity = '0.250000' points = '247.4,650.6 247.4,662.4 249.3,662.4 249.3,649.9 '/>
		<polygon fill = 'rgb( 31, 120, 180)' fill-opacity = '0.250000' points = '249.3,649.9 249.3,662.4 251.2,662.4 251.2,649.0 '/>
		<polygon fill = 'rgb( 31, 120, 180)' fill-opacity = '0.250000' points = '251.2,649.0 251.2,662.4 253.1,662.4 253.1,647.9 '/>
		<polygon fill = 'rgb( 31, 120, 180)' fill-opacity = '0.250000' points = '253.1,647.9 253.1,662.4 255.0,662.4 255.0,646.6 '/>
		<polygon fill = 'rgb( 31, 120, 180)' fill-opacity = '0.250000' points = '255.0,646.6 255.0,662.4 256.8,662.4 256.8,645.0 '/>
		<polygon fill = 'rgb( 31, 120, 180)' fill-opacity = '0.250000' points = '256.8,645.0 256.8,662.4 258.7,662.4 258.7,643.3 '/>
		<polygon fill = 'rgb( 31, 120, 180)' fill-opacity = '0.250000' points = '258.7,643.3 258.7,662.4 260.6,662.4 260.6,641.4 '/>
		<polygon fill = 'rgb( 31, 120, 180)' fill-opacity = '0.250000' points = '260.6,641.4 260.6,662.4 262.5,662.4 262.5,639.2 '/>
		<polygon fill = 'rgb( 31, 120, 180)' fill-opacity = '0.250000' points = '262.5,639.2 262.5,662.4 264.4,662.4 264.4,636.9 '/>
		<polygon fill = 'rgb( 31, 120, 180)' fill-opacity = '0.250000' points = '264.4,636.9 264.4,662.4 266.3,662.4 266.3,634.3 '/>
		<polygon fill = 'rgb( 31, 120, 180)' fill-opacity = '0.250000' points = '266.3,634.3 266.3,662.4 268.2,662.4 268.2,631.6 '/>
		<polygon fill = 'rgb( 31, 120, 180)' fill-opacity = '0.250000' points = '268.2,631.6 268.2,662.4 270.1,662.4 270.1,628.7 '/>
		<polygon fill = 'rgb( 31, 120, 180)' fill-opacity = '0.250000' points = '270.1,628.7 270.1,662.4 271.9,662.4 271.9,625.6 '/>
		<polygon fill = 'rgb( 31, 120, 180)' fill-opacity = '0.250000' points = '271.9,625.6 271.9,662.4 273.8,662.4 273.8,622.5 '/>
		<polygon fill = 'rgb( 31, 120, 180)' fill-opacity = '0.250000' points = '273.8,622.5 273.8,662.4 275.7,662.4 275.7,619.2 '/>
		<polygon fill = 'rgb( 31, 120, 180)' fill-opacity = '0.250000' points = '275.7,619.2 275.7,662.4 277.6,662.4 277.6,615.8 '/>
		<polygon fill = 'rgb( 31, 120, 180)' fill-opacity = '0.250000' points = '277.6,615.8 277.6,662.4 279.5,662.4 279.5,612.3 '/>
		<polygon fill = 'rgb( 31, 120, 180)' fill-opacity = '0.250000' points = '279.5,612.3 279.5,662.4 281.4,662.4 281.4,608.8 '/>
		<polygon fill = 'rgb( 31, 120, 180)' fill-opacity = '0.250000' points = '281.4,608.8 281.4,662.4 283.3,662.4 283.3,605.2 '/>
		<polygon fill = 'rgb( 31, 120, 180)' fill-opacity = '0.250000' points = '283.3,605.2 283.3,662.4 285.2,662.4 285.2,601.7 '/>
		<polygon fill = 'rgb( 31, 120, 180)' fill-opacity = '0.250000' points = '285.2,601.7 285.2,662.4 287.0,662.4 287.0,598.1 '/>
		<polygon fill = 'rgb( 31, 120, 180)' fill-opacity = '0.250000' points = '287.0,598.1 287.0,662.4 288.9,662.4 288.9,594.5 '/>
		<polygon fill = 'rgb( 31, 120, 180)' fill-opacity = '0.250000' points = '288.9,594.5 288.9,662.4 290.8,662.4 290.8,590.8 '/>
		<polygon fill = 'rgb( 31, 120, 180)' fill-opacity = '0.250000' points = '290.8,590.8 290.8,662.4 292.7,662.4 292.7,587.2 '/>
		<polygon fill = 'rgb( 31, 120, 180)' fill-opacity = '0.250000' points = '292.7,587.2 292.7,662.4 294.6,662.4 294.6,583.5 '/>
		<polygon fill = 'rgb( 31, 120, 180)' fill-opacity = '0.250000' points = '294.6,583.5 294.6,662.4 296.5,662.4 296.5,579.8 '/>
		<polygon fill = 'rgb( 31, 120, 180)' fill-opacity = '0.250000' points = '296.5,579.8 296.5,662.4 298.4,662.4 298.4,576.0 '/>
		<polygon fill = 'rgb( 31, 120, 180)' fill-opacity = '0.250000' points = '298.4,576.0 298.4,662.4 300.2,662.4 300.2,572.1 '/>
		<polygon fill = 'rgb( 31, 120, 180)' fill-opacity = '0.250000' points = '300.2,572.1 300.2,662.4 302.1,662.4 302.1,568.1 '/>
		<polygon fill = 'rgb( 31, 120, 180)' fill-opacity = '0.250000' points = '302.1,568.1 302.1,662.4 304.0,662.4 304.0,563.9 '/>
		<polygon fill = 'rgb( 31, 120, 180)' fill-opacity = '0.250000' points = '304.0,563.9 304.0,662.4 305.9,662.4 305.9,559.6 '/>
		<polygon fill = 'rgb( 31, 120, 180)' fill-opacity = '0.250000' points = '305.9,559.6 305.9,662.4 307.8,662.4 307.8,555.1 '/>
		<polygon fill = 'rgb( 31, 120, 180)' fill-opacity = '0.250000' points = '307.8,555.1 307.8,662.4 309.7,662.4 309.7,550.3 '/>
		<polygon fill = 'rgb( 31, 120, 180)' fill-opacity = '0.250000' points = '309.7,550.3 309.7,662.4 311.6,662.4 311.6,545.3 '/>
		<polygon fill = 'rgb( 31, 120, 180)' fill-opacity = '0.250000' points = '311.6,545.3 311.6,662.4 313.5,662.4 313.5,540.0 '/>
		<polygon fill = 'rgb( 31, 120, 180)' fill-opacity = '0.250000' points = '313.5,540.0 313.5,662.4 315.3,662.4 315.3,534.5 '/>
		<polygon fill = 'rgb( 31, 120, 180)' fill-opacity = '0.250000' points = '315.3,534.5 315.3,662.4 317.2,662.4 317.2,528.6 '/>
		<polygon fill = 'rgb( 31, 120, 180)' fill-opacity = '0.250000' points = '317.2,528.6 317.2,662.4 319.1,662.4 319.1,522.4 '/>
		<polygon fill = 'rgb( 31, 120, 180)' fill-opacity = '0.250000' points = '319.1,522.4 319.1,662.4 321.0,662.4 321.0,515.9 '/>
		<polygon fill = 'rgb( 31, 120, 180)' fill-opacity = '0.250000' points = '321.0,515.9 321.0,662.4 322.9,662.4 322.9,509.0 '/>
		<polygon fill = 'rgb( 31, 120, 180)' fill-opacity = '0.250000' points = '322.9,509.0 322.9,662.4 324.8,662.4 324.8,501.7 '/>
		<polygon fill = 'rgb( 31, 120, 180)' fill-opacity = '0.250000' points = '324.8,501.7 324.8,662.4 326.7,662.4 326.7,494.0 '/>
		<polygon fill = 'rgb( 31, 120, 180)' fill-opacity = '0.250000' points = '326.7,494.0 326.7,662.4 328.6,662.4 328.6,485.9 '/>
		<polygon fill = 'rgb( 31, 120, 180)' fill-opacity = '0.250000' points = '328.6,485.9 328.6,662.4 330.4,662.4 330.4,477.3 '/>
		<polygon fill = 'rgb( 31, 120, 180)' fill-opacity = '0.250000' points = '330.4,477.3 330.4,662.4 332.3,662.4 332.3,468.2 '/>
		<polygon fill = 'rgb( 31, 120, 180)' fill-opacity = '0.250000' points = '332.3,468.2 332.3,662.4 334.2,662.4 334.2,458.6 '/>
		<polygon fill = 'rgb( 31, 120, 180)' fill-opacity = '0.250000' points = '334.2,458.6 334.2,662.4 336.1,662.4 336.1,448.4 '/>
		<polygon fill = 'rgb( 31, 120, 180)' fill-opacity = '0.250000' points = '336.1,448.4 336.1,662.4 338.0,662.4 338.0,437.7 '/>
		<polygon fill = 'rgb( 31, 120, 180)' fill-opacity = '0.250000' points = '338.0,437.7 338.0,662.4 339.9,662.4 339.9,426.3 '/>
		<polygon fill = 'rgb( 31, 120, 180)' fill-opacity = '0.250000' points = '339.9,426.3 339.9,662.4 341.8,662.4 341.8,414.3 '/>
		<polygon fill = 'rgb( 31, 120, 180)' fill-opacity = '0.250000' points = '341.8,414.3 341.8,662.4 343.7,662.4 343.7,401.8 '/>
		<polygon fill = 'rgb( 31, 120, 180)' fill-opacity = '0.250000' points = '343.7,401.8 343.7,662.4 345.5,662.4 345.5,388.7 '/>
		<polygon fill = 'rgb( 31, 120, 180)' fill-opacity = '0.250000' points = '345.5,388.7 345.5,662.4 347.4,662.4 347.4,375.0 '/>
		<polygon fill = 'rgb( 31, 120, 180)' fill-opacity = '0.250000' points = '347.4,375.0 347.4,662.4 349.3,662.4 349.3,361.0 '/>
		<polygon fill = 'rgb( 31, 120, 180)' fill-opacity = '0.250000' points = '349.3,361.0 349.3,662.4 351.2,662.4 351.2,346.7 '/>
		<polygon fill = 'rgb( 31, 120, 180)' fill-opacity = '0.250000' points = '351.2,346.7 351.2,662.4 353.1,662.4 353.1,332.2 '/>
		<polygon fill = 'rgb( 31, 120, 180)' fill-opacity = '0.250000' points = '353.1,332.2 353.1,662.4 355.0,662.4 355.0,317.8 '/>
		<polygon fill = 'rgb( 31, 120, 180)' fill-opacity = '0.250000' points = '355.0,317.8 355.0,662.4 356.9,662.4 356.9,303.5 '/>
		<polygon fill = 'rgb( 31, 120, 180)' fill-opacity = '0.250000' points = '356.9,303.5 356.9,662.4 358.8,662.4 358.8,289.7 '/>
		<polygon fill = 'rgb( 31, 120, 180)' fill-opacity = '0.250000' points = '358.8,289.7 358.8,662.4 360.6,662.4 360.6,276.6 '/>
		<polygon fill = 'rgb( 31, 120, 180)' fill-opacity = '0.250000' points = '360.6,276.6 360.6,662.4 362.5,662.4 362.5,264.4 '/>
		<polygon fill = 'rgb( 31, 120, 180)' fill-opacity = '0.250000' points = '362.5,264.4 362.5,662.4 364.4,662.4 364.4,253.3 '/>
		<polygon fill = 'rgb( 31, 120, 180)' fill-opacity = '0.250000' points = '364.4,253.3 364.4,662.4 366.3,662.4 366.3,243.6 '/>
		<polygon fill = 'rgb( 31, 120, 180)' fill-opacity = '0.250000' points = '366.3,243.6 366.3,662.4 368.2,662.4 368.2,235.4 '/>
		<polygon fill = 'rgb( 31, 120, 180)' fill-opacity = '0.250000' points = '368.2,235.4 368.2,662.4 370.1,662.4 370.1,229.0 '/>
		<polygon fill = 'rgb( 31, 120, 180)' fill-opacity = '0.250000' points = '370.1,229.0 370.1,662.4 372.0,662.4 372.0,224.5 '/>
		<polygon fill = 'rgb( 31, 120, 180)' fill-opacity = '0.250000' points = '372.0,224.5 372.0,662.4 373.8,662.4 373.8,221.9 '/>
		<polygon fill = 'rgb( 31, 120, 180)' fill-opacity = '0.250000' points = '373.8,221.9 373.8,662.4 375.7,662.4 375.7,221.4 '/>
		<polygon fill = 'rgb( 31, 120, 180)' fill-opacity = '0.250000' points = '375.7,221.4 375.7,662.4 377.6,662.4 377.6,222.7 '/>
		<polygon fill = 'rgb( 31, 120, 180)' fill-opacity = '0.250000' points = '377.6,222.7 377.6,662.4 379.5,662.4 379.5,226.0 '/>
		<polygon fill = 'rgb( 31, 120, 180)' fill-opacity = '0.250000' points = '379.5,226.0 379.5,662.4 381.4,662.4 381.4,231.1 '/>
		<polygon fill = 'rgb( 31, 120, 180)' fill-opacity = '0.250000' points = '381.4,231.1 381.4,662.4 383.3,662.4 383.3,237.8 '/>
		<polygon fill = 'rgb( 31, 120, 180)' fill-opacity = '0.250000' points = '383.3,237.8 383.3,662.4 385.2,662.4 385.2,245.8 '/>
		<polygon fill = 'rgb( 31, 120, 180)' fill-opacity = '0.250000' points = '385.2,245.8 385.2,662.4 387.1,662.4 387.1,255.0 '/>
		<polygon fill = 'rgb( 31, 120, 180)' fill-opacity = '0.250000' points = '387.1,255.0 387.1,662.4 388.9,662.4 388.9,265.0 '/>
		<polygon fill = 'rgb( 31, 120, 180)' fill-opacity = '0.250000' points = '388.9,265.0 388.9,662.4 390.8,662.4 390.8,275.5 '/>
		<polygon fill = 'rgb( 31, 120, 180)' fill-opacity = '0.250000' points = '390.8,275.5 390.8,662.4 392.7,662.4 392.7,286.3 '/>
		<polygon fill = 'rgb( 31, 120, 180)' fill-opacity = '0.250000' points = '392.7,286.3 392.7,662.4 394.6,662.4 394.6,297.1 '/>
		<polygon fill = 'rgb( 31, 120, 180)' fill-opacity = '0.250000' points = '394.6,297.1 394.6,662.4 396.5,662.4 396.5,307.5 '/>
		<polygon fill = 'rgb( 31, 120, 180)' fill-opacity = '0.250000' points = '396.5,307.5 396.5,662.4 398.4,662.4 398.4,317.5 '/>
		<polygon fill = 'rgb( 31, 120, 180)' fill-opacity = '0.250000' points = '398.4,317.5 398.4,662.4 400.3,662.4 400.3,326.7 '/>
		<polygon fill = 'rgb( 31, 120, 180)' fill-opacity = '0.250000' points = '400.3,326.7 400.3,662.4 402.2,662.4 402.2,335.0 '/>
		<polygon fill = 'rgb( 31, 120, 180)' fill-opacity = '0.250000' points = '402.2,335.0 402.2,662.4 404.0,662.4 404.0,342.4 '/>
		<polygon fill = 'rgb( 31, 120, 180)' fill-opacity = '0.250000' points = '404.0,342.4 404.0,662.4 405.9,662.4 405.9,348.8 '/>
		<polygon fill = 'rgb( 31, 120, 180)' fill-opacity = '0.250000' points = '405.9,348.8 405.9,662.4 407.8,662.4 407.8,354.1 '/>
		<polygon fill = 'rgb( 31, 120, 180)' fill-opacity = '0.250000' points = '407.8,354.1 407.8,662.4 409.7,662.4 409.7,358.6 '/>
		<polygon fill = 'rgb( 31, 120, 180)' fill-opacity = '0.250000' points = '409.7,358.6 409.7,662.4 411.6,662.4 411.6,362.2 '/>
		<polygon fill = 'rgb( 31, 120, 180)' fill-opacity = '0.250000' points = '411.6,362.2 411.6,662.4 413.5,662.4 413.5,365.1 '/>
		<polygon fill = 'rgb( 31, 120, 180)' fill-opacity = '0.250000' points = '413.5,365.1 413.5,662.4 415.4,662.4 415.4,367.4 '/>
		<polygon fill = 'rgb( 31, 120, 180)' fill-opacity = '0.250000' points = '415.4,367.4 415.4,662.4 417.3,662.4 417.3,369.4 '/>
		<polygon fill = 'rgb( 31, 120, 180)' fill-opacity = '0.250000' points = '417.3,369.4 417.3,662.4 419.1,662.4 419.1,371.2 '/>
		<polygon fill = 'rgb( 31, 120, 180)' fill-opacity = '0.250000' points = '419.1,371.2 419.1,662.4 421.0,662.4 421.0,373.1 '/>
		<polygon fill = 'rgb( 31, 120, 180)' fill-opacity = '0.250000' points = '421.0,373.1 421.0,662.4 422.9,662.4 422.9,375.0 '/>
		<polygon fill = 'rgb( 31, 120, 180)' fill-opacity = '0.250000' points = '422.9,375.0 422.9,662.4 424.8,662.4 424.8,377.3 '/>
		<polygon fill = 'rgb( 31, 120, 180)' fill-opacity = '0.250000' points = '424.8,377.3 424.8,662.4 426.7,662.4 426.7,380.0 '/>
		<polygon fill = 'rgb( 31, 120, 180)' fill-opacity = '0.250000' points = '426.7,380.0 426.7,662.4 428.6,662.4 428.6,383.3 '/>
		<polygon fill = 'rgb( 31, 120, 180)' fill-opacity = '0.250000' points = '428.6,383.3 428.6,662.4 430.5,662.4 430.5,387.1 '/>
		<polygon fill = 'rgb( 31, 120, 180)' fill-opacity = '0.250000' points = '430.5,387.1 430.5,662.4 432.4,662.4 432.4,391.4 '/>
		<polygon fill = 'rgb( 31, 120, 180)' fill-opacity = '0.250000' points = '432.4,391.4 432.4,662.4 434.2,662.4 434.2,396.3 '/>
		<polygon fill = 'rgb( 31, 120, 180)' fill-opacity = '0.250000' points = '434.2,396.3 434.2,662.4 436.1,662.4 436.1,401.6 '/>
		<polygon fill = 'rgb( 31, 120, 180)' fill-opacity = '0.250000' points = '436.1,401.6 436.1,662.4 438.0,662.4 438.0,407.3 '/>
		<polygon fill = 'rgb( 31, 120, 180)' fill-opacity = '0.250000' points = '438.0,407.3 438.0,662.4 439.9,662.4 439.9,413.3 '/>
		<polygon fill = 'rgb( 31, 120, 180)' fill-opacity = '0.250000' points = '439.9,413.3 439.9,662.4 441.8,662.4 441.8,419.3 '/>
		<polygon fill = 'rgb( 31, 120, 180)' fill-opacity = '0.250000' points = '441.8,419.3 441.8,662.4 443.7,662.4 443.7,425.3 '/>
		<polygon fill = 'rgb( 31, 120, 180)' fill-opacity = '0.250000' points = '443.7,425.3 443.7,662.4 445.6,662.4 445.6,431.1 '/>
		<polygon fill = 'rgb( 31, 120, 180)' fill-opacity = '0.250000' points = '445.6,431.1 445.6,662.4 447.4,662.4 447.4,436.6 '/>
		<polygon fill = 'rgb( 31, 120, 180)' fill-opacity = '0.250000' points = '447.4,436.6 447.4,662.4 449.3,662.4 449.3,441.7 '/>
		<polygon fill = 'rgb( 31, 120, 180)' fill-opacity = '0.250000' points = '449.3,441.7 449.3,662.4 451.2,662.4 451.2,446.1 '/>
		<polygon fill = 'rgb( 31, 120, 180)' fill-opacity = '0.250000' points = '451.2,446.1 451.2,662.4 453.1,662.4 453.1,450.0 '/>
		<polygon fill = 'rgb( 31, 120, 180)' fill-opacity = '0.250000' points = '453.1,450.0 453.1,662.4 455.0,662.4 455.0,453.1 '/>
		<polygon fill = 'rgb( 31, 120, 180)' fill-opacity = '0.250000' points = '455.0,453.1 455.0,662.4 456.9,662.4 456.9,455.6 '/>
		<polygon fill = 'rgb( 31, 120, 180)' fill-opacity = '0.250000' points = '456.9,455.6 456.9,662.4 458.8,662.4 458.8,457.4 '/>
		<polygon fill = 'rgb( 31, 120, 180)' fill-opacity = '0.250000' points = '458.8,457.4 458.8,662.4 460.7,662.4 460.7,458.6 '/>
		<polygon fill = 'rgb( 31, 120, 180)' fill-opacity = '0.250000' points = '460.7,458.6 460.7,662.4 462.5,662.4 462.5,459.2 '/>
		<polygon fill = 'rgb( 31, 120, 180)' fill-opacity = '0.250000' points = '462.5,459.2 462.5,662.4 464.4,662.4 464.4,459.4 '/>
		<polygon fill = 'rgb( 31, 120, 180)' fill-opacity = '0.250000' points = '464.4,459.4 464.4,662.4 466.3,662.4 466.3,459.3 '/>
		<polygon fill = 'rgb( 31, 120, 180)' fill-opacity = '0.250000' points = '466.3,459.3 466.3,662.4 468.2,662.4 468.2,459.1 '/>
		<polygon fill = 'rgb( 31, 120, 180)' fill-opacity = '0.250000' points = '468.2,459.1 468.2,662.4 470.1,662.4 470.1,458.8 '/>
		<polygon fill = 'rgb( 31, 120, 180)' fill-opacity = '0.250000' points = '470.1,458.8 470.1,662.4 472.0,662.4 472.0,458.7 '/>
		<polygon fill = 'rgb( 31, 120, 180)' fill-opacity = '0.250000' points = '472.0,458.7 472.0,662.4 473.9,662.4 473.9,458.8 '/>
		<polygon fill = 'rgb( 31, 120, 180)' fill-opacity = '0.250000' points = '473.9,458.8 473.9,662.4 475.8,662.4 475.8,459.3 '/>
		<polygon fill = 'rgb( 31, 120, 180)' fill-opacity = '0.250000' points = '475.8,459.3 475.8,662.4 477.6,662.4 477.6,460.4 '/>
		<polygon fill = 'rgb( 31, 120, 180)' fill-opacity = '0.250000' points = '477.6,460.4 477.6,662.4 479.5,662.4 479.5,462.0 '/>
		<polygon fill = 'rgb( 31, 120, 180)' fill-opacity = '0.250000' points = '479.5,462.0 479.5,662.4 481.4,662.4 481.4,464.2 '/>
		<polygon fill = 'rgb( 31, 120, 180)' fill-opacity = '0.250000' points = '481.4,464.2 481.4,662.4 483.3,662.4 483.3,467.1 '/>
		<polygon fill = 'rgb( 31, 120, 180)' fill-opacity = '0.250000' points = '483.3,467.1 483.3,662.4 485.2,662.4 485.2,470.7 '/>
		<polygon fill = 'rgb( 31, 120, 180)' fill-opacity = '0.250000' points = '485.2,470.7 485.2,662.4 487.1,662.4 487.1,474.8 '/>
		<polygon fill = 'rgb( 31, 120, 180)' fill-opacity = '0.250000' points = '487.1,474.8 487.1,662.4 489.0,662.4 489.0,479.5 '/>
		<polygon fill = 'rgb( 31, 120, 180)' fill-opacity = '0.250000' points = '489.0,479.5 489.0,662.4 490.9,662.4 490.9,484.6 '/>
		<polygon fill = 'rgb( 31, 120, 180)' fill-opacity = '0.250000' points = '490.9,484.6 490.9,662.4 492.7,662.4 492.7,490.1 '/>
		<polygon fill = 'rgb( 31, 120, 180)' fill-opacity = '0.250000' points = '492.7,490.1 492.7,662.4 494.6,662.4 494.6,495.7 '/>
		<polygon fill = 'rgb( 31, 120, 180)' fill-opacity = '0.250000' points = '494.6,495.7 494.6,662.4 496.5,662.4 496.5,501.4 '/>
		<polygon fill = 'rgb( 31, 120, 180)' fill-opacity = '0.250000' points = '496.5,501.4 496.5,662.4 498.4,662.4 498.4,507.0 '/>
		<polygon fill = 'rgb( 31, 120, 180)' fill-opacity = '0.250000' points = '498.4,507.0 498.4,662.4 500.3,662.4 500.3,512.4 '/>
		<polygon fill = 'rgb( 31, 120, 180)' fill-opacity = '0.250000' points = '500.3,512.4 500.3,662.4 502.2,662.4 502.2,517.4 '/>
		<polygon fill = 'rgb( 31, 120, 180)' fill-opacity = '0.250000' points = '502.2,517.4 502.2,662.4 504.1,662.4 504.1,521.9 '/>
		<polygon fill = 'rgb( 31, 120, 180)' fill-opacity = '0.250000' points = '504.1,521.9 504.1,662.4 506.0,662.4 506.0,525.8 '/>
		<polygon fill = 'rgb( 31, 120, 180)' fill-opacity = '0.250000' points = '506.0,525.8 506.0,662.4 507.8,662.4 507.8,529.0 '/>
		<polygon fill = 'rgb( 31, 120, 180)' fill-opacity = '0.250000' points = '507.8,529.0 507.8,662.4 509.7,662.4 509.7,531.4 '/>
		<polygon fill = 'rgb( 31, 120, 180)' fill-opacity = '0.250000' points = '509.7,531.4 509.7,662.4 511.6,662.4 511.6,533.0 '/>
		<polygon fill = 'rgb( 31, 120, 180)' fill-opacity = '0.250000' points = '511.6,533.0 511.6,662.4 513.5,662.4 513.5,533.8 '/>
		<polygon fill = 'rgb( 31, 120, 180)' fill-opacity = '0.250000' points = '513.5,533.8 513.5,662.4 515.4,662.4 515.4,533.9 '/>
		<polygon fill = 'rgb( 31, 120, 180)' fill-opacity = '0.250000' points = '515.4,533.9 515.4,662.4 517.3,662.4 517.3,533.1 '/>
		<polygon fill = 'rgb( 31, 120, 180)' fill-opacity = '0.250000' points = '517.3,533.1 517.3,662.4 519.2,662.4 519.2,531.7 '/>
		<polygon fill = 'rgb( 31, 120, 180)' fill-opacity = '0.250000' points = '519.2,531.7 519.2,662.4 521.0,662.4 521.0,529.6 '/>
		<polygon fill = 'rgb( 31, 120, 180)' fill-opacity = '0.250000' points = '521.0,529.6 521.0,662.4 522.9,662.4 522.9,527.1 '/>
		<polygon fill = 'rgb( 31, 120, 180)' fill-opacity = '0.250000' points = '522.9,527.1 522.9,662.4 524.8,662.4 524.8,524.1 '/>
		<polygon fill = 'rgb( 31, 120, 180)' fill-opacity = '0.250000' points = '524.8,524.1 524.8,662.4 526.7,662.4 526.7,520.8 '/>
		<polygon fill = 'rgb( 31, 120, 180)' fill-opacity = '0.250000' points = '526.7,520.8 526.7,662.4 528.6,662.4 528.6,517.2 '/>
		<polygon fill = 'rgb( 31, 120, 180)' fill-opacity = '0.250000' points = '528.6,517.2 528.6,662.4 530.5,662.4 530.5,513.6 '/>
		<polygon fill = 'rgb( 31, 120, 180)' fill-opacity = '0.250000' points = '530.5,513.6 530.5,662.4 532.4,662.4 532.4,510.0 '/>
		<polygon fill = 'rgb( 31, 120, 180)' fill-opacity = '0.250000' points = '532.4,510.0 532.4,662.4 534.3,662.4 534.3,506.5 '/>
		<polygon fill = 'rgb( 31, 120, 180)' fill-opacity = '0.250000' points = '534.3,506.5 534.3,662.4 536.1,662.4 536.1,503.1 '/>
		<polygon fill = 'rgb( 31, 120, 180)' fill-opacity = '0.250000' points = '536.1,503.1 536.1,662.4 538.0,662.4 538.0,499.8 '/>
		<polygon fill = 'rgb( 31, 120, 180)' fill-opacity = '0.250000' points = '538.0,499.8 538.0,662.4 539.9,662.4 539.9,496.7 '/>
		<polygon fill = 'rgb( 31, 120, 180)' fill-opacity = '0.250000' points = '539.9,496.7 539.9,662.4 541.8,662.4 541.8,493.8 '/>
		<polygon fill = 'rgb( 31, 120, 180)' fill-opacity = '0.250000' points = '541.8,493.8 541.8,662.4 543.7,662.4 543.7,491.1 '/>
		<polygon fill = 'rgb( 31, 120, 180)' fill-opacity = '0.250000' points = '543.7,491.1 543.7,662.4 545.6,662.4 545.6,488.4 '/>
		<polygon fill = 'rgb( 31, 120, 180)' fill-opacity = '0.250000' points = '545.6,488.4 545.6,662.4 547.5,662.4 547.5,485.7 '/>
		<polygon fill = 'rgb( 31, 120, 180)' fill-opacity = '0.250000' points = '547.5,485.7 547.5,662.4 549.4,662.4 549.4,482.9 '/>
		<polygon fill = 'rgb( 31, 120, 180)' fill-opacity = '0.250000' points = '549.4,482.9 549.4,662.4 551.2,662.4 551.2,479.9 '/>
		<polygon fill = 'rgb( 31, 120, 180)' fill-opacity = '0.250000' points = '551.2,479.9 551.2,662.4 553.1,662.4 553.1,476.6 '/>
		<polygon fill = 'rgb( 31, 120, 180)' fill-opacity = '0.250000' points = '553.1,476.6 553.1,662.4 555.0,662.4 555.0,472.9 '/>
		<polygon fill = 'rgb( 31, 120, 180)' fill-opacity = '0.250000' points = '555.0,472.9 555.0,662.4 556.9,662.4 556.9,468.7 '/>
		<polygon fill = 'rgb( 31, 120, 180)' fill-opacity = '0.250000' points = '556.9,468.7 556.9,662.4 558.8,662.4 558.8,464.0 '/>
		<polygon fill = 'rgb( 31, 120, 180)' fill-opacity = '0.250000' points = '558.8,464.0 558.8,662.4 560.7,662.4 560.7,458.6 '/>
		<polygon fill = 'rgb( 31, 120, 180)' fill-opacity = '0.250000' points = '560.7,458.6 560.7,662.4 562.6,662.4 562.6,452.6 '/>
		<polygon fill = 'rgb( 31, 120, 180)' fill-opacity = '0.250000' points = '562.6,452.6 562.6,662.4 564.5,662.4 564.5,445.9 '/>
		<polygon fill = 'rgb( 31, 120, 180)' fill-opacity = '0.250000' points = '564.5,445.9 564.5,662.4 566.3,662.4 566.3,438.6 '/>
		<polygon fill = 'rgb( 31, 120, 180)' fill-opacity = '0.250000' points = '566.3,438.6 566.3,662.4 568.2,662.4 568.2,430.8 '/>
		<polygon fill = 'rgb( 31, 120, 180)' fill-opacity = '0.250000' points = '568.2,430.8 568.2,662.4 570.1,662.4 570.1,422.6 '/>
		<polygon fill = 'rgb( 31, 120, 180)' fill-opacity = '0.250000' points = '570.1,422.6 570.1,662.4 572.0,662.4 572.0,414.0 '/>
		<polygon fill = 'rgb( 31, 120, 180)' fill-opacity = '0.250000' points = '572.0,414.0 572.0,662.4 573.9,662.4 573.9,405.3 '/>
		<polygon fill = 'rgb( 31, 120, 180)' fill-opacity = '0.250000' points = '573.9,405.3 573.9,662.4 575.8,662.4 575.8,396.6 '/>
		<polygon fill = 'rgb( 31, 120, 180)' fill-opacity = '0.250000' points = '575.8,396.6 575.8,662.4 577.7,662.4 577.7,388.2 '/>
		<polygon fill = 'rgb( 31, 120, 180)' fill-opacity = '0.250000' points = '577.7,388.2 577.7,662.4 579.5,662.4 579.5,380.3 '/>
		<polygon fill = 'rgb( 31, 120, 180)' fill-opacity = '0.250000' points = '579.5,380.3 579.5,662.4 581.4,662.4 581.4,373.1 '/>
		<polygon fill = 'rgb( 31, 120, 180)' fill-opacity = '0.250000' points = '581.4,373.1 581.4,662.4 583.3,662.4 583.3,366.8 '/>
		<polygon fill = 'rgb( 31, 120, 180)' fill-opacity = '0.250000' points = '583.3,366.8 583.3,662.4 585.2,662.4 585.2,361.5 '/>
		<polygon fill = 'rgb( 31, 120, 180)' fill-opacity = '0.250000' points = '585.2,361.5 585.2,662.4 587.1,662.4 587.1,357.6 '/>
		<polygon fill = 'rgb( 31, 120, 180)' fill-opacity = '0.250000' points = '587.1,357.6 587.1,662.4 589.0,662.4 589.0,355.1 '/>
		<polygon fill = 'rgb( 31, 120, 180)' fill-opacity = '0.250000' points = '589.0,355.1 589.0,662.4 590.9,662.4 590.9,354.2 '/>
		<polygon fill = 'rgb( 31, 120, 180)' fill-opacity = '0.250000' points = '590.9,354.2 590.9,662.4 592.8,662.4 592.8,354.8 '/>
		<polygon fill = 'rgb( 31, 120, 180)' fill-opacity = '0.250000' points = '592.8,354.8 592.8,662.4 594.6,662.4 594.6,357.2 '/>
		<polygon fill = 'rgb( 31, 120, 180)' fill-opacity = '0.250000' points = '594.6,357.2 594.6,662.4 596.5,662.4 596.5,361.2 '/>
		<polygon fill = 'rgb( 31, 120, 180)' fill-opacity = '0.250000' points = '596.5,361.2 596.5,662.4 598.4,662.4 598.4,366.8 '/>
		<polygon fill = 'rgb( 31, 120, 180)' fill-opacity = '0.250000' points = '598.4,366.8 598.4,662.4 600.3,662.4 600.3,374.0 '/>
		<polygon fill = 'rgb( 31, 120, 180)' fill-opacity = '0.250000' points = '600.3,374.0 600.3,662.4 602.2,662.4 602.2,382.6 '/>
		<polygon fill = 'rgb( 31, 120, 180)' fill-opacity = '0.250000' points = '602.2,382.6 602.2,662.4 604.1,662.4 604.1,392.5 '/>
		<polygon fill = 'rgb( 31, 120, 180)' fill-opacity = '0.250000' points = '604.1,392.5 604.1,662.4 606.0,662.4 606.0,403.5 '/>
		<polygon fill = 'rgb( 31, 120, 180)' fill-opacity = '0.250000' points = '606.0,403.5 606.0,662.4 607.9,662.4 607.9,415.5 '/>
		<polygon fill = 'rgb( 31, 120, 180)' fill-opacity = '0.250000' points = '607.9,415.5 607.9,662.4 609.7,662.4 609.7,428.1 '/>
		<polygon fill = 'rgb( 31, 120, 180)' fill-opacity = '0.250000' points = '609.7,428.1 609.7,662.4 611.6,662.4 611.6,441.3 '/>
		<polygon fill = 'rgb( 31, 120, 180)' fill-opacity = '0.250000' points = '611.6,441.3 611.6,662.4 613.5,662.4 613.5,454.9 '/>
		<polygon fill = 'rgb( 31, 120, 180)' fill-opacity = '0.250000' points = '613.5,454.9 613.5,662.4 615.4,662.4 615.4,468.5 '/>
		<polygon fill = 'rgb( 31, 120, 180)' fill-opacity = '0.250000' points = '615.4,468.5 615.4,662.4 617.3,662.4 617.3,482.2 '/>
		<polygon fill = 'rgb( 31, 120, 180)' fill-opacity = '0.250000' points = '617.3,482.2 617.3,662.4 619.2,662.4 619.2,495.6 '/>
		<polygon fill = 'rgb( 31, 120, 180)' fill-opacity = '0.250000' points = '619.2,495.6 619.2,662.4 621.1,662.4 621.1,508.6 '/>
		<polygon fill = 'rgb( 31, 120, 180)' fill-opacity = '0.250000' points = '621.1,508.6 621.1,662.4 623.0,662.4 623.0,521.2 '/>
		<polygon fill = 'rgb( 31, 120, 180)' fill-opacity = '0.250000' points = '623.0,521.2 623.0,662.4 624.8,662.4 624.8,533.2 '/>
		<polygon fill = 'rgb( 31, 120, 180)' fill-opacity = '0.250000' points = '624.8,533.2 624.8,662.4 626.7,662.4 626.7,544.6 '/>
		<polygon fill = 'rgb( 31, 120, 180)' fill-opacity = '0.250000' points = '626.7,544.6 626.7,662.4 628.6,662.4 628.6,555.2 '/>
		<polygon fill = 'rgb( 31, 120, 180)' fill-opacity = '0.250000' points = '628.6,555.2 628.6,662.4 630.5,662.4 630.5,565.0 '/>
		<polygon fill = 'rgb( 31, 120, 180)' fill-opacity = '0.250000' points = '630.5,565.0 630.5,662.4 632.4,662.4 632.4,574.0 '/>
		<polygon fill = 'rgb( 31, 120, 180)' fill-opacity = '0.250000' points = '632.4,574.0 632.4,662.4 634.3,662.4 634.3,582.2 '/>
		<polygon fill = 'rgb( 31, 120, 180)' fill-opacity = '0.250000' points = '634.3,582.2 634.3,662.4 636.2,662.4 636.2,589.5 '/>
		<polygon fill = 'rgb( 31, 120, 180)' fill-opacity = '0.250000' points = '636.2,589.5 636.2,662.4 638.1,662.4 638.1,595.9 '/>
		<polygon fill = 'rgb( 31, 120, 180)' fill-opacity = '0.250000' points = '638.1,595.9 638.1,662.4 639.9,662.4 639.9,601.4 '/>
		<polygon fill = 'rgb( 31, 120, 180)' fill-opacity = '0.250000' points = '639.9,601.4 639.9,662.4 641.8,662.4 641.8,606.0 '/>
		<polygon fill = 'rgb( 31, 120, 180)' fill-opacity = '0.250000' points = '641.8,606.0 641.8,662.4 643.7,662.4 643.7,609.6 '/>
		<polygon fill = 'rgb( 31, 120, 180)' fill-opacity = '0.250000' points = '643.7,609.6 643.7,662.4 645.6,662.4 645.6,612.3 '/>
		<polygon fill = 'rgb( 31, 120, 180)' fill-opacity = '0.250000' points = '645.6,612.3 645.6,662.4 647.5,662.4 647.5,613.9 '/>
		<polygon fill = 'rgb( 31, 120, 180)' fill-opacity = '0.250000' points = '647.5,613.9 647.5,662.4 649.4,662.4 649.4,614.5 '/>
		<polygon fill = 'rgb( 31, 120, 180)' fill-opacity = '0.250000' points = '649.4,614.5 649.4,662.4 651.3,662.4 651.3,613.9 '/>
		<polygon fill = 'rgb( 31, 120, 180)' fill-opacity = '0.250000' points = '651.3,613.9 651.3,662.4 653.1,662.4 653.1,612.1 '/>
		<polygon fill = 'rgb( 31, 120, 180)' fill-opacity = '0.250000' points = '653.1,612.1 653.1,662.4 655.0,662.4 655.0,609.0 '/>
		<polygon fill = 'rgb( 31, 120, 180)' fill-opacity = '0.250000' points = '655.0,609.0 655.0,662.4 656.9,662.4 656.9,604.5 '/>
		<polygon fill = 'rgb( 31, 120, 180)' fill-opacity = '0.250000' points = '656.9,604.5 656.9,662.4 658.8,662.4 658.8,598.5 '/>
		<polygon fill = 'rgb( 31, 120, 180)' fill-opacity = '0.250000' points = '658.8,598.5 658.8,662.4 660.7,662.4 660.7,591.0 '/>
		<polygon fill = 'rgb( 31, 120, 180)' fill-opacity = '0.250000' points = '660.7,591.0 660.7,662.4 662.6,662.4 662.6,581.8 '/>
		<polygon fill = 'rgb( 31, 120, 180)' fill-opacity = '0.250000' points = '662.6,581.8 662.6,662.4 664.5,662.4 664.5,570.9 '/>
		<polygon fill = 'rgb( 31, 120, 180)' fill-opacity = '0.250000' points = '664.5,570.9 664.5,662.4 666.4,662.4 666.4,558.2 '/>
		<polygon fill = 'rgb( 31, 120, 180)' fill-opacity = '0.250000' points = '666.4,558.2 666.4,662.4 668.2,662.4 668.2,543.6 '/>
		<polygon fill = 'rgb( 31, 120, 180)' fill-opacity = '0.250000' points = '668.2,543.6 668.2,662.4 670.1,662.4 670.1,527.3 '/>
		<polygon fill = 'rgb( 31, 120, 180)' fill-opacity = '0.250000' points = '670.1,527.3 670.1,662.4 672.0,662.4 672.0,509.0 '/>
		<polygon fill = 'rgb( 31, 120, 180)' fill-opacity = '0.250000' points = '672.0,509.0 672.0,662.4 673.9,662.4 673.9,489.0 '/>
		<polygon fill = 'rgb( 31, 120, 180)' fill-opacity = '0.250000' points = '673.9,489.0 673.9,662.4 675.8,662.4 675.8,467.3 '/>
		<polygon fill = 'rgb( 31, 120, 180)' fill-opacity = '0.250000' points = '675.8,467.3 675.8,662.4 677.7,662.4 677.7,444.0 '/>
		<polygon fill = 'rgb( 31, 120, 180)' fill-opacity = '0.250000' points = '677.7,444.0 677.7,662.4 679.6,662.4 679.6,419.3 '/>
		<polygon fill = 'rgb( 31, 120, 180)' fill-opacity = '0.250000' points = '679.6,419.3 679.6,662.4 681.5,662.4 681.5,393.4 '/>
		<polygon fill = 'rgb( 31, 120, 180)' fill-opacity = '0.250000' points = '681.5,393.4 681.5,662.4 683.3,662.4 683.3,366.5 '/>
		<polygon fill = 'rgb( 31, 120, 180)' fill-opacity = '0.250000' points = '683.3,366.5 683.3,662.4 685.2,662.4 685.2,339.0 '/>
		<polygon fill = 'rgb( 31, 120, 180)' fill-opacity = '0.250000' points = '685.2,339.0 685.2,662.4 687.1,662.4 687.1,311.1 '/>
		<polygon fill = 'rgb( 31, 120, 180)' fill-opacity = '0.250000' points = '687.1,311.1 687.1,662.4 689.0,662.4 689.0,283.3 '/>
		<polygon fill = 'rgb( 31, 120, 180)' fill-opacity = '0.250000' points = '689.0,283.3 689.0,662.4 690.9,662.4 690.9,255.8 '/>
		<polygon fill = 'rgb( 31, 120, 180)' fill-opacity = '0.250000' points = '690.9,255.8 690.9,662.4 692.8,662.4 692.8,229.0 '/>
		<polygon fill = 'rgb( 31, 120, 180)' fill-opacity = '0.250000' points = '692.8,229.0 692.8,662.4 694.7,662.4 694.7,203.4 '/>
		<polygon fill = 'rgb( 31, 120, 180)' fill-opacity = '0.250000' points = '694.7,203.4 694.7,662.4 696.6,662.4 696.6,179.2 '/>
		<polygon fill = 'rgb( 31, 120, 180)' fill-opacity = '0.250000' points = '696.6,179.2 696.6,662.4 698.4,662.4 698.4,156.8 '/>
		<polygon fill = 'rgb( 31, 120, 180)' fill-opacity = '0.250000' points = '698.4,156.8 698.4,662.4 700.3,662.4 700.3,136.5 '/>
		<polygon fill = 'rgb( 31, 120, 180)' fill-opacity = '0.250000' points = '700.3,136.5 700.3,662.4 702.2,662.4 702.2,118.6 '/>
		<polygon fill = 'rgb( 31, 120, 180)' fill-opacity = '0.250000' points = '702.2,118.6 702.2,662.4 704.1,662.4 704.1,103.1 '/>
		<polygon fill = 'rgb( 31, 120, 180)' fill-opacity = '0.250000' points = '704.1,103.1 704.1,662.4 706.0,662.4 706.0,90.3 '/>
		<polygon fill = 'rgb( 31, 120, 180)' fill-opacity = '0.250000' points = '706.0,90.3 706.0,662.4 707.9,662.4 707.9,80.3 '/>
		<polygon fill = 'rgb( 31, 120, 180)' fill-opacity = '0.250000' points = '707.9,80.3 707.9,662.4 709.8,662.4 709.8,73.0 '/>
		<polygon fill = 'rgb( 31, 120, 180)' fill-opacity = '0.250000' points = '709.8,73.0 709.8,662.4 711.7,662.4 711.7,68.5 '/>
		<polygon fill = 'rgb( 31, 120, 180)' fill-opacity = '0.250000' points = '711.7,68.5 711.7,662.4 713.5,662.4 713.5,66.5 '/>
		<polygon fill = 'rgb( 31, 120, 180)' fill-opacity = '0.250000' points = '713.5,66.5 713.5,662.4 715.4,662.4 715.4,67.1 '/>
		<polygon fill = 'rgb( 31, 120, 180)' fill-opacity = '0.250000' points = '715.4,67.1 715.4,662.4 717.3,662.4 717.3,69.9 '/>
		<polygon fill = 'rgb( 31, 120, 180)' fill-opacity = '0.250000' points = '717.3,69.9 717.3,662.4 719.2,662.4 719.2,74.8 '/>
		<polygon fill = 'rgb( 31, 120, 180)' fill-opacity = '0.250000' points = '719.2,74.8 719.2,662.4 721.1,662.4 721.1,81.4 '/>
		<polygon fill = 'rgb( 31, 120, 180)' fill-opacity = '0.250000' points = '721.1,81.4 721.1,662.4 723.0,662.4 723.0,89.6 '/>
		<polygon fill = 'rgb( 31, 120, 180)' fill-opacity = '0.250000' points = '723.0,89.6 723.0,662.4 724.9,662.4 724.9,99.1 '/>
		<polygon fill = 'rgb( 31, 120, 180)' fill-opacity = '0.250000' points = '724.9,99.1 724.9,662.4 726.7,662.4 726.7,109.6 '/>
		<polygon fill = 'rgb( 31, 120, 180)' fill-opacity = '0.250000' points = '726.7,109.6 726.7,662.4 728.6,662.4 728.6,120.7 '/>
		<polygon fill = 'rgb( 31, 120, 180)' fill-opacity = '0.250000' points = '728.6,120.7 728.6,662.4 730.5,662.4 730.5,132.4 '/>
		<polygon fill = 'rgb( 31, 120, 180)' fill-opacity = '0.250000' points = '730.5,132.4 730.5,662.4 732.4,662.4 732.4,144.3 '/>
		<polygon fill = 'rgb( 31, 120, 180)' fill-opacity = '0.250000' points = '732.4,144.3 732.4,662.4 734.3,662.4 734.3,156.3 '/>
		<polygon fill = 'rgb( 31, 120, 180)' fill-opacity = '0.250000' points = '734.3,156.3 734.3,662.4 736.2,662.4 736.2,168.2 '/>
		<polygon fill = 'rgb( 31, 120, 180)' fill-opacity = '0.250000' points = '736.2,168.2 736.2,662.4 738.1,662.4 738.1,179.9 '/>
		<polygon fill = 'rgb( 31, 120, 180)' fill-opacity = '0.250000' points = '738.1,179.9 738.1,662.4 740.0,662.4 740.0,191.2 '/>
		<polygon fill = 'rgb( 31, 120, 180)' fill-opacity = '0.250000' points = '740.0,191.2 740.0,662.4 741.8,662.4 741.8,202.0 '/>
		<polygon fill = 'rgb( 31, 120, 180)' fill-opacity = '0.250000' points = '741.8,202.0 741.8,662.4 743.7,662.4 743.7,212.4 '/>
		<polygon fill = 'rgb( 31, 120, 180)' fill-opacity = '0.250000' points = '743.7,212.4 743.7,662.4 745.6,662.4 745.6,222.2 '/>
		<polygon fill = 'rgb( 31, 120, 180)' fill-opacity = '0.250000' points = '745.6,222.2 745.6,662.4 747.5,662.4 747.5,231.5 '/>
		<polygon fill = 'rgb( 31, 120, 180)' fill-opacity = '0.250000' points = '747.5,231.5 747.5,662.4 749.4,662.4 749.4,240.3 '/>
		<polygon fill = 'rgb( 31, 120, 180)' fill-opacity = '0.250000' points = '749.4,240.3 749.4,662.4 751.3,662.4 751.3,248.6 '/>
		<polygon fill = 'rgb( 31, 120, 180)' fill-opacity = '0.250000' points = '751.3,248.6 751.3,662.4 753.2,662.4 753.2,256.4 '/>
		<polygon fill = 'rgb( 31, 120, 180)' fill-opacity = '0.250000' points = '753.2,256.4 753.2,662.4 755.1,662.4 755.1,263.7 '/>
		<polygon fill = 'rgb( 31, 120, 180)' fill-opacity = '0.250000' points = '755.1,263.7 755.1,662.4 756.9,662.4 756.9,270.8 '/>
		<polygon fill = 'rgb( 31, 120, 180)' fill-opacity = '0.250000' points = '756.9,270.8 756.9,662.4 758.8,662.4 758.8,277.5 '/>
		<polygon fill = 'rgb( 31, 120, 180)' fill-opacity = '0.250000' points = '758.8,277.5 758.8,662.4 760.7,662.4 760.7,284.1 '/>
		<polygon fill = 'rgb( 31, 120, 180)' fill-opacity = '0.250000' points = '760.7,284.1 760.7,662.4 762.6,662.4 762.6,290.5 '/>
		<polygon fill = 'rgb( 31, 120, 180)' fill-opacity = '0.250000' points = '762.6,290.5 762.6,662.4 764.5,662.4 764.5,297.0 '/>
		<polygon fill = 'rgb( 31, 120, 180)' fill-opacity = '0.250000' points = '764.5,297.0 764.5,662.4 766.4,662.4 766.4,303.6 '/>
		<polygon fill = 'rgb( 31, 120, 180)' fill-opacity = '0.250000' points = '766.4,303.6 766.4,662.4 768.3,662.4 768.3,310.4 '/>
		<polygon fill = 'rgb( 31, 120, 180)' fill-opacity = '0.250000' points = '768.3,310.4 768.3,662.4 770.2,662.4 770.2,317.5 '/>
		<polygon fill = 'rgb( 31, 120, 180)' fill-opacity = '0.250000' points = '770.2,317.5 770.2,662.4 772.0,662.4 772.0,325.0 '/>
		<polygon fill = 'rgb( 31, 120, 180)' fill-opacity = '0.250000' points = '772.0,325.0 772.0,662.4 773.9,662.4 773.9,333.0 '/>
		<polygon fill = 'rgb( 31, 120, 180)' fill-opacity = '0.250000' points = '773.9,333.0 773.9,662.4 775.8,662.4 775.8,341.6 '/>
		<polygon fill = 'rgb( 31, 120, 180)' fill-opacity = '0.250000' points = '775.8,341.6 775.8,662.4 777.7,662.4 777.7,350.8 '/>
		<polygon fill = 'rgb( 31, 120, 180)' fill-opacity = '0.250000' points = '777.7,350.8 777.7,662.4 779.6,662.4 779.6,360.7 '/>
		<polygon fill = 'rgb( 31, 120, 180)' fill-opacity = '0.250000' points = '779.6,360.7 779.6,662.4 781.5,662.4 781.5,371.3 '/>
		<polygon fill = 'rgb( 31, 120, 180)' fill-opacity = '0.250000' points = '781.5,371.3 781.5,662.4 783.4,662.4 783.4,382.5 '/>
		<polygon fill = 'rgb( 31, 120, 180)' fill-opacity = '0.250000' points = '783.4,382.5 783.4,662.4 785.3,662.4 785.3,394.5 '/>
		<polygon fill = 'rgb( 31, 120, 180)' fill-opacity = '0.250000' points = '785.3,394.5 785.3,662.4 787.1,662.4 787.1,407.0 '/>
		<polygon fill = 'rgb( 31, 120, 180)' fill-opacity = '0.250000' points = '787.1,407.0 787.1,662.4 789.0,662.4 789.0,420.1 '/>
		<polygon fill = 'rgb( 31, 120, 180)' fill-opacity = '0.250000' points = '789.0,420.1 789.0,662.4 790.9,662.4 790.9,433.6 '/>
		<polygon fill = 'rgb( 31, 120, 180)' fill-opacity = '0.250000' points = '790.9,433.6 790.9,662.4 792.8,662.4 792.8,447.5 '/>
		<polygon fill = 'rgb( 31, 120, 180)' fill-opacity = '0.250000' points = '792.8,447.5 792.8,662.4 794.7,662.4 794.7,461.6 '/>
		<polygon fill = 'rgb( 31, 120, 180)' fill-opacity = '0.250000' points = '794.7,461.6 794.7,662.4 796.6,662.4 796.6,475.8 '/>
		<polygon fill = 'rgb( 31, 120, 180)' fill-opacity = '0.250000' points = '796.6,475.8 796.6,662.4 798.5,662.4 798.5,490.0 '/>
		<polygon fill = 'rgb( 31, 120, 180)' fill-opacity = '0.250000' points = '798.5,490.0 798.5,662.4 800.3,662.4 800.3,504.1 '/>
		<polygon fill = 'rgb( 31, 120, 180)' fill-opacity = '0.250000' points = '800.3,504.1 800.3,662.4 802.2,662.4 802.2,517.8 '/>
		<polygon fill = 'rgb( 31, 120, 180)' fill-opacity = '0.250000' points = '802.2,517.8 802.2,662.4 804.1,662.4 804.1,531.2 '/>
		<polygon fill = 'rgb( 31, 120, 180)' fill-opacity = '0.250000' points = '804.1,531.2 804.1,662.4 806.0,662.4 806.0,544.1 '/>
		<polygon fill = 'rgb( 31, 120, 180)' fill-opacity = '0.250000' points = '806.0,544.1 806.0,662.4 807.9,662.4 807.9,556.4 '/>
		<polygon fill = 'rgb( 31, 120, 180)' fill-opacity = '0.250000' points = '807.9,556.4 807.9,662.4 809.8,662.4 809.8,568.0 '/>
		<polygon fill = 'rgb( 31, 120, 180)' fill-opacity = '0.250000' points = '809.8,568.0 809.8,662.4 811.7,662.4 811.7,578.9 '/>
		<polygon fill = 'rgb( 31, 120, 180)' fill-opacity = '0.250000' points = '811.7,578.9 811.7,662.4 813.6,662.4 813.6,589.0 '/>
		<polygon fill = 'rgb( 31, 120, 180)' fill-opacity = '0.250000' points = '813.6,589.0 813.6,662.4 815.4,662.4 815.4,598.3 '/>
		<polygon fill = 'rgb( 31, 120, 180)' fill-opacity = '0.250000' points = '815.4,598.3 815.4,662.4 817.3,662.4 817.3,606.8 '/>
		<polygon fill = 'rgb( 31, 120, 180)' fill-opacity = '0.250000' points = '817.3,606.8 817.3,662.4 819.2,662.4 819.2,614.4 '/>
		<polygon fill = 'rgb( 31, 120, 180)' fill-opacity = '0.250000' points = '819.2,614.4 819.2,662.4 821.1,662.4 821.1,621.3 '/>
		<polygon fill = 'rgb( 31, 120, 180)' fill-opacity = '0.250000' points = '821.1,621.3 821.1,662.4 823.0,662.4 823.0,627.4 '/>
		<polygon fill = 'rgb( 31, 120, 180)' fill-opacity = '0.250000' points = '823.0,627.4 823.0,662.4 824.9,662.4 824.9,632.8 '/>
		<polygon fill = 'rgb( 31, 120, 180)' fill-opacity = '0.250000' points = '824.9,632.8 824.9,662.4 826.8,662.4 826.8,637.5 '/>
		<polygon fill = 'rgb( 31, 120, 180)' fill-opacity = '0.250000' points = '826.8,637.5 826.8,662.4 828.7,662.4 828.7,641.6 '/>
		<polygon fill = 'rgb( 31, 120, 180)' fill-opacity = '0.250000' points = '828.7,641.6 828.7,662.4 830.5,662.4 830.5,645.0 '/>
		<polygon fill = 'rgb( 31, 120, 180)' fill-opacity = '0.250000' points = '830.5,645.0 830.5,662.4 832.4,662.4 832.4,648.0 '/>
		<polygon fill = 'rgb( 31, 120, 180)' fill-opacity = '0.250000' points = '832.4,648.0 832.4,662.4 834.3,662.4 834.3,650.4 '/>
		<polygon fill = 'rgb( 31, 120, 180)' fill-opacity = '0.250000' points = '834.3,650.4 834.3,662.4 836.2,662.4 836.2,652.4 '/>
		<polygon fill = 'rgb( 31, 120, 180)' fill-opacity = '0.250000' points = '836.2,652.4 836.2,662.4 838.1,662.4 838.1,654.1 '/>
		<polygon fill = 'rgb( 31, 120, 180)' fill-opacity = '0.250000' points = '838.1,654.1 838.1,662.4 840.0,662.4 840.0,655.4 '/>
		<polygon fill = 'rgb( 31, 120, 180)' fill-opacity = '0.250000' points = '840.0,655.4 840.0,662.4 841.9,662.4 841.9,656.4 '/>
		<polygon fill = 'rgb( 31, 120, 180)' fill-opacity = '0.250000' points = '841.9,656.4 841.9,662.4 843.8,662.4 843.8,657.1 '/>
		<polygon fill = 'rgb( 31, 120, 180)' fill-opacity = '0.250000' points = '843.8,657.1 843.8,662.4 845.6,662.4 845.6,657.6 '/>
		<polygon fill = 'rgb( 31, 120, 180)' fill-opacity = '0.250000' points = '845.6,657.6 845.6,662.4 847.5,662.4 847.5,657.9 '/>
		<polygon fill = 'rgb( 31, 120, 180)' fill-opacity = '0.250000' points = '847.5,657.9 847.5,662.4 849.4,662.4 849.4,658.0 '/>
		<polygon fill = 'rgb( 31, 120, 180)' fill-opacity = '0.250000' points = '849.4,658.0 849.4,662.4 851.3,662.4 851.3,657.9 '/>
		<polygon fill = 'rgb( 31, 120, 180)' fill-opacity = '0.250000' points = '851.3,657.9 851.3,662.4 853.2,662.4 853.2,657.7 '/>
		<polygon fill = 'rgb( 31, 120, 180)' fill-opacity = '0.250000' points = '853.2,657.7 853.2,662.4 855.1,662.4 855.1,657.4 '/>
		<polygon fill = 'rgb( 31, 120, 180)' fill-opacity = '0.250000' points = '855.1,657.4 855.1,662.4 857.0,662.4 857.0,656.9 '/>
		<polygon fill = 'rgb( 31, 120, 180)' fill-opacity = '0.250000' points = '857.0,656.9 857.0,662.4 858.9,662.4 858.9,656.4 '/>
		<polygon fill = 'rgb( 31, 120, 180)' fill-opacity = '0.250000' points = '858.9,656.4 858.9,662.4 860.7,662.4 860.7,655.7 '/>
		<polygon fill = 'rgb( 31, 120, 180)' fill-opacity = '0.250000' points = '860.7,655.7 860.7,662.4 862.6,662.4 862.6,655.0 '/>
		<polygon fill = 'rgb( 31, 120, 180)' fill-opacity = '0.250000' points = '862.6,655.0 862.6,662.4 864.5,662.4 864.5,654.1 '/>
		<polygon fill = 'rgb( 31, 120, 180)' fill-opacity = '0.250000' points = '864.5,654.1 864.5,662.4 866.4,662.4 866.4,653.1 '/>
		<polygon fill = 'rgb( 31, 120, 180)' fill-opacity = '0.250000' points = '866.4,653.1 866.4,662.4 868.3,662.4 868.3,652.1 '/>
		<polygon fill = 'rgb( 31, 120, 180)' fill-opacity = '0.250000' points = '868.3,652.1 868.3,662.4 870.2,662.4 870.2,651.0 '/>
		<polygon fill = 'rgb( 31, 120, 180)' fill-opacity = '0.250000' points = '870.2,651.0 870.2,662.4 872.1,662.4 872.1,649.8 '/>
		<polygon fill = 'rgb( 31, 120, 180)' fill-opacity = '0.250000' points = '872.1,649.8 872.1,662.4 873.9,662.4 873.9,648.5 '/>
		<polygon fill = 'rgb( 31, 120, 180)' fill-opacity = '0.250000' points = '873.9,648.5 873.9,662.4 875.8,662.4 875.8,647.1 '/>
		<polygon fill = 'rgb( 31, 120, 180)' fill-opacity = '0.250000' points = '875.8,647.1 875.8,662.4 877.7,662.4 877.7,645.6 '/>
		<polygon fill = 'rgb( 31, 120, 180)' fill-opacity = '0.250000' points = '877.7,645.6 877.7,662.4 879.6,662.4 879.6,644.1 '/>
		<polygon fill = 'rgb( 31, 120, 180)' fill-opacity = '0.250000' points = '879.6,644.1 879.6,662.4 881.5,662.4 881.5,642.5 '/>
		<polygon fill = 'rgb( 31, 120, 180)' fill-opacity = '0.250000' points = '881.5,642.5 881.5,662.4 883.4,662.4 883.4,640.7 '/>
		<polygon fill = 'rgb( 31, 120, 180)' fill-opacity = '0.250000' points = '883.4,640.7 883.4,662.4 885.3,662.4 885.3,638.9 '/>
		<polygon fill = 'rgb( 31, 120, 180)' fill-opacity = '0.250000' points = '885.3,638.9 885.3,662.4 887.2,662.4 887.2,637.0 '/>
		<polygon fill = 'rgb( 31, 120, 180)' fill-opacity = '0.250000' points = '887.2,637.0 887.2,662.4 889.0,662.4 889.0,635.0 '/>
		<polygon fill = 'rgb( 31, 120, 180)' fill-opacity = '0.250000' points = '889.0,635.0 889.0,662.4 890.9,662.4 890.9,633.0 '/>
		<polygon fill = 'rgb( 31, 120, 180)' fill-opacity = '0.250000' points = '890.9,633.0 890.9,662.4 892.8,662.4 892.8,630.8 '/>
		<polygon fill = 'rgb( 31, 120, 180)' fill-opacity = '0.250000' points = '892.8,630.8 892.8,662.4 894.7,662.4 894.7,628.6 '/>
		<polygon fill = 'rgb( 31, 120, 180)' fill-opacity = '0.250000' points = '894.7,628.6 894.7,662.4 896.6,662.4 896.6,626.2 '/>
		<polygon fill = 'rgb( 31, 120, 180)' fill-opacity = '0.250000' points = '896.6,626.2 896.6,662.4 898.5,662.4 898.5,623.9 '/>
		<polygon fill = 'rgb( 31, 120, 180)' fill-opacity = '0.250000' points = '898.5,623.9 898.5,662.4 900.4,662.4 900.4,621.5 '/>
		<polygon fill = 'rgb( 31, 120, 180)' fill-opacity = '0.250000' points = '900.4,621.5 900.4,662.4 902.3,662.4 902.3,619.1 '/>
		<polygon fill = 'rgb( 31, 120, 180)' fill-opacity = '0.250000' points = '902.3,619.1 902.3,662.4 904.1,662.4 904.1,616.7 '/>
		<polygon fill = 'rgb( 31, 120, 180)' fill-opacity = '0.250000' points = '904.1,616.7 904.1,662.4 906.0,662.4 906.0,614.3 '/>
		<polygon fill = 'rgb( 31, 120, 180)' fill-opacity = '0.250000' points = '906.0,614.3 906.0,662.4 907.9,662.4 907.9,612.0 '/>
		<polygon fill = 'rgb( 31, 120, 180)' fill-opacity = '0.250000' points = '907.9,612.0 907.9,662.4 909.8,662.4 909.8,609.8 '/>
		<polygon fill = 'rgb( 31, 120, 180)' fill-opacity = '0.250000' points = '909.8,609.8 909.8,662.4 911.7,662.4 911.7,607.7 '/>
		<polygon fill = 'rgb( 31, 120, 180)' fill-opacity = '0.250000' points = '911.7,607.7 911.7,662.4 913.6,662.4 913.6,605.8 '/>
		<polygon fill = 'rgb( 31, 120, 180)' fill-opacity = '0.250000' points = '913.6,605.8 913.6,662.4 915.5,662.4 915.5,604.0 '/>
		<polygon fill = 'rgb( 31, 120, 180)' fill-opacity = '0.250000' points = '915.5,604.0 915.5,662.4 917.4,662.4 917.4,602.6 '/>
		<polygon fill = 'rgb( 31, 120, 180)' fill-opacity = '0.250000' points = '917.4,602.6 917.4,662.4 919.2,662.4 919.2,601.4 '/>
		<polygon fill = 'rgb( 31, 120, 180)' fill-opacity = '0.250000' points = '919.2,601.4 919.2,662.4 921.1,662.4 921.1,600.4 '/>
		<polygon fill = 'rgb( 31, 120, 180)' fill-opacity = '0.250000' points = '921.1,600.4 921.1,662.4 923.0,662.4 923.0,599.8 '/>
		<polygon fill = 'rgb( 31, 120, 180)' fill-opacity = '0.250000' points = '923.0,599.8 923.0,662.4 924.9,662.4 924.9,599.6 '/>
	</g>
</g>
	</g>
	<g id="gnuplot_plot_3" ><title>Point estimate</title>
<g fill="none" color="white" stroke="rgb( 31, 120, 180)" stroke-width="2.00" stroke-linecap="butt" stroke-linejoin="miter">
</g>
<g fill="none" color="black" stroke="currentColor" stroke-width="2.00" stroke-linecap="butt" stroke-linejoin="miter">
	<g transform="translate(1089.0,103.0)" stroke="none" fill="black" font-family="Helvetica" font-size="12.00"  text-anchor="start">
		<text><tspan font-family="Helvetica" >Point estimate</tspan></text>
	</g>
</g>
<g fill="none" color="black" stroke="currentColor" stroke-width="2.00" stroke-linecap="butt" stroke-linejoin="miter">
	<path stroke='rgb( 31, 120, 180)'  d='M1038.5,99.1 L1080.7,99.1 M591.6,662.4 L591.6,354.4  '/></g>
	</g>
<g fill="none" color="black" stroke="currentColor" stroke-width="2.00" stroke-linecap="butt" stroke-linejoin="miter">
</g>
<g fill="none" color="black" stroke="black" stroke-width="1.00" stroke-linecap="butt" stroke-linejoin="miter">
</g>
<g fill="none" color="black" stroke="currentColor" stroke-width="1.00" stroke-linecap="butt" stroke-linejoin="miter">
	<path stroke='black'  d='M71.9,54.1 L71.9,662.4 L1013.6,662.4 L1013.6,54.1 L71.9,54.1 Z  '/></g>
<g fill="none" color="black" stroke="currentColor" stroke-width="1.00" stroke-linecap="butt" stroke-linejoin="miter">
</g>
</g>
</svg>

