<?xml version="1.0" encoding="utf-8"  standalone="no"?>
<svg 
 viewBox="0 0 1280 720"
 xmlns="http://www.w3.org/2000/svg"
 xmlns:xlink="http://www.w3.org/1999/xlink"
>

<title>Gnuplot</title>
<desc>Produced by GNUPLOT 5.0 patchlevel 6 </desc>

<g id="gnuplot_canvas">

<rect x="0" y="0" width="1280" height="720" fill="none"/>
<defs>

	<circle id='gpDot' r='0.5' stroke-width='0.5'/>
	<path id='gpPt0' stroke-width='0.222' stroke='currentColor' d='M-1,0 h2 M0,-1 v2'/>
	<path id='gpPt1' stroke-width='0.222' stroke='currentColor' d='M-1,-1 L1,1 M1,-1 L-1,1'/>
	<path id='gpPt2' stroke-width='0.222' stroke='currentColor' d='M-1,0 L1,0 M0,-1 L0,1 M-1,-1 L1,1 M-1,1 L1,-1'/>
	<rect id='gpPt3' stroke-width='0.222' stroke='currentColor' x='-1' y='-1' width='2' height='2'/>
	<rect id='gpPt4' stroke-width='0.222' stroke='currentColor' fill='currentColor' x='-1' y='-1' width='2' height='2'/>
	<circle id='gpPt5' stroke-width='0.222' stroke='currentColor' cx='0' cy='0' r='1'/>
	<use xlink:href='#gpPt5' id='gpPt6' fill='currentColor' stroke='none'/>
	<path id='gpPt7' stroke-width='0.222' stroke='currentColor' d='M0,-1.33 L-1.33,0.67 L1.33,0.67 z'/>
	<use xlink:href='#gpPt7' id='gpPt8' fill='currentColor' stroke='none'/>
	<use xlink:href='#gpPt7' id='gpPt9' stroke='currentColor' transform='rotate(180)'/>
	<use xlink:href='#gpPt9' id='gpPt10' fill='currentColor' stroke='none'/>
	<use xlink:href='#gpPt3' id='gpPt11' stroke='currentColor' transform='rotate(45)'/>
	<use xlink:href='#gpPt11' id='gpPt12' fill='currentColor' stroke='none'/>
	<path id='gpPt13' stroke-width='0.222' stroke='currentColor' d='M0,1.330 L1.265,0.411 L0.782,-1.067 L-0.782,-1.076 L-1.265,0.411 z'/>
	<use xlink:href='#gpPt13' id='gpPt14' fill='currentColor' stroke='none'/>
	<filter id='textbox' filterUnits='objectBoundingBox' x='0' y='0' height='1' width='1'>
	  <feFlood flood-color='white' flood-opacity='1' result='bgnd'/>
	  <feComposite in='SourceGraphic' in2='bgnd' operator='atop'/>
	</filter>
	<filter id='greybox' filterUnits='objectBoundingBox' x='0' y='0' height='1' width='1'>
	  <feFlood flood-color='lightgrey' flood-opacity='1' result='grey'/>
	  <feComposite in='SourceGraphic' in2='grey' operator='atop'/>
	</filter>
</defs>
<g fill="none" color="white" stroke="currentColor" stroke-width="1.00" stroke-linecap="butt" stroke-linejoin="miter">
</g>
<g fill="none" color="black" stroke="currentColor" stroke-width="1.00" stroke-linecap="butt" stroke-linejoin="miter">
	<path stroke='black'  d='M63.6,662.4 L72.6,662.4  '/>	<g transform="translate(55.3,666.3)" stroke="none" fill="black" font-family="Helvetica" font-size="12.00"  text-anchor="end">
		<text><tspan font-family="Helvetica" > 0</tspan></text>
	</g>
</g>
<g fill="none" color="black" stroke="currentColor" stroke-width="1.00" stroke-linecap="butt" stroke-linejoin="miter">
	<path stroke='black'  d='M63.6,594.8 L72.6,594.8  '/>	<g transform="translate(55.3,598.7)" stroke="none" fill="black" font-family="Helvetica" font-size="12.00"  text-anchor="end">
		<text><tspan font-family="Helvetica" > 10</tspan></text>
	</g>
</g>
<g fill="none" color="black" stroke="currentColor" stroke-width="1.00" stroke-linecap="butt" stroke-linejoin="miter">
	<path stroke='black'  d='M63.6,527.2 L72.6,527.2  '/>	<g transform="translate(55.3,531.1)" stroke="none" fill="black" font-family="Helvetica" font-size="12.00"  text-anchor="end">
		<text><tspan font-family="Helvetica" > 20</tspan></text>
	</g>
</g>
<g fill="none" color="black" stroke="currentColor" stroke-width="1.00" stroke-linecap="butt" stroke-linejoin="miter">
	<path stroke='black'  d='M63.6,459.6 L72.6,459.6  '/>	<g transform="translate(55.3,463.5)" stroke="none" fill="black" font-family="Helvetica" font-size="12.00"  text-anchor="end">
		<text><tspan font-family="Helvetica" > 30</tspan></text>
	</g>
</g>
<g fill="none" color="black" stroke="currentColor" stroke-width="1.00" stroke-linecap="butt" stroke-linejoin="miter">
	<path stroke='black'  d='M63.6,392.0 L72.6,392.0  '/>	<g transform="translate(55.3,395.9)" stroke="none" fill="black" font-family="Helvetica" font-size="12.00"  text-anchor="end">
		<text><tspan font-family="Helvetica" > 40</tspan></text>
	</g>
</g>
<g fill="none" color="black" stroke="currentColor" stroke-width="1.00" stroke-linecap="butt" stroke-linejoin="miter">
	<path stroke='black'  d='M63.6,324.5 L72.6,324.5  '/>	<g transform="translate(55.3,328.4)" stroke="none" fill="black" font-family="Helvetica" font-size="12.00"  text-anchor="end">
		<text><tspan font-family="Helvetica" > 50</tspan></text>
	</g>
</g>
<g fill="none" color="black" stroke="currentColor" stroke-width="1.00" stroke-linecap="butt" stroke-linejoin="miter">
	<path stroke='black'  d='M63.6,256.9 L72.6,256.9  '/>	<g transform="translate(55.3,260.8)" stroke="none" fill="black" font-family="Helvetica" font-size="12.00"  text-anchor="end">
		<text><tspan font-family="Helvetica" > 60</tspan></text>
	</g>
</g>
<g fill="none" color="black" stroke="currentColor" stroke-width="1.00" stroke-linecap="butt" stroke-linejoin="miter">
	<path stroke='black'  d='M63.6,189.3 L72.6,189.3  '/>	<g transform="translate(55.3,193.2)" stroke="none" fill="black" font-family="Helvetica" font-size="12.00"  text-anchor="end">
		<text><tspan font-family="Helvetica" > 70</tspan></text>
	</g>
</g>
<g fill="none" color="black" stroke="currentColor" stroke-width="1.00" stroke-linecap="butt" stroke-linejoin="miter">
	<path stroke='black'  d='M63.6,121.7 L72.6,121.7  '/>	<g transform="translate(55.3,125.6)" stroke="none" fill="black" font-family="Helvetica" font-size="12.00"  text-anchor="end">
		<text><tspan font-family="Helvetica" > 80</tspan></text>
	</g>
</g>
<g fill="none" color="black" stroke="currentColor" stroke-width="1.00" stroke-linecap="butt" stroke-linejoin="miter">
	<path stroke='black'  d='M63.6,54.1 L72.6,54.1  '/>	<g transform="translate(55.3,58.0)" stroke="none" fill="black" font-family="Helvetica" font-size="12.00"  text-anchor="end">
		<text><tspan font-family="Helvetica" > 90</tspan></text>
	</g>
</g>
<g fill="none" color="black" stroke="currentColor" stroke-width="1.00" stroke-linecap="butt" stroke-linejoin="miter">
	<path stroke='black'  d='M215.9,662.4 L215.9,653.4  '/>	<g transform="translate(215.9,684.3)" stroke="none" fill="black" font-family="Helvetica" font-size="12.00"  text-anchor="middle">
		<text><tspan font-family="Helvetica" > 6.735</tspan></text>
	</g>
</g>
<g fill="none" color="black" stroke="currentColor" stroke-width="1.00" stroke-linecap="butt" stroke-linejoin="miter">
	<path stroke='black'  d='M438.0,662.4 L438.0,653.4  '/>	<g transform="translate(438.0,684.3)" stroke="none" fill="black" font-family="Helvetica" font-size="12.00"  text-anchor="middle">
		<text><tspan font-family="Helvetica" > 6.74</tspan></text>
	</g>
</g>
<g fill="none" color="black" stroke="currentColor" stroke-width="1.00" stroke-linecap="butt" stroke-linejoin="miter">
	<path stroke='black'  d='M660.0,662.4 L660.0,653.4  '/>	<g transform="translate(660.0,684.3)" stroke="none" fill="black" font-family="Helvetica" font-size="12.00"  text-anchor="middle">
		<text><tspan font-family="Helvetica" > 6.745</tspan></text>
	</g>
</g>
<g fill="none" color="black" stroke="currentColor" stroke-width="1.00" stroke-linecap="butt" stroke-linejoin="miter">
	<path stroke='black'  d='M882.0,662.4 L882.0,653.4  '/>	<g transform="translate(882.0,684.3)" stroke="none" fill="black" font-family="Helvetica" font-size="12.00"  text-anchor="middle">
		<text><tspan font-family="Helvetica" > 6.75</tspan></text>
	</g>
</g>
<g fill="none" color="black" stroke="currentColor" stroke-width="1.00" stroke-linecap="butt" stroke-linejoin="miter">
</g>
<g fill="none" color="black" stroke="currentColor" stroke-width="1.00" stroke-linecap="butt" stroke-linejoin="miter">
	<path stroke='black'  d='M63.6,54.1 L63.6,662.4 L1013.6,662.4 L1013.6,54.1 L63.6,54.1 Z  '/></g>
<g fill="none" color="black" stroke="currentColor" stroke-width="1.00" stroke-linecap="butt" stroke-linejoin="miter">
	<g transform="translate(17.0,358.3) rotate(270)" stroke="none" fill="black" font-family="Helvetica" font-size="12.00"  text-anchor="middle">
		<text><tspan font-family="Helvetica" >Density (a.u.)</tspan></text>
	</g>
</g>
<g fill="none" color="black" stroke="currentColor" stroke-width="1.00" stroke-linecap="butt" stroke-linejoin="miter">
	<g transform="translate(538.6,711.3)" stroke="none" fill="black" font-family="Helvetica" font-size="12.00"  text-anchor="middle">
		<text><tspan font-family="Helvetica" >Average time (ms)</tspan></text>
	</g>
</g>
<g fill="none" color="black" stroke="currentColor" stroke-width="1.00" stroke-linecap="butt" stroke-linejoin="miter">
	<g transform="translate(538.6,31.0)" stroke="none" fill="black" font-family="Helvetica" font-size="12.00"  text-anchor="middle">
		<text><tspan font-family="Helvetica" >language: rust/parse error: javascript/examples/jquery.js: mean</tspan></text>
	</g>
</g>
	<g id="gnuplot_plot_1" ><title>Bootstrap distribution</title>
<g fill="none" color="white" stroke="black" stroke-width="2.00" stroke-linecap="butt" stroke-linejoin="miter">
</g>
<g fill="none" color="black" stroke="currentColor" stroke-width="2.00" stroke-linecap="butt" stroke-linejoin="miter">
	<g transform="translate(1089.0,67.0)" stroke="none" fill="black" font-family="Helvetica" font-size="12.00"  text-anchor="start">
		<text><tspan font-family="Helvetica" >Bootstrap distribution</tspan></text>
	</g>
</g>
<g fill="none" color="black" stroke="currentColor" stroke-width="2.00" stroke-linecap="butt" stroke-linejoin="miter">
	<path stroke='rgb( 31, 120, 180)'  d='M1038.5,63.1 L1080.7,63.1 M63.6,627.3 L65.5,626.7 L67.4,626.0 L69.3,625.3 L71.2,624.6 L73.1,623.9
		L75.0,623.2 L76.9,622.5 L78.8,621.8 L80.7,621.1 L82.6,620.3 L84.5,619.6 L86.4,618.9 L88.3,618.1
		L90.3,617.3 L92.2,616.5 L94.1,615.7 L96.0,614.8 L97.9,614.0 L99.8,613.1 L101.7,612.1 L103.6,611.2
		L105.5,610.2 L107.4,609.2 L109.3,608.2 L111.2,607.1 L113.1,606.0 L115.0,604.9 L116.9,603.8 L118.8,602.6
		L120.7,601.4 L122.6,600.2 L124.5,598.9 L126.4,597.7 L128.3,596.4 L130.2,595.1 L132.1,593.8 L134.0,592.4
		L135.9,591.1 L137.8,589.7 L139.8,588.3 L141.7,586.9 L143.6,585.5 L145.5,584.1 L147.4,582.7 L149.3,581.2
		L151.2,579.8 L153.1,578.3 L155.0,576.8 L156.9,575.3 L158.8,573.8 L160.7,572.3 L162.6,570.8 L164.5,569.2
		L166.4,567.6 L168.3,566.0 L170.2,564.4 L172.1,562.7 L174.0,561.1 L175.9,559.4 L177.8,557.6 L179.7,555.8
		L181.6,554.0 L183.5,552.2 L185.4,550.3 L187.3,548.4 L189.3,546.5 L191.2,544.6 L193.1,542.6 L195.0,540.6
		L196.9,538.5 L198.8,536.5 L200.7,534.4 L202.6,532.3 L204.5,530.2 L206.4,528.0 L208.3,525.9 L210.2,523.7
		L212.1,521.5 L214.0,519.3 L215.9,517.0 L217.8,514.7 L219.7,512.4 L221.6,510.1 L223.5,507.7 L225.4,505.3
		L227.3,502.9 L229.2,500.4 L231.1,497.9 L233.0,495.4 L234.9,492.8 L236.8,490.2 L238.8,487.5 L240.7,484.9
		L242.6,482.2 L244.5,479.5 L246.4,476.8 L248.3,474.1 L250.2,471.3 L252.1,468.6 L254.0,465.9 L255.9,463.2
		L257.8,460.4 L259.7,457.7 L261.6,455.0 L263.5,452.4 L265.4,449.7 L267.3,447.0 L269.2,444.4 L271.1,441.7
		L273.0,439.1 L274.9,436.5 L276.8,433.8 L278.7,431.2 L280.6,428.6 L282.5,425.9 L284.4,423.3 L286.3,420.6
		L288.2,418.0 L290.2,415.3 L292.1,412.6 L294.0,409.9 L295.9,407.2 L297.8,404.4 L299.7,401.6 L301.6,398.8
		L303.5,396.0 L305.4,393.2 L307.3,390.3 L309.2,387.4 L311.1,384.5 L313.0,381.6 L314.9,378.6 L316.8,375.6
		L318.7,372.7 L320.6,369.6 L322.5,366.6 L324.4,363.6 L326.3,360.5 L328.2,357.4 L330.1,354.3 L332.0,351.2
		L333.9,348.1 L335.8,345.0 L337.7,341.9 L339.7,338.8 L341.6,335.7 L343.5,332.6 L345.4,329.4 L347.3,326.3
		L349.2,323.1 L351.1,320.0 L353.0,316.9 L354.9,313.7 L356.8,310.6 L358.7,307.4 L360.6,304.3 L362.5,301.1
		L364.4,298.0 L366.3,294.8 L368.2,291.7 L370.1,288.6 L372.0,285.5 L373.9,282.4 L375.8,279.3 L377.7,276.2
		L379.6,273.2 L381.5,270.2 L383.4,267.2 L385.3,264.2 L387.2,261.2 L389.2,258.3 L391.1,255.3 L393.0,252.4
		L394.9,249.5 L396.8,246.6 L398.7,243.7 L400.6,240.8 L402.5,238.0 L404.4,235.1 L406.3,232.2 L408.2,229.3
		L410.1,226.4 L412.0,223.6 L413.9,220.7 L415.8,217.8 L417.7,214.9 L419.6,212.0 L421.5,209.1 L423.4,206.2
		L425.3,203.4 L427.2,200.5 L429.1,197.6 L431.0,194.8 L432.9,191.9 L434.8,189.1 L436.7,186.2 L438.7,183.4
		L440.6,180.6 L442.5,177.8 L444.4,175.0 L446.3,172.3 L448.2,169.5 L450.1,166.7 L452.0,164.0 L453.9,161.3
		L455.8,158.5 L457.7,155.8 L459.6,153.1 L461.5,150.5 L463.4,147.8 L465.3,145.2 L467.2,142.6 L469.1,140.1
		L471.0,137.5 L472.9,135.1 L474.8,132.7 L476.7,130.3 L478.6,128.0 L480.5,125.8 L482.4,123.6 L484.3,121.5
		L486.2,119.4 L488.1,117.4 L490.1,115.5 L492.0,113.7 L493.9,111.9 L495.8,110.2 L497.7,108.5 L499.6,106.9
		L501.5,105.3 L503.4,103.8 L505.3,102.3 L507.2,100.9 L509.1,99.5 L511.0,98.1 L512.9,96.7 L514.8,95.4
		L516.7,94.0 L518.6,92.7 L520.5,91.4 L522.4,90.1 L524.3,88.8 L526.2,87.5 L528.1,86.1 L530.0,84.8
		L531.9,83.5 L533.8,82.3 L535.7,81.0 L537.6,79.8 L539.6,78.5 L541.5,77.4 L543.4,76.2 L545.3,75.2
		L547.2,74.2 L549.1,73.2 L551.0,72.4 L552.9,71.6 L554.8,70.9 L556.7,70.3 L558.6,69.8 L560.5,69.4
		L562.4,69.2 L564.3,69.0 L566.2,69.0 L568.1,69.0 L570.0,69.2 L571.9,69.5 L573.8,69.8 L575.7,70.3
		L577.6,70.8 L579.5,71.4 L581.4,72.1 L583.3,72.8 L585.2,73.6 L587.1,74.4 L589.1,75.3 L591.0,76.1
		L592.9,77.0 L594.8,77.9 L596.7,78.8 L598.6,79.7 L600.5,80.6 L602.4,81.6 L604.3,82.5 L606.2,83.5
		L608.1,84.4 L610.0,85.4 L611.9,86.4 L613.8,87.4 L615.7,88.5 L617.6,89.5 L619.5,90.7 L621.4,91.8
		L623.3,93.0 L625.2,94.3 L627.1,95.6 L629.0,96.9 L630.9,98.3 L632.8,99.8 L634.7,101.3 L636.6,102.8
		L638.5,104.4 L640.5,106.0 L642.4,107.7 L644.3,109.5 L646.2,111.3 L648.1,113.1 L650.0,115.1 L651.9,117.0
		L653.8,119.1 L655.7,121.2 L657.6,123.3 L659.5,125.6 L661.4,127.9 L663.3,130.2 L665.2,132.6 L667.1,135.1
		L669.0,137.7 L670.9,140.3 L672.8,142.9 L674.7,145.6 L676.6,148.4 L678.5,151.1 L680.4,153.9 L682.3,156.8
		L684.2,159.6 L686.1,162.4 L688.0,165.3 L690.0,168.1 L691.9,171.0 L693.8,173.8 L695.7,176.6 L697.6,179.5
		L699.5,182.3 L701.4,185.1 L703.3,187.9 L705.2,190.6 L707.1,193.4 L709.0,196.2 L710.9,198.9 L712.8,201.7
		L714.7,204.5 L716.6,207.3 L718.5,210.2 L720.4,213.0 L722.3,215.9 L724.2,218.8 L726.1,221.8 L728.0,224.8
		L729.9,227.8 L731.8,230.9 L733.7,234.1 L735.6,237.3 L737.5,240.5 L739.5,243.8 L741.4,247.1 L743.3,250.5
		L745.2,253.9 L747.1,257.3 L749.0,260.7 L750.9,264.2 L752.8,267.7 L754.7,271.2 L756.6,274.7 L758.5,278.1
		L760.4,281.6 L762.3,285.1 L764.2,288.6 L766.1,292.1 L768.0,295.6 L769.9,299.0 L771.8,302.5 L773.7,306.0
		L775.6,309.4 L777.5,312.9 L779.4,316.4 L781.3,320.0 L783.2,323.5 L785.1,327.1 L787.0,330.6 L789.0,334.3
		L790.9,337.9 L792.8,341.6 L794.7,345.3 L796.6,349.1 L798.5,352.9 L800.4,356.7 L802.3,360.5 L804.2,364.4
		L806.1,368.3 L808.0,372.2 L809.9,376.1 L811.8,380.0 L813.7,384.0 L815.6,387.9 L817.5,391.8 L819.4,395.7
		L821.3,399.6 L823.2,403.4 L825.1,407.2 L827.0,411.0 L828.9,414.8 L830.8,418.4 L832.7,422.1 L834.6,425.7
		L836.5,429.2 L838.4,432.7 L840.4,436.1 L842.3,439.5 L844.2,442.8 L846.1,446.0 L848.0,449.2 L849.9,452.3
		L851.8,455.4 L853.7,458.4 L855.6,461.3 L857.5,464.2 L859.4,467.0 L861.3,469.9 L863.2,472.7 L865.1,475.4
		L867.0,478.1 L868.9,480.9 L870.8,483.6 L872.7,486.2 L874.6,488.9 L876.5,491.6 L878.4,494.2 L880.3,496.9
		L882.2,499.5 L884.1,502.2 L886.0,504.8 L887.9,507.4 L889.9,509.9 L891.8,512.5 L893.7,515.1 L895.6,517.6
		L897.5,520.1 L899.4,522.6 L901.3,525.0 L903.2,527.4 L905.1,529.8 L907.0,532.2 L908.9,534.6 L910.8,537.0
		L912.7,539.3 L914.6,541.6 L916.5,543.9 L918.4,546.3 L920.3,548.6 L922.2,550.9 L924.1,553.1 L926.0,555.4
		L927.9,557.7 L929.8,559.9 L931.7,562.1 L933.6,564.4 L935.5,566.5 L937.4,568.7 L939.4,570.8 L941.3,572.9
		L943.2,575.0 L945.1,577.0 L947.0,578.9 L948.9,580.9 L950.8,582.7 L952.7,584.5 L954.6,586.3 L956.5,588.0
		L958.4,589.7 L960.3,591.4 L962.2,593.0 L964.1,594.5 L966.0,596.0 L967.9,597.5 L969.8,599.0 L971.7,600.4
		L973.6,601.8 L975.5,603.2 L977.4,604.5 L979.3,605.9 L981.2,607.2 L983.1,608.4 L985.0,609.7 L986.9,611.0
		L988.9,612.2 L990.8,613.4 L992.7,614.6 L994.6,615.8 L996.5,616.9 L998.4,618.0 L1000.3,619.2 L1002.2,620.2
		L1004.1,621.3 L1006.0,622.4 L1007.9,623.4 L1009.8,624.4 L1011.7,625.4 L1013.6,626.3  '/></g>
	</g>
	<g id="gnuplot_plot_2" ><title>Confidence interval</title>
<g fill="none" color="white" stroke="rgb( 31, 120, 180)" stroke-width="1.00" stroke-linecap="butt" stroke-linejoin="miter">
</g>
<g fill="none" color="black" stroke="currentColor" stroke-width="1.00" stroke-linecap="butt" stroke-linejoin="miter">
	<g transform="translate(1089.0,85.0)" stroke="none" fill="black" font-family="Helvetica" font-size="12.00"  text-anchor="start">
		<text><tspan font-family="Helvetica" >Confidence interval</tspan></text>
	</g>
</g>
<g fill="none" color="black" stroke="currentColor" stroke-width="1.00" stroke-linecap="butt" stroke-linejoin="miter">
	<g stroke='none' shape-rendering='crispEdges'>
		<polygon fill = 'rgb( 31, 120, 180)' fill-opacity = '0.250000' points = '1038.5,85.6 1080.7,85.6 1080.7,76.6 1038.5,76.6 '/>
		<polygon fill = 'rgb( 31, 120, 180)' fill-opacity = '0.250000' points = '151.2,579.8 151.2,662.4 153.1,662.4 153.1,578.3 '/>
		<polygon fill = 'rgb( 31, 120, 180)' fill-opacity = '0.250000' points = '153.1,578.3 153.1,662.4 155.0,662.4 155.0,576.8 '/>
		<polygon fill = 'rgb( 31, 120, 180)' fill-opacity = '0.250000' points = '155.0,576.8 155.0,662.4 156.9,662.4 156.9,575.3 '/>
		<polygon fill = 'rgb( 31, 120, 180)' fill-opacity = '0.250000' points = '156.9,575.3 156.9,662.4 158.8,662.4 158.8,573.8 '/>
		<polygon fill = 'rgb( 31, 120, 180)' fill-opacity = '0.250000' points = '158.8,573.8 158.8,662.4 160.7,662.4 160.7,572.3 '/>
		<polygon fill = 'rgb( 31, 120, 180)' fill-opacity = '0.250000' points = '160.7,572.3 160.7,662.4 162.6,662.4 162.6,570.8 '/>
		<polygon fill = 'rgb( 31, 120, 180)' fill-opacity = '0.250000' points = '162.6,570.8 162.6,662.4 164.5,662.4 164.5,569.2 '/>
		<polygon fill = 'rgb( 31, 120, 180)' fill-opacity = '0.250000' points = '164.5,569.2 164.5,662.4 166.4,662.4 166.4,567.6 '/>
		<polygon fill = 'rgb( 31, 120, 180)' fill-opacity = '0.250000' points = '166.4,567.6 166.4,662.4 168.3,662.4 168.3,566.0 '/>
		<polygon fill = 'rgb( 31, 120, 180)' fill-opacity = '0.250000' points = '168.3,566.0 168.3,662.4 170.2,662.4 170.2,564.4 '/>
		<polygon fill = 'rgb( 31, 120, 180)' fill-opacity = '0.250000' points = '170.2,564.4 170.2,662.4 172.1,662.4 172.1,562.7 '/>
		<polygon fill = 'rgb( 31, 120, 180)' fill-opacity = '0.250000' points = '172.1,562.7 172.1,662.4 174.0,662.4 174.0,561.1 '/>
		<polygon fill = 'rgb( 31, 120, 180)' fill-opacity = '0.250000' points = '174.0,561.1 174.0,662.4 175.9,662.4 175.9,559.4 '/>
		<polygon fill = 'rgb( 31, 120, 180)' fill-opacity = '0.250000' points = '175.9,559.4 175.9,662.4 177.8,662.4 177.8,557.6 '/>
		<polygon fill = 'rgb( 31, 120, 180)' fill-opacity = '0.250000' points = '177.8,557.6 177.8,662.4 179.7,662.4 179.7,555.8 '/>
		<polygon fill = 'rgb( 31, 120, 180)' fill-opacity = '0.250000' points = '179.7,555.8 179.7,662.4 181.6,662.4 181.6,554.0 '/>
		<polygon fill = 'rgb( 31, 120, 180)' fill-opacity = '0.250000' points = '181.6,554.0 181.6,662.4 183.5,662.4 183.5,552.2 '/>
		<polygon fill = 'rgb( 31, 120, 180)' fill-opacity = '0.250000' points = '183.5,552.2 183.5,662.4 185.4,662.4 185.4,550.3 '/>
		<polygon fill = 'rgb( 31, 120, 180)' fill-opacity = '0.250000' points = '185.4,550.3 185.4,662.4 187.3,662.4 187.3,548.4 '/>
		<polygon fill = 'rgb( 31, 120, 180)' fill-opacity = '0.250000' points = '187.3,548.4 187.3,662.4 189.3,662.4 189.3,546.5 '/>
		<polygon fill = 'rgb( 31, 120, 180)' fill-opacity = '0.250000' points = '189.3,546.5 189.3,662.4 191.2,662.4 191.2,544.6 '/>
		<polygon fill = 'rgb( 31, 120, 180)' fill-opacity = '0.250000' points = '191.2,544.6 191.2,662.4 193.1,662.4 193.1,542.6 '/>
		<polygon fill = 'rgb( 31, 120, 180)' fill-opacity = '0.250000' points = '193.1,542.6 193.1,662.4 195.0,662.4 195.0,540.6 '/>
		<polygon fill = 'rgb( 31, 120, 180)' fill-opacity = '0.250000' points = '195.0,540.6 195.0,662.4 196.9,662.4 196.9,538.5 '/>
		<polygon fill = 'rgb( 31, 120, 180)' fill-opacity = '0.250000' points = '196.9,538.5 196.9,662.4 198.8,662.4 198.8,536.5 '/>
		<polygon fill = 'rgb( 31, 120, 180)' fill-opacity = '0.250000' points = '198.8,536.5 198.8,662.4 200.7,662.4 200.7,534.4 '/>
		<polygon fill = 'rgb( 31, 120, 180)' fill-opacity = '0.250000' points = '200.7,534.4 200.7,662.4 202.6,662.4 202.6,532.3 '/>
		<polygon fill = 'rgb( 31, 120, 180)' fill-opacity = '0.250000' points = '202.6,532.3 202.6,662.4 204.5,662.4 204.5,530.2 '/>
		<polygon fill = 'rgb( 31, 120, 180)' fill-opacity = '0.250000' points = '204.5,530.2 204.5,662.4 206.4,662.4 206.4,528.0 '/>
		<polygon fill = 'rgb( 31, 120, 180)' fill-opacity = '0.250000' points = '206.4,528.0 206.4,662.4 208.3,662.4 208.3,525.9 '/>
		<polygon fill = 'rgb( 31, 120, 180)' fill-opacity = '0.250000' points = '208.3,525.9 208.3,662.4 210.2,662.4 210.2,523.7 '/>
		<polygon fill = 'rgb( 31, 120, 180)' fill-opacity = '0.250000' points = '210.2,523.7 210.2,662.4 212.1,662.4 212.1,521.5 '/>
		<polygon fill = 'rgb( 31, 120, 180)' fill-opacity = '0.250000' points = '212.1,521.5 212.1,662.4 214.0,662.4 214.0,519.3 '/>
		<polygon fill = 'rgb( 31, 120, 180)' fill-opacity = '0.250000' points = '214.0,519.3 214.0,662.4 215.9,662.4 215.9,517.0 '/>
		<polygon fill = 'rgb( 31, 120, 180)' fill-opacity = '0.250000' points = '215.9,517.0 215.9,662.4 217.8,662.4 217.8,514.7 '/>
		<polygon fill = 'rgb( 31, 120, 180)' fill-opacity = '0.250000' points = '217.8,514.7 217.8,662.4 219.7,662.4 219.7,512.4 '/>
		<polygon fill = 'rgb( 31, 120, 180)' fill-opacity = '0.250000' points = '219.7,512.4 219.7,662.4 221.6,662.4 221.6,510.1 '/>
		<polygon fill = 'rgb( 31, 120, 180)' fill-opacity = '0.250000' points = '221.6,510.1 221.6,662.4 223.5,662.4 223.5,507.7 '/>
		<polygon fill = 'rgb( 31, 120, 180)' fill-opacity = '0.250000' points = '223.5,507.7 223.5,662.4 225.4,662.4 225.4,505.3 '/>
		<polygon fill = 'rgb( 31, 120, 180)' fill-opacity = '0.250000' points = '225.4,505.3 225.4,662.4 227.3,662.4 227.3,502.9 '/>
		<polygon fill = 'rgb( 31, 120, 180)' fill-opacity = '0.250000' points = '227.3,502.9 227.3,662.4 229.2,662.4 229.2,500.4 '/>
		<polygon fill = 'rgb( 31, 120, 180)' fill-opacity = '0.250000' points = '229.2,500.4 229.2,662.4 231.1,662.4 231.1,497.9 '/>
		<polygon fill = 'rgb( 31, 120, 180)' fill-opacity = '0.250000' points = '231.1,497.9 231.1,662.4 233.0,662.4 233.0,495.4 '/>
		<polygon fill = 'rgb( 31, 120, 180)' fill-opacity = '0.250000' points = '233.0,495.4 233.0,662.4 234.9,662.4 234.9,492.8 '/>
		<polygon fill = 'rgb( 31, 120, 180)' fill-opacity = '0.250000' points = '234.9,492.8 234.9,662.4 236.8,662.4 236.8,490.2 '/>
		<polygon fill = 'rgb( 31, 120, 180)' fill-opacity = '0.250000' points = '236.8,490.2 236.8,662.4 238.8,662.4 238.8,487.5 '/>
		<polygon fill = 'rgb( 31, 120, 180)' fill-opacity = '0.250000' points = '238.8,487.5 238.8,662.4 240.7,662.4 240.7,484.9 '/>
		<polygon fill = 'rgb( 31, 120, 180)' fill-opacity = '0.250000' points = '240.7,484.9 240.7,662.4 242.6,662.4 242.6,482.2 '/>
		<polygon fill = 'rgb( 31, 120, 180)' fill-opacity = '0.250000' points = '242.6,482.2 242.6,662.4 244.5,662.4 244.5,479.5 '/>
		<polygon fill = 'rgb( 31, 120, 180)' fill-opacity = '0.250000' points = '244.5,479.5 244.5,662.4 246.4,662.4 246.4,476.8 '/>
		<polygon fill = 'rgb( 31, 120, 180)' fill-opacity = '0.250000' points = '246.4,476.8 246.4,662.4 248.3,662.4 248.3,474.1 '/>
		<polygon fill = 'rgb( 31, 120, 180)' fill-opacity = '0.250000' points = '248.3,474.1 248.3,662.4 250.2,662.4 250.2,471.3 '/>
		<polygon fill = 'rgb( 31, 120, 180)' fill-opacity = '0.250000' points = '250.2,471.3 250.2,662.4 252.1,662.4 252.1,468.6 '/>
		<polygon fill = 'rgb( 31, 120, 180)' fill-opacity = '0.250000' points = '252.1,468.6 252.1,662.4 254.0,662.4 254.0,465.9 '/>
		<polygon fill = 'rgb( 31, 120, 180)' fill-opacity = '0.250000' points = '254.0,465.9 254.0,662.4 255.9,662.4 255.9,463.2 '/>
		<polygon fill = 'rgb( 31, 120, 180)' fill-opacity = '0.250000' points = '255.9,463.2 255.9,662.4 257.8,662.4 257.8,460.4 '/>
		<polygon fill = 'rgb( 31, 120, 180)' fill-opacity = '0.250000' points = '257.8,460.4 257.8,662.4 259.7,662.4 259.7,457.7 '/>
		<polygon fill = 'rgb( 31, 120, 180)' fill-opacity = '0.250000' points = '259.7,457.7 259.7,662.4 261.6,662.4 261.6,455.0 '/>
		<polygon fill = 'rgb( 31, 120, 180)' fill-opacity = '0.250000' points = '261.6,455.0 261.6,662.4 263.5,662.4 263.5,452.4 '/>
		<polygon fill = 'rgb( 31, 120, 180)' fill-opacity = '0.250000' points = '263.5,452.4 263.5,662.4 265.4,662.4 265.4,449.7 '/>
		<polygon fill = 'rgb( 31, 120, 180)' fill-opacity = '0.250000' points = '265.4,449.7 265.4,662.4 267.3,662.4 267.3,447.0 '/>
		<polygon fill = 'rgb( 31, 120, 180)' fill-opacity = '0.250000' points = '267.3,447.0 267.3,662.4 269.2,662.4 269.2,444.4 '/>
		<polygon fill = 'rgb( 31, 120, 180)' fill-opacity = '0.250000' points = '269.2,444.4 269.2,662.4 271.1,662.4 271.1,441.7 '/>
		<polygon fill = 'rgb( 31, 120, 180)' fill-opacity = '0.250000' points = '271.1,441.7 271.1,662.4 273.0,662.4 273.0,439.1 '/>
		<polygon fill = 'rgb( 31, 120, 180)' fill-opacity = '0.250000' points = '273.0,439.1 273.0,662.4 274.9,662.4 274.9,436.5 '/>
		<polygon fill = 'rgb( 31, 120, 180)' fill-opacity = '0.250000' points = '274.9,436.5 274.9,662.4 276.8,662.4 276.8,433.8 '/>
		<polygon fill = 'rgb( 31, 120, 180)' fill-opacity = '0.250000' points = '276.8,433.8 276.8,662.4 278.7,662.4 278.7,431.2 '/>
		<polygon fill = 'rgb( 31, 120, 180)' fill-opacity = '0.250000' points = '278.7,431.2 278.7,662.4 280.6,662.4 280.6,428.6 '/>
		<polygon fill = 'rgb( 31, 120, 180)' fill-opacity = '0.250000' points = '280.6,428.6 280.6,662.4 282.5,662.4 282.5,425.9 '/>
		<polygon fill = 'rgb( 31, 120, 180)' fill-opacity = '0.250000' points = '282.5,425.9 282.5,662.4 284.4,662.4 284.4,423.3 '/>
		<polygon fill = 'rgb( 31, 120, 180)' fill-opacity = '0.250000' points = '284.4,423.3 284.4,662.4 286.3,662.4 286.3,420.6 '/>
		<polygon fill = 'rgb( 31, 120, 180)' fill-opacity = '0.250000' points = '286.3,420.6 286.3,662.4 288.2,662.4 288.2,418.0 '/>
		<polygon fill = 'rgb( 31, 120, 180)' fill-opacity = '0.250000' points = '288.2,418.0 288.2,662.4 290.2,662.4 290.2,415.3 '/>
		<polygon fill = 'rgb( 31, 120, 180)' fill-opacity = '0.250000' points = '290.2,415.3 290.2,662.4 292.1,662.4 292.1,412.6 '/>
		<polygon fill = 'rgb( 31, 120, 180)' fill-opacity = '0.250000' points = '292.1,412.6 292.1,662.4 294.0,662.4 294.0,409.9 '/>
		<polygon fill = 'rgb( 31, 120, 180)' fill-opacity = '0.250000' points = '294.0,409.9 294.0,662.4 295.9,662.4 295.9,407.2 '/>
		<polygon fill = 'rgb( 31, 120, 180)' fill-opacity = '0.250000' points = '295.9,407.2 295.9,662.4 297.8,662.4 297.8,404.4 '/>
		<polygon fill = 'rgb( 31, 120, 180)' fill-opacity = '0.250000' points = '297.8,404.4 297.8,662.4 299.7,662.4 299.7,401.6 '/>
		<polygon fill = 'rgb( 31, 120, 180)' fill-opacity = '0.250000' points = '299.7,401.6 299.7,662.4 301.6,662.4 301.6,398.8 '/>
		<polygon fill = 'rgb( 31, 120, 180)' fill-opacity = '0.250000' points = '301.6,398.8 301.6,662.4 303.5,662.4 303.5,396.0 '/>
		<polygon fill = 'rgb( 31, 120, 180)' fill-opacity = '0.250000' points = '303.5,396.0 303.5,662.4 305.4,662.4 305.4,393.2 '/>
		<polygon fill = 'rgb( 31, 120, 180)' fill-opacity = '0.250000' points = '305.4,393.2 305.4,662.4 307.3,662.4 307.3,390.3 '/>
		<polygon fill = 'rgb( 31, 120, 180)' fill-opacity = '0.250000' points = '307.3,390.3 307.3,662.4 309.2,662.4 309.2,387.4 '/>
		<polygon fill = 'rgb( 31, 120, 180)' fill-opacity = '0.250000' points = '309.2,387.4 309.2,662.4 311.1,662.4 311.1,384.5 '/>
		<polygon fill = 'rgb( 31, 120, 180)' fill-opacity = '0.250000' points = '311.1,384.5 311.1,662.4 313.0,662.4 313.0,381.6 '/>
		<polygon fill = 'rgb( 31, 120, 180)' fill-opacity = '0.250000' points = '313.0,381.6 313.0,662.4 314.9,662.4 314.9,378.6 '/>
		<polygon fill = 'rgb( 31, 120, 180)' fill-opacity = '0.250000' points = '314.9,378.6 314.9,662.4 316.8,662.4 316.8,375.6 '/>
		<polygon fill = 'rgb( 31, 120, 180)' fill-opacity = '0.250000' points = '316.8,375.6 316.8,662.4 318.7,662.4 318.7,372.7 '/>
		<polygon fill = 'rgb( 31, 120, 180)' fill-opacity = '0.250000' points = '318.7,372.7 318.7,662.4 320.6,662.4 320.6,369.6 '/>
		<polygon fill = 'rgb( 31, 120, 180)' fill-opacity = '0.250000' points = '320.6,369.6 320.6,662.4 322.5,662.4 322.5,366.6 '/>
		<polygon fill = 'rgb( 31, 120, 180)' fill-opacity = '0.250000' points = '322.5,366.6 322.5,662.4 324.4,662.4 324.4,363.6 '/>
		<polygon fill = 'rgb( 31, 120, 180)' fill-opacity = '0.250000' points = '324.4,363.6 324.4,662.4 326.3,662.4 326.3,360.5 '/>
		<polygon fill = 'rgb( 31, 120, 180)' fill-opacity = '0.250000' points = '326.3,360.5 326.3,662.4 328.2,662.4 328.2,357.4 '/>
		<polygon fill = 'rgb( 31, 120, 180)' fill-opacity = '0.250000' points = '328.2,357.4 328.2,662.4 330.1,662.4 330.1,354.3 '/>
		<polygon fill = 'rgb( 31, 120, 180)' fill-opacity = '0.250000' points = '330.1,354.3 330.1,662.4 332.0,662.4 332.0,351.2 '/>
		<polygon fill = 'rgb( 31, 120, 180)' fill-opacity = '0.250000' points = '332.0,351.2 332.0,662.4 333.9,662.4 333.9,348.1 '/>
		<polygon fill = 'rgb( 31, 120, 180)' fill-opacity = '0.250000' points = '333.9,348.1 333.9,662.4 335.8,662.4 335.8,345.0 '/>
		<polygon fill = 'rgb( 31, 120, 180)' fill-opacity = '0.250000' points = '335.8,345.0 335.8,662.4 337.7,662.4 337.7,341.9 '/>
		<polygon fill = 'rgb( 31, 120, 180)' fill-opacity = '0.250000' points = '337.7,341.9 337.7,662.4 339.7,662.4 339.7,338.8 '/>
		<polygon fill = 'rgb( 31, 120, 180)' fill-opacity = '0.250000' points = '339.7,338.8 339.7,662.4 341.6,662.4 341.6,335.7 '/>
		<polygon fill = 'rgb( 31, 120, 180)' fill-opacity = '0.250000' points = '341.6,335.7 341.6,662.4 343.5,662.4 343.5,332.6 '/>
		<polygon fill = 'rgb( 31, 120, 180)' fill-opacity = '0.250000' points = '343.5,332.6 343.5,662.4 345.4,662.4 345.4,329.4 '/>
		<polygon fill = 'rgb( 31, 120, 180)' fill-opacity = '0.250000' points = '345.4,329.4 345.4,662.4 347.3,662.4 347.3,326.3 '/>
		<polygon fill = 'rgb( 31, 120, 180)' fill-opacity = '0.250000' points = '347.3,326.3 347.3,662.4 349.2,662.4 349.2,323.1 '/>
		<polygon fill = 'rgb( 31, 120, 180)' fill-opacity = '0.250000' points = '349.2,323.1 349.2,662.4 351.1,662.4 351.1,320.0 '/>
		<polygon fill = 'rgb( 31, 120, 180)' fill-opacity = '0.250000' points = '351.1,320.0 351.1,662.4 353.0,662.4 353.0,316.9 '/>
		<polygon fill = 'rgb( 31, 120, 180)' fill-opacity = '0.250000' points = '353.0,316.9 353.0,662.4 354.9,662.4 354.9,313.7 '/>
		<polygon fill = 'rgb( 31, 120, 180)' fill-opacity = '0.250000' points = '354.9,313.7 354.9,662.4 356.8,662.4 356.8,310.6 '/>
		<polygon fill = 'rgb( 31, 120, 180)' fill-opacity = '0.250000' points = '356.8,310.6 356.8,662.4 358.7,662.4 358.7,307.4 '/>
		<polygon fill = 'rgb( 31, 120, 180)' fill-opacity = '0.250000' points = '358.7,307.4 358.7,662.4 360.6,662.4 360.6,304.3 '/>
		<polygon fill = 'rgb( 31, 120, 180)' fill-opacity = '0.250000' points = '360.6,304.3 360.6,662.4 362.5,662.4 362.5,301.1 '/>
		<polygon fill = 'rgb( 31, 120, 180)' fill-opacity = '0.250000' points = '362.5,301.1 362.5,662.4 364.4,662.4 364.4,298.0 '/>
		<polygon fill = 'rgb( 31, 120, 180)' fill-opacity = '0.250000' points = '364.4,298.0 364.4,662.4 366.3,662.4 366.3,294.8 '/>
		<polygon fill = 'rgb( 31, 120, 180)' fill-opacity = '0.250000' points = '366.3,294.8 366.3,662.4 368.2,662.4 368.2,291.7 '/>
		<polygon fill = 'rgb( 31, 120, 180)' fill-opacity = '0.250000' points = '368.2,291.7 368.2,662.4 370.1,662.4 370.1,288.6 '/>
		<polygon fill = 'rgb( 31, 120, 180)' fill-opacity = '0.250000' points = '370.1,288.6 370.1,662.4 372.0,662.4 372.0,285.5 '/>
		<polygon fill = 'rgb( 31, 120, 180)' fill-opacity = '0.250000' points = '372.0,285.5 372.0,662.4 373.9,662.4 373.9,282.4 '/>
		<polygon fill = 'rgb( 31, 120, 180)' fill-opacity = '0.250000' points = '373.9,282.4 373.9,662.4 375.8,662.4 375.8,279.3 '/>
		<polygon fill = 'rgb( 31, 120, 180)' fill-opacity = '0.250000' points = '375.8,279.3 375.8,662.4 377.7,662.4 377.7,276.2 '/>
		<polygon fill = 'rgb( 31, 120, 180)' fill-opacity = '0.250000' points = '377.7,276.2 377.7,662.4 379.6,662.4 379.6,273.2 '/>
		<polygon fill = 'rgb( 31, 120, 180)' fill-opacity = '0.250000' points = '379.6,273.2 379.6,662.4 381.5,662.4 381.5,270.2 '/>
		<polygon fill = 'rgb( 31, 120, 180)' fill-opacity = '0.250000' points = '381.5,270.2 381.5,662.4 383.4,662.4 383.4,267.2 '/>
		<polygon fill = 'rgb( 31, 120, 180)' fill-opacity = '0.250000' points = '383.4,267.2 383.4,662.4 385.3,662.4 385.3,264.2 '/>
		<polygon fill = 'rgb( 31, 120, 180)' fill-opacity = '0.250000' points = '385.3,264.2 385.3,662.4 387.2,662.4 387.2,261.2 '/>
		<polygon fill = 'rgb( 31, 120, 180)' fill-opacity = '0.250000' points = '387.2,261.2 387.2,662.4 389.2,662.4 389.2,258.3 '/>
		<polygon fill = 'rgb( 31, 120, 180)' fill-opacity = '0.250000' points = '389.2,258.3 389.2,662.4 391.1,662.4 391.1,255.3 '/>
		<polygon fill = 'rgb( 31, 120, 180)' fill-opacity = '0.250000' points = '391.1,255.3 391.1,662.4 393.0,662.4 393.0,252.4 '/>
		<polygon fill = 'rgb( 31, 120, 180)' fill-opacity = '0.250000' points = '393.0,252.4 393.0,662.4 394.9,662.4 394.9,249.5 '/>
		<polygon fill = 'rgb( 31, 120, 180)' fill-opacity = '0.250000' points = '394.9,249.5 394.9,662.4 396.8,662.4 396.8,246.6 '/>
		<polygon fill = 'rgb( 31, 120, 180)' fill-opacity = '0.250000' points = '396.8,246.6 396.8,662.4 398.7,662.4 398.7,243.7 '/>
		<polygon fill = 'rgb( 31, 120, 180)' fill-opacity = '0.250000' points = '398.7,243.7 398.7,662.4 400.6,662.4 400.6,240.8 '/>
		<polygon fill = 'rgb( 31, 120, 180)' fill-opacity = '0.250000' points = '400.6,240.8 400.6,662.4 402.5,662.4 402.5,238.0 '/>
		<polygon fill = 'rgb( 31, 120, 180)' fill-opacity = '0.250000' points = '402.5,238.0 402.5,662.4 404.4,662.4 404.4,235.1 '/>
		<polygon fill = 'rgb( 31, 120, 180)' fill-opacity = '0.250000' points = '404.4,235.1 404.4,662.4 406.3,662.4 406.3,232.2 '/>
		<polygon fill = 'rgb( 31, 120, 180)' fill-opacity = '0.250000' points = '406.3,232.2 406.3,662.4 408.2,662.4 408.2,229.3 '/>
		<polygon fill = 'rgb( 31, 120, 180)' fill-opacity = '0.250000' points = '408.2,229.3 408.2,662.4 410.1,662.4 410.1,226.4 '/>
		<polygon fill = 'rgb( 31, 120, 180)' fill-opacity = '0.250000' points = '410.1,226.4 410.1,662.4 412.0,662.4 412.0,223.6 '/>
		<polygon fill = 'rgb( 31, 120, 180)' fill-opacity = '0.250000' points = '412.0,223.6 412.0,662.4 413.9,662.4 413.9,220.7 '/>
		<polygon fill = 'rgb( 31, 120, 180)' fill-opacity = '0.250000' points = '413.9,220.7 413.9,662.4 415.8,662.4 415.8,217.8 '/>
		<polygon fill = 'rgb( 31, 120, 180)' fill-opacity = '0.250000' points = '415.8,217.8 415.8,662.4 417.7,662.4 417.7,214.9 '/>
		<polygon fill = 'rgb( 31, 120, 180)' fill-opacity = '0.250000' points = '417.7,214.9 417.7,662.4 419.6,662.4 419.6,212.0 '/>
		<polygon fill = 'rgb( 31, 120, 180)' fill-opacity = '0.250000' points = '419.6,212.0 419.6,662.4 421.5,662.4 421.5,209.1 '/>
		<polygon fill = 'rgb( 31, 120, 180)' fill-opacity = '0.250000' points = '421.5,209.1 421.5,662.4 423.4,662.4 423.4,206.2 '/>
		<polygon fill = 'rgb( 31, 120, 180)' fill-opacity = '0.250000' points = '423.4,206.2 423.4,662.4 425.3,662.4 425.3,203.4 '/>
		<polygon fill = 'rgb( 31, 120, 180)' fill-opacity = '0.250000' points = '425.3,203.4 425.3,662.4 427.2,662.4 427.2,200.5 '/>
		<polygon fill = 'rgb( 31, 120, 180)' fill-opacity = '0.250000' points = '427.2,200.5 427.2,662.4 429.1,662.4 429.1,197.6 '/>
		<polygon fill = 'rgb( 31, 120, 180)' fill-opacity = '0.250000' points = '429.1,197.6 429.1,662.4 431.0,662.4 431.0,194.8 '/>
		<polygon fill = 'rgb( 31, 120, 180)' fill-opacity = '0.250000' points = '431.0,194.8 431.0,662.4 432.9,662.4 432.9,191.9 '/>
		<polygon fill = 'rgb( 31, 120, 180)' fill-opacity = '0.250000' points = '432.9,191.9 432.9,662.4 434.8,662.4 434.8,189.1 '/>
		<polygon fill = 'rgb( 31, 120, 180)' fill-opacity = '0.250000' points = '434.8,189.1 434.8,662.4 436.7,662.4 436.7,186.2 '/>
		<polygon fill = 'rgb( 31, 120, 180)' fill-opacity = '0.250000' points = '436.7,186.2 436.7,662.4 438.7,662.4 438.7,183.4 '/>
		<polygon fill = 'rgb( 31, 120, 180)' fill-opacity = '0.250000' points = '438.7,183.4 438.7,662.4 440.6,662.4 440.6,180.6 '/>
		<polygon fill = 'rgb( 31, 120, 180)' fill-opacity = '0.250000' points = '440.6,180.6 440.6,662.4 442.5,662.4 442.5,177.8 '/>
		<polygon fill = 'rgb( 31, 120, 180)' fill-opacity = '0.250000' points = '442.5,177.8 442.5,662.4 444.4,662.4 444.4,175.0 '/>
		<polygon fill = 'rgb( 31, 120, 180)' fill-opacity = '0.250000' points = '444.4,175.0 444.4,662.4 446.3,662.4 446.3,172.3 '/>
		<polygon fill = 'rgb( 31, 120, 180)' fill-opacity = '0.250000' points = '446.3,172.3 446.3,662.4 448.2,662.4 448.2,169.5 '/>
		<polygon fill = 'rgb( 31, 120, 180)' fill-opacity = '0.250000' points = '448.2,169.5 448.2,662.4 450.1,662.4 450.1,166.7 '/>
		<polygon fill = 'rgb( 31, 120, 180)' fill-opacity = '0.250000' points = '450.1,166.7 450.1,662.4 452.0,662.4 452.0,164.0 '/>
		<polygon fill = 'rgb( 31, 120, 180)' fill-opacity = '0.250000' points = '452.0,164.0 452.0,662.4 453.9,662.4 453.9,161.3 '/>
		<polygon fill = 'rgb( 31, 120, 180)' fill-opacity = '0.250000' points = '453.9,161.3 453.9,662.4 455.8,662.4 455.8,158.5 '/>
		<polygon fill = 'rgb( 31, 120, 180)' fill-opacity = '0.250000' points = '455.8,158.5 455.8,662.4 457.7,662.4 457.7,155.8 '/>
		<polygon fill = 'rgb( 31, 120, 180)' fill-opacity = '0.250000' points = '457.7,155.8 457.7,662.4 459.6,662.4 459.6,153.1 '/>
		<polygon fill = 'rgb( 31, 120, 180)' fill-opacity = '0.250000' points = '459.6,153.1 459.6,662.4 461.5,662.4 461.5,150.5 '/>
		<polygon fill = 'rgb( 31, 120, 180)' fill-opacity = '0.250000' points = '461.5,150.5 461.5,662.4 463.4,662.4 463.4,147.8 '/>
		<polygon fill = 'rgb( 31, 120, 180)' fill-opacity = '0.250000' points = '463.4,147.8 463.4,662.4 465.3,662.4 465.3,145.2 '/>
		<polygon fill = 'rgb( 31, 120, 180)' fill-opacity = '0.250000' points = '465.3,145.2 465.3,662.4 467.2,662.4 467.2,142.6 '/>
		<polygon fill = 'rgb( 31, 120, 180)' fill-opacity = '0.250000' points = '467.2,142.6 467.2,662.4 469.1,662.4 469.1,140.1 '/>
		<polygon fill = 'rgb( 31, 120, 180)' fill-opacity = '0.250000' points = '469.1,140.1 469.1,662.4 471.0,662.4 471.0,137.5 '/>
		<polygon fill = 'rgb( 31, 120, 180)' fill-opacity = '0.250000' points = '471.0,137.5 471.0,662.4 472.9,662.4 472.9,135.1 '/>
		<polygon fill = 'rgb( 31, 120, 180)' fill-opacity = '0.250000' points = '472.9,135.1 472.9,662.4 474.8,662.4 474.8,132.7 '/>
		<polygon fill = 'rgb( 31, 120, 180)' fill-opacity = '0.250000' points = '474.8,132.7 474.8,662.4 476.7,662.4 476.7,130.3 '/>
		<polygon fill = 'rgb( 31, 120, 180)' fill-opacity = '0.250000' points = '476.7,130.3 476.7,662.4 478.6,662.4 478.6,128.0 '/>
		<polygon fill = 'rgb( 31, 120, 180)' fill-opacity = '0.250000' points = '478.6,128.0 478.6,662.4 480.5,662.4 480.5,125.8 '/>
		<polygon fill = 'rgb( 31, 120, 180)' fill-opacity = '0.250000' points = '480.5,125.8 480.5,662.4 482.4,662.4 482.4,123.6 '/>
		<polygon fill = 'rgb( 31, 120, 180)' fill-opacity = '0.250000' points = '482.4,123.6 482.4,662.4 484.3,662.4 484.3,121.5 '/>
		<polygon fill = 'rgb( 31, 120, 180)' fill-opacity = '0.250000' points = '484.3,121.5 484.3,662.4 486.2,662.4 486.2,119.4 '/>
		<polygon fill = 'rgb( 31, 120, 180)' fill-opacity = '0.250000' points = '486.2,119.4 486.2,662.4 488.1,662.4 488.1,117.4 '/>
		<polygon fill = 'rgb( 31, 120, 180)' fill-opacity = '0.250000' points = '488.1,117.4 488.1,662.4 490.1,662.4 490.1,115.5 '/>
		<polygon fill = 'rgb( 31, 120, 180)' fill-opacity = '0.250000' points = '490.1,115.5 490.1,662.4 492.0,662.4 492.0,113.7 '/>
		<polygon fill = 'rgb( 31, 120, 180)' fill-opacity = '0.250000' points = '492.0,113.7 492.0,662.4 493.9,662.4 493.9,111.9 '/>
		<polygon fill = 'rgb( 31, 120, 180)' fill-opacity = '0.250000' points = '493.9,111.9 493.9,662.4 495.8,662.4 495.8,110.2 '/>
		<polygon fill = 'rgb( 31, 120, 180)' fill-opacity = '0.250000' points = '495.8,110.2 495.8,662.4 497.7,662.4 497.7,108.5 '/>
		<polygon fill = 'rgb( 31, 120, 180)' fill-opacity = '0.250000' points = '497.7,108.5 497.7,662.4 499.6,662.4 499.6,106.9 '/>
		<polygon fill = 'rgb( 31, 120, 180)' fill-opacity = '0.250000' points = '499.6,106.9 499.6,662.4 501.5,662.4 501.5,105.3 '/>
		<polygon fill = 'rgb( 31, 120, 180)' fill-opacity = '0.250000' points = '501.5,105.3 501.5,662.4 503.4,662.4 503.4,103.8 '/>
		<polygon fill = 'rgb( 31, 120, 180)' fill-opacity = '0.250000' points = '503.4,103.8 503.4,662.4 505.3,662.4 505.3,102.3 '/>
		<polygon fill = 'rgb( 31, 120, 180)' fill-opacity = '0.250000' points = '505.3,102.3 505.3,662.4 507.2,662.4 507.2,100.9 '/>
		<polygon fill = 'rgb( 31, 120, 180)' fill-opacity = '0.250000' points = '507.2,100.9 507.2,662.4 509.1,662.4 509.1,99.5 '/>
		<polygon fill = 'rgb( 31, 120, 180)' fill-opacity = '0.250000' points = '509.1,99.5 509.1,662.4 511.0,662.4 511.0,98.1 '/>
		<polygon fill = 'rgb( 31, 120, 180)' fill-opacity = '0.250000' points = '511.0,98.1 511.0,662.4 512.9,662.4 512.9,96.7 '/>
		<polygon fill = 'rgb( 31, 120, 180)' fill-opacity = '0.250000' points = '512.9,96.7 512.9,662.4 514.8,662.4 514.8,95.4 '/>
		<polygon fill = 'rgb( 31, 120, 180)' fill-opacity = '0.250000' points = '514.8,95.4 514.8,662.4 516.7,662.4 516.7,94.0 '/>
		<polygon fill = 'rgb( 31, 120, 180)' fill-opacity = '0.250000' points = '516.7,94.0 516.7,662.4 518.6,662.4 518.6,92.7 '/>
		<polygon fill = 'rgb( 31, 120, 180)' fill-opacity = '0.250000' points = '518.6,92.7 518.6,662.4 520.5,662.4 520.5,91.4 '/>
		<polygon fill = 'rgb( 31, 120, 180)' fill-opacity = '0.250000' points = '520.5,91.4 520.5,662.4 522.4,662.4 522.4,90.1 '/>
		<polygon fill = 'rgb( 31, 120, 180)' fill-opacity = '0.250000' points = '522.4,90.1 522.4,662.4 524.3,662.4 524.3,88.8 '/>
		<polygon fill = 'rgb( 31, 120, 180)' fill-opacity = '0.250000' points = '524.3,88.8 524.3,662.4 526.2,662.4 526.2,87.5 '/>
		<polygon fill = 'rgb( 31, 120, 180)' fill-opacity = '0.250000' points = '526.2,87.5 526.2,662.4 528.1,662.4 528.1,86.1 '/>
		<polygon fill = 'rgb( 31, 120, 180)' fill-opacity = '0.250000' points = '528.1,86.1 528.1,662.4 530.0,662.4 530.0,84.8 '/>
		<polygon fill = 'rgb( 31, 120, 180)' fill-opacity = '0.250000' points = '530.0,84.8 530.0,662.4 531.9,662.4 531.9,83.5 '/>
		<polygon fill = 'rgb( 31, 120, 180)' fill-opacity = '0.250000' points = '531.9,83.5 531.9,662.4 533.8,662.4 533.8,82.3 '/>
		<polygon fill = 'rgb( 31, 120, 180)' fill-opacity = '0.250000' points = '533.8,82.3 533.8,662.4 535.7,662.4 535.7,81.0 '/>
		<polygon fill = 'rgb( 31, 120, 180)' fill-opacity = '0.250000' points = '535.7,81.0 535.7,662.4 537.6,662.4 537.6,79.8 '/>
		<polygon fill = 'rgb( 31, 120, 180)' fill-opacity = '0.250000' points = '537.6,79.8 537.6,662.4 539.6,662.4 539.6,78.5 '/>
		<polygon fill = 'rgb( 31, 120, 180)' fill-opacity = '0.250000' points = '539.6,78.5 539.6,662.4 541.5,662.4 541.5,77.4 '/>
		<polygon fill = 'rgb( 31, 120, 180)' fill-opacity = '0.250000' points = '541.5,77.4 541.5,662.4 543.4,662.4 543.4,76.2 '/>
		<polygon fill = 'rgb( 31, 120, 180)' fill-opacity = '0.250000' points = '543.4,76.2 543.4,662.4 545.3,662.4 545.3,75.2 '/>
		<polygon fill = 'rgb( 31, 120, 180)' fill-opacity = '0.250000' points = '545.3,75.2 545.3,662.4 547.2,662.4 547.2,74.2 '/>
		<polygon fill = 'rgb( 31, 120, 180)' fill-opacity = '0.250000' points = '547.2,74.2 547.2,662.4 549.1,662.4 549.1,73.2 '/>
		<polygon fill = 'rgb( 31, 120, 180)' fill-opacity = '0.250000' points = '549.1,73.2 549.1,662.4 551.0,662.4 551.0,72.4 '/>
		<polygon fill = 'rgb( 31, 120, 180)' fill-opacity = '0.250000' points = '551.0,72.4 551.0,662.4 552.9,662.4 552.9,71.6 '/>
		<polygon fill = 'rgb( 31, 120, 180)' fill-opacity = '0.250000' points = '552.9,71.6 552.9,662.4 554.8,662.4 554.8,70.9 '/>
		<polygon fill = 'rgb( 31, 120, 180)' fill-opacity = '0.250000' points = '554.8,70.9 554.8,662.4 556.7,662.4 556.7,70.3 '/>
		<polygon fill = 'rgb( 31, 120, 180)' fill-opacity = '0.250000' points = '556.7,70.3 556.7,662.4 558.6,662.4 558.6,69.8 '/>
		<polygon fill = 'rgb( 31, 120, 180)' fill-opacity = '0.250000' points = '558.6,69.8 558.6,662.4 560.5,662.4 560.5,69.4 '/>
		<polygon fill = 'rgb( 31, 120, 180)' fill-opacity = '0.250000' points = '560.5,69.4 560.5,662.4 562.4,662.4 562.4,69.2 '/>
		<polygon fill = 'rgb( 31, 120, 180)' fill-opacity = '0.250000' points = '562.4,69.2 562.4,662.4 564.3,662.4 564.3,69.0 '/>
		<polygon fill = 'rgb( 31, 120, 180)' fill-opacity = '0.250000' points = '564.3,69.0 564.3,662.4 566.2,662.4 566.2,69.0 '/>
		<polygon fill = 'rgb( 31, 120, 180)' fill-opacity = '0.250000' points = '566.2,69.0 566.2,662.4 568.1,662.4 568.1,69.0 '/>
		<polygon fill = 'rgb( 31, 120, 180)' fill-opacity = '0.250000' points = '568.1,69.0 568.1,662.4 570.0,662.4 570.0,69.2 '/>
		<polygon fill = 'rgb( 31, 120, 180)' fill-opacity = '0.250000' points = '570.0,69.2 570.0,662.4 571.9,662.4 571.9,69.5 '/>
		<polygon fill = 'rgb( 31, 120, 180)' fill-opacity = '0.250000' points = '571.9,69.5 571.9,662.4 573.8,662.4 573.8,69.8 '/>
		<polygon fill = 'rgb( 31, 120, 180)' fill-opacity = '0.250000' points = '573.8,69.8 573.8,662.4 575.7,662.4 575.7,70.3 '/>
		<polygon fill = 'rgb( 31, 120, 180)' fill-opacity = '0.250000' points = '575.7,70.3 575.7,662.4 577.6,662.4 577.6,70.8 '/>
		<polygon fill = 'rgb( 31, 120, 180)' fill-opacity = '0.250000' points = '577.6,70.8 577.6,662.4 579.5,662.4 579.5,71.4 '/>
		<polygon fill = 'rgb( 31, 120, 180)' fill-opacity = '0.250000' points = '579.5,71.4 579.5,662.4 581.4,662.4 581.4,72.1 '/>
		<polygon fill = 'rgb( 31, 120, 180)' fill-opacity = '0.250000' points = '581.4,72.1 581.4,662.4 583.3,662.4 583.3,72.8 '/>
		<polygon fill = 'rgb( 31, 120, 180)' fill-opacity = '0.250000' points = '583.3,72.8 583.3,662.4 585.2,662.4 585.2,73.6 '/>
		<polygon fill = 'rgb( 31, 120, 180)' fill-opacity = '0.250000' points = '585.2,73.6 585.2,662.4 587.1,662.4 587.1,74.4 '/>
		<polygon fill = 'rgb( 31, 120, 180)' fill-opacity = '0.250000' points = '587.1,74.4 587.1,662.4 589.1,662.4 589.1,75.3 '/>
		<polygon fill = 'rgb( 31, 120, 180)' fill-opacity = '0.250000' points = '589.1,75.3 589.1,662.4 591.0,662.4 591.0,76.1 '/>
		<polygon fill = 'rgb( 31, 120, 180)' fill-opacity = '0.250000' points = '591.0,76.1 591.0,662.4 592.9,662.4 592.9,77.0 '/>
		<polygon fill = 'rgb( 31, 120, 180)' fill-opacity = '0.250000' points = '592.9,77.0 592.9,662.4 594.8,662.4 594.8,77.9 '/>
		<polygon fill = 'rgb( 31, 120, 180)' fill-opacity = '0.250000' points = '594.8,77.9 594.8,662.4 596.7,662.4 596.7,78.8 '/>
		<polygon fill = 'rgb( 31, 120, 180)' fill-opacity = '0.250000' points = '596.7,78.8 596.7,662.4 598.6,662.4 598.6,79.7 '/>
		<polygon fill = 'rgb( 31, 120, 180)' fill-opacity = '0.250000' points = '598.6,79.7 598.6,662.4 600.5,662.4 600.5,80.6 '/>
		<polygon fill = 'rgb( 31, 120, 180)' fill-opacity = '0.250000' points = '600.5,80.6 600.5,662.4 602.4,662.4 602.4,81.6 '/>
		<polygon fill = 'rgb( 31, 120, 180)' fill-opacity = '0.250000' points = '602.4,81.6 602.4,662.4 604.3,662.4 604.3,82.5 '/>
		<polygon fill = 'rgb( 31, 120, 180)' fill-opacity = '0.250000' points = '604.3,82.5 604.3,662.4 606.2,662.4 606.2,83.5 '/>
		<polygon fill = 'rgb( 31, 120, 180)' fill-opacity = '0.250000' points = '606.2,83.5 606.2,662.4 608.1,662.4 608.1,84.4 '/>
		<polygon fill = 'rgb( 31, 120, 180)' fill-opacity = '0.250000' points = '608.1,84.4 608.1,662.4 610.0,662.4 610.0,85.4 '/>
		<polygon fill = 'rgb( 31, 120, 180)' fill-opacity = '0.250000' points = '610.0,85.4 610.0,662.4 611.9,662.4 611.9,86.4 '/>
		<polygon fill = 'rgb( 31, 120, 180)' fill-opacity = '0.250000' points = '611.9,86.4 611.9,662.4 613.8,662.4 613.8,87.4 '/>
		<polygon fill = 'rgb( 31, 120, 180)' fill-opacity = '0.250000' points = '613.8,87.4 613.8,662.4 615.7,662.4 615.7,88.5 '/>
		<polygon fill = 'rgb( 31, 120, 180)' fill-opacity = '0.250000' points = '615.7,88.5 615.7,662.4 617.6,662.4 617.6,89.5 '/>
		<polygon fill = 'rgb( 31, 120, 180)' fill-opacity = '0.250000' points = '617.6,89.5 617.6,662.4 619.5,662.4 619.5,90.7 '/>
		<polygon fill = 'rgb( 31, 120, 180)' fill-opacity = '0.250000' points = '619.5,90.7 619.5,662.4 621.4,662.4 621.4,91.8 '/>
		<polygon fill = 'rgb( 31, 120, 180)' fill-opacity = '0.250000' points = '621.4,91.8 621.4,662.4 623.3,662.4 623.3,93.0 '/>
		<polygon fill = 'rgb( 31, 120, 180)' fill-opacity = '0.250000' points = '623.3,93.0 623.3,662.4 625.2,662.4 625.2,94.3 '/>
		<polygon fill = 'rgb( 31, 120, 180)' fill-opacity = '0.250000' points = '625.2,94.3 625.2,662.4 627.1,662.4 627.1,95.6 '/>
		<polygon fill = 'rgb( 31, 120, 180)' fill-opacity = '0.250000' points = '627.1,95.6 627.1,662.4 629.0,662.4 629.0,96.9 '/>
		<polygon fill = 'rgb( 31, 120, 180)' fill-opacity = '0.250000' points = '629.0,96.9 629.0,662.4 630.9,662.4 630.9,98.3 '/>
		<polygon fill = 'rgb( 31, 120, 180)' fill-opacity = '0.250000' points = '630.9,98.3 630.9,662.4 632.8,662.4 632.8,99.8 '/>
		<polygon fill = 'rgb( 31, 120, 180)' fill-opacity = '0.250000' points = '632.8,99.8 632.8,662.4 634.7,662.4 634.7,101.3 '/>
		<polygon fill = 'rgb( 31, 120, 180)' fill-opacity = '0.250000' points = '634.7,101.3 634.7,662.4 636.6,662.4 636.6,102.8 '/>
		<polygon fill = 'rgb( 31, 120, 180)' fill-opacity = '0.250000' points = '636.6,102.8 636.6,662.4 638.5,662.4 638.5,104.4 '/>
		<polygon fill = 'rgb( 31, 120, 180)' fill-opacity = '0.250000' points = '638.5,104.4 638.5,662.4 640.5,662.4 640.5,106.0 '/>
		<polygon fill = 'rgb( 31, 120, 180)' fill-opacity = '0.250000' points = '640.5,106.0 640.5,662.4 642.4,662.4 642.4,107.7 '/>
		<polygon fill = 'rgb( 31, 120, 180)' fill-opacity = '0.250000' points = '642.4,107.7 642.4,662.4 644.3,662.4 644.3,109.5 '/>
		<polygon fill = 'rgb( 31, 120, 180)' fill-opacity = '0.250000' points = '644.3,109.5 644.3,662.4 646.2,662.4 646.2,111.3 '/>
		<polygon fill = 'rgb( 31, 120, 180)' fill-opacity = '0.250000' points = '646.2,111.3 646.2,662.4 648.1,662.4 648.1,113.1 '/>
		<polygon fill = 'rgb( 31, 120, 180)' fill-opacity = '0.250000' points = '648.1,113.1 648.1,662.4 650.0,662.4 650.0,115.1 '/>
		<polygon fill = 'rgb( 31, 120, 180)' fill-opacity = '0.250000' points = '650.0,115.1 650.0,662.4 651.9,662.4 651.9,117.0 '/>
		<polygon fill = 'rgb( 31, 120, 180)' fill-opacity = '0.250000' points = '651.9,117.0 651.9,662.4 653.8,662.4 653.8,119.1 '/>
		<polygon fill = 'rgb( 31, 120, 180)' fill-opacity = '0.250000' points = '653.8,119.1 653.8,662.4 655.7,662.4 655.7,121.2 '/>
		<polygon fill = 'rgb( 31, 120, 180)' fill-opacity = '0.250000' points = '655.7,121.2 655.7,662.4 657.6,662.4 657.6,123.3 '/>
		<polygon fill = 'rgb( 31, 120, 180)' fill-opacity = '0.250000' points = '657.6,123.3 657.6,662.4 659.5,662.4 659.5,125.6 '/>
		<polygon fill = 'rgb( 31, 120, 180)' fill-opacity = '0.250000' points = '659.5,125.6 659.5,662.4 661.4,662.4 661.4,127.9 '/>
		<polygon fill = 'rgb( 31, 120, 180)' fill-opacity = '0.250000' points = '661.4,127.9 661.4,662.4 663.3,662.4 663.3,130.2 '/>
		<polygon fill = 'rgb( 31, 120, 180)' fill-opacity = '0.250000' points = '663.3,130.2 663.3,662.4 665.2,662.4 665.2,132.6 '/>
		<polygon fill = 'rgb( 31, 120, 180)' fill-opacity = '0.250000' points = '665.2,132.6 665.2,662.4 667.1,662.4 667.1,135.1 '/>
		<polygon fill = 'rgb( 31, 120, 180)' fill-opacity = '0.250000' points = '667.1,135.1 667.1,662.4 669.0,662.4 669.0,137.7 '/>
		<polygon fill = 'rgb( 31, 120, 180)' fill-opacity = '0.250000' points = '669.0,137.7 669.0,662.4 670.9,662.4 670.9,140.3 '/>
		<polygon fill = 'rgb( 31, 120, 180)' fill-opacity = '0.250000' points = '670.9,140.3 670.9,662.4 672.8,662.4 672.8,142.9 '/>
		<polygon fill = 'rgb( 31, 120, 180)' fill-opacity = '0.250000' points = '672.8,142.9 672.8,662.4 674.7,662.4 674.7,145.6 '/>
		<polygon fill = 'rgb( 31, 120, 180)' fill-opacity = '0.250000' points = '674.7,145.6 674.7,662.4 676.6,662.4 676.6,148.4 '/>
		<polygon fill = 'rgb( 31, 120, 180)' fill-opacity = '0.250000' points = '676.6,148.4 676.6,662.4 678.5,662.4 678.5,151.1 '/>
		<polygon fill = 'rgb( 31, 120, 180)' fill-opacity = '0.250000' points = '678.5,151.1 678.5,662.4 680.4,662.4 680.4,153.9 '/>
		<polygon fill = 'rgb( 31, 120, 180)' fill-opacity = '0.250000' points = '680.4,153.9 680.4,662.4 682.3,662.4 682.3,156.8 '/>
		<polygon fill = 'rgb( 31, 120, 180)' fill-opacity = '0.250000' points = '682.3,156.8 682.3,662.4 684.2,662.4 684.2,159.6 '/>
		<polygon fill = 'rgb( 31, 120, 180)' fill-opacity = '0.250000' points = '684.2,159.6 684.2,662.4 686.1,662.4 686.1,162.4 '/>
		<polygon fill = 'rgb( 31, 120, 180)' fill-opacity = '0.250000' points = '686.1,162.4 686.1,662.4 688.0,662.4 688.0,165.3 '/>
		<polygon fill = 'rgb( 31, 120, 180)' fill-opacity = '0.250000' points = '688.0,165.3 688.0,662.4 690.0,662.4 690.0,168.1 '/>
		<polygon fill = 'rgb( 31, 120, 180)' fill-opacity = '0.250000' points = '690.0,168.1 690.0,662.4 691.9,662.4 691.9,171.0 '/>
		<polygon fill = 'rgb( 31, 120, 180)' fill-opacity = '0.250000' points = '691.9,171.0 691.9,662.4 693.8,662.4 693.8,173.8 '/>
		<polygon fill = 'rgb( 31, 120, 180)' fill-opacity = '0.250000' points = '693.8,173.8 693.8,662.4 695.7,662.4 695.7,176.6 '/>
		<polygon fill = 'rgb( 31, 120, 180)' fill-opacity = '0.250000' points = '695.7,176.6 695.7,662.4 697.6,662.4 697.6,179.5 '/>
		<polygon fill = 'rgb( 31, 120, 180)' fill-opacity = '0.250000' points = '697.6,179.5 697.6,662.4 699.5,662.4 699.5,182.3 '/>
		<polygon fill = 'rgb( 31, 120, 180)' fill-opacity = '0.250000' points = '699.5,182.3 699.5,662.4 701.4,662.4 701.4,185.1 '/>
		<polygon fill = 'rgb( 31, 120, 180)' fill-opacity = '0.250000' points = '701.4,185.1 701.4,662.4 703.3,662.4 703.3,187.9 '/>
		<polygon fill = 'rgb( 31, 120, 180)' fill-opacity = '0.250000' points = '703.3,187.9 703.3,662.4 705.2,662.4 705.2,190.6 '/>
		<polygon fill = 'rgb( 31, 120, 180)' fill-opacity = '0.250000' points = '705.2,190.6 705.2,662.4 707.1,662.4 707.1,193.4 '/>
		<polygon fill = 'rgb( 31, 120, 180)' fill-opacity = '0.250000' points = '707.1,193.4 707.1,662.4 709.0,662.4 709.0,196.2 '/>
		<polygon fill = 'rgb( 31, 120, 180)' fill-opacity = '0.250000' points = '709.0,196.2 709.0,662.4 710.9,662.4 710.9,198.9 '/>
		<polygon fill = 'rgb( 31, 120, 180)' fill-opacity = '0.250000' points = '710.9,198.9 710.9,662.4 712.8,662.4 712.8,201.7 '/>
		<polygon fill = 'rgb( 31, 120, 180)' fill-opacity = '0.250000' points = '712.8,201.7 712.8,662.4 714.7,662.4 714.7,204.5 '/>
		<polygon fill = 'rgb( 31, 120, 180)' fill-opacity = '0.250000' points = '714.7,204.5 714.7,662.4 716.6,662.4 716.6,207.3 '/>
		<polygon fill = 'rgb( 31, 120, 180)' fill-opacity = '0.250000' points = '716.6,207.3 716.6,662.4 718.5,662.4 718.5,210.2 '/>
		<polygon fill = 'rgb( 31, 120, 180)' fill-opacity = '0.250000' points = '718.5,210.2 718.5,662.4 720.4,662.4 720.4,213.0 '/>
		<polygon fill = 'rgb( 31, 120, 180)' fill-opacity = '0.250000' points = '720.4,213.0 720.4,662.4 722.3,662.4 722.3,215.9 '/>
		<polygon fill = 'rgb( 31, 120, 180)' fill-opacity = '0.250000' points = '722.3,215.9 722.3,662.4 724.2,662.4 724.2,218.8 '/>
		<polygon fill = 'rgb( 31, 120, 180)' fill-opacity = '0.250000' points = '724.2,218.8 724.2,662.4 726.1,662.4 726.1,221.8 '/>
		<polygon fill = 'rgb( 31, 120, 180)' fill-opacity = '0.250000' points = '726.1,221.8 726.1,662.4 728.0,662.4 728.0,224.8 '/>
		<polygon fill = 'rgb( 31, 120, 180)' fill-opacity = '0.250000' points = '728.0,224.8 728.0,662.4 729.9,662.4 729.9,227.8 '/>
		<polygon fill = 'rgb( 31, 120, 180)' fill-opacity = '0.250000' points = '729.9,227.8 729.9,662.4 731.8,662.4 731.8,230.9 '/>
		<polygon fill = 'rgb( 31, 120, 180)' fill-opacity = '0.250000' points = '731.8,230.9 731.8,662.4 733.7,662.4 733.7,234.1 '/>
		<polygon fill = 'rgb( 31, 120, 180)' fill-opacity = '0.250000' points = '733.7,234.1 733.7,662.4 735.6,662.4 735.6,237.3 '/>
		<polygon fill = 'rgb( 31, 120, 180)' fill-opacity = '0.250000' points = '735.6,237.3 735.6,662.4 737.5,662.4 737.5,240.5 '/>
		<polygon fill = 'rgb( 31, 120, 180)' fill-opacity = '0.250000' points = '737.5,240.5 737.5,662.4 739.5,662.4 739.5,243.8 '/>
		<polygon fill = 'rgb( 31, 120, 180)' fill-opacity = '0.250000' points = '739.5,243.8 739.5,662.4 741.4,662.4 741.4,247.1 '/>
		<polygon fill = 'rgb( 31, 120, 180)' fill-opacity = '0.250000' points = '741.4,247.1 741.4,662.4 743.3,662.4 743.3,250.5 '/>
		<polygon fill = 'rgb( 31, 120, 180)' fill-opacity = '0.250000' points = '743.3,250.5 743.3,662.4 745.2,662.4 745.2,253.9 '/>
		<polygon fill = 'rgb( 31, 120, 180)' fill-opacity = '0.250000' points = '745.2,253.9 745.2,662.4 747.1,662.4 747.1,257.3 '/>
		<polygon fill = 'rgb( 31, 120, 180)' fill-opacity = '0.250000' points = '747.1,257.3 747.1,662.4 749.0,662.4 749.0,260.7 '/>
		<polygon fill = 'rgb( 31, 120, 180)' fill-opacity = '0.250000' points = '749.0,260.7 749.0,662.4 750.9,662.4 750.9,264.2 '/>
		<polygon fill = 'rgb( 31, 120, 180)' fill-opacity = '0.250000' points = '750.9,264.2 750.9,662.4 752.8,662.4 752.8,267.7 '/>
		<polygon fill = 'rgb( 31, 120, 180)' fill-opacity = '0.250000' points = '752.8,267.7 752.8,662.4 754.7,662.4 754.7,271.2 '/>
		<polygon fill = 'rgb( 31, 120, 180)' fill-opacity = '0.250000' points = '754.7,271.2 754.7,662.4 756.6,662.4 756.6,274.7 '/>
		<polygon fill = 'rgb( 31, 120, 180)' fill-opacity = '0.250000' points = '756.6,274.7 756.6,662.4 758.5,662.4 758.5,278.1 '/>
		<polygon fill = 'rgb( 31, 120, 180)' fill-opacity = '0.250000' points = '758.5,278.1 758.5,662.4 760.4,662.4 760.4,281.6 '/>
		<polygon fill = 'rgb( 31, 120, 180)' fill-opacity = '0.250000' points = '760.4,281.6 760.4,662.4 762.3,662.4 762.3,285.1 '/>
		<polygon fill = 'rgb( 31, 120, 180)' fill-opacity = '0.250000' points = '762.3,285.1 762.3,662.4 764.2,662.4 764.2,288.6 '/>
		<polygon fill = 'rgb( 31, 120, 180)' fill-opacity = '0.250000' points = '764.2,288.6 764.2,662.4 766.1,662.4 766.1,292.1 '/>
		<polygon fill = 'rgb( 31, 120, 180)' fill-opacity = '0.250000' points = '766.1,292.1 766.1,662.4 768.0,662.4 768.0,295.6 '/>
		<polygon fill = 'rgb( 31, 120, 180)' fill-opacity = '0.250000' points = '768.0,295.6 768.0,662.4 769.9,662.4 769.9,299.0 '/>
		<polygon fill = 'rgb( 31, 120, 180)' fill-opacity = '0.250000' points = '769.9,299.0 769.9,662.4 771.8,662.4 771.8,302.5 '/>
		<polygon fill = 'rgb( 31, 120, 180)' fill-opacity = '0.250000' points = '771.8,302.5 771.8,662.4 773.7,662.4 773.7,306.0 '/>
		<polygon fill = 'rgb( 31, 120, 180)' fill-opacity = '0.250000' points = '773.7,306.0 773.7,662.4 775.6,662.4 775.6,309.4 '/>
		<polygon fill = 'rgb( 31, 120, 180)' fill-opacity = '0.250000' points = '775.6,309.4 775.6,662.4 777.5,662.4 777.5,312.9 '/>
		<polygon fill = 'rgb( 31, 120, 180)' fill-opacity = '0.250000' points = '777.5,312.9 777.5,662.4 779.4,662.4 779.4,316.4 '/>
		<polygon fill = 'rgb( 31, 120, 180)' fill-opacity = '0.250000' points = '779.4,316.4 779.4,662.4 781.3,662.4 781.3,320.0 '/>
		<polygon fill = 'rgb( 31, 120, 180)' fill-opacity = '0.250000' points = '781.3,320.0 781.3,662.4 783.2,662.4 783.2,323.5 '/>
		<polygon fill = 'rgb( 31, 120, 180)' fill-opacity = '0.250000' points = '783.2,323.5 783.2,662.4 785.1,662.4 785.1,327.1 '/>
		<polygon fill = 'rgb( 31, 120, 180)' fill-opacity = '0.250000' points = '785.1,327.1 785.1,662.4 787.0,662.4 787.0,330.6 '/>
		<polygon fill = 'rgb( 31, 120, 180)' fill-opacity = '0.250000' points = '787.0,330.6 787.0,662.4 789.0,662.4 789.0,334.3 '/>
		<polygon fill = 'rgb( 31, 120, 180)' fill-opacity = '0.250000' points = '789.0,334.3 789.0,662.4 790.9,662.4 790.9,337.9 '/>
		<polygon fill = 'rgb( 31, 120, 180)' fill-opacity = '0.250000' points = '790.9,337.9 790.9,662.4 792.8,662.4 792.8,341.6 '/>
		<polygon fill = 'rgb( 31, 120, 180)' fill-opacity = '0.250000' points = '792.8,341.6 792.8,662.4 794.7,662.4 794.7,345.3 '/>
		<polygon fill = 'rgb( 31, 120, 180)' fill-opacity = '0.250000' points = '794.7,345.3 794.7,662.4 796.6,662.4 796.6,349.1 '/>
		<polygon fill = 'rgb( 31, 120, 180)' fill-opacity = '0.250000' points = '796.6,349.1 796.6,662.4 798.5,662.4 798.5,352.9 '/>
		<polygon fill = 'rgb( 31, 120, 180)' fill-opacity = '0.250000' points = '798.5,352.9 798.5,662.4 800.4,662.4 800.4,356.7 '/>
		<polygon fill = 'rgb( 31, 120, 180)' fill-opacity = '0.250000' points = '800.4,356.7 800.4,662.4 802.3,662.4 802.3,360.5 '/>
		<polygon fill = 'rgb( 31, 120, 180)' fill-opacity = '0.250000' points = '802.3,360.5 802.3,662.4 804.2,662.4 804.2,364.4 '/>
		<polygon fill = 'rgb( 31, 120, 180)' fill-opacity = '0.250000' points = '804.2,364.4 804.2,662.4 806.1,662.4 806.1,368.3 '/>
		<polygon fill = 'rgb( 31, 120, 180)' fill-opacity = '0.250000' points = '806.1,368.3 806.1,662.4 808.0,662.4 808.0,372.2 '/>
		<polygon fill = 'rgb( 31, 120, 180)' fill-opacity = '0.250000' points = '808.0,372.2 808.0,662.4 809.9,662.4 809.9,376.1 '/>
		<polygon fill = 'rgb( 31, 120, 180)' fill-opacity = '0.250000' points = '809.9,376.1 809.9,662.4 811.8,662.4 811.8,380.0 '/>
		<polygon fill = 'rgb( 31, 120, 180)' fill-opacity = '0.250000' points = '811.8,380.0 811.8,662.4 813.7,662.4 813.7,384.0 '/>
		<polygon fill = 'rgb( 31, 120, 180)' fill-opacity = '0.250000' points = '813.7,384.0 813.7,662.4 815.6,662.4 815.6,387.9 '/>
		<polygon fill = 'rgb( 31, 120, 180)' fill-opacity = '0.250000' points = '815.6,387.9 815.6,662.4 817.5,662.4 817.5,391.8 '/>
		<polygon fill = 'rgb( 31, 120, 180)' fill-opacity = '0.250000' points = '817.5,391.8 817.5,662.4 819.4,662.4 819.4,395.7 '/>
		<polygon fill = 'rgb( 31, 120, 180)' fill-opacity = '0.250000' points = '819.4,395.7 819.4,662.4 821.3,662.4 821.3,399.6 '/>
		<polygon fill = 'rgb( 31, 120, 180)' fill-opacity = '0.250000' points = '821.3,399.6 821.3,662.4 823.2,662.4 823.2,403.4 '/>
		<polygon fill = 'rgb( 31, 120, 180)' fill-opacity = '0.250000' points = '823.2,403.4 823.2,662.4 825.1,662.4 825.1,407.2 '/>
		<polygon fill = 'rgb( 31, 120, 180)' fill-opacity = '0.250000' points = '825.1,407.2 825.1,662.4 827.0,662.4 827.0,411.0 '/>
		<polygon fill = 'rgb( 31, 120, 180)' fill-opacity = '0.250000' points = '827.0,411.0 827.0,662.4 828.9,662.4 828.9,414.8 '/>
		<polygon fill = 'rgb( 31, 120, 180)' fill-opacity = '0.250000' points = '828.9,414.8 828.9,662.4 830.8,662.4 830.8,418.4 '/>
		<polygon fill = 'rgb( 31, 120, 180)' fill-opacity = '0.250000' points = '830.8,418.4 830.8,662.4 832.7,662.4 832.7,422.1 '/>
		<polygon fill = 'rgb( 31, 120, 180)' fill-opacity = '0.250000' points = '832.7,422.1 832.7,662.4 834.6,662.4 834.6,425.7 '/>
		<polygon fill = 'rgb( 31, 120, 180)' fill-opacity = '0.250000' points = '834.6,425.7 834.6,662.4 836.5,662.4 836.5,429.2 '/>
		<polygon fill = 'rgb( 31, 120, 180)' fill-opacity = '0.250000' points = '836.5,429.2 836.5,662.4 838.4,662.4 838.4,432.7 '/>
		<polygon fill = 'rgb( 31, 120, 180)' fill-opacity = '0.250000' points = '838.4,432.7 838.4,662.4 840.4,662.4 840.4,436.1 '/>
		<polygon fill = 'rgb( 31, 120, 180)' fill-opacity = '0.250000' points = '840.4,436.1 840.4,662.4 842.3,662.4 842.3,439.5 '/>
		<polygon fill = 'rgb( 31, 120, 180)' fill-opacity = '0.250000' points = '842.3,439.5 842.3,662.4 844.2,662.4 844.2,442.8 '/>
		<polygon fill = 'rgb( 31, 120, 180)' fill-opacity = '0.250000' points = '844.2,442.8 844.2,662.4 846.1,662.4 846.1,446.0 '/>
		<polygon fill = 'rgb( 31, 120, 180)' fill-opacity = '0.250000' points = '846.1,446.0 846.1,662.4 848.0,662.4 848.0,449.2 '/>
		<polygon fill = 'rgb( 31, 120, 180)' fill-opacity = '0.250000' points = '848.0,449.2 848.0,662.4 849.9,662.4 849.9,452.3 '/>
		<polygon fill = 'rgb( 31, 120, 180)' fill-opacity = '0.250000' points = '849.9,452.3 849.9,662.4 851.8,662.4 851.8,455.4 '/>
		<polygon fill = 'rgb( 31, 120, 180)' fill-opacity = '0.250000' points = '851.8,455.4 851.8,662.4 853.7,662.4 853.7,458.4 '/>
		<polygon fill = 'rgb( 31, 120, 180)' fill-opacity = '0.250000' points = '853.7,458.4 853.7,662.4 855.6,662.4 855.6,461.3 '/>
		<polygon fill = 'rgb( 31, 120, 180)' fill-opacity = '0.250000' points = '855.6,461.3 855.6,662.4 857.5,662.4 857.5,464.2 '/>
		<polygon fill = 'rgb( 31, 120, 180)' fill-opacity = '0.250000' points = '857.5,464.2 857.5,662.4 859.4,662.4 859.4,467.0 '/>
		<polygon fill = 'rgb( 31, 120, 180)' fill-opacity = '0.250000' points = '859.4,467.0 859.4,662.4 861.3,662.4 861.3,469.9 '/>
		<polygon fill = 'rgb( 31, 120, 180)' fill-opacity = '0.250000' points = '861.3,469.9 861.3,662.4 863.2,662.4 863.2,472.7 '/>
		<polygon fill = 'rgb( 31, 120, 180)' fill-opacity = '0.250000' points = '863.2,472.7 863.2,662.4 865.1,662.4 865.1,475.4 '/>
		<polygon fill = 'rgb( 31, 120, 180)' fill-opacity = '0.250000' points = '865.1,475.4 865.1,662.4 867.0,662.4 867.0,478.1 '/>
		<polygon fill = 'rgb( 31, 120, 180)' fill-opacity = '0.250000' points = '867.0,478.1 867.0,662.4 868.9,662.4 868.9,480.9 '/>
		<polygon fill = 'rgb( 31, 120, 180)' fill-opacity = '0.250000' points = '868.9,480.9 868.9,662.4 870.8,662.4 870.8,483.6 '/>
		<polygon fill = 'rgb( 31, 120, 180)' fill-opacity = '0.250000' points = '870.8,483.6 870.8,662.4 872.7,662.4 872.7,486.2 '/>
		<polygon fill = 'rgb( 31, 120, 180)' fill-opacity = '0.250000' points = '872.7,486.2 872.7,662.4 874.6,662.4 874.6,488.9 '/>
		<polygon fill = 'rgb( 31, 120, 180)' fill-opacity = '0.250000' points = '874.6,488.9 874.6,662.4 876.5,662.4 876.5,491.6 '/>
		<polygon fill = 'rgb( 31, 120, 180)' fill-opacity = '0.250000' points = '876.5,491.6 876.5,662.4 878.4,662.4 878.4,494.2 '/>
		<polygon fill = 'rgb( 31, 120, 180)' fill-opacity = '0.250000' points = '878.4,494.2 878.4,662.4 880.3,662.4 880.3,496.9 '/>
		<polygon fill = 'rgb( 31, 120, 180)' fill-opacity = '0.250000' points = '880.3,496.9 880.3,662.4 882.2,662.4 882.2,499.5 '/>
		<polygon fill = 'rgb( 31, 120, 180)' fill-opacity = '0.250000' points = '882.2,499.5 882.2,662.4 884.1,662.4 884.1,502.2 '/>
		<polygon fill = 'rgb( 31, 120, 180)' fill-opacity = '0.250000' points = '884.1,502.2 884.1,662.4 886.0,662.4 886.0,504.8 '/>
		<polygon fill = 'rgb( 31, 120, 180)' fill-opacity = '0.250000' points = '886.0,504.8 886.0,662.4 887.9,662.4 887.9,507.4 '/>
		<polygon fill = 'rgb( 31, 120, 180)' fill-opacity = '0.250000' points = '887.9,507.4 887.9,662.4 889.9,662.4 889.9,509.9 '/>
		<polygon fill = 'rgb( 31, 120, 180)' fill-opacity = '0.250000' points = '889.9,509.9 889.9,662.4 891.8,662.4 891.8,512.5 '/>
		<polygon fill = 'rgb( 31, 120, 180)' fill-opacity = '0.250000' points = '891.8,512.5 891.8,662.4 893.7,662.4 893.7,515.1 '/>
		<polygon fill = 'rgb( 31, 120, 180)' fill-opacity = '0.250000' points = '893.7,515.1 893.7,662.4 895.6,662.4 895.6,517.6 '/>
		<polygon fill = 'rgb( 31, 120, 180)' fill-opacity = '0.250000' points = '895.6,517.6 895.6,662.4 897.5,662.4 897.5,520.1 '/>
		<polygon fill = 'rgb( 31, 120, 180)' fill-opacity = '0.250000' points = '897.5,520.1 897.5,662.4 899.4,662.4 899.4,522.6 '/>
		<polygon fill = 'rgb( 31, 120, 180)' fill-opacity = '0.250000' points = '899.4,522.6 899.4,662.4 901.3,662.4 901.3,525.0 '/>
		<polygon fill = 'rgb( 31, 120, 180)' fill-opacity = '0.250000' points = '901.3,525.0 901.3,662.4 903.2,662.4 903.2,527.4 '/>
		<polygon fill = 'rgb( 31, 120, 180)' fill-opacity = '0.250000' points = '903.2,527.4 903.2,662.4 905.1,662.4 905.1,529.8 '/>
		<polygon fill = 'rgb( 31, 120, 180)' fill-opacity = '0.250000' points = '905.1,529.8 905.1,662.4 907.0,662.4 907.0,532.2 '/>
		<polygon fill = 'rgb( 31, 120, 180)' fill-opacity = '0.250000' points = '907.0,532.2 907.0,662.4 908.9,662.4 908.9,534.6 '/>
		<polygon fill = 'rgb( 31, 120, 180)' fill-opacity = '0.250000' points = '908.9,534.6 908.9,662.4 910.8,662.4 910.8,537.0 '/>
		<polygon fill = 'rgb( 31, 120, 180)' fill-opacity = '0.250000' points = '910.8,537.0 910.8,662.4 912.7,662.4 912.7,539.3 '/>
		<polygon fill = 'rgb( 31, 120, 180)' fill-opacity = '0.250000' points = '912.7,539.3 912.7,662.4 914.6,662.4 914.6,541.6 '/>
		<polygon fill = 'rgb( 31, 120, 180)' fill-opacity = '0.250000' points = '914.6,541.6 914.6,662.4 916.5,662.4 916.5,543.9 '/>
		<polygon fill = 'rgb( 31, 120, 180)' fill-opacity = '0.250000' points = '916.5,543.9 916.5,662.4 918.4,662.4 918.4,546.3 '/>
		<polygon fill = 'rgb( 31, 120, 180)' fill-opacity = '0.250000' points = '918.4,546.3 918.4,662.4 920.3,662.4 920.3,548.6 '/>
		<polygon fill = 'rgb( 31, 120, 180)' fill-opacity = '0.250000' points = '920.3,548.6 920.3,662.4 922.2,662.4 922.2,550.9 '/>
		<polygon fill = 'rgb( 31, 120, 180)' fill-opacity = '0.250000' points = '922.2,550.9 922.2,662.4 924.1,662.4 924.1,553.1 '/>
	</g>
</g>
	</g>
	<g id="gnuplot_plot_3" ><title>Point estimate</title>
<g fill="none" color="white" stroke="rgb( 31, 120, 180)" stroke-width="2.00" stroke-linecap="butt" stroke-linejoin="miter">
</g>
<g fill="none" color="black" stroke="currentColor" stroke-width="2.00" stroke-linecap="butt" stroke-linejoin="miter">
	<g transform="translate(1089.0,103.0)" stroke="none" fill="black" font-family="Helvetica" font-size="12.00"  text-anchor="start">
		<text><tspan font-family="Helvetica" >Point estimate</tspan></text>
	</g>
</g>
<g fill="none" color="black" stroke="currentColor" stroke-width="2.00" stroke-linecap="butt" stroke-linejoin="miter">
	<path stroke='rgb( 31, 120, 180)'  d='M1038.5,99.1 L1080.7,99.1 M555.3,662.4 L555.3,70.7  '/></g>
	</g>
<g fill="none" color="black" stroke="currentColor" stroke-width="2.00" stroke-linecap="butt" stroke-linejoin="miter">
</g>
<g fill="none" color="black" stroke="black" stroke-width="1.00" stroke-linecap="butt" stroke-linejoin="miter">
</g>
<g fill="none" color="black" stroke="currentColor" stroke-width="1.00" stroke-linecap="butt" stroke-linejoin="miter">
	<path stroke='black'  d='M63.6,54.1 L63.6,662.4 L1013.6,662.4 L1013.6,54.1 L63.6,54.1 Z  '/></g>
<g fill="none" color="black" stroke="currentColor" stroke-width="1.00" stroke-linecap="butt" stroke-linejoin="miter">
</g>
</g>
</svg>

