<?xml version="1.0" encoding="utf-8"  standalone="no"?>
<svg 
 viewBox="0 0 1280 720"
 xmlns="http://www.w3.org/2000/svg"
 xmlns:xlink="http://www.w3.org/1999/xlink"
>

<title>Gnuplot</title>
<desc>Produced by GNUPLOT 5.0 patchlevel 6 </desc>

<g id="gnuplot_canvas">

<rect x="0" y="0" width="1280" height="720" fill="none"/>
<defs>

	<circle id='gpDot' r='0.5' stroke-width='0.5'/>
	<path id='gpPt0' stroke-width='0.222' stroke='currentColor' d='M-1,0 h2 M0,-1 v2'/>
	<path id='gpPt1' stroke-width='0.222' stroke='currentColor' d='M-1,-1 L1,1 M1,-1 L-1,1'/>
	<path id='gpPt2' stroke-width='0.222' stroke='currentColor' d='M-1,0 L1,0 M0,-1 L0,1 M-1,-1 L1,1 M-1,1 L1,-1'/>
	<rect id='gpPt3' stroke-width='0.222' stroke='currentColor' x='-1' y='-1' width='2' height='2'/>
	<rect id='gpPt4' stroke-width='0.222' stroke='currentColor' fill='currentColor' x='-1' y='-1' width='2' height='2'/>
	<circle id='gpPt5' stroke-width='0.222' stroke='currentColor' cx='0' cy='0' r='1'/>
	<use xlink:href='#gpPt5' id='gpPt6' fill='currentColor' stroke='none'/>
	<path id='gpPt7' stroke-width='0.222' stroke='currentColor' d='M0,-1.33 L-1.33,0.67 L1.33,0.67 z'/>
	<use xlink:href='#gpPt7' id='gpPt8' fill='currentColor' stroke='none'/>
	<use xlink:href='#gpPt7' id='gpPt9' stroke='currentColor' transform='rotate(180)'/>
	<use xlink:href='#gpPt9' id='gpPt10' fill='currentColor' stroke='none'/>
	<use xlink:href='#gpPt3' id='gpPt11' stroke='currentColor' transform='rotate(45)'/>
	<use xlink:href='#gpPt11' id='gpPt12' fill='currentColor' stroke='none'/>
	<path id='gpPt13' stroke-width='0.222' stroke='currentColor' d='M0,1.330 L1.265,0.411 L0.782,-1.067 L-0.782,-1.076 L-1.265,0.411 z'/>
	<use xlink:href='#gpPt13' id='gpPt14' fill='currentColor' stroke='none'/>
	<filter id='textbox' filterUnits='objectBoundingBox' x='0' y='0' height='1' width='1'>
	  <feFlood flood-color='white' flood-opacity='1' result='bgnd'/>
	  <feComposite in='SourceGraphic' in2='bgnd' operator='atop'/>
	</filter>
	<filter id='greybox' filterUnits='objectBoundingBox' x='0' y='0' height='1' width='1'>
	  <feFlood flood-color='lightgrey' flood-opacity='1' result='grey'/>
	  <feComposite in='SourceGraphic' in2='grey' operator='atop'/>
	</filter>
</defs>
<g fill="none" color="white" stroke="currentColor" stroke-width="1.00" stroke-linecap="butt" stroke-linejoin="miter">
</g>
<g fill="none" color="black" stroke="currentColor" stroke-width="1.00" stroke-linecap="butt" stroke-linejoin="miter">
	<path stroke='black'  d='M88.5,662.4 L97.5,662.4  '/>	<g transform="translate(80.2,666.3)" stroke="none" fill="black" font-family="Helvetica" font-size="12.00"  text-anchor="end">
		<text><tspan font-family="Helvetica" > 0</tspan></text>
	</g>
</g>
<g fill="none" color="black" stroke="currentColor" stroke-width="1.00" stroke-linecap="butt" stroke-linejoin="miter">
	<path stroke='black'  d='M88.5,561.0 L97.5,561.0  '/>	<g transform="translate(80.2,564.9)" stroke="none" fill="black" font-family="Helvetica" font-size="12.00"  text-anchor="end">
		<text><tspan font-family="Helvetica" > 0.002</tspan></text>
	</g>
</g>
<g fill="none" color="black" stroke="currentColor" stroke-width="1.00" stroke-linecap="butt" stroke-linejoin="miter">
	<path stroke='black'  d='M88.5,459.6 L97.5,459.6  '/>	<g transform="translate(80.2,463.5)" stroke="none" fill="black" font-family="Helvetica" font-size="12.00"  text-anchor="end">
		<text><tspan font-family="Helvetica" > 0.004</tspan></text>
	</g>
</g>
<g fill="none" color="black" stroke="currentColor" stroke-width="1.00" stroke-linecap="butt" stroke-linejoin="miter">
	<path stroke='black'  d='M88.5,358.2 L97.5,358.2  '/>	<g transform="translate(80.2,362.1)" stroke="none" fill="black" font-family="Helvetica" font-size="12.00"  text-anchor="end">
		<text><tspan font-family="Helvetica" > 0.006</tspan></text>
	</g>
</g>
<g fill="none" color="black" stroke="currentColor" stroke-width="1.00" stroke-linecap="butt" stroke-linejoin="miter">
	<path stroke='black'  d='M88.5,256.9 L97.5,256.9  '/>	<g transform="translate(80.2,260.8)" stroke="none" fill="black" font-family="Helvetica" font-size="12.00"  text-anchor="end">
		<text><tspan font-family="Helvetica" > 0.008</tspan></text>
	</g>
</g>
<g fill="none" color="black" stroke="currentColor" stroke-width="1.00" stroke-linecap="butt" stroke-linejoin="miter">
	<path stroke='black'  d='M88.5,155.5 L97.5,155.5  '/>	<g transform="translate(80.2,159.4)" stroke="none" fill="black" font-family="Helvetica" font-size="12.00"  text-anchor="end">
		<text><tspan font-family="Helvetica" > 0.01</tspan></text>
	</g>
</g>
<g fill="none" color="black" stroke="currentColor" stroke-width="1.00" stroke-linecap="butt" stroke-linejoin="miter">
	<path stroke='black'  d='M88.5,54.1 L97.5,54.1  '/>	<g transform="translate(80.2,58.0)" stroke="none" fill="black" font-family="Helvetica" font-size="12.00"  text-anchor="end">
		<text><tspan font-family="Helvetica" > 0.012</tspan></text>
	</g>
</g>
<g fill="none" color="black" stroke="currentColor" stroke-width="1.00" stroke-linecap="butt" stroke-linejoin="miter">
	<path stroke='black'  d='M90.3,662.4 L90.3,653.4  '/>	<g transform="translate(90.3,684.3)" stroke="none" fill="black" font-family="Helvetica" font-size="12.00"  text-anchor="middle">
		<text><tspan font-family="Helvetica" > 20</tspan></text>
	</g>
</g>
<g fill="none" color="black" stroke="currentColor" stroke-width="1.00" stroke-linecap="butt" stroke-linejoin="miter">
	<path stroke='black'  d='M185.5,662.4 L185.5,653.4  '/>	<g transform="translate(185.5,684.3)" stroke="none" fill="black" font-family="Helvetica" font-size="12.00"  text-anchor="middle">
		<text><tspan font-family="Helvetica" > 40</tspan></text>
	</g>
</g>
<g fill="none" color="black" stroke="currentColor" stroke-width="1.00" stroke-linecap="butt" stroke-linejoin="miter">
	<path stroke='black'  d='M280.7,662.4 L280.7,653.4  '/>	<g transform="translate(280.7,684.3)" stroke="none" fill="black" font-family="Helvetica" font-size="12.00"  text-anchor="middle">
		<text><tspan font-family="Helvetica" > 60</tspan></text>
	</g>
</g>
<g fill="none" color="black" stroke="currentColor" stroke-width="1.00" stroke-linecap="butt" stroke-linejoin="miter">
	<path stroke='black'  d='M375.9,662.4 L375.9,653.4  '/>	<g transform="translate(375.9,684.3)" stroke="none" fill="black" font-family="Helvetica" font-size="12.00"  text-anchor="middle">
		<text><tspan font-family="Helvetica" > 80</tspan></text>
	</g>
</g>
<g fill="none" color="black" stroke="currentColor" stroke-width="1.00" stroke-linecap="butt" stroke-linejoin="miter">
	<path stroke='black'  d='M471.1,662.4 L471.1,653.4  '/>	<g transform="translate(471.1,684.3)" stroke="none" fill="black" font-family="Helvetica" font-size="12.00"  text-anchor="middle">
		<text><tspan font-family="Helvetica" > 100</tspan></text>
	</g>
</g>
<g fill="none" color="black" stroke="currentColor" stroke-width="1.00" stroke-linecap="butt" stroke-linejoin="miter">
	<path stroke='black'  d='M566.3,662.4 L566.3,653.4  '/>	<g transform="translate(566.3,684.3)" stroke="none" fill="black" font-family="Helvetica" font-size="12.00"  text-anchor="middle">
		<text><tspan font-family="Helvetica" > 120</tspan></text>
	</g>
</g>
<g fill="none" color="black" stroke="currentColor" stroke-width="1.00" stroke-linecap="butt" stroke-linejoin="miter">
	<path stroke='black'  d='M661.5,662.4 L661.5,653.4  '/>	<g transform="translate(661.5,684.3)" stroke="none" fill="black" font-family="Helvetica" font-size="12.00"  text-anchor="middle">
		<text><tspan font-family="Helvetica" > 140</tspan></text>
	</g>
</g>
<g fill="none" color="black" stroke="currentColor" stroke-width="1.00" stroke-linecap="butt" stroke-linejoin="miter">
	<path stroke='black'  d='M756.8,662.4 L756.8,653.4  '/>	<g transform="translate(756.8,684.3)" stroke="none" fill="black" font-family="Helvetica" font-size="12.00"  text-anchor="middle">
		<text><tspan font-family="Helvetica" > 160</tspan></text>
	</g>
</g>
<g fill="none" color="black" stroke="currentColor" stroke-width="1.00" stroke-linecap="butt" stroke-linejoin="miter">
	<path stroke='black'  d='M852.0,662.4 L852.0,653.4  '/>	<g transform="translate(852.0,684.3)" stroke="none" fill="black" font-family="Helvetica" font-size="12.00"  text-anchor="middle">
		<text><tspan font-family="Helvetica" > 180</tspan></text>
	</g>
</g>
<g fill="none" color="black" stroke="currentColor" stroke-width="1.00" stroke-linecap="butt" stroke-linejoin="miter">
	<path stroke='black'  d='M947.2,662.4 L947.2,653.4  '/>	<g transform="translate(947.2,684.3)" stroke="none" fill="black" font-family="Helvetica" font-size="12.00"  text-anchor="middle">
		<text><tspan font-family="Helvetica" > 200</tspan></text>
	</g>
</g>
<g fill="none" color="black" stroke="currentColor" stroke-width="1.00" stroke-linecap="butt" stroke-linejoin="miter">
</g>
<g fill="none" color="black" stroke="currentColor" stroke-width="1.00" stroke-linecap="butt" stroke-linejoin="miter">
	<path stroke='black'  d='M88.5,54.1 L88.5,662.4 L1013.6,662.4 L1013.6,54.1 L88.5,54.1 Z  '/></g>
<g fill="none" color="black" stroke="currentColor" stroke-width="1.00" stroke-linecap="butt" stroke-linejoin="miter">
	<g transform="translate(17.0,358.3) rotate(270)" stroke="none" fill="black" font-family="Helvetica" font-size="12.00"  text-anchor="middle">
		<text><tspan font-family="Helvetica" >Density (a.u.)</tspan></text>
	</g>
</g>
<g fill="none" color="black" stroke="currentColor" stroke-width="1.00" stroke-linecap="butt" stroke-linejoin="miter">
	<g transform="translate(551.0,711.3)" stroke="none" fill="black" font-family="Helvetica" font-size="12.00"  text-anchor="middle">
		<text><tspan font-family="Helvetica" >Average time (us)</tspan></text>
	</g>
</g>
<g fill="none" color="black" stroke="currentColor" stroke-width="1.00" stroke-linecap="butt" stroke-linejoin="miter">
	<g transform="translate(551.0,31.0)" stroke="none" fill="black" font-family="Helvetica" font-size="12.00"  text-anchor="middle">
		<text><tspan font-family="Helvetica" >language: bash/parse error: html/examples/deeply-nested-custom.html: SD</tspan></text>
	</g>
</g>
	<g id="gnuplot_plot_1" ><title>Bootstrap distribution</title>
<g fill="none" color="white" stroke="black" stroke-width="2.00" stroke-linecap="butt" stroke-linejoin="miter">
</g>
<g fill="none" color="black" stroke="currentColor" stroke-width="2.00" stroke-linecap="butt" stroke-linejoin="miter">
	<g transform="translate(1089.0,67.0)" stroke="none" fill="black" font-family="Helvetica" font-size="12.00"  text-anchor="start">
		<text><tspan font-family="Helvetica" >Bootstrap distribution</tspan></text>
	</g>
</g>
<g fill="none" color="black" stroke="currentColor" stroke-width="2.00" stroke-linecap="butt" stroke-linejoin="miter">
	<path stroke='rgb( 31, 120, 180)'  d='M1038.5,63.1 L1080.7,63.1 M88.5,656.6 L90.4,655.8 L92.2,654.8 L94.1,653.7 L95.9,652.5 L97.8,651.2
		L99.6,649.7 L101.5,648.1 L103.3,646.3 L105.2,644.3 L107.0,642.2 L108.9,639.8 L110.7,637.3 L112.6,634.5
		L114.5,631.6 L116.3,628.4 L118.2,625.0 L120.0,621.4 L121.9,617.6 L123.7,613.5 L125.6,609.2 L127.4,604.7
		L129.3,600.0 L131.1,595.1 L133.0,590.0 L134.8,584.7 L136.7,579.2 L138.6,573.6 L140.4,567.8 L142.3,561.9
		L144.1,555.8 L146.0,549.6 L147.8,543.4 L149.7,537.0 L151.5,530.6 L153.4,524.2 L155.2,517.7 L157.1,511.2
		L158.9,504.8 L160.8,498.3 L162.7,491.9 L164.5,485.5 L166.4,479.3 L168.2,473.1 L170.1,467.0 L171.9,461.0
		L173.8,455.2 L175.6,449.6 L177.5,444.1 L179.3,438.8 L181.2,433.8 L183.0,429.0 L184.9,424.4 L186.8,420.2
		L188.6,416.2 L190.5,412.5 L192.3,409.2 L194.2,406.2 L196.0,403.6 L197.9,401.4 L199.7,399.6 L201.6,398.1
		L203.4,397.2 L205.3,396.6 L207.2,396.5 L209.0,396.8 L210.9,397.6 L212.7,398.8 L214.6,400.5 L216.4,402.7
		L218.3,405.2 L220.1,408.2 L222.0,411.6 L223.8,415.5 L225.7,419.6 L227.5,424.2 L229.4,429.1 L231.3,434.3
		L233.1,439.8 L235.0,445.6 L236.8,451.7 L238.7,457.9 L240.5,464.4 L242.4,471.0 L244.2,477.7 L246.1,484.5
		L247.9,491.4 L249.8,498.4 L251.6,505.4 L253.5,512.4 L255.4,519.3 L257.2,526.2 L259.1,533.0 L260.9,539.8
		L262.8,546.4 L264.6,552.9 L266.5,559.2 L268.3,565.3 L270.2,571.3 L272.0,577.1 L273.9,582.6 L275.7,588.0
		L277.6,593.1 L279.5,598.0 L281.3,602.7 L283.2,607.1 L285.0,611.3 L286.9,615.2 L288.7,618.8 L290.6,622.2
		L292.4,625.3 L294.3,628.2 L296.1,630.8 L298.0,633.0 L299.8,635.0 L301.7,636.7 L303.6,638.1 L305.4,639.1
		L307.3,639.8 L309.1,640.1 L311.0,640.0 L312.8,639.5 L314.7,638.6 L316.5,637.1 L318.4,635.2 L320.2,632.6
		L322.1,629.5 L323.9,625.8 L325.8,621.3 L327.7,616.1 L329.5,610.2 L331.4,603.5 L333.2,595.9 L335.1,587.5
		L336.9,578.2 L338.8,568.0 L340.6,556.9 L342.5,544.9 L344.3,532.0 L346.2,518.3 L348.0,503.7 L349.9,488.3
		L351.8,472.3 L353.6,455.7 L355.5,438.6 L357.3,421.0 L359.2,403.3 L361.0,385.4 L362.9,367.5 L364.7,349.8
		L366.6,332.5 L368.4,315.7 L370.3,299.6 L372.1,284.3 L374.0,270.1 L375.9,257.1 L377.7,245.4 L379.6,235.1
		L381.4,226.5 L383.3,219.5 L385.1,214.3 L387.0,210.9 L388.8,209.4 L390.7,209.7 L392.5,211.9 L394.4,216.0
		L396.2,221.8 L398.1,229.3 L400.0,238.4 L401.8,248.9 L403.7,260.8 L405.5,273.9 L407.4,288.1 L409.2,303.1
		L411.1,318.9 L412.9,335.2 L414.8,351.9 L416.6,368.7 L418.5,385.6 L420.3,402.3 L422.2,418.8 L424.1,434.8
		L425.9,450.3 L427.8,465.1 L429.6,479.1 L431.5,492.2 L433.3,504.3 L435.2,515.4 L437.0,525.4 L438.9,534.2
		L440.7,541.8 L442.6,548.3 L444.5,553.5 L446.3,557.4 L448.2,560.2 L450.0,561.7 L451.9,562.1 L453.7,561.3
		L455.6,559.4 L457.4,556.5 L459.3,552.6 L461.1,547.7 L463.0,542.0 L464.8,535.6 L466.7,528.4 L468.6,520.6
		L470.4,512.3 L472.3,503.6 L474.1,494.5 L476.0,485.3 L477.8,475.8 L479.7,466.3 L481.5,456.9 L483.4,447.5
		L485.2,438.3 L487.1,429.4 L488.9,420.7 L490.8,412.2 L492.7,404.1 L494.5,396.3 L496.4,388.8 L498.2,381.5
		L500.1,374.4 L501.9,367.5 L503.8,360.6 L505.6,353.7 L507.5,346.7 L509.3,339.4 L511.2,331.8 L513.0,323.9
		L514.9,315.4 L516.8,306.4 L518.6,296.7 L520.5,286.4 L522.3,275.3 L524.2,263.6 L526.0,251.2 L527.9,238.2
		L529.7,224.7 L531.6,210.7 L533.4,196.5 L535.3,182.2 L537.1,167.9 L539.0,153.9 L540.9,140.3 L542.7,127.5
		L544.6,115.5 L546.4,104.7 L548.3,95.1 L550.1,87.0 L552.0,80.5 L553.8,75.8 L555.7,72.9 L557.5,71.9
		L559.4,72.8 L561.2,75.5 L563.1,80.1 L565.0,86.3 L566.8,94.1 L568.7,103.3 L570.5,113.7 L572.4,124.9
		L574.2,136.8 L576.1,149.2 L577.9,161.6 L579.8,173.9 L581.6,185.8 L583.5,196.9 L585.3,207.2 L587.2,216.2
		L589.1,223.9 L590.9,230.0 L592.8,234.5 L594.6,237.3 L596.5,238.2 L598.3,237.3 L600.2,234.7 L602.0,230.4
		L603.9,224.4 L605.7,217.1 L607.6,208.4 L609.4,198.7 L611.3,188.1 L613.2,177.0 L615.0,165.5 L616.9,154.0
		L618.7,142.7 L620.6,131.8 L622.4,121.7 L624.3,112.5 L626.1,104.5 L628.0,97.8 L629.8,92.6 L631.7,89.0
		L633.5,87.1 L635.4,87.0 L637.3,88.6 L639.1,91.9 L641.0,96.8 L642.8,103.3 L644.7,111.3 L646.5,120.5
		L648.4,130.7 L650.2,141.9 L652.1,153.8 L653.9,166.2 L655.8,178.8 L657.6,191.5 L659.5,204.1 L661.4,216.4
		L663.2,228.2 L665.1,239.4 L666.9,249.8 L668.8,259.4 L670.6,268.1 L672.5,275.8 L674.3,282.5 L676.2,288.2
		L678.0,292.9 L679.9,296.6 L681.8,299.3 L683.6,301.2 L685.5,302.2 L687.3,302.5 L689.2,302.0 L691.0,300.9
		L692.9,299.2 L694.7,297.0 L696.6,294.3 L698.4,291.3 L700.3,287.8 L702.1,284.0 L704.0,280.0 L705.9,275.6
		L707.7,271.1 L709.6,266.3 L711.4,261.4 L713.3,256.4 L715.1,251.3 L717.0,246.1 L718.8,240.9 L720.7,235.7
		L722.5,230.6 L724.4,225.6 L726.2,220.8 L728.1,216.2 L730.0,211.9 L731.8,207.9 L733.7,204.4 L735.5,201.3
		L737.4,198.6 L739.2,196.5 L741.1,194.8 L742.9,193.8 L744.8,193.2 L746.6,193.3 L748.5,193.8 L750.3,194.9
		L752.2,196.4 L754.1,198.4 L755.9,200.7 L757.8,203.5 L759.6,206.5 L761.5,209.7 L763.3,213.2 L765.2,216.8
		L767.0,220.6 L768.9,224.4 L770.7,228.4 L772.6,232.3 L774.4,236.3 L776.3,240.4 L778.2,244.5 L780.0,248.6
		L781.9,252.8 L783.7,257.1 L785.6,261.5 L787.4,266.1 L789.3,270.8 L791.1,275.6 L793.0,280.7 L794.8,286.0
		L796.7,291.5 L798.5,297.2 L800.4,303.1 L802.3,309.2 L804.1,315.6 L806.0,322.1 L807.8,328.7 L809.7,335.5
		L811.5,342.3 L813.4,349.2 L815.2,356.1 L817.1,362.9 L818.9,369.7 L820.8,376.3 L822.6,382.8 L824.5,389.0
		L826.4,395.1 L828.2,400.9 L830.1,406.4 L831.9,411.5 L833.8,416.4 L835.6,421.0 L837.5,425.2 L839.3,429.0
		L841.2,432.6 L843.0,435.8 L844.9,438.7 L846.7,441.3 L848.6,443.6 L850.5,445.7 L852.3,447.5 L854.2,449.1
		L856.0,450.6 L857.9,451.9 L859.7,453.0 L861.6,454.1 L863.4,455.1 L865.3,456.1 L867.1,457.0 L869.0,458.0
		L870.8,459.0 L872.7,460.0 L874.6,461.1 L876.4,462.4 L878.3,463.7 L880.1,465.2 L882.0,466.8 L883.8,468.6
		L885.7,470.5 L887.5,472.6 L889.4,474.8 L891.2,477.2 L893.1,479.8 L894.9,482.5 L896.8,485.4 L898.7,488.5
		L900.5,491.7 L902.4,495.0 L904.2,498.4 L906.1,502.0 L907.9,505.6 L909.8,509.3 L911.6,513.1 L913.5,517.0
		L915.3,520.8 L917.2,524.8 L919.1,528.7 L920.9,532.6 L922.8,536.5 L924.6,540.3 L926.5,544.1 L928.3,547.9
		L930.2,551.5 L932.0,555.1 L933.9,558.6 L935.7,562.0 L937.6,565.3 L939.4,568.4 L941.3,571.4 L943.2,574.4
		L945.0,577.1 L946.9,579.8 L948.7,582.3 L950.6,584.6 L952.4,586.9 L954.3,589.0 L956.1,591.0 L958.0,592.9
		L959.8,594.7 L961.7,596.3 L963.5,597.9 L965.4,599.4 L967.3,600.8 L969.1,602.2 L971.0,603.5 L972.8,604.7
		L974.7,605.9 L976.5,607.1 L978.4,608.2 L980.2,609.3 L982.1,610.4 L983.9,611.6 L985.8,612.7 L987.6,613.8
		L989.5,614.9 L991.4,616.0 L993.2,617.2 L995.1,618.3 L996.9,619.5 L998.8,620.6 L1000.6,621.8 L1002.5,623.0
		L1004.3,624.2 L1006.2,625.4 L1008.0,626.6 L1009.9,627.8 L1011.7,629.0 L1013.6,630.2  '/></g>
	</g>
	<g id="gnuplot_plot_2" ><title>Confidence interval</title>
<g fill="none" color="white" stroke="rgb( 31, 120, 180)" stroke-width="1.00" stroke-linecap="butt" stroke-linejoin="miter">
</g>
<g fill="none" color="black" stroke="currentColor" stroke-width="1.00" stroke-linecap="butt" stroke-linejoin="miter">
	<g transform="translate(1089.0,85.0)" stroke="none" fill="black" font-family="Helvetica" font-size="12.00"  text-anchor="start">
		<text><tspan font-family="Helvetica" >Confidence interval</tspan></text>
	</g>
</g>
<g fill="none" color="black" stroke="currentColor" stroke-width="1.00" stroke-linecap="butt" stroke-linejoin="miter">
	<g stroke='none' shape-rendering='crispEdges'>
		<polygon fill = 'rgb( 31, 120, 180)' fill-opacity = '0.250000' points = '1038.5,85.6 1080.7,85.6 1080.7,76.6 1038.5,76.6 '/>
		<polygon fill = 'rgb( 31, 120, 180)' fill-opacity = '0.250000' points = '173.8,455.2 173.8,662.4 175.6,662.4 175.6,449.6 '/>
		<polygon fill = 'rgb( 31, 120, 180)' fill-opacity = '0.250000' points = '175.6,449.6 175.6,662.4 177.5,662.4 177.5,444.1 '/>
		<polygon fill = 'rgb( 31, 120, 180)' fill-opacity = '0.250000' points = '177.5,444.1 177.5,662.4 179.3,662.4 179.3,438.8 '/>
		<polygon fill = 'rgb( 31, 120, 180)' fill-opacity = '0.250000' points = '179.3,438.8 179.3,662.4 181.2,662.4 181.2,433.8 '/>
		<polygon fill = 'rgb( 31, 120, 180)' fill-opacity = '0.250000' points = '181.2,433.8 181.2,662.4 183.0,662.4 183.0,429.0 '/>
		<polygon fill = 'rgb( 31, 120, 180)' fill-opacity = '0.250000' points = '183.0,429.0 183.0,662.4 184.9,662.4 184.9,424.4 '/>
		<polygon fill = 'rgb( 31, 120, 180)' fill-opacity = '0.250000' points = '184.9,424.4 184.9,662.4 186.8,662.4 186.8,420.2 '/>
		<polygon fill = 'rgb( 31, 120, 180)' fill-opacity = '0.250000' points = '186.8,420.2 186.8,662.4 188.6,662.4 188.6,416.2 '/>
		<polygon fill = 'rgb( 31, 120, 180)' fill-opacity = '0.250000' points = '188.6,416.2 188.6,662.4 190.5,662.4 190.5,412.5 '/>
		<polygon fill = 'rgb( 31, 120, 180)' fill-opacity = '0.250000' points = '190.5,412.5 190.5,662.4 192.3,662.4 192.3,409.2 '/>
		<polygon fill = 'rgb( 31, 120, 180)' fill-opacity = '0.250000' points = '192.3,409.2 192.3,662.4 194.2,662.4 194.2,406.2 '/>
		<polygon fill = 'rgb( 31, 120, 180)' fill-opacity = '0.250000' points = '194.2,406.2 194.2,662.4 196.0,662.4 196.0,403.6 '/>
		<polygon fill = 'rgb( 31, 120, 180)' fill-opacity = '0.250000' points = '196.0,403.6 196.0,662.4 197.9,662.4 197.9,401.4 '/>
		<polygon fill = 'rgb( 31, 120, 180)' fill-opacity = '0.250000' points = '197.9,401.4 197.9,662.4 199.7,662.4 199.7,399.6 '/>
		<polygon fill = 'rgb( 31, 120, 180)' fill-opacity = '0.250000' points = '199.7,399.6 199.7,662.4 201.6,662.4 201.6,398.1 '/>
		<polygon fill = 'rgb( 31, 120, 180)' fill-opacity = '0.250000' points = '201.6,398.1 201.6,662.4 203.4,662.4 203.4,397.2 '/>
		<polygon fill = 'rgb( 31, 120, 180)' fill-opacity = '0.250000' points = '203.4,397.2 203.4,662.4 205.3,662.4 205.3,396.6 '/>
		<polygon fill = 'rgb( 31, 120, 180)' fill-opacity = '0.250000' points = '205.3,396.6 205.3,662.4 207.2,662.4 207.2,396.5 '/>
		<polygon fill = 'rgb( 31, 120, 180)' fill-opacity = '0.250000' points = '207.2,396.5 207.2,662.4 209.0,662.4 209.0,396.8 '/>
		<polygon fill = 'rgb( 31, 120, 180)' fill-opacity = '0.250000' points = '209.0,396.8 209.0,662.4 210.9,662.4 210.9,397.6 '/>
		<polygon fill = 'rgb( 31, 120, 180)' fill-opacity = '0.250000' points = '210.9,397.6 210.9,662.4 212.7,662.4 212.7,398.8 '/>
		<polygon fill = 'rgb( 31, 120, 180)' fill-opacity = '0.250000' points = '212.7,398.8 212.7,662.4 214.6,662.4 214.6,400.5 '/>
		<polygon fill = 'rgb( 31, 120, 180)' fill-opacity = '0.250000' points = '214.6,400.5 214.6,662.4 216.4,662.4 216.4,402.7 '/>
		<polygon fill = 'rgb( 31, 120, 180)' fill-opacity = '0.250000' points = '216.4,402.7 216.4,662.4 218.3,662.4 218.3,405.2 '/>
		<polygon fill = 'rgb( 31, 120, 180)' fill-opacity = '0.250000' points = '218.3,405.2 218.3,662.4 220.1,662.4 220.1,408.2 '/>
		<polygon fill = 'rgb( 31, 120, 180)' fill-opacity = '0.250000' points = '220.1,408.2 220.1,662.4 222.0,662.4 222.0,411.6 '/>
		<polygon fill = 'rgb( 31, 120, 180)' fill-opacity = '0.250000' points = '222.0,411.6 222.0,662.4 223.8,662.4 223.8,415.5 '/>
		<polygon fill = 'rgb( 31, 120, 180)' fill-opacity = '0.250000' points = '223.8,415.5 223.8,662.4 225.7,662.4 225.7,419.6 '/>
		<polygon fill = 'rgb( 31, 120, 180)' fill-opacity = '0.250000' points = '225.7,419.6 225.7,662.4 227.5,662.4 227.5,424.2 '/>
		<polygon fill = 'rgb( 31, 120, 180)' fill-opacity = '0.250000' points = '227.5,424.2 227.5,662.4 229.4,662.4 229.4,429.1 '/>
		<polygon fill = 'rgb( 31, 120, 180)' fill-opacity = '0.250000' points = '229.4,429.1 229.4,662.4 231.3,662.4 231.3,434.3 '/>
		<polygon fill = 'rgb( 31, 120, 180)' fill-opacity = '0.250000' points = '231.3,434.3 231.3,662.4 233.1,662.4 233.1,439.8 '/>
		<polygon fill = 'rgb( 31, 120, 180)' fill-opacity = '0.250000' points = '233.1,439.8 233.1,662.4 235.0,662.4 235.0,445.6 '/>
		<polygon fill = 'rgb( 31, 120, 180)' fill-opacity = '0.250000' points = '235.0,445.6 235.0,662.4 236.8,662.4 236.8,451.7 '/>
		<polygon fill = 'rgb( 31, 120, 180)' fill-opacity = '0.250000' points = '236.8,451.7 236.8,662.4 238.7,662.4 238.7,457.9 '/>
		<polygon fill = 'rgb( 31, 120, 180)' fill-opacity = '0.250000' points = '238.7,457.9 238.7,662.4 240.5,662.4 240.5,464.4 '/>
		<polygon fill = 'rgb( 31, 120, 180)' fill-opacity = '0.250000' points = '240.5,464.4 240.5,662.4 242.4,662.4 242.4,471.0 '/>
		<polygon fill = 'rgb( 31, 120, 180)' fill-opacity = '0.250000' points = '242.4,471.0 242.4,662.4 244.2,662.4 244.2,477.7 '/>
		<polygon fill = 'rgb( 31, 120, 180)' fill-opacity = '0.250000' points = '244.2,477.7 244.2,662.4 246.1,662.4 246.1,484.5 '/>
		<polygon fill = 'rgb( 31, 120, 180)' fill-opacity = '0.250000' points = '246.1,484.5 246.1,662.4 247.9,662.4 247.9,491.4 '/>
		<polygon fill = 'rgb( 31, 120, 180)' fill-opacity = '0.250000' points = '247.9,491.4 247.9,662.4 249.8,662.4 249.8,498.4 '/>
		<polygon fill = 'rgb( 31, 120, 180)' fill-opacity = '0.250000' points = '249.8,498.4 249.8,662.4 251.6,662.4 251.6,505.4 '/>
		<polygon fill = 'rgb( 31, 120, 180)' fill-opacity = '0.250000' points = '251.6,505.4 251.6,662.4 253.5,662.4 253.5,512.4 '/>
		<polygon fill = 'rgb( 31, 120, 180)' fill-opacity = '0.250000' points = '253.5,512.4 253.5,662.4 255.4,662.4 255.4,519.3 '/>
		<polygon fill = 'rgb( 31, 120, 180)' fill-opacity = '0.250000' points = '255.4,519.3 255.4,662.4 257.2,662.4 257.2,526.2 '/>
		<polygon fill = 'rgb( 31, 120, 180)' fill-opacity = '0.250000' points = '257.2,526.2 257.2,662.4 259.1,662.4 259.1,533.0 '/>
		<polygon fill = 'rgb( 31, 120, 180)' fill-opacity = '0.250000' points = '259.1,533.0 259.1,662.4 260.9,662.4 260.9,539.8 '/>
		<polygon fill = 'rgb( 31, 120, 180)' fill-opacity = '0.250000' points = '260.9,539.8 260.9,662.4 262.8,662.4 262.8,546.4 '/>
		<polygon fill = 'rgb( 31, 120, 180)' fill-opacity = '0.250000' points = '262.8,546.4 262.8,662.4 264.6,662.4 264.6,552.9 '/>
		<polygon fill = 'rgb( 31, 120, 180)' fill-opacity = '0.250000' points = '264.6,552.9 264.6,662.4 266.5,662.4 266.5,559.2 '/>
		<polygon fill = 'rgb( 31, 120, 180)' fill-opacity = '0.250000' points = '266.5,559.2 266.5,662.4 268.3,662.4 268.3,565.3 '/>
		<polygon fill = 'rgb( 31, 120, 180)' fill-opacity = '0.250000' points = '268.3,565.3 268.3,662.4 270.2,662.4 270.2,571.3 '/>
		<polygon fill = 'rgb( 31, 120, 180)' fill-opacity = '0.250000' points = '270.2,571.3 270.2,662.4 272.0,662.4 272.0,577.1 '/>
		<polygon fill = 'rgb( 31, 120, 180)' fill-opacity = '0.250000' points = '272.0,577.1 272.0,662.4 273.9,662.4 273.9,582.6 '/>
		<polygon fill = 'rgb( 31, 120, 180)' fill-opacity = '0.250000' points = '273.9,582.6 273.9,662.4 275.7,662.4 275.7,588.0 '/>
		<polygon fill = 'rgb( 31, 120, 180)' fill-opacity = '0.250000' points = '275.7,588.0 275.7,662.4 277.6,662.4 277.6,593.1 '/>
		<polygon fill = 'rgb( 31, 120, 180)' fill-opacity = '0.250000' points = '277.6,593.1 277.6,662.4 279.5,662.4 279.5,598.0 '/>
		<polygon fill = 'rgb( 31, 120, 180)' fill-opacity = '0.250000' points = '279.5,598.0 279.5,662.4 281.3,662.4 281.3,602.7 '/>
		<polygon fill = 'rgb( 31, 120, 180)' fill-opacity = '0.250000' points = '281.3,602.7 281.3,662.4 283.2,662.4 283.2,607.1 '/>
		<polygon fill = 'rgb( 31, 120, 180)' fill-opacity = '0.250000' points = '283.2,607.1 283.2,662.4 285.0,662.4 285.0,611.3 '/>
		<polygon fill = 'rgb( 31, 120, 180)' fill-opacity = '0.250000' points = '285.0,611.3 285.0,662.4 286.9,662.4 286.9,615.2 '/>
		<polygon fill = 'rgb( 31, 120, 180)' fill-opacity = '0.250000' points = '286.9,615.2 286.9,662.4 288.7,662.4 288.7,618.8 '/>
		<polygon fill = 'rgb( 31, 120, 180)' fill-opacity = '0.250000' points = '288.7,618.8 288.7,662.4 290.6,662.4 290.6,622.2 '/>
		<polygon fill = 'rgb( 31, 120, 180)' fill-opacity = '0.250000' points = '290.6,622.2 290.6,662.4 292.4,662.4 292.4,625.3 '/>
		<polygon fill = 'rgb( 31, 120, 180)' fill-opacity = '0.250000' points = '292.4,625.3 292.4,662.4 294.3,662.4 294.3,628.2 '/>
		<polygon fill = 'rgb( 31, 120, 180)' fill-opacity = '0.250000' points = '294.3,628.2 294.3,662.4 296.1,662.4 296.1,630.8 '/>
		<polygon fill = 'rgb( 31, 120, 180)' fill-opacity = '0.250000' points = '296.1,630.8 296.1,662.4 298.0,662.4 298.0,633.0 '/>
		<polygon fill = 'rgb( 31, 120, 180)' fill-opacity = '0.250000' points = '298.0,633.0 298.0,662.4 299.8,662.4 299.8,635.0 '/>
		<polygon fill = 'rgb( 31, 120, 180)' fill-opacity = '0.250000' points = '299.8,635.0 299.8,662.4 301.7,662.4 301.7,636.7 '/>
		<polygon fill = 'rgb( 31, 120, 180)' fill-opacity = '0.250000' points = '301.7,636.7 301.7,662.4 303.6,662.4 303.6,638.1 '/>
		<polygon fill = 'rgb( 31, 120, 180)' fill-opacity = '0.250000' points = '303.6,638.1 303.6,662.4 305.4,662.4 305.4,639.1 '/>
		<polygon fill = 'rgb( 31, 120, 180)' fill-opacity = '0.250000' points = '305.4,639.1 305.4,662.4 307.3,662.4 307.3,639.8 '/>
		<polygon fill = 'rgb( 31, 120, 180)' fill-opacity = '0.250000' points = '307.3,639.8 307.3,662.4 309.1,662.4 309.1,640.1 '/>
		<polygon fill = 'rgb( 31, 120, 180)' fill-opacity = '0.250000' points = '309.1,640.1 309.1,662.4 311.0,662.4 311.0,640.0 '/>
		<polygon fill = 'rgb( 31, 120, 180)' fill-opacity = '0.250000' points = '311.0,640.0 311.0,662.4 312.8,662.4 312.8,639.5 '/>
		<polygon fill = 'rgb( 31, 120, 180)' fill-opacity = '0.250000' points = '312.8,639.5 312.8,662.4 314.7,662.4 314.7,638.6 '/>
		<polygon fill = 'rgb( 31, 120, 180)' fill-opacity = '0.250000' points = '314.7,638.6 314.7,662.4 316.5,662.4 316.5,637.1 '/>
		<polygon fill = 'rgb( 31, 120, 180)' fill-opacity = '0.250000' points = '316.5,637.1 316.5,662.4 318.4,662.4 318.4,635.2 '/>
		<polygon fill = 'rgb( 31, 120, 180)' fill-opacity = '0.250000' points = '318.4,635.2 318.4,662.4 320.2,662.4 320.2,632.6 '/>
		<polygon fill = 'rgb( 31, 120, 180)' fill-opacity = '0.250000' points = '320.2,632.6 320.2,662.4 322.1,662.4 322.1,629.5 '/>
		<polygon fill = 'rgb( 31, 120, 180)' fill-opacity = '0.250000' points = '322.1,629.5 322.1,662.4 323.9,662.4 323.9,625.8 '/>
		<polygon fill = 'rgb( 31, 120, 180)' fill-opacity = '0.250000' points = '323.9,625.8 323.9,662.4 325.8,662.4 325.8,621.3 '/>
		<polygon fill = 'rgb( 31, 120, 180)' fill-opacity = '0.250000' points = '325.8,621.3 325.8,662.4 327.7,662.4 327.7,616.1 '/>
		<polygon fill = 'rgb( 31, 120, 180)' fill-opacity = '0.250000' points = '327.7,616.1 327.7,662.4 329.5,662.4 329.5,610.2 '/>
		<polygon fill = 'rgb( 31, 120, 180)' fill-opacity = '0.250000' points = '329.5,610.2 329.5,662.4 331.4,662.4 331.4,603.5 '/>
		<polygon fill = 'rgb( 31, 120, 180)' fill-opacity = '0.250000' points = '331.4,603.5 331.4,662.4 333.2,662.4 333.2,595.9 '/>
		<polygon fill = 'rgb( 31, 120, 180)' fill-opacity = '0.250000' points = '333.2,595.9 333.2,662.4 335.1,662.4 335.1,587.5 '/>
		<polygon fill = 'rgb( 31, 120, 180)' fill-opacity = '0.250000' points = '335.1,587.5 335.1,662.4 336.9,662.4 336.9,578.2 '/>
		<polygon fill = 'rgb( 31, 120, 180)' fill-opacity = '0.250000' points = '336.9,578.2 336.9,662.4 338.8,662.4 338.8,568.0 '/>
		<polygon fill = 'rgb( 31, 120, 180)' fill-opacity = '0.250000' points = '338.8,568.0 338.8,662.4 340.6,662.4 340.6,556.9 '/>
		<polygon fill = 'rgb( 31, 120, 180)' fill-opacity = '0.250000' points = '340.6,556.9 340.6,662.4 342.5,662.4 342.5,544.9 '/>
		<polygon fill = 'rgb( 31, 120, 180)' fill-opacity = '0.250000' points = '342.5,544.9 342.5,662.4 344.3,662.4 344.3,532.0 '/>
		<polygon fill = 'rgb( 31, 120, 180)' fill-opacity = '0.250000' points = '344.3,532.0 344.3,662.4 346.2,662.4 346.2,518.3 '/>
		<polygon fill = 'rgb( 31, 120, 180)' fill-opacity = '0.250000' points = '346.2,518.3 346.2,662.4 348.0,662.4 348.0,503.7 '/>
		<polygon fill = 'rgb( 31, 120, 180)' fill-opacity = '0.250000' points = '348.0,503.7 348.0,662.4 349.9,662.4 349.9,488.3 '/>
		<polygon fill = 'rgb( 31, 120, 180)' fill-opacity = '0.250000' points = '349.9,488.3 349.9,662.4 351.8,662.4 351.8,472.3 '/>
		<polygon fill = 'rgb( 31, 120, 180)' fill-opacity = '0.250000' points = '351.8,472.3 351.8,662.4 353.6,662.4 353.6,455.7 '/>
		<polygon fill = 'rgb( 31, 120, 180)' fill-opacity = '0.250000' points = '353.6,455.7 353.6,662.4 355.5,662.4 355.5,438.6 '/>
		<polygon fill = 'rgb( 31, 120, 180)' fill-opacity = '0.250000' points = '355.5,438.6 355.5,662.4 357.3,662.4 357.3,421.0 '/>
		<polygon fill = 'rgb( 31, 120, 180)' fill-opacity = '0.250000' points = '357.3,421.0 357.3,662.4 359.2,662.4 359.2,403.3 '/>
		<polygon fill = 'rgb( 31, 120, 180)' fill-opacity = '0.250000' points = '359.2,403.3 359.2,662.4 361.0,662.4 361.0,385.4 '/>
		<polygon fill = 'rgb( 31, 120, 180)' fill-opacity = '0.250000' points = '361.0,385.4 361.0,662.4 362.9,662.4 362.9,367.5 '/>
		<polygon fill = 'rgb( 31, 120, 180)' fill-opacity = '0.250000' points = '362.9,367.5 362.9,662.4 364.7,662.4 364.7,349.8 '/>
		<polygon fill = 'rgb( 31, 120, 180)' fill-opacity = '0.250000' points = '364.7,349.8 364.7,662.4 366.6,662.4 366.6,332.5 '/>
		<polygon fill = 'rgb( 31, 120, 180)' fill-opacity = '0.250000' points = '366.6,332.5 366.6,662.4 368.4,662.4 368.4,315.7 '/>
		<polygon fill = 'rgb( 31, 120, 180)' fill-opacity = '0.250000' points = '368.4,315.7 368.4,662.4 370.3,662.4 370.3,299.6 '/>
		<polygon fill = 'rgb( 31, 120, 180)' fill-opacity = '0.250000' points = '370.3,299.6 370.3,662.4 372.1,662.4 372.1,284.3 '/>
		<polygon fill = 'rgb( 31, 120, 180)' fill-opacity = '0.250000' points = '372.1,284.3 372.1,662.4 374.0,662.4 374.0,270.1 '/>
		<polygon fill = 'rgb( 31, 120, 180)' fill-opacity = '0.250000' points = '374.0,270.1 374.0,662.4 375.9,662.4 375.9,257.1 '/>
		<polygon fill = 'rgb( 31, 120, 180)' fill-opacity = '0.250000' points = '375.9,257.1 375.9,662.4 377.7,662.4 377.7,245.4 '/>
		<polygon fill = 'rgb( 31, 120, 180)' fill-opacity = '0.250000' points = '377.7,245.4 377.7,662.4 379.6,662.4 379.6,235.1 '/>
		<polygon fill = 'rgb( 31, 120, 180)' fill-opacity = '0.250000' points = '379.6,235.1 379.6,662.4 381.4,662.4 381.4,226.5 '/>
		<polygon fill = 'rgb( 31, 120, 180)' fill-opacity = '0.250000' points = '381.4,226.5 381.4,662.4 383.3,662.4 383.3,219.5 '/>
		<polygon fill = 'rgb( 31, 120, 180)' fill-opacity = '0.250000' points = '383.3,219.5 383.3,662.4 385.1,662.4 385.1,214.3 '/>
		<polygon fill = 'rgb( 31, 120, 180)' fill-opacity = '0.250000' points = '385.1,214.3 385.1,662.4 387.0,662.4 387.0,210.9 '/>
		<polygon fill = 'rgb( 31, 120, 180)' fill-opacity = '0.250000' points = '387.0,210.9 387.0,662.4 388.8,662.4 388.8,209.4 '/>
		<polygon fill = 'rgb( 31, 120, 180)' fill-opacity = '0.250000' points = '388.8,209.4 388.8,662.4 390.7,662.4 390.7,209.7 '/>
		<polygon fill = 'rgb( 31, 120, 180)' fill-opacity = '0.250000' points = '390.7,209.7 390.7,662.4 392.5,662.4 392.5,211.9 '/>
		<polygon fill = 'rgb( 31, 120, 180)' fill-opacity = '0.250000' points = '392.5,211.9 392.5,662.4 394.4,662.4 394.4,216.0 '/>
		<polygon fill = 'rgb( 31, 120, 180)' fill-opacity = '0.250000' points = '394.4,216.0 394.4,662.4 396.2,662.4 396.2,221.8 '/>
		<polygon fill = 'rgb( 31, 120, 180)' fill-opacity = '0.250000' points = '396.2,221.8 396.2,662.4 398.1,662.4 398.1,229.3 '/>
		<polygon fill = 'rgb( 31, 120, 180)' fill-opacity = '0.250000' points = '398.1,229.3 398.1,662.4 400.0,662.4 400.0,238.4 '/>
		<polygon fill = 'rgb( 31, 120, 180)' fill-opacity = '0.250000' points = '400.0,238.4 400.0,662.4 401.8,662.4 401.8,248.9 '/>
		<polygon fill = 'rgb( 31, 120, 180)' fill-opacity = '0.250000' points = '401.8,248.9 401.8,662.4 403.7,662.4 403.7,260.8 '/>
		<polygon fill = 'rgb( 31, 120, 180)' fill-opacity = '0.250000' points = '403.7,260.8 403.7,662.4 405.5,662.4 405.5,273.9 '/>
		<polygon fill = 'rgb( 31, 120, 180)' fill-opacity = '0.250000' points = '405.5,273.9 405.5,662.4 407.4,662.4 407.4,288.1 '/>
		<polygon fill = 'rgb( 31, 120, 180)' fill-opacity = '0.250000' points = '407.4,288.1 407.4,662.4 409.2,662.4 409.2,303.1 '/>
		<polygon fill = 'rgb( 31, 120, 180)' fill-opacity = '0.250000' points = '409.2,303.1 409.2,662.4 411.1,662.4 411.1,318.9 '/>
		<polygon fill = 'rgb( 31, 120, 180)' fill-opacity = '0.250000' points = '411.1,318.9 411.1,662.4 412.9,662.4 412.9,335.2 '/>
		<polygon fill = 'rgb( 31, 120, 180)' fill-opacity = '0.250000' points = '412.9,335.2 412.9,662.4 414.8,662.4 414.8,351.9 '/>
		<polygon fill = 'rgb( 31, 120, 180)' fill-opacity = '0.250000' points = '414.8,351.9 414.8,662.4 416.6,662.4 416.6,368.7 '/>
		<polygon fill = 'rgb( 31, 120, 180)' fill-opacity = '0.250000' points = '416.6,368.7 416.6,662.4 418.5,662.4 418.5,385.6 '/>
		<polygon fill = 'rgb( 31, 120, 180)' fill-opacity = '0.250000' points = '418.5,385.6 418.5,662.4 420.3,662.4 420.3,402.3 '/>
		<polygon fill = 'rgb( 31, 120, 180)' fill-opacity = '0.250000' points = '420.3,402.3 420.3,662.4 422.2,662.4 422.2,418.8 '/>
		<polygon fill = 'rgb( 31, 120, 180)' fill-opacity = '0.250000' points = '422.2,418.8 422.2,662.4 424.1,662.4 424.1,434.8 '/>
		<polygon fill = 'rgb( 31, 120, 180)' fill-opacity = '0.250000' points = '424.1,434.8 424.1,662.4 425.9,662.4 425.9,450.3 '/>
		<polygon fill = 'rgb( 31, 120, 180)' fill-opacity = '0.250000' points = '425.9,450.3 425.9,662.4 427.8,662.4 427.8,465.1 '/>
		<polygon fill = 'rgb( 31, 120, 180)' fill-opacity = '0.250000' points = '427.8,465.1 427.8,662.4 429.6,662.4 429.6,479.1 '/>
		<polygon fill = 'rgb( 31, 120, 180)' fill-opacity = '0.250000' points = '429.6,479.1 429.6,662.4 431.5,662.4 431.5,492.2 '/>
		<polygon fill = 'rgb( 31, 120, 180)' fill-opacity = '0.250000' points = '431.5,492.2 431.5,662.4 433.3,662.4 433.3,504.3 '/>
		<polygon fill = 'rgb( 31, 120, 180)' fill-opacity = '0.250000' points = '433.3,504.3 433.3,662.4 435.2,662.4 435.2,515.4 '/>
		<polygon fill = 'rgb( 31, 120, 180)' fill-opacity = '0.250000' points = '435.2,515.4 435.2,662.4 437.0,662.4 437.0,525.4 '/>
		<polygon fill = 'rgb( 31, 120, 180)' fill-opacity = '0.250000' points = '437.0,525.4 437.0,662.4 438.9,662.4 438.9,534.2 '/>
		<polygon fill = 'rgb( 31, 120, 180)' fill-opacity = '0.250000' points = '438.9,534.2 438.9,662.4 440.7,662.4 440.7,541.8 '/>
		<polygon fill = 'rgb( 31, 120, 180)' fill-opacity = '0.250000' points = '440.7,541.8 440.7,662.4 442.6,662.4 442.6,548.3 '/>
		<polygon fill = 'rgb( 31, 120, 180)' fill-opacity = '0.250000' points = '442.6,548.3 442.6,662.4 444.5,662.4 444.5,553.5 '/>
		<polygon fill = 'rgb( 31, 120, 180)' fill-opacity = '0.250000' points = '444.5,553.5 444.5,662.4 446.3,662.4 446.3,557.4 '/>
		<polygon fill = 'rgb( 31, 120, 180)' fill-opacity = '0.250000' points = '446.3,557.4 446.3,662.4 448.2,662.4 448.2,560.2 '/>
		<polygon fill = 'rgb( 31, 120, 180)' fill-opacity = '0.250000' points = '448.2,560.2 448.2,662.4 450.0,662.4 450.0,561.7 '/>
		<polygon fill = 'rgb( 31, 120, 180)' fill-opacity = '0.250000' points = '450.0,561.7 450.0,662.4 451.9,662.4 451.9,562.1 '/>
		<polygon fill = 'rgb( 31, 120, 180)' fill-opacity = '0.250000' points = '451.9,562.1 451.9,662.4 453.7,662.4 453.7,561.3 '/>
		<polygon fill = 'rgb( 31, 120, 180)' fill-opacity = '0.250000' points = '453.7,561.3 453.7,662.4 455.6,662.4 455.6,559.4 '/>
		<polygon fill = 'rgb( 31, 120, 180)' fill-opacity = '0.250000' points = '455.6,559.4 455.6,662.4 457.4,662.4 457.4,556.5 '/>
		<polygon fill = 'rgb( 31, 120, 180)' fill-opacity = '0.250000' points = '457.4,556.5 457.4,662.4 459.3,662.4 459.3,552.6 '/>
		<polygon fill = 'rgb( 31, 120, 180)' fill-opacity = '0.250000' points = '459.3,552.6 459.3,662.4 461.1,662.4 461.1,547.7 '/>
		<polygon fill = 'rgb( 31, 120, 180)' fill-opacity = '0.250000' points = '461.1,547.7 461.1,662.4 463.0,662.4 463.0,542.0 '/>
		<polygon fill = 'rgb( 31, 120, 180)' fill-opacity = '0.250000' points = '463.0,542.0 463.0,662.4 464.8,662.4 464.8,535.6 '/>
		<polygon fill = 'rgb( 31, 120, 180)' fill-opacity = '0.250000' points = '464.8,535.6 464.8,662.4 466.7,662.4 466.7,528.4 '/>
		<polygon fill = 'rgb( 31, 120, 180)' fill-opacity = '0.250000' points = '466.7,528.4 466.7,662.4 468.6,662.4 468.6,520.6 '/>
		<polygon fill = 'rgb( 31, 120, 180)' fill-opacity = '0.250000' points = '468.6,520.6 468.6,662.4 470.4,662.4 470.4,512.3 '/>
		<polygon fill = 'rgb( 31, 120, 180)' fill-opacity = '0.250000' points = '470.4,512.3 470.4,662.4 472.3,662.4 472.3,503.6 '/>
		<polygon fill = 'rgb( 31, 120, 180)' fill-opacity = '0.250000' points = '472.3,503.6 472.3,662.4 474.1,662.4 474.1,494.5 '/>
		<polygon fill = 'rgb( 31, 120, 180)' fill-opacity = '0.250000' points = '474.1,494.5 474.1,662.4 476.0,662.4 476.0,485.3 '/>
		<polygon fill = 'rgb( 31, 120, 180)' fill-opacity = '0.250000' points = '476.0,485.3 476.0,662.4 477.8,662.4 477.8,475.8 '/>
		<polygon fill = 'rgb( 31, 120, 180)' fill-opacity = '0.250000' points = '477.8,475.8 477.8,662.4 479.7,662.4 479.7,466.3 '/>
		<polygon fill = 'rgb( 31, 120, 180)' fill-opacity = '0.250000' points = '479.7,466.3 479.7,662.4 481.5,662.4 481.5,456.9 '/>
		<polygon fill = 'rgb( 31, 120, 180)' fill-opacity = '0.250000' points = '481.5,456.9 481.5,662.4 483.4,662.4 483.4,447.5 '/>
		<polygon fill = 'rgb( 31, 120, 180)' fill-opacity = '0.250000' points = '483.4,447.5 483.4,662.4 485.2,662.4 485.2,438.3 '/>
		<polygon fill = 'rgb( 31, 120, 180)' fill-opacity = '0.250000' points = '485.2,438.3 485.2,662.4 487.1,662.4 487.1,429.4 '/>
		<polygon fill = 'rgb( 31, 120, 180)' fill-opacity = '0.250000' points = '487.1,429.4 487.1,662.4 488.9,662.4 488.9,420.7 '/>
		<polygon fill = 'rgb( 31, 120, 180)' fill-opacity = '0.250000' points = '488.9,420.7 488.9,662.4 490.8,662.4 490.8,412.2 '/>
		<polygon fill = 'rgb( 31, 120, 180)' fill-opacity = '0.250000' points = '490.8,412.2 490.8,662.4 492.7,662.4 492.7,404.1 '/>
		<polygon fill = 'rgb( 31, 120, 180)' fill-opacity = '0.250000' points = '492.7,404.1 492.7,662.4 494.5,662.4 494.5,396.3 '/>
		<polygon fill = 'rgb( 31, 120, 180)' fill-opacity = '0.250000' points = '494.5,396.3 494.5,662.4 496.4,662.4 496.4,388.8 '/>
		<polygon fill = 'rgb( 31, 120, 180)' fill-opacity = '0.250000' points = '496.4,388.8 496.4,662.4 498.2,662.4 498.2,381.5 '/>
		<polygon fill = 'rgb( 31, 120, 180)' fill-opacity = '0.250000' points = '498.2,381.5 498.2,662.4 500.1,662.4 500.1,374.4 '/>
		<polygon fill = 'rgb( 31, 120, 180)' fill-opacity = '0.250000' points = '500.1,374.4 500.1,662.4 501.9,662.4 501.9,367.5 '/>
		<polygon fill = 'rgb( 31, 120, 180)' fill-opacity = '0.250000' points = '501.9,367.5 501.9,662.4 503.8,662.4 503.8,360.6 '/>
		<polygon fill = 'rgb( 31, 120, 180)' fill-opacity = '0.250000' points = '503.8,360.6 503.8,662.4 505.6,662.4 505.6,353.7 '/>
		<polygon fill = 'rgb( 31, 120, 180)' fill-opacity = '0.250000' points = '505.6,353.7 505.6,662.4 507.5,662.4 507.5,346.7 '/>
		<polygon fill = 'rgb( 31, 120, 180)' fill-opacity = '0.250000' points = '507.5,346.7 507.5,662.4 509.3,662.4 509.3,339.4 '/>
		<polygon fill = 'rgb( 31, 120, 180)' fill-opacity = '0.250000' points = '509.3,339.4 509.3,662.4 511.2,662.4 511.2,331.8 '/>
		<polygon fill = 'rgb( 31, 120, 180)' fill-opacity = '0.250000' points = '511.2,331.8 511.2,662.4 513.0,662.4 513.0,323.9 '/>
		<polygon fill = 'rgb( 31, 120, 180)' fill-opacity = '0.250000' points = '513.0,323.9 513.0,662.4 514.9,662.4 514.9,315.4 '/>
		<polygon fill = 'rgb( 31, 120, 180)' fill-opacity = '0.250000' points = '514.9,315.4 514.9,662.4 516.8,662.4 516.8,306.4 '/>
		<polygon fill = 'rgb( 31, 120, 180)' fill-opacity = '0.250000' points = '516.8,306.4 516.8,662.4 518.6,662.4 518.6,296.7 '/>
		<polygon fill = 'rgb( 31, 120, 180)' fill-opacity = '0.250000' points = '518.6,296.7 518.6,662.4 520.5,662.4 520.5,286.4 '/>
		<polygon fill = 'rgb( 31, 120, 180)' fill-opacity = '0.250000' points = '520.5,286.4 520.5,662.4 522.3,662.4 522.3,275.3 '/>
		<polygon fill = 'rgb( 31, 120, 180)' fill-opacity = '0.250000' points = '522.3,275.3 522.3,662.4 524.2,662.4 524.2,263.6 '/>
		<polygon fill = 'rgb( 31, 120, 180)' fill-opacity = '0.250000' points = '524.2,263.6 524.2,662.4 526.0,662.4 526.0,251.2 '/>
		<polygon fill = 'rgb( 31, 120, 180)' fill-opacity = '0.250000' points = '526.0,251.2 526.0,662.4 527.9,662.4 527.9,238.2 '/>
		<polygon fill = 'rgb( 31, 120, 180)' fill-opacity = '0.250000' points = '527.9,238.2 527.9,662.4 529.7,662.4 529.7,224.7 '/>
		<polygon fill = 'rgb( 31, 120, 180)' fill-opacity = '0.250000' points = '529.7,224.7 529.7,662.4 531.6,662.4 531.6,210.7 '/>
		<polygon fill = 'rgb( 31, 120, 180)' fill-opacity = '0.250000' points = '531.6,210.7 531.6,662.4 533.4,662.4 533.4,196.5 '/>
		<polygon fill = 'rgb( 31, 120, 180)' fill-opacity = '0.250000' points = '533.4,196.5 533.4,662.4 535.3,662.4 535.3,182.2 '/>
		<polygon fill = 'rgb( 31, 120, 180)' fill-opacity = '0.250000' points = '535.3,182.2 535.3,662.4 537.1,662.4 537.1,167.9 '/>
		<polygon fill = 'rgb( 31, 120, 180)' fill-opacity = '0.250000' points = '537.1,167.9 537.1,662.4 539.0,662.4 539.0,153.9 '/>
		<polygon fill = 'rgb( 31, 120, 180)' fill-opacity = '0.250000' points = '539.0,153.9 539.0,662.4 540.9,662.4 540.9,140.3 '/>
		<polygon fill = 'rgb( 31, 120, 180)' fill-opacity = '0.250000' points = '540.9,140.3 540.9,662.4 542.7,662.4 542.7,127.5 '/>
		<polygon fill = 'rgb( 31, 120, 180)' fill-opacity = '0.250000' points = '542.7,127.5 542.7,662.4 544.6,662.4 544.6,115.5 '/>
		<polygon fill = 'rgb( 31, 120, 180)' fill-opacity = '0.250000' points = '544.6,115.5 544.6,662.4 546.4,662.4 546.4,104.7 '/>
		<polygon fill = 'rgb( 31, 120, 180)' fill-opacity = '0.250000' points = '546.4,104.7 546.4,662.4 548.3,662.4 548.3,95.1 '/>
		<polygon fill = 'rgb( 31, 120, 180)' fill-opacity = '0.250000' points = '548.3,95.1 548.3,662.4 550.1,662.4 550.1,87.0 '/>
		<polygon fill = 'rgb( 31, 120, 180)' fill-opacity = '0.250000' points = '550.1,87.0 550.1,662.4 552.0,662.4 552.0,80.5 '/>
		<polygon fill = 'rgb( 31, 120, 180)' fill-opacity = '0.250000' points = '552.0,80.5 552.0,662.4 553.8,662.4 553.8,75.8 '/>
		<polygon fill = 'rgb( 31, 120, 180)' fill-opacity = '0.250000' points = '553.8,75.8 553.8,662.4 555.7,662.4 555.7,72.9 '/>
		<polygon fill = 'rgb( 31, 120, 180)' fill-opacity = '0.250000' points = '555.7,72.9 555.7,662.4 557.5,662.4 557.5,71.9 '/>
		<polygon fill = 'rgb( 31, 120, 180)' fill-opacity = '0.250000' points = '557.5,71.9 557.5,662.4 559.4,662.4 559.4,72.8 '/>
		<polygon fill = 'rgb( 31, 120, 180)' fill-opacity = '0.250000' points = '559.4,72.8 559.4,662.4 561.2,662.4 561.2,75.5 '/>
		<polygon fill = 'rgb( 31, 120, 180)' fill-opacity = '0.250000' points = '561.2,75.5 561.2,662.4 563.1,662.4 563.1,80.1 '/>
		<polygon fill = 'rgb( 31, 120, 180)' fill-opacity = '0.250000' points = '563.1,80.1 563.1,662.4 565.0,662.4 565.0,86.3 '/>
		<polygon fill = 'rgb( 31, 120, 180)' fill-opacity = '0.250000' points = '565.0,86.3 565.0,662.4 566.8,662.4 566.8,94.1 '/>
		<polygon fill = 'rgb( 31, 120, 180)' fill-opacity = '0.250000' points = '566.8,94.1 566.8,662.4 568.7,662.4 568.7,103.3 '/>
		<polygon fill = 'rgb( 31, 120, 180)' fill-opacity = '0.250000' points = '568.7,103.3 568.7,662.4 570.5,662.4 570.5,113.7 '/>
		<polygon fill = 'rgb( 31, 120, 180)' fill-opacity = '0.250000' points = '570.5,113.7 570.5,662.4 572.4,662.4 572.4,124.9 '/>
		<polygon fill = 'rgb( 31, 120, 180)' fill-opacity = '0.250000' points = '572.4,124.9 572.4,662.4 574.2,662.4 574.2,136.8 '/>
		<polygon fill = 'rgb( 31, 120, 180)' fill-opacity = '0.250000' points = '574.2,136.8 574.2,662.4 576.1,662.4 576.1,149.2 '/>
		<polygon fill = 'rgb( 31, 120, 180)' fill-opacity = '0.250000' points = '576.1,149.2 576.1,662.4 577.9,662.4 577.9,161.6 '/>
		<polygon fill = 'rgb( 31, 120, 180)' fill-opacity = '0.250000' points = '577.9,161.6 577.9,662.4 579.8,662.4 579.8,173.9 '/>
		<polygon fill = 'rgb( 31, 120, 180)' fill-opacity = '0.250000' points = '579.8,173.9 579.8,662.4 581.6,662.4 581.6,185.8 '/>
		<polygon fill = 'rgb( 31, 120, 180)' fill-opacity = '0.250000' points = '581.6,185.8 581.6,662.4 583.5,662.4 583.5,196.9 '/>
		<polygon fill = 'rgb( 31, 120, 180)' fill-opacity = '0.250000' points = '583.5,196.9 583.5,662.4 585.3,662.4 585.3,207.2 '/>
		<polygon fill = 'rgb( 31, 120, 180)' fill-opacity = '0.250000' points = '585.3,207.2 585.3,662.4 587.2,662.4 587.2,216.2 '/>
		<polygon fill = 'rgb( 31, 120, 180)' fill-opacity = '0.250000' points = '587.2,216.2 587.2,662.4 589.1,662.4 589.1,223.9 '/>
		<polygon fill = 'rgb( 31, 120, 180)' fill-opacity = '0.250000' points = '589.1,223.9 589.1,662.4 590.9,662.4 590.9,230.0 '/>
		<polygon fill = 'rgb( 31, 120, 180)' fill-opacity = '0.250000' points = '590.9,230.0 590.9,662.4 592.8,662.4 592.8,234.5 '/>
		<polygon fill = 'rgb( 31, 120, 180)' fill-opacity = '0.250000' points = '592.8,234.5 592.8,662.4 594.6,662.4 594.6,237.3 '/>
		<polygon fill = 'rgb( 31, 120, 180)' fill-opacity = '0.250000' points = '594.6,237.3 594.6,662.4 596.5,662.4 596.5,238.2 '/>
		<polygon fill = 'rgb( 31, 120, 180)' fill-opacity = '0.250000' points = '596.5,238.2 596.5,662.4 598.3,662.4 598.3,237.3 '/>
		<polygon fill = 'rgb( 31, 120, 180)' fill-opacity = '0.250000' points = '598.3,237.3 598.3,662.4 600.2,662.4 600.2,234.7 '/>
		<polygon fill = 'rgb( 31, 120, 180)' fill-opacity = '0.250000' points = '600.2,234.7 600.2,662.4 602.0,662.4 602.0,230.4 '/>
		<polygon fill = 'rgb( 31, 120, 180)' fill-opacity = '0.250000' points = '602.0,230.4 602.0,662.4 603.9,662.4 603.9,224.4 '/>
		<polygon fill = 'rgb( 31, 120, 180)' fill-opacity = '0.250000' points = '603.9,224.4 603.9,662.4 605.7,662.4 605.7,217.1 '/>
		<polygon fill = 'rgb( 31, 120, 180)' fill-opacity = '0.250000' points = '605.7,217.1 605.7,662.4 607.6,662.4 607.6,208.4 '/>
		<polygon fill = 'rgb( 31, 120, 180)' fill-opacity = '0.250000' points = '607.6,208.4 607.6,662.4 609.4,662.4 609.4,198.7 '/>
		<polygon fill = 'rgb( 31, 120, 180)' fill-opacity = '0.250000' points = '609.4,198.7 609.4,662.4 611.3,662.4 611.3,188.1 '/>
		<polygon fill = 'rgb( 31, 120, 180)' fill-opacity = '0.250000' points = '611.3,188.1 611.3,662.4 613.2,662.4 613.2,177.0 '/>
		<polygon fill = 'rgb( 31, 120, 180)' fill-opacity = '0.250000' points = '613.2,177.0 613.2,662.4 615.0,662.4 615.0,165.5 '/>
		<polygon fill = 'rgb( 31, 120, 180)' fill-opacity = '0.250000' points = '615.0,165.5 615.0,662.4 616.9,662.4 616.9,154.0 '/>
		<polygon fill = 'rgb( 31, 120, 180)' fill-opacity = '0.250000' points = '616.9,154.0 616.9,662.4 618.7,662.4 618.7,142.7 '/>
		<polygon fill = 'rgb( 31, 120, 180)' fill-opacity = '0.250000' points = '618.7,142.7 618.7,662.4 620.6,662.4 620.6,131.8 '/>
		<polygon fill = 'rgb( 31, 120, 180)' fill-opacity = '0.250000' points = '620.6,131.8 620.6,662.4 622.4,662.4 622.4,121.7 '/>
		<polygon fill = 'rgb( 31, 120, 180)' fill-opacity = '0.250000' points = '622.4,121.7 622.4,662.4 624.3,662.4 624.3,112.5 '/>
		<polygon fill = 'rgb( 31, 120, 180)' fill-opacity = '0.250000' points = '624.3,112.5 624.3,662.4 626.1,662.4 626.1,104.5 '/>
		<polygon fill = 'rgb( 31, 120, 180)' fill-opacity = '0.250000' points = '626.1,104.5 626.1,662.4 628.0,662.4 628.0,97.8 '/>
		<polygon fill = 'rgb( 31, 120, 180)' fill-opacity = '0.250000' points = '628.0,97.8 628.0,662.4 629.8,662.4 629.8,92.6 '/>
		<polygon fill = 'rgb( 31, 120, 180)' fill-opacity = '0.250000' points = '629.8,92.6 629.8,662.4 631.7,662.4 631.7,89.0 '/>
		<polygon fill = 'rgb( 31, 120, 180)' fill-opacity = '0.250000' points = '631.7,89.0 631.7,662.4 633.5,662.4 633.5,87.1 '/>
		<polygon fill = 'rgb( 31, 120, 180)' fill-opacity = '0.250000' points = '633.5,87.1 633.5,662.4 635.4,662.4 635.4,87.0 '/>
		<polygon fill = 'rgb( 31, 120, 180)' fill-opacity = '0.250000' points = '635.4,87.0 635.4,662.4 637.3,662.4 637.3,88.6 '/>
		<polygon fill = 'rgb( 31, 120, 180)' fill-opacity = '0.250000' points = '637.3,88.6 637.3,662.4 639.1,662.4 639.1,91.9 '/>
		<polygon fill = 'rgb( 31, 120, 180)' fill-opacity = '0.250000' points = '639.1,91.9 639.1,662.4 641.0,662.4 641.0,96.8 '/>
		<polygon fill = 'rgb( 31, 120, 180)' fill-opacity = '0.250000' points = '641.0,96.8 641.0,662.4 642.8,662.4 642.8,103.3 '/>
		<polygon fill = 'rgb( 31, 120, 180)' fill-opacity = '0.250000' points = '642.8,103.3 642.8,662.4 644.7,662.4 644.7,111.3 '/>
		<polygon fill = 'rgb( 31, 120, 180)' fill-opacity = '0.250000' points = '644.7,111.3 644.7,662.4 646.5,662.4 646.5,120.5 '/>
		<polygon fill = 'rgb( 31, 120, 180)' fill-opacity = '0.250000' points = '646.5,120.5 646.5,662.4 648.4,662.4 648.4,130.7 '/>
		<polygon fill = 'rgb( 31, 120, 180)' fill-opacity = '0.250000' points = '648.4,130.7 648.4,662.4 650.2,662.4 650.2,141.9 '/>
		<polygon fill = 'rgb( 31, 120, 180)' fill-opacity = '0.250000' points = '650.2,141.9 650.2,662.4 652.1,662.4 652.1,153.8 '/>
		<polygon fill = 'rgb( 31, 120, 180)' fill-opacity = '0.250000' points = '652.1,153.8 652.1,662.4 653.9,662.4 653.9,166.2 '/>
		<polygon fill = 'rgb( 31, 120, 180)' fill-opacity = '0.250000' points = '653.9,166.2 653.9,662.4 655.8,662.4 655.8,178.8 '/>
		<polygon fill = 'rgb( 31, 120, 180)' fill-opacity = '0.250000' points = '655.8,178.8 655.8,662.4 657.6,662.4 657.6,191.5 '/>
		<polygon fill = 'rgb( 31, 120, 180)' fill-opacity = '0.250000' points = '657.6,191.5 657.6,662.4 659.5,662.4 659.5,204.1 '/>
		<polygon fill = 'rgb( 31, 120, 180)' fill-opacity = '0.250000' points = '659.5,204.1 659.5,662.4 661.4,662.4 661.4,216.4 '/>
		<polygon fill = 'rgb( 31, 120, 180)' fill-opacity = '0.250000' points = '661.4,216.4 661.4,662.4 663.2,662.4 663.2,228.2 '/>
		<polygon fill = 'rgb( 31, 120, 180)' fill-opacity = '0.250000' points = '663.2,228.2 663.2,662.4 665.1,662.4 665.1,239.4 '/>
		<polygon fill = 'rgb( 31, 120, 180)' fill-opacity = '0.250000' points = '665.1,239.4 665.1,662.4 666.9,662.4 666.9,249.8 '/>
		<polygon fill = 'rgb( 31, 120, 180)' fill-opacity = '0.250000' points = '666.9,249.8 666.9,662.4 668.8,662.4 668.8,259.4 '/>
		<polygon fill = 'rgb( 31, 120, 180)' fill-opacity = '0.250000' points = '668.8,259.4 668.8,662.4 670.6,662.4 670.6,268.1 '/>
		<polygon fill = 'rgb( 31, 120, 180)' fill-opacity = '0.250000' points = '670.6,268.1 670.6,662.4 672.5,662.4 672.5,275.8 '/>
		<polygon fill = 'rgb( 31, 120, 180)' fill-opacity = '0.250000' points = '672.5,275.8 672.5,662.4 674.3,662.4 674.3,282.5 '/>
		<polygon fill = 'rgb( 31, 120, 180)' fill-opacity = '0.250000' points = '674.3,282.5 674.3,662.4 676.2,662.4 676.2,288.2 '/>
		<polygon fill = 'rgb( 31, 120, 180)' fill-opacity = '0.250000' points = '676.2,288.2 676.2,662.4 678.0,662.4 678.0,292.9 '/>
		<polygon fill = 'rgb( 31, 120, 180)' fill-opacity = '0.250000' points = '678.0,292.9 678.0,662.4 679.9,662.4 679.9,296.6 '/>
		<polygon fill = 'rgb( 31, 120, 180)' fill-opacity = '0.250000' points = '679.9,296.6 679.9,662.4 681.8,662.4 681.8,299.3 '/>
		<polygon fill = 'rgb( 31, 120, 180)' fill-opacity = '0.250000' points = '681.8,299.3 681.8,662.4 683.6,662.4 683.6,301.2 '/>
		<polygon fill = 'rgb( 31, 120, 180)' fill-opacity = '0.250000' points = '683.6,301.2 683.6,662.4 685.5,662.4 685.5,302.2 '/>
		<polygon fill = 'rgb( 31, 120, 180)' fill-opacity = '0.250000' points = '685.5,302.2 685.5,662.4 687.3,662.4 687.3,302.5 '/>
		<polygon fill = 'rgb( 31, 120, 180)' fill-opacity = '0.250000' points = '687.3,302.5 687.3,662.4 689.2,662.4 689.2,302.0 '/>
		<polygon fill = 'rgb( 31, 120, 180)' fill-opacity = '0.250000' points = '689.2,302.0 689.2,662.4 691.0,662.4 691.0,300.9 '/>
		<polygon fill = 'rgb( 31, 120, 180)' fill-opacity = '0.250000' points = '691.0,300.9 691.0,662.4 692.9,662.4 692.9,299.2 '/>
		<polygon fill = 'rgb( 31, 120, 180)' fill-opacity = '0.250000' points = '692.9,299.2 692.9,662.4 694.7,662.4 694.7,297.0 '/>
		<polygon fill = 'rgb( 31, 120, 180)' fill-opacity = '0.250000' points = '694.7,297.0 694.7,662.4 696.6,662.4 696.6,294.3 '/>
		<polygon fill = 'rgb( 31, 120, 180)' fill-opacity = '0.250000' points = '696.6,294.3 696.6,662.4 698.4,662.4 698.4,291.3 '/>
		<polygon fill = 'rgb( 31, 120, 180)' fill-opacity = '0.250000' points = '698.4,291.3 698.4,662.4 700.3,662.4 700.3,287.8 '/>
		<polygon fill = 'rgb( 31, 120, 180)' fill-opacity = '0.250000' points = '700.3,287.8 700.3,662.4 702.1,662.4 702.1,284.0 '/>
		<polygon fill = 'rgb( 31, 120, 180)' fill-opacity = '0.250000' points = '702.1,284.0 702.1,662.4 704.0,662.4 704.0,280.0 '/>
		<polygon fill = 'rgb( 31, 120, 180)' fill-opacity = '0.250000' points = '704.0,280.0 704.0,662.4 705.9,662.4 705.9,275.6 '/>
		<polygon fill = 'rgb( 31, 120, 180)' fill-opacity = '0.250000' points = '705.9,275.6 705.9,662.4 707.7,662.4 707.7,271.1 '/>
		<polygon fill = 'rgb( 31, 120, 180)' fill-opacity = '0.250000' points = '707.7,271.1 707.7,662.4 709.6,662.4 709.6,266.3 '/>
		<polygon fill = 'rgb( 31, 120, 180)' fill-opacity = '0.250000' points = '709.6,266.3 709.6,662.4 711.4,662.4 711.4,261.4 '/>
		<polygon fill = 'rgb( 31, 120, 180)' fill-opacity = '0.250000' points = '711.4,261.4 711.4,662.4 713.3,662.4 713.3,256.4 '/>
		<polygon fill = 'rgb( 31, 120, 180)' fill-opacity = '0.250000' points = '713.3,256.4 713.3,662.4 715.1,662.4 715.1,251.3 '/>
		<polygon fill = 'rgb( 31, 120, 180)' fill-opacity = '0.250000' points = '715.1,251.3 715.1,662.4 717.0,662.4 717.0,246.1 '/>
		<polygon fill = 'rgb( 31, 120, 180)' fill-opacity = '0.250000' points = '717.0,246.1 717.0,662.4 718.8,662.4 718.8,240.9 '/>
		<polygon fill = 'rgb( 31, 120, 180)' fill-opacity = '0.250000' points = '718.8,240.9 718.8,662.4 720.7,662.4 720.7,235.7 '/>
		<polygon fill = 'rgb( 31, 120, 180)' fill-opacity = '0.250000' points = '720.7,235.7 720.7,662.4 722.5,662.4 722.5,230.6 '/>
		<polygon fill = 'rgb( 31, 120, 180)' fill-opacity = '0.250000' points = '722.5,230.6 722.5,662.4 724.4,662.4 724.4,225.6 '/>
		<polygon fill = 'rgb( 31, 120, 180)' fill-opacity = '0.250000' points = '724.4,225.6 724.4,662.4 726.2,662.4 726.2,220.8 '/>
		<polygon fill = 'rgb( 31, 120, 180)' fill-opacity = '0.250000' points = '726.2,220.8 726.2,662.4 728.1,662.4 728.1,216.2 '/>
		<polygon fill = 'rgb( 31, 120, 180)' fill-opacity = '0.250000' points = '728.1,216.2 728.1,662.4 730.0,662.4 730.0,211.9 '/>
		<polygon fill = 'rgb( 31, 120, 180)' fill-opacity = '0.250000' points = '730.0,211.9 730.0,662.4 731.8,662.4 731.8,207.9 '/>
		<polygon fill = 'rgb( 31, 120, 180)' fill-opacity = '0.250000' points = '731.8,207.9 731.8,662.4 733.7,662.4 733.7,204.4 '/>
		<polygon fill = 'rgb( 31, 120, 180)' fill-opacity = '0.250000' points = '733.7,204.4 733.7,662.4 735.5,662.4 735.5,201.3 '/>
		<polygon fill = 'rgb( 31, 120, 180)' fill-opacity = '0.250000' points = '735.5,201.3 735.5,662.4 737.4,662.4 737.4,198.6 '/>
		<polygon fill = 'rgb( 31, 120, 180)' fill-opacity = '0.250000' points = '737.4,198.6 737.4,662.4 739.2,662.4 739.2,196.5 '/>
		<polygon fill = 'rgb( 31, 120, 180)' fill-opacity = '0.250000' points = '739.2,196.5 739.2,662.4 741.1,662.4 741.1,194.8 '/>
		<polygon fill = 'rgb( 31, 120, 180)' fill-opacity = '0.250000' points = '741.1,194.8 741.1,662.4 742.9,662.4 742.9,193.8 '/>
		<polygon fill = 'rgb( 31, 120, 180)' fill-opacity = '0.250000' points = '742.9,193.8 742.9,662.4 744.8,662.4 744.8,193.2 '/>
		<polygon fill = 'rgb( 31, 120, 180)' fill-opacity = '0.250000' points = '744.8,193.2 744.8,662.4 746.6,662.4 746.6,193.3 '/>
		<polygon fill = 'rgb( 31, 120, 180)' fill-opacity = '0.250000' points = '746.6,193.3 746.6,662.4 748.5,662.4 748.5,193.8 '/>
		<polygon fill = 'rgb( 31, 120, 180)' fill-opacity = '0.250000' points = '748.5,193.8 748.5,662.4 750.3,662.4 750.3,194.9 '/>
		<polygon fill = 'rgb( 31, 120, 180)' fill-opacity = '0.250000' points = '750.3,194.9 750.3,662.4 752.2,662.4 752.2,196.4 '/>
		<polygon fill = 'rgb( 31, 120, 180)' fill-opacity = '0.250000' points = '752.2,196.4 752.2,662.4 754.1,662.4 754.1,198.4 '/>
		<polygon fill = 'rgb( 31, 120, 180)' fill-opacity = '0.250000' points = '754.1,198.4 754.1,662.4 755.9,662.4 755.9,200.7 '/>
		<polygon fill = 'rgb( 31, 120, 180)' fill-opacity = '0.250000' points = '755.9,200.7 755.9,662.4 757.8,662.4 757.8,203.5 '/>
		<polygon fill = 'rgb( 31, 120, 180)' fill-opacity = '0.250000' points = '757.8,203.5 757.8,662.4 759.6,662.4 759.6,206.5 '/>
		<polygon fill = 'rgb( 31, 120, 180)' fill-opacity = '0.250000' points = '759.6,206.5 759.6,662.4 761.5,662.4 761.5,209.7 '/>
		<polygon fill = 'rgb( 31, 120, 180)' fill-opacity = '0.250000' points = '761.5,209.7 761.5,662.4 763.3,662.4 763.3,213.2 '/>
		<polygon fill = 'rgb( 31, 120, 180)' fill-opacity = '0.250000' points = '763.3,213.2 763.3,662.4 765.2,662.4 765.2,216.8 '/>
		<polygon fill = 'rgb( 31, 120, 180)' fill-opacity = '0.250000' points = '765.2,216.8 765.2,662.4 767.0,662.4 767.0,220.6 '/>
		<polygon fill = 'rgb( 31, 120, 180)' fill-opacity = '0.250000' points = '767.0,220.6 767.0,662.4 768.9,662.4 768.9,224.4 '/>
		<polygon fill = 'rgb( 31, 120, 180)' fill-opacity = '0.250000' points = '768.9,224.4 768.9,662.4 770.7,662.4 770.7,228.4 '/>
		<polygon fill = 'rgb( 31, 120, 180)' fill-opacity = '0.250000' points = '770.7,228.4 770.7,662.4 772.6,662.4 772.6,232.3 '/>
		<polygon fill = 'rgb( 31, 120, 180)' fill-opacity = '0.250000' points = '772.6,232.3 772.6,662.4 774.4,662.4 774.4,236.3 '/>
		<polygon fill = 'rgb( 31, 120, 180)' fill-opacity = '0.250000' points = '774.4,236.3 774.4,662.4 776.3,662.4 776.3,240.4 '/>
		<polygon fill = 'rgb( 31, 120, 180)' fill-opacity = '0.250000' points = '776.3,240.4 776.3,662.4 778.2,662.4 778.2,244.5 '/>
		<polygon fill = 'rgb( 31, 120, 180)' fill-opacity = '0.250000' points = '778.2,244.5 778.2,662.4 780.0,662.4 780.0,248.6 '/>
		<polygon fill = 'rgb( 31, 120, 180)' fill-opacity = '0.250000' points = '780.0,248.6 780.0,662.4 781.9,662.4 781.9,252.8 '/>
		<polygon fill = 'rgb( 31, 120, 180)' fill-opacity = '0.250000' points = '781.9,252.8 781.9,662.4 783.7,662.4 783.7,257.1 '/>
		<polygon fill = 'rgb( 31, 120, 180)' fill-opacity = '0.250000' points = '783.7,257.1 783.7,662.4 785.6,662.4 785.6,261.5 '/>
		<polygon fill = 'rgb( 31, 120, 180)' fill-opacity = '0.250000' points = '785.6,261.5 785.6,662.4 787.4,662.4 787.4,266.1 '/>
		<polygon fill = 'rgb( 31, 120, 180)' fill-opacity = '0.250000' points = '787.4,266.1 787.4,662.4 789.3,662.4 789.3,270.8 '/>
		<polygon fill = 'rgb( 31, 120, 180)' fill-opacity = '0.250000' points = '789.3,270.8 789.3,662.4 791.1,662.4 791.1,275.6 '/>
		<polygon fill = 'rgb( 31, 120, 180)' fill-opacity = '0.250000' points = '791.1,275.6 791.1,662.4 793.0,662.4 793.0,280.7 '/>
		<polygon fill = 'rgb( 31, 120, 180)' fill-opacity = '0.250000' points = '793.0,280.7 793.0,662.4 794.8,662.4 794.8,286.0 '/>
		<polygon fill = 'rgb( 31, 120, 180)' fill-opacity = '0.250000' points = '794.8,286.0 794.8,662.4 796.7,662.4 796.7,291.5 '/>
		<polygon fill = 'rgb( 31, 120, 180)' fill-opacity = '0.250000' points = '796.7,291.5 796.7,662.4 798.5,662.4 798.5,297.2 '/>
		<polygon fill = 'rgb( 31, 120, 180)' fill-opacity = '0.250000' points = '798.5,297.2 798.5,662.4 800.4,662.4 800.4,303.1 '/>
		<polygon fill = 'rgb( 31, 120, 180)' fill-opacity = '0.250000' points = '800.4,303.1 800.4,662.4 802.3,662.4 802.3,309.2 '/>
		<polygon fill = 'rgb( 31, 120, 180)' fill-opacity = '0.250000' points = '802.3,309.2 802.3,662.4 804.1,662.4 804.1,315.6 '/>
		<polygon fill = 'rgb( 31, 120, 180)' fill-opacity = '0.250000' points = '804.1,315.6 804.1,662.4 806.0,662.4 806.0,322.1 '/>
		<polygon fill = 'rgb( 31, 120, 180)' fill-opacity = '0.250000' points = '806.0,322.1 806.0,662.4 807.8,662.4 807.8,328.7 '/>
		<polygon fill = 'rgb( 31, 120, 180)' fill-opacity = '0.250000' points = '807.8,328.7 807.8,662.4 809.7,662.4 809.7,335.5 '/>
		<polygon fill = 'rgb( 31, 120, 180)' fill-opacity = '0.250000' points = '809.7,335.5 809.7,662.4 811.5,662.4 811.5,342.3 '/>
		<polygon fill = 'rgb( 31, 120, 180)' fill-opacity = '0.250000' points = '811.5,342.3 811.5,662.4 813.4,662.4 813.4,349.2 '/>
		<polygon fill = 'rgb( 31, 120, 180)' fill-opacity = '0.250000' points = '813.4,349.2 813.4,662.4 815.2,662.4 815.2,356.1 '/>
		<polygon fill = 'rgb( 31, 120, 180)' fill-opacity = '0.250000' points = '815.2,356.1 815.2,662.4 817.1,662.4 817.1,362.9 '/>
		<polygon fill = 'rgb( 31, 120, 180)' fill-opacity = '0.250000' points = '817.1,362.9 817.1,662.4 818.9,662.4 818.9,369.7 '/>
		<polygon fill = 'rgb( 31, 120, 180)' fill-opacity = '0.250000' points = '818.9,369.7 818.9,662.4 820.8,662.4 820.8,376.3 '/>
		<polygon fill = 'rgb( 31, 120, 180)' fill-opacity = '0.250000' points = '820.8,376.3 820.8,662.4 822.6,662.4 822.6,382.8 '/>
		<polygon fill = 'rgb( 31, 120, 180)' fill-opacity = '0.250000' points = '822.6,382.8 822.6,662.4 824.5,662.4 824.5,389.0 '/>
		<polygon fill = 'rgb( 31, 120, 180)' fill-opacity = '0.250000' points = '824.5,389.0 824.5,662.4 826.4,662.4 826.4,395.1 '/>
		<polygon fill = 'rgb( 31, 120, 180)' fill-opacity = '0.250000' points = '826.4,395.1 826.4,662.4 828.2,662.4 828.2,400.9 '/>
		<polygon fill = 'rgb( 31, 120, 180)' fill-opacity = '0.250000' points = '828.2,400.9 828.2,662.4 830.1,662.4 830.1,406.4 '/>
		<polygon fill = 'rgb( 31, 120, 180)' fill-opacity = '0.250000' points = '830.1,406.4 830.1,662.4 831.9,662.4 831.9,411.5 '/>
		<polygon fill = 'rgb( 31, 120, 180)' fill-opacity = '0.250000' points = '831.9,411.5 831.9,662.4 833.8,662.4 833.8,416.4 '/>
		<polygon fill = 'rgb( 31, 120, 180)' fill-opacity = '0.250000' points = '833.8,416.4 833.8,662.4 835.6,662.4 835.6,421.0 '/>
		<polygon fill = 'rgb( 31, 120, 180)' fill-opacity = '0.250000' points = '835.6,421.0 835.6,662.4 837.5,662.4 837.5,425.2 '/>
		<polygon fill = 'rgb( 31, 120, 180)' fill-opacity = '0.250000' points = '837.5,425.2 837.5,662.4 839.3,662.4 839.3,429.0 '/>
		<polygon fill = 'rgb( 31, 120, 180)' fill-opacity = '0.250000' points = '839.3,429.0 839.3,662.4 841.2,662.4 841.2,432.6 '/>
		<polygon fill = 'rgb( 31, 120, 180)' fill-opacity = '0.250000' points = '841.2,432.6 841.2,662.4 843.0,662.4 843.0,435.8 '/>
		<polygon fill = 'rgb( 31, 120, 180)' fill-opacity = '0.250000' points = '843.0,435.8 843.0,662.4 844.9,662.4 844.9,438.7 '/>
		<polygon fill = 'rgb( 31, 120, 180)' fill-opacity = '0.250000' points = '844.9,438.7 844.9,662.4 846.7,662.4 846.7,441.3 '/>
		<polygon fill = 'rgb( 31, 120, 180)' fill-opacity = '0.250000' points = '846.7,441.3 846.7,662.4 848.6,662.4 848.6,443.6 '/>
		<polygon fill = 'rgb( 31, 120, 180)' fill-opacity = '0.250000' points = '848.6,443.6 848.6,662.4 850.5,662.4 850.5,445.7 '/>
		<polygon fill = 'rgb( 31, 120, 180)' fill-opacity = '0.250000' points = '850.5,445.7 850.5,662.4 852.3,662.4 852.3,447.5 '/>
		<polygon fill = 'rgb( 31, 120, 180)' fill-opacity = '0.250000' points = '852.3,447.5 852.3,662.4 854.2,662.4 854.2,449.1 '/>
		<polygon fill = 'rgb( 31, 120, 180)' fill-opacity = '0.250000' points = '854.2,449.1 854.2,662.4 856.0,662.4 856.0,450.6 '/>
		<polygon fill = 'rgb( 31, 120, 180)' fill-opacity = '0.250000' points = '856.0,450.6 856.0,662.4 857.9,662.4 857.9,451.9 '/>
		<polygon fill = 'rgb( 31, 120, 180)' fill-opacity = '0.250000' points = '857.9,451.9 857.9,662.4 859.7,662.4 859.7,453.0 '/>
		<polygon fill = 'rgb( 31, 120, 180)' fill-opacity = '0.250000' points = '859.7,453.0 859.7,662.4 861.6,662.4 861.6,454.1 '/>
		<polygon fill = 'rgb( 31, 120, 180)' fill-opacity = '0.250000' points = '861.6,454.1 861.6,662.4 863.4,662.4 863.4,455.1 '/>
		<polygon fill = 'rgb( 31, 120, 180)' fill-opacity = '0.250000' points = '863.4,455.1 863.4,662.4 865.3,662.4 865.3,456.1 '/>
		<polygon fill = 'rgb( 31, 120, 180)' fill-opacity = '0.250000' points = '865.3,456.1 865.3,662.4 867.1,662.4 867.1,457.0 '/>
		<polygon fill = 'rgb( 31, 120, 180)' fill-opacity = '0.250000' points = '867.1,457.0 867.1,662.4 869.0,662.4 869.0,458.0 '/>
		<polygon fill = 'rgb( 31, 120, 180)' fill-opacity = '0.250000' points = '869.0,458.0 869.0,662.4 870.8,662.4 870.8,459.0 '/>
		<polygon fill = 'rgb( 31, 120, 180)' fill-opacity = '0.250000' points = '870.8,459.0 870.8,662.4 872.7,662.4 872.7,460.0 '/>
		<polygon fill = 'rgb( 31, 120, 180)' fill-opacity = '0.250000' points = '872.7,460.0 872.7,662.4 874.6,662.4 874.6,461.1 '/>
		<polygon fill = 'rgb( 31, 120, 180)' fill-opacity = '0.250000' points = '874.6,461.1 874.6,662.4 876.4,662.4 876.4,462.4 '/>
		<polygon fill = 'rgb( 31, 120, 180)' fill-opacity = '0.250000' points = '876.4,462.4 876.4,662.4 878.3,662.4 878.3,463.7 '/>
		<polygon fill = 'rgb( 31, 120, 180)' fill-opacity = '0.250000' points = '878.3,463.7 878.3,662.4 880.1,662.4 880.1,465.2 '/>
		<polygon fill = 'rgb( 31, 120, 180)' fill-opacity = '0.250000' points = '880.1,465.2 880.1,662.4 882.0,662.4 882.0,466.8 '/>
		<polygon fill = 'rgb( 31, 120, 180)' fill-opacity = '0.250000' points = '882.0,466.8 882.0,662.4 883.8,662.4 883.8,468.6 '/>
		<polygon fill = 'rgb( 31, 120, 180)' fill-opacity = '0.250000' points = '883.8,468.6 883.8,662.4 885.7,662.4 885.7,470.5 '/>
		<polygon fill = 'rgb( 31, 120, 180)' fill-opacity = '0.250000' points = '885.7,470.5 885.7,662.4 887.5,662.4 887.5,472.6 '/>
		<polygon fill = 'rgb( 31, 120, 180)' fill-opacity = '0.250000' points = '887.5,472.6 887.5,662.4 889.4,662.4 889.4,474.8 '/>
		<polygon fill = 'rgb( 31, 120, 180)' fill-opacity = '0.250000' points = '889.4,474.8 889.4,662.4 891.2,662.4 891.2,477.2 '/>
		<polygon fill = 'rgb( 31, 120, 180)' fill-opacity = '0.250000' points = '891.2,477.2 891.2,662.4 893.1,662.4 893.1,479.8 '/>
		<polygon fill = 'rgb( 31, 120, 180)' fill-opacity = '0.250000' points = '893.1,479.8 893.1,662.4 894.9,662.4 894.9,482.5 '/>
		<polygon fill = 'rgb( 31, 120, 180)' fill-opacity = '0.250000' points = '894.9,482.5 894.9,662.4 896.8,662.4 896.8,485.4 '/>
		<polygon fill = 'rgb( 31, 120, 180)' fill-opacity = '0.250000' points = '896.8,485.4 896.8,662.4 898.7,662.4 898.7,488.5 '/>
		<polygon fill = 'rgb( 31, 120, 180)' fill-opacity = '0.250000' points = '898.7,488.5 898.7,662.4 900.5,662.4 900.5,491.7 '/>
		<polygon fill = 'rgb( 31, 120, 180)' fill-opacity = '0.250000' points = '900.5,491.7 900.5,662.4 902.4,662.4 902.4,495.0 '/>
		<polygon fill = 'rgb( 31, 120, 180)' fill-opacity = '0.250000' points = '902.4,495.0 902.4,662.4 904.2,662.4 904.2,498.4 '/>
		<polygon fill = 'rgb( 31, 120, 180)' fill-opacity = '0.250000' points = '904.2,498.4 904.2,662.4 906.1,662.4 906.1,502.0 '/>
		<polygon fill = 'rgb( 31, 120, 180)' fill-opacity = '0.250000' points = '906.1,502.0 906.1,662.4 907.9,662.4 907.9,505.6 '/>
		<polygon fill = 'rgb( 31, 120, 180)' fill-opacity = '0.250000' points = '907.9,505.6 907.9,662.4 909.8,662.4 909.8,509.3 '/>
		<polygon fill = 'rgb( 31, 120, 180)' fill-opacity = '0.250000' points = '909.8,509.3 909.8,662.4 911.6,662.4 911.6,513.1 '/>
		<polygon fill = 'rgb( 31, 120, 180)' fill-opacity = '0.250000' points = '911.6,513.1 911.6,662.4 913.5,662.4 913.5,517.0 '/>
		<polygon fill = 'rgb( 31, 120, 180)' fill-opacity = '0.250000' points = '913.5,517.0 913.5,662.4 915.3,662.4 915.3,520.8 '/>
		<polygon fill = 'rgb( 31, 120, 180)' fill-opacity = '0.250000' points = '915.3,520.8 915.3,662.4 917.2,662.4 917.2,524.8 '/>
		<polygon fill = 'rgb( 31, 120, 180)' fill-opacity = '0.250000' points = '917.2,524.8 917.2,662.4 919.1,662.4 919.1,528.7 '/>
		<polygon fill = 'rgb( 31, 120, 180)' fill-opacity = '0.250000' points = '919.1,528.7 919.1,662.4 920.9,662.4 920.9,532.6 '/>
		<polygon fill = 'rgb( 31, 120, 180)' fill-opacity = '0.250000' points = '920.9,532.6 920.9,662.4 922.8,662.4 922.8,536.5 '/>
		<polygon fill = 'rgb( 31, 120, 180)' fill-opacity = '0.250000' points = '922.8,536.5 922.8,662.4 924.6,662.4 924.6,540.3 '/>
		<polygon fill = 'rgb( 31, 120, 180)' fill-opacity = '0.250000' points = '924.6,540.3 924.6,662.4 926.5,662.4 926.5,544.1 '/>
	</g>
</g>
	</g>
	<g id="gnuplot_plot_3" ><title>Point estimate</title>
<g fill="none" color="white" stroke="rgb( 31, 120, 180)" stroke-width="2.00" stroke-linecap="butt" stroke-linejoin="miter">
</g>
<g fill="none" color="black" stroke="currentColor" stroke-width="2.00" stroke-linecap="butt" stroke-linejoin="miter">
	<g transform="translate(1089.0,103.0)" stroke="none" fill="black" font-family="Helvetica" font-size="12.00"  text-anchor="start">
		<text><tspan font-family="Helvetica" >Point estimate</tspan></text>
	</g>
</g>
<g fill="none" color="black" stroke="currentColor" stroke-width="2.00" stroke-linecap="butt" stroke-linejoin="miter">
	<path stroke='rgb( 31, 120, 180)'  d='M1038.5,99.1 L1080.7,99.1 M635.5,662.4 L635.5,87.1  '/></g>
	</g>
<g fill="none" color="black" stroke="currentColor" stroke-width="2.00" stroke-linecap="butt" stroke-linejoin="miter">
</g>
<g fill="none" color="black" stroke="black" stroke-width="1.00" stroke-linecap="butt" stroke-linejoin="miter">
</g>
<g fill="none" color="black" stroke="currentColor" stroke-width="1.00" stroke-linecap="butt" stroke-linejoin="miter">
	<path stroke='black'  d='M88.5,54.1 L88.5,662.4 L1013.6,662.4 L1013.6,54.1 L88.5,54.1 Z  '/></g>
<g fill="none" color="black" stroke="currentColor" stroke-width="1.00" stroke-linecap="butt" stroke-linejoin="miter">
</g>
</g>
</svg>

