<?xml version="1.0" encoding="utf-8"  standalone="no"?>
<svg 
 viewBox="0 0 1280 720"
 xmlns="http://www.w3.org/2000/svg"
 xmlns:xlink="http://www.w3.org/1999/xlink"
>

<title>Gnuplot</title>
<desc>Produced by GNUPLOT 5.0 patchlevel 6 </desc>

<g id="gnuplot_canvas">

<rect x="0" y="0" width="1280" height="720" fill="none"/>
<defs>

	<circle id='gpDot' r='0.5' stroke-width='0.5'/>
	<path id='gpPt0' stroke-width='0.222' stroke='currentColor' d='M-1,0 h2 M0,-1 v2'/>
	<path id='gpPt1' stroke-width='0.222' stroke='currentColor' d='M-1,-1 L1,1 M1,-1 L-1,1'/>
	<path id='gpPt2' stroke-width='0.222' stroke='currentColor' d='M-1,0 L1,0 M0,-1 L0,1 M-1,-1 L1,1 M-1,1 L1,-1'/>
	<rect id='gpPt3' stroke-width='0.222' stroke='currentColor' x='-1' y='-1' width='2' height='2'/>
	<rect id='gpPt4' stroke-width='0.222' stroke='currentColor' fill='currentColor' x='-1' y='-1' width='2' height='2'/>
	<circle id='gpPt5' stroke-width='0.222' stroke='currentColor' cx='0' cy='0' r='1'/>
	<use xlink:href='#gpPt5' id='gpPt6' fill='currentColor' stroke='none'/>
	<path id='gpPt7' stroke-width='0.222' stroke='currentColor' d='M0,-1.33 L-1.33,0.67 L1.33,0.67 z'/>
	<use xlink:href='#gpPt7' id='gpPt8' fill='currentColor' stroke='none'/>
	<use xlink:href='#gpPt7' id='gpPt9' stroke='currentColor' transform='rotate(180)'/>
	<use xlink:href='#gpPt9' id='gpPt10' fill='currentColor' stroke='none'/>
	<use xlink:href='#gpPt3' id='gpPt11' stroke='currentColor' transform='rotate(45)'/>
	<use xlink:href='#gpPt11' id='gpPt12' fill='currentColor' stroke='none'/>
	<path id='gpPt13' stroke-width='0.222' stroke='currentColor' d='M0,1.330 L1.265,0.411 L0.782,-1.067 L-0.782,-1.076 L-1.265,0.411 z'/>
	<use xlink:href='#gpPt13' id='gpPt14' fill='currentColor' stroke='none'/>
	<filter id='textbox' filterUnits='objectBoundingBox' x='0' y='0' height='1' width='1'>
	  <feFlood flood-color='white' flood-opacity='1' result='bgnd'/>
	  <feComposite in='SourceGraphic' in2='bgnd' operator='atop'/>
	</filter>
	<filter id='greybox' filterUnits='objectBoundingBox' x='0' y='0' height='1' width='1'>
	  <feFlood flood-color='lightgrey' flood-opacity='1' result='grey'/>
	  <feComposite in='SourceGraphic' in2='grey' operator='atop'/>
	</filter>
</defs>
<g fill="none" color="white" stroke="currentColor" stroke-width="1.00" stroke-linecap="butt" stroke-linejoin="miter">
</g>
<g fill="none" color="black" stroke="currentColor" stroke-width="1.00" stroke-linecap="butt" stroke-linejoin="miter">
	<path stroke='black'  d='M71.9,662.4 L80.9,662.4  '/>	<g transform="translate(63.6,666.3)" stroke="none" fill="black" font-family="Helvetica" font-size="12.00"  text-anchor="end">
		<text><tspan font-family="Helvetica" > 0</tspan></text>
	</g>
</g>
<g fill="none" color="black" stroke="currentColor" stroke-width="1.00" stroke-linecap="butt" stroke-linejoin="miter">
	<path stroke='black'  d='M71.9,586.4 L80.9,586.4  '/>	<g transform="translate(63.6,590.3)" stroke="none" fill="black" font-family="Helvetica" font-size="12.00"  text-anchor="end">
		<text><tspan font-family="Helvetica" > 50</tspan></text>
	</g>
</g>
<g fill="none" color="black" stroke="currentColor" stroke-width="1.00" stroke-linecap="butt" stroke-linejoin="miter">
	<path stroke='black'  d='M71.9,510.3 L80.9,510.3  '/>	<g transform="translate(63.6,514.2)" stroke="none" fill="black" font-family="Helvetica" font-size="12.00"  text-anchor="end">
		<text><tspan font-family="Helvetica" > 100</tspan></text>
	</g>
</g>
<g fill="none" color="black" stroke="currentColor" stroke-width="1.00" stroke-linecap="butt" stroke-linejoin="miter">
	<path stroke='black'  d='M71.9,434.3 L80.9,434.3  '/>	<g transform="translate(63.6,438.2)" stroke="none" fill="black" font-family="Helvetica" font-size="12.00"  text-anchor="end">
		<text><tspan font-family="Helvetica" > 150</tspan></text>
	</g>
</g>
<g fill="none" color="black" stroke="currentColor" stroke-width="1.00" stroke-linecap="butt" stroke-linejoin="miter">
	<path stroke='black'  d='M71.9,358.2 L80.9,358.2  '/>	<g transform="translate(63.6,362.1)" stroke="none" fill="black" font-family="Helvetica" font-size="12.00"  text-anchor="end">
		<text><tspan font-family="Helvetica" > 200</tspan></text>
	</g>
</g>
<g fill="none" color="black" stroke="currentColor" stroke-width="1.00" stroke-linecap="butt" stroke-linejoin="miter">
	<path stroke='black'  d='M71.9,282.2 L80.9,282.2  '/>	<g transform="translate(63.6,286.1)" stroke="none" fill="black" font-family="Helvetica" font-size="12.00"  text-anchor="end">
		<text><tspan font-family="Helvetica" > 250</tspan></text>
	</g>
</g>
<g fill="none" color="black" stroke="currentColor" stroke-width="1.00" stroke-linecap="butt" stroke-linejoin="miter">
	<path stroke='black'  d='M71.9,206.2 L80.9,206.2  '/>	<g transform="translate(63.6,210.1)" stroke="none" fill="black" font-family="Helvetica" font-size="12.00"  text-anchor="end">
		<text><tspan font-family="Helvetica" > 300</tspan></text>
	</g>
</g>
<g fill="none" color="black" stroke="currentColor" stroke-width="1.00" stroke-linecap="butt" stroke-linejoin="miter">
	<path stroke='black'  d='M71.9,130.1 L80.9,130.1  '/>	<g transform="translate(63.6,134.0)" stroke="none" fill="black" font-family="Helvetica" font-size="12.00"  text-anchor="end">
		<text><tspan font-family="Helvetica" > 350</tspan></text>
	</g>
</g>
<g fill="none" color="black" stroke="currentColor" stroke-width="1.00" stroke-linecap="butt" stroke-linejoin="miter">
	<path stroke='black'  d='M71.9,54.1 L80.9,54.1  '/>	<g transform="translate(63.6,58.0)" stroke="none" fill="black" font-family="Helvetica" font-size="12.00"  text-anchor="end">
		<text><tspan font-family="Helvetica" > 400</tspan></text>
	</g>
</g>
<g fill="none" color="black" stroke="currentColor" stroke-width="1.00" stroke-linecap="butt" stroke-linejoin="miter">
	<path stroke='black'  d='M147.9,662.4 L147.9,653.4  '/>	<g transform="translate(147.9,684.3)" stroke="none" fill="black" font-family="Helvetica" font-size="12.00"  text-anchor="middle">
		<text><tspan font-family="Helvetica" > 2.698</tspan></text>
	</g>
</g>
<g fill="none" color="black" stroke="currentColor" stroke-width="1.00" stroke-linecap="butt" stroke-linejoin="miter">
	<path stroke='black'  d='M266.3,662.4 L266.3,653.4  '/>	<g transform="translate(266.3,684.3)" stroke="none" fill="black" font-family="Helvetica" font-size="12.00"  text-anchor="middle">
		<text><tspan font-family="Helvetica" > 2.699</tspan></text>
	</g>
</g>
<g fill="none" color="black" stroke="currentColor" stroke-width="1.00" stroke-linecap="butt" stroke-linejoin="miter">
	<path stroke='black'  d='M384.8,662.4 L384.8,653.4  '/>	<g transform="translate(384.8,684.3)" stroke="none" fill="black" font-family="Helvetica" font-size="12.00"  text-anchor="middle">
		<text><tspan font-family="Helvetica" > 2.7</tspan></text>
	</g>
</g>
<g fill="none" color="black" stroke="currentColor" stroke-width="1.00" stroke-linecap="butt" stroke-linejoin="miter">
	<path stroke='black'  d='M503.3,662.4 L503.3,653.4  '/>	<g transform="translate(503.3,684.3)" stroke="none" fill="black" font-family="Helvetica" font-size="12.00"  text-anchor="middle">
		<text><tspan font-family="Helvetica" > 2.701</tspan></text>
	</g>
</g>
<g fill="none" color="black" stroke="currentColor" stroke-width="1.00" stroke-linecap="butt" stroke-linejoin="miter">
	<path stroke='black'  d='M621.7,662.4 L621.7,653.4  '/>	<g transform="translate(621.7,684.3)" stroke="none" fill="black" font-family="Helvetica" font-size="12.00"  text-anchor="middle">
		<text><tspan font-family="Helvetica" > 2.702</tspan></text>
	</g>
</g>
<g fill="none" color="black" stroke="currentColor" stroke-width="1.00" stroke-linecap="butt" stroke-linejoin="miter">
	<path stroke='black'  d='M740.2,662.4 L740.2,653.4  '/>	<g transform="translate(740.2,684.3)" stroke="none" fill="black" font-family="Helvetica" font-size="12.00"  text-anchor="middle">
		<text><tspan font-family="Helvetica" > 2.703</tspan></text>
	</g>
</g>
<g fill="none" color="black" stroke="currentColor" stroke-width="1.00" stroke-linecap="butt" stroke-linejoin="miter">
	<path stroke='black'  d='M858.6,662.4 L858.6,653.4  '/>	<g transform="translate(858.6,684.3)" stroke="none" fill="black" font-family="Helvetica" font-size="12.00"  text-anchor="middle">
		<text><tspan font-family="Helvetica" > 2.704</tspan></text>
	</g>
</g>
<g fill="none" color="black" stroke="currentColor" stroke-width="1.00" stroke-linecap="butt" stroke-linejoin="miter">
	<path stroke='black'  d='M977.1,662.4 L977.1,653.4  '/>	<g transform="translate(977.1,684.3)" stroke="none" fill="black" font-family="Helvetica" font-size="12.00"  text-anchor="middle">
		<text><tspan font-family="Helvetica" > 2.705</tspan></text>
	</g>
</g>
<g fill="none" color="black" stroke="currentColor" stroke-width="1.00" stroke-linecap="butt" stroke-linejoin="miter">
</g>
<g fill="none" color="black" stroke="currentColor" stroke-width="1.00" stroke-linecap="butt" stroke-linejoin="miter">
	<path stroke='black'  d='M71.9,54.1 L71.9,662.4 L1013.6,662.4 L1013.6,54.1 L71.9,54.1 Z  '/></g>
<g fill="none" color="black" stroke="currentColor" stroke-width="1.00" stroke-linecap="butt" stroke-linejoin="miter">
	<g transform="translate(17.0,358.3) rotate(270)" stroke="none" fill="black" font-family="Helvetica" font-size="12.00"  text-anchor="middle">
		<text><tspan font-family="Helvetica" >Density (a.u.)</tspan></text>
	</g>
</g>
<g fill="none" color="black" stroke="currentColor" stroke-width="1.00" stroke-linecap="butt" stroke-linejoin="miter">
	<g transform="translate(542.7,711.3)" stroke="none" fill="black" font-family="Helvetica" font-size="12.00"  text-anchor="middle">
		<text><tspan font-family="Helvetica" >Average time (ms)</tspan></text>
	</g>
</g>
<g fill="none" color="black" stroke="currentColor" stroke-width="1.00" stroke-linecap="butt" stroke-linejoin="miter">
	<g transform="translate(542.7,31.0)" stroke="none" fill="black" font-family="Helvetica" font-size="12.00"  text-anchor="middle">
		<text><tspan font-family="Helvetica" >language: python/parse error: cpp/examples/marker-index.h: median</tspan></text>
	</g>
</g>
	<g id="gnuplot_plot_1" ><title>Bootstrap distribution</title>
<g fill="none" color="white" stroke="black" stroke-width="2.00" stroke-linecap="butt" stroke-linejoin="miter">
</g>
<g fill="none" color="black" stroke="currentColor" stroke-width="2.00" stroke-linecap="butt" stroke-linejoin="miter">
	<g transform="translate(1089.0,67.0)" stroke="none" fill="black" font-family="Helvetica" font-size="12.00"  text-anchor="start">
		<text><tspan font-family="Helvetica" >Bootstrap distribution</tspan></text>
	</g>
</g>
<g fill="none" color="black" stroke="currentColor" stroke-width="2.00" stroke-linecap="butt" stroke-linejoin="miter">
	<path stroke='rgb( 31, 120, 180)'  d='M1038.5,63.1 L1080.7,63.1 M71.9,661.9 L73.8,661.7 L75.7,661.5 L77.6,661.3 L79.4,661.0 L81.3,660.7
		L83.2,660.3 L85.1,659.8 L87.0,659.2 L88.9,658.5 L90.8,657.6 L92.7,656.6 L94.5,655.5 L96.4,654.1
		L98.3,652.5 L100.2,650.6 L102.1,648.5 L104.0,646.0 L105.9,643.3 L107.8,640.1 L109.6,636.6 L111.5,632.6
		L113.4,628.2 L115.3,623.3 L117.2,617.9 L119.1,612.0 L121.0,605.6 L122.9,598.6 L124.7,591.1 L126.6,583.2
		L128.5,574.7 L130.4,565.7 L132.3,556.2 L134.2,546.4 L136.1,536.1 L138.0,525.6 L139.8,514.7 L141.7,503.7
		L143.6,492.5 L145.5,481.2 L147.4,470.0 L149.3,458.8 L151.2,447.8 L153.0,437.1 L154.9,426.6 L156.8,416.5
		L158.7,406.9 L160.6,397.8 L162.5,389.2 L164.4,381.2 L166.3,373.9 L168.1,367.2 L170.0,361.2 L171.9,355.9
		L173.8,351.2 L175.7,347.2 L177.6,343.8 L179.5,341.0 L181.4,338.8 L183.2,337.0 L185.1,335.8 L187.0,334.9
		L188.9,334.3 L190.8,334.1 L192.7,334.0 L194.6,334.1 L196.5,334.3 L198.3,334.5 L200.2,334.7 L202.1,334.8
		L204.0,334.7 L205.9,334.6 L207.8,334.2 L209.7,333.7 L211.6,332.8 L213.4,331.8 L215.3,330.4 L217.2,328.8
		L219.1,327.0 L221.0,324.8 L222.9,322.4 L224.8,319.7 L226.6,316.7 L228.5,313.5 L230.4,310.1 L232.3,306.5
		L234.2,302.6 L236.1,298.6 L238.0,294.4 L239.9,290.0 L241.7,285.6 L243.6,281.0 L245.5,276.3 L247.4,271.5
		L249.3,266.7 L251.2,261.9 L253.1,257.0 L255.0,252.1 L256.8,247.2 L258.7,242.4 L260.6,237.5 L262.5,232.7
		L264.4,227.9 L266.3,223.1 L268.2,218.3 L270.1,213.6 L271.9,208.8 L273.8,204.0 L275.7,199.2 L277.6,194.4
		L279.5,189.4 L281.4,184.4 L283.3,179.3 L285.2,174.1 L287.0,168.7 L288.9,163.2 L290.8,157.6 L292.7,151.8
		L294.6,145.9 L296.5,139.8 L298.4,133.7 L300.2,127.5 L302.1,121.2 L304.0,114.9 L305.9,108.6 L307.8,102.4
		L309.7,96.3 L311.6,90.5 L313.5,84.9 L315.3,79.7 L317.2,74.9 L319.1,70.6 L321.0,66.9 L322.9,63.9
		L324.8,61.7 L326.7,60.3 L328.6,59.9 L330.4,60.5 L332.3,62.2 L334.2,65.0 L336.1,69.1 L338.0,74.4
		L339.9,80.9 L341.8,88.8 L343.7,98.0 L345.5,108.5 L347.4,120.3 L349.3,133.4 L351.2,147.6 L353.1,162.9
		L355.0,179.3 L356.9,196.7 L358.8,214.9 L360.6,233.8 L362.5,253.3 L364.4,273.3 L366.3,293.6 L368.2,314.1
		L370.1,334.7 L372.0,355.2 L373.8,375.5 L375.7,395.4 L377.6,415.0 L379.5,433.9 L381.4,452.2 L383.3,469.8
		L385.2,486.6 L387.1,502.4 L388.9,517.4 L390.8,531.4 L392.7,544.4 L394.6,556.5 L396.5,567.5 L398.4,577.6
		L400.3,586.7 L402.2,594.9 L404.0,602.2 L405.9,608.7 L407.8,614.3 L409.7,619.2 L411.6,623.4 L413.5,626.9
		L415.4,629.8 L417.3,632.2 L419.1,634.1 L421.0,635.5 L422.9,636.5 L424.8,637.1 L426.7,637.4 L428.6,637.4
		L430.5,637.1 L432.4,636.6 L434.2,635.8 L436.1,634.8 L438.0,633.5 L439.9,632.1 L441.8,630.5 L443.7,628.7
		L445.6,626.6 L447.4,624.3 L449.3,621.8 L451.2,619.1 L453.1,616.1 L455.0,612.7 L456.9,609.1 L458.8,605.2
		L460.7,600.8 L462.5,596.1 L464.4,591.0 L466.3,585.5 L468.2,579.4 L470.1,572.9 L472.0,565.9 L473.9,558.3
		L475.8,550.2 L477.6,541.6 L479.5,532.4 L481.4,522.6 L483.3,512.4 L485.2,501.6 L487.1,490.3 L489.0,478.6
		L490.9,466.5 L492.7,454.1 L494.6,441.5 L496.5,428.7 L498.4,415.8 L500.3,403.0 L502.2,390.4 L504.1,378.1
		L506.0,366.2 L507.8,354.9 L509.7,344.3 L511.6,334.5 L513.5,325.6 L515.4,317.9 L517.3,311.3 L519.2,306.0
		L521.0,302.1 L522.9,299.6 L524.8,298.7 L526.7,299.2 L528.6,301.3 L530.5,304.8 L532.4,309.9 L534.3,316.4
		L536.1,324.2 L538.0,333.3 L539.9,343.5 L541.8,354.8 L543.7,367.0 L545.6,379.9 L547.5,393.5 L549.4,407.6
		L551.2,422.0 L553.1,436.5 L555.0,451.2 L556.9,465.7 L558.8,480.1 L560.7,494.1 L562.6,507.7 L564.5,520.9
		L566.3,533.5 L568.2,545.5 L570.1,556.8 L572.0,567.4 L573.9,577.3 L575.8,586.6 L577.7,595.1 L579.5,602.8
		L581.4,609.9 L583.3,616.4 L585.2,622.2 L587.1,627.4 L589.0,632.1 L590.9,636.2 L592.8,639.9 L594.6,643.1
		L596.5,645.9 L598.4,648.3 L600.3,650.4 L602.2,652.2 L604.1,653.7 L606.0,655.0 L607.9,656.0 L609.7,656.8
		L611.6,657.4 L613.5,657.9 L615.4,658.1 L617.3,658.2 L619.2,658.2 L621.1,657.9 L623.0,657.4 L624.8,656.8
		L626.7,655.9 L628.6,654.8 L630.5,653.3 L632.4,651.6 L634.3,649.5 L636.2,647.0 L638.1,644.1 L639.9,640.7
		L641.8,636.7 L643.7,632.1 L645.6,626.8 L647.5,620.8 L649.4,614.1 L651.3,606.5 L653.1,598.0 L655.0,588.6
		L656.9,578.2 L658.8,566.9 L660.7,554.5 L662.6,541.1 L664.5,526.8 L666.4,511.4 L668.2,495.2 L670.1,478.1
		L672.0,460.3 L673.9,441.8 L675.8,422.7 L677.7,403.2 L679.6,383.5 L681.5,363.7 L683.3,344.1 L685.2,324.6
		L687.1,305.7 L689.0,287.4 L690.9,270.0 L692.8,253.7 L694.7,238.5 L696.6,224.8 L698.4,212.5 L700.3,202.0
		L702.2,193.2 L704.1,186.2 L706.0,181.1 L707.9,178.0 L709.8,176.7 L711.7,177.4 L713.5,180.0 L715.4,184.4
		L717.3,190.5 L719.2,198.2 L721.1,207.4 L723.0,217.9 L724.9,229.7 L726.7,242.5 L728.6,256.3 L730.5,270.9
		L732.4,286.0 L734.3,301.7 L736.2,317.6 L738.1,333.8 L740.0,350.1 L741.8,366.4 L743.7,382.5 L745.6,398.5
		L747.5,414.1 L749.4,429.4 L751.3,444.3 L753.2,458.8 L755.1,472.7 L756.9,486.1 L758.8,499.0 L760.7,511.3
		L762.6,523.0 L764.5,534.1 L766.4,544.6 L768.3,554.6 L770.2,564.0 L772.0,572.8 L773.9,581.0 L775.8,588.7
		L777.7,595.8 L779.6,602.4 L781.5,608.6 L783.4,614.2 L785.3,619.4 L787.1,624.1 L789.0,628.4 L790.9,632.4
		L792.8,635.9 L794.7,639.1 L796.6,642.0 L798.5,644.5 L800.3,646.8 L802.2,648.9 L804.1,650.6 L806.0,652.2
		L807.9,653.6 L809.8,654.8 L811.7,655.8 L813.6,656.7 L815.4,657.4 L817.3,658.1 L819.2,658.6 L821.1,659.1
		L823.0,659.4 L824.9,659.7 L826.8,660.0 L828.7,660.1 L830.5,660.3 L832.4,660.3 L834.3,660.3 L836.2,660.3
		L838.1,660.2 L840.0,660.1 L841.9,659.9 L843.8,659.6 L845.6,659.3 L847.5,658.9 L849.4,658.5 L851.3,658.0
		L853.2,657.4 L855.1,656.7 L857.0,655.9 L858.9,655.0 L860.7,654.0 L862.6,652.9 L864.5,651.7 L866.4,650.4
		L868.3,649.0 L870.2,647.5 L872.1,645.9 L873.9,644.2 L875.8,642.3 L877.7,640.4 L879.6,638.4 L881.5,636.3
		L883.4,634.2 L885.3,632.0 L887.2,629.7 L889.0,627.5 L890.9,625.2 L892.8,623.0 L894.7,620.8 L896.6,618.7
		L898.5,616.6 L900.4,614.7 L902.3,612.8 L904.1,611.2 L906.0,609.6 L907.9,608.3 L909.8,607.1 L911.7,606.1
		L913.6,605.4 L915.5,604.9 L917.4,604.6 L919.2,604.6 L921.1,604.8 L923.0,605.2 L924.9,605.9 L926.8,606.8
		L928.7,607.9 L930.6,609.2 L932.5,610.6 L934.3,612.3 L936.2,614.1 L938.1,616.0 L940.0,618.0 L941.9,620.1
		L943.8,622.2 L945.7,624.4 L947.5,626.6 L949.4,628.7 L951.3,630.9 L953.2,632.9 L955.1,635.0 L957.0,636.9
		L958.9,638.7 L960.8,640.4 L962.6,642.0 L964.5,643.4 L966.4,644.8 L968.3,646.0 L970.2,647.0 L972.1,648.0
		L974.0,648.8 L975.9,649.5 L977.7,650.1 L979.6,650.5 L981.5,650.9 L983.4,651.2 L985.3,651.4 L987.2,651.6
		L989.1,651.7 L991.0,651.7 L992.8,651.8 L994.7,651.8 L996.6,651.7 L998.5,651.7 L1000.4,651.7 L1002.3,651.7
		L1004.2,651.7 L1006.1,651.7 L1007.9,651.7 L1009.8,651.8 L1011.7,651.8 L1013.6,652.0  '/></g>
	</g>
	<g id="gnuplot_plot_2" ><title>Confidence interval</title>
<g fill="none" color="white" stroke="rgb( 31, 120, 180)" stroke-width="1.00" stroke-linecap="butt" stroke-linejoin="miter">
</g>
<g fill="none" color="black" stroke="currentColor" stroke-width="1.00" stroke-linecap="butt" stroke-linejoin="miter">
	<g transform="translate(1089.0,85.0)" stroke="none" fill="black" font-family="Helvetica" font-size="12.00"  text-anchor="start">
		<text><tspan font-family="Helvetica" >Confidence interval</tspan></text>
	</g>
</g>
<g fill="none" color="black" stroke="currentColor" stroke-width="1.00" stroke-linecap="butt" stroke-linejoin="miter">
	<g stroke='none' shape-rendering='crispEdges'>
		<polygon fill = 'rgb( 31, 120, 180)' fill-opacity = '0.250000' points = '1038.5,85.6 1080.7,85.6 1080.7,76.6 1038.5,76.6 '/>
		<polygon fill = 'rgb( 31, 120, 180)' fill-opacity = '0.250000' points = '158.7,406.9 158.7,662.4 160.6,662.4 160.6,397.8 '/>
		<polygon fill = 'rgb( 31, 120, 180)' fill-opacity = '0.250000' points = '160.6,397.8 160.6,662.4 162.5,662.4 162.5,389.2 '/>
		<polygon fill = 'rgb( 31, 120, 180)' fill-opacity = '0.250000' points = '162.5,389.2 162.5,662.4 164.4,662.4 164.4,381.2 '/>
		<polygon fill = 'rgb( 31, 120, 180)' fill-opacity = '0.250000' points = '164.4,381.2 164.4,662.4 166.3,662.4 166.3,373.9 '/>
		<polygon fill = 'rgb( 31, 120, 180)' fill-opacity = '0.250000' points = '166.3,373.9 166.3,662.4 168.1,662.4 168.1,367.2 '/>
		<polygon fill = 'rgb( 31, 120, 180)' fill-opacity = '0.250000' points = '168.1,367.2 168.1,662.4 170.0,662.4 170.0,361.2 '/>
		<polygon fill = 'rgb( 31, 120, 180)' fill-opacity = '0.250000' points = '170.0,361.2 170.0,662.4 171.9,662.4 171.9,355.9 '/>
		<polygon fill = 'rgb( 31, 120, 180)' fill-opacity = '0.250000' points = '171.9,355.9 171.9,662.4 173.8,662.4 173.8,351.2 '/>
		<polygon fill = 'rgb( 31, 120, 180)' fill-opacity = '0.250000' points = '173.8,351.2 173.8,662.4 175.7,662.4 175.7,347.2 '/>
		<polygon fill = 'rgb( 31, 120, 180)' fill-opacity = '0.250000' points = '175.7,347.2 175.7,662.4 177.6,662.4 177.6,343.8 '/>
		<polygon fill = 'rgb( 31, 120, 180)' fill-opacity = '0.250000' points = '177.6,343.8 177.6,662.4 179.5,662.4 179.5,341.0 '/>
		<polygon fill = 'rgb( 31, 120, 180)' fill-opacity = '0.250000' points = '179.5,341.0 179.5,662.4 181.4,662.4 181.4,338.8 '/>
		<polygon fill = 'rgb( 31, 120, 180)' fill-opacity = '0.250000' points = '181.4,338.8 181.4,662.4 183.2,662.4 183.2,337.0 '/>
		<polygon fill = 'rgb( 31, 120, 180)' fill-opacity = '0.250000' points = '183.2,337.0 183.2,662.4 185.1,662.4 185.1,335.8 '/>
		<polygon fill = 'rgb( 31, 120, 180)' fill-opacity = '0.250000' points = '185.1,335.8 185.1,662.4 187.0,662.4 187.0,334.9 '/>
		<polygon fill = 'rgb( 31, 120, 180)' fill-opacity = '0.250000' points = '187.0,334.9 187.0,662.4 188.9,662.4 188.9,334.3 '/>
		<polygon fill = 'rgb( 31, 120, 180)' fill-opacity = '0.250000' points = '188.9,334.3 188.9,662.4 190.8,662.4 190.8,334.1 '/>
		<polygon fill = 'rgb( 31, 120, 180)' fill-opacity = '0.250000' points = '190.8,334.1 190.8,662.4 192.7,662.4 192.7,334.0 '/>
		<polygon fill = 'rgb( 31, 120, 180)' fill-opacity = '0.250000' points = '192.7,334.0 192.7,662.4 194.6,662.4 194.6,334.1 '/>
		<polygon fill = 'rgb( 31, 120, 180)' fill-opacity = '0.250000' points = '194.6,334.1 194.6,662.4 196.5,662.4 196.5,334.3 '/>
		<polygon fill = 'rgb( 31, 120, 180)' fill-opacity = '0.250000' points = '196.5,334.3 196.5,662.4 198.3,662.4 198.3,334.5 '/>
		<polygon fill = 'rgb( 31, 120, 180)' fill-opacity = '0.250000' points = '198.3,334.5 198.3,662.4 200.2,662.4 200.2,334.7 '/>
		<polygon fill = 'rgb( 31, 120, 180)' fill-opacity = '0.250000' points = '200.2,334.7 200.2,662.4 202.1,662.4 202.1,334.8 '/>
		<polygon fill = 'rgb( 31, 120, 180)' fill-opacity = '0.250000' points = '202.1,334.8 202.1,662.4 204.0,662.4 204.0,334.7 '/>
		<polygon fill = 'rgb( 31, 120, 180)' fill-opacity = '0.250000' points = '204.0,334.7 204.0,662.4 205.9,662.4 205.9,334.6 '/>
		<polygon fill = 'rgb( 31, 120, 180)' fill-opacity = '0.250000' points = '205.9,334.6 205.9,662.4 207.8,662.4 207.8,334.2 '/>
		<polygon fill = 'rgb( 31, 120, 180)' fill-opacity = '0.250000' points = '207.8,334.2 207.8,662.4 209.7,662.4 209.7,333.7 '/>
		<polygon fill = 'rgb( 31, 120, 180)' fill-opacity = '0.250000' points = '209.7,333.7 209.7,662.4 211.6,662.4 211.6,332.8 '/>
		<polygon fill = 'rgb( 31, 120, 180)' fill-opacity = '0.250000' points = '211.6,332.8 211.6,662.4 213.4,662.4 213.4,331.8 '/>
		<polygon fill = 'rgb( 31, 120, 180)' fill-opacity = '0.250000' points = '213.4,331.8 213.4,662.4 215.3,662.4 215.3,330.4 '/>
		<polygon fill = 'rgb( 31, 120, 180)' fill-opacity = '0.250000' points = '215.3,330.4 215.3,662.4 217.2,662.4 217.2,328.8 '/>
		<polygon fill = 'rgb( 31, 120, 180)' fill-opacity = '0.250000' points = '217.2,328.8 217.2,662.4 219.1,662.4 219.1,327.0 '/>
		<polygon fill = 'rgb( 31, 120, 180)' fill-opacity = '0.250000' points = '219.1,327.0 219.1,662.4 221.0,662.4 221.0,324.8 '/>
		<polygon fill = 'rgb( 31, 120, 180)' fill-opacity = '0.250000' points = '221.0,324.8 221.0,662.4 222.9,662.4 222.9,322.4 '/>
		<polygon fill = 'rgb( 31, 120, 180)' fill-opacity = '0.250000' points = '222.9,322.4 222.9,662.4 224.8,662.4 224.8,319.7 '/>
		<polygon fill = 'rgb( 31, 120, 180)' fill-opacity = '0.250000' points = '224.8,319.7 224.8,662.4 226.6,662.4 226.6,316.7 '/>
		<polygon fill = 'rgb( 31, 120, 180)' fill-opacity = '0.250000' points = '226.6,316.7 226.6,662.4 228.5,662.4 228.5,313.5 '/>
		<polygon fill = 'rgb( 31, 120, 180)' fill-opacity = '0.250000' points = '228.5,313.5 228.5,662.4 230.4,662.4 230.4,310.1 '/>
		<polygon fill = 'rgb( 31, 120, 180)' fill-opacity = '0.250000' points = '230.4,310.1 230.4,662.4 232.3,662.4 232.3,306.5 '/>
		<polygon fill = 'rgb( 31, 120, 180)' fill-opacity = '0.250000' points = '232.3,306.5 232.3,662.4 234.2,662.4 234.2,302.6 '/>
		<polygon fill = 'rgb( 31, 120, 180)' fill-opacity = '0.250000' points = '234.2,302.6 234.2,662.4 236.1,662.4 236.1,298.6 '/>
		<polygon fill = 'rgb( 31, 120, 180)' fill-opacity = '0.250000' points = '236.1,298.6 236.1,662.4 238.0,662.4 238.0,294.4 '/>
		<polygon fill = 'rgb( 31, 120, 180)' fill-opacity = '0.250000' points = '238.0,294.4 238.0,662.4 239.9,662.4 239.9,290.0 '/>
		<polygon fill = 'rgb( 31, 120, 180)' fill-opacity = '0.250000' points = '239.9,290.0 239.9,662.4 241.7,662.4 241.7,285.6 '/>
		<polygon fill = 'rgb( 31, 120, 180)' fill-opacity = '0.250000' points = '241.7,285.6 241.7,662.4 243.6,662.4 243.6,281.0 '/>
		<polygon fill = 'rgb( 31, 120, 180)' fill-opacity = '0.250000' points = '243.6,281.0 243.6,662.4 245.5,662.4 245.5,276.3 '/>
		<polygon fill = 'rgb( 31, 120, 180)' fill-opacity = '0.250000' points = '245.5,276.3 245.5,662.4 247.4,662.4 247.4,271.5 '/>
		<polygon fill = 'rgb( 31, 120, 180)' fill-opacity = '0.250000' points = '247.4,271.5 247.4,662.4 249.3,662.4 249.3,266.7 '/>
		<polygon fill = 'rgb( 31, 120, 180)' fill-opacity = '0.250000' points = '249.3,266.7 249.3,662.4 251.2,662.4 251.2,261.9 '/>
		<polygon fill = 'rgb( 31, 120, 180)' fill-opacity = '0.250000' points = '251.2,261.9 251.2,662.4 253.1,662.4 253.1,257.0 '/>
		<polygon fill = 'rgb( 31, 120, 180)' fill-opacity = '0.250000' points = '253.1,257.0 253.1,662.4 255.0,662.4 255.0,252.1 '/>
		<polygon fill = 'rgb( 31, 120, 180)' fill-opacity = '0.250000' points = '255.0,252.1 255.0,662.4 256.8,662.4 256.8,247.2 '/>
		<polygon fill = 'rgb( 31, 120, 180)' fill-opacity = '0.250000' points = '256.8,247.2 256.8,662.4 258.7,662.4 258.7,242.4 '/>
		<polygon fill = 'rgb( 31, 120, 180)' fill-opacity = '0.250000' points = '258.7,242.4 258.7,662.4 260.6,662.4 260.6,237.5 '/>
		<polygon fill = 'rgb( 31, 120, 180)' fill-opacity = '0.250000' points = '260.6,237.5 260.6,662.4 262.5,662.4 262.5,232.7 '/>
		<polygon fill = 'rgb( 31, 120, 180)' fill-opacity = '0.250000' points = '262.5,232.7 262.5,662.4 264.4,662.4 264.4,227.9 '/>
		<polygon fill = 'rgb( 31, 120, 180)' fill-opacity = '0.250000' points = '264.4,227.9 264.4,662.4 266.3,662.4 266.3,223.1 '/>
		<polygon fill = 'rgb( 31, 120, 180)' fill-opacity = '0.250000' points = '266.3,223.1 266.3,662.4 268.2,662.4 268.2,218.3 '/>
		<polygon fill = 'rgb( 31, 120, 180)' fill-opacity = '0.250000' points = '268.2,218.3 268.2,662.4 270.1,662.4 270.1,213.6 '/>
		<polygon fill = 'rgb( 31, 120, 180)' fill-opacity = '0.250000' points = '270.1,213.6 270.1,662.4 271.9,662.4 271.9,208.8 '/>
		<polygon fill = 'rgb( 31, 120, 180)' fill-opacity = '0.250000' points = '271.9,208.8 271.9,662.4 273.8,662.4 273.8,204.0 '/>
		<polygon fill = 'rgb( 31, 120, 180)' fill-opacity = '0.250000' points = '273.8,204.0 273.8,662.4 275.7,662.4 275.7,199.2 '/>
		<polygon fill = 'rgb( 31, 120, 180)' fill-opacity = '0.250000' points = '275.7,199.2 275.7,662.4 277.6,662.4 277.6,194.4 '/>
		<polygon fill = 'rgb( 31, 120, 180)' fill-opacity = '0.250000' points = '277.6,194.4 277.6,662.4 279.5,662.4 279.5,189.4 '/>
		<polygon fill = 'rgb( 31, 120, 180)' fill-opacity = '0.250000' points = '279.5,189.4 279.5,662.4 281.4,662.4 281.4,184.4 '/>
		<polygon fill = 'rgb( 31, 120, 180)' fill-opacity = '0.250000' points = '281.4,184.4 281.4,662.4 283.3,662.4 283.3,179.3 '/>
		<polygon fill = 'rgb( 31, 120, 180)' fill-opacity = '0.250000' points = '283.3,179.3 283.3,662.4 285.2,662.4 285.2,174.1 '/>
		<polygon fill = 'rgb( 31, 120, 180)' fill-opacity = '0.250000' points = '285.2,174.1 285.2,662.4 287.0,662.4 287.0,168.7 '/>
		<polygon fill = 'rgb( 31, 120, 180)' fill-opacity = '0.250000' points = '287.0,168.7 287.0,662.4 288.9,662.4 288.9,163.2 '/>
		<polygon fill = 'rgb( 31, 120, 180)' fill-opacity = '0.250000' points = '288.9,163.2 288.9,662.4 290.8,662.4 290.8,157.6 '/>
		<polygon fill = 'rgb( 31, 120, 180)' fill-opacity = '0.250000' points = '290.8,157.6 290.8,662.4 292.7,662.4 292.7,151.8 '/>
		<polygon fill = 'rgb( 31, 120, 180)' fill-opacity = '0.250000' points = '292.7,151.8 292.7,662.4 294.6,662.4 294.6,145.9 '/>
		<polygon fill = 'rgb( 31, 120, 180)' fill-opacity = '0.250000' points = '294.6,145.9 294.6,662.4 296.5,662.4 296.5,139.8 '/>
		<polygon fill = 'rgb( 31, 120, 180)' fill-opacity = '0.250000' points = '296.5,139.8 296.5,662.4 298.4,662.4 298.4,133.7 '/>
		<polygon fill = 'rgb( 31, 120, 180)' fill-opacity = '0.250000' points = '298.4,133.7 298.4,662.4 300.2,662.4 300.2,127.5 '/>
		<polygon fill = 'rgb( 31, 120, 180)' fill-opacity = '0.250000' points = '300.2,127.5 300.2,662.4 302.1,662.4 302.1,121.2 '/>
		<polygon fill = 'rgb( 31, 120, 180)' fill-opacity = '0.250000' points = '302.1,121.2 302.1,662.4 304.0,662.4 304.0,114.9 '/>
		<polygon fill = 'rgb( 31, 120, 180)' fill-opacity = '0.250000' points = '304.0,114.9 304.0,662.4 305.9,662.4 305.9,108.6 '/>
		<polygon fill = 'rgb( 31, 120, 180)' fill-opacity = '0.250000' points = '305.9,108.6 305.9,662.4 307.8,662.4 307.8,102.4 '/>
		<polygon fill = 'rgb( 31, 120, 180)' fill-opacity = '0.250000' points = '307.8,102.4 307.8,662.4 309.7,662.4 309.7,96.3 '/>
		<polygon fill = 'rgb( 31, 120, 180)' fill-opacity = '0.250000' points = '309.7,96.3 309.7,662.4 311.6,662.4 311.6,90.5 '/>
		<polygon fill = 'rgb( 31, 120, 180)' fill-opacity = '0.250000' points = '311.6,90.5 311.6,662.4 313.5,662.4 313.5,84.9 '/>
		<polygon fill = 'rgb( 31, 120, 180)' fill-opacity = '0.250000' points = '313.5,84.9 313.5,662.4 315.3,662.4 315.3,79.7 '/>
		<polygon fill = 'rgb( 31, 120, 180)' fill-opacity = '0.250000' points = '315.3,79.7 315.3,662.4 317.2,662.4 317.2,74.9 '/>
		<polygon fill = 'rgb( 31, 120, 180)' fill-opacity = '0.250000' points = '317.2,74.9 317.2,662.4 319.1,662.4 319.1,70.6 '/>
		<polygon fill = 'rgb( 31, 120, 180)' fill-opacity = '0.250000' points = '319.1,70.6 319.1,662.4 321.0,662.4 321.0,66.9 '/>
		<polygon fill = 'rgb( 31, 120, 180)' fill-opacity = '0.250000' points = '321.0,66.9 321.0,662.4 322.9,662.4 322.9,63.9 '/>
		<polygon fill = 'rgb( 31, 120, 180)' fill-opacity = '0.250000' points = '322.9,63.9 322.9,662.4 324.8,662.4 324.8,61.7 '/>
		<polygon fill = 'rgb( 31, 120, 180)' fill-opacity = '0.250000' points = '324.8,61.7 324.8,662.4 326.7,662.4 326.7,60.3 '/>
		<polygon fill = 'rgb( 31, 120, 180)' fill-opacity = '0.250000' points = '326.7,60.3 326.7,662.4 328.6,662.4 328.6,59.9 '/>
		<polygon fill = 'rgb( 31, 120, 180)' fill-opacity = '0.250000' points = '328.6,59.9 328.6,662.4 330.4,662.4 330.4,60.5 '/>
		<polygon fill = 'rgb( 31, 120, 180)' fill-opacity = '0.250000' points = '330.4,60.5 330.4,662.4 332.3,662.4 332.3,62.2 '/>
		<polygon fill = 'rgb( 31, 120, 180)' fill-opacity = '0.250000' points = '332.3,62.2 332.3,662.4 334.2,662.4 334.2,65.0 '/>
		<polygon fill = 'rgb( 31, 120, 180)' fill-opacity = '0.250000' points = '334.2,65.0 334.2,662.4 336.1,662.4 336.1,69.1 '/>
		<polygon fill = 'rgb( 31, 120, 180)' fill-opacity = '0.250000' points = '336.1,69.1 336.1,662.4 338.0,662.4 338.0,74.4 '/>
		<polygon fill = 'rgb( 31, 120, 180)' fill-opacity = '0.250000' points = '338.0,74.4 338.0,662.4 339.9,662.4 339.9,80.9 '/>
		<polygon fill = 'rgb( 31, 120, 180)' fill-opacity = '0.250000' points = '339.9,80.9 339.9,662.4 341.8,662.4 341.8,88.8 '/>
		<polygon fill = 'rgb( 31, 120, 180)' fill-opacity = '0.250000' points = '341.8,88.8 341.8,662.4 343.7,662.4 343.7,98.0 '/>
		<polygon fill = 'rgb( 31, 120, 180)' fill-opacity = '0.250000' points = '343.7,98.0 343.7,662.4 345.5,662.4 345.5,108.5 '/>
		<polygon fill = 'rgb( 31, 120, 180)' fill-opacity = '0.250000' points = '345.5,108.5 345.5,662.4 347.4,662.4 347.4,120.3 '/>
		<polygon fill = 'rgb( 31, 120, 180)' fill-opacity = '0.250000' points = '347.4,120.3 347.4,662.4 349.3,662.4 349.3,133.4 '/>
		<polygon fill = 'rgb( 31, 120, 180)' fill-opacity = '0.250000' points = '349.3,133.4 349.3,662.4 351.2,662.4 351.2,147.6 '/>
		<polygon fill = 'rgb( 31, 120, 180)' fill-opacity = '0.250000' points = '351.2,147.6 351.2,662.4 353.1,662.4 353.1,162.9 '/>
		<polygon fill = 'rgb( 31, 120, 180)' fill-opacity = '0.250000' points = '353.1,162.9 353.1,662.4 355.0,662.4 355.0,179.3 '/>
		<polygon fill = 'rgb( 31, 120, 180)' fill-opacity = '0.250000' points = '355.0,179.3 355.0,662.4 356.9,662.4 356.9,196.7 '/>
		<polygon fill = 'rgb( 31, 120, 180)' fill-opacity = '0.250000' points = '356.9,196.7 356.9,662.4 358.8,662.4 358.8,214.9 '/>
		<polygon fill = 'rgb( 31, 120, 180)' fill-opacity = '0.250000' points = '358.8,214.9 358.8,662.4 360.6,662.4 360.6,233.8 '/>
		<polygon fill = 'rgb( 31, 120, 180)' fill-opacity = '0.250000' points = '360.6,233.8 360.6,662.4 362.5,662.4 362.5,253.3 '/>
		<polygon fill = 'rgb( 31, 120, 180)' fill-opacity = '0.250000' points = '362.5,253.3 362.5,662.4 364.4,662.4 364.4,273.3 '/>
		<polygon fill = 'rgb( 31, 120, 180)' fill-opacity = '0.250000' points = '364.4,273.3 364.4,662.4 366.3,662.4 366.3,293.6 '/>
		<polygon fill = 'rgb( 31, 120, 180)' fill-opacity = '0.250000' points = '366.3,293.6 366.3,662.4 368.2,662.4 368.2,314.1 '/>
		<polygon fill = 'rgb( 31, 120, 180)' fill-opacity = '0.250000' points = '368.2,314.1 368.2,662.4 370.1,662.4 370.1,334.7 '/>
		<polygon fill = 'rgb( 31, 120, 180)' fill-opacity = '0.250000' points = '370.1,334.7 370.1,662.4 372.0,662.4 372.0,355.2 '/>
		<polygon fill = 'rgb( 31, 120, 180)' fill-opacity = '0.250000' points = '372.0,355.2 372.0,662.4 373.8,662.4 373.8,375.5 '/>
		<polygon fill = 'rgb( 31, 120, 180)' fill-opacity = '0.250000' points = '373.8,375.5 373.8,662.4 375.7,662.4 375.7,395.4 '/>
		<polygon fill = 'rgb( 31, 120, 180)' fill-opacity = '0.250000' points = '375.7,395.4 375.7,662.4 377.6,662.4 377.6,415.0 '/>
		<polygon fill = 'rgb( 31, 120, 180)' fill-opacity = '0.250000' points = '377.6,415.0 377.6,662.4 379.5,662.4 379.5,433.9 '/>
		<polygon fill = 'rgb( 31, 120, 180)' fill-opacity = '0.250000' points = '379.5,433.9 379.5,662.4 381.4,662.4 381.4,452.2 '/>
		<polygon fill = 'rgb( 31, 120, 180)' fill-opacity = '0.250000' points = '381.4,452.2 381.4,662.4 383.3,662.4 383.3,469.8 '/>
		<polygon fill = 'rgb( 31, 120, 180)' fill-opacity = '0.250000' points = '383.3,469.8 383.3,662.4 385.2,662.4 385.2,486.6 '/>
		<polygon fill = 'rgb( 31, 120, 180)' fill-opacity = '0.250000' points = '385.2,486.6 385.2,662.4 387.1,662.4 387.1,502.4 '/>
		<polygon fill = 'rgb( 31, 120, 180)' fill-opacity = '0.250000' points = '387.1,502.4 387.1,662.4 388.9,662.4 388.9,517.4 '/>
		<polygon fill = 'rgb( 31, 120, 180)' fill-opacity = '0.250000' points = '388.9,517.4 388.9,662.4 390.8,662.4 390.8,531.4 '/>
		<polygon fill = 'rgb( 31, 120, 180)' fill-opacity = '0.250000' points = '390.8,531.4 390.8,662.4 392.7,662.4 392.7,544.4 '/>
		<polygon fill = 'rgb( 31, 120, 180)' fill-opacity = '0.250000' points = '392.7,544.4 392.7,662.4 394.6,662.4 394.6,556.5 '/>
		<polygon fill = 'rgb( 31, 120, 180)' fill-opacity = '0.250000' points = '394.6,556.5 394.6,662.4 396.5,662.4 396.5,567.5 '/>
		<polygon fill = 'rgb( 31, 120, 180)' fill-opacity = '0.250000' points = '396.5,567.5 396.5,662.4 398.4,662.4 398.4,577.6 '/>
		<polygon fill = 'rgb( 31, 120, 180)' fill-opacity = '0.250000' points = '398.4,577.6 398.4,662.4 400.3,662.4 400.3,586.7 '/>
		<polygon fill = 'rgb( 31, 120, 180)' fill-opacity = '0.250000' points = '400.3,586.7 400.3,662.4 402.2,662.4 402.2,594.9 '/>
		<polygon fill = 'rgb( 31, 120, 180)' fill-opacity = '0.250000' points = '402.2,594.9 402.2,662.4 404.0,662.4 404.0,602.2 '/>
		<polygon fill = 'rgb( 31, 120, 180)' fill-opacity = '0.250000' points = '404.0,602.2 404.0,662.4 405.9,662.4 405.9,608.7 '/>
		<polygon fill = 'rgb( 31, 120, 180)' fill-opacity = '0.250000' points = '405.9,608.7 405.9,662.4 407.8,662.4 407.8,614.3 '/>
		<polygon fill = 'rgb( 31, 120, 180)' fill-opacity = '0.250000' points = '407.8,614.3 407.8,662.4 409.7,662.4 409.7,619.2 '/>
		<polygon fill = 'rgb( 31, 120, 180)' fill-opacity = '0.250000' points = '409.7,619.2 409.7,662.4 411.6,662.4 411.6,623.4 '/>
		<polygon fill = 'rgb( 31, 120, 180)' fill-opacity = '0.250000' points = '411.6,623.4 411.6,662.4 413.5,662.4 413.5,626.9 '/>
		<polygon fill = 'rgb( 31, 120, 180)' fill-opacity = '0.250000' points = '413.5,626.9 413.5,662.4 415.4,662.4 415.4,629.8 '/>
		<polygon fill = 'rgb( 31, 120, 180)' fill-opacity = '0.250000' points = '415.4,629.8 415.4,662.4 417.3,662.4 417.3,632.2 '/>
		<polygon fill = 'rgb( 31, 120, 180)' fill-opacity = '0.250000' points = '417.3,632.2 417.3,662.4 419.1,662.4 419.1,634.1 '/>
		<polygon fill = 'rgb( 31, 120, 180)' fill-opacity = '0.250000' points = '419.1,634.1 419.1,662.4 421.0,662.4 421.0,635.5 '/>
		<polygon fill = 'rgb( 31, 120, 180)' fill-opacity = '0.250000' points = '421.0,635.5 421.0,662.4 422.9,662.4 422.9,636.5 '/>
		<polygon fill = 'rgb( 31, 120, 180)' fill-opacity = '0.250000' points = '422.9,636.5 422.9,662.4 424.8,662.4 424.8,637.1 '/>
		<polygon fill = 'rgb( 31, 120, 180)' fill-opacity = '0.250000' points = '424.8,637.1 424.8,662.4 426.7,662.4 426.7,637.4 '/>
		<polygon fill = 'rgb( 31, 120, 180)' fill-opacity = '0.250000' points = '426.7,637.4 426.7,662.4 428.6,662.4 428.6,637.4 '/>
		<polygon fill = 'rgb( 31, 120, 180)' fill-opacity = '0.250000' points = '428.6,637.4 428.6,662.4 430.5,662.4 430.5,637.1 '/>
		<polygon fill = 'rgb( 31, 120, 180)' fill-opacity = '0.250000' points = '430.5,637.1 430.5,662.4 432.4,662.4 432.4,636.6 '/>
		<polygon fill = 'rgb( 31, 120, 180)' fill-opacity = '0.250000' points = '432.4,636.6 432.4,662.4 434.2,662.4 434.2,635.8 '/>
		<polygon fill = 'rgb( 31, 120, 180)' fill-opacity = '0.250000' points = '434.2,635.8 434.2,662.4 436.1,662.4 436.1,634.8 '/>
		<polygon fill = 'rgb( 31, 120, 180)' fill-opacity = '0.250000' points = '436.1,634.8 436.1,662.4 438.0,662.4 438.0,633.5 '/>
		<polygon fill = 'rgb( 31, 120, 180)' fill-opacity = '0.250000' points = '438.0,633.5 438.0,662.4 439.9,662.4 439.9,632.1 '/>
		<polygon fill = 'rgb( 31, 120, 180)' fill-opacity = '0.250000' points = '439.9,632.1 439.9,662.4 441.8,662.4 441.8,630.5 '/>
		<polygon fill = 'rgb( 31, 120, 180)' fill-opacity = '0.250000' points = '441.8,630.5 441.8,662.4 443.7,662.4 443.7,628.7 '/>
		<polygon fill = 'rgb( 31, 120, 180)' fill-opacity = '0.250000' points = '443.7,628.7 443.7,662.4 445.6,662.4 445.6,626.6 '/>
		<polygon fill = 'rgb( 31, 120, 180)' fill-opacity = '0.250000' points = '445.6,626.6 445.6,662.4 447.4,662.4 447.4,624.3 '/>
		<polygon fill = 'rgb( 31, 120, 180)' fill-opacity = '0.250000' points = '447.4,624.3 447.4,662.4 449.3,662.4 449.3,621.8 '/>
		<polygon fill = 'rgb( 31, 120, 180)' fill-opacity = '0.250000' points = '449.3,621.8 449.3,662.4 451.2,662.4 451.2,619.1 '/>
		<polygon fill = 'rgb( 31, 120, 180)' fill-opacity = '0.250000' points = '451.2,619.1 451.2,662.4 453.1,662.4 453.1,616.1 '/>
		<polygon fill = 'rgb( 31, 120, 180)' fill-opacity = '0.250000' points = '453.1,616.1 453.1,662.4 455.0,662.4 455.0,612.7 '/>
		<polygon fill = 'rgb( 31, 120, 180)' fill-opacity = '0.250000' points = '455.0,612.7 455.0,662.4 456.9,662.4 456.9,609.1 '/>
		<polygon fill = 'rgb( 31, 120, 180)' fill-opacity = '0.250000' points = '456.9,609.1 456.9,662.4 458.8,662.4 458.8,605.2 '/>
		<polygon fill = 'rgb( 31, 120, 180)' fill-opacity = '0.250000' points = '458.8,605.2 458.8,662.4 460.7,662.4 460.7,600.8 '/>
		<polygon fill = 'rgb( 31, 120, 180)' fill-opacity = '0.250000' points = '460.7,600.8 460.7,662.4 462.5,662.4 462.5,596.1 '/>
		<polygon fill = 'rgb( 31, 120, 180)' fill-opacity = '0.250000' points = '462.5,596.1 462.5,662.4 464.4,662.4 464.4,591.0 '/>
		<polygon fill = 'rgb( 31, 120, 180)' fill-opacity = '0.250000' points = '464.4,591.0 464.4,662.4 466.3,662.4 466.3,585.5 '/>
		<polygon fill = 'rgb( 31, 120, 180)' fill-opacity = '0.250000' points = '466.3,585.5 466.3,662.4 468.2,662.4 468.2,579.4 '/>
		<polygon fill = 'rgb( 31, 120, 180)' fill-opacity = '0.250000' points = '468.2,579.4 468.2,662.4 470.1,662.4 470.1,572.9 '/>
		<polygon fill = 'rgb( 31, 120, 180)' fill-opacity = '0.250000' points = '470.1,572.9 470.1,662.4 472.0,662.4 472.0,565.9 '/>
		<polygon fill = 'rgb( 31, 120, 180)' fill-opacity = '0.250000' points = '472.0,565.9 472.0,662.4 473.9,662.4 473.9,558.3 '/>
		<polygon fill = 'rgb( 31, 120, 180)' fill-opacity = '0.250000' points = '473.9,558.3 473.9,662.4 475.8,662.4 475.8,550.2 '/>
		<polygon fill = 'rgb( 31, 120, 180)' fill-opacity = '0.250000' points = '475.8,550.2 475.8,662.4 477.6,662.4 477.6,541.6 '/>
		<polygon fill = 'rgb( 31, 120, 180)' fill-opacity = '0.250000' points = '477.6,541.6 477.6,662.4 479.5,662.4 479.5,532.4 '/>
		<polygon fill = 'rgb( 31, 120, 180)' fill-opacity = '0.250000' points = '479.5,532.4 479.5,662.4 481.4,662.4 481.4,522.6 '/>
		<polygon fill = 'rgb( 31, 120, 180)' fill-opacity = '0.250000' points = '481.4,522.6 481.4,662.4 483.3,662.4 483.3,512.4 '/>
		<polygon fill = 'rgb( 31, 120, 180)' fill-opacity = '0.250000' points = '483.3,512.4 483.3,662.4 485.2,662.4 485.2,501.6 '/>
		<polygon fill = 'rgb( 31, 120, 180)' fill-opacity = '0.250000' points = '485.2,501.6 485.2,662.4 487.1,662.4 487.1,490.3 '/>
		<polygon fill = 'rgb( 31, 120, 180)' fill-opacity = '0.250000' points = '487.1,490.3 487.1,662.4 489.0,662.4 489.0,478.6 '/>
		<polygon fill = 'rgb( 31, 120, 180)' fill-opacity = '0.250000' points = '489.0,478.6 489.0,662.4 490.9,662.4 490.9,466.5 '/>
		<polygon fill = 'rgb( 31, 120, 180)' fill-opacity = '0.250000' points = '490.9,466.5 490.9,662.4 492.7,662.4 492.7,454.1 '/>
		<polygon fill = 'rgb( 31, 120, 180)' fill-opacity = '0.250000' points = '492.7,454.1 492.7,662.4 494.6,662.4 494.6,441.5 '/>
		<polygon fill = 'rgb( 31, 120, 180)' fill-opacity = '0.250000' points = '494.6,441.5 494.6,662.4 496.5,662.4 496.5,428.7 '/>
		<polygon fill = 'rgb( 31, 120, 180)' fill-opacity = '0.250000' points = '496.5,428.7 496.5,662.4 498.4,662.4 498.4,415.8 '/>
		<polygon fill = 'rgb( 31, 120, 180)' fill-opacity = '0.250000' points = '498.4,415.8 498.4,662.4 500.3,662.4 500.3,403.0 '/>
		<polygon fill = 'rgb( 31, 120, 180)' fill-opacity = '0.250000' points = '500.3,403.0 500.3,662.4 502.2,662.4 502.2,390.4 '/>
		<polygon fill = 'rgb( 31, 120, 180)' fill-opacity = '0.250000' points = '502.2,390.4 502.2,662.4 504.1,662.4 504.1,378.1 '/>
		<polygon fill = 'rgb( 31, 120, 180)' fill-opacity = '0.250000' points = '504.1,378.1 504.1,662.4 506.0,662.4 506.0,366.2 '/>
		<polygon fill = 'rgb( 31, 120, 180)' fill-opacity = '0.250000' points = '506.0,366.2 506.0,662.4 507.8,662.4 507.8,354.9 '/>
		<polygon fill = 'rgb( 31, 120, 180)' fill-opacity = '0.250000' points = '507.8,354.9 507.8,662.4 509.7,662.4 509.7,344.3 '/>
		<polygon fill = 'rgb( 31, 120, 180)' fill-opacity = '0.250000' points = '509.7,344.3 509.7,662.4 511.6,662.4 511.6,334.5 '/>
		<polygon fill = 'rgb( 31, 120, 180)' fill-opacity = '0.250000' points = '511.6,334.5 511.6,662.4 513.5,662.4 513.5,325.6 '/>
		<polygon fill = 'rgb( 31, 120, 180)' fill-opacity = '0.250000' points = '513.5,325.6 513.5,662.4 515.4,662.4 515.4,317.9 '/>
		<polygon fill = 'rgb( 31, 120, 180)' fill-opacity = '0.250000' points = '515.4,317.9 515.4,662.4 517.3,662.4 517.3,311.3 '/>
		<polygon fill = 'rgb( 31, 120, 180)' fill-opacity = '0.250000' points = '517.3,311.3 517.3,662.4 519.2,662.4 519.2,306.0 '/>
		<polygon fill = 'rgb( 31, 120, 180)' fill-opacity = '0.250000' points = '519.2,306.0 519.2,662.4 521.0,662.4 521.0,302.1 '/>
		<polygon fill = 'rgb( 31, 120, 180)' fill-opacity = '0.250000' points = '521.0,302.1 521.0,662.4 522.9,662.4 522.9,299.6 '/>
		<polygon fill = 'rgb( 31, 120, 180)' fill-opacity = '0.250000' points = '522.9,299.6 522.9,662.4 524.8,662.4 524.8,298.7 '/>
		<polygon fill = 'rgb( 31, 120, 180)' fill-opacity = '0.250000' points = '524.8,298.7 524.8,662.4 526.7,662.4 526.7,299.2 '/>
		<polygon fill = 'rgb( 31, 120, 180)' fill-opacity = '0.250000' points = '526.7,299.2 526.7,662.4 528.6,662.4 528.6,301.3 '/>
		<polygon fill = 'rgb( 31, 120, 180)' fill-opacity = '0.250000' points = '528.6,301.3 528.6,662.4 530.5,662.4 530.5,304.8 '/>
		<polygon fill = 'rgb( 31, 120, 180)' fill-opacity = '0.250000' points = '530.5,304.8 530.5,662.4 532.4,662.4 532.4,309.9 '/>
		<polygon fill = 'rgb( 31, 120, 180)' fill-opacity = '0.250000' points = '532.4,309.9 532.4,662.4 534.3,662.4 534.3,316.4 '/>
		<polygon fill = 'rgb( 31, 120, 180)' fill-opacity = '0.250000' points = '534.3,316.4 534.3,662.4 536.1,662.4 536.1,324.2 '/>
		<polygon fill = 'rgb( 31, 120, 180)' fill-opacity = '0.250000' points = '536.1,324.2 536.1,662.4 538.0,662.4 538.0,333.3 '/>
		<polygon fill = 'rgb( 31, 120, 180)' fill-opacity = '0.250000' points = '538.0,333.3 538.0,662.4 539.9,662.4 539.9,343.5 '/>
		<polygon fill = 'rgb( 31, 120, 180)' fill-opacity = '0.250000' points = '539.9,343.5 539.9,662.4 541.8,662.4 541.8,354.8 '/>
		<polygon fill = 'rgb( 31, 120, 180)' fill-opacity = '0.250000' points = '541.8,354.8 541.8,662.4 543.7,662.4 543.7,367.0 '/>
		<polygon fill = 'rgb( 31, 120, 180)' fill-opacity = '0.250000' points = '543.7,367.0 543.7,662.4 545.6,662.4 545.6,379.9 '/>
		<polygon fill = 'rgb( 31, 120, 180)' fill-opacity = '0.250000' points = '545.6,379.9 545.6,662.4 547.5,662.4 547.5,393.5 '/>
		<polygon fill = 'rgb( 31, 120, 180)' fill-opacity = '0.250000' points = '547.5,393.5 547.5,662.4 549.4,662.4 549.4,407.6 '/>
		<polygon fill = 'rgb( 31, 120, 180)' fill-opacity = '0.250000' points = '549.4,407.6 549.4,662.4 551.2,662.4 551.2,422.0 '/>
		<polygon fill = 'rgb( 31, 120, 180)' fill-opacity = '0.250000' points = '551.2,422.0 551.2,662.4 553.1,662.4 553.1,436.5 '/>
		<polygon fill = 'rgb( 31, 120, 180)' fill-opacity = '0.250000' points = '553.1,436.5 553.1,662.4 555.0,662.4 555.0,451.2 '/>
		<polygon fill = 'rgb( 31, 120, 180)' fill-opacity = '0.250000' points = '555.0,451.2 555.0,662.4 556.9,662.4 556.9,465.7 '/>
		<polygon fill = 'rgb( 31, 120, 180)' fill-opacity = '0.250000' points = '556.9,465.7 556.9,662.4 558.8,662.4 558.8,480.1 '/>
		<polygon fill = 'rgb( 31, 120, 180)' fill-opacity = '0.250000' points = '558.8,480.1 558.8,662.4 560.7,662.4 560.7,494.1 '/>
		<polygon fill = 'rgb( 31, 120, 180)' fill-opacity = '0.250000' points = '560.7,494.1 560.7,662.4 562.6,662.4 562.6,507.7 '/>
		<polygon fill = 'rgb( 31, 120, 180)' fill-opacity = '0.250000' points = '562.6,507.7 562.6,662.4 564.5,662.4 564.5,520.9 '/>
		<polygon fill = 'rgb( 31, 120, 180)' fill-opacity = '0.250000' points = '564.5,520.9 564.5,662.4 566.3,662.4 566.3,533.5 '/>
		<polygon fill = 'rgb( 31, 120, 180)' fill-opacity = '0.250000' points = '566.3,533.5 566.3,662.4 568.2,662.4 568.2,545.5 '/>
		<polygon fill = 'rgb( 31, 120, 180)' fill-opacity = '0.250000' points = '568.2,545.5 568.2,662.4 570.1,662.4 570.1,556.8 '/>
		<polygon fill = 'rgb( 31, 120, 180)' fill-opacity = '0.250000' points = '570.1,556.8 570.1,662.4 572.0,662.4 572.0,567.4 '/>
		<polygon fill = 'rgb( 31, 120, 180)' fill-opacity = '0.250000' points = '572.0,567.4 572.0,662.4 573.9,662.4 573.9,577.3 '/>
		<polygon fill = 'rgb( 31, 120, 180)' fill-opacity = '0.250000' points = '573.9,577.3 573.9,662.4 575.8,662.4 575.8,586.6 '/>
		<polygon fill = 'rgb( 31, 120, 180)' fill-opacity = '0.250000' points = '575.8,586.6 575.8,662.4 577.7,662.4 577.7,595.1 '/>
		<polygon fill = 'rgb( 31, 120, 180)' fill-opacity = '0.250000' points = '577.7,595.1 577.7,662.4 579.5,662.4 579.5,602.8 '/>
		<polygon fill = 'rgb( 31, 120, 180)' fill-opacity = '0.250000' points = '579.5,602.8 579.5,662.4 581.4,662.4 581.4,609.9 '/>
		<polygon fill = 'rgb( 31, 120, 180)' fill-opacity = '0.250000' points = '581.4,609.9 581.4,662.4 583.3,662.4 583.3,616.4 '/>
		<polygon fill = 'rgb( 31, 120, 180)' fill-opacity = '0.250000' points = '583.3,616.4 583.3,662.4 585.2,662.4 585.2,622.2 '/>
		<polygon fill = 'rgb( 31, 120, 180)' fill-opacity = '0.250000' points = '585.2,622.2 585.2,662.4 587.1,662.4 587.1,627.4 '/>
		<polygon fill = 'rgb( 31, 120, 180)' fill-opacity = '0.250000' points = '587.1,627.4 587.1,662.4 589.0,662.4 589.0,632.1 '/>
		<polygon fill = 'rgb( 31, 120, 180)' fill-opacity = '0.250000' points = '589.0,632.1 589.0,662.4 590.9,662.4 590.9,636.2 '/>
		<polygon fill = 'rgb( 31, 120, 180)' fill-opacity = '0.250000' points = '590.9,636.2 590.9,662.4 592.8,662.4 592.8,639.9 '/>
		<polygon fill = 'rgb( 31, 120, 180)' fill-opacity = '0.250000' points = '592.8,639.9 592.8,662.4 594.6,662.4 594.6,643.1 '/>
		<polygon fill = 'rgb( 31, 120, 180)' fill-opacity = '0.250000' points = '594.6,643.1 594.6,662.4 596.5,662.4 596.5,645.9 '/>
		<polygon fill = 'rgb( 31, 120, 180)' fill-opacity = '0.250000' points = '596.5,645.9 596.5,662.4 598.4,662.4 598.4,648.3 '/>
		<polygon fill = 'rgb( 31, 120, 180)' fill-opacity = '0.250000' points = '598.4,648.3 598.4,662.4 600.3,662.4 600.3,650.4 '/>
		<polygon fill = 'rgb( 31, 120, 180)' fill-opacity = '0.250000' points = '600.3,650.4 600.3,662.4 602.2,662.4 602.2,652.2 '/>
		<polygon fill = 'rgb( 31, 120, 180)' fill-opacity = '0.250000' points = '602.2,652.2 602.2,662.4 604.1,662.4 604.1,653.7 '/>
		<polygon fill = 'rgb( 31, 120, 180)' fill-opacity = '0.250000' points = '604.1,653.7 604.1,662.4 606.0,662.4 606.0,655.0 '/>
		<polygon fill = 'rgb( 31, 120, 180)' fill-opacity = '0.250000' points = '606.0,655.0 606.0,662.4 607.9,662.4 607.9,656.0 '/>
		<polygon fill = 'rgb( 31, 120, 180)' fill-opacity = '0.250000' points = '607.9,656.0 607.9,662.4 609.7,662.4 609.7,656.8 '/>
		<polygon fill = 'rgb( 31, 120, 180)' fill-opacity = '0.250000' points = '609.7,656.8 609.7,662.4 611.6,662.4 611.6,657.4 '/>
		<polygon fill = 'rgb( 31, 120, 180)' fill-opacity = '0.250000' points = '611.6,657.4 611.6,662.4 613.5,662.4 613.5,657.9 '/>
		<polygon fill = 'rgb( 31, 120, 180)' fill-opacity = '0.250000' points = '613.5,657.9 613.5,662.4 615.4,662.4 615.4,658.1 '/>
		<polygon fill = 'rgb( 31, 120, 180)' fill-opacity = '0.250000' points = '615.4,658.1 615.4,662.4 617.3,662.4 617.3,658.2 '/>
		<polygon fill = 'rgb( 31, 120, 180)' fill-opacity = '0.250000' points = '617.3,658.2 617.3,662.4 619.2,662.4 619.2,658.2 '/>
		<polygon fill = 'rgb( 31, 120, 180)' fill-opacity = '0.250000' points = '619.2,658.2 619.2,662.4 621.1,662.4 621.1,657.9 '/>
		<polygon fill = 'rgb( 31, 120, 180)' fill-opacity = '0.250000' points = '621.1,657.9 621.1,662.4 623.0,662.4 623.0,657.4 '/>
		<polygon fill = 'rgb( 31, 120, 180)' fill-opacity = '0.250000' points = '623.0,657.4 623.0,662.4 624.8,662.4 624.8,656.8 '/>
		<polygon fill = 'rgb( 31, 120, 180)' fill-opacity = '0.250000' points = '624.8,656.8 624.8,662.4 626.7,662.4 626.7,655.9 '/>
		<polygon fill = 'rgb( 31, 120, 180)' fill-opacity = '0.250000' points = '626.7,655.9 626.7,662.4 628.6,662.4 628.6,654.8 '/>
		<polygon fill = 'rgb( 31, 120, 180)' fill-opacity = '0.250000' points = '628.6,654.8 628.6,662.4 630.5,662.4 630.5,653.3 '/>
		<polygon fill = 'rgb( 31, 120, 180)' fill-opacity = '0.250000' points = '630.5,653.3 630.5,662.4 632.4,662.4 632.4,651.6 '/>
		<polygon fill = 'rgb( 31, 120, 180)' fill-opacity = '0.250000' points = '632.4,651.6 632.4,662.4 634.3,662.4 634.3,649.5 '/>
		<polygon fill = 'rgb( 31, 120, 180)' fill-opacity = '0.250000' points = '634.3,649.5 634.3,662.4 636.2,662.4 636.2,647.0 '/>
		<polygon fill = 'rgb( 31, 120, 180)' fill-opacity = '0.250000' points = '636.2,647.0 636.2,662.4 638.1,662.4 638.1,644.1 '/>
		<polygon fill = 'rgb( 31, 120, 180)' fill-opacity = '0.250000' points = '638.1,644.1 638.1,662.4 639.9,662.4 639.9,640.7 '/>
		<polygon fill = 'rgb( 31, 120, 180)' fill-opacity = '0.250000' points = '639.9,640.7 639.9,662.4 641.8,662.4 641.8,636.7 '/>
		<polygon fill = 'rgb( 31, 120, 180)' fill-opacity = '0.250000' points = '641.8,636.7 641.8,662.4 643.7,662.4 643.7,632.1 '/>
		<polygon fill = 'rgb( 31, 120, 180)' fill-opacity = '0.250000' points = '643.7,632.1 643.7,662.4 645.6,662.4 645.6,626.8 '/>
		<polygon fill = 'rgb( 31, 120, 180)' fill-opacity = '0.250000' points = '645.6,626.8 645.6,662.4 647.5,662.4 647.5,620.8 '/>
		<polygon fill = 'rgb( 31, 120, 180)' fill-opacity = '0.250000' points = '647.5,620.8 647.5,662.4 649.4,662.4 649.4,614.1 '/>
		<polygon fill = 'rgb( 31, 120, 180)' fill-opacity = '0.250000' points = '649.4,614.1 649.4,662.4 651.3,662.4 651.3,606.5 '/>
		<polygon fill = 'rgb( 31, 120, 180)' fill-opacity = '0.250000' points = '651.3,606.5 651.3,662.4 653.1,662.4 653.1,598.0 '/>
		<polygon fill = 'rgb( 31, 120, 180)' fill-opacity = '0.250000' points = '653.1,598.0 653.1,662.4 655.0,662.4 655.0,588.6 '/>
		<polygon fill = 'rgb( 31, 120, 180)' fill-opacity = '0.250000' points = '655.0,588.6 655.0,662.4 656.9,662.4 656.9,578.2 '/>
		<polygon fill = 'rgb( 31, 120, 180)' fill-opacity = '0.250000' points = '656.9,578.2 656.9,662.4 658.8,662.4 658.8,566.9 '/>
		<polygon fill = 'rgb( 31, 120, 180)' fill-opacity = '0.250000' points = '658.8,566.9 658.8,662.4 660.7,662.4 660.7,554.5 '/>
		<polygon fill = 'rgb( 31, 120, 180)' fill-opacity = '0.250000' points = '660.7,554.5 660.7,662.4 662.6,662.4 662.6,541.1 '/>
		<polygon fill = 'rgb( 31, 120, 180)' fill-opacity = '0.250000' points = '662.6,541.1 662.6,662.4 664.5,662.4 664.5,526.8 '/>
		<polygon fill = 'rgb( 31, 120, 180)' fill-opacity = '0.250000' points = '664.5,526.8 664.5,662.4 666.4,662.4 666.4,511.4 '/>
		<polygon fill = 'rgb( 31, 120, 180)' fill-opacity = '0.250000' points = '666.4,511.4 666.4,662.4 668.2,662.4 668.2,495.2 '/>
		<polygon fill = 'rgb( 31, 120, 180)' fill-opacity = '0.250000' points = '668.2,495.2 668.2,662.4 670.1,662.4 670.1,478.1 '/>
		<polygon fill = 'rgb( 31, 120, 180)' fill-opacity = '0.250000' points = '670.1,478.1 670.1,662.4 672.0,662.4 672.0,460.3 '/>
		<polygon fill = 'rgb( 31, 120, 180)' fill-opacity = '0.250000' points = '672.0,460.3 672.0,662.4 673.9,662.4 673.9,441.8 '/>
		<polygon fill = 'rgb( 31, 120, 180)' fill-opacity = '0.250000' points = '673.9,441.8 673.9,662.4 675.8,662.4 675.8,422.7 '/>
		<polygon fill = 'rgb( 31, 120, 180)' fill-opacity = '0.250000' points = '675.8,422.7 675.8,662.4 677.7,662.4 677.7,403.2 '/>
		<polygon fill = 'rgb( 31, 120, 180)' fill-opacity = '0.250000' points = '677.7,403.2 677.7,662.4 679.6,662.4 679.6,383.5 '/>
		<polygon fill = 'rgb( 31, 120, 180)' fill-opacity = '0.250000' points = '679.6,383.5 679.6,662.4 681.5,662.4 681.5,363.7 '/>
		<polygon fill = 'rgb( 31, 120, 180)' fill-opacity = '0.250000' points = '681.5,363.7 681.5,662.4 683.3,662.4 683.3,344.1 '/>
		<polygon fill = 'rgb( 31, 120, 180)' fill-opacity = '0.250000' points = '683.3,344.1 683.3,662.4 685.2,662.4 685.2,324.6 '/>
		<polygon fill = 'rgb( 31, 120, 180)' fill-opacity = '0.250000' points = '685.2,324.6 685.2,662.4 687.1,662.4 687.1,305.7 '/>
		<polygon fill = 'rgb( 31, 120, 180)' fill-opacity = '0.250000' points = '687.1,305.7 687.1,662.4 689.0,662.4 689.0,287.4 '/>
		<polygon fill = 'rgb( 31, 120, 180)' fill-opacity = '0.250000' points = '689.0,287.4 689.0,662.4 690.9,662.4 690.9,270.0 '/>
		<polygon fill = 'rgb( 31, 120, 180)' fill-opacity = '0.250000' points = '690.9,270.0 690.9,662.4 692.8,662.4 692.8,253.7 '/>
		<polygon fill = 'rgb( 31, 120, 180)' fill-opacity = '0.250000' points = '692.8,253.7 692.8,662.4 694.7,662.4 694.7,238.5 '/>
		<polygon fill = 'rgb( 31, 120, 180)' fill-opacity = '0.250000' points = '694.7,238.5 694.7,662.4 696.6,662.4 696.6,224.8 '/>
		<polygon fill = 'rgb( 31, 120, 180)' fill-opacity = '0.250000' points = '696.6,224.8 696.6,662.4 698.4,662.4 698.4,212.5 '/>
		<polygon fill = 'rgb( 31, 120, 180)' fill-opacity = '0.250000' points = '698.4,212.5 698.4,662.4 700.3,662.4 700.3,202.0 '/>
		<polygon fill = 'rgb( 31, 120, 180)' fill-opacity = '0.250000' points = '700.3,202.0 700.3,662.4 702.2,662.4 702.2,193.2 '/>
		<polygon fill = 'rgb( 31, 120, 180)' fill-opacity = '0.250000' points = '702.2,193.2 702.2,662.4 704.1,662.4 704.1,186.2 '/>
		<polygon fill = 'rgb( 31, 120, 180)' fill-opacity = '0.250000' points = '704.1,186.2 704.1,662.4 706.0,662.4 706.0,181.1 '/>
		<polygon fill = 'rgb( 31, 120, 180)' fill-opacity = '0.250000' points = '706.0,181.1 706.0,662.4 707.9,662.4 707.9,178.0 '/>
		<polygon fill = 'rgb( 31, 120, 180)' fill-opacity = '0.250000' points = '707.9,178.0 707.9,662.4 709.8,662.4 709.8,176.7 '/>
		<polygon fill = 'rgb( 31, 120, 180)' fill-opacity = '0.250000' points = '709.8,176.7 709.8,662.4 711.7,662.4 711.7,177.4 '/>
		<polygon fill = 'rgb( 31, 120, 180)' fill-opacity = '0.250000' points = '711.7,177.4 711.7,662.4 713.5,662.4 713.5,180.0 '/>
		<polygon fill = 'rgb( 31, 120, 180)' fill-opacity = '0.250000' points = '713.5,180.0 713.5,662.4 715.4,662.4 715.4,184.4 '/>
		<polygon fill = 'rgb( 31, 120, 180)' fill-opacity = '0.250000' points = '715.4,184.4 715.4,662.4 717.3,662.4 717.3,190.5 '/>
		<polygon fill = 'rgb( 31, 120, 180)' fill-opacity = '0.250000' points = '717.3,190.5 717.3,662.4 719.2,662.4 719.2,198.2 '/>
		<polygon fill = 'rgb( 31, 120, 180)' fill-opacity = '0.250000' points = '719.2,198.2 719.2,662.4 721.1,662.4 721.1,207.4 '/>
		<polygon fill = 'rgb( 31, 120, 180)' fill-opacity = '0.250000' points = '721.1,207.4 721.1,662.4 723.0,662.4 723.0,217.9 '/>
		<polygon fill = 'rgb( 31, 120, 180)' fill-opacity = '0.250000' points = '723.0,217.9 723.0,662.4 724.9,662.4 724.9,229.7 '/>
		<polygon fill = 'rgb( 31, 120, 180)' fill-opacity = '0.250000' points = '724.9,229.7 724.9,662.4 726.7,662.4 726.7,242.5 '/>
		<polygon fill = 'rgb( 31, 120, 180)' fill-opacity = '0.250000' points = '726.7,242.5 726.7,662.4 728.6,662.4 728.6,256.3 '/>
		<polygon fill = 'rgb( 31, 120, 180)' fill-opacity = '0.250000' points = '728.6,256.3 728.6,662.4 730.5,662.4 730.5,270.9 '/>
		<polygon fill = 'rgb( 31, 120, 180)' fill-opacity = '0.250000' points = '730.5,270.9 730.5,662.4 732.4,662.4 732.4,286.0 '/>
		<polygon fill = 'rgb( 31, 120, 180)' fill-opacity = '0.250000' points = '732.4,286.0 732.4,662.4 734.3,662.4 734.3,301.7 '/>
		<polygon fill = 'rgb( 31, 120, 180)' fill-opacity = '0.250000' points = '734.3,301.7 734.3,662.4 736.2,662.4 736.2,317.6 '/>
		<polygon fill = 'rgb( 31, 120, 180)' fill-opacity = '0.250000' points = '736.2,317.6 736.2,662.4 738.1,662.4 738.1,333.8 '/>
		<polygon fill = 'rgb( 31, 120, 180)' fill-opacity = '0.250000' points = '738.1,333.8 738.1,662.4 740.0,662.4 740.0,350.1 '/>
		<polygon fill = 'rgb( 31, 120, 180)' fill-opacity = '0.250000' points = '740.0,350.1 740.0,662.4 741.8,662.4 741.8,366.4 '/>
		<polygon fill = 'rgb( 31, 120, 180)' fill-opacity = '0.250000' points = '741.8,366.4 741.8,662.4 743.7,662.4 743.7,382.5 '/>
		<polygon fill = 'rgb( 31, 120, 180)' fill-opacity = '0.250000' points = '743.7,382.5 743.7,662.4 745.6,662.4 745.6,398.5 '/>
		<polygon fill = 'rgb( 31, 120, 180)' fill-opacity = '0.250000' points = '745.6,398.5 745.6,662.4 747.5,662.4 747.5,414.1 '/>
		<polygon fill = 'rgb( 31, 120, 180)' fill-opacity = '0.250000' points = '747.5,414.1 747.5,662.4 749.4,662.4 749.4,429.4 '/>
		<polygon fill = 'rgb( 31, 120, 180)' fill-opacity = '0.250000' points = '749.4,429.4 749.4,662.4 751.3,662.4 751.3,444.3 '/>
		<polygon fill = 'rgb( 31, 120, 180)' fill-opacity = '0.250000' points = '751.3,444.3 751.3,662.4 753.2,662.4 753.2,458.8 '/>
		<polygon fill = 'rgb( 31, 120, 180)' fill-opacity = '0.250000' points = '753.2,458.8 753.2,662.4 755.1,662.4 755.1,472.7 '/>
		<polygon fill = 'rgb( 31, 120, 180)' fill-opacity = '0.250000' points = '755.1,472.7 755.1,662.4 756.9,662.4 756.9,486.1 '/>
		<polygon fill = 'rgb( 31, 120, 180)' fill-opacity = '0.250000' points = '756.9,486.1 756.9,662.4 758.8,662.4 758.8,499.0 '/>
		<polygon fill = 'rgb( 31, 120, 180)' fill-opacity = '0.250000' points = '758.8,499.0 758.8,662.4 760.7,662.4 760.7,511.3 '/>
		<polygon fill = 'rgb( 31, 120, 180)' fill-opacity = '0.250000' points = '760.7,511.3 760.7,662.4 762.6,662.4 762.6,523.0 '/>
		<polygon fill = 'rgb( 31, 120, 180)' fill-opacity = '0.250000' points = '762.6,523.0 762.6,662.4 764.5,662.4 764.5,534.1 '/>
		<polygon fill = 'rgb( 31, 120, 180)' fill-opacity = '0.250000' points = '764.5,534.1 764.5,662.4 766.4,662.4 766.4,544.6 '/>
		<polygon fill = 'rgb( 31, 120, 180)' fill-opacity = '0.250000' points = '766.4,544.6 766.4,662.4 768.3,662.4 768.3,554.6 '/>
		<polygon fill = 'rgb( 31, 120, 180)' fill-opacity = '0.250000' points = '768.3,554.6 768.3,662.4 770.2,662.4 770.2,564.0 '/>
		<polygon fill = 'rgb( 31, 120, 180)' fill-opacity = '0.250000' points = '770.2,564.0 770.2,662.4 772.0,662.4 772.0,572.8 '/>
		<polygon fill = 'rgb( 31, 120, 180)' fill-opacity = '0.250000' points = '772.0,572.8 772.0,662.4 773.9,662.4 773.9,581.0 '/>
		<polygon fill = 'rgb( 31, 120, 180)' fill-opacity = '0.250000' points = '773.9,581.0 773.9,662.4 775.8,662.4 775.8,588.7 '/>
		<polygon fill = 'rgb( 31, 120, 180)' fill-opacity = '0.250000' points = '775.8,588.7 775.8,662.4 777.7,662.4 777.7,595.8 '/>
		<polygon fill = 'rgb( 31, 120, 180)' fill-opacity = '0.250000' points = '777.7,595.8 777.7,662.4 779.6,662.4 779.6,602.4 '/>
		<polygon fill = 'rgb( 31, 120, 180)' fill-opacity = '0.250000' points = '779.6,602.4 779.6,662.4 781.5,662.4 781.5,608.6 '/>
		<polygon fill = 'rgb( 31, 120, 180)' fill-opacity = '0.250000' points = '781.5,608.6 781.5,662.4 783.4,662.4 783.4,614.2 '/>
		<polygon fill = 'rgb( 31, 120, 180)' fill-opacity = '0.250000' points = '783.4,614.2 783.4,662.4 785.3,662.4 785.3,619.4 '/>
		<polygon fill = 'rgb( 31, 120, 180)' fill-opacity = '0.250000' points = '785.3,619.4 785.3,662.4 787.1,662.4 787.1,624.1 '/>
		<polygon fill = 'rgb( 31, 120, 180)' fill-opacity = '0.250000' points = '787.1,624.1 787.1,662.4 789.0,662.4 789.0,628.4 '/>
		<polygon fill = 'rgb( 31, 120, 180)' fill-opacity = '0.250000' points = '789.0,628.4 789.0,662.4 790.9,662.4 790.9,632.4 '/>
		<polygon fill = 'rgb( 31, 120, 180)' fill-opacity = '0.250000' points = '790.9,632.4 790.9,662.4 792.8,662.4 792.8,635.9 '/>
		<polygon fill = 'rgb( 31, 120, 180)' fill-opacity = '0.250000' points = '792.8,635.9 792.8,662.4 794.7,662.4 794.7,639.1 '/>
		<polygon fill = 'rgb( 31, 120, 180)' fill-opacity = '0.250000' points = '794.7,639.1 794.7,662.4 796.6,662.4 796.6,642.0 '/>
		<polygon fill = 'rgb( 31, 120, 180)' fill-opacity = '0.250000' points = '796.6,642.0 796.6,662.4 798.5,662.4 798.5,644.5 '/>
		<polygon fill = 'rgb( 31, 120, 180)' fill-opacity = '0.250000' points = '798.5,644.5 798.5,662.4 800.3,662.4 800.3,646.8 '/>
		<polygon fill = 'rgb( 31, 120, 180)' fill-opacity = '0.250000' points = '800.3,646.8 800.3,662.4 802.2,662.4 802.2,648.9 '/>
		<polygon fill = 'rgb( 31, 120, 180)' fill-opacity = '0.250000' points = '802.2,648.9 802.2,662.4 804.1,662.4 804.1,650.6 '/>
		<polygon fill = 'rgb( 31, 120, 180)' fill-opacity = '0.250000' points = '804.1,650.6 804.1,662.4 806.0,662.4 806.0,652.2 '/>
		<polygon fill = 'rgb( 31, 120, 180)' fill-opacity = '0.250000' points = '806.0,652.2 806.0,662.4 807.9,662.4 807.9,653.6 '/>
		<polygon fill = 'rgb( 31, 120, 180)' fill-opacity = '0.250000' points = '807.9,653.6 807.9,662.4 809.8,662.4 809.8,654.8 '/>
		<polygon fill = 'rgb( 31, 120, 180)' fill-opacity = '0.250000' points = '809.8,654.8 809.8,662.4 811.7,662.4 811.7,655.8 '/>
		<polygon fill = 'rgb( 31, 120, 180)' fill-opacity = '0.250000' points = '811.7,655.8 811.7,662.4 813.6,662.4 813.6,656.7 '/>
		<polygon fill = 'rgb( 31, 120, 180)' fill-opacity = '0.250000' points = '813.6,656.7 813.6,662.4 815.4,662.4 815.4,657.4 '/>
		<polygon fill = 'rgb( 31, 120, 180)' fill-opacity = '0.250000' points = '815.4,657.4 815.4,662.4 817.3,662.4 817.3,658.1 '/>
		<polygon fill = 'rgb( 31, 120, 180)' fill-opacity = '0.250000' points = '817.3,658.1 817.3,662.4 819.2,662.4 819.2,658.6 '/>
		<polygon fill = 'rgb( 31, 120, 180)' fill-opacity = '0.250000' points = '819.2,658.6 819.2,662.4 821.1,662.4 821.1,659.1 '/>
		<polygon fill = 'rgb( 31, 120, 180)' fill-opacity = '0.250000' points = '821.1,659.1 821.1,662.4 823.0,662.4 823.0,659.4 '/>
		<polygon fill = 'rgb( 31, 120, 180)' fill-opacity = '0.250000' points = '823.0,659.4 823.0,662.4 824.9,662.4 824.9,659.7 '/>
		<polygon fill = 'rgb( 31, 120, 180)' fill-opacity = '0.250000' points = '824.9,659.7 824.9,662.4 826.8,662.4 826.8,660.0 '/>
		<polygon fill = 'rgb( 31, 120, 180)' fill-opacity = '0.250000' points = '826.8,660.0 826.8,662.4 828.7,662.4 828.7,660.1 '/>
		<polygon fill = 'rgb( 31, 120, 180)' fill-opacity = '0.250000' points = '828.7,660.1 828.7,662.4 830.5,662.4 830.5,660.3 '/>
		<polygon fill = 'rgb( 31, 120, 180)' fill-opacity = '0.250000' points = '830.5,660.3 830.5,662.4 832.4,662.4 832.4,660.3 '/>
		<polygon fill = 'rgb( 31, 120, 180)' fill-opacity = '0.250000' points = '832.4,660.3 832.4,662.4 834.3,662.4 834.3,660.3 '/>
		<polygon fill = 'rgb( 31, 120, 180)' fill-opacity = '0.250000' points = '834.3,660.3 834.3,662.4 836.2,662.4 836.2,660.3 '/>
		<polygon fill = 'rgb( 31, 120, 180)' fill-opacity = '0.250000' points = '836.2,660.3 836.2,662.4 838.1,662.4 838.1,660.2 '/>
		<polygon fill = 'rgb( 31, 120, 180)' fill-opacity = '0.250000' points = '838.1,660.2 838.1,662.4 840.0,662.4 840.0,660.1 '/>
		<polygon fill = 'rgb( 31, 120, 180)' fill-opacity = '0.250000' points = '840.0,660.1 840.0,662.4 841.9,662.4 841.9,659.9 '/>
		<polygon fill = 'rgb( 31, 120, 180)' fill-opacity = '0.250000' points = '841.9,659.9 841.9,662.4 843.8,662.4 843.8,659.6 '/>
		<polygon fill = 'rgb( 31, 120, 180)' fill-opacity = '0.250000' points = '843.8,659.6 843.8,662.4 845.6,662.4 845.6,659.3 '/>
		<polygon fill = 'rgb( 31, 120, 180)' fill-opacity = '0.250000' points = '845.6,659.3 845.6,662.4 847.5,662.4 847.5,658.9 '/>
		<polygon fill = 'rgb( 31, 120, 180)' fill-opacity = '0.250000' points = '847.5,658.9 847.5,662.4 849.4,662.4 849.4,658.5 '/>
		<polygon fill = 'rgb( 31, 120, 180)' fill-opacity = '0.250000' points = '849.4,658.5 849.4,662.4 851.3,662.4 851.3,658.0 '/>
		<polygon fill = 'rgb( 31, 120, 180)' fill-opacity = '0.250000' points = '851.3,658.0 851.3,662.4 853.2,662.4 853.2,657.4 '/>
		<polygon fill = 'rgb( 31, 120, 180)' fill-opacity = '0.250000' points = '853.2,657.4 853.2,662.4 855.1,662.4 855.1,656.7 '/>
		<polygon fill = 'rgb( 31, 120, 180)' fill-opacity = '0.250000' points = '855.1,656.7 855.1,662.4 857.0,662.4 857.0,655.9 '/>
		<polygon fill = 'rgb( 31, 120, 180)' fill-opacity = '0.250000' points = '857.0,655.9 857.0,662.4 858.9,662.4 858.9,655.0 '/>
		<polygon fill = 'rgb( 31, 120, 180)' fill-opacity = '0.250000' points = '858.9,655.0 858.9,662.4 860.7,662.4 860.7,654.0 '/>
		<polygon fill = 'rgb( 31, 120, 180)' fill-opacity = '0.250000' points = '860.7,654.0 860.7,662.4 862.6,662.4 862.6,652.9 '/>
		<polygon fill = 'rgb( 31, 120, 180)' fill-opacity = '0.250000' points = '862.6,652.9 862.6,662.4 864.5,662.4 864.5,651.7 '/>
		<polygon fill = 'rgb( 31, 120, 180)' fill-opacity = '0.250000' points = '864.5,651.7 864.5,662.4 866.4,662.4 866.4,650.4 '/>
		<polygon fill = 'rgb( 31, 120, 180)' fill-opacity = '0.250000' points = '866.4,650.4 866.4,662.4 868.3,662.4 868.3,649.0 '/>
		<polygon fill = 'rgb( 31, 120, 180)' fill-opacity = '0.250000' points = '868.3,649.0 868.3,662.4 870.2,662.4 870.2,647.5 '/>
		<polygon fill = 'rgb( 31, 120, 180)' fill-opacity = '0.250000' points = '870.2,647.5 870.2,662.4 872.1,662.4 872.1,645.9 '/>
		<polygon fill = 'rgb( 31, 120, 180)' fill-opacity = '0.250000' points = '872.1,645.9 872.1,662.4 873.9,662.4 873.9,644.2 '/>
		<polygon fill = 'rgb( 31, 120, 180)' fill-opacity = '0.250000' points = '873.9,644.2 873.9,662.4 875.8,662.4 875.8,642.3 '/>
		<polygon fill = 'rgb( 31, 120, 180)' fill-opacity = '0.250000' points = '875.8,642.3 875.8,662.4 877.7,662.4 877.7,640.4 '/>
		<polygon fill = 'rgb( 31, 120, 180)' fill-opacity = '0.250000' points = '877.7,640.4 877.7,662.4 879.6,662.4 879.6,638.4 '/>
		<polygon fill = 'rgb( 31, 120, 180)' fill-opacity = '0.250000' points = '879.6,638.4 879.6,662.4 881.5,662.4 881.5,636.3 '/>
		<polygon fill = 'rgb( 31, 120, 180)' fill-opacity = '0.250000' points = '881.5,636.3 881.5,662.4 883.4,662.4 883.4,634.2 '/>
		<polygon fill = 'rgb( 31, 120, 180)' fill-opacity = '0.250000' points = '883.4,634.2 883.4,662.4 885.3,662.4 885.3,632.0 '/>
		<polygon fill = 'rgb( 31, 120, 180)' fill-opacity = '0.250000' points = '885.3,632.0 885.3,662.4 887.2,662.4 887.2,629.7 '/>
		<polygon fill = 'rgb( 31, 120, 180)' fill-opacity = '0.250000' points = '887.2,629.7 887.2,662.4 889.0,662.4 889.0,627.5 '/>
		<polygon fill = 'rgb( 31, 120, 180)' fill-opacity = '0.250000' points = '889.0,627.5 889.0,662.4 890.9,662.4 890.9,625.2 '/>
		<polygon fill = 'rgb( 31, 120, 180)' fill-opacity = '0.250000' points = '890.9,625.2 890.9,662.4 892.8,662.4 892.8,623.0 '/>
		<polygon fill = 'rgb( 31, 120, 180)' fill-opacity = '0.250000' points = '892.8,623.0 892.8,662.4 894.7,662.4 894.7,620.8 '/>
		<polygon fill = 'rgb( 31, 120, 180)' fill-opacity = '0.250000' points = '894.7,620.8 894.7,662.4 896.6,662.4 896.6,618.7 '/>
		<polygon fill = 'rgb( 31, 120, 180)' fill-opacity = '0.250000' points = '896.6,618.7 896.6,662.4 898.5,662.4 898.5,616.6 '/>
		<polygon fill = 'rgb( 31, 120, 180)' fill-opacity = '0.250000' points = '898.5,616.6 898.5,662.4 900.4,662.4 900.4,614.7 '/>
		<polygon fill = 'rgb( 31, 120, 180)' fill-opacity = '0.250000' points = '900.4,614.7 900.4,662.4 902.3,662.4 902.3,612.8 '/>
		<polygon fill = 'rgb( 31, 120, 180)' fill-opacity = '0.250000' points = '902.3,612.8 902.3,662.4 904.1,662.4 904.1,611.2 '/>
		<polygon fill = 'rgb( 31, 120, 180)' fill-opacity = '0.250000' points = '904.1,611.2 904.1,662.4 906.0,662.4 906.0,609.6 '/>
		<polygon fill = 'rgb( 31, 120, 180)' fill-opacity = '0.250000' points = '906.0,609.6 906.0,662.4 907.9,662.4 907.9,608.3 '/>
		<polygon fill = 'rgb( 31, 120, 180)' fill-opacity = '0.250000' points = '907.9,608.3 907.9,662.4 909.8,662.4 909.8,607.1 '/>
		<polygon fill = 'rgb( 31, 120, 180)' fill-opacity = '0.250000' points = '909.8,607.1 909.8,662.4 911.7,662.4 911.7,606.1 '/>
		<polygon fill = 'rgb( 31, 120, 180)' fill-opacity = '0.250000' points = '911.7,606.1 911.7,662.4 913.6,662.4 913.6,605.4 '/>
		<polygon fill = 'rgb( 31, 120, 180)' fill-opacity = '0.250000' points = '913.6,605.4 913.6,662.4 915.5,662.4 915.5,604.9 '/>
		<polygon fill = 'rgb( 31, 120, 180)' fill-opacity = '0.250000' points = '915.5,604.9 915.5,662.4 917.4,662.4 917.4,604.6 '/>
		<polygon fill = 'rgb( 31, 120, 180)' fill-opacity = '0.250000' points = '917.4,604.6 917.4,662.4 919.2,662.4 919.2,604.6 '/>
		<polygon fill = 'rgb( 31, 120, 180)' fill-opacity = '0.250000' points = '919.2,604.6 919.2,662.4 921.1,662.4 921.1,604.8 '/>
		<polygon fill = 'rgb( 31, 120, 180)' fill-opacity = '0.250000' points = '921.1,604.8 921.1,662.4 923.0,662.4 923.0,605.2 '/>
		<polygon fill = 'rgb( 31, 120, 180)' fill-opacity = '0.250000' points = '923.0,605.2 923.0,662.4 924.9,662.4 924.9,605.9 '/>
	</g>
</g>
	</g>
	<g id="gnuplot_plot_3" ><title>Point estimate</title>
<g fill="none" color="white" stroke="rgb( 31, 120, 180)" stroke-width="2.00" stroke-linecap="butt" stroke-linejoin="miter">
</g>
<g fill="none" color="black" stroke="currentColor" stroke-width="2.00" stroke-linecap="butt" stroke-linejoin="miter">
	<g transform="translate(1089.0,103.0)" stroke="none" fill="black" font-family="Helvetica" font-size="12.00"  text-anchor="start">
		<text><tspan font-family="Helvetica" >Point estimate</tspan></text>
	</g>
</g>
<g fill="none" color="black" stroke="currentColor" stroke-width="2.00" stroke-linecap="butt" stroke-linejoin="miter">
	<path stroke='rgb( 31, 120, 180)'  d='M1038.5,99.1 L1080.7,99.1 M342.0,662.4 L342.0,90.2  '/></g>
	</g>
<g fill="none" color="black" stroke="currentColor" stroke-width="2.00" stroke-linecap="butt" stroke-linejoin="miter">
</g>
<g fill="none" color="black" stroke="black" stroke-width="1.00" stroke-linecap="butt" stroke-linejoin="miter">
</g>
<g fill="none" color="black" stroke="currentColor" stroke-width="1.00" stroke-linecap="butt" stroke-linejoin="miter">
	<path stroke='black'  d='M71.9,54.1 L71.9,662.4 L1013.6,662.4 L1013.6,54.1 L71.9,54.1 Z  '/></g>
<g fill="none" color="black" stroke="currentColor" stroke-width="1.00" stroke-linecap="butt" stroke-linejoin="miter">
</g>
</g>
</svg>

