<?xml version="1.0" encoding="utf-8"  standalone="no"?>
<svg 
 viewBox="0 0 1280 720"
 xmlns="http://www.w3.org/2000/svg"
 xmlns:xlink="http://www.w3.org/1999/xlink"
>

<title>Gnuplot</title>
<desc>Produced by GNUPLOT 5.0 patchlevel 6 </desc>

<g id="gnuplot_canvas">

<rect x="0" y="0" width="1280" height="720" fill="none"/>
<defs>

	<circle id='gpDot' r='0.5' stroke-width='0.5'/>
	<path id='gpPt0' stroke-width='0.222' stroke='currentColor' d='M-1,0 h2 M0,-1 v2'/>
	<path id='gpPt1' stroke-width='0.222' stroke='currentColor' d='M-1,-1 L1,1 M1,-1 L-1,1'/>
	<path id='gpPt2' stroke-width='0.222' stroke='currentColor' d='M-1,0 L1,0 M0,-1 L0,1 M-1,-1 L1,1 M-1,1 L1,-1'/>
	<rect id='gpPt3' stroke-width='0.222' stroke='currentColor' x='-1' y='-1' width='2' height='2'/>
	<rect id='gpPt4' stroke-width='0.222' stroke='currentColor' fill='currentColor' x='-1' y='-1' width='2' height='2'/>
	<circle id='gpPt5' stroke-width='0.222' stroke='currentColor' cx='0' cy='0' r='1'/>
	<use xlink:href='#gpPt5' id='gpPt6' fill='currentColor' stroke='none'/>
	<path id='gpPt7' stroke-width='0.222' stroke='currentColor' d='M0,-1.33 L-1.33,0.67 L1.33,0.67 z'/>
	<use xlink:href='#gpPt7' id='gpPt8' fill='currentColor' stroke='none'/>
	<use xlink:href='#gpPt7' id='gpPt9' stroke='currentColor' transform='rotate(180)'/>
	<use xlink:href='#gpPt9' id='gpPt10' fill='currentColor' stroke='none'/>
	<use xlink:href='#gpPt3' id='gpPt11' stroke='currentColor' transform='rotate(45)'/>
	<use xlink:href='#gpPt11' id='gpPt12' fill='currentColor' stroke='none'/>
	<path id='gpPt13' stroke-width='0.222' stroke='currentColor' d='M0,1.330 L1.265,0.411 L0.782,-1.067 L-0.782,-1.076 L-1.265,0.411 z'/>
	<use xlink:href='#gpPt13' id='gpPt14' fill='currentColor' stroke='none'/>
	<filter id='textbox' filterUnits='objectBoundingBox' x='0' y='0' height='1' width='1'>
	  <feFlood flood-color='white' flood-opacity='1' result='bgnd'/>
	  <feComposite in='SourceGraphic' in2='bgnd' operator='atop'/>
	</filter>
	<filter id='greybox' filterUnits='objectBoundingBox' x='0' y='0' height='1' width='1'>
	  <feFlood flood-color='lightgrey' flood-opacity='1' result='grey'/>
	  <feComposite in='SourceGraphic' in2='grey' operator='atop'/>
	</filter>
</defs>
<g fill="none" color="white" stroke="currentColor" stroke-width="1.00" stroke-linecap="butt" stroke-linejoin="miter">
</g>
<g fill="none" color="black" stroke="currentColor" stroke-width="1.00" stroke-linecap="butt" stroke-linejoin="miter">
	<path stroke='black'  d='M63.6,662.4 L72.6,662.4  '/>	<g transform="translate(55.3,666.3)" stroke="none" fill="black" font-family="Helvetica" font-size="12.00"  text-anchor="end">
		<text><tspan font-family="Helvetica" > 0</tspan></text>
	</g>
</g>
<g fill="none" color="black" stroke="currentColor" stroke-width="1.00" stroke-linecap="butt" stroke-linejoin="miter">
	<path stroke='black'  d='M63.6,594.8 L72.6,594.8  '/>	<g transform="translate(55.3,598.7)" stroke="none" fill="black" font-family="Helvetica" font-size="12.00"  text-anchor="end">
		<text><tspan font-family="Helvetica" > 2</tspan></text>
	</g>
</g>
<g fill="none" color="black" stroke="currentColor" stroke-width="1.00" stroke-linecap="butt" stroke-linejoin="miter">
	<path stroke='black'  d='M63.6,527.2 L72.6,527.2  '/>	<g transform="translate(55.3,531.1)" stroke="none" fill="black" font-family="Helvetica" font-size="12.00"  text-anchor="end">
		<text><tspan font-family="Helvetica" > 4</tspan></text>
	</g>
</g>
<g fill="none" color="black" stroke="currentColor" stroke-width="1.00" stroke-linecap="butt" stroke-linejoin="miter">
	<path stroke='black'  d='M63.6,459.6 L72.6,459.6  '/>	<g transform="translate(55.3,463.5)" stroke="none" fill="black" font-family="Helvetica" font-size="12.00"  text-anchor="end">
		<text><tspan font-family="Helvetica" > 6</tspan></text>
	</g>
</g>
<g fill="none" color="black" stroke="currentColor" stroke-width="1.00" stroke-linecap="butt" stroke-linejoin="miter">
	<path stroke='black'  d='M63.6,392.0 L72.6,392.0  '/>	<g transform="translate(55.3,395.9)" stroke="none" fill="black" font-family="Helvetica" font-size="12.00"  text-anchor="end">
		<text><tspan font-family="Helvetica" > 8</tspan></text>
	</g>
</g>
<g fill="none" color="black" stroke="currentColor" stroke-width="1.00" stroke-linecap="butt" stroke-linejoin="miter">
	<path stroke='black'  d='M63.6,324.5 L72.6,324.5  '/>	<g transform="translate(55.3,328.4)" stroke="none" fill="black" font-family="Helvetica" font-size="12.00"  text-anchor="end">
		<text><tspan font-family="Helvetica" > 10</tspan></text>
	</g>
</g>
<g fill="none" color="black" stroke="currentColor" stroke-width="1.00" stroke-linecap="butt" stroke-linejoin="miter">
	<path stroke='black'  d='M63.6,256.9 L72.6,256.9  '/>	<g transform="translate(55.3,260.8)" stroke="none" fill="black" font-family="Helvetica" font-size="12.00"  text-anchor="end">
		<text><tspan font-family="Helvetica" > 12</tspan></text>
	</g>
</g>
<g fill="none" color="black" stroke="currentColor" stroke-width="1.00" stroke-linecap="butt" stroke-linejoin="miter">
	<path stroke='black'  d='M63.6,189.3 L72.6,189.3  '/>	<g transform="translate(55.3,193.2)" stroke="none" fill="black" font-family="Helvetica" font-size="12.00"  text-anchor="end">
		<text><tspan font-family="Helvetica" > 14</tspan></text>
	</g>
</g>
<g fill="none" color="black" stroke="currentColor" stroke-width="1.00" stroke-linecap="butt" stroke-linejoin="miter">
	<path stroke='black'  d='M63.6,121.7 L72.6,121.7  '/>	<g transform="translate(55.3,125.6)" stroke="none" fill="black" font-family="Helvetica" font-size="12.00"  text-anchor="end">
		<text><tspan font-family="Helvetica" > 16</tspan></text>
	</g>
</g>
<g fill="none" color="black" stroke="currentColor" stroke-width="1.00" stroke-linecap="butt" stroke-linejoin="miter">
	<path stroke='black'  d='M63.6,54.1 L72.6,54.1  '/>	<g transform="translate(55.3,58.0)" stroke="none" fill="black" font-family="Helvetica" font-size="12.00"  text-anchor="end">
		<text><tspan font-family="Helvetica" > 18</tspan></text>
	</g>
</g>
<g fill="none" color="black" stroke="currentColor" stroke-width="1.00" stroke-linecap="butt" stroke-linejoin="miter">
	<path stroke='black'  d='M119.9,662.4 L119.9,653.4  '/>	<g transform="translate(119.9,684.3)" stroke="none" fill="black" font-family="Helvetica" font-size="12.00"  text-anchor="middle">
		<text><tspan font-family="Helvetica" > 30.72</tspan></text>
	</g>
</g>
<g fill="none" color="black" stroke="currentColor" stroke-width="1.00" stroke-linecap="butt" stroke-linejoin="miter">
	<path stroke='black'  d='M293.5,662.4 L293.5,653.4  '/>	<g transform="translate(293.5,684.3)" stroke="none" fill="black" font-family="Helvetica" font-size="12.00"  text-anchor="middle">
		<text><tspan font-family="Helvetica" > 30.74</tspan></text>
	</g>
</g>
<g fill="none" color="black" stroke="currentColor" stroke-width="1.00" stroke-linecap="butt" stroke-linejoin="miter">
	<path stroke='black'  d='M467.0,662.4 L467.0,653.4  '/>	<g transform="translate(467.0,684.3)" stroke="none" fill="black" font-family="Helvetica" font-size="12.00"  text-anchor="middle">
		<text><tspan font-family="Helvetica" > 30.76</tspan></text>
	</g>
</g>
<g fill="none" color="black" stroke="currentColor" stroke-width="1.00" stroke-linecap="butt" stroke-linejoin="miter">
	<path stroke='black'  d='M640.6,662.4 L640.6,653.4  '/>	<g transform="translate(640.6,684.3)" stroke="none" fill="black" font-family="Helvetica" font-size="12.00"  text-anchor="middle">
		<text><tspan font-family="Helvetica" > 30.78</tspan></text>
	</g>
</g>
<g fill="none" color="black" stroke="currentColor" stroke-width="1.00" stroke-linecap="butt" stroke-linejoin="miter">
	<path stroke='black'  d='M814.1,662.4 L814.1,653.4  '/>	<g transform="translate(814.1,684.3)" stroke="none" fill="black" font-family="Helvetica" font-size="12.00"  text-anchor="middle">
		<text><tspan font-family="Helvetica" > 30.8</tspan></text>
	</g>
</g>
<g fill="none" color="black" stroke="currentColor" stroke-width="1.00" stroke-linecap="butt" stroke-linejoin="miter">
	<path stroke='black'  d='M987.6,662.4 L987.6,653.4  '/>	<g transform="translate(987.6,684.3)" stroke="none" fill="black" font-family="Helvetica" font-size="12.00"  text-anchor="middle">
		<text><tspan font-family="Helvetica" > 30.82</tspan></text>
	</g>
</g>
<g fill="none" color="black" stroke="currentColor" stroke-width="1.00" stroke-linecap="butt" stroke-linejoin="miter">
</g>
<g fill="none" color="black" stroke="currentColor" stroke-width="1.00" stroke-linecap="butt" stroke-linejoin="miter">
	<path stroke='black'  d='M63.6,54.1 L63.6,662.4 L1013.6,662.4 L1013.6,54.1 L63.6,54.1 Z  '/></g>
<g fill="none" color="black" stroke="currentColor" stroke-width="1.00" stroke-linecap="butt" stroke-linejoin="miter">
	<g transform="translate(17.0,358.3) rotate(270)" stroke="none" fill="black" font-family="Helvetica" font-size="12.00"  text-anchor="middle">
		<text><tspan font-family="Helvetica" >Density (a.u.)</tspan></text>
	</g>
</g>
<g fill="none" color="black" stroke="currentColor" stroke-width="1.00" stroke-linecap="butt" stroke-linejoin="miter">
	<g transform="translate(538.6,711.3)" stroke="none" fill="black" font-family="Helvetica" font-size="12.00"  text-anchor="middle">
		<text><tspan font-family="Helvetica" >Average time (ms)</tspan></text>
	</g>
</g>
<g fill="none" color="black" stroke="currentColor" stroke-width="1.00" stroke-linecap="butt" stroke-linejoin="miter">
	<g transform="translate(538.6,31.0)" stroke="none" fill="black" font-family="Helvetica" font-size="12.00"  text-anchor="middle">
		<text><tspan font-family="Helvetica" >language: json/parse error: python/examples/python2-grammar.py: mean</tspan></text>
	</g>
</g>
	<g id="gnuplot_plot_1" ><title>Bootstrap distribution</title>
<g fill="none" color="white" stroke="black" stroke-width="2.00" stroke-linecap="butt" stroke-linejoin="miter">
</g>
<g fill="none" color="black" stroke="currentColor" stroke-width="2.00" stroke-linecap="butt" stroke-linejoin="miter">
	<g transform="translate(1089.0,67.0)" stroke="none" fill="black" font-family="Helvetica" font-size="12.00"  text-anchor="start">
		<text><tspan font-family="Helvetica" >Bootstrap distribution</tspan></text>
	</g>
</g>
<g fill="none" color="black" stroke="currentColor" stroke-width="2.00" stroke-linecap="butt" stroke-linejoin="miter">
	<path stroke='rgb( 31, 120, 180)'  d='M1038.5,63.1 L1080.7,63.1 M63.6,630.1 L65.5,629.0 L67.4,627.8 L69.3,626.6 L71.2,625.4 L73.1,624.1
		L75.0,622.8 L76.9,621.5 L78.8,620.1 L80.7,618.7 L82.6,617.2 L84.5,615.7 L86.4,614.1 L88.3,612.5
		L90.3,610.8 L92.2,609.0 L94.1,607.2 L96.0,605.4 L97.9,603.4 L99.8,601.4 L101.7,599.4 L103.6,597.3
		L105.5,595.1 L107.4,592.8 L109.3,590.6 L111.2,588.2 L113.1,585.8 L115.0,583.4 L116.9,580.9 L118.8,578.4
		L120.7,575.8 L122.6,573.2 L124.5,570.6 L126.4,567.9 L128.3,565.2 L130.2,562.4 L132.1,559.6 L134.0,556.8
		L135.9,554.0 L137.8,551.1 L139.8,548.2 L141.7,545.2 L143.6,542.2 L145.5,539.1 L147.4,536.0 L149.3,532.8
		L151.2,529.6 L153.1,526.4 L155.0,523.0 L156.9,519.7 L158.8,516.3 L160.7,512.8 L162.6,509.3 L164.5,505.8
		L166.4,502.2 L168.3,498.6 L170.2,495.0 L172.1,491.3 L174.0,487.6 L175.9,483.9 L177.8,480.2 L179.7,476.5
		L181.6,472.8 L183.5,469.0 L185.4,465.3 L187.3,461.5 L189.3,457.7 L191.2,453.9 L193.1,450.1 L195.0,446.3
		L196.9,442.5 L198.8,438.6 L200.7,434.7 L202.6,430.8 L204.5,426.8 L206.4,422.8 L208.3,418.7 L210.2,414.6
		L212.1,410.5 L214.0,406.3 L215.9,402.0 L217.8,397.7 L219.7,393.3 L221.6,388.9 L223.5,384.5 L225.4,380.0
		L227.3,375.5 L229.2,370.9 L231.1,366.3 L233.0,361.7 L234.9,357.1 L236.8,352.5 L238.8,347.8 L240.7,343.2
		L242.6,338.6 L244.5,334.0 L246.4,329.5 L248.3,324.9 L250.2,320.4 L252.1,315.9 L254.0,311.5 L255.9,307.1
		L257.8,302.7 L259.7,298.4 L261.6,294.1 L263.5,289.8 L265.4,285.5 L267.3,281.3 L269.2,277.1 L271.1,272.9
		L273.0,268.7 L274.9,264.5 L276.8,260.3 L278.7,256.2 L280.6,252.0 L282.5,247.9 L284.4,243.7 L286.3,239.6
		L288.2,235.6 L290.2,231.5 L292.1,227.5 L294.0,223.5 L295.9,219.6 L297.8,215.7 L299.7,211.9 L301.6,208.1
		L303.5,204.4 L305.4,200.7 L307.3,197.2 L309.2,193.6 L311.1,190.2 L313.0,186.8 L314.9,183.5 L316.8,180.2
		L318.7,177.0 L320.6,173.9 L322.5,170.8 L324.4,167.7 L326.3,164.7 L328.2,161.8 L330.1,158.9 L332.0,156.0
		L333.9,153.2 L335.8,150.4 L337.7,147.7 L339.7,145.0 L341.6,142.4 L343.5,139.8 L345.4,137.3 L347.3,134.8
		L349.2,132.4 L351.1,130.1 L353.0,127.8 L354.9,125.6 L356.8,123.5 L358.7,121.5 L360.6,119.5 L362.5,117.6
		L364.4,115.7 L366.3,113.9 L368.2,112.2 L370.1,110.6 L372.0,109.0 L373.9,107.5 L375.8,106.1 L377.7,104.7
		L379.6,103.3 L381.5,102.0 L383.4,100.8 L385.3,99.6 L387.2,98.4 L389.2,97.3 L391.1,96.2 L393.0,95.1
		L394.9,94.1 L396.8,93.0 L398.7,92.0 L400.6,91.0 L402.5,90.0 L404.4,89.0 L406.3,88.0 L408.2,87.0
		L410.1,85.9 L412.0,84.9 L413.9,83.9 L415.8,82.8 L417.7,81.8 L419.6,80.8 L421.5,79.7 L423.4,78.7
		L425.3,77.7 L427.2,76.7 L429.1,75.7 L431.0,74.8 L432.9,73.9 L434.8,73.0 L436.7,72.2 L438.7,71.5
		L440.6,70.9 L442.5,70.3 L444.4,69.8 L446.3,69.5 L448.2,69.2 L450.1,69.0 L452.0,69.0 L453.9,69.1
		L455.8,69.2 L457.7,69.5 L459.6,70.0 L461.5,70.5 L463.4,71.1 L465.3,71.9 L467.2,72.8 L469.1,73.7
		L471.0,74.8 L472.9,75.9 L474.8,77.1 L476.7,78.4 L478.6,79.8 L480.5,81.2 L482.4,82.6 L484.3,84.1
		L486.2,85.6 L488.1,87.1 L490.1,88.7 L492.0,90.2 L493.9,91.7 L495.8,93.3 L497.7,94.8 L499.6,96.3
		L501.5,97.8 L503.4,99.4 L505.3,100.9 L507.2,102.4 L509.1,104.0 L511.0,105.5 L512.9,107.1 L514.8,108.7
		L516.7,110.4 L518.6,112.1 L520.5,113.8 L522.4,115.6 L524.3,117.4 L526.2,119.3 L528.1,121.2 L530.0,123.2
		L531.9,125.2 L533.8,127.2 L535.7,129.3 L537.6,131.4 L539.6,133.6 L541.5,135.8 L543.4,137.9 L545.3,140.1
		L547.2,142.3 L549.1,144.5 L551.0,146.7 L552.9,148.9 L554.8,151.1 L556.7,153.3 L558.6,155.5 L560.5,157.7
		L562.4,160.0 L564.3,162.2 L566.2,164.5 L568.1,166.8 L570.0,169.1 L571.9,171.5 L573.8,173.9 L575.7,176.4
		L577.6,178.9 L579.5,181.5 L581.4,184.2 L583.3,186.9 L585.2,189.7 L587.1,192.6 L589.1,195.5 L591.0,198.5
		L592.9,201.6 L594.8,204.7 L596.7,207.8 L598.6,211.0 L600.5,214.3 L602.4,217.6 L604.3,220.9 L606.2,224.2
		L608.1,227.5 L610.0,230.9 L611.9,234.2 L613.8,237.5 L615.7,240.8 L617.6,244.1 L619.5,247.4 L621.4,250.6
		L623.3,253.8 L625.2,257.0 L627.1,260.1 L629.0,263.2 L630.9,266.3 L632.8,269.3 L634.7,272.3 L636.6,275.3
		L638.5,278.2 L640.5,281.1 L642.4,284.0 L644.3,286.9 L646.2,289.8 L648.1,292.7 L650.0,295.6 L651.9,298.5
		L653.8,301.4 L655.7,304.3 L657.6,307.2 L659.5,310.1 L661.4,313.0 L663.3,316.0 L665.2,318.9 L667.1,321.9
		L669.0,324.9 L670.9,327.9 L672.8,330.8 L674.7,333.8 L676.6,336.8 L678.5,339.8 L680.4,342.8 L682.3,345.7
		L684.2,348.7 L686.1,351.6 L688.0,354.6 L690.0,357.5 L691.9,360.4 L693.8,363.3 L695.7,366.2 L697.6,369.1
		L699.5,371.9 L701.4,374.7 L703.3,377.6 L705.2,380.4 L707.1,383.1 L709.0,385.9 L710.9,388.6 L712.8,391.3
		L714.7,394.0 L716.6,396.7 L718.5,399.4 L720.4,402.0 L722.3,404.6 L724.2,407.3 L726.1,409.9 L728.0,412.5
		L729.9,415.0 L731.8,417.6 L733.7,420.2 L735.6,422.7 L737.5,425.2 L739.5,427.8 L741.4,430.3 L743.3,432.8
		L745.2,435.3 L747.1,437.7 L749.0,440.2 L750.9,442.6 L752.8,445.0 L754.7,447.4 L756.6,449.7 L758.5,452.0
		L760.4,454.3 L762.3,456.6 L764.2,458.8 L766.1,461.0 L768.0,463.1 L769.9,465.3 L771.8,467.4 L773.7,469.5
		L775.6,471.6 L777.5,473.6 L779.4,475.6 L781.3,477.6 L783.2,479.6 L785.1,481.6 L787.0,483.6 L789.0,485.6
		L790.9,487.5 L792.8,489.5 L794.7,491.4 L796.6,493.3 L798.5,495.2 L800.4,497.2 L802.3,499.1 L804.2,501.0
		L806.1,502.9 L808.0,504.8 L809.9,506.7 L811.8,508.6 L813.7,510.5 L815.6,512.4 L817.5,514.4 L819.4,516.3
		L821.3,518.2 L823.2,520.2 L825.1,522.1 L827.0,524.1 L828.9,526.1 L830.8,528.0 L832.7,530.0 L834.6,531.9
		L836.5,533.9 L838.4,535.8 L840.4,537.7 L842.3,539.6 L844.2,541.5 L846.1,543.3 L848.0,545.1 L849.9,546.8
		L851.8,548.5 L853.7,550.1 L855.6,551.7 L857.5,553.3 L859.4,554.8 L861.3,556.2 L863.2,557.6 L865.1,558.9
		L867.0,560.2 L868.9,561.5 L870.8,562.7 L872.7,563.9 L874.6,565.1 L876.5,566.3 L878.4,567.4 L880.3,568.5
		L882.2,569.6 L884.1,570.8 L886.0,571.9 L887.9,573.0 L889.9,574.1 L891.8,575.2 L893.7,576.3 L895.6,577.4
		L897.5,578.5 L899.4,579.6 L901.3,580.7 L903.2,581.8 L905.1,582.9 L907.0,583.9 L908.9,585.0 L910.8,586.1
		L912.7,587.1 L914.6,588.2 L916.5,589.2 L918.4,590.3 L920.3,591.3 L922.2,592.3 L924.1,593.3 L926.0,594.4
		L927.9,595.4 L929.8,596.4 L931.7,597.4 L933.6,598.4 L935.5,599.4 L937.4,600.4 L939.4,601.4 L941.3,602.3
		L943.2,603.3 L945.1,604.3 L947.0,605.2 L948.9,606.2 L950.8,607.1 L952.7,608.1 L954.6,609.0 L956.5,609.9
		L958.4,610.7 L960.3,611.6 L962.2,612.4 L964.1,613.3 L966.0,614.1 L967.9,614.8 L969.8,615.6 L971.7,616.3
		L973.6,617.1 L975.5,617.8 L977.4,618.4 L979.3,619.1 L981.2,619.7 L983.1,620.3 L985.0,620.9 L986.9,621.5
		L988.9,622.1 L990.8,622.6 L992.7,623.2 L994.6,623.7 L996.5,624.2 L998.4,624.7 L1000.3,625.2 L1002.2,625.6
		L1004.1,626.1 L1006.0,626.6 L1007.9,627.1 L1009.8,627.5 L1011.7,628.0 L1013.6,628.5  '/></g>
	</g>
	<g id="gnuplot_plot_2" ><title>Confidence interval</title>
<g fill="none" color="white" stroke="rgb( 31, 120, 180)" stroke-width="1.00" stroke-linecap="butt" stroke-linejoin="miter">
</g>
<g fill="none" color="black" stroke="currentColor" stroke-width="1.00" stroke-linecap="butt" stroke-linejoin="miter">
	<g transform="translate(1089.0,85.0)" stroke="none" fill="black" font-family="Helvetica" font-size="12.00"  text-anchor="start">
		<text><tspan font-family="Helvetica" >Confidence interval</tspan></text>
	</g>
</g>
<g fill="none" color="black" stroke="currentColor" stroke-width="1.00" stroke-linecap="butt" stroke-linejoin="miter">
	<g stroke='none' shape-rendering='crispEdges'>
		<polygon fill = 'rgb( 31, 120, 180)' fill-opacity = '0.250000' points = '1038.5,85.6 1080.7,85.6 1080.7,76.6 1038.5,76.6 '/>
		<polygon fill = 'rgb( 31, 120, 180)' fill-opacity = '0.250000' points = '151.2,529.6 151.2,662.4 153.1,662.4 153.1,526.4 '/>
		<polygon fill = 'rgb( 31, 120, 180)' fill-opacity = '0.250000' points = '153.1,526.4 153.1,662.4 155.0,662.4 155.0,523.0 '/>
		<polygon fill = 'rgb( 31, 120, 180)' fill-opacity = '0.250000' points = '155.0,523.0 155.0,662.4 156.9,662.4 156.9,519.7 '/>
		<polygon fill = 'rgb( 31, 120, 180)' fill-opacity = '0.250000' points = '156.9,519.7 156.9,662.4 158.8,662.4 158.8,516.3 '/>
		<polygon fill = 'rgb( 31, 120, 180)' fill-opacity = '0.250000' points = '158.8,516.3 158.8,662.4 160.7,662.4 160.7,512.8 '/>
		<polygon fill = 'rgb( 31, 120, 180)' fill-opacity = '0.250000' points = '160.7,512.8 160.7,662.4 162.6,662.4 162.6,509.3 '/>
		<polygon fill = 'rgb( 31, 120, 180)' fill-opacity = '0.250000' points = '162.6,509.3 162.6,662.4 164.5,662.4 164.5,505.8 '/>
		<polygon fill = 'rgb( 31, 120, 180)' fill-opacity = '0.250000' points = '164.5,505.8 164.5,662.4 166.4,662.4 166.4,502.2 '/>
		<polygon fill = 'rgb( 31, 120, 180)' fill-opacity = '0.250000' points = '166.4,502.2 166.4,662.4 168.3,662.4 168.3,498.6 '/>
		<polygon fill = 'rgb( 31, 120, 180)' fill-opacity = '0.250000' points = '168.3,498.6 168.3,662.4 170.2,662.4 170.2,495.0 '/>
		<polygon fill = 'rgb( 31, 120, 180)' fill-opacity = '0.250000' points = '170.2,495.0 170.2,662.4 172.1,662.4 172.1,491.3 '/>
		<polygon fill = 'rgb( 31, 120, 180)' fill-opacity = '0.250000' points = '172.1,491.3 172.1,662.4 174.0,662.4 174.0,487.6 '/>
		<polygon fill = 'rgb( 31, 120, 180)' fill-opacity = '0.250000' points = '174.0,487.6 174.0,662.4 175.9,662.4 175.9,483.9 '/>
		<polygon fill = 'rgb( 31, 120, 180)' fill-opacity = '0.250000' points = '175.9,483.9 175.9,662.4 177.8,662.4 177.8,480.2 '/>
		<polygon fill = 'rgb( 31, 120, 180)' fill-opacity = '0.250000' points = '177.8,480.2 177.8,662.4 179.7,662.4 179.7,476.5 '/>
		<polygon fill = 'rgb( 31, 120, 180)' fill-opacity = '0.250000' points = '179.7,476.5 179.7,662.4 181.6,662.4 181.6,472.8 '/>
		<polygon fill = 'rgb( 31, 120, 180)' fill-opacity = '0.250000' points = '181.6,472.8 181.6,662.4 183.5,662.4 183.5,469.0 '/>
		<polygon fill = 'rgb( 31, 120, 180)' fill-opacity = '0.250000' points = '183.5,469.0 183.5,662.4 185.4,662.4 185.4,465.3 '/>
		<polygon fill = 'rgb( 31, 120, 180)' fill-opacity = '0.250000' points = '185.4,465.3 185.4,662.4 187.3,662.4 187.3,461.5 '/>
		<polygon fill = 'rgb( 31, 120, 180)' fill-opacity = '0.250000' points = '187.3,461.5 187.3,662.4 189.3,662.4 189.3,457.7 '/>
		<polygon fill = 'rgb( 31, 120, 180)' fill-opacity = '0.250000' points = '189.3,457.7 189.3,662.4 191.2,662.4 191.2,453.9 '/>
		<polygon fill = 'rgb( 31, 120, 180)' fill-opacity = '0.250000' points = '191.2,453.9 191.2,662.4 193.1,662.4 193.1,450.1 '/>
		<polygon fill = 'rgb( 31, 120, 180)' fill-opacity = '0.250000' points = '193.1,450.1 193.1,662.4 195.0,662.4 195.0,446.3 '/>
		<polygon fill = 'rgb( 31, 120, 180)' fill-opacity = '0.250000' points = '195.0,446.3 195.0,662.4 196.9,662.4 196.9,442.5 '/>
		<polygon fill = 'rgb( 31, 120, 180)' fill-opacity = '0.250000' points = '196.9,442.5 196.9,662.4 198.8,662.4 198.8,438.6 '/>
		<polygon fill = 'rgb( 31, 120, 180)' fill-opacity = '0.250000' points = '198.8,438.6 198.8,662.4 200.7,662.4 200.7,434.7 '/>
		<polygon fill = 'rgb( 31, 120, 180)' fill-opacity = '0.250000' points = '200.7,434.7 200.7,662.4 202.6,662.4 202.6,430.8 '/>
		<polygon fill = 'rgb( 31, 120, 180)' fill-opacity = '0.250000' points = '202.6,430.8 202.6,662.4 204.5,662.4 204.5,426.8 '/>
		<polygon fill = 'rgb( 31, 120, 180)' fill-opacity = '0.250000' points = '204.5,426.8 204.5,662.4 206.4,662.4 206.4,422.8 '/>
		<polygon fill = 'rgb( 31, 120, 180)' fill-opacity = '0.250000' points = '206.4,422.8 206.4,662.4 208.3,662.4 208.3,418.7 '/>
		<polygon fill = 'rgb( 31, 120, 180)' fill-opacity = '0.250000' points = '208.3,418.7 208.3,662.4 210.2,662.4 210.2,414.6 '/>
		<polygon fill = 'rgb( 31, 120, 180)' fill-opacity = '0.250000' points = '210.2,414.6 210.2,662.4 212.1,662.4 212.1,410.5 '/>
		<polygon fill = 'rgb( 31, 120, 180)' fill-opacity = '0.250000' points = '212.1,410.5 212.1,662.4 214.0,662.4 214.0,406.3 '/>
		<polygon fill = 'rgb( 31, 120, 180)' fill-opacity = '0.250000' points = '214.0,406.3 214.0,662.4 215.9,662.4 215.9,402.0 '/>
		<polygon fill = 'rgb( 31, 120, 180)' fill-opacity = '0.250000' points = '215.9,402.0 215.9,662.4 217.8,662.4 217.8,397.7 '/>
		<polygon fill = 'rgb( 31, 120, 180)' fill-opacity = '0.250000' points = '217.8,397.7 217.8,662.4 219.7,662.4 219.7,393.3 '/>
		<polygon fill = 'rgb( 31, 120, 180)' fill-opacity = '0.250000' points = '219.7,393.3 219.7,662.4 221.6,662.4 221.6,388.9 '/>
		<polygon fill = 'rgb( 31, 120, 180)' fill-opacity = '0.250000' points = '221.6,388.9 221.6,662.4 223.5,662.4 223.5,384.5 '/>
		<polygon fill = 'rgb( 31, 120, 180)' fill-opacity = '0.250000' points = '223.5,384.5 223.5,662.4 225.4,662.4 225.4,380.0 '/>
		<polygon fill = 'rgb( 31, 120, 180)' fill-opacity = '0.250000' points = '225.4,380.0 225.4,662.4 227.3,662.4 227.3,375.5 '/>
		<polygon fill = 'rgb( 31, 120, 180)' fill-opacity = '0.250000' points = '227.3,375.5 227.3,662.4 229.2,662.4 229.2,370.9 '/>
		<polygon fill = 'rgb( 31, 120, 180)' fill-opacity = '0.250000' points = '229.2,370.9 229.2,662.4 231.1,662.4 231.1,366.3 '/>
		<polygon fill = 'rgb( 31, 120, 180)' fill-opacity = '0.250000' points = '231.1,366.3 231.1,662.4 233.0,662.4 233.0,361.7 '/>
		<polygon fill = 'rgb( 31, 120, 180)' fill-opacity = '0.250000' points = '233.0,361.7 233.0,662.4 234.9,662.4 234.9,357.1 '/>
		<polygon fill = 'rgb( 31, 120, 180)' fill-opacity = '0.250000' points = '234.9,357.1 234.9,662.4 236.8,662.4 236.8,352.5 '/>
		<polygon fill = 'rgb( 31, 120, 180)' fill-opacity = '0.250000' points = '236.8,352.5 236.8,662.4 238.8,662.4 238.8,347.8 '/>
		<polygon fill = 'rgb( 31, 120, 180)' fill-opacity = '0.250000' points = '238.8,347.8 238.8,662.4 240.7,662.4 240.7,343.2 '/>
		<polygon fill = 'rgb( 31, 120, 180)' fill-opacity = '0.250000' points = '240.7,343.2 240.7,662.4 242.6,662.4 242.6,338.6 '/>
		<polygon fill = 'rgb( 31, 120, 180)' fill-opacity = '0.250000' points = '242.6,338.6 242.6,662.4 244.5,662.4 244.5,334.0 '/>
		<polygon fill = 'rgb( 31, 120, 180)' fill-opacity = '0.250000' points = '244.5,334.0 244.5,662.4 246.4,662.4 246.4,329.5 '/>
		<polygon fill = 'rgb( 31, 120, 180)' fill-opacity = '0.250000' points = '246.4,329.5 246.4,662.4 248.3,662.4 248.3,324.9 '/>
		<polygon fill = 'rgb( 31, 120, 180)' fill-opacity = '0.250000' points = '248.3,324.9 248.3,662.4 250.2,662.4 250.2,320.4 '/>
		<polygon fill = 'rgb( 31, 120, 180)' fill-opacity = '0.250000' points = '250.2,320.4 250.2,662.4 252.1,662.4 252.1,315.9 '/>
		<polygon fill = 'rgb( 31, 120, 180)' fill-opacity = '0.250000' points = '252.1,315.9 252.1,662.4 254.0,662.4 254.0,311.5 '/>
		<polygon fill = 'rgb( 31, 120, 180)' fill-opacity = '0.250000' points = '254.0,311.5 254.0,662.4 255.9,662.4 255.9,307.1 '/>
		<polygon fill = 'rgb( 31, 120, 180)' fill-opacity = '0.250000' points = '255.9,307.1 255.9,662.4 257.8,662.4 257.8,302.7 '/>
		<polygon fill = 'rgb( 31, 120, 180)' fill-opacity = '0.250000' points = '257.8,302.7 257.8,662.4 259.7,662.4 259.7,298.4 '/>
		<polygon fill = 'rgb( 31, 120, 180)' fill-opacity = '0.250000' points = '259.7,298.4 259.7,662.4 261.6,662.4 261.6,294.1 '/>
		<polygon fill = 'rgb( 31, 120, 180)' fill-opacity = '0.250000' points = '261.6,294.1 261.6,662.4 263.5,662.4 263.5,289.8 '/>
		<polygon fill = 'rgb( 31, 120, 180)' fill-opacity = '0.250000' points = '263.5,289.8 263.5,662.4 265.4,662.4 265.4,285.5 '/>
		<polygon fill = 'rgb( 31, 120, 180)' fill-opacity = '0.250000' points = '265.4,285.5 265.4,662.4 267.3,662.4 267.3,281.3 '/>
		<polygon fill = 'rgb( 31, 120, 180)' fill-opacity = '0.250000' points = '267.3,281.3 267.3,662.4 269.2,662.4 269.2,277.1 '/>
		<polygon fill = 'rgb( 31, 120, 180)' fill-opacity = '0.250000' points = '269.2,277.1 269.2,662.4 271.1,662.4 271.1,272.9 '/>
		<polygon fill = 'rgb( 31, 120, 180)' fill-opacity = '0.250000' points = '271.1,272.9 271.1,662.4 273.0,662.4 273.0,268.7 '/>
		<polygon fill = 'rgb( 31, 120, 180)' fill-opacity = '0.250000' points = '273.0,268.7 273.0,662.4 274.9,662.4 274.9,264.5 '/>
		<polygon fill = 'rgb( 31, 120, 180)' fill-opacity = '0.250000' points = '274.9,264.5 274.9,662.4 276.8,662.4 276.8,260.3 '/>
		<polygon fill = 'rgb( 31, 120, 180)' fill-opacity = '0.250000' points = '276.8,260.3 276.8,662.4 278.7,662.4 278.7,256.2 '/>
		<polygon fill = 'rgb( 31, 120, 180)' fill-opacity = '0.250000' points = '278.7,256.2 278.7,662.4 280.6,662.4 280.6,252.0 '/>
		<polygon fill = 'rgb( 31, 120, 180)' fill-opacity = '0.250000' points = '280.6,252.0 280.6,662.4 282.5,662.4 282.5,247.9 '/>
		<polygon fill = 'rgb( 31, 120, 180)' fill-opacity = '0.250000' points = '282.5,247.9 282.5,662.4 284.4,662.4 284.4,243.7 '/>
		<polygon fill = 'rgb( 31, 120, 180)' fill-opacity = '0.250000' points = '284.4,243.7 284.4,662.4 286.3,662.4 286.3,239.6 '/>
		<polygon fill = 'rgb( 31, 120, 180)' fill-opacity = '0.250000' points = '286.3,239.6 286.3,662.4 288.2,662.4 288.2,235.6 '/>
		<polygon fill = 'rgb( 31, 120, 180)' fill-opacity = '0.250000' points = '288.2,235.6 288.2,662.4 290.2,662.4 290.2,231.5 '/>
		<polygon fill = 'rgb( 31, 120, 180)' fill-opacity = '0.250000' points = '290.2,231.5 290.2,662.4 292.1,662.4 292.1,227.5 '/>
		<polygon fill = 'rgb( 31, 120, 180)' fill-opacity = '0.250000' points = '292.1,227.5 292.1,662.4 294.0,662.4 294.0,223.5 '/>
		<polygon fill = 'rgb( 31, 120, 180)' fill-opacity = '0.250000' points = '294.0,223.5 294.0,662.4 295.9,662.4 295.9,219.6 '/>
		<polygon fill = 'rgb( 31, 120, 180)' fill-opacity = '0.250000' points = '295.9,219.6 295.9,662.4 297.8,662.4 297.8,215.7 '/>
		<polygon fill = 'rgb( 31, 120, 180)' fill-opacity = '0.250000' points = '297.8,215.7 297.8,662.4 299.7,662.4 299.7,211.9 '/>
		<polygon fill = 'rgb( 31, 120, 180)' fill-opacity = '0.250000' points = '299.7,211.9 299.7,662.4 301.6,662.4 301.6,208.1 '/>
		<polygon fill = 'rgb( 31, 120, 180)' fill-opacity = '0.250000' points = '301.6,208.1 301.6,662.4 303.5,662.4 303.5,204.4 '/>
		<polygon fill = 'rgb( 31, 120, 180)' fill-opacity = '0.250000' points = '303.5,204.4 303.5,662.4 305.4,662.4 305.4,200.7 '/>
		<polygon fill = 'rgb( 31, 120, 180)' fill-opacity = '0.250000' points = '305.4,200.7 305.4,662.4 307.3,662.4 307.3,197.2 '/>
		<polygon fill = 'rgb( 31, 120, 180)' fill-opacity = '0.250000' points = '307.3,197.2 307.3,662.4 309.2,662.4 309.2,193.6 '/>
		<polygon fill = 'rgb( 31, 120, 180)' fill-opacity = '0.250000' points = '309.2,193.6 309.2,662.4 311.1,662.4 311.1,190.2 '/>
		<polygon fill = 'rgb( 31, 120, 180)' fill-opacity = '0.250000' points = '311.1,190.2 311.1,662.4 313.0,662.4 313.0,186.8 '/>
		<polygon fill = 'rgb( 31, 120, 180)' fill-opacity = '0.250000' points = '313.0,186.8 313.0,662.4 314.9,662.4 314.9,183.5 '/>
		<polygon fill = 'rgb( 31, 120, 180)' fill-opacity = '0.250000' points = '314.9,183.5 314.9,662.4 316.8,662.4 316.8,180.2 '/>
		<polygon fill = 'rgb( 31, 120, 180)' fill-opacity = '0.250000' points = '316.8,180.2 316.8,662.4 318.7,662.4 318.7,177.0 '/>
		<polygon fill = 'rgb( 31, 120, 180)' fill-opacity = '0.250000' points = '318.7,177.0 318.7,662.4 320.6,662.4 320.6,173.9 '/>
		<polygon fill = 'rgb( 31, 120, 180)' fill-opacity = '0.250000' points = '320.6,173.9 320.6,662.4 322.5,662.4 322.5,170.8 '/>
		<polygon fill = 'rgb( 31, 120, 180)' fill-opacity = '0.250000' points = '322.5,170.8 322.5,662.4 324.4,662.4 324.4,167.7 '/>
		<polygon fill = 'rgb( 31, 120, 180)' fill-opacity = '0.250000' points = '324.4,167.7 324.4,662.4 326.3,662.4 326.3,164.7 '/>
		<polygon fill = 'rgb( 31, 120, 180)' fill-opacity = '0.250000' points = '326.3,164.7 326.3,662.4 328.2,662.4 328.2,161.8 '/>
		<polygon fill = 'rgb( 31, 120, 180)' fill-opacity = '0.250000' points = '328.2,161.8 328.2,662.4 330.1,662.4 330.1,158.9 '/>
		<polygon fill = 'rgb( 31, 120, 180)' fill-opacity = '0.250000' points = '330.1,158.9 330.1,662.4 332.0,662.4 332.0,156.0 '/>
		<polygon fill = 'rgb( 31, 120, 180)' fill-opacity = '0.250000' points = '332.0,156.0 332.0,662.4 333.9,662.4 333.9,153.2 '/>
		<polygon fill = 'rgb( 31, 120, 180)' fill-opacity = '0.250000' points = '333.9,153.2 333.9,662.4 335.8,662.4 335.8,150.4 '/>
		<polygon fill = 'rgb( 31, 120, 180)' fill-opacity = '0.250000' points = '335.8,150.4 335.8,662.4 337.7,662.4 337.7,147.7 '/>
		<polygon fill = 'rgb( 31, 120, 180)' fill-opacity = '0.250000' points = '337.7,147.7 337.7,662.4 339.7,662.4 339.7,145.0 '/>
		<polygon fill = 'rgb( 31, 120, 180)' fill-opacity = '0.250000' points = '339.7,145.0 339.7,662.4 341.6,662.4 341.6,142.4 '/>
		<polygon fill = 'rgb( 31, 120, 180)' fill-opacity = '0.250000' points = '341.6,142.4 341.6,662.4 343.5,662.4 343.5,139.8 '/>
		<polygon fill = 'rgb( 31, 120, 180)' fill-opacity = '0.250000' points = '343.5,139.8 343.5,662.4 345.4,662.4 345.4,137.3 '/>
		<polygon fill = 'rgb( 31, 120, 180)' fill-opacity = '0.250000' points = '345.4,137.3 345.4,662.4 347.3,662.4 347.3,134.8 '/>
		<polygon fill = 'rgb( 31, 120, 180)' fill-opacity = '0.250000' points = '347.3,134.8 347.3,662.4 349.2,662.4 349.2,132.4 '/>
		<polygon fill = 'rgb( 31, 120, 180)' fill-opacity = '0.250000' points = '349.2,132.4 349.2,662.4 351.1,662.4 351.1,130.1 '/>
		<polygon fill = 'rgb( 31, 120, 180)' fill-opacity = '0.250000' points = '351.1,130.1 351.1,662.4 353.0,662.4 353.0,127.8 '/>
		<polygon fill = 'rgb( 31, 120, 180)' fill-opacity = '0.250000' points = '353.0,127.8 353.0,662.4 354.9,662.4 354.9,125.6 '/>
		<polygon fill = 'rgb( 31, 120, 180)' fill-opacity = '0.250000' points = '354.9,125.6 354.9,662.4 356.8,662.4 356.8,123.5 '/>
		<polygon fill = 'rgb( 31, 120, 180)' fill-opacity = '0.250000' points = '356.8,123.5 356.8,662.4 358.7,662.4 358.7,121.5 '/>
		<polygon fill = 'rgb( 31, 120, 180)' fill-opacity = '0.250000' points = '358.7,121.5 358.7,662.4 360.6,662.4 360.6,119.5 '/>
		<polygon fill = 'rgb( 31, 120, 180)' fill-opacity = '0.250000' points = '360.6,119.5 360.6,662.4 362.5,662.4 362.5,117.6 '/>
		<polygon fill = 'rgb( 31, 120, 180)' fill-opacity = '0.250000' points = '362.5,117.6 362.5,662.4 364.4,662.4 364.4,115.7 '/>
		<polygon fill = 'rgb( 31, 120, 180)' fill-opacity = '0.250000' points = '364.4,115.7 364.4,662.4 366.3,662.4 366.3,113.9 '/>
		<polygon fill = 'rgb( 31, 120, 180)' fill-opacity = '0.250000' points = '366.3,113.9 366.3,662.4 368.2,662.4 368.2,112.2 '/>
		<polygon fill = 'rgb( 31, 120, 180)' fill-opacity = '0.250000' points = '368.2,112.2 368.2,662.4 370.1,662.4 370.1,110.6 '/>
		<polygon fill = 'rgb( 31, 120, 180)' fill-opacity = '0.250000' points = '370.1,110.6 370.1,662.4 372.0,662.4 372.0,109.0 '/>
		<polygon fill = 'rgb( 31, 120, 180)' fill-opacity = '0.250000' points = '372.0,109.0 372.0,662.4 373.9,662.4 373.9,107.5 '/>
		<polygon fill = 'rgb( 31, 120, 180)' fill-opacity = '0.250000' points = '373.9,107.5 373.9,662.4 375.8,662.4 375.8,106.1 '/>
		<polygon fill = 'rgb( 31, 120, 180)' fill-opacity = '0.250000' points = '375.8,106.1 375.8,662.4 377.7,662.4 377.7,104.7 '/>
		<polygon fill = 'rgb( 31, 120, 180)' fill-opacity = '0.250000' points = '377.7,104.7 377.7,662.4 379.6,662.4 379.6,103.3 '/>
		<polygon fill = 'rgb( 31, 120, 180)' fill-opacity = '0.250000' points = '379.6,103.3 379.6,662.4 381.5,662.4 381.5,102.0 '/>
		<polygon fill = 'rgb( 31, 120, 180)' fill-opacity = '0.250000' points = '381.5,102.0 381.5,662.4 383.4,662.4 383.4,100.8 '/>
		<polygon fill = 'rgb( 31, 120, 180)' fill-opacity = '0.250000' points = '383.4,100.8 383.4,662.4 385.3,662.4 385.3,99.6 '/>
		<polygon fill = 'rgb( 31, 120, 180)' fill-opacity = '0.250000' points = '385.3,99.6 385.3,662.4 387.2,662.4 387.2,98.4 '/>
		<polygon fill = 'rgb( 31, 120, 180)' fill-opacity = '0.250000' points = '387.2,98.4 387.2,662.4 389.2,662.4 389.2,97.3 '/>
		<polygon fill = 'rgb( 31, 120, 180)' fill-opacity = '0.250000' points = '389.2,97.3 389.2,662.4 391.1,662.4 391.1,96.2 '/>
		<polygon fill = 'rgb( 31, 120, 180)' fill-opacity = '0.250000' points = '391.1,96.2 391.1,662.4 393.0,662.4 393.0,95.1 '/>
		<polygon fill = 'rgb( 31, 120, 180)' fill-opacity = '0.250000' points = '393.0,95.1 393.0,662.4 394.9,662.4 394.9,94.1 '/>
		<polygon fill = 'rgb( 31, 120, 180)' fill-opacity = '0.250000' points = '394.9,94.1 394.9,662.4 396.8,662.4 396.8,93.0 '/>
		<polygon fill = 'rgb( 31, 120, 180)' fill-opacity = '0.250000' points = '396.8,93.0 396.8,662.4 398.7,662.4 398.7,92.0 '/>
		<polygon fill = 'rgb( 31, 120, 180)' fill-opacity = '0.250000' points = '398.7,92.0 398.7,662.4 400.6,662.4 400.6,91.0 '/>
		<polygon fill = 'rgb( 31, 120, 180)' fill-opacity = '0.250000' points = '400.6,91.0 400.6,662.4 402.5,662.4 402.5,90.0 '/>
		<polygon fill = 'rgb( 31, 120, 180)' fill-opacity = '0.250000' points = '402.5,90.0 402.5,662.4 404.4,662.4 404.4,89.0 '/>
		<polygon fill = 'rgb( 31, 120, 180)' fill-opacity = '0.250000' points = '404.4,89.0 404.4,662.4 406.3,662.4 406.3,88.0 '/>
		<polygon fill = 'rgb( 31, 120, 180)' fill-opacity = '0.250000' points = '406.3,88.0 406.3,662.4 408.2,662.4 408.2,87.0 '/>
		<polygon fill = 'rgb( 31, 120, 180)' fill-opacity = '0.250000' points = '408.2,87.0 408.2,662.4 410.1,662.4 410.1,85.9 '/>
		<polygon fill = 'rgb( 31, 120, 180)' fill-opacity = '0.250000' points = '410.1,85.9 410.1,662.4 412.0,662.4 412.0,84.9 '/>
		<polygon fill = 'rgb( 31, 120, 180)' fill-opacity = '0.250000' points = '412.0,84.9 412.0,662.4 413.9,662.4 413.9,83.9 '/>
		<polygon fill = 'rgb( 31, 120, 180)' fill-opacity = '0.250000' points = '413.9,83.9 413.9,662.4 415.8,662.4 415.8,82.8 '/>
		<polygon fill = 'rgb( 31, 120, 180)' fill-opacity = '0.250000' points = '415.8,82.8 415.8,662.4 417.7,662.4 417.7,81.8 '/>
		<polygon fill = 'rgb( 31, 120, 180)' fill-opacity = '0.250000' points = '417.7,81.8 417.7,662.4 419.6,662.4 419.6,80.8 '/>
		<polygon fill = 'rgb( 31, 120, 180)' fill-opacity = '0.250000' points = '419.6,80.8 419.6,662.4 421.5,662.4 421.5,79.7 '/>
		<polygon fill = 'rgb( 31, 120, 180)' fill-opacity = '0.250000' points = '421.5,79.7 421.5,662.4 423.4,662.4 423.4,78.7 '/>
		<polygon fill = 'rgb( 31, 120, 180)' fill-opacity = '0.250000' points = '423.4,78.7 423.4,662.4 425.3,662.4 425.3,77.7 '/>
		<polygon fill = 'rgb( 31, 120, 180)' fill-opacity = '0.250000' points = '425.3,77.7 425.3,662.4 427.2,662.4 427.2,76.7 '/>
		<polygon fill = 'rgb( 31, 120, 180)' fill-opacity = '0.250000' points = '427.2,76.7 427.2,662.4 429.1,662.4 429.1,75.7 '/>
		<polygon fill = 'rgb( 31, 120, 180)' fill-opacity = '0.250000' points = '429.1,75.7 429.1,662.4 431.0,662.4 431.0,74.8 '/>
		<polygon fill = 'rgb( 31, 120, 180)' fill-opacity = '0.250000' points = '431.0,74.8 431.0,662.4 432.9,662.4 432.9,73.9 '/>
		<polygon fill = 'rgb( 31, 120, 180)' fill-opacity = '0.250000' points = '432.9,73.9 432.9,662.4 434.8,662.4 434.8,73.0 '/>
		<polygon fill = 'rgb( 31, 120, 180)' fill-opacity = '0.250000' points = '434.8,73.0 434.8,662.4 436.7,662.4 436.7,72.2 '/>
		<polygon fill = 'rgb( 31, 120, 180)' fill-opacity = '0.250000' points = '436.7,72.2 436.7,662.4 438.7,662.4 438.7,71.5 '/>
		<polygon fill = 'rgb( 31, 120, 180)' fill-opacity = '0.250000' points = '438.7,71.5 438.7,662.4 440.6,662.4 440.6,70.9 '/>
		<polygon fill = 'rgb( 31, 120, 180)' fill-opacity = '0.250000' points = '440.6,70.9 440.6,662.4 442.5,662.4 442.5,70.3 '/>
		<polygon fill = 'rgb( 31, 120, 180)' fill-opacity = '0.250000' points = '442.5,70.3 442.5,662.4 444.4,662.4 444.4,69.8 '/>
		<polygon fill = 'rgb( 31, 120, 180)' fill-opacity = '0.250000' points = '444.4,69.8 444.4,662.4 446.3,662.4 446.3,69.5 '/>
		<polygon fill = 'rgb( 31, 120, 180)' fill-opacity = '0.250000' points = '446.3,69.5 446.3,662.4 448.2,662.4 448.2,69.2 '/>
		<polygon fill = 'rgb( 31, 120, 180)' fill-opacity = '0.250000' points = '448.2,69.2 448.2,662.4 450.1,662.4 450.1,69.0 '/>
		<polygon fill = 'rgb( 31, 120, 180)' fill-opacity = '0.250000' points = '450.1,69.0 450.1,662.4 452.0,662.4 452.0,69.0 '/>
		<polygon fill = 'rgb( 31, 120, 180)' fill-opacity = '0.250000' points = '452.0,69.0 452.0,662.4 453.9,662.4 453.9,69.1 '/>
		<polygon fill = 'rgb( 31, 120, 180)' fill-opacity = '0.250000' points = '453.9,69.1 453.9,662.4 455.8,662.4 455.8,69.2 '/>
		<polygon fill = 'rgb( 31, 120, 180)' fill-opacity = '0.250000' points = '455.8,69.2 455.8,662.4 457.7,662.4 457.7,69.5 '/>
		<polygon fill = 'rgb( 31, 120, 180)' fill-opacity = '0.250000' points = '457.7,69.5 457.7,662.4 459.6,662.4 459.6,70.0 '/>
		<polygon fill = 'rgb( 31, 120, 180)' fill-opacity = '0.250000' points = '459.6,70.0 459.6,662.4 461.5,662.4 461.5,70.5 '/>
		<polygon fill = 'rgb( 31, 120, 180)' fill-opacity = '0.250000' points = '461.5,70.5 461.5,662.4 463.4,662.4 463.4,71.1 '/>
		<polygon fill = 'rgb( 31, 120, 180)' fill-opacity = '0.250000' points = '463.4,71.1 463.4,662.4 465.3,662.4 465.3,71.9 '/>
		<polygon fill = 'rgb( 31, 120, 180)' fill-opacity = '0.250000' points = '465.3,71.9 465.3,662.4 467.2,662.4 467.2,72.8 '/>
		<polygon fill = 'rgb( 31, 120, 180)' fill-opacity = '0.250000' points = '467.2,72.8 467.2,662.4 469.1,662.4 469.1,73.7 '/>
		<polygon fill = 'rgb( 31, 120, 180)' fill-opacity = '0.250000' points = '469.1,73.7 469.1,662.4 471.0,662.4 471.0,74.8 '/>
		<polygon fill = 'rgb( 31, 120, 180)' fill-opacity = '0.250000' points = '471.0,74.8 471.0,662.4 472.9,662.4 472.9,75.9 '/>
		<polygon fill = 'rgb( 31, 120, 180)' fill-opacity = '0.250000' points = '472.9,75.9 472.9,662.4 474.8,662.4 474.8,77.1 '/>
		<polygon fill = 'rgb( 31, 120, 180)' fill-opacity = '0.250000' points = '474.8,77.1 474.8,662.4 476.7,662.4 476.7,78.4 '/>
		<polygon fill = 'rgb( 31, 120, 180)' fill-opacity = '0.250000' points = '476.7,78.4 476.7,662.4 478.6,662.4 478.6,79.8 '/>
		<polygon fill = 'rgb( 31, 120, 180)' fill-opacity = '0.250000' points = '478.6,79.8 478.6,662.4 480.5,662.4 480.5,81.2 '/>
		<polygon fill = 'rgb( 31, 120, 180)' fill-opacity = '0.250000' points = '480.5,81.2 480.5,662.4 482.4,662.4 482.4,82.6 '/>
		<polygon fill = 'rgb( 31, 120, 180)' fill-opacity = '0.250000' points = '482.4,82.6 482.4,662.4 484.3,662.4 484.3,84.1 '/>
		<polygon fill = 'rgb( 31, 120, 180)' fill-opacity = '0.250000' points = '484.3,84.1 484.3,662.4 486.2,662.4 486.2,85.6 '/>
		<polygon fill = 'rgb( 31, 120, 180)' fill-opacity = '0.250000' points = '486.2,85.6 486.2,662.4 488.1,662.4 488.1,87.1 '/>
		<polygon fill = 'rgb( 31, 120, 180)' fill-opacity = '0.250000' points = '488.1,87.1 488.1,662.4 490.1,662.4 490.1,88.7 '/>
		<polygon fill = 'rgb( 31, 120, 180)' fill-opacity = '0.250000' points = '490.1,88.7 490.1,662.4 492.0,662.4 492.0,90.2 '/>
		<polygon fill = 'rgb( 31, 120, 180)' fill-opacity = '0.250000' points = '492.0,90.2 492.0,662.4 493.9,662.4 493.9,91.7 '/>
		<polygon fill = 'rgb( 31, 120, 180)' fill-opacity = '0.250000' points = '493.9,91.7 493.9,662.4 495.8,662.4 495.8,93.3 '/>
		<polygon fill = 'rgb( 31, 120, 180)' fill-opacity = '0.250000' points = '495.8,93.3 495.8,662.4 497.7,662.4 497.7,94.8 '/>
		<polygon fill = 'rgb( 31, 120, 180)' fill-opacity = '0.250000' points = '497.7,94.8 497.7,662.4 499.6,662.4 499.6,96.3 '/>
		<polygon fill = 'rgb( 31, 120, 180)' fill-opacity = '0.250000' points = '499.6,96.3 499.6,662.4 501.5,662.4 501.5,97.8 '/>
		<polygon fill = 'rgb( 31, 120, 180)' fill-opacity = '0.250000' points = '501.5,97.8 501.5,662.4 503.4,662.4 503.4,99.4 '/>
		<polygon fill = 'rgb( 31, 120, 180)' fill-opacity = '0.250000' points = '503.4,99.4 503.4,662.4 505.3,662.4 505.3,100.9 '/>
		<polygon fill = 'rgb( 31, 120, 180)' fill-opacity = '0.250000' points = '505.3,100.9 505.3,662.4 507.2,662.4 507.2,102.4 '/>
		<polygon fill = 'rgb( 31, 120, 180)' fill-opacity = '0.250000' points = '507.2,102.4 507.2,662.4 509.1,662.4 509.1,104.0 '/>
		<polygon fill = 'rgb( 31, 120, 180)' fill-opacity = '0.250000' points = '509.1,104.0 509.1,662.4 511.0,662.4 511.0,105.5 '/>
		<polygon fill = 'rgb( 31, 120, 180)' fill-opacity = '0.250000' points = '511.0,105.5 511.0,662.4 512.9,662.4 512.9,107.1 '/>
		<polygon fill = 'rgb( 31, 120, 180)' fill-opacity = '0.250000' points = '512.9,107.1 512.9,662.4 514.8,662.4 514.8,108.7 '/>
		<polygon fill = 'rgb( 31, 120, 180)' fill-opacity = '0.250000' points = '514.8,108.7 514.8,662.4 516.7,662.4 516.7,110.4 '/>
		<polygon fill = 'rgb( 31, 120, 180)' fill-opacity = '0.250000' points = '516.7,110.4 516.7,662.4 518.6,662.4 518.6,112.1 '/>
		<polygon fill = 'rgb( 31, 120, 180)' fill-opacity = '0.250000' points = '518.6,112.1 518.6,662.4 520.5,662.4 520.5,113.8 '/>
		<polygon fill = 'rgb( 31, 120, 180)' fill-opacity = '0.250000' points = '520.5,113.8 520.5,662.4 522.4,662.4 522.4,115.6 '/>
		<polygon fill = 'rgb( 31, 120, 180)' fill-opacity = '0.250000' points = '522.4,115.6 522.4,662.4 524.3,662.4 524.3,117.4 '/>
		<polygon fill = 'rgb( 31, 120, 180)' fill-opacity = '0.250000' points = '524.3,117.4 524.3,662.4 526.2,662.4 526.2,119.3 '/>
		<polygon fill = 'rgb( 31, 120, 180)' fill-opacity = '0.250000' points = '526.2,119.3 526.2,662.4 528.1,662.4 528.1,121.2 '/>
		<polygon fill = 'rgb( 31, 120, 180)' fill-opacity = '0.250000' points = '528.1,121.2 528.1,662.4 530.0,662.4 530.0,123.2 '/>
		<polygon fill = 'rgb( 31, 120, 180)' fill-opacity = '0.250000' points = '530.0,123.2 530.0,662.4 531.9,662.4 531.9,125.2 '/>
		<polygon fill = 'rgb( 31, 120, 180)' fill-opacity = '0.250000' points = '531.9,125.2 531.9,662.4 533.8,662.4 533.8,127.2 '/>
		<polygon fill = 'rgb( 31, 120, 180)' fill-opacity = '0.250000' points = '533.8,127.2 533.8,662.4 535.7,662.4 535.7,129.3 '/>
		<polygon fill = 'rgb( 31, 120, 180)' fill-opacity = '0.250000' points = '535.7,129.3 535.7,662.4 537.6,662.4 537.6,131.4 '/>
		<polygon fill = 'rgb( 31, 120, 180)' fill-opacity = '0.250000' points = '537.6,131.4 537.6,662.4 539.6,662.4 539.6,133.6 '/>
		<polygon fill = 'rgb( 31, 120, 180)' fill-opacity = '0.250000' points = '539.6,133.6 539.6,662.4 541.5,662.4 541.5,135.8 '/>
		<polygon fill = 'rgb( 31, 120, 180)' fill-opacity = '0.250000' points = '541.5,135.8 541.5,662.4 543.4,662.4 543.4,137.9 '/>
		<polygon fill = 'rgb( 31, 120, 180)' fill-opacity = '0.250000' points = '543.4,137.9 543.4,662.4 545.3,662.4 545.3,140.1 '/>
		<polygon fill = 'rgb( 31, 120, 180)' fill-opacity = '0.250000' points = '545.3,140.1 545.3,662.4 547.2,662.4 547.2,142.3 '/>
		<polygon fill = 'rgb( 31, 120, 180)' fill-opacity = '0.250000' points = '547.2,142.3 547.2,662.4 549.1,662.4 549.1,144.5 '/>
		<polygon fill = 'rgb( 31, 120, 180)' fill-opacity = '0.250000' points = '549.1,144.5 549.1,662.4 551.0,662.4 551.0,146.7 '/>
		<polygon fill = 'rgb( 31, 120, 180)' fill-opacity = '0.250000' points = '551.0,146.7 551.0,662.4 552.9,662.4 552.9,148.9 '/>
		<polygon fill = 'rgb( 31, 120, 180)' fill-opacity = '0.250000' points = '552.9,148.9 552.9,662.4 554.8,662.4 554.8,151.1 '/>
		<polygon fill = 'rgb( 31, 120, 180)' fill-opacity = '0.250000' points = '554.8,151.1 554.8,662.4 556.7,662.4 556.7,153.3 '/>
		<polygon fill = 'rgb( 31, 120, 180)' fill-opacity = '0.250000' points = '556.7,153.3 556.7,662.4 558.6,662.4 558.6,155.5 '/>
		<polygon fill = 'rgb( 31, 120, 180)' fill-opacity = '0.250000' points = '558.6,155.5 558.6,662.4 560.5,662.4 560.5,157.7 '/>
		<polygon fill = 'rgb( 31, 120, 180)' fill-opacity = '0.250000' points = '560.5,157.7 560.5,662.4 562.4,662.4 562.4,160.0 '/>
		<polygon fill = 'rgb( 31, 120, 180)' fill-opacity = '0.250000' points = '562.4,160.0 562.4,662.4 564.3,662.4 564.3,162.2 '/>
		<polygon fill = 'rgb( 31, 120, 180)' fill-opacity = '0.250000' points = '564.3,162.2 564.3,662.4 566.2,662.4 566.2,164.5 '/>
		<polygon fill = 'rgb( 31, 120, 180)' fill-opacity = '0.250000' points = '566.2,164.5 566.2,662.4 568.1,662.4 568.1,166.8 '/>
		<polygon fill = 'rgb( 31, 120, 180)' fill-opacity = '0.250000' points = '568.1,166.8 568.1,662.4 570.0,662.4 570.0,169.1 '/>
		<polygon fill = 'rgb( 31, 120, 180)' fill-opacity = '0.250000' points = '570.0,169.1 570.0,662.4 571.9,662.4 571.9,171.5 '/>
		<polygon fill = 'rgb( 31, 120, 180)' fill-opacity = '0.250000' points = '571.9,171.5 571.9,662.4 573.8,662.4 573.8,173.9 '/>
		<polygon fill = 'rgb( 31, 120, 180)' fill-opacity = '0.250000' points = '573.8,173.9 573.8,662.4 575.7,662.4 575.7,176.4 '/>
		<polygon fill = 'rgb( 31, 120, 180)' fill-opacity = '0.250000' points = '575.7,176.4 575.7,662.4 577.6,662.4 577.6,178.9 '/>
		<polygon fill = 'rgb( 31, 120, 180)' fill-opacity = '0.250000' points = '577.6,178.9 577.6,662.4 579.5,662.4 579.5,181.5 '/>
		<polygon fill = 'rgb( 31, 120, 180)' fill-opacity = '0.250000' points = '579.5,181.5 579.5,662.4 581.4,662.4 581.4,184.2 '/>
		<polygon fill = 'rgb( 31, 120, 180)' fill-opacity = '0.250000' points = '581.4,184.2 581.4,662.4 583.3,662.4 583.3,186.9 '/>
		<polygon fill = 'rgb( 31, 120, 180)' fill-opacity = '0.250000' points = '583.3,186.9 583.3,662.4 585.2,662.4 585.2,189.7 '/>
		<polygon fill = 'rgb( 31, 120, 180)' fill-opacity = '0.250000' points = '585.2,189.7 585.2,662.4 587.1,662.4 587.1,192.6 '/>
		<polygon fill = 'rgb( 31, 120, 180)' fill-opacity = '0.250000' points = '587.1,192.6 587.1,662.4 589.1,662.4 589.1,195.5 '/>
		<polygon fill = 'rgb( 31, 120, 180)' fill-opacity = '0.250000' points = '589.1,195.5 589.1,662.4 591.0,662.4 591.0,198.5 '/>
		<polygon fill = 'rgb( 31, 120, 180)' fill-opacity = '0.250000' points = '591.0,198.5 591.0,662.4 592.9,662.4 592.9,201.6 '/>
		<polygon fill = 'rgb( 31, 120, 180)' fill-opacity = '0.250000' points = '592.9,201.6 592.9,662.4 594.8,662.4 594.8,204.7 '/>
		<polygon fill = 'rgb( 31, 120, 180)' fill-opacity = '0.250000' points = '594.8,204.7 594.8,662.4 596.7,662.4 596.7,207.8 '/>
		<polygon fill = 'rgb( 31, 120, 180)' fill-opacity = '0.250000' points = '596.7,207.8 596.7,662.4 598.6,662.4 598.6,211.0 '/>
		<polygon fill = 'rgb( 31, 120, 180)' fill-opacity = '0.250000' points = '598.6,211.0 598.6,662.4 600.5,662.4 600.5,214.3 '/>
		<polygon fill = 'rgb( 31, 120, 180)' fill-opacity = '0.250000' points = '600.5,214.3 600.5,662.4 602.4,662.4 602.4,217.6 '/>
		<polygon fill = 'rgb( 31, 120, 180)' fill-opacity = '0.250000' points = '602.4,217.6 602.4,662.4 604.3,662.4 604.3,220.9 '/>
		<polygon fill = 'rgb( 31, 120, 180)' fill-opacity = '0.250000' points = '604.3,220.9 604.3,662.4 606.2,662.4 606.2,224.2 '/>
		<polygon fill = 'rgb( 31, 120, 180)' fill-opacity = '0.250000' points = '606.2,224.2 606.2,662.4 608.1,662.4 608.1,227.5 '/>
		<polygon fill = 'rgb( 31, 120, 180)' fill-opacity = '0.250000' points = '608.1,227.5 608.1,662.4 610.0,662.4 610.0,230.9 '/>
		<polygon fill = 'rgb( 31, 120, 180)' fill-opacity = '0.250000' points = '610.0,230.9 610.0,662.4 611.9,662.4 611.9,234.2 '/>
		<polygon fill = 'rgb( 31, 120, 180)' fill-opacity = '0.250000' points = '611.9,234.2 611.9,662.4 613.8,662.4 613.8,237.5 '/>
		<polygon fill = 'rgb( 31, 120, 180)' fill-opacity = '0.250000' points = '613.8,237.5 613.8,662.4 615.7,662.4 615.7,240.8 '/>
		<polygon fill = 'rgb( 31, 120, 180)' fill-opacity = '0.250000' points = '615.7,240.8 615.7,662.4 617.6,662.4 617.6,244.1 '/>
		<polygon fill = 'rgb( 31, 120, 180)' fill-opacity = '0.250000' points = '617.6,244.1 617.6,662.4 619.5,662.4 619.5,247.4 '/>
		<polygon fill = 'rgb( 31, 120, 180)' fill-opacity = '0.250000' points = '619.5,247.4 619.5,662.4 621.4,662.4 621.4,250.6 '/>
		<polygon fill = 'rgb( 31, 120, 180)' fill-opacity = '0.250000' points = '621.4,250.6 621.4,662.4 623.3,662.4 623.3,253.8 '/>
		<polygon fill = 'rgb( 31, 120, 180)' fill-opacity = '0.250000' points = '623.3,253.8 623.3,662.4 625.2,662.4 625.2,257.0 '/>
		<polygon fill = 'rgb( 31, 120, 180)' fill-opacity = '0.250000' points = '625.2,257.0 625.2,662.4 627.1,662.4 627.1,260.1 '/>
		<polygon fill = 'rgb( 31, 120, 180)' fill-opacity = '0.250000' points = '627.1,260.1 627.1,662.4 629.0,662.4 629.0,263.2 '/>
		<polygon fill = 'rgb( 31, 120, 180)' fill-opacity = '0.250000' points = '629.0,263.2 629.0,662.4 630.9,662.4 630.9,266.3 '/>
		<polygon fill = 'rgb( 31, 120, 180)' fill-opacity = '0.250000' points = '630.9,266.3 630.9,662.4 632.8,662.4 632.8,269.3 '/>
		<polygon fill = 'rgb( 31, 120, 180)' fill-opacity = '0.250000' points = '632.8,269.3 632.8,662.4 634.7,662.4 634.7,272.3 '/>
		<polygon fill = 'rgb( 31, 120, 180)' fill-opacity = '0.250000' points = '634.7,272.3 634.7,662.4 636.6,662.4 636.6,275.3 '/>
		<polygon fill = 'rgb( 31, 120, 180)' fill-opacity = '0.250000' points = '636.6,275.3 636.6,662.4 638.5,662.4 638.5,278.2 '/>
		<polygon fill = 'rgb( 31, 120, 180)' fill-opacity = '0.250000' points = '638.5,278.2 638.5,662.4 640.5,662.4 640.5,281.1 '/>
		<polygon fill = 'rgb( 31, 120, 180)' fill-opacity = '0.250000' points = '640.5,281.1 640.5,662.4 642.4,662.4 642.4,284.0 '/>
		<polygon fill = 'rgb( 31, 120, 180)' fill-opacity = '0.250000' points = '642.4,284.0 642.4,662.4 644.3,662.4 644.3,286.9 '/>
		<polygon fill = 'rgb( 31, 120, 180)' fill-opacity = '0.250000' points = '644.3,286.9 644.3,662.4 646.2,662.4 646.2,289.8 '/>
		<polygon fill = 'rgb( 31, 120, 180)' fill-opacity = '0.250000' points = '646.2,289.8 646.2,662.4 648.1,662.4 648.1,292.7 '/>
		<polygon fill = 'rgb( 31, 120, 180)' fill-opacity = '0.250000' points = '648.1,292.7 648.1,662.4 650.0,662.4 650.0,295.6 '/>
		<polygon fill = 'rgb( 31, 120, 180)' fill-opacity = '0.250000' points = '650.0,295.6 650.0,662.4 651.9,662.4 651.9,298.5 '/>
		<polygon fill = 'rgb( 31, 120, 180)' fill-opacity = '0.250000' points = '651.9,298.5 651.9,662.4 653.8,662.4 653.8,301.4 '/>
		<polygon fill = 'rgb( 31, 120, 180)' fill-opacity = '0.250000' points = '653.8,301.4 653.8,662.4 655.7,662.4 655.7,304.3 '/>
		<polygon fill = 'rgb( 31, 120, 180)' fill-opacity = '0.250000' points = '655.7,304.3 655.7,662.4 657.6,662.4 657.6,307.2 '/>
		<polygon fill = 'rgb( 31, 120, 180)' fill-opacity = '0.250000' points = '657.6,307.2 657.6,662.4 659.5,662.4 659.5,310.1 '/>
		<polygon fill = 'rgb( 31, 120, 180)' fill-opacity = '0.250000' points = '659.5,310.1 659.5,662.4 661.4,662.4 661.4,313.0 '/>
		<polygon fill = 'rgb( 31, 120, 180)' fill-opacity = '0.250000' points = '661.4,313.0 661.4,662.4 663.3,662.4 663.3,316.0 '/>
		<polygon fill = 'rgb( 31, 120, 180)' fill-opacity = '0.250000' points = '663.3,316.0 663.3,662.4 665.2,662.4 665.2,318.9 '/>
		<polygon fill = 'rgb( 31, 120, 180)' fill-opacity = '0.250000' points = '665.2,318.9 665.2,662.4 667.1,662.4 667.1,321.9 '/>
		<polygon fill = 'rgb( 31, 120, 180)' fill-opacity = '0.250000' points = '667.1,321.9 667.1,662.4 669.0,662.4 669.0,324.9 '/>
		<polygon fill = 'rgb( 31, 120, 180)' fill-opacity = '0.250000' points = '669.0,324.9 669.0,662.4 670.9,662.4 670.9,327.9 '/>
		<polygon fill = 'rgb( 31, 120, 180)' fill-opacity = '0.250000' points = '670.9,327.9 670.9,662.4 672.8,662.4 672.8,330.8 '/>
		<polygon fill = 'rgb( 31, 120, 180)' fill-opacity = '0.250000' points = '672.8,330.8 672.8,662.4 674.7,662.4 674.7,333.8 '/>
		<polygon fill = 'rgb( 31, 120, 180)' fill-opacity = '0.250000' points = '674.7,333.8 674.7,662.4 676.6,662.4 676.6,336.8 '/>
		<polygon fill = 'rgb( 31, 120, 180)' fill-opacity = '0.250000' points = '676.6,336.8 676.6,662.4 678.5,662.4 678.5,339.8 '/>
		<polygon fill = 'rgb( 31, 120, 180)' fill-opacity = '0.250000' points = '678.5,339.8 678.5,662.4 680.4,662.4 680.4,342.8 '/>
		<polygon fill = 'rgb( 31, 120, 180)' fill-opacity = '0.250000' points = '680.4,342.8 680.4,662.4 682.3,662.4 682.3,345.7 '/>
		<polygon fill = 'rgb( 31, 120, 180)' fill-opacity = '0.250000' points = '682.3,345.7 682.3,662.4 684.2,662.4 684.2,348.7 '/>
		<polygon fill = 'rgb( 31, 120, 180)' fill-opacity = '0.250000' points = '684.2,348.7 684.2,662.4 686.1,662.4 686.1,351.6 '/>
		<polygon fill = 'rgb( 31, 120, 180)' fill-opacity = '0.250000' points = '686.1,351.6 686.1,662.4 688.0,662.4 688.0,354.6 '/>
		<polygon fill = 'rgb( 31, 120, 180)' fill-opacity = '0.250000' points = '688.0,354.6 688.0,662.4 690.0,662.4 690.0,357.5 '/>
		<polygon fill = 'rgb( 31, 120, 180)' fill-opacity = '0.250000' points = '690.0,357.5 690.0,662.4 691.9,662.4 691.9,360.4 '/>
		<polygon fill = 'rgb( 31, 120, 180)' fill-opacity = '0.250000' points = '691.9,360.4 691.9,662.4 693.8,662.4 693.8,363.3 '/>
		<polygon fill = 'rgb( 31, 120, 180)' fill-opacity = '0.250000' points = '693.8,363.3 693.8,662.4 695.7,662.4 695.7,366.2 '/>
		<polygon fill = 'rgb( 31, 120, 180)' fill-opacity = '0.250000' points = '695.7,366.2 695.7,662.4 697.6,662.4 697.6,369.1 '/>
		<polygon fill = 'rgb( 31, 120, 180)' fill-opacity = '0.250000' points = '697.6,369.1 697.6,662.4 699.5,662.4 699.5,371.9 '/>
		<polygon fill = 'rgb( 31, 120, 180)' fill-opacity = '0.250000' points = '699.5,371.9 699.5,662.4 701.4,662.4 701.4,374.7 '/>
		<polygon fill = 'rgb( 31, 120, 180)' fill-opacity = '0.250000' points = '701.4,374.7 701.4,662.4 703.3,662.4 703.3,377.6 '/>
		<polygon fill = 'rgb( 31, 120, 180)' fill-opacity = '0.250000' points = '703.3,377.6 703.3,662.4 705.2,662.4 705.2,380.4 '/>
		<polygon fill = 'rgb( 31, 120, 180)' fill-opacity = '0.250000' points = '705.2,380.4 705.2,662.4 707.1,662.4 707.1,383.1 '/>
		<polygon fill = 'rgb( 31, 120, 180)' fill-opacity = '0.250000' points = '707.1,383.1 707.1,662.4 709.0,662.4 709.0,385.9 '/>
		<polygon fill = 'rgb( 31, 120, 180)' fill-opacity = '0.250000' points = '709.0,385.9 709.0,662.4 710.9,662.4 710.9,388.6 '/>
		<polygon fill = 'rgb( 31, 120, 180)' fill-opacity = '0.250000' points = '710.9,388.6 710.9,662.4 712.8,662.4 712.8,391.3 '/>
		<polygon fill = 'rgb( 31, 120, 180)' fill-opacity = '0.250000' points = '712.8,391.3 712.8,662.4 714.7,662.4 714.7,394.0 '/>
		<polygon fill = 'rgb( 31, 120, 180)' fill-opacity = '0.250000' points = '714.7,394.0 714.7,662.4 716.6,662.4 716.6,396.7 '/>
		<polygon fill = 'rgb( 31, 120, 180)' fill-opacity = '0.250000' points = '716.6,396.7 716.6,662.4 718.5,662.4 718.5,399.4 '/>
		<polygon fill = 'rgb( 31, 120, 180)' fill-opacity = '0.250000' points = '718.5,399.4 718.5,662.4 720.4,662.4 720.4,402.0 '/>
		<polygon fill = 'rgb( 31, 120, 180)' fill-opacity = '0.250000' points = '720.4,402.0 720.4,662.4 722.3,662.4 722.3,404.6 '/>
		<polygon fill = 'rgb( 31, 120, 180)' fill-opacity = '0.250000' points = '722.3,404.6 722.3,662.4 724.2,662.4 724.2,407.3 '/>
		<polygon fill = 'rgb( 31, 120, 180)' fill-opacity = '0.250000' points = '724.2,407.3 724.2,662.4 726.1,662.4 726.1,409.9 '/>
		<polygon fill = 'rgb( 31, 120, 180)' fill-opacity = '0.250000' points = '726.1,409.9 726.1,662.4 728.0,662.4 728.0,412.5 '/>
		<polygon fill = 'rgb( 31, 120, 180)' fill-opacity = '0.250000' points = '728.0,412.5 728.0,662.4 729.9,662.4 729.9,415.0 '/>
		<polygon fill = 'rgb( 31, 120, 180)' fill-opacity = '0.250000' points = '729.9,415.0 729.9,662.4 731.8,662.4 731.8,417.6 '/>
		<polygon fill = 'rgb( 31, 120, 180)' fill-opacity = '0.250000' points = '731.8,417.6 731.8,662.4 733.7,662.4 733.7,420.2 '/>
		<polygon fill = 'rgb( 31, 120, 180)' fill-opacity = '0.250000' points = '733.7,420.2 733.7,662.4 735.6,662.4 735.6,422.7 '/>
		<polygon fill = 'rgb( 31, 120, 180)' fill-opacity = '0.250000' points = '735.6,422.7 735.6,662.4 737.5,662.4 737.5,425.2 '/>
		<polygon fill = 'rgb( 31, 120, 180)' fill-opacity = '0.250000' points = '737.5,425.2 737.5,662.4 739.5,662.4 739.5,427.8 '/>
		<polygon fill = 'rgb( 31, 120, 180)' fill-opacity = '0.250000' points = '739.5,427.8 739.5,662.4 741.4,662.4 741.4,430.3 '/>
		<polygon fill = 'rgb( 31, 120, 180)' fill-opacity = '0.250000' points = '741.4,430.3 741.4,662.4 743.3,662.4 743.3,432.8 '/>
		<polygon fill = 'rgb( 31, 120, 180)' fill-opacity = '0.250000' points = '743.3,432.8 743.3,662.4 745.2,662.4 745.2,435.3 '/>
		<polygon fill = 'rgb( 31, 120, 180)' fill-opacity = '0.250000' points = '745.2,435.3 745.2,662.4 747.1,662.4 747.1,437.7 '/>
		<polygon fill = 'rgb( 31, 120, 180)' fill-opacity = '0.250000' points = '747.1,437.7 747.1,662.4 749.0,662.4 749.0,440.2 '/>
		<polygon fill = 'rgb( 31, 120, 180)' fill-opacity = '0.250000' points = '749.0,440.2 749.0,662.4 750.9,662.4 750.9,442.6 '/>
		<polygon fill = 'rgb( 31, 120, 180)' fill-opacity = '0.250000' points = '750.9,442.6 750.9,662.4 752.8,662.4 752.8,445.0 '/>
		<polygon fill = 'rgb( 31, 120, 180)' fill-opacity = '0.250000' points = '752.8,445.0 752.8,662.4 754.7,662.4 754.7,447.4 '/>
		<polygon fill = 'rgb( 31, 120, 180)' fill-opacity = '0.250000' points = '754.7,447.4 754.7,662.4 756.6,662.4 756.6,449.7 '/>
		<polygon fill = 'rgb( 31, 120, 180)' fill-opacity = '0.250000' points = '756.6,449.7 756.6,662.4 758.5,662.4 758.5,452.0 '/>
		<polygon fill = 'rgb( 31, 120, 180)' fill-opacity = '0.250000' points = '758.5,452.0 758.5,662.4 760.4,662.4 760.4,454.3 '/>
		<polygon fill = 'rgb( 31, 120, 180)' fill-opacity = '0.250000' points = '760.4,454.3 760.4,662.4 762.3,662.4 762.3,456.6 '/>
		<polygon fill = 'rgb( 31, 120, 180)' fill-opacity = '0.250000' points = '762.3,456.6 762.3,662.4 764.2,662.4 764.2,458.8 '/>
		<polygon fill = 'rgb( 31, 120, 180)' fill-opacity = '0.250000' points = '764.2,458.8 764.2,662.4 766.1,662.4 766.1,461.0 '/>
		<polygon fill = 'rgb( 31, 120, 180)' fill-opacity = '0.250000' points = '766.1,461.0 766.1,662.4 768.0,662.4 768.0,463.1 '/>
		<polygon fill = 'rgb( 31, 120, 180)' fill-opacity = '0.250000' points = '768.0,463.1 768.0,662.4 769.9,662.4 769.9,465.3 '/>
		<polygon fill = 'rgb( 31, 120, 180)' fill-opacity = '0.250000' points = '769.9,465.3 769.9,662.4 771.8,662.4 771.8,467.4 '/>
		<polygon fill = 'rgb( 31, 120, 180)' fill-opacity = '0.250000' points = '771.8,467.4 771.8,662.4 773.7,662.4 773.7,469.5 '/>
		<polygon fill = 'rgb( 31, 120, 180)' fill-opacity = '0.250000' points = '773.7,469.5 773.7,662.4 775.6,662.4 775.6,471.6 '/>
		<polygon fill = 'rgb( 31, 120, 180)' fill-opacity = '0.250000' points = '775.6,471.6 775.6,662.4 777.5,662.4 777.5,473.6 '/>
		<polygon fill = 'rgb( 31, 120, 180)' fill-opacity = '0.250000' points = '777.5,473.6 777.5,662.4 779.4,662.4 779.4,475.6 '/>
		<polygon fill = 'rgb( 31, 120, 180)' fill-opacity = '0.250000' points = '779.4,475.6 779.4,662.4 781.3,662.4 781.3,477.6 '/>
		<polygon fill = 'rgb( 31, 120, 180)' fill-opacity = '0.250000' points = '781.3,477.6 781.3,662.4 783.2,662.4 783.2,479.6 '/>
		<polygon fill = 'rgb( 31, 120, 180)' fill-opacity = '0.250000' points = '783.2,479.6 783.2,662.4 785.1,662.4 785.1,481.6 '/>
		<polygon fill = 'rgb( 31, 120, 180)' fill-opacity = '0.250000' points = '785.1,481.6 785.1,662.4 787.0,662.4 787.0,483.6 '/>
		<polygon fill = 'rgb( 31, 120, 180)' fill-opacity = '0.250000' points = '787.0,483.6 787.0,662.4 789.0,662.4 789.0,485.6 '/>
		<polygon fill = 'rgb( 31, 120, 180)' fill-opacity = '0.250000' points = '789.0,485.6 789.0,662.4 790.9,662.4 790.9,487.5 '/>
		<polygon fill = 'rgb( 31, 120, 180)' fill-opacity = '0.250000' points = '790.9,487.5 790.9,662.4 792.8,662.4 792.8,489.5 '/>
		<polygon fill = 'rgb( 31, 120, 180)' fill-opacity = '0.250000' points = '792.8,489.5 792.8,662.4 794.7,662.4 794.7,491.4 '/>
		<polygon fill = 'rgb( 31, 120, 180)' fill-opacity = '0.250000' points = '794.7,491.4 794.7,662.4 796.6,662.4 796.6,493.3 '/>
		<polygon fill = 'rgb( 31, 120, 180)' fill-opacity = '0.250000' points = '796.6,493.3 796.6,662.4 798.5,662.4 798.5,495.2 '/>
		<polygon fill = 'rgb( 31, 120, 180)' fill-opacity = '0.250000' points = '798.5,495.2 798.5,662.4 800.4,662.4 800.4,497.2 '/>
		<polygon fill = 'rgb( 31, 120, 180)' fill-opacity = '0.250000' points = '800.4,497.2 800.4,662.4 802.3,662.4 802.3,499.1 '/>
		<polygon fill = 'rgb( 31, 120, 180)' fill-opacity = '0.250000' points = '802.3,499.1 802.3,662.4 804.2,662.4 804.2,501.0 '/>
		<polygon fill = 'rgb( 31, 120, 180)' fill-opacity = '0.250000' points = '804.2,501.0 804.2,662.4 806.1,662.4 806.1,502.9 '/>
		<polygon fill = 'rgb( 31, 120, 180)' fill-opacity = '0.250000' points = '806.1,502.9 806.1,662.4 808.0,662.4 808.0,504.8 '/>
		<polygon fill = 'rgb( 31, 120, 180)' fill-opacity = '0.250000' points = '808.0,504.8 808.0,662.4 809.9,662.4 809.9,506.7 '/>
		<polygon fill = 'rgb( 31, 120, 180)' fill-opacity = '0.250000' points = '809.9,506.7 809.9,662.4 811.8,662.4 811.8,508.6 '/>
		<polygon fill = 'rgb( 31, 120, 180)' fill-opacity = '0.250000' points = '811.8,508.6 811.8,662.4 813.7,662.4 813.7,510.5 '/>
		<polygon fill = 'rgb( 31, 120, 180)' fill-opacity = '0.250000' points = '813.7,510.5 813.7,662.4 815.6,662.4 815.6,512.4 '/>
		<polygon fill = 'rgb( 31, 120, 180)' fill-opacity = '0.250000' points = '815.6,512.4 815.6,662.4 817.5,662.4 817.5,514.4 '/>
		<polygon fill = 'rgb( 31, 120, 180)' fill-opacity = '0.250000' points = '817.5,514.4 817.5,662.4 819.4,662.4 819.4,516.3 '/>
		<polygon fill = 'rgb( 31, 120, 180)' fill-opacity = '0.250000' points = '819.4,516.3 819.4,662.4 821.3,662.4 821.3,518.2 '/>
		<polygon fill = 'rgb( 31, 120, 180)' fill-opacity = '0.250000' points = '821.3,518.2 821.3,662.4 823.2,662.4 823.2,520.2 '/>
		<polygon fill = 'rgb( 31, 120, 180)' fill-opacity = '0.250000' points = '823.2,520.2 823.2,662.4 825.1,662.4 825.1,522.1 '/>
		<polygon fill = 'rgb( 31, 120, 180)' fill-opacity = '0.250000' points = '825.1,522.1 825.1,662.4 827.0,662.4 827.0,524.1 '/>
		<polygon fill = 'rgb( 31, 120, 180)' fill-opacity = '0.250000' points = '827.0,524.1 827.0,662.4 828.9,662.4 828.9,526.1 '/>
		<polygon fill = 'rgb( 31, 120, 180)' fill-opacity = '0.250000' points = '828.9,526.1 828.9,662.4 830.8,662.4 830.8,528.0 '/>
		<polygon fill = 'rgb( 31, 120, 180)' fill-opacity = '0.250000' points = '830.8,528.0 830.8,662.4 832.7,662.4 832.7,530.0 '/>
		<polygon fill = 'rgb( 31, 120, 180)' fill-opacity = '0.250000' points = '832.7,530.0 832.7,662.4 834.6,662.4 834.6,531.9 '/>
		<polygon fill = 'rgb( 31, 120, 180)' fill-opacity = '0.250000' points = '834.6,531.9 834.6,662.4 836.5,662.4 836.5,533.9 '/>
		<polygon fill = 'rgb( 31, 120, 180)' fill-opacity = '0.250000' points = '836.5,533.9 836.5,662.4 838.4,662.4 838.4,535.8 '/>
		<polygon fill = 'rgb( 31, 120, 180)' fill-opacity = '0.250000' points = '838.4,535.8 838.4,662.4 840.4,662.4 840.4,537.7 '/>
		<polygon fill = 'rgb( 31, 120, 180)' fill-opacity = '0.250000' points = '840.4,537.7 840.4,662.4 842.3,662.4 842.3,539.6 '/>
		<polygon fill = 'rgb( 31, 120, 180)' fill-opacity = '0.250000' points = '842.3,539.6 842.3,662.4 844.2,662.4 844.2,541.5 '/>
		<polygon fill = 'rgb( 31, 120, 180)' fill-opacity = '0.250000' points = '844.2,541.5 844.2,662.4 846.1,662.4 846.1,543.3 '/>
		<polygon fill = 'rgb( 31, 120, 180)' fill-opacity = '0.250000' points = '846.1,543.3 846.1,662.4 848.0,662.4 848.0,545.1 '/>
		<polygon fill = 'rgb( 31, 120, 180)' fill-opacity = '0.250000' points = '848.0,545.1 848.0,662.4 849.9,662.4 849.9,546.8 '/>
		<polygon fill = 'rgb( 31, 120, 180)' fill-opacity = '0.250000' points = '849.9,546.8 849.9,662.4 851.8,662.4 851.8,548.5 '/>
		<polygon fill = 'rgb( 31, 120, 180)' fill-opacity = '0.250000' points = '851.8,548.5 851.8,662.4 853.7,662.4 853.7,550.1 '/>
		<polygon fill = 'rgb( 31, 120, 180)' fill-opacity = '0.250000' points = '853.7,550.1 853.7,662.4 855.6,662.4 855.6,551.7 '/>
		<polygon fill = 'rgb( 31, 120, 180)' fill-opacity = '0.250000' points = '855.6,551.7 855.6,662.4 857.5,662.4 857.5,553.3 '/>
		<polygon fill = 'rgb( 31, 120, 180)' fill-opacity = '0.250000' points = '857.5,553.3 857.5,662.4 859.4,662.4 859.4,554.8 '/>
		<polygon fill = 'rgb( 31, 120, 180)' fill-opacity = '0.250000' points = '859.4,554.8 859.4,662.4 861.3,662.4 861.3,556.2 '/>
		<polygon fill = 'rgb( 31, 120, 180)' fill-opacity = '0.250000' points = '861.3,556.2 861.3,662.4 863.2,662.4 863.2,557.6 '/>
		<polygon fill = 'rgb( 31, 120, 180)' fill-opacity = '0.250000' points = '863.2,557.6 863.2,662.4 865.1,662.4 865.1,558.9 '/>
		<polygon fill = 'rgb( 31, 120, 180)' fill-opacity = '0.250000' points = '865.1,558.9 865.1,662.4 867.0,662.4 867.0,560.2 '/>
		<polygon fill = 'rgb( 31, 120, 180)' fill-opacity = '0.250000' points = '867.0,560.2 867.0,662.4 868.9,662.4 868.9,561.5 '/>
		<polygon fill = 'rgb( 31, 120, 180)' fill-opacity = '0.250000' points = '868.9,561.5 868.9,662.4 870.8,662.4 870.8,562.7 '/>
		<polygon fill = 'rgb( 31, 120, 180)' fill-opacity = '0.250000' points = '870.8,562.7 870.8,662.4 872.7,662.4 872.7,563.9 '/>
		<polygon fill = 'rgb( 31, 120, 180)' fill-opacity = '0.250000' points = '872.7,563.9 872.7,662.4 874.6,662.4 874.6,565.1 '/>
		<polygon fill = 'rgb( 31, 120, 180)' fill-opacity = '0.250000' points = '874.6,565.1 874.6,662.4 876.5,662.4 876.5,566.3 '/>
		<polygon fill = 'rgb( 31, 120, 180)' fill-opacity = '0.250000' points = '876.5,566.3 876.5,662.4 878.4,662.4 878.4,567.4 '/>
		<polygon fill = 'rgb( 31, 120, 180)' fill-opacity = '0.250000' points = '878.4,567.4 878.4,662.4 880.3,662.4 880.3,568.5 '/>
		<polygon fill = 'rgb( 31, 120, 180)' fill-opacity = '0.250000' points = '880.3,568.5 880.3,662.4 882.2,662.4 882.2,569.6 '/>
		<polygon fill = 'rgb( 31, 120, 180)' fill-opacity = '0.250000' points = '882.2,569.6 882.2,662.4 884.1,662.4 884.1,570.8 '/>
		<polygon fill = 'rgb( 31, 120, 180)' fill-opacity = '0.250000' points = '884.1,570.8 884.1,662.4 886.0,662.4 886.0,571.9 '/>
		<polygon fill = 'rgb( 31, 120, 180)' fill-opacity = '0.250000' points = '886.0,571.9 886.0,662.4 887.9,662.4 887.9,573.0 '/>
		<polygon fill = 'rgb( 31, 120, 180)' fill-opacity = '0.250000' points = '887.9,573.0 887.9,662.4 889.9,662.4 889.9,574.1 '/>
		<polygon fill = 'rgb( 31, 120, 180)' fill-opacity = '0.250000' points = '889.9,574.1 889.9,662.4 891.8,662.4 891.8,575.2 '/>
		<polygon fill = 'rgb( 31, 120, 180)' fill-opacity = '0.250000' points = '891.8,575.2 891.8,662.4 893.7,662.4 893.7,576.3 '/>
		<polygon fill = 'rgb( 31, 120, 180)' fill-opacity = '0.250000' points = '893.7,576.3 893.7,662.4 895.6,662.4 895.6,577.4 '/>
		<polygon fill = 'rgb( 31, 120, 180)' fill-opacity = '0.250000' points = '895.6,577.4 895.6,662.4 897.5,662.4 897.5,578.5 '/>
		<polygon fill = 'rgb( 31, 120, 180)' fill-opacity = '0.250000' points = '897.5,578.5 897.5,662.4 899.4,662.4 899.4,579.6 '/>
		<polygon fill = 'rgb( 31, 120, 180)' fill-opacity = '0.250000' points = '899.4,579.6 899.4,662.4 901.3,662.4 901.3,580.7 '/>
		<polygon fill = 'rgb( 31, 120, 180)' fill-opacity = '0.250000' points = '901.3,580.7 901.3,662.4 903.2,662.4 903.2,581.8 '/>
		<polygon fill = 'rgb( 31, 120, 180)' fill-opacity = '0.250000' points = '903.2,581.8 903.2,662.4 905.1,662.4 905.1,582.9 '/>
		<polygon fill = 'rgb( 31, 120, 180)' fill-opacity = '0.250000' points = '905.1,582.9 905.1,662.4 907.0,662.4 907.0,583.9 '/>
		<polygon fill = 'rgb( 31, 120, 180)' fill-opacity = '0.250000' points = '907.0,583.9 907.0,662.4 908.9,662.4 908.9,585.0 '/>
		<polygon fill = 'rgb( 31, 120, 180)' fill-opacity = '0.250000' points = '908.9,585.0 908.9,662.4 910.8,662.4 910.8,586.1 '/>
		<polygon fill = 'rgb( 31, 120, 180)' fill-opacity = '0.250000' points = '910.8,586.1 910.8,662.4 912.7,662.4 912.7,587.1 '/>
		<polygon fill = 'rgb( 31, 120, 180)' fill-opacity = '0.250000' points = '912.7,587.1 912.7,662.4 914.6,662.4 914.6,588.2 '/>
		<polygon fill = 'rgb( 31, 120, 180)' fill-opacity = '0.250000' points = '914.6,588.2 914.6,662.4 916.5,662.4 916.5,589.2 '/>
		<polygon fill = 'rgb( 31, 120, 180)' fill-opacity = '0.250000' points = '916.5,589.2 916.5,662.4 918.4,662.4 918.4,590.3 '/>
		<polygon fill = 'rgb( 31, 120, 180)' fill-opacity = '0.250000' points = '918.4,590.3 918.4,662.4 920.3,662.4 920.3,591.3 '/>
		<polygon fill = 'rgb( 31, 120, 180)' fill-opacity = '0.250000' points = '920.3,591.3 920.3,662.4 922.2,662.4 922.2,592.3 '/>
		<polygon fill = 'rgb( 31, 120, 180)' fill-opacity = '0.250000' points = '922.2,592.3 922.2,662.4 924.1,662.4 924.1,593.3 '/>
	</g>
</g>
	</g>
	<g id="gnuplot_plot_3" ><title>Point estimate</title>
<g fill="none" color="white" stroke="rgb( 31, 120, 180)" stroke-width="2.00" stroke-linecap="butt" stroke-linejoin="miter">
</g>
<g fill="none" color="black" stroke="currentColor" stroke-width="2.00" stroke-linecap="butt" stroke-linejoin="miter">
	<g transform="translate(1089.0,103.0)" stroke="none" fill="black" font-family="Helvetica" font-size="12.00"  text-anchor="start">
		<text><tspan font-family="Helvetica" >Point estimate</tspan></text>
	</g>
</g>
<g fill="none" color="black" stroke="currentColor" stroke-width="2.00" stroke-linecap="butt" stroke-linejoin="miter">
	<path stroke='rgb( 31, 120, 180)'  d='M1038.5,99.1 L1080.7,99.1 M490.5,662.4 L490.5,89.0  '/></g>
	</g>
<g fill="none" color="black" stroke="currentColor" stroke-width="2.00" stroke-linecap="butt" stroke-linejoin="miter">
</g>
<g fill="none" color="black" stroke="black" stroke-width="1.00" stroke-linecap="butt" stroke-linejoin="miter">
</g>
<g fill="none" color="black" stroke="currentColor" stroke-width="1.00" stroke-linecap="butt" stroke-linejoin="miter">
	<path stroke='black'  d='M63.6,54.1 L63.6,662.4 L1013.6,662.4 L1013.6,54.1 L63.6,54.1 Z  '/></g>
<g fill="none" color="black" stroke="currentColor" stroke-width="1.00" stroke-linecap="butt" stroke-linejoin="miter">
</g>
</g>
</svg>

