<?xml version="1.0" encoding="utf-8"  standalone="no"?>
<svg 
 viewBox="0 0 1280 720"
 xmlns="http://www.w3.org/2000/svg"
 xmlns:xlink="http://www.w3.org/1999/xlink"
>

<title>Gnuplot</title>
<desc>Produced by GNUPLOT 5.0 patchlevel 6 </desc>

<g id="gnuplot_canvas">

<rect x="0" y="0" width="1280" height="720" fill="none"/>
<defs>

	<circle id='gpDot' r='0.5' stroke-width='0.5'/>
	<path id='gpPt0' stroke-width='0.222' stroke='currentColor' d='M-1,0 h2 M0,-1 v2'/>
	<path id='gpPt1' stroke-width='0.222' stroke='currentColor' d='M-1,-1 L1,1 M1,-1 L-1,1'/>
	<path id='gpPt2' stroke-width='0.222' stroke='currentColor' d='M-1,0 L1,0 M0,-1 L0,1 M-1,-1 L1,1 M-1,1 L1,-1'/>
	<rect id='gpPt3' stroke-width='0.222' stroke='currentColor' x='-1' y='-1' width='2' height='2'/>
	<rect id='gpPt4' stroke-width='0.222' stroke='currentColor' fill='currentColor' x='-1' y='-1' width='2' height='2'/>
	<circle id='gpPt5' stroke-width='0.222' stroke='currentColor' cx='0' cy='0' r='1'/>
	<use xlink:href='#gpPt5' id='gpPt6' fill='currentColor' stroke='none'/>
	<path id='gpPt7' stroke-width='0.222' stroke='currentColor' d='M0,-1.33 L-1.33,0.67 L1.33,0.67 z'/>
	<use xlink:href='#gpPt7' id='gpPt8' fill='currentColor' stroke='none'/>
	<use xlink:href='#gpPt7' id='gpPt9' stroke='currentColor' transform='rotate(180)'/>
	<use xlink:href='#gpPt9' id='gpPt10' fill='currentColor' stroke='none'/>
	<use xlink:href='#gpPt3' id='gpPt11' stroke='currentColor' transform='rotate(45)'/>
	<use xlink:href='#gpPt11' id='gpPt12' fill='currentColor' stroke='none'/>
	<path id='gpPt13' stroke-width='0.222' stroke='currentColor' d='M0,1.330 L1.265,0.411 L0.782,-1.067 L-0.782,-1.076 L-1.265,0.411 z'/>
	<use xlink:href='#gpPt13' id='gpPt14' fill='currentColor' stroke='none'/>
	<filter id='textbox' filterUnits='objectBoundingBox' x='0' y='0' height='1' width='1'>
	  <feFlood flood-color='white' flood-opacity='1' result='bgnd'/>
	  <feComposite in='SourceGraphic' in2='bgnd' operator='atop'/>
	</filter>
	<filter id='greybox' filterUnits='objectBoundingBox' x='0' y='0' height='1' width='1'>
	  <feFlood flood-color='lightgrey' flood-opacity='1' result='grey'/>
	  <feComposite in='SourceGraphic' in2='grey' operator='atop'/>
	</filter>
</defs>
<g fill="none" color="white" stroke="currentColor" stroke-width="1.00" stroke-linecap="butt" stroke-linejoin="miter">
</g>
<g fill="none" color="black" stroke="currentColor" stroke-width="1.00" stroke-linecap="butt" stroke-linejoin="miter">
	<path stroke='black'  d='M80.2,662.4 L89.2,662.4  '/>	<g transform="translate(71.9,666.3)" stroke="none" fill="black" font-family="Helvetica" font-size="12.00"  text-anchor="end">
		<text><tspan font-family="Helvetica" > 0</tspan></text>
	</g>
</g>
<g fill="none" color="black" stroke="currentColor" stroke-width="1.00" stroke-linecap="butt" stroke-linejoin="miter">
	<path stroke='black'  d='M80.2,561.0 L89.2,561.0  '/>	<g transform="translate(71.9,564.9)" stroke="none" fill="black" font-family="Helvetica" font-size="12.00"  text-anchor="end">
		<text><tspan font-family="Helvetica" > 0.05</tspan></text>
	</g>
</g>
<g fill="none" color="black" stroke="currentColor" stroke-width="1.00" stroke-linecap="butt" stroke-linejoin="miter">
	<path stroke='black'  d='M80.2,459.6 L89.2,459.6  '/>	<g transform="translate(71.9,463.5)" stroke="none" fill="black" font-family="Helvetica" font-size="12.00"  text-anchor="end">
		<text><tspan font-family="Helvetica" > 0.1</tspan></text>
	</g>
</g>
<g fill="none" color="black" stroke="currentColor" stroke-width="1.00" stroke-linecap="butt" stroke-linejoin="miter">
	<path stroke='black'  d='M80.2,358.2 L89.2,358.2  '/>	<g transform="translate(71.9,362.1)" stroke="none" fill="black" font-family="Helvetica" font-size="12.00"  text-anchor="end">
		<text><tspan font-family="Helvetica" > 0.15</tspan></text>
	</g>
</g>
<g fill="none" color="black" stroke="currentColor" stroke-width="1.00" stroke-linecap="butt" stroke-linejoin="miter">
	<path stroke='black'  d='M80.2,256.9 L89.2,256.9  '/>	<g transform="translate(71.9,260.8)" stroke="none" fill="black" font-family="Helvetica" font-size="12.00"  text-anchor="end">
		<text><tspan font-family="Helvetica" > 0.2</tspan></text>
	</g>
</g>
<g fill="none" color="black" stroke="currentColor" stroke-width="1.00" stroke-linecap="butt" stroke-linejoin="miter">
	<path stroke='black'  d='M80.2,155.5 L89.2,155.5  '/>	<g transform="translate(71.9,159.4)" stroke="none" fill="black" font-family="Helvetica" font-size="12.00"  text-anchor="end">
		<text><tspan font-family="Helvetica" > 0.25</tspan></text>
	</g>
</g>
<g fill="none" color="black" stroke="currentColor" stroke-width="1.00" stroke-linecap="butt" stroke-linejoin="miter">
	<path stroke='black'  d='M80.2,54.1 L89.2,54.1  '/>	<g transform="translate(71.9,58.0)" stroke="none" fill="black" font-family="Helvetica" font-size="12.00"  text-anchor="end">
		<text><tspan font-family="Helvetica" > 0.3</tspan></text>
	</g>
</g>
<g fill="none" color="black" stroke="currentColor" stroke-width="1.00" stroke-linecap="butt" stroke-linejoin="miter">
	<path stroke='black'  d='M199.2,662.4 L199.2,653.4  '/>	<g transform="translate(199.2,684.3)" stroke="none" fill="black" font-family="Helvetica" font-size="12.00"  text-anchor="middle">
		<text><tspan font-family="Helvetica" > 735</tspan></text>
	</g>
</g>
<g fill="none" color="black" stroke="currentColor" stroke-width="1.00" stroke-linecap="butt" stroke-linejoin="miter">
	<path stroke='black'  d='M325.8,662.4 L325.8,653.4  '/>	<g transform="translate(325.8,684.3)" stroke="none" fill="black" font-family="Helvetica" font-size="12.00"  text-anchor="middle">
		<text><tspan font-family="Helvetica" > 736</tspan></text>
	</g>
</g>
<g fill="none" color="black" stroke="currentColor" stroke-width="1.00" stroke-linecap="butt" stroke-linejoin="miter">
	<path stroke='black'  d='M452.3,662.4 L452.3,653.4  '/>	<g transform="translate(452.3,684.3)" stroke="none" fill="black" font-family="Helvetica" font-size="12.00"  text-anchor="middle">
		<text><tspan font-family="Helvetica" > 737</tspan></text>
	</g>
</g>
<g fill="none" color="black" stroke="currentColor" stroke-width="1.00" stroke-linecap="butt" stroke-linejoin="miter">
	<path stroke='black'  d='M578.9,662.4 L578.9,653.4  '/>	<g transform="translate(578.9,684.3)" stroke="none" fill="black" font-family="Helvetica" font-size="12.00"  text-anchor="middle">
		<text><tspan font-family="Helvetica" > 738</tspan></text>
	</g>
</g>
<g fill="none" color="black" stroke="currentColor" stroke-width="1.00" stroke-linecap="butt" stroke-linejoin="miter">
	<path stroke='black'  d='M705.5,662.4 L705.5,653.4  '/>	<g transform="translate(705.5,684.3)" stroke="none" fill="black" font-family="Helvetica" font-size="12.00"  text-anchor="middle">
		<text><tspan font-family="Helvetica" > 739</tspan></text>
	</g>
</g>
<g fill="none" color="black" stroke="currentColor" stroke-width="1.00" stroke-linecap="butt" stroke-linejoin="miter">
	<path stroke='black'  d='M832.0,662.4 L832.0,653.4  '/>	<g transform="translate(832.0,684.3)" stroke="none" fill="black" font-family="Helvetica" font-size="12.00"  text-anchor="middle">
		<text><tspan font-family="Helvetica" > 740</tspan></text>
	</g>
</g>
<g fill="none" color="black" stroke="currentColor" stroke-width="1.00" stroke-linecap="butt" stroke-linejoin="miter">
	<path stroke='black'  d='M958.6,662.4 L958.6,653.4  '/>	<g transform="translate(958.6,684.3)" stroke="none" fill="black" font-family="Helvetica" font-size="12.00"  text-anchor="middle">
		<text><tspan font-family="Helvetica" > 741</tspan></text>
	</g>
</g>
<g fill="none" color="black" stroke="currentColor" stroke-width="1.00" stroke-linecap="butt" stroke-linejoin="miter">
</g>
<g fill="none" color="black" stroke="currentColor" stroke-width="1.00" stroke-linecap="butt" stroke-linejoin="miter">
	<path stroke='black'  d='M80.2,54.1 L80.2,662.4 L1013.6,662.4 L1013.6,54.1 L80.2,54.1 Z  '/></g>
<g fill="none" color="black" stroke="currentColor" stroke-width="1.00" stroke-linecap="butt" stroke-linejoin="miter">
	<g transform="translate(17.0,358.3) rotate(270)" stroke="none" fill="black" font-family="Helvetica" font-size="12.00"  text-anchor="middle">
		<text><tspan font-family="Helvetica" >Density (a.u.)</tspan></text>
	</g>
</g>
<g fill="none" color="black" stroke="currentColor" stroke-width="1.00" stroke-linecap="butt" stroke-linejoin="miter">
	<g transform="translate(546.9,711.3)" stroke="none" fill="black" font-family="Helvetica" font-size="12.00"  text-anchor="middle">
		<text><tspan font-family="Helvetica" >Average time (us)</tspan></text>
	</g>
</g>
<g fill="none" color="black" stroke="currentColor" stroke-width="1.00" stroke-linecap="butt" stroke-linejoin="miter">
	<g transform="translate(546.9,31.0)" stroke="none" fill="black" font-family="Helvetica" font-size="12.00"  text-anchor="middle">
		<text><tspan font-family="Helvetica" >language: cpp/parse normal: cpp/examples/marker-index.h: mean</tspan></text>
	</g>
</g>
	<g id="gnuplot_plot_1" ><title>Bootstrap distribution</title>
<g fill="none" color="white" stroke="black" stroke-width="2.00" stroke-linecap="butt" stroke-linejoin="miter">
</g>
<g fill="none" color="black" stroke="currentColor" stroke-width="2.00" stroke-linecap="butt" stroke-linejoin="miter">
	<g transform="translate(1089.0,67.0)" stroke="none" fill="black" font-family="Helvetica" font-size="12.00"  text-anchor="start">
		<text><tspan font-family="Helvetica" >Bootstrap distribution</tspan></text>
	</g>
</g>
<g fill="none" color="black" stroke="currentColor" stroke-width="2.00" stroke-linecap="butt" stroke-linejoin="miter">
	<path stroke='rgb( 31, 120, 180)'  d='M1038.5,63.1 L1080.7,63.1 M80.2,636.3 L82.1,635.1 L83.9,633.8 L85.8,632.5 L87.7,631.1 L89.6,629.7
		L91.4,628.2 L93.3,626.7 L95.2,625.2 L97.0,623.5 L98.9,621.9 L100.8,620.1 L102.6,618.4 L104.5,616.5
		L106.4,614.6 L108.3,612.7 L110.1,610.7 L112.0,608.7 L113.9,606.6 L115.7,604.4 L117.6,602.3 L119.5,600.0
		L121.4,597.7 L123.2,595.4 L125.1,593.1 L127.0,590.7 L128.8,588.2 L130.7,585.8 L132.6,583.2 L134.4,580.7
		L136.3,578.1 L138.2,575.5 L140.1,572.9 L141.9,570.2 L143.8,567.5 L145.7,564.8 L147.5,562.0 L149.4,559.2
		L151.3,556.3 L153.2,553.5 L155.0,550.6 L156.9,547.6 L158.8,544.6 L160.6,541.6 L162.5,538.6 L164.4,535.5
		L166.2,532.3 L168.1,529.1 L170.0,525.9 L171.9,522.6 L173.7,519.3 L175.6,515.9 L177.5,512.5 L179.3,509.1
		L181.2,505.6 L183.1,502.0 L185.0,498.4 L186.8,494.7 L188.7,491.0 L190.6,487.3 L192.4,483.5 L194.3,479.6
		L196.2,475.8 L198.0,471.8 L199.9,467.9 L201.8,463.9 L203.7,459.9 L205.5,455.9 L207.4,451.8 L209.3,447.7
		L211.1,443.6 L213.0,439.5 L214.9,435.4 L216.7,431.3 L218.6,427.2 L220.5,423.1 L222.4,419.0 L224.2,414.9
		L226.1,410.8 L228.0,406.7 L229.8,402.7 L231.7,398.7 L233.6,394.7 L235.5,390.7 L237.3,386.8 L239.2,382.9
		L241.1,379.0 L242.9,375.1 L244.8,371.3 L246.7,367.6 L248.5,363.8 L250.4,360.1 L252.3,356.5 L254.2,352.9
		L256.0,349.3 L257.9,345.7 L259.8,342.2 L261.6,338.7 L263.5,335.2 L265.4,331.7 L267.3,328.3 L269.1,324.9
		L271.0,321.4 L272.9,318.0 L274.7,314.5 L276.6,311.0 L278.5,307.5 L280.3,304.0 L282.2,300.5 L284.1,296.9
		L286.0,293.3 L287.8,289.6 L289.7,286.0 L291.6,282.3 L293.4,278.5 L295.3,274.8 L297.2,271.0 L299.1,267.2
		L300.9,263.4 L302.8,259.6 L304.7,255.8 L306.5,252.0 L308.4,248.3 L310.3,244.6 L312.1,240.9 L314.0,237.3
		L315.9,233.7 L317.8,230.2 L319.6,226.8 L321.5,223.4 L323.4,220.1 L325.2,216.9 L327.1,213.8 L329.0,210.7
		L330.9,207.8 L332.7,204.9 L334.6,202.2 L336.5,199.6 L338.3,197.1 L340.2,194.6 L342.1,192.3 L343.9,190.1
		L345.8,188.0 L347.7,186.0 L349.6,184.0 L351.4,182.2 L353.3,180.4 L355.2,178.7 L357.0,177.1 L358.9,175.5
		L360.8,173.9 L362.7,172.4 L364.5,171.0 L366.4,169.5 L368.3,168.1 L370.1,166.6 L372.0,165.2 L373.9,163.8
		L375.7,162.4 L377.6,160.9 L379.5,159.5 L381.4,158.1 L383.2,156.6 L385.1,155.2 L387.0,153.8 L388.8,152.4
		L390.7,151.0 L392.6,149.7 L394.5,148.4 L396.3,147.1 L398.2,145.9 L400.1,144.7 L401.9,143.7 L403.8,142.7
		L405.7,141.8 L407.5,140.9 L409.4,140.2 L411.3,139.5 L413.2,138.9 L415.0,138.4 L416.9,138.0 L418.8,137.6
		L420.6,137.3 L422.5,137.0 L424.4,136.8 L426.3,136.6 L428.1,136.5 L430.0,136.4 L431.9,136.3 L433.7,136.2
		L435.6,136.2 L437.5,136.1 L439.3,136.1 L441.2,136.1 L443.1,136.2 L445.0,136.3 L446.8,136.4 L448.7,136.6
		L450.6,136.8 L452.4,137.1 L454.3,137.4 L456.2,137.9 L458.0,138.4 L459.9,138.9 L461.8,139.6 L463.7,140.4
		L465.5,141.2 L467.4,142.1 L469.3,143.1 L471.1,144.2 L473.0,145.3 L474.9,146.5 L476.8,147.8 L478.6,149.1
		L480.5,150.4 L482.4,151.8 L484.2,153.2 L486.1,154.7 L488.0,156.1 L489.8,157.6 L491.7,159.1 L493.6,160.6
		L495.5,162.1 L497.3,163.6 L499.2,165.2 L501.1,166.7 L502.9,168.3 L504.8,169.9 L506.7,171.5 L508.6,173.2
		L510.4,174.8 L512.3,176.5 L514.2,178.2 L516.0,180.0 L517.9,181.8 L519.8,183.7 L521.6,185.6 L523.5,187.5
		L525.4,189.5 L527.3,191.5 L529.1,193.5 L531.0,195.6 L532.9,197.7 L534.7,199.9 L536.6,202.0 L538.5,204.2
		L540.4,206.5 L542.2,208.7 L544.1,210.9 L546.0,213.2 L547.8,215.4 L549.7,217.6 L551.6,219.9 L553.4,222.1
		L555.3,224.3 L557.2,226.5 L559.1,228.7 L560.9,230.9 L562.8,233.0 L564.7,235.2 L566.5,237.3 L568.4,239.5
		L570.3,241.6 L572.2,243.7 L574.0,245.8 L575.9,248.0 L577.8,250.1 L579.6,252.2 L581.5,254.3 L583.4,256.5
		L585.2,258.6 L587.1,260.8 L589.0,262.9 L590.9,265.1 L592.7,267.2 L594.6,269.4 L596.5,271.6 L598.3,273.8
		L600.2,276.0 L602.1,278.2 L604.0,280.4 L605.8,282.6 L607.7,284.9 L609.6,287.1 L611.4,289.3 L613.3,291.6
		L615.2,293.8 L617.0,296.1 L618.9,298.3 L620.8,300.5 L622.7,302.8 L624.5,305.0 L626.4,307.2 L628.3,309.5
		L630.1,311.7 L632.0,314.0 L633.9,316.2 L635.8,318.4 L637.6,320.7 L639.5,322.9 L641.4,325.1 L643.2,327.4
		L645.1,329.6 L647.0,331.9 L648.8,334.2 L650.7,336.4 L652.6,338.7 L654.5,341.0 L656.3,343.4 L658.2,345.7
		L660.1,348.1 L661.9,350.5 L663.8,352.9 L665.7,355.3 L667.5,357.8 L669.4,360.3 L671.3,362.9 L673.2,365.5
		L675.0,368.1 L676.9,370.7 L678.8,373.4 L680.6,376.1 L682.5,378.9 L684.4,381.7 L686.3,384.5 L688.1,387.3
		L690.0,390.2 L691.9,393.0 L693.7,395.9 L695.6,398.7 L697.5,401.6 L699.3,404.4 L701.2,407.2 L703.1,410.0
		L705.0,412.7 L706.8,415.5 L708.7,418.1 L710.6,420.8 L712.4,423.3 L714.3,425.9 L716.2,428.4 L718.1,430.8
		L719.9,433.2 L721.8,435.6 L723.7,437.9 L725.5,440.1 L727.4,442.3 L729.3,444.5 L731.1,446.6 L733.0,448.7
		L734.9,450.8 L736.8,452.9 L738.6,454.9 L740.5,456.9 L742.4,458.9 L744.2,460.8 L746.1,462.8 L748.0,464.7
		L749.9,466.6 L751.7,468.5 L753.6,470.5 L755.5,472.4 L757.3,474.3 L759.2,476.3 L761.1,478.2 L762.9,480.2
		L764.8,482.2 L766.7,484.2 L768.6,486.2 L770.4,488.2 L772.3,490.3 L774.2,492.3 L776.0,494.4 L777.9,496.5
		L779.8,498.6 L781.7,500.7 L783.5,502.8 L785.4,504.9 L787.3,507.0 L789.1,509.0 L791.0,511.1 L792.9,513.1
		L794.7,515.1 L796.6,517.1 L798.5,519.0 L800.4,520.9 L802.2,522.7 L804.1,524.5 L806.0,526.3 L807.8,528.0
		L809.7,529.6 L811.6,531.2 L813.5,532.8 L815.3,534.3 L817.2,535.7 L819.1,537.2 L820.9,538.6 L822.8,539.9
		L824.7,541.3 L826.5,542.6 L828.4,543.9 L830.3,545.3 L832.2,546.6 L834.0,547.9 L835.9,549.2 L837.8,550.5
		L839.6,551.8 L841.5,553.2 L843.4,554.5 L845.3,555.9 L847.1,557.2 L849.0,558.6 L850.9,560.0 L852.7,561.4
		L854.6,562.8 L856.5,564.1 L858.3,565.5 L860.2,566.9 L862.1,568.2 L864.0,569.6 L865.8,570.9 L867.7,572.2
		L869.6,573.4 L871.4,574.6 L873.3,575.8 L875.2,577.0 L877.1,578.1 L878.9,579.2 L880.8,580.3 L882.7,581.4
		L884.5,582.4 L886.4,583.4 L888.3,584.4 L890.1,585.3 L892.0,586.3 L893.9,587.2 L895.8,588.1 L897.6,589.0
		L899.5,589.9 L901.4,590.9 L903.2,591.8 L905.1,592.7 L907.0,593.6 L908.8,594.6 L910.7,595.5 L912.6,596.5
		L914.5,597.5 L916.3,598.4 L918.2,599.4 L920.1,600.4 L921.9,601.4 L923.8,602.4 L925.7,603.4 L927.6,604.4
		L929.4,605.4 L931.3,606.4 L933.2,607.4 L935.0,608.3 L936.9,609.2 L938.8,610.2 L940.6,611.0 L942.5,611.9
		L944.4,612.8 L946.3,613.6 L948.1,614.4 L950.0,615.1 L951.9,615.9 L953.7,616.6 L955.6,617.3 L957.5,617.9
		L959.4,618.6 L961.2,619.2 L963.1,619.8 L965.0,620.4 L966.8,621.0 L968.7,621.5 L970.6,622.1 L972.4,622.6
		L974.3,623.2 L976.2,623.7 L978.1,624.2 L979.9,624.7 L981.8,625.2 L983.7,625.8 L985.5,626.3 L987.4,626.7
		L989.3,627.2 L991.2,627.7 L993.0,628.2 L994.9,628.6 L996.8,629.1 L998.6,629.5 L1000.5,630.0 L1002.4,630.4
		L1004.2,630.8 L1006.1,631.2 L1008.0,631.6 L1009.9,632.0 L1011.7,632.4 L1013.6,632.7  '/></g>
	</g>
	<g id="gnuplot_plot_2" ><title>Confidence interval</title>
<g fill="none" color="white" stroke="rgb( 31, 120, 180)" stroke-width="1.00" stroke-linecap="butt" stroke-linejoin="miter">
</g>
<g fill="none" color="black" stroke="currentColor" stroke-width="1.00" stroke-linecap="butt" stroke-linejoin="miter">
	<g transform="translate(1089.0,85.0)" stroke="none" fill="black" font-family="Helvetica" font-size="12.00"  text-anchor="start">
		<text><tspan font-family="Helvetica" >Confidence interval</tspan></text>
	</g>
</g>
<g fill="none" color="black" stroke="currentColor" stroke-width="1.00" stroke-linecap="butt" stroke-linejoin="miter">
	<g stroke='none' shape-rendering='crispEdges'>
		<polygon fill = 'rgb( 31, 120, 180)' fill-opacity = '0.250000' points = '1038.5,85.6 1080.7,85.6 1080.7,76.6 1038.5,76.6 '/>
		<polygon fill = 'rgb( 31, 120, 180)' fill-opacity = '0.250000' points = '166.2,532.3 166.2,662.4 168.1,662.4 168.1,529.1 '/>
		<polygon fill = 'rgb( 31, 120, 180)' fill-opacity = '0.250000' points = '168.1,529.1 168.1,662.4 170.0,662.4 170.0,525.9 '/>
		<polygon fill = 'rgb( 31, 120, 180)' fill-opacity = '0.250000' points = '170.0,525.9 170.0,662.4 171.9,662.4 171.9,522.6 '/>
		<polygon fill = 'rgb( 31, 120, 180)' fill-opacity = '0.250000' points = '171.9,522.6 171.9,662.4 173.7,662.4 173.7,519.3 '/>
		<polygon fill = 'rgb( 31, 120, 180)' fill-opacity = '0.250000' points = '173.7,519.3 173.7,662.4 175.6,662.4 175.6,515.9 '/>
		<polygon fill = 'rgb( 31, 120, 180)' fill-opacity = '0.250000' points = '175.6,515.9 175.6,662.4 177.5,662.4 177.5,512.5 '/>
		<polygon fill = 'rgb( 31, 120, 180)' fill-opacity = '0.250000' points = '177.5,512.5 177.5,662.4 179.3,662.4 179.3,509.1 '/>
		<polygon fill = 'rgb( 31, 120, 180)' fill-opacity = '0.250000' points = '179.3,509.1 179.3,662.4 181.2,662.4 181.2,505.6 '/>
		<polygon fill = 'rgb( 31, 120, 180)' fill-opacity = '0.250000' points = '181.2,505.6 181.2,662.4 183.1,662.4 183.1,502.0 '/>
		<polygon fill = 'rgb( 31, 120, 180)' fill-opacity = '0.250000' points = '183.1,502.0 183.1,662.4 185.0,662.4 185.0,498.4 '/>
		<polygon fill = 'rgb( 31, 120, 180)' fill-opacity = '0.250000' points = '185.0,498.4 185.0,662.4 186.8,662.4 186.8,494.7 '/>
		<polygon fill = 'rgb( 31, 120, 180)' fill-opacity = '0.250000' points = '186.8,494.7 186.8,662.4 188.7,662.4 188.7,491.0 '/>
		<polygon fill = 'rgb( 31, 120, 180)' fill-opacity = '0.250000' points = '188.7,491.0 188.7,662.4 190.6,662.4 190.6,487.3 '/>
		<polygon fill = 'rgb( 31, 120, 180)' fill-opacity = '0.250000' points = '190.6,487.3 190.6,662.4 192.4,662.4 192.4,483.5 '/>
		<polygon fill = 'rgb( 31, 120, 180)' fill-opacity = '0.250000' points = '192.4,483.5 192.4,662.4 194.3,662.4 194.3,479.6 '/>
		<polygon fill = 'rgb( 31, 120, 180)' fill-opacity = '0.250000' points = '194.3,479.6 194.3,662.4 196.2,662.4 196.2,475.8 '/>
		<polygon fill = 'rgb( 31, 120, 180)' fill-opacity = '0.250000' points = '196.2,475.8 196.2,662.4 198.0,662.4 198.0,471.8 '/>
		<polygon fill = 'rgb( 31, 120, 180)' fill-opacity = '0.250000' points = '198.0,471.8 198.0,662.4 199.9,662.4 199.9,467.9 '/>
		<polygon fill = 'rgb( 31, 120, 180)' fill-opacity = '0.250000' points = '199.9,467.9 199.9,662.4 201.8,662.4 201.8,463.9 '/>
		<polygon fill = 'rgb( 31, 120, 180)' fill-opacity = '0.250000' points = '201.8,463.9 201.8,662.4 203.7,662.4 203.7,459.9 '/>
		<polygon fill = 'rgb( 31, 120, 180)' fill-opacity = '0.250000' points = '203.7,459.9 203.7,662.4 205.5,662.4 205.5,455.9 '/>
		<polygon fill = 'rgb( 31, 120, 180)' fill-opacity = '0.250000' points = '205.5,455.9 205.5,662.4 207.4,662.4 207.4,451.8 '/>
		<polygon fill = 'rgb( 31, 120, 180)' fill-opacity = '0.250000' points = '207.4,451.8 207.4,662.4 209.3,662.4 209.3,447.7 '/>
		<polygon fill = 'rgb( 31, 120, 180)' fill-opacity = '0.250000' points = '209.3,447.7 209.3,662.4 211.1,662.4 211.1,443.6 '/>
		<polygon fill = 'rgb( 31, 120, 180)' fill-opacity = '0.250000' points = '211.1,443.6 211.1,662.4 213.0,662.4 213.0,439.5 '/>
		<polygon fill = 'rgb( 31, 120, 180)' fill-opacity = '0.250000' points = '213.0,439.5 213.0,662.4 214.9,662.4 214.9,435.4 '/>
		<polygon fill = 'rgb( 31, 120, 180)' fill-opacity = '0.250000' points = '214.9,435.4 214.9,662.4 216.7,662.4 216.7,431.3 '/>
		<polygon fill = 'rgb( 31, 120, 180)' fill-opacity = '0.250000' points = '216.7,431.3 216.7,662.4 218.6,662.4 218.6,427.2 '/>
		<polygon fill = 'rgb( 31, 120, 180)' fill-opacity = '0.250000' points = '218.6,427.2 218.6,662.4 220.5,662.4 220.5,423.1 '/>
		<polygon fill = 'rgb( 31, 120, 180)' fill-opacity = '0.250000' points = '220.5,423.1 220.5,662.4 222.4,662.4 222.4,419.0 '/>
		<polygon fill = 'rgb( 31, 120, 180)' fill-opacity = '0.250000' points = '222.4,419.0 222.4,662.4 224.2,662.4 224.2,414.9 '/>
		<polygon fill = 'rgb( 31, 120, 180)' fill-opacity = '0.250000' points = '224.2,414.9 224.2,662.4 226.1,662.4 226.1,410.8 '/>
		<polygon fill = 'rgb( 31, 120, 180)' fill-opacity = '0.250000' points = '226.1,410.8 226.1,662.4 228.0,662.4 228.0,406.7 '/>
		<polygon fill = 'rgb( 31, 120, 180)' fill-opacity = '0.250000' points = '228.0,406.7 228.0,662.4 229.8,662.4 229.8,402.7 '/>
		<polygon fill = 'rgb( 31, 120, 180)' fill-opacity = '0.250000' points = '229.8,402.7 229.8,662.4 231.7,662.4 231.7,398.7 '/>
		<polygon fill = 'rgb( 31, 120, 180)' fill-opacity = '0.250000' points = '231.7,398.7 231.7,662.4 233.6,662.4 233.6,394.7 '/>
		<polygon fill = 'rgb( 31, 120, 180)' fill-opacity = '0.250000' points = '233.6,394.7 233.6,662.4 235.5,662.4 235.5,390.7 '/>
		<polygon fill = 'rgb( 31, 120, 180)' fill-opacity = '0.250000' points = '235.5,390.7 235.5,662.4 237.3,662.4 237.3,386.8 '/>
		<polygon fill = 'rgb( 31, 120, 180)' fill-opacity = '0.250000' points = '237.3,386.8 237.3,662.4 239.2,662.4 239.2,382.9 '/>
		<polygon fill = 'rgb( 31, 120, 180)' fill-opacity = '0.250000' points = '239.2,382.9 239.2,662.4 241.1,662.4 241.1,379.0 '/>
		<polygon fill = 'rgb( 31, 120, 180)' fill-opacity = '0.250000' points = '241.1,379.0 241.1,662.4 242.9,662.4 242.9,375.1 '/>
		<polygon fill = 'rgb( 31, 120, 180)' fill-opacity = '0.250000' points = '242.9,375.1 242.9,662.4 244.8,662.4 244.8,371.3 '/>
		<polygon fill = 'rgb( 31, 120, 180)' fill-opacity = '0.250000' points = '244.8,371.3 244.8,662.4 246.7,662.4 246.7,367.6 '/>
		<polygon fill = 'rgb( 31, 120, 180)' fill-opacity = '0.250000' points = '246.7,367.6 246.7,662.4 248.5,662.4 248.5,363.8 '/>
		<polygon fill = 'rgb( 31, 120, 180)' fill-opacity = '0.250000' points = '248.5,363.8 248.5,662.4 250.4,662.4 250.4,360.1 '/>
		<polygon fill = 'rgb( 31, 120, 180)' fill-opacity = '0.250000' points = '250.4,360.1 250.4,662.4 252.3,662.4 252.3,356.5 '/>
		<polygon fill = 'rgb( 31, 120, 180)' fill-opacity = '0.250000' points = '252.3,356.5 252.3,662.4 254.2,662.4 254.2,352.9 '/>
		<polygon fill = 'rgb( 31, 120, 180)' fill-opacity = '0.250000' points = '254.2,352.9 254.2,662.4 256.0,662.4 256.0,349.3 '/>
		<polygon fill = 'rgb( 31, 120, 180)' fill-opacity = '0.250000' points = '256.0,349.3 256.0,662.4 257.9,662.4 257.9,345.7 '/>
		<polygon fill = 'rgb( 31, 120, 180)' fill-opacity = '0.250000' points = '257.9,345.7 257.9,662.4 259.8,662.4 259.8,342.2 '/>
		<polygon fill = 'rgb( 31, 120, 180)' fill-opacity = '0.250000' points = '259.8,342.2 259.8,662.4 261.6,662.4 261.6,338.7 '/>
		<polygon fill = 'rgb( 31, 120, 180)' fill-opacity = '0.250000' points = '261.6,338.7 261.6,662.4 263.5,662.4 263.5,335.2 '/>
		<polygon fill = 'rgb( 31, 120, 180)' fill-opacity = '0.250000' points = '263.5,335.2 263.5,662.4 265.4,662.4 265.4,331.7 '/>
		<polygon fill = 'rgb( 31, 120, 180)' fill-opacity = '0.250000' points = '265.4,331.7 265.4,662.4 267.3,662.4 267.3,328.3 '/>
		<polygon fill = 'rgb( 31, 120, 180)' fill-opacity = '0.250000' points = '267.3,328.3 267.3,662.4 269.1,662.4 269.1,324.9 '/>
		<polygon fill = 'rgb( 31, 120, 180)' fill-opacity = '0.250000' points = '269.1,324.9 269.1,662.4 271.0,662.4 271.0,321.4 '/>
		<polygon fill = 'rgb( 31, 120, 180)' fill-opacity = '0.250000' points = '271.0,321.4 271.0,662.4 272.9,662.4 272.9,318.0 '/>
		<polygon fill = 'rgb( 31, 120, 180)' fill-opacity = '0.250000' points = '272.9,318.0 272.9,662.4 274.7,662.4 274.7,314.5 '/>
		<polygon fill = 'rgb( 31, 120, 180)' fill-opacity = '0.250000' points = '274.7,314.5 274.7,662.4 276.6,662.4 276.6,311.0 '/>
		<polygon fill = 'rgb( 31, 120, 180)' fill-opacity = '0.250000' points = '276.6,311.0 276.6,662.4 278.5,662.4 278.5,307.5 '/>
		<polygon fill = 'rgb( 31, 120, 180)' fill-opacity = '0.250000' points = '278.5,307.5 278.5,662.4 280.3,662.4 280.3,304.0 '/>
		<polygon fill = 'rgb( 31, 120, 180)' fill-opacity = '0.250000' points = '280.3,304.0 280.3,662.4 282.2,662.4 282.2,300.5 '/>
		<polygon fill = 'rgb( 31, 120, 180)' fill-opacity = '0.250000' points = '282.2,300.5 282.2,662.4 284.1,662.4 284.1,296.9 '/>
		<polygon fill = 'rgb( 31, 120, 180)' fill-opacity = '0.250000' points = '284.1,296.9 284.1,662.4 286.0,662.4 286.0,293.3 '/>
		<polygon fill = 'rgb( 31, 120, 180)' fill-opacity = '0.250000' points = '286.0,293.3 286.0,662.4 287.8,662.4 287.8,289.6 '/>
		<polygon fill = 'rgb( 31, 120, 180)' fill-opacity = '0.250000' points = '287.8,289.6 287.8,662.4 289.7,662.4 289.7,286.0 '/>
		<polygon fill = 'rgb( 31, 120, 180)' fill-opacity = '0.250000' points = '289.7,286.0 289.7,662.4 291.6,662.4 291.6,282.3 '/>
		<polygon fill = 'rgb( 31, 120, 180)' fill-opacity = '0.250000' points = '291.6,282.3 291.6,662.4 293.4,662.4 293.4,278.5 '/>
		<polygon fill = 'rgb( 31, 120, 180)' fill-opacity = '0.250000' points = '293.4,278.5 293.4,662.4 295.3,662.4 295.3,274.8 '/>
		<polygon fill = 'rgb( 31, 120, 180)' fill-opacity = '0.250000' points = '295.3,274.8 295.3,662.4 297.2,662.4 297.2,271.0 '/>
		<polygon fill = 'rgb( 31, 120, 180)' fill-opacity = '0.250000' points = '297.2,271.0 297.2,662.4 299.1,662.4 299.1,267.2 '/>
		<polygon fill = 'rgb( 31, 120, 180)' fill-opacity = '0.250000' points = '299.1,267.2 299.1,662.4 300.9,662.4 300.9,263.4 '/>
		<polygon fill = 'rgb( 31, 120, 180)' fill-opacity = '0.250000' points = '300.9,263.4 300.9,662.4 302.8,662.4 302.8,259.6 '/>
		<polygon fill = 'rgb( 31, 120, 180)' fill-opacity = '0.250000' points = '302.8,259.6 302.8,662.4 304.7,662.4 304.7,255.8 '/>
		<polygon fill = 'rgb( 31, 120, 180)' fill-opacity = '0.250000' points = '304.7,255.8 304.7,662.4 306.5,662.4 306.5,252.0 '/>
		<polygon fill = 'rgb( 31, 120, 180)' fill-opacity = '0.250000' points = '306.5,252.0 306.5,662.4 308.4,662.4 308.4,248.3 '/>
		<polygon fill = 'rgb( 31, 120, 180)' fill-opacity = '0.250000' points = '308.4,248.3 308.4,662.4 310.3,662.4 310.3,244.6 '/>
		<polygon fill = 'rgb( 31, 120, 180)' fill-opacity = '0.250000' points = '310.3,244.6 310.3,662.4 312.1,662.4 312.1,240.9 '/>
		<polygon fill = 'rgb( 31, 120, 180)' fill-opacity = '0.250000' points = '312.1,240.9 312.1,662.4 314.0,662.4 314.0,237.3 '/>
		<polygon fill = 'rgb( 31, 120, 180)' fill-opacity = '0.250000' points = '314.0,237.3 314.0,662.4 315.9,662.4 315.9,233.7 '/>
		<polygon fill = 'rgb( 31, 120, 180)' fill-opacity = '0.250000' points = '315.9,233.7 315.9,662.4 317.8,662.4 317.8,230.2 '/>
		<polygon fill = 'rgb( 31, 120, 180)' fill-opacity = '0.250000' points = '317.8,230.2 317.8,662.4 319.6,662.4 319.6,226.8 '/>
		<polygon fill = 'rgb( 31, 120, 180)' fill-opacity = '0.250000' points = '319.6,226.8 319.6,662.4 321.5,662.4 321.5,223.4 '/>
		<polygon fill = 'rgb( 31, 120, 180)' fill-opacity = '0.250000' points = '321.5,223.4 321.5,662.4 323.4,662.4 323.4,220.1 '/>
		<polygon fill = 'rgb( 31, 120, 180)' fill-opacity = '0.250000' points = '323.4,220.1 323.4,662.4 325.2,662.4 325.2,216.9 '/>
		<polygon fill = 'rgb( 31, 120, 180)' fill-opacity = '0.250000' points = '325.2,216.9 325.2,662.4 327.1,662.4 327.1,213.8 '/>
		<polygon fill = 'rgb( 31, 120, 180)' fill-opacity = '0.250000' points = '327.1,213.8 327.1,662.4 329.0,662.4 329.0,210.7 '/>
		<polygon fill = 'rgb( 31, 120, 180)' fill-opacity = '0.250000' points = '329.0,210.7 329.0,662.4 330.9,662.4 330.9,207.8 '/>
		<polygon fill = 'rgb( 31, 120, 180)' fill-opacity = '0.250000' points = '330.9,207.8 330.9,662.4 332.7,662.4 332.7,204.9 '/>
		<polygon fill = 'rgb( 31, 120, 180)' fill-opacity = '0.250000' points = '332.7,204.9 332.7,662.4 334.6,662.4 334.6,202.2 '/>
		<polygon fill = 'rgb( 31, 120, 180)' fill-opacity = '0.250000' points = '334.6,202.2 334.6,662.4 336.5,662.4 336.5,199.6 '/>
		<polygon fill = 'rgb( 31, 120, 180)' fill-opacity = '0.250000' points = '336.5,199.6 336.5,662.4 338.3,662.4 338.3,197.1 '/>
		<polygon fill = 'rgb( 31, 120, 180)' fill-opacity = '0.250000' points = '338.3,197.1 338.3,662.4 340.2,662.4 340.2,194.6 '/>
		<polygon fill = 'rgb( 31, 120, 180)' fill-opacity = '0.250000' points = '340.2,194.6 340.2,662.4 342.1,662.4 342.1,192.3 '/>
		<polygon fill = 'rgb( 31, 120, 180)' fill-opacity = '0.250000' points = '342.1,192.3 342.1,662.4 343.9,662.4 343.9,190.1 '/>
		<polygon fill = 'rgb( 31, 120, 180)' fill-opacity = '0.250000' points = '343.9,190.1 343.9,662.4 345.8,662.4 345.8,188.0 '/>
		<polygon fill = 'rgb( 31, 120, 180)' fill-opacity = '0.250000' points = '345.8,188.0 345.8,662.4 347.7,662.4 347.7,186.0 '/>
		<polygon fill = 'rgb( 31, 120, 180)' fill-opacity = '0.250000' points = '347.7,186.0 347.7,662.4 349.6,662.4 349.6,184.0 '/>
		<polygon fill = 'rgb( 31, 120, 180)' fill-opacity = '0.250000' points = '349.6,184.0 349.6,662.4 351.4,662.4 351.4,182.2 '/>
		<polygon fill = 'rgb( 31, 120, 180)' fill-opacity = '0.250000' points = '351.4,182.2 351.4,662.4 353.3,662.4 353.3,180.4 '/>
		<polygon fill = 'rgb( 31, 120, 180)' fill-opacity = '0.250000' points = '353.3,180.4 353.3,662.4 355.2,662.4 355.2,178.7 '/>
		<polygon fill = 'rgb( 31, 120, 180)' fill-opacity = '0.250000' points = '355.2,178.7 355.2,662.4 357.0,662.4 357.0,177.1 '/>
		<polygon fill = 'rgb( 31, 120, 180)' fill-opacity = '0.250000' points = '357.0,177.1 357.0,662.4 358.9,662.4 358.9,175.5 '/>
		<polygon fill = 'rgb( 31, 120, 180)' fill-opacity = '0.250000' points = '358.9,175.5 358.9,662.4 360.8,662.4 360.8,173.9 '/>
		<polygon fill = 'rgb( 31, 120, 180)' fill-opacity = '0.250000' points = '360.8,173.9 360.8,662.4 362.7,662.4 362.7,172.4 '/>
		<polygon fill = 'rgb( 31, 120, 180)' fill-opacity = '0.250000' points = '362.7,172.4 362.7,662.4 364.5,662.4 364.5,171.0 '/>
		<polygon fill = 'rgb( 31, 120, 180)' fill-opacity = '0.250000' points = '364.5,171.0 364.5,662.4 366.4,662.4 366.4,169.5 '/>
		<polygon fill = 'rgb( 31, 120, 180)' fill-opacity = '0.250000' points = '366.4,169.5 366.4,662.4 368.3,662.4 368.3,168.1 '/>
		<polygon fill = 'rgb( 31, 120, 180)' fill-opacity = '0.250000' points = '368.3,168.1 368.3,662.4 370.1,662.4 370.1,166.6 '/>
		<polygon fill = 'rgb( 31, 120, 180)' fill-opacity = '0.250000' points = '370.1,166.6 370.1,662.4 372.0,662.4 372.0,165.2 '/>
		<polygon fill = 'rgb( 31, 120, 180)' fill-opacity = '0.250000' points = '372.0,165.2 372.0,662.4 373.9,662.4 373.9,163.8 '/>
		<polygon fill = 'rgb( 31, 120, 180)' fill-opacity = '0.250000' points = '373.9,163.8 373.9,662.4 375.7,662.4 375.7,162.4 '/>
		<polygon fill = 'rgb( 31, 120, 180)' fill-opacity = '0.250000' points = '375.7,162.4 375.7,662.4 377.6,662.4 377.6,160.9 '/>
		<polygon fill = 'rgb( 31, 120, 180)' fill-opacity = '0.250000' points = '377.6,160.9 377.6,662.4 379.5,662.4 379.5,159.5 '/>
		<polygon fill = 'rgb( 31, 120, 180)' fill-opacity = '0.250000' points = '379.5,159.5 379.5,662.4 381.4,662.4 381.4,158.1 '/>
		<polygon fill = 'rgb( 31, 120, 180)' fill-opacity = '0.250000' points = '381.4,158.1 381.4,662.4 383.2,662.4 383.2,156.6 '/>
		<polygon fill = 'rgb( 31, 120, 180)' fill-opacity = '0.250000' points = '383.2,156.6 383.2,662.4 385.1,662.4 385.1,155.2 '/>
		<polygon fill = 'rgb( 31, 120, 180)' fill-opacity = '0.250000' points = '385.1,155.2 385.1,662.4 387.0,662.4 387.0,153.8 '/>
		<polygon fill = 'rgb( 31, 120, 180)' fill-opacity = '0.250000' points = '387.0,153.8 387.0,662.4 388.8,662.4 388.8,152.4 '/>
		<polygon fill = 'rgb( 31, 120, 180)' fill-opacity = '0.250000' points = '388.8,152.4 388.8,662.4 390.7,662.4 390.7,151.0 '/>
		<polygon fill = 'rgb( 31, 120, 180)' fill-opacity = '0.250000' points = '390.7,151.0 390.7,662.4 392.6,662.4 392.6,149.7 '/>
		<polygon fill = 'rgb( 31, 120, 180)' fill-opacity = '0.250000' points = '392.6,149.7 392.6,662.4 394.5,662.4 394.5,148.4 '/>
		<polygon fill = 'rgb( 31, 120, 180)' fill-opacity = '0.250000' points = '394.5,148.4 394.5,662.4 396.3,662.4 396.3,147.1 '/>
		<polygon fill = 'rgb( 31, 120, 180)' fill-opacity = '0.250000' points = '396.3,147.1 396.3,662.4 398.2,662.4 398.2,145.9 '/>
		<polygon fill = 'rgb( 31, 120, 180)' fill-opacity = '0.250000' points = '398.2,145.9 398.2,662.4 400.1,662.4 400.1,144.7 '/>
		<polygon fill = 'rgb( 31, 120, 180)' fill-opacity = '0.250000' points = '400.1,144.7 400.1,662.4 401.9,662.4 401.9,143.7 '/>
		<polygon fill = 'rgb( 31, 120, 180)' fill-opacity = '0.250000' points = '401.9,143.7 401.9,662.4 403.8,662.4 403.8,142.7 '/>
		<polygon fill = 'rgb( 31, 120, 180)' fill-opacity = '0.250000' points = '403.8,142.7 403.8,662.4 405.7,662.4 405.7,141.8 '/>
		<polygon fill = 'rgb( 31, 120, 180)' fill-opacity = '0.250000' points = '405.7,141.8 405.7,662.4 407.5,662.4 407.5,140.9 '/>
		<polygon fill = 'rgb( 31, 120, 180)' fill-opacity = '0.250000' points = '407.5,140.9 407.5,662.4 409.4,662.4 409.4,140.2 '/>
		<polygon fill = 'rgb( 31, 120, 180)' fill-opacity = '0.250000' points = '409.4,140.2 409.4,662.4 411.3,662.4 411.3,139.5 '/>
		<polygon fill = 'rgb( 31, 120, 180)' fill-opacity = '0.250000' points = '411.3,139.5 411.3,662.4 413.2,662.4 413.2,138.9 '/>
		<polygon fill = 'rgb( 31, 120, 180)' fill-opacity = '0.250000' points = '413.2,138.9 413.2,662.4 415.0,662.4 415.0,138.4 '/>
		<polygon fill = 'rgb( 31, 120, 180)' fill-opacity = '0.250000' points = '415.0,138.4 415.0,662.4 416.9,662.4 416.9,138.0 '/>
		<polygon fill = 'rgb( 31, 120, 180)' fill-opacity = '0.250000' points = '416.9,138.0 416.9,662.4 418.8,662.4 418.8,137.6 '/>
		<polygon fill = 'rgb( 31, 120, 180)' fill-opacity = '0.250000' points = '418.8,137.6 418.8,662.4 420.6,662.4 420.6,137.3 '/>
		<polygon fill = 'rgb( 31, 120, 180)' fill-opacity = '0.250000' points = '420.6,137.3 420.6,662.4 422.5,662.4 422.5,137.0 '/>
		<polygon fill = 'rgb( 31, 120, 180)' fill-opacity = '0.250000' points = '422.5,137.0 422.5,662.4 424.4,662.4 424.4,136.8 '/>
		<polygon fill = 'rgb( 31, 120, 180)' fill-opacity = '0.250000' points = '424.4,136.8 424.4,662.4 426.3,662.4 426.3,136.6 '/>
		<polygon fill = 'rgb( 31, 120, 180)' fill-opacity = '0.250000' points = '426.3,136.6 426.3,662.4 428.1,662.4 428.1,136.5 '/>
		<polygon fill = 'rgb( 31, 120, 180)' fill-opacity = '0.250000' points = '428.1,136.5 428.1,662.4 430.0,662.4 430.0,136.4 '/>
		<polygon fill = 'rgb( 31, 120, 180)' fill-opacity = '0.250000' points = '430.0,136.4 430.0,662.4 431.9,662.4 431.9,136.3 '/>
		<polygon fill = 'rgb( 31, 120, 180)' fill-opacity = '0.250000' points = '431.9,136.3 431.9,662.4 433.7,662.4 433.7,136.2 '/>
		<polygon fill = 'rgb( 31, 120, 180)' fill-opacity = '0.250000' points = '433.7,136.2 433.7,662.4 435.6,662.4 435.6,136.2 '/>
		<polygon fill = 'rgb( 31, 120, 180)' fill-opacity = '0.250000' points = '435.6,136.2 435.6,662.4 437.5,662.4 437.5,136.1 '/>
		<polygon fill = 'rgb( 31, 120, 180)' fill-opacity = '0.250000' points = '437.5,136.1 437.5,662.4 439.3,662.4 439.3,136.1 '/>
		<polygon fill = 'rgb( 31, 120, 180)' fill-opacity = '0.250000' points = '439.3,136.1 439.3,662.4 441.2,662.4 441.2,136.1 '/>
		<polygon fill = 'rgb( 31, 120, 180)' fill-opacity = '0.250000' points = '441.2,136.1 441.2,662.4 443.1,662.4 443.1,136.2 '/>
		<polygon fill = 'rgb( 31, 120, 180)' fill-opacity = '0.250000' points = '443.1,136.2 443.1,662.4 445.0,662.4 445.0,136.3 '/>
		<polygon fill = 'rgb( 31, 120, 180)' fill-opacity = '0.250000' points = '445.0,136.3 445.0,662.4 446.8,662.4 446.8,136.4 '/>
		<polygon fill = 'rgb( 31, 120, 180)' fill-opacity = '0.250000' points = '446.8,136.4 446.8,662.4 448.7,662.4 448.7,136.6 '/>
		<polygon fill = 'rgb( 31, 120, 180)' fill-opacity = '0.250000' points = '448.7,136.6 448.7,662.4 450.6,662.4 450.6,136.8 '/>
		<polygon fill = 'rgb( 31, 120, 180)' fill-opacity = '0.250000' points = '450.6,136.8 450.6,662.4 452.4,662.4 452.4,137.1 '/>
		<polygon fill = 'rgb( 31, 120, 180)' fill-opacity = '0.250000' points = '452.4,137.1 452.4,662.4 454.3,662.4 454.3,137.4 '/>
		<polygon fill = 'rgb( 31, 120, 180)' fill-opacity = '0.250000' points = '454.3,137.4 454.3,662.4 456.2,662.4 456.2,137.9 '/>
		<polygon fill = 'rgb( 31, 120, 180)' fill-opacity = '0.250000' points = '456.2,137.9 456.2,662.4 458.0,662.4 458.0,138.4 '/>
		<polygon fill = 'rgb( 31, 120, 180)' fill-opacity = '0.250000' points = '458.0,138.4 458.0,662.4 459.9,662.4 459.9,138.9 '/>
		<polygon fill = 'rgb( 31, 120, 180)' fill-opacity = '0.250000' points = '459.9,138.9 459.9,662.4 461.8,662.4 461.8,139.6 '/>
		<polygon fill = 'rgb( 31, 120, 180)' fill-opacity = '0.250000' points = '461.8,139.6 461.8,662.4 463.7,662.4 463.7,140.4 '/>
		<polygon fill = 'rgb( 31, 120, 180)' fill-opacity = '0.250000' points = '463.7,140.4 463.7,662.4 465.5,662.4 465.5,141.2 '/>
		<polygon fill = 'rgb( 31, 120, 180)' fill-opacity = '0.250000' points = '465.5,141.2 465.5,662.4 467.4,662.4 467.4,142.1 '/>
		<polygon fill = 'rgb( 31, 120, 180)' fill-opacity = '0.250000' points = '467.4,142.1 467.4,662.4 469.3,662.4 469.3,143.1 '/>
		<polygon fill = 'rgb( 31, 120, 180)' fill-opacity = '0.250000' points = '469.3,143.1 469.3,662.4 471.1,662.4 471.1,144.2 '/>
		<polygon fill = 'rgb( 31, 120, 180)' fill-opacity = '0.250000' points = '471.1,144.2 471.1,662.4 473.0,662.4 473.0,145.3 '/>
		<polygon fill = 'rgb( 31, 120, 180)' fill-opacity = '0.250000' points = '473.0,145.3 473.0,662.4 474.9,662.4 474.9,146.5 '/>
		<polygon fill = 'rgb( 31, 120, 180)' fill-opacity = '0.250000' points = '474.9,146.5 474.9,662.4 476.8,662.4 476.8,147.8 '/>
		<polygon fill = 'rgb( 31, 120, 180)' fill-opacity = '0.250000' points = '476.8,147.8 476.8,662.4 478.6,662.4 478.6,149.1 '/>
		<polygon fill = 'rgb( 31, 120, 180)' fill-opacity = '0.250000' points = '478.6,149.1 478.6,662.4 480.5,662.4 480.5,150.4 '/>
		<polygon fill = 'rgb( 31, 120, 180)' fill-opacity = '0.250000' points = '480.5,150.4 480.5,662.4 482.4,662.4 482.4,151.8 '/>
		<polygon fill = 'rgb( 31, 120, 180)' fill-opacity = '0.250000' points = '482.4,151.8 482.4,662.4 484.2,662.4 484.2,153.2 '/>
		<polygon fill = 'rgb( 31, 120, 180)' fill-opacity = '0.250000' points = '484.2,153.2 484.2,662.4 486.1,662.4 486.1,154.7 '/>
		<polygon fill = 'rgb( 31, 120, 180)' fill-opacity = '0.250000' points = '486.1,154.7 486.1,662.4 488.0,662.4 488.0,156.1 '/>
		<polygon fill = 'rgb( 31, 120, 180)' fill-opacity = '0.250000' points = '488.0,156.1 488.0,662.4 489.8,662.4 489.8,157.6 '/>
		<polygon fill = 'rgb( 31, 120, 180)' fill-opacity = '0.250000' points = '489.8,157.6 489.8,662.4 491.7,662.4 491.7,159.1 '/>
		<polygon fill = 'rgb( 31, 120, 180)' fill-opacity = '0.250000' points = '491.7,159.1 491.7,662.4 493.6,662.4 493.6,160.6 '/>
		<polygon fill = 'rgb( 31, 120, 180)' fill-opacity = '0.250000' points = '493.6,160.6 493.6,662.4 495.5,662.4 495.5,162.1 '/>
		<polygon fill = 'rgb( 31, 120, 180)' fill-opacity = '0.250000' points = '495.5,162.1 495.5,662.4 497.3,662.4 497.3,163.6 '/>
		<polygon fill = 'rgb( 31, 120, 180)' fill-opacity = '0.250000' points = '497.3,163.6 497.3,662.4 499.2,662.4 499.2,165.2 '/>
		<polygon fill = 'rgb( 31, 120, 180)' fill-opacity = '0.250000' points = '499.2,165.2 499.2,662.4 501.1,662.4 501.1,166.7 '/>
		<polygon fill = 'rgb( 31, 120, 180)' fill-opacity = '0.250000' points = '501.1,166.7 501.1,662.4 502.9,662.4 502.9,168.3 '/>
		<polygon fill = 'rgb( 31, 120, 180)' fill-opacity = '0.250000' points = '502.9,168.3 502.9,662.4 504.8,662.4 504.8,169.9 '/>
		<polygon fill = 'rgb( 31, 120, 180)' fill-opacity = '0.250000' points = '504.8,169.9 504.8,662.4 506.7,662.4 506.7,171.5 '/>
		<polygon fill = 'rgb( 31, 120, 180)' fill-opacity = '0.250000' points = '506.7,171.5 506.7,662.4 508.6,662.4 508.6,173.2 '/>
		<polygon fill = 'rgb( 31, 120, 180)' fill-opacity = '0.250000' points = '508.6,173.2 508.6,662.4 510.4,662.4 510.4,174.8 '/>
		<polygon fill = 'rgb( 31, 120, 180)' fill-opacity = '0.250000' points = '510.4,174.8 510.4,662.4 512.3,662.4 512.3,176.5 '/>
		<polygon fill = 'rgb( 31, 120, 180)' fill-opacity = '0.250000' points = '512.3,176.5 512.3,662.4 514.2,662.4 514.2,178.2 '/>
		<polygon fill = 'rgb( 31, 120, 180)' fill-opacity = '0.250000' points = '514.2,178.2 514.2,662.4 516.0,662.4 516.0,180.0 '/>
		<polygon fill = 'rgb( 31, 120, 180)' fill-opacity = '0.250000' points = '516.0,180.0 516.0,662.4 517.9,662.4 517.9,181.8 '/>
		<polygon fill = 'rgb( 31, 120, 180)' fill-opacity = '0.250000' points = '517.9,181.8 517.9,662.4 519.8,662.4 519.8,183.7 '/>
		<polygon fill = 'rgb( 31, 120, 180)' fill-opacity = '0.250000' points = '519.8,183.7 519.8,662.4 521.6,662.4 521.6,185.6 '/>
		<polygon fill = 'rgb( 31, 120, 180)' fill-opacity = '0.250000' points = '521.6,185.6 521.6,662.4 523.5,662.4 523.5,187.5 '/>
		<polygon fill = 'rgb( 31, 120, 180)' fill-opacity = '0.250000' points = '523.5,187.5 523.5,662.4 525.4,662.4 525.4,189.5 '/>
		<polygon fill = 'rgb( 31, 120, 180)' fill-opacity = '0.250000' points = '525.4,189.5 525.4,662.4 527.3,662.4 527.3,191.5 '/>
		<polygon fill = 'rgb( 31, 120, 180)' fill-opacity = '0.250000' points = '527.3,191.5 527.3,662.4 529.1,662.4 529.1,193.5 '/>
		<polygon fill = 'rgb( 31, 120, 180)' fill-opacity = '0.250000' points = '529.1,193.5 529.1,662.4 531.0,662.4 531.0,195.6 '/>
		<polygon fill = 'rgb( 31, 120, 180)' fill-opacity = '0.250000' points = '531.0,195.6 531.0,662.4 532.9,662.4 532.9,197.7 '/>
		<polygon fill = 'rgb( 31, 120, 180)' fill-opacity = '0.250000' points = '532.9,197.7 532.9,662.4 534.7,662.4 534.7,199.9 '/>
		<polygon fill = 'rgb( 31, 120, 180)' fill-opacity = '0.250000' points = '534.7,199.9 534.7,662.4 536.6,662.4 536.6,202.0 '/>
		<polygon fill = 'rgb( 31, 120, 180)' fill-opacity = '0.250000' points = '536.6,202.0 536.6,662.4 538.5,662.4 538.5,204.2 '/>
		<polygon fill = 'rgb( 31, 120, 180)' fill-opacity = '0.250000' points = '538.5,204.2 538.5,662.4 540.4,662.4 540.4,206.5 '/>
		<polygon fill = 'rgb( 31, 120, 180)' fill-opacity = '0.250000' points = '540.4,206.5 540.4,662.4 542.2,662.4 542.2,208.7 '/>
		<polygon fill = 'rgb( 31, 120, 180)' fill-opacity = '0.250000' points = '542.2,208.7 542.2,662.4 544.1,662.4 544.1,210.9 '/>
		<polygon fill = 'rgb( 31, 120, 180)' fill-opacity = '0.250000' points = '544.1,210.9 544.1,662.4 546.0,662.4 546.0,213.2 '/>
		<polygon fill = 'rgb( 31, 120, 180)' fill-opacity = '0.250000' points = '546.0,213.2 546.0,662.4 547.8,662.4 547.8,215.4 '/>
		<polygon fill = 'rgb( 31, 120, 180)' fill-opacity = '0.250000' points = '547.8,215.4 547.8,662.4 549.7,662.4 549.7,217.6 '/>
		<polygon fill = 'rgb( 31, 120, 180)' fill-opacity = '0.250000' points = '549.7,217.6 549.7,662.4 551.6,662.4 551.6,219.9 '/>
		<polygon fill = 'rgb( 31, 120, 180)' fill-opacity = '0.250000' points = '551.6,219.9 551.6,662.4 553.4,662.4 553.4,222.1 '/>
		<polygon fill = 'rgb( 31, 120, 180)' fill-opacity = '0.250000' points = '553.4,222.1 553.4,662.4 555.3,662.4 555.3,224.3 '/>
		<polygon fill = 'rgb( 31, 120, 180)' fill-opacity = '0.250000' points = '555.3,224.3 555.3,662.4 557.2,662.4 557.2,226.5 '/>
		<polygon fill = 'rgb( 31, 120, 180)' fill-opacity = '0.250000' points = '557.2,226.5 557.2,662.4 559.1,662.4 559.1,228.7 '/>
		<polygon fill = 'rgb( 31, 120, 180)' fill-opacity = '0.250000' points = '559.1,228.7 559.1,662.4 560.9,662.4 560.9,230.9 '/>
		<polygon fill = 'rgb( 31, 120, 180)' fill-opacity = '0.250000' points = '560.9,230.9 560.9,662.4 562.8,662.4 562.8,233.0 '/>
		<polygon fill = 'rgb( 31, 120, 180)' fill-opacity = '0.250000' points = '562.8,233.0 562.8,662.4 564.7,662.4 564.7,235.2 '/>
		<polygon fill = 'rgb( 31, 120, 180)' fill-opacity = '0.250000' points = '564.7,235.2 564.7,662.4 566.5,662.4 566.5,237.3 '/>
		<polygon fill = 'rgb( 31, 120, 180)' fill-opacity = '0.250000' points = '566.5,237.3 566.5,662.4 568.4,662.4 568.4,239.5 '/>
		<polygon fill = 'rgb( 31, 120, 180)' fill-opacity = '0.250000' points = '568.4,239.5 568.4,662.4 570.3,662.4 570.3,241.6 '/>
		<polygon fill = 'rgb( 31, 120, 180)' fill-opacity = '0.250000' points = '570.3,241.6 570.3,662.4 572.2,662.4 572.2,243.7 '/>
		<polygon fill = 'rgb( 31, 120, 180)' fill-opacity = '0.250000' points = '572.2,243.7 572.2,662.4 574.0,662.4 574.0,245.8 '/>
		<polygon fill = 'rgb( 31, 120, 180)' fill-opacity = '0.250000' points = '574.0,245.8 574.0,662.4 575.9,662.4 575.9,248.0 '/>
		<polygon fill = 'rgb( 31, 120, 180)' fill-opacity = '0.250000' points = '575.9,248.0 575.9,662.4 577.8,662.4 577.8,250.1 '/>
		<polygon fill = 'rgb( 31, 120, 180)' fill-opacity = '0.250000' points = '577.8,250.1 577.8,662.4 579.6,662.4 579.6,252.2 '/>
		<polygon fill = 'rgb( 31, 120, 180)' fill-opacity = '0.250000' points = '579.6,252.2 579.6,662.4 581.5,662.4 581.5,254.3 '/>
		<polygon fill = 'rgb( 31, 120, 180)' fill-opacity = '0.250000' points = '581.5,254.3 581.5,662.4 583.4,662.4 583.4,256.5 '/>
		<polygon fill = 'rgb( 31, 120, 180)' fill-opacity = '0.250000' points = '583.4,256.5 583.4,662.4 585.2,662.4 585.2,258.6 '/>
		<polygon fill = 'rgb( 31, 120, 180)' fill-opacity = '0.250000' points = '585.2,258.6 585.2,662.4 587.1,662.4 587.1,260.8 '/>
		<polygon fill = 'rgb( 31, 120, 180)' fill-opacity = '0.250000' points = '587.1,260.8 587.1,662.4 589.0,662.4 589.0,262.9 '/>
		<polygon fill = 'rgb( 31, 120, 180)' fill-opacity = '0.250000' points = '589.0,262.9 589.0,662.4 590.9,662.4 590.9,265.1 '/>
		<polygon fill = 'rgb( 31, 120, 180)' fill-opacity = '0.250000' points = '590.9,265.1 590.9,662.4 592.7,662.4 592.7,267.2 '/>
		<polygon fill = 'rgb( 31, 120, 180)' fill-opacity = '0.250000' points = '592.7,267.2 592.7,662.4 594.6,662.4 594.6,269.4 '/>
		<polygon fill = 'rgb( 31, 120, 180)' fill-opacity = '0.250000' points = '594.6,269.4 594.6,662.4 596.5,662.4 596.5,271.6 '/>
		<polygon fill = 'rgb( 31, 120, 180)' fill-opacity = '0.250000' points = '596.5,271.6 596.5,662.4 598.3,662.4 598.3,273.8 '/>
		<polygon fill = 'rgb( 31, 120, 180)' fill-opacity = '0.250000' points = '598.3,273.8 598.3,662.4 600.2,662.4 600.2,276.0 '/>
		<polygon fill = 'rgb( 31, 120, 180)' fill-opacity = '0.250000' points = '600.2,276.0 600.2,662.4 602.1,662.4 602.1,278.2 '/>
		<polygon fill = 'rgb( 31, 120, 180)' fill-opacity = '0.250000' points = '602.1,278.2 602.1,662.4 604.0,662.4 604.0,280.4 '/>
		<polygon fill = 'rgb( 31, 120, 180)' fill-opacity = '0.250000' points = '604.0,280.4 604.0,662.4 605.8,662.4 605.8,282.6 '/>
		<polygon fill = 'rgb( 31, 120, 180)' fill-opacity = '0.250000' points = '605.8,282.6 605.8,662.4 607.7,662.4 607.7,284.9 '/>
		<polygon fill = 'rgb( 31, 120, 180)' fill-opacity = '0.250000' points = '607.7,284.9 607.7,662.4 609.6,662.4 609.6,287.1 '/>
		<polygon fill = 'rgb( 31, 120, 180)' fill-opacity = '0.250000' points = '609.6,287.1 609.6,662.4 611.4,662.4 611.4,289.3 '/>
		<polygon fill = 'rgb( 31, 120, 180)' fill-opacity = '0.250000' points = '611.4,289.3 611.4,662.4 613.3,662.4 613.3,291.6 '/>
		<polygon fill = 'rgb( 31, 120, 180)' fill-opacity = '0.250000' points = '613.3,291.6 613.3,662.4 615.2,662.4 615.2,293.8 '/>
		<polygon fill = 'rgb( 31, 120, 180)' fill-opacity = '0.250000' points = '615.2,293.8 615.2,662.4 617.0,662.4 617.0,296.1 '/>
		<polygon fill = 'rgb( 31, 120, 180)' fill-opacity = '0.250000' points = '617.0,296.1 617.0,662.4 618.9,662.4 618.9,298.3 '/>
		<polygon fill = 'rgb( 31, 120, 180)' fill-opacity = '0.250000' points = '618.9,298.3 618.9,662.4 620.8,662.4 620.8,300.5 '/>
		<polygon fill = 'rgb( 31, 120, 180)' fill-opacity = '0.250000' points = '620.8,300.5 620.8,662.4 622.7,662.4 622.7,302.8 '/>
		<polygon fill = 'rgb( 31, 120, 180)' fill-opacity = '0.250000' points = '622.7,302.8 622.7,662.4 624.5,662.4 624.5,305.0 '/>
		<polygon fill = 'rgb( 31, 120, 180)' fill-opacity = '0.250000' points = '624.5,305.0 624.5,662.4 626.4,662.4 626.4,307.2 '/>
		<polygon fill = 'rgb( 31, 120, 180)' fill-opacity = '0.250000' points = '626.4,307.2 626.4,662.4 628.3,662.4 628.3,309.5 '/>
		<polygon fill = 'rgb( 31, 120, 180)' fill-opacity = '0.250000' points = '628.3,309.5 628.3,662.4 630.1,662.4 630.1,311.7 '/>
		<polygon fill = 'rgb( 31, 120, 180)' fill-opacity = '0.250000' points = '630.1,311.7 630.1,662.4 632.0,662.4 632.0,314.0 '/>
		<polygon fill = 'rgb( 31, 120, 180)' fill-opacity = '0.250000' points = '632.0,314.0 632.0,662.4 633.9,662.4 633.9,316.2 '/>
		<polygon fill = 'rgb( 31, 120, 180)' fill-opacity = '0.250000' points = '633.9,316.2 633.9,662.4 635.8,662.4 635.8,318.4 '/>
		<polygon fill = 'rgb( 31, 120, 180)' fill-opacity = '0.250000' points = '635.8,318.4 635.8,662.4 637.6,662.4 637.6,320.7 '/>
		<polygon fill = 'rgb( 31, 120, 180)' fill-opacity = '0.250000' points = '637.6,320.7 637.6,662.4 639.5,662.4 639.5,322.9 '/>
		<polygon fill = 'rgb( 31, 120, 180)' fill-opacity = '0.250000' points = '639.5,322.9 639.5,662.4 641.4,662.4 641.4,325.1 '/>
		<polygon fill = 'rgb( 31, 120, 180)' fill-opacity = '0.250000' points = '641.4,325.1 641.4,662.4 643.2,662.4 643.2,327.4 '/>
		<polygon fill = 'rgb( 31, 120, 180)' fill-opacity = '0.250000' points = '643.2,327.4 643.2,662.4 645.1,662.4 645.1,329.6 '/>
		<polygon fill = 'rgb( 31, 120, 180)' fill-opacity = '0.250000' points = '645.1,329.6 645.1,662.4 647.0,662.4 647.0,331.9 '/>
		<polygon fill = 'rgb( 31, 120, 180)' fill-opacity = '0.250000' points = '647.0,331.9 647.0,662.4 648.8,662.4 648.8,334.2 '/>
		<polygon fill = 'rgb( 31, 120, 180)' fill-opacity = '0.250000' points = '648.8,334.2 648.8,662.4 650.7,662.4 650.7,336.4 '/>
		<polygon fill = 'rgb( 31, 120, 180)' fill-opacity = '0.250000' points = '650.7,336.4 650.7,662.4 652.6,662.4 652.6,338.7 '/>
		<polygon fill = 'rgb( 31, 120, 180)' fill-opacity = '0.250000' points = '652.6,338.7 652.6,662.4 654.5,662.4 654.5,341.0 '/>
		<polygon fill = 'rgb( 31, 120, 180)' fill-opacity = '0.250000' points = '654.5,341.0 654.5,662.4 656.3,662.4 656.3,343.4 '/>
		<polygon fill = 'rgb( 31, 120, 180)' fill-opacity = '0.250000' points = '656.3,343.4 656.3,662.4 658.2,662.4 658.2,345.7 '/>
		<polygon fill = 'rgb( 31, 120, 180)' fill-opacity = '0.250000' points = '658.2,345.7 658.2,662.4 660.1,662.4 660.1,348.1 '/>
		<polygon fill = 'rgb( 31, 120, 180)' fill-opacity = '0.250000' points = '660.1,348.1 660.1,662.4 661.9,662.4 661.9,350.5 '/>
		<polygon fill = 'rgb( 31, 120, 180)' fill-opacity = '0.250000' points = '661.9,350.5 661.9,662.4 663.8,662.4 663.8,352.9 '/>
		<polygon fill = 'rgb( 31, 120, 180)' fill-opacity = '0.250000' points = '663.8,352.9 663.8,662.4 665.7,662.4 665.7,355.3 '/>
		<polygon fill = 'rgb( 31, 120, 180)' fill-opacity = '0.250000' points = '665.7,355.3 665.7,662.4 667.5,662.4 667.5,357.8 '/>
		<polygon fill = 'rgb( 31, 120, 180)' fill-opacity = '0.250000' points = '667.5,357.8 667.5,662.4 669.4,662.4 669.4,360.3 '/>
		<polygon fill = 'rgb( 31, 120, 180)' fill-opacity = '0.250000' points = '669.4,360.3 669.4,662.4 671.3,662.4 671.3,362.9 '/>
		<polygon fill = 'rgb( 31, 120, 180)' fill-opacity = '0.250000' points = '671.3,362.9 671.3,662.4 673.2,662.4 673.2,365.5 '/>
		<polygon fill = 'rgb( 31, 120, 180)' fill-opacity = '0.250000' points = '673.2,365.5 673.2,662.4 675.0,662.4 675.0,368.1 '/>
		<polygon fill = 'rgb( 31, 120, 180)' fill-opacity = '0.250000' points = '675.0,368.1 675.0,662.4 676.9,662.4 676.9,370.7 '/>
		<polygon fill = 'rgb( 31, 120, 180)' fill-opacity = '0.250000' points = '676.9,370.7 676.9,662.4 678.8,662.4 678.8,373.4 '/>
		<polygon fill = 'rgb( 31, 120, 180)' fill-opacity = '0.250000' points = '678.8,373.4 678.8,662.4 680.6,662.4 680.6,376.1 '/>
		<polygon fill = 'rgb( 31, 120, 180)' fill-opacity = '0.250000' points = '680.6,376.1 680.6,662.4 682.5,662.4 682.5,378.9 '/>
		<polygon fill = 'rgb( 31, 120, 180)' fill-opacity = '0.250000' points = '682.5,378.9 682.5,662.4 684.4,662.4 684.4,381.7 '/>
		<polygon fill = 'rgb( 31, 120, 180)' fill-opacity = '0.250000' points = '684.4,381.7 684.4,662.4 686.3,662.4 686.3,384.5 '/>
		<polygon fill = 'rgb( 31, 120, 180)' fill-opacity = '0.250000' points = '686.3,384.5 686.3,662.4 688.1,662.4 688.1,387.3 '/>
		<polygon fill = 'rgb( 31, 120, 180)' fill-opacity = '0.250000' points = '688.1,387.3 688.1,662.4 690.0,662.4 690.0,390.2 '/>
		<polygon fill = 'rgb( 31, 120, 180)' fill-opacity = '0.250000' points = '690.0,390.2 690.0,662.4 691.9,662.4 691.9,393.0 '/>
		<polygon fill = 'rgb( 31, 120, 180)' fill-opacity = '0.250000' points = '691.9,393.0 691.9,662.4 693.7,662.4 693.7,395.9 '/>
		<polygon fill = 'rgb( 31, 120, 180)' fill-opacity = '0.250000' points = '693.7,395.9 693.7,662.4 695.6,662.4 695.6,398.7 '/>
		<polygon fill = 'rgb( 31, 120, 180)' fill-opacity = '0.250000' points = '695.6,398.7 695.6,662.4 697.5,662.4 697.5,401.6 '/>
		<polygon fill = 'rgb( 31, 120, 180)' fill-opacity = '0.250000' points = '697.5,401.6 697.5,662.4 699.3,662.4 699.3,404.4 '/>
		<polygon fill = 'rgb( 31, 120, 180)' fill-opacity = '0.250000' points = '699.3,404.4 699.3,662.4 701.2,662.4 701.2,407.2 '/>
		<polygon fill = 'rgb( 31, 120, 180)' fill-opacity = '0.250000' points = '701.2,407.2 701.2,662.4 703.1,662.4 703.1,410.0 '/>
		<polygon fill = 'rgb( 31, 120, 180)' fill-opacity = '0.250000' points = '703.1,410.0 703.1,662.4 705.0,662.4 705.0,412.7 '/>
		<polygon fill = 'rgb( 31, 120, 180)' fill-opacity = '0.250000' points = '705.0,412.7 705.0,662.4 706.8,662.4 706.8,415.5 '/>
		<polygon fill = 'rgb( 31, 120, 180)' fill-opacity = '0.250000' points = '706.8,415.5 706.8,662.4 708.7,662.4 708.7,418.1 '/>
		<polygon fill = 'rgb( 31, 120, 180)' fill-opacity = '0.250000' points = '708.7,418.1 708.7,662.4 710.6,662.4 710.6,420.8 '/>
		<polygon fill = 'rgb( 31, 120, 180)' fill-opacity = '0.250000' points = '710.6,420.8 710.6,662.4 712.4,662.4 712.4,423.3 '/>
		<polygon fill = 'rgb( 31, 120, 180)' fill-opacity = '0.250000' points = '712.4,423.3 712.4,662.4 714.3,662.4 714.3,425.9 '/>
		<polygon fill = 'rgb( 31, 120, 180)' fill-opacity = '0.250000' points = '714.3,425.9 714.3,662.4 716.2,662.4 716.2,428.4 '/>
		<polygon fill = 'rgb( 31, 120, 180)' fill-opacity = '0.250000' points = '716.2,428.4 716.2,662.4 718.1,662.4 718.1,430.8 '/>
		<polygon fill = 'rgb( 31, 120, 180)' fill-opacity = '0.250000' points = '718.1,430.8 718.1,662.4 719.9,662.4 719.9,433.2 '/>
		<polygon fill = 'rgb( 31, 120, 180)' fill-opacity = '0.250000' points = '719.9,433.2 719.9,662.4 721.8,662.4 721.8,435.6 '/>
		<polygon fill = 'rgb( 31, 120, 180)' fill-opacity = '0.250000' points = '721.8,435.6 721.8,662.4 723.7,662.4 723.7,437.9 '/>
		<polygon fill = 'rgb( 31, 120, 180)' fill-opacity = '0.250000' points = '723.7,437.9 723.7,662.4 725.5,662.4 725.5,440.1 '/>
		<polygon fill = 'rgb( 31, 120, 180)' fill-opacity = '0.250000' points = '725.5,440.1 725.5,662.4 727.4,662.4 727.4,442.3 '/>
		<polygon fill = 'rgb( 31, 120, 180)' fill-opacity = '0.250000' points = '727.4,442.3 727.4,662.4 729.3,662.4 729.3,444.5 '/>
		<polygon fill = 'rgb( 31, 120, 180)' fill-opacity = '0.250000' points = '729.3,444.5 729.3,662.4 731.1,662.4 731.1,446.6 '/>
		<polygon fill = 'rgb( 31, 120, 180)' fill-opacity = '0.250000' points = '731.1,446.6 731.1,662.4 733.0,662.4 733.0,448.7 '/>
		<polygon fill = 'rgb( 31, 120, 180)' fill-opacity = '0.250000' points = '733.0,448.7 733.0,662.4 734.9,662.4 734.9,450.8 '/>
		<polygon fill = 'rgb( 31, 120, 180)' fill-opacity = '0.250000' points = '734.9,450.8 734.9,662.4 736.8,662.4 736.8,452.9 '/>
		<polygon fill = 'rgb( 31, 120, 180)' fill-opacity = '0.250000' points = '736.8,452.9 736.8,662.4 738.6,662.4 738.6,454.9 '/>
		<polygon fill = 'rgb( 31, 120, 180)' fill-opacity = '0.250000' points = '738.6,454.9 738.6,662.4 740.5,662.4 740.5,456.9 '/>
		<polygon fill = 'rgb( 31, 120, 180)' fill-opacity = '0.250000' points = '740.5,456.9 740.5,662.4 742.4,662.4 742.4,458.9 '/>
		<polygon fill = 'rgb( 31, 120, 180)' fill-opacity = '0.250000' points = '742.4,458.9 742.4,662.4 744.2,662.4 744.2,460.8 '/>
		<polygon fill = 'rgb( 31, 120, 180)' fill-opacity = '0.250000' points = '744.2,460.8 744.2,662.4 746.1,662.4 746.1,462.8 '/>
		<polygon fill = 'rgb( 31, 120, 180)' fill-opacity = '0.250000' points = '746.1,462.8 746.1,662.4 748.0,662.4 748.0,464.7 '/>
		<polygon fill = 'rgb( 31, 120, 180)' fill-opacity = '0.250000' points = '748.0,464.7 748.0,662.4 749.9,662.4 749.9,466.6 '/>
		<polygon fill = 'rgb( 31, 120, 180)' fill-opacity = '0.250000' points = '749.9,466.6 749.9,662.4 751.7,662.4 751.7,468.5 '/>
		<polygon fill = 'rgb( 31, 120, 180)' fill-opacity = '0.250000' points = '751.7,468.5 751.7,662.4 753.6,662.4 753.6,470.5 '/>
		<polygon fill = 'rgb( 31, 120, 180)' fill-opacity = '0.250000' points = '753.6,470.5 753.6,662.4 755.5,662.4 755.5,472.4 '/>
		<polygon fill = 'rgb( 31, 120, 180)' fill-opacity = '0.250000' points = '755.5,472.4 755.5,662.4 757.3,662.4 757.3,474.3 '/>
		<polygon fill = 'rgb( 31, 120, 180)' fill-opacity = '0.250000' points = '757.3,474.3 757.3,662.4 759.2,662.4 759.2,476.3 '/>
		<polygon fill = 'rgb( 31, 120, 180)' fill-opacity = '0.250000' points = '759.2,476.3 759.2,662.4 761.1,662.4 761.1,478.2 '/>
		<polygon fill = 'rgb( 31, 120, 180)' fill-opacity = '0.250000' points = '761.1,478.2 761.1,662.4 762.9,662.4 762.9,480.2 '/>
		<polygon fill = 'rgb( 31, 120, 180)' fill-opacity = '0.250000' points = '762.9,480.2 762.9,662.4 764.8,662.4 764.8,482.2 '/>
		<polygon fill = 'rgb( 31, 120, 180)' fill-opacity = '0.250000' points = '764.8,482.2 764.8,662.4 766.7,662.4 766.7,484.2 '/>
		<polygon fill = 'rgb( 31, 120, 180)' fill-opacity = '0.250000' points = '766.7,484.2 766.7,662.4 768.6,662.4 768.6,486.2 '/>
		<polygon fill = 'rgb( 31, 120, 180)' fill-opacity = '0.250000' points = '768.6,486.2 768.6,662.4 770.4,662.4 770.4,488.2 '/>
		<polygon fill = 'rgb( 31, 120, 180)' fill-opacity = '0.250000' points = '770.4,488.2 770.4,662.4 772.3,662.4 772.3,490.3 '/>
		<polygon fill = 'rgb( 31, 120, 180)' fill-opacity = '0.250000' points = '772.3,490.3 772.3,662.4 774.2,662.4 774.2,492.3 '/>
		<polygon fill = 'rgb( 31, 120, 180)' fill-opacity = '0.250000' points = '774.2,492.3 774.2,662.4 776.0,662.4 776.0,494.4 '/>
		<polygon fill = 'rgb( 31, 120, 180)' fill-opacity = '0.250000' points = '776.0,494.4 776.0,662.4 777.9,662.4 777.9,496.5 '/>
		<polygon fill = 'rgb( 31, 120, 180)' fill-opacity = '0.250000' points = '777.9,496.5 777.9,662.4 779.8,662.4 779.8,498.6 '/>
		<polygon fill = 'rgb( 31, 120, 180)' fill-opacity = '0.250000' points = '779.8,498.6 779.8,662.4 781.7,662.4 781.7,500.7 '/>
		<polygon fill = 'rgb( 31, 120, 180)' fill-opacity = '0.250000' points = '781.7,500.7 781.7,662.4 783.5,662.4 783.5,502.8 '/>
		<polygon fill = 'rgb( 31, 120, 180)' fill-opacity = '0.250000' points = '783.5,502.8 783.5,662.4 785.4,662.4 785.4,504.9 '/>
		<polygon fill = 'rgb( 31, 120, 180)' fill-opacity = '0.250000' points = '785.4,504.9 785.4,662.4 787.3,662.4 787.3,507.0 '/>
		<polygon fill = 'rgb( 31, 120, 180)' fill-opacity = '0.250000' points = '787.3,507.0 787.3,662.4 789.1,662.4 789.1,509.0 '/>
		<polygon fill = 'rgb( 31, 120, 180)' fill-opacity = '0.250000' points = '789.1,509.0 789.1,662.4 791.0,662.4 791.0,511.1 '/>
		<polygon fill = 'rgb( 31, 120, 180)' fill-opacity = '0.250000' points = '791.0,511.1 791.0,662.4 792.9,662.4 792.9,513.1 '/>
		<polygon fill = 'rgb( 31, 120, 180)' fill-opacity = '0.250000' points = '792.9,513.1 792.9,662.4 794.7,662.4 794.7,515.1 '/>
		<polygon fill = 'rgb( 31, 120, 180)' fill-opacity = '0.250000' points = '794.7,515.1 794.7,662.4 796.6,662.4 796.6,517.1 '/>
		<polygon fill = 'rgb( 31, 120, 180)' fill-opacity = '0.250000' points = '796.6,517.1 796.6,662.4 798.5,662.4 798.5,519.0 '/>
		<polygon fill = 'rgb( 31, 120, 180)' fill-opacity = '0.250000' points = '798.5,519.0 798.5,662.4 800.4,662.4 800.4,520.9 '/>
		<polygon fill = 'rgb( 31, 120, 180)' fill-opacity = '0.250000' points = '800.4,520.9 800.4,662.4 802.2,662.4 802.2,522.7 '/>
		<polygon fill = 'rgb( 31, 120, 180)' fill-opacity = '0.250000' points = '802.2,522.7 802.2,662.4 804.1,662.4 804.1,524.5 '/>
		<polygon fill = 'rgb( 31, 120, 180)' fill-opacity = '0.250000' points = '804.1,524.5 804.1,662.4 806.0,662.4 806.0,526.3 '/>
		<polygon fill = 'rgb( 31, 120, 180)' fill-opacity = '0.250000' points = '806.0,526.3 806.0,662.4 807.8,662.4 807.8,528.0 '/>
		<polygon fill = 'rgb( 31, 120, 180)' fill-opacity = '0.250000' points = '807.8,528.0 807.8,662.4 809.7,662.4 809.7,529.6 '/>
		<polygon fill = 'rgb( 31, 120, 180)' fill-opacity = '0.250000' points = '809.7,529.6 809.7,662.4 811.6,662.4 811.6,531.2 '/>
		<polygon fill = 'rgb( 31, 120, 180)' fill-opacity = '0.250000' points = '811.6,531.2 811.6,662.4 813.5,662.4 813.5,532.8 '/>
		<polygon fill = 'rgb( 31, 120, 180)' fill-opacity = '0.250000' points = '813.5,532.8 813.5,662.4 815.3,662.4 815.3,534.3 '/>
		<polygon fill = 'rgb( 31, 120, 180)' fill-opacity = '0.250000' points = '815.3,534.3 815.3,662.4 817.2,662.4 817.2,535.7 '/>
		<polygon fill = 'rgb( 31, 120, 180)' fill-opacity = '0.250000' points = '817.2,535.7 817.2,662.4 819.1,662.4 819.1,537.2 '/>
		<polygon fill = 'rgb( 31, 120, 180)' fill-opacity = '0.250000' points = '819.1,537.2 819.1,662.4 820.9,662.4 820.9,538.6 '/>
		<polygon fill = 'rgb( 31, 120, 180)' fill-opacity = '0.250000' points = '820.9,538.6 820.9,662.4 822.8,662.4 822.8,539.9 '/>
		<polygon fill = 'rgb( 31, 120, 180)' fill-opacity = '0.250000' points = '822.8,539.9 822.8,662.4 824.7,662.4 824.7,541.3 '/>
		<polygon fill = 'rgb( 31, 120, 180)' fill-opacity = '0.250000' points = '824.7,541.3 824.7,662.4 826.5,662.4 826.5,542.6 '/>
		<polygon fill = 'rgb( 31, 120, 180)' fill-opacity = '0.250000' points = '826.5,542.6 826.5,662.4 828.4,662.4 828.4,543.9 '/>
		<polygon fill = 'rgb( 31, 120, 180)' fill-opacity = '0.250000' points = '828.4,543.9 828.4,662.4 830.3,662.4 830.3,545.3 '/>
		<polygon fill = 'rgb( 31, 120, 180)' fill-opacity = '0.250000' points = '830.3,545.3 830.3,662.4 832.2,662.4 832.2,546.6 '/>
		<polygon fill = 'rgb( 31, 120, 180)' fill-opacity = '0.250000' points = '832.2,546.6 832.2,662.4 834.0,662.4 834.0,547.9 '/>
		<polygon fill = 'rgb( 31, 120, 180)' fill-opacity = '0.250000' points = '834.0,547.9 834.0,662.4 835.9,662.4 835.9,549.2 '/>
		<polygon fill = 'rgb( 31, 120, 180)' fill-opacity = '0.250000' points = '835.9,549.2 835.9,662.4 837.8,662.4 837.8,550.5 '/>
		<polygon fill = 'rgb( 31, 120, 180)' fill-opacity = '0.250000' points = '837.8,550.5 837.8,662.4 839.6,662.4 839.6,551.8 '/>
		<polygon fill = 'rgb( 31, 120, 180)' fill-opacity = '0.250000' points = '839.6,551.8 839.6,662.4 841.5,662.4 841.5,553.2 '/>
		<polygon fill = 'rgb( 31, 120, 180)' fill-opacity = '0.250000' points = '841.5,553.2 841.5,662.4 843.4,662.4 843.4,554.5 '/>
		<polygon fill = 'rgb( 31, 120, 180)' fill-opacity = '0.250000' points = '843.4,554.5 843.4,662.4 845.3,662.4 845.3,555.9 '/>
		<polygon fill = 'rgb( 31, 120, 180)' fill-opacity = '0.250000' points = '845.3,555.9 845.3,662.4 847.1,662.4 847.1,557.2 '/>
		<polygon fill = 'rgb( 31, 120, 180)' fill-opacity = '0.250000' points = '847.1,557.2 847.1,662.4 849.0,662.4 849.0,558.6 '/>
		<polygon fill = 'rgb( 31, 120, 180)' fill-opacity = '0.250000' points = '849.0,558.6 849.0,662.4 850.9,662.4 850.9,560.0 '/>
		<polygon fill = 'rgb( 31, 120, 180)' fill-opacity = '0.250000' points = '850.9,560.0 850.9,662.4 852.7,662.4 852.7,561.4 '/>
		<polygon fill = 'rgb( 31, 120, 180)' fill-opacity = '0.250000' points = '852.7,561.4 852.7,662.4 854.6,662.4 854.6,562.8 '/>
		<polygon fill = 'rgb( 31, 120, 180)' fill-opacity = '0.250000' points = '854.6,562.8 854.6,662.4 856.5,662.4 856.5,564.1 '/>
		<polygon fill = 'rgb( 31, 120, 180)' fill-opacity = '0.250000' points = '856.5,564.1 856.5,662.4 858.3,662.4 858.3,565.5 '/>
		<polygon fill = 'rgb( 31, 120, 180)' fill-opacity = '0.250000' points = '858.3,565.5 858.3,662.4 860.2,662.4 860.2,566.9 '/>
		<polygon fill = 'rgb( 31, 120, 180)' fill-opacity = '0.250000' points = '860.2,566.9 860.2,662.4 862.1,662.4 862.1,568.2 '/>
		<polygon fill = 'rgb( 31, 120, 180)' fill-opacity = '0.250000' points = '862.1,568.2 862.1,662.4 864.0,662.4 864.0,569.6 '/>
		<polygon fill = 'rgb( 31, 120, 180)' fill-opacity = '0.250000' points = '864.0,569.6 864.0,662.4 865.8,662.4 865.8,570.9 '/>
		<polygon fill = 'rgb( 31, 120, 180)' fill-opacity = '0.250000' points = '865.8,570.9 865.8,662.4 867.7,662.4 867.7,572.2 '/>
		<polygon fill = 'rgb( 31, 120, 180)' fill-opacity = '0.250000' points = '867.7,572.2 867.7,662.4 869.6,662.4 869.6,573.4 '/>
		<polygon fill = 'rgb( 31, 120, 180)' fill-opacity = '0.250000' points = '869.6,573.4 869.6,662.4 871.4,662.4 871.4,574.6 '/>
		<polygon fill = 'rgb( 31, 120, 180)' fill-opacity = '0.250000' points = '871.4,574.6 871.4,662.4 873.3,662.4 873.3,575.8 '/>
		<polygon fill = 'rgb( 31, 120, 180)' fill-opacity = '0.250000' points = '873.3,575.8 873.3,662.4 875.2,662.4 875.2,577.0 '/>
		<polygon fill = 'rgb( 31, 120, 180)' fill-opacity = '0.250000' points = '875.2,577.0 875.2,662.4 877.1,662.4 877.1,578.1 '/>
		<polygon fill = 'rgb( 31, 120, 180)' fill-opacity = '0.250000' points = '877.1,578.1 877.1,662.4 878.9,662.4 878.9,579.2 '/>
		<polygon fill = 'rgb( 31, 120, 180)' fill-opacity = '0.250000' points = '878.9,579.2 878.9,662.4 880.8,662.4 880.8,580.3 '/>
		<polygon fill = 'rgb( 31, 120, 180)' fill-opacity = '0.250000' points = '880.8,580.3 880.8,662.4 882.7,662.4 882.7,581.4 '/>
		<polygon fill = 'rgb( 31, 120, 180)' fill-opacity = '0.250000' points = '882.7,581.4 882.7,662.4 884.5,662.4 884.5,582.4 '/>
		<polygon fill = 'rgb( 31, 120, 180)' fill-opacity = '0.250000' points = '884.5,582.4 884.5,662.4 886.4,662.4 886.4,583.4 '/>
		<polygon fill = 'rgb( 31, 120, 180)' fill-opacity = '0.250000' points = '886.4,583.4 886.4,662.4 888.3,662.4 888.3,584.4 '/>
		<polygon fill = 'rgb( 31, 120, 180)' fill-opacity = '0.250000' points = '888.3,584.4 888.3,662.4 890.1,662.4 890.1,585.3 '/>
		<polygon fill = 'rgb( 31, 120, 180)' fill-opacity = '0.250000' points = '890.1,585.3 890.1,662.4 892.0,662.4 892.0,586.3 '/>
		<polygon fill = 'rgb( 31, 120, 180)' fill-opacity = '0.250000' points = '892.0,586.3 892.0,662.4 893.9,662.4 893.9,587.2 '/>
		<polygon fill = 'rgb( 31, 120, 180)' fill-opacity = '0.250000' points = '893.9,587.2 893.9,662.4 895.8,662.4 895.8,588.1 '/>
		<polygon fill = 'rgb( 31, 120, 180)' fill-opacity = '0.250000' points = '895.8,588.1 895.8,662.4 897.6,662.4 897.6,589.0 '/>
		<polygon fill = 'rgb( 31, 120, 180)' fill-opacity = '0.250000' points = '897.6,589.0 897.6,662.4 899.5,662.4 899.5,589.9 '/>
		<polygon fill = 'rgb( 31, 120, 180)' fill-opacity = '0.250000' points = '899.5,589.9 899.5,662.4 901.4,662.4 901.4,590.9 '/>
		<polygon fill = 'rgb( 31, 120, 180)' fill-opacity = '0.250000' points = '901.4,590.9 901.4,662.4 903.2,662.4 903.2,591.8 '/>
		<polygon fill = 'rgb( 31, 120, 180)' fill-opacity = '0.250000' points = '903.2,591.8 903.2,662.4 905.1,662.4 905.1,592.7 '/>
		<polygon fill = 'rgb( 31, 120, 180)' fill-opacity = '0.250000' points = '905.1,592.7 905.1,662.4 907.0,662.4 907.0,593.6 '/>
		<polygon fill = 'rgb( 31, 120, 180)' fill-opacity = '0.250000' points = '907.0,593.6 907.0,662.4 908.8,662.4 908.8,594.6 '/>
		<polygon fill = 'rgb( 31, 120, 180)' fill-opacity = '0.250000' points = '908.8,594.6 908.8,662.4 910.7,662.4 910.7,595.5 '/>
		<polygon fill = 'rgb( 31, 120, 180)' fill-opacity = '0.250000' points = '910.7,595.5 910.7,662.4 912.6,662.4 912.6,596.5 '/>
		<polygon fill = 'rgb( 31, 120, 180)' fill-opacity = '0.250000' points = '912.6,596.5 912.6,662.4 914.5,662.4 914.5,597.5 '/>
		<polygon fill = 'rgb( 31, 120, 180)' fill-opacity = '0.250000' points = '914.5,597.5 914.5,662.4 916.3,662.4 916.3,598.4 '/>
		<polygon fill = 'rgb( 31, 120, 180)' fill-opacity = '0.250000' points = '916.3,598.4 916.3,662.4 918.2,662.4 918.2,599.4 '/>
		<polygon fill = 'rgb( 31, 120, 180)' fill-opacity = '0.250000' points = '918.2,599.4 918.2,662.4 920.1,662.4 920.1,600.4 '/>
		<polygon fill = 'rgb( 31, 120, 180)' fill-opacity = '0.250000' points = '920.1,600.4 920.1,662.4 921.9,662.4 921.9,601.4 '/>
		<polygon fill = 'rgb( 31, 120, 180)' fill-opacity = '0.250000' points = '921.9,601.4 921.9,662.4 923.8,662.4 923.8,602.4 '/>
		<polygon fill = 'rgb( 31, 120, 180)' fill-opacity = '0.250000' points = '923.8,602.4 923.8,662.4 925.7,662.4 925.7,603.4 '/>
	</g>
</g>
	</g>
	<g id="gnuplot_plot_3" ><title>Point estimate</title>
<g fill="none" color="white" stroke="rgb( 31, 120, 180)" stroke-width="2.00" stroke-linecap="butt" stroke-linejoin="miter">
</g>
<g fill="none" color="black" stroke="currentColor" stroke-width="2.00" stroke-linecap="butt" stroke-linejoin="miter">
	<g transform="translate(1089.0,103.0)" stroke="none" fill="black" font-family="Helvetica" font-size="12.00"  text-anchor="start">
		<text><tspan font-family="Helvetica" >Point estimate</tspan></text>
	</g>
</g>
<g fill="none" color="black" stroke="currentColor" stroke-width="2.00" stroke-linecap="butt" stroke-linejoin="miter">
	<path stroke='rgb( 31, 120, 180)'  d='M1038.5,99.1 L1080.7,99.1 M494.0,662.4 L494.0,160.9  '/></g>
	</g>
<g fill="none" color="black" stroke="currentColor" stroke-width="2.00" stroke-linecap="butt" stroke-linejoin="miter">
</g>
<g fill="none" color="black" stroke="black" stroke-width="1.00" stroke-linecap="butt" stroke-linejoin="miter">
</g>
<g fill="none" color="black" stroke="currentColor" stroke-width="1.00" stroke-linecap="butt" stroke-linejoin="miter">
	<path stroke='black'  d='M80.2,54.1 L80.2,662.4 L1013.6,662.4 L1013.6,54.1 L80.2,54.1 Z  '/></g>
<g fill="none" color="black" stroke="currentColor" stroke-width="1.00" stroke-linecap="butt" stroke-linejoin="miter">
</g>
</g>
</svg>

