<?xml version="1.0" encoding="utf-8"  standalone="no"?>
<svg 
 viewBox="0 0 1280 720"
 xmlns="http://www.w3.org/2000/svg"
 xmlns:xlink="http://www.w3.org/1999/xlink"
>

<title>Gnuplot</title>
<desc>Produced by GNUPLOT 5.0 patchlevel 6 </desc>

<g id="gnuplot_canvas">

<rect x="0" y="0" width="1280" height="720" fill="none"/>
<defs>

	<circle id='gpDot' r='0.5' stroke-width='0.5'/>
	<path id='gpPt0' stroke-width='0.222' stroke='currentColor' d='M-1,0 h2 M0,-1 v2'/>
	<path id='gpPt1' stroke-width='0.222' stroke='currentColor' d='M-1,-1 L1,1 M1,-1 L-1,1'/>
	<path id='gpPt2' stroke-width='0.222' stroke='currentColor' d='M-1,0 L1,0 M0,-1 L0,1 M-1,-1 L1,1 M-1,1 L1,-1'/>
	<rect id='gpPt3' stroke-width='0.222' stroke='currentColor' x='-1' y='-1' width='2' height='2'/>
	<rect id='gpPt4' stroke-width='0.222' stroke='currentColor' fill='currentColor' x='-1' y='-1' width='2' height='2'/>
	<circle id='gpPt5' stroke-width='0.222' stroke='currentColor' cx='0' cy='0' r='1'/>
	<use xlink:href='#gpPt5' id='gpPt6' fill='currentColor' stroke='none'/>
	<path id='gpPt7' stroke-width='0.222' stroke='currentColor' d='M0,-1.33 L-1.33,0.67 L1.33,0.67 z'/>
	<use xlink:href='#gpPt7' id='gpPt8' fill='currentColor' stroke='none'/>
	<use xlink:href='#gpPt7' id='gpPt9' stroke='currentColor' transform='rotate(180)'/>
	<use xlink:href='#gpPt9' id='gpPt10' fill='currentColor' stroke='none'/>
	<use xlink:href='#gpPt3' id='gpPt11' stroke='currentColor' transform='rotate(45)'/>
	<use xlink:href='#gpPt11' id='gpPt12' fill='currentColor' stroke='none'/>
	<path id='gpPt13' stroke-width='0.222' stroke='currentColor' d='M0,1.330 L1.265,0.411 L0.782,-1.067 L-0.782,-1.076 L-1.265,0.411 z'/>
	<use xlink:href='#gpPt13' id='gpPt14' fill='currentColor' stroke='none'/>
	<filter id='textbox' filterUnits='objectBoundingBox' x='0' y='0' height='1' width='1'>
	  <feFlood flood-color='white' flood-opacity='1' result='bgnd'/>
	  <feComposite in='SourceGraphic' in2='bgnd' operator='atop'/>
	</filter>
	<filter id='greybox' filterUnits='objectBoundingBox' x='0' y='0' height='1' width='1'>
	  <feFlood flood-color='lightgrey' flood-opacity='1' result='grey'/>
	  <feComposite in='SourceGraphic' in2='grey' operator='atop'/>
	</filter>
</defs>
<g fill="none" color="white" stroke="currentColor" stroke-width="1.00" stroke-linecap="butt" stroke-linejoin="miter">
</g>
<g fill="none" color="black" stroke="currentColor" stroke-width="1.00" stroke-linecap="butt" stroke-linejoin="miter">
	<path stroke='black'  d='M71.9,662.4 L80.9,662.4  '/>	<g transform="translate(63.6,666.3)" stroke="none" fill="black" font-family="Helvetica" font-size="12.00"  text-anchor="end">
		<text><tspan font-family="Helvetica" > 0</tspan></text>
	</g>
</g>
<g fill="none" color="black" stroke="currentColor" stroke-width="1.00" stroke-linecap="butt" stroke-linejoin="miter">
	<path stroke='black'  d='M71.9,575.5 L80.9,575.5  '/>	<g transform="translate(63.6,579.4)" stroke="none" fill="black" font-family="Helvetica" font-size="12.00"  text-anchor="end">
		<text><tspan font-family="Helvetica" > 100</tspan></text>
	</g>
</g>
<g fill="none" color="black" stroke="currentColor" stroke-width="1.00" stroke-linecap="butt" stroke-linejoin="miter">
	<path stroke='black'  d='M71.9,488.6 L80.9,488.6  '/>	<g transform="translate(63.6,492.5)" stroke="none" fill="black" font-family="Helvetica" font-size="12.00"  text-anchor="end">
		<text><tspan font-family="Helvetica" > 200</tspan></text>
	</g>
</g>
<g fill="none" color="black" stroke="currentColor" stroke-width="1.00" stroke-linecap="butt" stroke-linejoin="miter">
	<path stroke='black'  d='M71.9,401.7 L80.9,401.7  '/>	<g transform="translate(63.6,405.6)" stroke="none" fill="black" font-family="Helvetica" font-size="12.00"  text-anchor="end">
		<text><tspan font-family="Helvetica" > 300</tspan></text>
	</g>
</g>
<g fill="none" color="black" stroke="currentColor" stroke-width="1.00" stroke-linecap="butt" stroke-linejoin="miter">
	<path stroke='black'  d='M71.9,314.8 L80.9,314.8  '/>	<g transform="translate(63.6,318.7)" stroke="none" fill="black" font-family="Helvetica" font-size="12.00"  text-anchor="end">
		<text><tspan font-family="Helvetica" > 400</tspan></text>
	</g>
</g>
<g fill="none" color="black" stroke="currentColor" stroke-width="1.00" stroke-linecap="butt" stroke-linejoin="miter">
	<path stroke='black'  d='M71.9,227.9 L80.9,227.9  '/>	<g transform="translate(63.6,231.8)" stroke="none" fill="black" font-family="Helvetica" font-size="12.00"  text-anchor="end">
		<text><tspan font-family="Helvetica" > 500</tspan></text>
	</g>
</g>
<g fill="none" color="black" stroke="currentColor" stroke-width="1.00" stroke-linecap="butt" stroke-linejoin="miter">
	<path stroke='black'  d='M71.9,141.0 L80.9,141.0  '/>	<g transform="translate(63.6,144.9)" stroke="none" fill="black" font-family="Helvetica" font-size="12.00"  text-anchor="end">
		<text><tspan font-family="Helvetica" > 600</tspan></text>
	</g>
</g>
<g fill="none" color="black" stroke="currentColor" stroke-width="1.00" stroke-linecap="butt" stroke-linejoin="miter">
	<path stroke='black'  d='M71.9,54.1 L80.9,54.1  '/>	<g transform="translate(63.6,58.0)" stroke="none" fill="black" font-family="Helvetica" font-size="12.00"  text-anchor="end">
		<text><tspan font-family="Helvetica" > 700</tspan></text>
	</g>
</g>
<g fill="none" color="black" stroke="currentColor" stroke-width="1.00" stroke-linecap="butt" stroke-linejoin="miter">
	<path stroke='black'  d='M177.9,662.4 L177.9,653.4  '/>	<g transform="translate(177.9,684.3)" stroke="none" fill="black" font-family="Helvetica" font-size="12.00"  text-anchor="middle">
		<text><tspan font-family="Helvetica" >-11.4</tspan></text>
	</g>
</g>
<g fill="none" color="black" stroke="currentColor" stroke-width="1.00" stroke-linecap="butt" stroke-linejoin="miter">
	<path stroke='black'  d='M326.3,662.4 L326.3,653.4  '/>	<g transform="translate(326.3,684.3)" stroke="none" fill="black" font-family="Helvetica" font-size="12.00"  text-anchor="middle">
		<text><tspan font-family="Helvetica" >-11.35</tspan></text>
	</g>
</g>
<g fill="none" color="black" stroke="currentColor" stroke-width="1.00" stroke-linecap="butt" stroke-linejoin="miter">
	<path stroke='black'  d='M474.8,662.4 L474.8,653.4  '/>	<g transform="translate(474.8,684.3)" stroke="none" fill="black" font-family="Helvetica" font-size="12.00"  text-anchor="middle">
		<text><tspan font-family="Helvetica" >-11.3</tspan></text>
	</g>
</g>
<g fill="none" color="black" stroke="currentColor" stroke-width="1.00" stroke-linecap="butt" stroke-linejoin="miter">
	<path stroke='black'  d='M623.2,662.4 L623.2,653.4  '/>	<g transform="translate(623.2,684.3)" stroke="none" fill="black" font-family="Helvetica" font-size="12.00"  text-anchor="middle">
		<text><tspan font-family="Helvetica" >-11.25</tspan></text>
	</g>
</g>
<g fill="none" color="black" stroke="currentColor" stroke-width="1.00" stroke-linecap="butt" stroke-linejoin="miter">
	<path stroke='black'  d='M771.7,662.4 L771.7,653.4  '/>	<g transform="translate(771.7,684.3)" stroke="none" fill="black" font-family="Helvetica" font-size="12.00"  text-anchor="middle">
		<text><tspan font-family="Helvetica" >-11.2</tspan></text>
	</g>
</g>
<g fill="none" color="black" stroke="currentColor" stroke-width="1.00" stroke-linecap="butt" stroke-linejoin="miter">
	<path stroke='black'  d='M920.1,662.4 L920.1,653.4  '/>	<g transform="translate(920.1,684.3)" stroke="none" fill="black" font-family="Helvetica" font-size="12.00"  text-anchor="middle">
		<text><tspan font-family="Helvetica" >-11.15</tspan></text>
	</g>
</g>
<g fill="none" color="black" stroke="currentColor" stroke-width="1.00" stroke-linecap="butt" stroke-linejoin="miter">
</g>
<g fill="none" color="black" stroke="currentColor" stroke-width="1.00" stroke-linecap="butt" stroke-linejoin="miter">
	<path stroke='black'  d='M71.9,54.1 L71.9,662.4 L1013.6,662.4 L1013.6,54.1 L71.9,54.1 Z  '/></g>
<g fill="none" color="black" stroke="currentColor" stroke-width="1.00" stroke-linecap="butt" stroke-linejoin="miter">
	<g transform="translate(17.0,358.3) rotate(270)" stroke="none" fill="black" font-family="Helvetica" font-size="12.00"  text-anchor="middle">
		<text><tspan font-family="Helvetica" >Density (a.u.)</tspan></text>
	</g>
</g>
<g fill="none" color="black" stroke="currentColor" stroke-width="1.00" stroke-linecap="butt" stroke-linejoin="miter">
	<g transform="translate(542.7,711.3)" stroke="none" fill="black" font-family="Helvetica" font-size="12.00"  text-anchor="middle">
		<text><tspan font-family="Helvetica" >Relative change (%)</tspan></text>
	</g>
</g>
<g fill="none" color="black" stroke="currentColor" stroke-width="1.00" stroke-linecap="butt" stroke-linejoin="miter">
	<g transform="translate(542.7,31.0)" stroke="none" fill="black" font-family="Helvetica" font-size="12.00"  text-anchor="middle">
		<text><tspan font-family="Helvetica" >language: embedded-template/parse error: c/examples/parser.c: mean</tspan></text>
	</g>
</g>
	<g id="gnuplot_plot_1" ><title>Bootstrap distribution</title>
<g fill="none" color="white" stroke="black" stroke-width="2.00" stroke-linecap="butt" stroke-linejoin="miter">
</g>
<g fill="none" color="black" stroke="currentColor" stroke-width="2.00" stroke-linecap="butt" stroke-linejoin="miter">
	<g transform="translate(1089.0,67.0)" stroke="none" fill="black" font-family="Helvetica" font-size="12.00"  text-anchor="start">
		<text><tspan font-family="Helvetica" >Bootstrap distribution</tspan></text>
	</g>
</g>
<g fill="none" color="black" stroke="currentColor" stroke-width="2.00" stroke-linecap="butt" stroke-linejoin="miter">
	<path stroke='rgb( 31, 120, 180)'  d='M1038.5,63.1 L1080.7,63.1 M71.9,632.9 L73.8,632.3 L75.7,631.6 L77.6,630.8 L79.4,630.1 L81.3,629.3
		L83.2,628.5 L85.1,627.7 L87.0,626.8 L88.9,626.0 L90.8,625.1 L92.7,624.1 L94.5,623.2 L96.4,622.2
		L98.3,621.2 L100.2,620.1 L102.1,619.1 L104.0,618.0 L105.9,617.0 L107.8,615.9 L109.6,614.8 L111.5,613.7
		L113.4,612.5 L115.3,611.4 L117.2,610.3 L119.1,609.1 L121.0,608.0 L122.9,606.9 L124.7,605.8 L126.6,604.6
		L128.5,603.5 L130.4,602.4 L132.3,601.3 L134.2,600.1 L136.1,599.0 L138.0,597.9 L139.8,596.8 L141.7,595.6
		L143.6,594.5 L145.5,593.3 L147.4,592.2 L149.3,591.0 L151.2,589.8 L153.0,588.6 L154.9,587.3 L156.8,586.0
		L158.7,584.7 L160.6,583.4 L162.5,582.0 L164.4,580.6 L166.3,579.2 L168.1,577.7 L170.0,576.2 L171.9,574.7
		L173.8,573.1 L175.7,571.5 L177.6,569.9 L179.5,568.2 L181.4,566.5 L183.2,564.8 L185.1,563.0 L187.0,561.2
		L188.9,559.4 L190.8,557.6 L192.7,555.7 L194.6,553.8 L196.5,551.9 L198.3,550.0 L200.2,548.0 L202.1,546.1
		L204.0,544.0 L205.9,542.0 L207.8,539.9 L209.7,537.9 L211.6,535.7 L213.4,533.6 L215.3,531.4 L217.2,529.3
		L219.1,527.1 L221.0,524.8 L222.9,522.6 L224.8,520.3 L226.6,518.0 L228.5,515.7 L230.4,513.3 L232.3,511.0
		L234.2,508.6 L236.1,506.2 L238.0,503.8 L239.9,501.3 L241.7,498.8 L243.6,496.3 L245.5,493.8 L247.4,491.2
		L249.3,488.6 L251.2,486.0 L253.1,483.3 L255.0,480.7 L256.8,478.0 L258.7,475.3 L260.6,472.5 L262.5,469.8
		L264.4,467.0 L266.3,464.2 L268.2,461.4 L270.1,458.7 L271.9,455.9 L273.8,453.1 L275.7,450.4 L277.6,447.6
		L279.5,444.9 L281.4,442.1 L283.3,439.4 L285.2,436.7 L287.0,434.0 L288.9,431.3 L290.8,428.6 L292.7,425.9
		L294.6,423.2 L296.5,420.5 L298.4,417.7 L300.2,415.0 L302.1,412.2 L304.0,409.5 L305.9,406.7 L307.8,403.9
		L309.7,401.0 L311.6,398.2 L313.5,395.3 L315.3,392.5 L317.2,389.6 L319.1,386.7 L321.0,383.8 L322.9,380.9
		L324.8,377.9 L326.7,375.0 L328.6,372.1 L330.4,369.1 L332.3,366.2 L334.2,363.2 L336.1,360.3 L338.0,357.3
		L339.9,354.4 L341.8,351.4 L343.7,348.4 L345.5,345.4 L347.4,342.4 L349.3,339.4 L351.2,336.3 L353.1,333.3
		L355.0,330.2 L356.9,327.1 L358.8,324.0 L360.6,320.8 L362.5,317.7 L364.4,314.6 L366.3,311.4 L368.2,308.2
		L370.1,305.1 L372.0,301.9 L373.8,298.8 L375.7,295.6 L377.6,292.5 L379.5,289.3 L381.4,286.2 L383.3,283.1
		L385.2,280.1 L387.1,277.0 L388.9,274.0 L390.8,271.0 L392.7,268.1 L394.6,265.2 L396.5,262.3 L398.4,259.4
		L400.3,256.6 L402.2,253.8 L404.0,251.0 L405.9,248.3 L407.8,245.6 L409.7,242.9 L411.6,240.2 L413.5,237.5
		L415.4,234.9 L417.3,232.2 L419.1,229.6 L421.0,227.0 L422.9,224.4 L424.8,221.8 L426.7,219.3 L428.6,216.8
		L430.5,214.3 L432.4,211.9 L434.2,209.5 L436.1,207.1 L438.0,204.8 L439.9,202.5 L441.8,200.3 L443.7,198.1
		L445.6,196.0 L447.4,193.9 L449.3,191.9 L451.2,189.9 L453.1,188.0 L455.0,186.1 L456.9,184.2 L458.8,182.4
		L460.7,180.5 L462.5,178.7 L464.4,176.9 L466.3,175.0 L468.2,173.2 L470.1,171.3 L472.0,169.4 L473.9,167.5
		L475.8,165.5 L477.6,163.5 L479.5,161.5 L481.4,159.4 L483.3,157.4 L485.2,155.3 L487.1,153.2 L489.0,151.2
		L490.9,149.1 L492.7,147.2 L494.6,145.2 L496.5,143.4 L498.4,141.6 L500.3,140.0 L502.2,138.5 L504.1,137.0
		L506.0,135.8 L507.8,134.6 L509.7,133.6 L511.6,132.7 L513.5,132.0 L515.4,131.3 L517.3,130.8 L519.2,130.4
		L521.0,130.1 L522.9,129.9 L524.8,129.8 L526.7,129.7 L528.6,129.7 L530.5,129.8 L532.4,129.9 L534.3,130.0
		L536.1,130.2 L538.0,130.3 L539.9,130.5 L541.8,130.7 L543.7,130.9 L545.6,131.2 L547.5,131.4 L549.4,131.7
		L551.2,132.0 L553.1,132.3 L555.0,132.6 L556.9,133.0 L558.8,133.4 L560.7,133.8 L562.6,134.2 L564.5,134.7
		L566.3,135.2 L568.2,135.8 L570.1,136.4 L572.0,137.0 L573.9,137.7 L575.8,138.5 L577.7,139.3 L579.5,140.1
		L581.4,141.0 L583.3,142.0 L585.2,143.0 L587.1,144.1 L589.0,145.2 L590.9,146.5 L592.8,147.7 L594.6,149.1
		L596.5,150.5 L598.4,152.0 L600.3,153.5 L602.2,155.1 L604.1,156.8 L606.0,158.6 L607.9,160.4 L609.7,162.3
		L611.6,164.3 L613.5,166.3 L615.4,168.4 L617.3,170.5 L619.2,172.7 L621.1,174.9 L623.0,177.2 L624.8,179.5
		L626.7,181.9 L628.6,184.3 L630.5,186.7 L632.4,189.2 L634.3,191.7 L636.2,194.2 L638.1,196.8 L639.9,199.4
		L641.8,202.0 L643.7,204.7 L645.6,207.4 L647.5,210.1 L649.4,212.8 L651.3,215.6 L653.1,218.4 L655.0,221.2
		L656.9,224.0 L658.8,226.8 L660.7,229.7 L662.6,232.5 L664.5,235.4 L666.4,238.3 L668.2,241.1 L670.1,244.0
		L672.0,246.8 L673.9,249.7 L675.8,252.6 L677.7,255.4 L679.6,258.3 L681.5,261.1 L683.3,264.0 L685.2,266.9
		L687.1,269.8 L689.0,272.7 L690.9,275.6 L692.8,278.6 L694.7,281.5 L696.6,284.5 L698.4,287.5 L700.3,290.5
		L702.2,293.6 L704.1,296.6 L706.0,299.7 L707.9,302.8 L709.8,305.9 L711.7,309.0 L713.5,312.1 L715.4,315.3
		L717.3,318.4 L719.2,321.6 L721.1,324.7 L723.0,327.9 L724.9,331.1 L726.7,334.2 L728.6,337.4 L730.5,340.6
		L732.4,343.7 L734.3,346.9 L736.2,350.0 L738.1,353.2 L740.0,356.3 L741.8,359.4 L743.7,362.5 L745.6,365.6
		L747.5,368.7 L749.4,371.8 L751.3,374.9 L753.2,378.0 L755.1,381.1 L756.9,384.2 L758.8,387.2 L760.7,390.3
		L762.6,393.4 L764.5,396.4 L766.4,399.5 L768.3,402.5 L770.2,405.5 L772.0,408.5 L773.9,411.5 L775.8,414.5
		L777.7,417.5 L779.6,420.5 L781.5,423.4 L783.4,426.3 L785.3,429.2 L787.1,432.1 L789.0,435.0 L790.9,437.8
		L792.8,440.7 L794.7,443.5 L796.6,446.2 L798.5,449.0 L800.3,451.7 L802.2,454.4 L804.1,457.1 L806.0,459.7
		L807.9,462.4 L809.8,465.0 L811.7,467.5 L813.6,470.1 L815.4,472.6 L817.3,475.1 L819.2,477.5 L821.1,479.9
		L823.0,482.3 L824.9,484.6 L826.8,486.9 L828.7,489.2 L830.5,491.4 L832.4,493.6 L834.3,495.8 L836.2,497.9
		L838.1,500.0 L840.0,502.1 L841.9,504.1 L843.8,506.2 L845.6,508.2 L847.5,510.2 L849.4,512.1 L851.3,514.1
		L853.2,516.1 L855.1,518.1 L857.0,520.1 L858.9,522.0 L860.7,524.0 L862.6,526.0 L864.5,528.1 L866.4,530.1
		L868.3,532.1 L870.2,534.1 L872.1,536.2 L873.9,538.2 L875.8,540.2 L877.7,542.3 L879.6,544.3 L881.5,546.3
		L883.4,548.3 L885.3,550.3 L887.2,552.2 L889.0,554.2 L890.9,556.1 L892.8,557.9 L894.7,559.8 L896.6,561.6
		L898.5,563.4 L900.4,565.2 L902.3,566.9 L904.1,568.6 L906.0,570.3 L907.9,571.9 L909.8,573.5 L911.7,575.0
		L913.6,576.5 L915.5,578.0 L917.4,579.4 L919.2,580.8 L921.1,582.1 L923.0,583.4 L924.9,584.7 L926.8,586.0
		L928.7,587.2 L930.6,588.4 L932.5,589.6 L934.3,590.7 L936.2,591.9 L938.1,593.0 L940.0,594.2 L941.9,595.3
		L943.8,596.4 L945.7,597.5 L947.5,598.7 L949.4,599.8 L951.3,600.9 L953.2,602.0 L955.1,603.1 L957.0,604.2
		L958.9,605.3 L960.8,606.4 L962.6,607.6 L964.5,608.6 L966.4,609.7 L968.3,610.8 L970.2,611.9 L972.1,612.9
		L974.0,614.0 L975.9,615.0 L977.7,616.0 L979.6,617.0 L981.5,618.0 L983.4,619.0 L985.3,619.9 L987.2,620.9
		L989.1,621.8 L991.0,622.7 L992.8,623.6 L994.7,624.5 L996.6,625.3 L998.5,626.2 L1000.4,627.0 L1002.3,627.8
		L1004.2,628.6 L1006.1,629.4 L1007.9,630.2 L1009.8,631.0 L1011.7,631.8 L1013.6,632.5  '/></g>
	</g>
	<g id="gnuplot_plot_2" ><title>Confidence interval</title>
<g fill="none" color="white" stroke="rgb( 31, 120, 180)" stroke-width="1.00" stroke-linecap="butt" stroke-linejoin="miter">
</g>
<g fill="none" color="black" stroke="currentColor" stroke-width="1.00" stroke-linecap="butt" stroke-linejoin="miter">
	<g transform="translate(1089.0,85.0)" stroke="none" fill="black" font-family="Helvetica" font-size="12.00"  text-anchor="start">
		<text><tspan font-family="Helvetica" >Confidence interval</tspan></text>
	</g>
</g>
<g fill="none" color="black" stroke="currentColor" stroke-width="1.00" stroke-linecap="butt" stroke-linejoin="miter">
	<g stroke='none' shape-rendering='crispEdges'>
		<polygon fill = 'rgb( 31, 120, 180)' fill-opacity = '0.250000' points = '1038.5,85.6 1080.7,85.6 1080.7,76.6 1038.5,76.6 '/>
		<polygon fill = 'rgb( 31, 120, 180)' fill-opacity = '0.250000' points = '158.7,584.7 158.7,662.4 160.6,662.4 160.6,583.4 '/>
		<polygon fill = 'rgb( 31, 120, 180)' fill-opacity = '0.250000' points = '160.6,583.4 160.6,662.4 162.5,662.4 162.5,582.0 '/>
		<polygon fill = 'rgb( 31, 120, 180)' fill-opacity = '0.250000' points = '162.5,582.0 162.5,662.4 164.4,662.4 164.4,580.6 '/>
		<polygon fill = 'rgb( 31, 120, 180)' fill-opacity = '0.250000' points = '164.4,580.6 164.4,662.4 166.3,662.4 166.3,579.2 '/>
		<polygon fill = 'rgb( 31, 120, 180)' fill-opacity = '0.250000' points = '166.3,579.2 166.3,662.4 168.1,662.4 168.1,577.7 '/>
		<polygon fill = 'rgb( 31, 120, 180)' fill-opacity = '0.250000' points = '168.1,577.7 168.1,662.4 170.0,662.4 170.0,576.2 '/>
		<polygon fill = 'rgb( 31, 120, 180)' fill-opacity = '0.250000' points = '170.0,576.2 170.0,662.4 171.9,662.4 171.9,574.7 '/>
		<polygon fill = 'rgb( 31, 120, 180)' fill-opacity = '0.250000' points = '171.9,574.7 171.9,662.4 173.8,662.4 173.8,573.1 '/>
		<polygon fill = 'rgb( 31, 120, 180)' fill-opacity = '0.250000' points = '173.8,573.1 173.8,662.4 175.7,662.4 175.7,571.5 '/>
		<polygon fill = 'rgb( 31, 120, 180)' fill-opacity = '0.250000' points = '175.7,571.5 175.7,662.4 177.6,662.4 177.6,569.9 '/>
		<polygon fill = 'rgb( 31, 120, 180)' fill-opacity = '0.250000' points = '177.6,569.9 177.6,662.4 179.5,662.4 179.5,568.2 '/>
		<polygon fill = 'rgb( 31, 120, 180)' fill-opacity = '0.250000' points = '179.5,568.2 179.5,662.4 181.4,662.4 181.4,566.5 '/>
		<polygon fill = 'rgb( 31, 120, 180)' fill-opacity = '0.250000' points = '181.4,566.5 181.4,662.4 183.2,662.4 183.2,564.8 '/>
		<polygon fill = 'rgb( 31, 120, 180)' fill-opacity = '0.250000' points = '183.2,564.8 183.2,662.4 185.1,662.4 185.1,563.0 '/>
		<polygon fill = 'rgb( 31, 120, 180)' fill-opacity = '0.250000' points = '185.1,563.0 185.1,662.4 187.0,662.4 187.0,561.2 '/>
		<polygon fill = 'rgb( 31, 120, 180)' fill-opacity = '0.250000' points = '187.0,561.2 187.0,662.4 188.9,662.4 188.9,559.4 '/>
		<polygon fill = 'rgb( 31, 120, 180)' fill-opacity = '0.250000' points = '188.9,559.4 188.9,662.4 190.8,662.4 190.8,557.6 '/>
		<polygon fill = 'rgb( 31, 120, 180)' fill-opacity = '0.250000' points = '190.8,557.6 190.8,662.4 192.7,662.4 192.7,555.7 '/>
		<polygon fill = 'rgb( 31, 120, 180)' fill-opacity = '0.250000' points = '192.7,555.7 192.7,662.4 194.6,662.4 194.6,553.8 '/>
		<polygon fill = 'rgb( 31, 120, 180)' fill-opacity = '0.250000' points = '194.6,553.8 194.6,662.4 196.5,662.4 196.5,551.9 '/>
		<polygon fill = 'rgb( 31, 120, 180)' fill-opacity = '0.250000' points = '196.5,551.9 196.5,662.4 198.3,662.4 198.3,550.0 '/>
		<polygon fill = 'rgb( 31, 120, 180)' fill-opacity = '0.250000' points = '198.3,550.0 198.3,662.4 200.2,662.4 200.2,548.0 '/>
		<polygon fill = 'rgb( 31, 120, 180)' fill-opacity = '0.250000' points = '200.2,548.0 200.2,662.4 202.1,662.4 202.1,546.1 '/>
		<polygon fill = 'rgb( 31, 120, 180)' fill-opacity = '0.250000' points = '202.1,546.1 202.1,662.4 204.0,662.4 204.0,544.0 '/>
		<polygon fill = 'rgb( 31, 120, 180)' fill-opacity = '0.250000' points = '204.0,544.0 204.0,662.4 205.9,662.4 205.9,542.0 '/>
		<polygon fill = 'rgb( 31, 120, 180)' fill-opacity = '0.250000' points = '205.9,542.0 205.9,662.4 207.8,662.4 207.8,539.9 '/>
		<polygon fill = 'rgb( 31, 120, 180)' fill-opacity = '0.250000' points = '207.8,539.9 207.8,662.4 209.7,662.4 209.7,537.9 '/>
		<polygon fill = 'rgb( 31, 120, 180)' fill-opacity = '0.250000' points = '209.7,537.9 209.7,662.4 211.6,662.4 211.6,535.7 '/>
		<polygon fill = 'rgb( 31, 120, 180)' fill-opacity = '0.250000' points = '211.6,535.7 211.6,662.4 213.4,662.4 213.4,533.6 '/>
		<polygon fill = 'rgb( 31, 120, 180)' fill-opacity = '0.250000' points = '213.4,533.6 213.4,662.4 215.3,662.4 215.3,531.4 '/>
		<polygon fill = 'rgb( 31, 120, 180)' fill-opacity = '0.250000' points = '215.3,531.4 215.3,662.4 217.2,662.4 217.2,529.3 '/>
		<polygon fill = 'rgb( 31, 120, 180)' fill-opacity = '0.250000' points = '217.2,529.3 217.2,662.4 219.1,662.4 219.1,527.1 '/>
		<polygon fill = 'rgb( 31, 120, 180)' fill-opacity = '0.250000' points = '219.1,527.1 219.1,662.4 221.0,662.4 221.0,524.8 '/>
		<polygon fill = 'rgb( 31, 120, 180)' fill-opacity = '0.250000' points = '221.0,524.8 221.0,662.4 222.9,662.4 222.9,522.6 '/>
		<polygon fill = 'rgb( 31, 120, 180)' fill-opacity = '0.250000' points = '222.9,522.6 222.9,662.4 224.8,662.4 224.8,520.3 '/>
		<polygon fill = 'rgb( 31, 120, 180)' fill-opacity = '0.250000' points = '224.8,520.3 224.8,662.4 226.6,662.4 226.6,518.0 '/>
		<polygon fill = 'rgb( 31, 120, 180)' fill-opacity = '0.250000' points = '226.6,518.0 226.6,662.4 228.5,662.4 228.5,515.7 '/>
		<polygon fill = 'rgb( 31, 120, 180)' fill-opacity = '0.250000' points = '228.5,515.7 228.5,662.4 230.4,662.4 230.4,513.3 '/>
		<polygon fill = 'rgb( 31, 120, 180)' fill-opacity = '0.250000' points = '230.4,513.3 230.4,662.4 232.3,662.4 232.3,511.0 '/>
		<polygon fill = 'rgb( 31, 120, 180)' fill-opacity = '0.250000' points = '232.3,511.0 232.3,662.4 234.2,662.4 234.2,508.6 '/>
		<polygon fill = 'rgb( 31, 120, 180)' fill-opacity = '0.250000' points = '234.2,508.6 234.2,662.4 236.1,662.4 236.1,506.2 '/>
		<polygon fill = 'rgb( 31, 120, 180)' fill-opacity = '0.250000' points = '236.1,506.2 236.1,662.4 238.0,662.4 238.0,503.8 '/>
		<polygon fill = 'rgb( 31, 120, 180)' fill-opacity = '0.250000' points = '238.0,503.8 238.0,662.4 239.9,662.4 239.9,501.3 '/>
		<polygon fill = 'rgb( 31, 120, 180)' fill-opacity = '0.250000' points = '239.9,501.3 239.9,662.4 241.7,662.4 241.7,498.8 '/>
		<polygon fill = 'rgb( 31, 120, 180)' fill-opacity = '0.250000' points = '241.7,498.8 241.7,662.4 243.6,662.4 243.6,496.3 '/>
		<polygon fill = 'rgb( 31, 120, 180)' fill-opacity = '0.250000' points = '243.6,496.3 243.6,662.4 245.5,662.4 245.5,493.8 '/>
		<polygon fill = 'rgb( 31, 120, 180)' fill-opacity = '0.250000' points = '245.5,493.8 245.5,662.4 247.4,662.4 247.4,491.2 '/>
		<polygon fill = 'rgb( 31, 120, 180)' fill-opacity = '0.250000' points = '247.4,491.2 247.4,662.4 249.3,662.4 249.3,488.6 '/>
		<polygon fill = 'rgb( 31, 120, 180)' fill-opacity = '0.250000' points = '249.3,488.6 249.3,662.4 251.2,662.4 251.2,486.0 '/>
		<polygon fill = 'rgb( 31, 120, 180)' fill-opacity = '0.250000' points = '251.2,486.0 251.2,662.4 253.1,662.4 253.1,483.3 '/>
		<polygon fill = 'rgb( 31, 120, 180)' fill-opacity = '0.250000' points = '253.1,483.3 253.1,662.4 255.0,662.4 255.0,480.7 '/>
		<polygon fill = 'rgb( 31, 120, 180)' fill-opacity = '0.250000' points = '255.0,480.7 255.0,662.4 256.8,662.4 256.8,478.0 '/>
		<polygon fill = 'rgb( 31, 120, 180)' fill-opacity = '0.250000' points = '256.8,478.0 256.8,662.4 258.7,662.4 258.7,475.3 '/>
		<polygon fill = 'rgb( 31, 120, 180)' fill-opacity = '0.250000' points = '258.7,475.3 258.7,662.4 260.6,662.4 260.6,472.5 '/>
		<polygon fill = 'rgb( 31, 120, 180)' fill-opacity = '0.250000' points = '260.6,472.5 260.6,662.4 262.5,662.4 262.5,469.8 '/>
		<polygon fill = 'rgb( 31, 120, 180)' fill-opacity = '0.250000' points = '262.5,469.8 262.5,662.4 264.4,662.4 264.4,467.0 '/>
		<polygon fill = 'rgb( 31, 120, 180)' fill-opacity = '0.250000' points = '264.4,467.0 264.4,662.4 266.3,662.4 266.3,464.2 '/>
		<polygon fill = 'rgb( 31, 120, 180)' fill-opacity = '0.250000' points = '266.3,464.2 266.3,662.4 268.2,662.4 268.2,461.4 '/>
		<polygon fill = 'rgb( 31, 120, 180)' fill-opacity = '0.250000' points = '268.2,461.4 268.2,662.4 270.1,662.4 270.1,458.7 '/>
		<polygon fill = 'rgb( 31, 120, 180)' fill-opacity = '0.250000' points = '270.1,458.7 270.1,662.4 271.9,662.4 271.9,455.9 '/>
		<polygon fill = 'rgb( 31, 120, 180)' fill-opacity = '0.250000' points = '271.9,455.9 271.9,662.4 273.8,662.4 273.8,453.1 '/>
		<polygon fill = 'rgb( 31, 120, 180)' fill-opacity = '0.250000' points = '273.8,453.1 273.8,662.4 275.7,662.4 275.7,450.4 '/>
		<polygon fill = 'rgb( 31, 120, 180)' fill-opacity = '0.250000' points = '275.7,450.4 275.7,662.4 277.6,662.4 277.6,447.6 '/>
		<polygon fill = 'rgb( 31, 120, 180)' fill-opacity = '0.250000' points = '277.6,447.6 277.6,662.4 279.5,662.4 279.5,444.9 '/>
		<polygon fill = 'rgb( 31, 120, 180)' fill-opacity = '0.250000' points = '279.5,444.9 279.5,662.4 281.4,662.4 281.4,442.1 '/>
		<polygon fill = 'rgb( 31, 120, 180)' fill-opacity = '0.250000' points = '281.4,442.1 281.4,662.4 283.3,662.4 283.3,439.4 '/>
		<polygon fill = 'rgb( 31, 120, 180)' fill-opacity = '0.250000' points = '283.3,439.4 283.3,662.4 285.2,662.4 285.2,436.7 '/>
		<polygon fill = 'rgb( 31, 120, 180)' fill-opacity = '0.250000' points = '285.2,436.7 285.2,662.4 287.0,662.4 287.0,434.0 '/>
		<polygon fill = 'rgb( 31, 120, 180)' fill-opacity = '0.250000' points = '287.0,434.0 287.0,662.4 288.9,662.4 288.9,431.3 '/>
		<polygon fill = 'rgb( 31, 120, 180)' fill-opacity = '0.250000' points = '288.9,431.3 288.9,662.4 290.8,662.4 290.8,428.6 '/>
		<polygon fill = 'rgb( 31, 120, 180)' fill-opacity = '0.250000' points = '290.8,428.6 290.8,662.4 292.7,662.4 292.7,425.9 '/>
		<polygon fill = 'rgb( 31, 120, 180)' fill-opacity = '0.250000' points = '292.7,425.9 292.7,662.4 294.6,662.4 294.6,423.2 '/>
		<polygon fill = 'rgb( 31, 120, 180)' fill-opacity = '0.250000' points = '294.6,423.2 294.6,662.4 296.5,662.4 296.5,420.5 '/>
		<polygon fill = 'rgb( 31, 120, 180)' fill-opacity = '0.250000' points = '296.5,420.5 296.5,662.4 298.4,662.4 298.4,417.7 '/>
		<polygon fill = 'rgb( 31, 120, 180)' fill-opacity = '0.250000' points = '298.4,417.7 298.4,662.4 300.2,662.4 300.2,415.0 '/>
		<polygon fill = 'rgb( 31, 120, 180)' fill-opacity = '0.250000' points = '300.2,415.0 300.2,662.4 302.1,662.4 302.1,412.2 '/>
		<polygon fill = 'rgb( 31, 120, 180)' fill-opacity = '0.250000' points = '302.1,412.2 302.1,662.4 304.0,662.4 304.0,409.5 '/>
		<polygon fill = 'rgb( 31, 120, 180)' fill-opacity = '0.250000' points = '304.0,409.5 304.0,662.4 305.9,662.4 305.9,406.7 '/>
		<polygon fill = 'rgb( 31, 120, 180)' fill-opacity = '0.250000' points = '305.9,406.7 305.9,662.4 307.8,662.4 307.8,403.9 '/>
		<polygon fill = 'rgb( 31, 120, 180)' fill-opacity = '0.250000' points = '307.8,403.9 307.8,662.4 309.7,662.4 309.7,401.0 '/>
		<polygon fill = 'rgb( 31, 120, 180)' fill-opacity = '0.250000' points = '309.7,401.0 309.7,662.4 311.6,662.4 311.6,398.2 '/>
		<polygon fill = 'rgb( 31, 120, 180)' fill-opacity = '0.250000' points = '311.6,398.2 311.6,662.4 313.5,662.4 313.5,395.3 '/>
		<polygon fill = 'rgb( 31, 120, 180)' fill-opacity = '0.250000' points = '313.5,395.3 313.5,662.4 315.3,662.4 315.3,392.5 '/>
		<polygon fill = 'rgb( 31, 120, 180)' fill-opacity = '0.250000' points = '315.3,392.5 315.3,662.4 317.2,662.4 317.2,389.6 '/>
		<polygon fill = 'rgb( 31, 120, 180)' fill-opacity = '0.250000' points = '317.2,389.6 317.2,662.4 319.1,662.4 319.1,386.7 '/>
		<polygon fill = 'rgb( 31, 120, 180)' fill-opacity = '0.250000' points = '319.1,386.7 319.1,662.4 321.0,662.4 321.0,383.8 '/>
		<polygon fill = 'rgb( 31, 120, 180)' fill-opacity = '0.250000' points = '321.0,383.8 321.0,662.4 322.9,662.4 322.9,380.9 '/>
		<polygon fill = 'rgb( 31, 120, 180)' fill-opacity = '0.250000' points = '322.9,380.9 322.9,662.4 324.8,662.4 324.8,377.9 '/>
		<polygon fill = 'rgb( 31, 120, 180)' fill-opacity = '0.250000' points = '324.8,377.9 324.8,662.4 326.7,662.4 326.7,375.0 '/>
		<polygon fill = 'rgb( 31, 120, 180)' fill-opacity = '0.250000' points = '326.7,375.0 326.7,662.4 328.6,662.4 328.6,372.1 '/>
		<polygon fill = 'rgb( 31, 120, 180)' fill-opacity = '0.250000' points = '328.6,372.1 328.6,662.4 330.4,662.4 330.4,369.1 '/>
		<polygon fill = 'rgb( 31, 120, 180)' fill-opacity = '0.250000' points = '330.4,369.1 330.4,662.4 332.3,662.4 332.3,366.2 '/>
		<polygon fill = 'rgb( 31, 120, 180)' fill-opacity = '0.250000' points = '332.3,366.2 332.3,662.4 334.2,662.4 334.2,363.2 '/>
		<polygon fill = 'rgb( 31, 120, 180)' fill-opacity = '0.250000' points = '334.2,363.2 334.2,662.4 336.1,662.4 336.1,360.3 '/>
		<polygon fill = 'rgb( 31, 120, 180)' fill-opacity = '0.250000' points = '336.1,360.3 336.1,662.4 338.0,662.4 338.0,357.3 '/>
		<polygon fill = 'rgb( 31, 120, 180)' fill-opacity = '0.250000' points = '338.0,357.3 338.0,662.4 339.9,662.4 339.9,354.4 '/>
		<polygon fill = 'rgb( 31, 120, 180)' fill-opacity = '0.250000' points = '339.9,354.4 339.9,662.4 341.8,662.4 341.8,351.4 '/>
		<polygon fill = 'rgb( 31, 120, 180)' fill-opacity = '0.250000' points = '341.8,351.4 341.8,662.4 343.7,662.4 343.7,348.4 '/>
		<polygon fill = 'rgb( 31, 120, 180)' fill-opacity = '0.250000' points = '343.7,348.4 343.7,662.4 345.5,662.4 345.5,345.4 '/>
		<polygon fill = 'rgb( 31, 120, 180)' fill-opacity = '0.250000' points = '345.5,345.4 345.5,662.4 347.4,662.4 347.4,342.4 '/>
		<polygon fill = 'rgb( 31, 120, 180)' fill-opacity = '0.250000' points = '347.4,342.4 347.4,662.4 349.3,662.4 349.3,339.4 '/>
		<polygon fill = 'rgb( 31, 120, 180)' fill-opacity = '0.250000' points = '349.3,339.4 349.3,662.4 351.2,662.4 351.2,336.3 '/>
		<polygon fill = 'rgb( 31, 120, 180)' fill-opacity = '0.250000' points = '351.2,336.3 351.2,662.4 353.1,662.4 353.1,333.3 '/>
		<polygon fill = 'rgb( 31, 120, 180)' fill-opacity = '0.250000' points = '353.1,333.3 353.1,662.4 355.0,662.4 355.0,330.2 '/>
		<polygon fill = 'rgb( 31, 120, 180)' fill-opacity = '0.250000' points = '355.0,330.2 355.0,662.4 356.9,662.4 356.9,327.1 '/>
		<polygon fill = 'rgb( 31, 120, 180)' fill-opacity = '0.250000' points = '356.9,327.1 356.9,662.4 358.8,662.4 358.8,324.0 '/>
		<polygon fill = 'rgb( 31, 120, 180)' fill-opacity = '0.250000' points = '358.8,324.0 358.8,662.4 360.6,662.4 360.6,320.8 '/>
		<polygon fill = 'rgb( 31, 120, 180)' fill-opacity = '0.250000' points = '360.6,320.8 360.6,662.4 362.5,662.4 362.5,317.7 '/>
		<polygon fill = 'rgb( 31, 120, 180)' fill-opacity = '0.250000' points = '362.5,317.7 362.5,662.4 364.4,662.4 364.4,314.6 '/>
		<polygon fill = 'rgb( 31, 120, 180)' fill-opacity = '0.250000' points = '364.4,314.6 364.4,662.4 366.3,662.4 366.3,311.4 '/>
		<polygon fill = 'rgb( 31, 120, 180)' fill-opacity = '0.250000' points = '366.3,311.4 366.3,662.4 368.2,662.4 368.2,308.2 '/>
		<polygon fill = 'rgb( 31, 120, 180)' fill-opacity = '0.250000' points = '368.2,308.2 368.2,662.4 370.1,662.4 370.1,305.1 '/>
		<polygon fill = 'rgb( 31, 120, 180)' fill-opacity = '0.250000' points = '370.1,305.1 370.1,662.4 372.0,662.4 372.0,301.9 '/>
		<polygon fill = 'rgb( 31, 120, 180)' fill-opacity = '0.250000' points = '372.0,301.9 372.0,662.4 373.8,662.4 373.8,298.8 '/>
		<polygon fill = 'rgb( 31, 120, 180)' fill-opacity = '0.250000' points = '373.8,298.8 373.8,662.4 375.7,662.4 375.7,295.6 '/>
		<polygon fill = 'rgb( 31, 120, 180)' fill-opacity = '0.250000' points = '375.7,295.6 375.7,662.4 377.6,662.4 377.6,292.5 '/>
		<polygon fill = 'rgb( 31, 120, 180)' fill-opacity = '0.250000' points = '377.6,292.5 377.6,662.4 379.5,662.4 379.5,289.3 '/>
		<polygon fill = 'rgb( 31, 120, 180)' fill-opacity = '0.250000' points = '379.5,289.3 379.5,662.4 381.4,662.4 381.4,286.2 '/>
		<polygon fill = 'rgb( 31, 120, 180)' fill-opacity = '0.250000' points = '381.4,286.2 381.4,662.4 383.3,662.4 383.3,283.1 '/>
		<polygon fill = 'rgb( 31, 120, 180)' fill-opacity = '0.250000' points = '383.3,283.1 383.3,662.4 385.2,662.4 385.2,280.1 '/>
		<polygon fill = 'rgb( 31, 120, 180)' fill-opacity = '0.250000' points = '385.2,280.1 385.2,662.4 387.1,662.4 387.1,277.0 '/>
		<polygon fill = 'rgb( 31, 120, 180)' fill-opacity = '0.250000' points = '387.1,277.0 387.1,662.4 388.9,662.4 388.9,274.0 '/>
		<polygon fill = 'rgb( 31, 120, 180)' fill-opacity = '0.250000' points = '388.9,274.0 388.9,662.4 390.8,662.4 390.8,271.0 '/>
		<polygon fill = 'rgb( 31, 120, 180)' fill-opacity = '0.250000' points = '390.8,271.0 390.8,662.4 392.7,662.4 392.7,268.1 '/>
		<polygon fill = 'rgb( 31, 120, 180)' fill-opacity = '0.250000' points = '392.7,268.1 392.7,662.4 394.6,662.4 394.6,265.2 '/>
		<polygon fill = 'rgb( 31, 120, 180)' fill-opacity = '0.250000' points = '394.6,265.2 394.6,662.4 396.5,662.4 396.5,262.3 '/>
		<polygon fill = 'rgb( 31, 120, 180)' fill-opacity = '0.250000' points = '396.5,262.3 396.5,662.4 398.4,662.4 398.4,259.4 '/>
		<polygon fill = 'rgb( 31, 120, 180)' fill-opacity = '0.250000' points = '398.4,259.4 398.4,662.4 400.3,662.4 400.3,256.6 '/>
		<polygon fill = 'rgb( 31, 120, 180)' fill-opacity = '0.250000' points = '400.3,256.6 400.3,662.4 402.2,662.4 402.2,253.8 '/>
		<polygon fill = 'rgb( 31, 120, 180)' fill-opacity = '0.250000' points = '402.2,253.8 402.2,662.4 404.0,662.4 404.0,251.0 '/>
		<polygon fill = 'rgb( 31, 120, 180)' fill-opacity = '0.250000' points = '404.0,251.0 404.0,662.4 405.9,662.4 405.9,248.3 '/>
		<polygon fill = 'rgb( 31, 120, 180)' fill-opacity = '0.250000' points = '405.9,248.3 405.9,662.4 407.8,662.4 407.8,245.6 '/>
		<polygon fill = 'rgb( 31, 120, 180)' fill-opacity = '0.250000' points = '407.8,245.6 407.8,662.4 409.7,662.4 409.7,242.9 '/>
		<polygon fill = 'rgb( 31, 120, 180)' fill-opacity = '0.250000' points = '409.7,242.9 409.7,662.4 411.6,662.4 411.6,240.2 '/>
		<polygon fill = 'rgb( 31, 120, 180)' fill-opacity = '0.250000' points = '411.6,240.2 411.6,662.4 413.5,662.4 413.5,237.5 '/>
		<polygon fill = 'rgb( 31, 120, 180)' fill-opacity = '0.250000' points = '413.5,237.5 413.5,662.4 415.4,662.4 415.4,234.9 '/>
		<polygon fill = 'rgb( 31, 120, 180)' fill-opacity = '0.250000' points = '415.4,234.9 415.4,662.4 417.3,662.4 417.3,232.2 '/>
		<polygon fill = 'rgb( 31, 120, 180)' fill-opacity = '0.250000' points = '417.3,232.2 417.3,662.4 419.1,662.4 419.1,229.6 '/>
		<polygon fill = 'rgb( 31, 120, 180)' fill-opacity = '0.250000' points = '419.1,229.6 419.1,662.4 421.0,662.4 421.0,227.0 '/>
		<polygon fill = 'rgb( 31, 120, 180)' fill-opacity = '0.250000' points = '421.0,227.0 421.0,662.4 422.9,662.4 422.9,224.4 '/>
		<polygon fill = 'rgb( 31, 120, 180)' fill-opacity = '0.250000' points = '422.9,224.4 422.9,662.4 424.8,662.4 424.8,221.8 '/>
		<polygon fill = 'rgb( 31, 120, 180)' fill-opacity = '0.250000' points = '424.8,221.8 424.8,662.4 426.7,662.4 426.7,219.3 '/>
		<polygon fill = 'rgb( 31, 120, 180)' fill-opacity = '0.250000' points = '426.7,219.3 426.7,662.4 428.6,662.4 428.6,216.8 '/>
		<polygon fill = 'rgb( 31, 120, 180)' fill-opacity = '0.250000' points = '428.6,216.8 428.6,662.4 430.5,662.4 430.5,214.3 '/>
		<polygon fill = 'rgb( 31, 120, 180)' fill-opacity = '0.250000' points = '430.5,214.3 430.5,662.4 432.4,662.4 432.4,211.9 '/>
		<polygon fill = 'rgb( 31, 120, 180)' fill-opacity = '0.250000' points = '432.4,211.9 432.4,662.4 434.2,662.4 434.2,209.5 '/>
		<polygon fill = 'rgb( 31, 120, 180)' fill-opacity = '0.250000' points = '434.2,209.5 434.2,662.4 436.1,662.4 436.1,207.1 '/>
		<polygon fill = 'rgb( 31, 120, 180)' fill-opacity = '0.250000' points = '436.1,207.1 436.1,662.4 438.0,662.4 438.0,204.8 '/>
		<polygon fill = 'rgb( 31, 120, 180)' fill-opacity = '0.250000' points = '438.0,204.8 438.0,662.4 439.9,662.4 439.9,202.5 '/>
		<polygon fill = 'rgb( 31, 120, 180)' fill-opacity = '0.250000' points = '439.9,202.5 439.9,662.4 441.8,662.4 441.8,200.3 '/>
		<polygon fill = 'rgb( 31, 120, 180)' fill-opacity = '0.250000' points = '441.8,200.3 441.8,662.4 443.7,662.4 443.7,198.1 '/>
		<polygon fill = 'rgb( 31, 120, 180)' fill-opacity = '0.250000' points = '443.7,198.1 443.7,662.4 445.6,662.4 445.6,196.0 '/>
		<polygon fill = 'rgb( 31, 120, 180)' fill-opacity = '0.250000' points = '445.6,196.0 445.6,662.4 447.4,662.4 447.4,193.9 '/>
		<polygon fill = 'rgb( 31, 120, 180)' fill-opacity = '0.250000' points = '447.4,193.9 447.4,662.4 449.3,662.4 449.3,191.9 '/>
		<polygon fill = 'rgb( 31, 120, 180)' fill-opacity = '0.250000' points = '449.3,191.9 449.3,662.4 451.2,662.4 451.2,189.9 '/>
		<polygon fill = 'rgb( 31, 120, 180)' fill-opacity = '0.250000' points = '451.2,189.9 451.2,662.4 453.1,662.4 453.1,188.0 '/>
		<polygon fill = 'rgb( 31, 120, 180)' fill-opacity = '0.250000' points = '453.1,188.0 453.1,662.4 455.0,662.4 455.0,186.1 '/>
		<polygon fill = 'rgb( 31, 120, 180)' fill-opacity = '0.250000' points = '455.0,186.1 455.0,662.4 456.9,662.4 456.9,184.2 '/>
		<polygon fill = 'rgb( 31, 120, 180)' fill-opacity = '0.250000' points = '456.9,184.2 456.9,662.4 458.8,662.4 458.8,182.4 '/>
		<polygon fill = 'rgb( 31, 120, 180)' fill-opacity = '0.250000' points = '458.8,182.4 458.8,662.4 460.7,662.4 460.7,180.5 '/>
		<polygon fill = 'rgb( 31, 120, 180)' fill-opacity = '0.250000' points = '460.7,180.5 460.7,662.4 462.5,662.4 462.5,178.7 '/>
		<polygon fill = 'rgb( 31, 120, 180)' fill-opacity = '0.250000' points = '462.5,178.7 462.5,662.4 464.4,662.4 464.4,176.9 '/>
		<polygon fill = 'rgb( 31, 120, 180)' fill-opacity = '0.250000' points = '464.4,176.9 464.4,662.4 466.3,662.4 466.3,175.0 '/>
		<polygon fill = 'rgb( 31, 120, 180)' fill-opacity = '0.250000' points = '466.3,175.0 466.3,662.4 468.2,662.4 468.2,173.2 '/>
		<polygon fill = 'rgb( 31, 120, 180)' fill-opacity = '0.250000' points = '468.2,173.2 468.2,662.4 470.1,662.4 470.1,171.3 '/>
		<polygon fill = 'rgb( 31, 120, 180)' fill-opacity = '0.250000' points = '470.1,171.3 470.1,662.4 472.0,662.4 472.0,169.4 '/>
		<polygon fill = 'rgb( 31, 120, 180)' fill-opacity = '0.250000' points = '472.0,169.4 472.0,662.4 473.9,662.4 473.9,167.5 '/>
		<polygon fill = 'rgb( 31, 120, 180)' fill-opacity = '0.250000' points = '473.9,167.5 473.9,662.4 475.8,662.4 475.8,165.5 '/>
		<polygon fill = 'rgb( 31, 120, 180)' fill-opacity = '0.250000' points = '475.8,165.5 475.8,662.4 477.6,662.4 477.6,163.5 '/>
		<polygon fill = 'rgb( 31, 120, 180)' fill-opacity = '0.250000' points = '477.6,163.5 477.6,662.4 479.5,662.4 479.5,161.5 '/>
		<polygon fill = 'rgb( 31, 120, 180)' fill-opacity = '0.250000' points = '479.5,161.5 479.5,662.4 481.4,662.4 481.4,159.4 '/>
		<polygon fill = 'rgb( 31, 120, 180)' fill-opacity = '0.250000' points = '481.4,159.4 481.4,662.4 483.3,662.4 483.3,157.4 '/>
		<polygon fill = 'rgb( 31, 120, 180)' fill-opacity = '0.250000' points = '483.3,157.4 483.3,662.4 485.2,662.4 485.2,155.3 '/>
		<polygon fill = 'rgb( 31, 120, 180)' fill-opacity = '0.250000' points = '485.2,155.3 485.2,662.4 487.1,662.4 487.1,153.2 '/>
		<polygon fill = 'rgb( 31, 120, 180)' fill-opacity = '0.250000' points = '487.1,153.2 487.1,662.4 489.0,662.4 489.0,151.2 '/>
		<polygon fill = 'rgb( 31, 120, 180)' fill-opacity = '0.250000' points = '489.0,151.2 489.0,662.4 490.9,662.4 490.9,149.1 '/>
		<polygon fill = 'rgb( 31, 120, 180)' fill-opacity = '0.250000' points = '490.9,149.1 490.9,662.4 492.7,662.4 492.7,147.2 '/>
		<polygon fill = 'rgb( 31, 120, 180)' fill-opacity = '0.250000' points = '492.7,147.2 492.7,662.4 494.6,662.4 494.6,145.2 '/>
		<polygon fill = 'rgb( 31, 120, 180)' fill-opacity = '0.250000' points = '494.6,145.2 494.6,662.4 496.5,662.4 496.5,143.4 '/>
		<polygon fill = 'rgb( 31, 120, 180)' fill-opacity = '0.250000' points = '496.5,143.4 496.5,662.4 498.4,662.4 498.4,141.6 '/>
		<polygon fill = 'rgb( 31, 120, 180)' fill-opacity = '0.250000' points = '498.4,141.6 498.4,662.4 500.3,662.4 500.3,140.0 '/>
		<polygon fill = 'rgb( 31, 120, 180)' fill-opacity = '0.250000' points = '500.3,140.0 500.3,662.4 502.2,662.4 502.2,138.5 '/>
		<polygon fill = 'rgb( 31, 120, 180)' fill-opacity = '0.250000' points = '502.2,138.5 502.2,662.4 504.1,662.4 504.1,137.0 '/>
		<polygon fill = 'rgb( 31, 120, 180)' fill-opacity = '0.250000' points = '504.1,137.0 504.1,662.4 506.0,662.4 506.0,135.8 '/>
		<polygon fill = 'rgb( 31, 120, 180)' fill-opacity = '0.250000' points = '506.0,135.8 506.0,662.4 507.8,662.4 507.8,134.6 '/>
		<polygon fill = 'rgb( 31, 120, 180)' fill-opacity = '0.250000' points = '507.8,134.6 507.8,662.4 509.7,662.4 509.7,133.6 '/>
		<polygon fill = 'rgb( 31, 120, 180)' fill-opacity = '0.250000' points = '509.7,133.6 509.7,662.4 511.6,662.4 511.6,132.7 '/>
		<polygon fill = 'rgb( 31, 120, 180)' fill-opacity = '0.250000' points = '511.6,132.7 511.6,662.4 513.5,662.4 513.5,132.0 '/>
		<polygon fill = 'rgb( 31, 120, 180)' fill-opacity = '0.250000' points = '513.5,132.0 513.5,662.4 515.4,662.4 515.4,131.3 '/>
		<polygon fill = 'rgb( 31, 120, 180)' fill-opacity = '0.250000' points = '515.4,131.3 515.4,662.4 517.3,662.4 517.3,130.8 '/>
		<polygon fill = 'rgb( 31, 120, 180)' fill-opacity = '0.250000' points = '517.3,130.8 517.3,662.4 519.2,662.4 519.2,130.4 '/>
		<polygon fill = 'rgb( 31, 120, 180)' fill-opacity = '0.250000' points = '519.2,130.4 519.2,662.4 521.0,662.4 521.0,130.1 '/>
		<polygon fill = 'rgb( 31, 120, 180)' fill-opacity = '0.250000' points = '521.0,130.1 521.0,662.4 522.9,662.4 522.9,129.9 '/>
		<polygon fill = 'rgb( 31, 120, 180)' fill-opacity = '0.250000' points = '522.9,129.9 522.9,662.4 524.8,662.4 524.8,129.8 '/>
		<polygon fill = 'rgb( 31, 120, 180)' fill-opacity = '0.250000' points = '524.8,129.8 524.8,662.4 526.7,662.4 526.7,129.7 '/>
		<polygon fill = 'rgb( 31, 120, 180)' fill-opacity = '0.250000' points = '526.7,129.7 526.7,662.4 528.6,662.4 528.6,129.7 '/>
		<polygon fill = 'rgb( 31, 120, 180)' fill-opacity = '0.250000' points = '528.6,129.7 528.6,662.4 530.5,662.4 530.5,129.8 '/>
		<polygon fill = 'rgb( 31, 120, 180)' fill-opacity = '0.250000' points = '530.5,129.8 530.5,662.4 532.4,662.4 532.4,129.9 '/>
		<polygon fill = 'rgb( 31, 120, 180)' fill-opacity = '0.250000' points = '532.4,129.9 532.4,662.4 534.3,662.4 534.3,130.0 '/>
		<polygon fill = 'rgb( 31, 120, 180)' fill-opacity = '0.250000' points = '534.3,130.0 534.3,662.4 536.1,662.4 536.1,130.2 '/>
		<polygon fill = 'rgb( 31, 120, 180)' fill-opacity = '0.250000' points = '536.1,130.2 536.1,662.4 538.0,662.4 538.0,130.3 '/>
		<polygon fill = 'rgb( 31, 120, 180)' fill-opacity = '0.250000' points = '538.0,130.3 538.0,662.4 539.9,662.4 539.9,130.5 '/>
		<polygon fill = 'rgb( 31, 120, 180)' fill-opacity = '0.250000' points = '539.9,130.5 539.9,662.4 541.8,662.4 541.8,130.7 '/>
		<polygon fill = 'rgb( 31, 120, 180)' fill-opacity = '0.250000' points = '541.8,130.7 541.8,662.4 543.7,662.4 543.7,130.9 '/>
		<polygon fill = 'rgb( 31, 120, 180)' fill-opacity = '0.250000' points = '543.7,130.9 543.7,662.4 545.6,662.4 545.6,131.2 '/>
		<polygon fill = 'rgb( 31, 120, 180)' fill-opacity = '0.250000' points = '545.6,131.2 545.6,662.4 547.5,662.4 547.5,131.4 '/>
		<polygon fill = 'rgb( 31, 120, 180)' fill-opacity = '0.250000' points = '547.5,131.4 547.5,662.4 549.4,662.4 549.4,131.7 '/>
		<polygon fill = 'rgb( 31, 120, 180)' fill-opacity = '0.250000' points = '549.4,131.7 549.4,662.4 551.2,662.4 551.2,132.0 '/>
		<polygon fill = 'rgb( 31, 120, 180)' fill-opacity = '0.250000' points = '551.2,132.0 551.2,662.4 553.1,662.4 553.1,132.3 '/>
		<polygon fill = 'rgb( 31, 120, 180)' fill-opacity = '0.250000' points = '553.1,132.3 553.1,662.4 555.0,662.4 555.0,132.6 '/>
		<polygon fill = 'rgb( 31, 120, 180)' fill-opacity = '0.250000' points = '555.0,132.6 555.0,662.4 556.9,662.4 556.9,133.0 '/>
		<polygon fill = 'rgb( 31, 120, 180)' fill-opacity = '0.250000' points = '556.9,133.0 556.9,662.4 558.8,662.4 558.8,133.4 '/>
		<polygon fill = 'rgb( 31, 120, 180)' fill-opacity = '0.250000' points = '558.8,133.4 558.8,662.4 560.7,662.4 560.7,133.8 '/>
		<polygon fill = 'rgb( 31, 120, 180)' fill-opacity = '0.250000' points = '560.7,133.8 560.7,662.4 562.6,662.4 562.6,134.2 '/>
		<polygon fill = 'rgb( 31, 120, 180)' fill-opacity = '0.250000' points = '562.6,134.2 562.6,662.4 564.5,662.4 564.5,134.7 '/>
		<polygon fill = 'rgb( 31, 120, 180)' fill-opacity = '0.250000' points = '564.5,134.7 564.5,662.4 566.3,662.4 566.3,135.2 '/>
		<polygon fill = 'rgb( 31, 120, 180)' fill-opacity = '0.250000' points = '566.3,135.2 566.3,662.4 568.2,662.4 568.2,135.8 '/>
		<polygon fill = 'rgb( 31, 120, 180)' fill-opacity = '0.250000' points = '568.2,135.8 568.2,662.4 570.1,662.4 570.1,136.4 '/>
		<polygon fill = 'rgb( 31, 120, 180)' fill-opacity = '0.250000' points = '570.1,136.4 570.1,662.4 572.0,662.4 572.0,137.0 '/>
		<polygon fill = 'rgb( 31, 120, 180)' fill-opacity = '0.250000' points = '572.0,137.0 572.0,662.4 573.9,662.4 573.9,137.7 '/>
		<polygon fill = 'rgb( 31, 120, 180)' fill-opacity = '0.250000' points = '573.9,137.7 573.9,662.4 575.8,662.4 575.8,138.5 '/>
		<polygon fill = 'rgb( 31, 120, 180)' fill-opacity = '0.250000' points = '575.8,138.5 575.8,662.4 577.7,662.4 577.7,139.3 '/>
		<polygon fill = 'rgb( 31, 120, 180)' fill-opacity = '0.250000' points = '577.7,139.3 577.7,662.4 579.5,662.4 579.5,140.1 '/>
		<polygon fill = 'rgb( 31, 120, 180)' fill-opacity = '0.250000' points = '579.5,140.1 579.5,662.4 581.4,662.4 581.4,141.0 '/>
		<polygon fill = 'rgb( 31, 120, 180)' fill-opacity = '0.250000' points = '581.4,141.0 581.4,662.4 583.3,662.4 583.3,142.0 '/>
		<polygon fill = 'rgb( 31, 120, 180)' fill-opacity = '0.250000' points = '583.3,142.0 583.3,662.4 585.2,662.4 585.2,143.0 '/>
		<polygon fill = 'rgb( 31, 120, 180)' fill-opacity = '0.250000' points = '585.2,143.0 585.2,662.4 587.1,662.4 587.1,144.1 '/>
		<polygon fill = 'rgb( 31, 120, 180)' fill-opacity = '0.250000' points = '587.1,144.1 587.1,662.4 589.0,662.4 589.0,145.2 '/>
		<polygon fill = 'rgb( 31, 120, 180)' fill-opacity = '0.250000' points = '589.0,145.2 589.0,662.4 590.9,662.4 590.9,146.5 '/>
		<polygon fill = 'rgb( 31, 120, 180)' fill-opacity = '0.250000' points = '590.9,146.5 590.9,662.4 592.8,662.4 592.8,147.7 '/>
		<polygon fill = 'rgb( 31, 120, 180)' fill-opacity = '0.250000' points = '592.8,147.7 592.8,662.4 594.6,662.4 594.6,149.1 '/>
		<polygon fill = 'rgb( 31, 120, 180)' fill-opacity = '0.250000' points = '594.6,149.1 594.6,662.4 596.5,662.4 596.5,150.5 '/>
		<polygon fill = 'rgb( 31, 120, 180)' fill-opacity = '0.250000' points = '596.5,150.5 596.5,662.4 598.4,662.4 598.4,152.0 '/>
		<polygon fill = 'rgb( 31, 120, 180)' fill-opacity = '0.250000' points = '598.4,152.0 598.4,662.4 600.3,662.4 600.3,153.5 '/>
		<polygon fill = 'rgb( 31, 120, 180)' fill-opacity = '0.250000' points = '600.3,153.5 600.3,662.4 602.2,662.4 602.2,155.1 '/>
		<polygon fill = 'rgb( 31, 120, 180)' fill-opacity = '0.250000' points = '602.2,155.1 602.2,662.4 604.1,662.4 604.1,156.8 '/>
		<polygon fill = 'rgb( 31, 120, 180)' fill-opacity = '0.250000' points = '604.1,156.8 604.1,662.4 606.0,662.4 606.0,158.6 '/>
		<polygon fill = 'rgb( 31, 120, 180)' fill-opacity = '0.250000' points = '606.0,158.6 606.0,662.4 607.9,662.4 607.9,160.4 '/>
		<polygon fill = 'rgb( 31, 120, 180)' fill-opacity = '0.250000' points = '607.9,160.4 607.9,662.4 609.7,662.4 609.7,162.3 '/>
		<polygon fill = 'rgb( 31, 120, 180)' fill-opacity = '0.250000' points = '609.7,162.3 609.7,662.4 611.6,662.4 611.6,164.3 '/>
		<polygon fill = 'rgb( 31, 120, 180)' fill-opacity = '0.250000' points = '611.6,164.3 611.6,662.4 613.5,662.4 613.5,166.3 '/>
		<polygon fill = 'rgb( 31, 120, 180)' fill-opacity = '0.250000' points = '613.5,166.3 613.5,662.4 615.4,662.4 615.4,168.4 '/>
		<polygon fill = 'rgb( 31, 120, 180)' fill-opacity = '0.250000' points = '615.4,168.4 615.4,662.4 617.3,662.4 617.3,170.5 '/>
		<polygon fill = 'rgb( 31, 120, 180)' fill-opacity = '0.250000' points = '617.3,170.5 617.3,662.4 619.2,662.4 619.2,172.7 '/>
		<polygon fill = 'rgb( 31, 120, 180)' fill-opacity = '0.250000' points = '619.2,172.7 619.2,662.4 621.1,662.4 621.1,174.9 '/>
		<polygon fill = 'rgb( 31, 120, 180)' fill-opacity = '0.250000' points = '621.1,174.9 621.1,662.4 623.0,662.4 623.0,177.2 '/>
		<polygon fill = 'rgb( 31, 120, 180)' fill-opacity = '0.250000' points = '623.0,177.2 623.0,662.4 624.8,662.4 624.8,179.5 '/>
		<polygon fill = 'rgb( 31, 120, 180)' fill-opacity = '0.250000' points = '624.8,179.5 624.8,662.4 626.7,662.4 626.7,181.9 '/>
		<polygon fill = 'rgb( 31, 120, 180)' fill-opacity = '0.250000' points = '626.7,181.9 626.7,662.4 628.6,662.4 628.6,184.3 '/>
		<polygon fill = 'rgb( 31, 120, 180)' fill-opacity = '0.250000' points = '628.6,184.3 628.6,662.4 630.5,662.4 630.5,186.7 '/>
		<polygon fill = 'rgb( 31, 120, 180)' fill-opacity = '0.250000' points = '630.5,186.7 630.5,662.4 632.4,662.4 632.4,189.2 '/>
		<polygon fill = 'rgb( 31, 120, 180)' fill-opacity = '0.250000' points = '632.4,189.2 632.4,662.4 634.3,662.4 634.3,191.7 '/>
		<polygon fill = 'rgb( 31, 120, 180)' fill-opacity = '0.250000' points = '634.3,191.7 634.3,662.4 636.2,662.4 636.2,194.2 '/>
		<polygon fill = 'rgb( 31, 120, 180)' fill-opacity = '0.250000' points = '636.2,194.2 636.2,662.4 638.1,662.4 638.1,196.8 '/>
		<polygon fill = 'rgb( 31, 120, 180)' fill-opacity = '0.250000' points = '638.1,196.8 638.1,662.4 639.9,662.4 639.9,199.4 '/>
		<polygon fill = 'rgb( 31, 120, 180)' fill-opacity = '0.250000' points = '639.9,199.4 639.9,662.4 641.8,662.4 641.8,202.0 '/>
		<polygon fill = 'rgb( 31, 120, 180)' fill-opacity = '0.250000' points = '641.8,202.0 641.8,662.4 643.7,662.4 643.7,204.7 '/>
		<polygon fill = 'rgb( 31, 120, 180)' fill-opacity = '0.250000' points = '643.7,204.7 643.7,662.4 645.6,662.4 645.6,207.4 '/>
		<polygon fill = 'rgb( 31, 120, 180)' fill-opacity = '0.250000' points = '645.6,207.4 645.6,662.4 647.5,662.4 647.5,210.1 '/>
		<polygon fill = 'rgb( 31, 120, 180)' fill-opacity = '0.250000' points = '647.5,210.1 647.5,662.4 649.4,662.4 649.4,212.8 '/>
		<polygon fill = 'rgb( 31, 120, 180)' fill-opacity = '0.250000' points = '649.4,212.8 649.4,662.4 651.3,662.4 651.3,215.6 '/>
		<polygon fill = 'rgb( 31, 120, 180)' fill-opacity = '0.250000' points = '651.3,215.6 651.3,662.4 653.1,662.4 653.1,218.4 '/>
		<polygon fill = 'rgb( 31, 120, 180)' fill-opacity = '0.250000' points = '653.1,218.4 653.1,662.4 655.0,662.4 655.0,221.2 '/>
		<polygon fill = 'rgb( 31, 120, 180)' fill-opacity = '0.250000' points = '655.0,221.2 655.0,662.4 656.9,662.4 656.9,224.0 '/>
		<polygon fill = 'rgb( 31, 120, 180)' fill-opacity = '0.250000' points = '656.9,224.0 656.9,662.4 658.8,662.4 658.8,226.8 '/>
		<polygon fill = 'rgb( 31, 120, 180)' fill-opacity = '0.250000' points = '658.8,226.8 658.8,662.4 660.7,662.4 660.7,229.7 '/>
		<polygon fill = 'rgb( 31, 120, 180)' fill-opacity = '0.250000' points = '660.7,229.7 660.7,662.4 662.6,662.4 662.6,232.5 '/>
		<polygon fill = 'rgb( 31, 120, 180)' fill-opacity = '0.250000' points = '662.6,232.5 662.6,662.4 664.5,662.4 664.5,235.4 '/>
		<polygon fill = 'rgb( 31, 120, 180)' fill-opacity = '0.250000' points = '664.5,235.4 664.5,662.4 666.4,662.4 666.4,238.3 '/>
		<polygon fill = 'rgb( 31, 120, 180)' fill-opacity = '0.250000' points = '666.4,238.3 666.4,662.4 668.2,662.4 668.2,241.1 '/>
		<polygon fill = 'rgb( 31, 120, 180)' fill-opacity = '0.250000' points = '668.2,241.1 668.2,662.4 670.1,662.4 670.1,244.0 '/>
		<polygon fill = 'rgb( 31, 120, 180)' fill-opacity = '0.250000' points = '670.1,244.0 670.1,662.4 672.0,662.4 672.0,246.8 '/>
		<polygon fill = 'rgb( 31, 120, 180)' fill-opacity = '0.250000' points = '672.0,246.8 672.0,662.4 673.9,662.4 673.9,249.7 '/>
		<polygon fill = 'rgb( 31, 120, 180)' fill-opacity = '0.250000' points = '673.9,249.7 673.9,662.4 675.8,662.4 675.8,252.6 '/>
		<polygon fill = 'rgb( 31, 120, 180)' fill-opacity = '0.250000' points = '675.8,252.6 675.8,662.4 677.7,662.4 677.7,255.4 '/>
		<polygon fill = 'rgb( 31, 120, 180)' fill-opacity = '0.250000' points = '677.7,255.4 677.7,662.4 679.6,662.4 679.6,258.3 '/>
		<polygon fill = 'rgb( 31, 120, 180)' fill-opacity = '0.250000' points = '679.6,258.3 679.6,662.4 681.5,662.4 681.5,261.1 '/>
		<polygon fill = 'rgb( 31, 120, 180)' fill-opacity = '0.250000' points = '681.5,261.1 681.5,662.4 683.3,662.4 683.3,264.0 '/>
		<polygon fill = 'rgb( 31, 120, 180)' fill-opacity = '0.250000' points = '683.3,264.0 683.3,662.4 685.2,662.4 685.2,266.9 '/>
		<polygon fill = 'rgb( 31, 120, 180)' fill-opacity = '0.250000' points = '685.2,266.9 685.2,662.4 687.1,662.4 687.1,269.8 '/>
		<polygon fill = 'rgb( 31, 120, 180)' fill-opacity = '0.250000' points = '687.1,269.8 687.1,662.4 689.0,662.4 689.0,272.7 '/>
		<polygon fill = 'rgb( 31, 120, 180)' fill-opacity = '0.250000' points = '689.0,272.7 689.0,662.4 690.9,662.4 690.9,275.6 '/>
		<polygon fill = 'rgb( 31, 120, 180)' fill-opacity = '0.250000' points = '690.9,275.6 690.9,662.4 692.8,662.4 692.8,278.6 '/>
		<polygon fill = 'rgb( 31, 120, 180)' fill-opacity = '0.250000' points = '692.8,278.6 692.8,662.4 694.7,662.4 694.7,281.5 '/>
		<polygon fill = 'rgb( 31, 120, 180)' fill-opacity = '0.250000' points = '694.7,281.5 694.7,662.4 696.6,662.4 696.6,284.5 '/>
		<polygon fill = 'rgb( 31, 120, 180)' fill-opacity = '0.250000' points = '696.6,284.5 696.6,662.4 698.4,662.4 698.4,287.5 '/>
		<polygon fill = 'rgb( 31, 120, 180)' fill-opacity = '0.250000' points = '698.4,287.5 698.4,662.4 700.3,662.4 700.3,290.5 '/>
		<polygon fill = 'rgb( 31, 120, 180)' fill-opacity = '0.250000' points = '700.3,290.5 700.3,662.4 702.2,662.4 702.2,293.6 '/>
		<polygon fill = 'rgb( 31, 120, 180)' fill-opacity = '0.250000' points = '702.2,293.6 702.2,662.4 704.1,662.4 704.1,296.6 '/>
		<polygon fill = 'rgb( 31, 120, 180)' fill-opacity = '0.250000' points = '704.1,296.6 704.1,662.4 706.0,662.4 706.0,299.7 '/>
		<polygon fill = 'rgb( 31, 120, 180)' fill-opacity = '0.250000' points = '706.0,299.7 706.0,662.4 707.9,662.4 707.9,302.8 '/>
		<polygon fill = 'rgb( 31, 120, 180)' fill-opacity = '0.250000' points = '707.9,302.8 707.9,662.4 709.8,662.4 709.8,305.9 '/>
		<polygon fill = 'rgb( 31, 120, 180)' fill-opacity = '0.250000' points = '709.8,305.9 709.8,662.4 711.7,662.4 711.7,309.0 '/>
		<polygon fill = 'rgb( 31, 120, 180)' fill-opacity = '0.250000' points = '711.7,309.0 711.7,662.4 713.5,662.4 713.5,312.1 '/>
		<polygon fill = 'rgb( 31, 120, 180)' fill-opacity = '0.250000' points = '713.5,312.1 713.5,662.4 715.4,662.4 715.4,315.3 '/>
		<polygon fill = 'rgb( 31, 120, 180)' fill-opacity = '0.250000' points = '715.4,315.3 715.4,662.4 717.3,662.4 717.3,318.4 '/>
		<polygon fill = 'rgb( 31, 120, 180)' fill-opacity = '0.250000' points = '717.3,318.4 717.3,662.4 719.2,662.4 719.2,321.6 '/>
		<polygon fill = 'rgb( 31, 120, 180)' fill-opacity = '0.250000' points = '719.2,321.6 719.2,662.4 721.1,662.4 721.1,324.7 '/>
		<polygon fill = 'rgb( 31, 120, 180)' fill-opacity = '0.250000' points = '721.1,324.7 721.1,662.4 723.0,662.4 723.0,327.9 '/>
		<polygon fill = 'rgb( 31, 120, 180)' fill-opacity = '0.250000' points = '723.0,327.9 723.0,662.4 724.9,662.4 724.9,331.1 '/>
		<polygon fill = 'rgb( 31, 120, 180)' fill-opacity = '0.250000' points = '724.9,331.1 724.9,662.4 726.7,662.4 726.7,334.2 '/>
		<polygon fill = 'rgb( 31, 120, 180)' fill-opacity = '0.250000' points = '726.7,334.2 726.7,662.4 728.6,662.4 728.6,337.4 '/>
		<polygon fill = 'rgb( 31, 120, 180)' fill-opacity = '0.250000' points = '728.6,337.4 728.6,662.4 730.5,662.4 730.5,340.6 '/>
		<polygon fill = 'rgb( 31, 120, 180)' fill-opacity = '0.250000' points = '730.5,340.6 730.5,662.4 732.4,662.4 732.4,343.7 '/>
		<polygon fill = 'rgb( 31, 120, 180)' fill-opacity = '0.250000' points = '732.4,343.7 732.4,662.4 734.3,662.4 734.3,346.9 '/>
		<polygon fill = 'rgb( 31, 120, 180)' fill-opacity = '0.250000' points = '734.3,346.9 734.3,662.4 736.2,662.4 736.2,350.0 '/>
		<polygon fill = 'rgb( 31, 120, 180)' fill-opacity = '0.250000' points = '736.2,350.0 736.2,662.4 738.1,662.4 738.1,353.2 '/>
		<polygon fill = 'rgb( 31, 120, 180)' fill-opacity = '0.250000' points = '738.1,353.2 738.1,662.4 740.0,662.4 740.0,356.3 '/>
		<polygon fill = 'rgb( 31, 120, 180)' fill-opacity = '0.250000' points = '740.0,356.3 740.0,662.4 741.8,662.4 741.8,359.4 '/>
		<polygon fill = 'rgb( 31, 120, 180)' fill-opacity = '0.250000' points = '741.8,359.4 741.8,662.4 743.7,662.4 743.7,362.5 '/>
		<polygon fill = 'rgb( 31, 120, 180)' fill-opacity = '0.250000' points = '743.7,362.5 743.7,662.4 745.6,662.4 745.6,365.6 '/>
		<polygon fill = 'rgb( 31, 120, 180)' fill-opacity = '0.250000' points = '745.6,365.6 745.6,662.4 747.5,662.4 747.5,368.7 '/>
		<polygon fill = 'rgb( 31, 120, 180)' fill-opacity = '0.250000' points = '747.5,368.7 747.5,662.4 749.4,662.4 749.4,371.8 '/>
		<polygon fill = 'rgb( 31, 120, 180)' fill-opacity = '0.250000' points = '749.4,371.8 749.4,662.4 751.3,662.4 751.3,374.9 '/>
		<polygon fill = 'rgb( 31, 120, 180)' fill-opacity = '0.250000' points = '751.3,374.9 751.3,662.4 753.2,662.4 753.2,378.0 '/>
		<polygon fill = 'rgb( 31, 120, 180)' fill-opacity = '0.250000' points = '753.2,378.0 753.2,662.4 755.1,662.4 755.1,381.1 '/>
		<polygon fill = 'rgb( 31, 120, 180)' fill-opacity = '0.250000' points = '755.1,381.1 755.1,662.4 756.9,662.4 756.9,384.2 '/>
		<polygon fill = 'rgb( 31, 120, 180)' fill-opacity = '0.250000' points = '756.9,384.2 756.9,662.4 758.8,662.4 758.8,387.2 '/>
		<polygon fill = 'rgb( 31, 120, 180)' fill-opacity = '0.250000' points = '758.8,387.2 758.8,662.4 760.7,662.4 760.7,390.3 '/>
		<polygon fill = 'rgb( 31, 120, 180)' fill-opacity = '0.250000' points = '760.7,390.3 760.7,662.4 762.6,662.4 762.6,393.4 '/>
		<polygon fill = 'rgb( 31, 120, 180)' fill-opacity = '0.250000' points = '762.6,393.4 762.6,662.4 764.5,662.4 764.5,396.4 '/>
		<polygon fill = 'rgb( 31, 120, 180)' fill-opacity = '0.250000' points = '764.5,396.4 764.5,662.4 766.4,662.4 766.4,399.5 '/>
		<polygon fill = 'rgb( 31, 120, 180)' fill-opacity = '0.250000' points = '766.4,399.5 766.4,662.4 768.3,662.4 768.3,402.5 '/>
		<polygon fill = 'rgb( 31, 120, 180)' fill-opacity = '0.250000' points = '768.3,402.5 768.3,662.4 770.2,662.4 770.2,405.5 '/>
		<polygon fill = 'rgb( 31, 120, 180)' fill-opacity = '0.250000' points = '770.2,405.5 770.2,662.4 772.0,662.4 772.0,408.5 '/>
		<polygon fill = 'rgb( 31, 120, 180)' fill-opacity = '0.250000' points = '772.0,408.5 772.0,662.4 773.9,662.4 773.9,411.5 '/>
		<polygon fill = 'rgb( 31, 120, 180)' fill-opacity = '0.250000' points = '773.9,411.5 773.9,662.4 775.8,662.4 775.8,414.5 '/>
		<polygon fill = 'rgb( 31, 120, 180)' fill-opacity = '0.250000' points = '775.8,414.5 775.8,662.4 777.7,662.4 777.7,417.5 '/>
		<polygon fill = 'rgb( 31, 120, 180)' fill-opacity = '0.250000' points = '777.7,417.5 777.7,662.4 779.6,662.4 779.6,420.5 '/>
		<polygon fill = 'rgb( 31, 120, 180)' fill-opacity = '0.250000' points = '779.6,420.5 779.6,662.4 781.5,662.4 781.5,423.4 '/>
		<polygon fill = 'rgb( 31, 120, 180)' fill-opacity = '0.250000' points = '781.5,423.4 781.5,662.4 783.4,662.4 783.4,426.3 '/>
		<polygon fill = 'rgb( 31, 120, 180)' fill-opacity = '0.250000' points = '783.4,426.3 783.4,662.4 785.3,662.4 785.3,429.2 '/>
		<polygon fill = 'rgb( 31, 120, 180)' fill-opacity = '0.250000' points = '785.3,429.2 785.3,662.4 787.1,662.4 787.1,432.1 '/>
		<polygon fill = 'rgb( 31, 120, 180)' fill-opacity = '0.250000' points = '787.1,432.1 787.1,662.4 789.0,662.4 789.0,435.0 '/>
		<polygon fill = 'rgb( 31, 120, 180)' fill-opacity = '0.250000' points = '789.0,435.0 789.0,662.4 790.9,662.4 790.9,437.8 '/>
		<polygon fill = 'rgb( 31, 120, 180)' fill-opacity = '0.250000' points = '790.9,437.8 790.9,662.4 792.8,662.4 792.8,440.7 '/>
		<polygon fill = 'rgb( 31, 120, 180)' fill-opacity = '0.250000' points = '792.8,440.7 792.8,662.4 794.7,662.4 794.7,443.5 '/>
		<polygon fill = 'rgb( 31, 120, 180)' fill-opacity = '0.250000' points = '794.7,443.5 794.7,662.4 796.6,662.4 796.6,446.2 '/>
		<polygon fill = 'rgb( 31, 120, 180)' fill-opacity = '0.250000' points = '796.6,446.2 796.6,662.4 798.5,662.4 798.5,449.0 '/>
		<polygon fill = 'rgb( 31, 120, 180)' fill-opacity = '0.250000' points = '798.5,449.0 798.5,662.4 800.3,662.4 800.3,451.7 '/>
		<polygon fill = 'rgb( 31, 120, 180)' fill-opacity = '0.250000' points = '800.3,451.7 800.3,662.4 802.2,662.4 802.2,454.4 '/>
		<polygon fill = 'rgb( 31, 120, 180)' fill-opacity = '0.250000' points = '802.2,454.4 802.2,662.4 804.1,662.4 804.1,457.1 '/>
		<polygon fill = 'rgb( 31, 120, 180)' fill-opacity = '0.250000' points = '804.1,457.1 804.1,662.4 806.0,662.4 806.0,459.7 '/>
		<polygon fill = 'rgb( 31, 120, 180)' fill-opacity = '0.250000' points = '806.0,459.7 806.0,662.4 807.9,662.4 807.9,462.4 '/>
		<polygon fill = 'rgb( 31, 120, 180)' fill-opacity = '0.250000' points = '807.9,462.4 807.9,662.4 809.8,662.4 809.8,465.0 '/>
		<polygon fill = 'rgb( 31, 120, 180)' fill-opacity = '0.250000' points = '809.8,465.0 809.8,662.4 811.7,662.4 811.7,467.5 '/>
		<polygon fill = 'rgb( 31, 120, 180)' fill-opacity = '0.250000' points = '811.7,467.5 811.7,662.4 813.6,662.4 813.6,470.1 '/>
		<polygon fill = 'rgb( 31, 120, 180)' fill-opacity = '0.250000' points = '813.6,470.1 813.6,662.4 815.4,662.4 815.4,472.6 '/>
		<polygon fill = 'rgb( 31, 120, 180)' fill-opacity = '0.250000' points = '815.4,472.6 815.4,662.4 817.3,662.4 817.3,475.1 '/>
		<polygon fill = 'rgb( 31, 120, 180)' fill-opacity = '0.250000' points = '817.3,475.1 817.3,662.4 819.2,662.4 819.2,477.5 '/>
		<polygon fill = 'rgb( 31, 120, 180)' fill-opacity = '0.250000' points = '819.2,477.5 819.2,662.4 821.1,662.4 821.1,479.9 '/>
		<polygon fill = 'rgb( 31, 120, 180)' fill-opacity = '0.250000' points = '821.1,479.9 821.1,662.4 823.0,662.4 823.0,482.3 '/>
		<polygon fill = 'rgb( 31, 120, 180)' fill-opacity = '0.250000' points = '823.0,482.3 823.0,662.4 824.9,662.4 824.9,484.6 '/>
		<polygon fill = 'rgb( 31, 120, 180)' fill-opacity = '0.250000' points = '824.9,484.6 824.9,662.4 826.8,662.4 826.8,486.9 '/>
		<polygon fill = 'rgb( 31, 120, 180)' fill-opacity = '0.250000' points = '826.8,486.9 826.8,662.4 828.7,662.4 828.7,489.2 '/>
		<polygon fill = 'rgb( 31, 120, 180)' fill-opacity = '0.250000' points = '828.7,489.2 828.7,662.4 830.5,662.4 830.5,491.4 '/>
		<polygon fill = 'rgb( 31, 120, 180)' fill-opacity = '0.250000' points = '830.5,491.4 830.5,662.4 832.4,662.4 832.4,493.6 '/>
		<polygon fill = 'rgb( 31, 120, 180)' fill-opacity = '0.250000' points = '832.4,493.6 832.4,662.4 834.3,662.4 834.3,495.8 '/>
		<polygon fill = 'rgb( 31, 120, 180)' fill-opacity = '0.250000' points = '834.3,495.8 834.3,662.4 836.2,662.4 836.2,497.9 '/>
		<polygon fill = 'rgb( 31, 120, 180)' fill-opacity = '0.250000' points = '836.2,497.9 836.2,662.4 838.1,662.4 838.1,500.0 '/>
		<polygon fill = 'rgb( 31, 120, 180)' fill-opacity = '0.250000' points = '838.1,500.0 838.1,662.4 840.0,662.4 840.0,502.1 '/>
		<polygon fill = 'rgb( 31, 120, 180)' fill-opacity = '0.250000' points = '840.0,502.1 840.0,662.4 841.9,662.4 841.9,504.1 '/>
		<polygon fill = 'rgb( 31, 120, 180)' fill-opacity = '0.250000' points = '841.9,504.1 841.9,662.4 843.8,662.4 843.8,506.2 '/>
		<polygon fill = 'rgb( 31, 120, 180)' fill-opacity = '0.250000' points = '843.8,506.2 843.8,662.4 845.6,662.4 845.6,508.2 '/>
		<polygon fill = 'rgb( 31, 120, 180)' fill-opacity = '0.250000' points = '845.6,508.2 845.6,662.4 847.5,662.4 847.5,510.2 '/>
		<polygon fill = 'rgb( 31, 120, 180)' fill-opacity = '0.250000' points = '847.5,510.2 847.5,662.4 849.4,662.4 849.4,512.1 '/>
		<polygon fill = 'rgb( 31, 120, 180)' fill-opacity = '0.250000' points = '849.4,512.1 849.4,662.4 851.3,662.4 851.3,514.1 '/>
		<polygon fill = 'rgb( 31, 120, 180)' fill-opacity = '0.250000' points = '851.3,514.1 851.3,662.4 853.2,662.4 853.2,516.1 '/>
		<polygon fill = 'rgb( 31, 120, 180)' fill-opacity = '0.250000' points = '853.2,516.1 853.2,662.4 855.1,662.4 855.1,518.1 '/>
		<polygon fill = 'rgb( 31, 120, 180)' fill-opacity = '0.250000' points = '855.1,518.1 855.1,662.4 857.0,662.4 857.0,520.1 '/>
		<polygon fill = 'rgb( 31, 120, 180)' fill-opacity = '0.250000' points = '857.0,520.1 857.0,662.4 858.9,662.4 858.9,522.0 '/>
		<polygon fill = 'rgb( 31, 120, 180)' fill-opacity = '0.250000' points = '858.9,522.0 858.9,662.4 860.7,662.4 860.7,524.0 '/>
		<polygon fill = 'rgb( 31, 120, 180)' fill-opacity = '0.250000' points = '860.7,524.0 860.7,662.4 862.6,662.4 862.6,526.0 '/>
		<polygon fill = 'rgb( 31, 120, 180)' fill-opacity = '0.250000' points = '862.6,526.0 862.6,662.4 864.5,662.4 864.5,528.1 '/>
		<polygon fill = 'rgb( 31, 120, 180)' fill-opacity = '0.250000' points = '864.5,528.1 864.5,662.4 866.4,662.4 866.4,530.1 '/>
		<polygon fill = 'rgb( 31, 120, 180)' fill-opacity = '0.250000' points = '866.4,530.1 866.4,662.4 868.3,662.4 868.3,532.1 '/>
		<polygon fill = 'rgb( 31, 120, 180)' fill-opacity = '0.250000' points = '868.3,532.1 868.3,662.4 870.2,662.4 870.2,534.1 '/>
		<polygon fill = 'rgb( 31, 120, 180)' fill-opacity = '0.250000' points = '870.2,534.1 870.2,662.4 872.1,662.4 872.1,536.2 '/>
		<polygon fill = 'rgb( 31, 120, 180)' fill-opacity = '0.250000' points = '872.1,536.2 872.1,662.4 873.9,662.4 873.9,538.2 '/>
		<polygon fill = 'rgb( 31, 120, 180)' fill-opacity = '0.250000' points = '873.9,538.2 873.9,662.4 875.8,662.4 875.8,540.2 '/>
		<polygon fill = 'rgb( 31, 120, 180)' fill-opacity = '0.250000' points = '875.8,540.2 875.8,662.4 877.7,662.4 877.7,542.3 '/>
		<polygon fill = 'rgb( 31, 120, 180)' fill-opacity = '0.250000' points = '877.7,542.3 877.7,662.4 879.6,662.4 879.6,544.3 '/>
		<polygon fill = 'rgb( 31, 120, 180)' fill-opacity = '0.250000' points = '879.6,544.3 879.6,662.4 881.5,662.4 881.5,546.3 '/>
		<polygon fill = 'rgb( 31, 120, 180)' fill-opacity = '0.250000' points = '881.5,546.3 881.5,662.4 883.4,662.4 883.4,548.3 '/>
		<polygon fill = 'rgb( 31, 120, 180)' fill-opacity = '0.250000' points = '883.4,548.3 883.4,662.4 885.3,662.4 885.3,550.3 '/>
		<polygon fill = 'rgb( 31, 120, 180)' fill-opacity = '0.250000' points = '885.3,550.3 885.3,662.4 887.2,662.4 887.2,552.2 '/>
		<polygon fill = 'rgb( 31, 120, 180)' fill-opacity = '0.250000' points = '887.2,552.2 887.2,662.4 889.0,662.4 889.0,554.2 '/>
		<polygon fill = 'rgb( 31, 120, 180)' fill-opacity = '0.250000' points = '889.0,554.2 889.0,662.4 890.9,662.4 890.9,556.1 '/>
		<polygon fill = 'rgb( 31, 120, 180)' fill-opacity = '0.250000' points = '890.9,556.1 890.9,662.4 892.8,662.4 892.8,557.9 '/>
		<polygon fill = 'rgb( 31, 120, 180)' fill-opacity = '0.250000' points = '892.8,557.9 892.8,662.4 894.7,662.4 894.7,559.8 '/>
		<polygon fill = 'rgb( 31, 120, 180)' fill-opacity = '0.250000' points = '894.7,559.8 894.7,662.4 896.6,662.4 896.6,561.6 '/>
		<polygon fill = 'rgb( 31, 120, 180)' fill-opacity = '0.250000' points = '896.6,561.6 896.6,662.4 898.5,662.4 898.5,563.4 '/>
		<polygon fill = 'rgb( 31, 120, 180)' fill-opacity = '0.250000' points = '898.5,563.4 898.5,662.4 900.4,662.4 900.4,565.2 '/>
		<polygon fill = 'rgb( 31, 120, 180)' fill-opacity = '0.250000' points = '900.4,565.2 900.4,662.4 902.3,662.4 902.3,566.9 '/>
		<polygon fill = 'rgb( 31, 120, 180)' fill-opacity = '0.250000' points = '902.3,566.9 902.3,662.4 904.1,662.4 904.1,568.6 '/>
		<polygon fill = 'rgb( 31, 120, 180)' fill-opacity = '0.250000' points = '904.1,568.6 904.1,662.4 906.0,662.4 906.0,570.3 '/>
		<polygon fill = 'rgb( 31, 120, 180)' fill-opacity = '0.250000' points = '906.0,570.3 906.0,662.4 907.9,662.4 907.9,571.9 '/>
		<polygon fill = 'rgb( 31, 120, 180)' fill-opacity = '0.250000' points = '907.9,571.9 907.9,662.4 909.8,662.4 909.8,573.5 '/>
		<polygon fill = 'rgb( 31, 120, 180)' fill-opacity = '0.250000' points = '909.8,573.5 909.8,662.4 911.7,662.4 911.7,575.0 '/>
		<polygon fill = 'rgb( 31, 120, 180)' fill-opacity = '0.250000' points = '911.7,575.0 911.7,662.4 913.6,662.4 913.6,576.5 '/>
		<polygon fill = 'rgb( 31, 120, 180)' fill-opacity = '0.250000' points = '913.6,576.5 913.6,662.4 915.5,662.4 915.5,578.0 '/>
		<polygon fill = 'rgb( 31, 120, 180)' fill-opacity = '0.250000' points = '915.5,578.0 915.5,662.4 917.4,662.4 917.4,579.4 '/>
		<polygon fill = 'rgb( 31, 120, 180)' fill-opacity = '0.250000' points = '917.4,579.4 917.4,662.4 919.2,662.4 919.2,580.8 '/>
		<polygon fill = 'rgb( 31, 120, 180)' fill-opacity = '0.250000' points = '919.2,580.8 919.2,662.4 921.1,662.4 921.1,582.1 '/>
		<polygon fill = 'rgb( 31, 120, 180)' fill-opacity = '0.250000' points = '921.1,582.1 921.1,662.4 923.0,662.4 923.0,583.4 '/>
		<polygon fill = 'rgb( 31, 120, 180)' fill-opacity = '0.250000' points = '923.0,583.4 923.0,662.4 924.9,662.4 924.9,584.7 '/>
	</g>
</g>
	</g>
	<g id="gnuplot_plot_3" ><title>Point estimate</title>
<g fill="none" color="white" stroke="rgb( 31, 120, 180)" stroke-width="2.00" stroke-linecap="butt" stroke-linejoin="miter">
</g>
<g fill="none" color="black" stroke="currentColor" stroke-width="2.00" stroke-linecap="butt" stroke-linejoin="miter">
	<g transform="translate(1089.0,103.0)" stroke="none" fill="black" font-family="Helvetica" font-size="12.00"  text-anchor="start">
		<text><tspan font-family="Helvetica" >Point estimate</tspan></text>
	</g>
</g>
<g fill="none" color="black" stroke="currentColor" stroke-width="2.00" stroke-linecap="butt" stroke-linejoin="miter">
	<path stroke='rgb( 31, 120, 180)'  d='M1038.5,99.1 L1080.7,99.1 M526.4,662.4 L526.4,129.8  '/></g>
	</g>
	<g id="gnuplot_plot_4" ><title>Noise threshold</title>
<g fill="none" color="white" stroke="rgb( 31, 120, 180)" stroke-width="1.00" stroke-linecap="butt" stroke-linejoin="miter">
</g>
<g fill="none" color="black" stroke="currentColor" stroke-width="1.00" stroke-linecap="butt" stroke-linejoin="miter">
	<g transform="translate(1089.0,121.0)" stroke="none" fill="black" font-family="Helvetica" font-size="12.00"  text-anchor="start">
		<text><tspan font-family="Helvetica" >Noise threshold</tspan></text>
	</g>
</g>
<g fill="none" color="black" stroke="currentColor" stroke-width="1.00" stroke-linecap="butt" stroke-linejoin="miter">
	<g stroke='none' shape-rendering='crispEdges'>
		<polygon fill = 'rgb(227,  26,  28)' fill-opacity = '0.100000' points = '1038.5,121.6 1080.7,121.6 1080.7,112.6 1038.5,112.6 '/>
		<polygon fill = 'rgb(227,  26,  28)' fill-opacity = '0.100000' points = '542.7,54.1 542.7,662.4 542.7,662.4 542.7,54.1 '/>
	</g>
</g>
	</g>
<g fill="none" color="white" stroke="rgb(227,  26,  28)" stroke-width="2.00" stroke-linecap="butt" stroke-linejoin="miter">
</g>
<g fill="none" color="black" stroke="currentColor" stroke-width="2.00" stroke-linecap="butt" stroke-linejoin="miter">
</g>
<g fill="none" color="black" stroke="black" stroke-width="1.00" stroke-linecap="butt" stroke-linejoin="miter">
</g>
<g fill="none" color="black" stroke="currentColor" stroke-width="1.00" stroke-linecap="butt" stroke-linejoin="miter">
	<path stroke='black'  d='M71.9,54.1 L71.9,662.4 L1013.6,662.4 L1013.6,54.1 L71.9,54.1 Z  '/></g>
<g fill="none" color="black" stroke="currentColor" stroke-width="1.00" stroke-linecap="butt" stroke-linejoin="miter">
</g>
</g>
</svg>

