<?xml version="1.0" encoding="utf-8"  standalone="no"?>
<svg 
 viewBox="0 0 1280 720"
 xmlns="http://www.w3.org/2000/svg"
 xmlns:xlink="http://www.w3.org/1999/xlink"
>

<title>Gnuplot</title>
<desc>Produced by GNUPLOT 5.0 patchlevel 6 </desc>

<g id="gnuplot_canvas">

<rect x="0" y="0" width="1280" height="720" fill="none"/>
<defs>

	<circle id='gpDot' r='0.5' stroke-width='0.5'/>
	<path id='gpPt0' stroke-width='0.222' stroke='currentColor' d='M-1,0 h2 M0,-1 v2'/>
	<path id='gpPt1' stroke-width='0.222' stroke='currentColor' d='M-1,-1 L1,1 M1,-1 L-1,1'/>
	<path id='gpPt2' stroke-width='0.222' stroke='currentColor' d='M-1,0 L1,0 M0,-1 L0,1 M-1,-1 L1,1 M-1,1 L1,-1'/>
	<rect id='gpPt3' stroke-width='0.222' stroke='currentColor' x='-1' y='-1' width='2' height='2'/>
	<rect id='gpPt4' stroke-width='0.222' stroke='currentColor' fill='currentColor' x='-1' y='-1' width='2' height='2'/>
	<circle id='gpPt5' stroke-width='0.222' stroke='currentColor' cx='0' cy='0' r='1'/>
	<use xlink:href='#gpPt5' id='gpPt6' fill='currentColor' stroke='none'/>
	<path id='gpPt7' stroke-width='0.222' stroke='currentColor' d='M0,-1.33 L-1.33,0.67 L1.33,0.67 z'/>
	<use xlink:href='#gpPt7' id='gpPt8' fill='currentColor' stroke='none'/>
	<use xlink:href='#gpPt7' id='gpPt9' stroke='currentColor' transform='rotate(180)'/>
	<use xlink:href='#gpPt9' id='gpPt10' fill='currentColor' stroke='none'/>
	<use xlink:href='#gpPt3' id='gpPt11' stroke='currentColor' transform='rotate(45)'/>
	<use xlink:href='#gpPt11' id='gpPt12' fill='currentColor' stroke='none'/>
	<path id='gpPt13' stroke-width='0.222' stroke='currentColor' d='M0,1.330 L1.265,0.411 L0.782,-1.067 L-0.782,-1.076 L-1.265,0.411 z'/>
	<use xlink:href='#gpPt13' id='gpPt14' fill='currentColor' stroke='none'/>
	<filter id='textbox' filterUnits='objectBoundingBox' x='0' y='0' height='1' width='1'>
	  <feFlood flood-color='white' flood-opacity='1' result='bgnd'/>
	  <feComposite in='SourceGraphic' in2='bgnd' operator='atop'/>
	</filter>
	<filter id='greybox' filterUnits='objectBoundingBox' x='0' y='0' height='1' width='1'>
	  <feFlood flood-color='lightgrey' flood-opacity='1' result='grey'/>
	  <feComposite in='SourceGraphic' in2='grey' operator='atop'/>
	</filter>
</defs>
<g fill="none" color="white" stroke="currentColor" stroke-width="1.00" stroke-linecap="butt" stroke-linejoin="miter">
</g>
<g fill="none" color="black" stroke="currentColor" stroke-width="1.00" stroke-linecap="butt" stroke-linejoin="miter">
	<path stroke='black'  d='M71.9,662.4 L80.9,662.4  '/>	<g transform="translate(63.6,666.3)" stroke="none" fill="black" font-family="Helvetica" font-size="12.00"  text-anchor="end">
		<text><tspan font-family="Helvetica" > 0</tspan></text>
	</g>
</g>
<g fill="none" color="black" stroke="currentColor" stroke-width="1.00" stroke-linecap="butt" stroke-linejoin="miter">
	<path stroke='black'  d='M71.9,575.5 L80.9,575.5  '/>	<g transform="translate(63.6,579.4)" stroke="none" fill="black" font-family="Helvetica" font-size="12.00"  text-anchor="end">
		<text><tspan font-family="Helvetica" > 50</tspan></text>
	</g>
</g>
<g fill="none" color="black" stroke="currentColor" stroke-width="1.00" stroke-linecap="butt" stroke-linejoin="miter">
	<path stroke='black'  d='M71.9,488.6 L80.9,488.6  '/>	<g transform="translate(63.6,492.5)" stroke="none" fill="black" font-family="Helvetica" font-size="12.00"  text-anchor="end">
		<text><tspan font-family="Helvetica" > 100</tspan></text>
	</g>
</g>
<g fill="none" color="black" stroke="currentColor" stroke-width="1.00" stroke-linecap="butt" stroke-linejoin="miter">
	<path stroke='black'  d='M71.9,401.7 L80.9,401.7  '/>	<g transform="translate(63.6,405.6)" stroke="none" fill="black" font-family="Helvetica" font-size="12.00"  text-anchor="end">
		<text><tspan font-family="Helvetica" > 150</tspan></text>
	</g>
</g>
<g fill="none" color="black" stroke="currentColor" stroke-width="1.00" stroke-linecap="butt" stroke-linejoin="miter">
	<path stroke='black'  d='M71.9,314.8 L80.9,314.8  '/>	<g transform="translate(63.6,318.7)" stroke="none" fill="black" font-family="Helvetica" font-size="12.00"  text-anchor="end">
		<text><tspan font-family="Helvetica" > 200</tspan></text>
	</g>
</g>
<g fill="none" color="black" stroke="currentColor" stroke-width="1.00" stroke-linecap="butt" stroke-linejoin="miter">
	<path stroke='black'  d='M71.9,227.9 L80.9,227.9  '/>	<g transform="translate(63.6,231.8)" stroke="none" fill="black" font-family="Helvetica" font-size="12.00"  text-anchor="end">
		<text><tspan font-family="Helvetica" > 250</tspan></text>
	</g>
</g>
<g fill="none" color="black" stroke="currentColor" stroke-width="1.00" stroke-linecap="butt" stroke-linejoin="miter">
	<path stroke='black'  d='M71.9,141.0 L80.9,141.0  '/>	<g transform="translate(63.6,144.9)" stroke="none" fill="black" font-family="Helvetica" font-size="12.00"  text-anchor="end">
		<text><tspan font-family="Helvetica" > 300</tspan></text>
	</g>
</g>
<g fill="none" color="black" stroke="currentColor" stroke-width="1.00" stroke-linecap="butt" stroke-linejoin="miter">
	<path stroke='black'  d='M71.9,54.1 L80.9,54.1  '/>	<g transform="translate(63.6,58.0)" stroke="none" fill="black" font-family="Helvetica" font-size="12.00"  text-anchor="end">
		<text><tspan font-family="Helvetica" > 350</tspan></text>
	</g>
</g>
<g fill="none" color="black" stroke="currentColor" stroke-width="1.00" stroke-linecap="butt" stroke-linejoin="miter">
	<path stroke='black'  d='M157.2,662.4 L157.2,653.4  '/>	<g transform="translate(157.2,684.3)" stroke="none" fill="black" font-family="Helvetica" font-size="12.00"  text-anchor="middle">
		<text><tspan font-family="Helvetica" > 0</tspan></text>
	</g>
</g>
<g fill="none" color="black" stroke="currentColor" stroke-width="1.00" stroke-linecap="butt" stroke-linejoin="miter">
	<path stroke='black'  d='M319.8,662.4 L319.8,653.4  '/>	<g transform="translate(319.8,684.3)" stroke="none" fill="black" font-family="Helvetica" font-size="12.00"  text-anchor="middle">
		<text><tspan font-family="Helvetica" > 0.1</tspan></text>
	</g>
</g>
<g fill="none" color="black" stroke="currentColor" stroke-width="1.00" stroke-linecap="butt" stroke-linejoin="miter">
	<path stroke='black'  d='M482.3,662.4 L482.3,653.4  '/>	<g transform="translate(482.3,684.3)" stroke="none" fill="black" font-family="Helvetica" font-size="12.00"  text-anchor="middle">
		<text><tspan font-family="Helvetica" > 0.2</tspan></text>
	</g>
</g>
<g fill="none" color="black" stroke="currentColor" stroke-width="1.00" stroke-linecap="butt" stroke-linejoin="miter">
	<path stroke='black'  d='M644.9,662.4 L644.9,653.4  '/>	<g transform="translate(644.9,684.3)" stroke="none" fill="black" font-family="Helvetica" font-size="12.00"  text-anchor="middle">
		<text><tspan font-family="Helvetica" > 0.3</tspan></text>
	</g>
</g>
<g fill="none" color="black" stroke="currentColor" stroke-width="1.00" stroke-linecap="butt" stroke-linejoin="miter">
	<path stroke='black'  d='M807.5,662.4 L807.5,653.4  '/>	<g transform="translate(807.5,684.3)" stroke="none" fill="black" font-family="Helvetica" font-size="12.00"  text-anchor="middle">
		<text><tspan font-family="Helvetica" > 0.4</tspan></text>
	</g>
</g>
<g fill="none" color="black" stroke="currentColor" stroke-width="1.00" stroke-linecap="butt" stroke-linejoin="miter">
	<path stroke='black'  d='M970.0,662.4 L970.0,653.4  '/>	<g transform="translate(970.0,684.3)" stroke="none" fill="black" font-family="Helvetica" font-size="12.00"  text-anchor="middle">
		<text><tspan font-family="Helvetica" > 0.5</tspan></text>
	</g>
</g>
<g fill="none" color="black" stroke="currentColor" stroke-width="1.00" stroke-linecap="butt" stroke-linejoin="miter">
</g>
<g fill="none" color="black" stroke="currentColor" stroke-width="1.00" stroke-linecap="butt" stroke-linejoin="miter">
	<path stroke='black'  d='M71.9,54.1 L71.9,662.4 L1013.6,662.4 L1013.6,54.1 L71.9,54.1 Z  '/></g>
<g fill="none" color="black" stroke="currentColor" stroke-width="1.00" stroke-linecap="butt" stroke-linejoin="miter">
	<g transform="translate(17.0,358.3) rotate(270)" stroke="none" fill="black" font-family="Helvetica" font-size="12.00"  text-anchor="middle">
		<text><tspan font-family="Helvetica" >Density (a.u.)</tspan></text>
	</g>
</g>
<g fill="none" color="black" stroke="currentColor" stroke-width="1.00" stroke-linecap="butt" stroke-linejoin="miter">
	<g transform="translate(542.7,711.3)" stroke="none" fill="black" font-family="Helvetica" font-size="12.00"  text-anchor="middle">
		<text><tspan font-family="Helvetica" >Relative change (%)</tspan></text>
	</g>
</g>
<g fill="none" color="black" stroke="currentColor" stroke-width="1.00" stroke-linecap="butt" stroke-linejoin="miter">
	<g transform="translate(542.7,31.0)" stroke="none" fill="black" font-family="Helvetica" font-size="12.00"  text-anchor="middle">
		<text><tspan font-family="Helvetica" >language: ruby/parse error: bash/examples/install.sh: mean</tspan></text>
	</g>
</g>
	<g id="gnuplot_plot_1" ><title>Bootstrap distribution</title>
<g fill="none" color="white" stroke="black" stroke-width="2.00" stroke-linecap="butt" stroke-linejoin="miter">
</g>
<g fill="none" color="black" stroke="currentColor" stroke-width="2.00" stroke-linecap="butt" stroke-linejoin="miter">
	<g transform="translate(1089.0,67.0)" stroke="none" fill="black" font-family="Helvetica" font-size="12.00"  text-anchor="start">
		<text><tspan font-family="Helvetica" >Bootstrap distribution</tspan></text>
	</g>
</g>
<g fill="none" color="black" stroke="currentColor" stroke-width="2.00" stroke-linecap="butt" stroke-linejoin="miter">
	<path stroke='rgb( 31, 120, 180)'  d='M1038.5,63.1 L1080.7,63.1 M71.9,628.6 L73.8,627.6 L75.7,626.6 L77.6,625.6 L79.4,624.5 L81.3,623.4
		L83.2,622.3 L85.1,621.2 L87.0,620.0 L88.9,618.8 L90.8,617.6 L92.7,616.4 L94.5,615.1 L96.4,613.9
		L98.3,612.6 L100.2,611.3 L102.1,610.0 L104.0,608.7 L105.9,607.4 L107.8,606.1 L109.6,604.8 L111.5,603.4
		L113.4,602.1 L115.3,600.7 L117.2,599.3 L119.1,597.9 L121.0,596.5 L122.9,595.1 L124.7,593.6 L126.6,592.2
		L128.5,590.6 L130.4,589.1 L132.3,587.5 L134.2,585.9 L136.1,584.3 L138.0,582.6 L139.8,580.9 L141.7,579.2
		L143.6,577.4 L145.5,575.6 L147.4,573.7 L149.3,571.9 L151.2,569.9 L153.0,568.0 L154.9,566.0 L156.8,564.0
		L158.7,561.9 L160.6,559.9 L162.5,557.7 L164.4,555.6 L166.3,553.4 L168.1,551.2 L170.0,549.0 L171.9,546.8
		L173.8,544.5 L175.7,542.3 L177.6,540.0 L179.5,537.6 L181.4,535.3 L183.2,533.0 L185.1,530.6 L187.0,528.3
		L188.9,525.9 L190.8,523.5 L192.7,521.1 L194.6,518.7 L196.5,516.2 L198.3,513.8 L200.2,511.3 L202.1,508.8
		L204.0,506.3 L205.9,503.7 L207.8,501.1 L209.7,498.5 L211.6,495.8 L213.4,493.1 L215.3,490.4 L217.2,487.6
		L219.1,484.8 L221.0,481.9 L222.9,478.9 L224.8,475.9 L226.6,472.9 L228.5,469.8 L230.4,466.7 L232.3,463.5
		L234.2,460.2 L236.1,456.9 L238.0,453.6 L239.9,450.2 L241.7,446.8 L243.6,443.3 L245.5,439.9 L247.4,436.3
		L249.3,432.8 L251.2,429.2 L253.1,425.6 L255.0,422.0 L256.8,418.4 L258.7,414.7 L260.6,411.1 L262.5,407.4
		L264.4,403.8 L266.3,400.2 L268.2,396.5 L270.1,392.9 L271.9,389.2 L273.8,385.6 L275.7,382.0 L277.6,378.4
		L279.5,374.9 L281.4,371.3 L283.3,367.7 L285.2,364.2 L287.0,360.7 L288.9,357.2 L290.8,353.7 L292.7,350.2
		L294.6,346.7 L296.5,343.2 L298.4,339.7 L300.2,336.3 L302.1,332.8 L304.0,329.3 L305.9,325.9 L307.8,322.4
		L309.7,319.0 L311.6,315.5 L313.5,312.1 L315.3,308.7 L317.2,305.3 L319.1,301.9 L321.0,298.6 L322.9,295.3
		L324.8,292.0 L326.7,288.7 L328.6,285.5 L330.4,282.3 L332.3,279.2 L334.2,276.1 L336.1,273.0 L338.0,269.9
		L339.9,266.9 L341.8,263.9 L343.7,261.0 L345.5,258.0 L347.4,255.1 L349.3,252.2 L351.2,249.3 L353.1,246.4
		L355.0,243.5 L356.9,240.6 L358.8,237.7 L360.6,234.8 L362.5,231.9 L364.4,228.9 L366.3,225.9 L368.2,223.0
		L370.1,220.0 L372.0,217.0 L373.8,213.9 L375.7,210.9 L377.6,207.8 L379.5,204.8 L381.4,201.7 L383.3,198.7
		L385.2,195.6 L387.1,192.6 L388.9,189.5 L390.8,186.5 L392.7,183.5 L394.6,180.6 L396.5,177.7 L398.4,174.8
		L400.3,171.9 L402.2,169.1 L404.0,166.4 L405.9,163.7 L407.8,161.1 L409.7,158.6 L411.6,156.1 L413.5,153.7
		L415.4,151.4 L417.3,149.2 L419.1,147.0 L421.0,144.9 L422.9,142.9 L424.8,140.9 L426.7,139.0 L428.6,137.2
		L430.5,135.5 L432.4,133.8 L434.2,132.1 L436.1,130.5 L438.0,128.9 L439.9,127.3 L441.8,125.8 L443.7,124.3
		L445.6,122.9 L447.4,121.4 L449.3,120.0 L451.2,118.7 L453.1,117.3 L455.0,116.0 L456.9,114.8 L458.8,113.5
		L460.7,112.4 L462.5,111.2 L464.4,110.1 L466.3,109.1 L468.2,108.2 L470.1,107.2 L472.0,106.4 L473.9,105.6
		L475.8,104.9 L477.6,104.2 L479.5,103.6 L481.4,103.0 L483.3,102.5 L485.2,102.1 L487.1,101.6 L489.0,101.3
		L490.9,100.9 L492.7,100.7 L494.6,100.4 L496.5,100.2 L498.4,100.0 L500.3,99.9 L502.2,99.8 L504.1,99.7
		L506.0,99.7 L507.8,99.7 L509.7,99.8 L511.6,99.9 L513.5,100.1 L515.4,100.4 L517.3,100.8 L519.2,101.2
		L521.0,101.7 L522.9,102.3 L524.8,103.0 L526.7,103.7 L528.6,104.6 L530.5,105.5 L532.4,106.5 L534.3,107.6
		L536.1,108.8 L538.0,110.0 L539.9,111.3 L541.8,112.6 L543.7,114.0 L545.6,115.4 L547.5,116.8 L549.4,118.2
		L551.2,119.6 L553.1,121.0 L555.0,122.4 L556.9,123.8 L558.8,125.2 L560.7,126.5 L562.6,127.8 L564.5,129.1
		L566.3,130.4 L568.2,131.6 L570.1,132.8 L572.0,133.9 L573.9,135.1 L575.8,136.3 L577.7,137.4 L579.5,138.5
		L581.4,139.7 L583.3,140.9 L585.2,142.2 L587.1,143.4 L589.0,144.8 L590.9,146.2 L592.8,147.7 L594.6,149.3
		L596.5,151.0 L598.4,152.8 L600.3,154.7 L602.2,156.7 L604.1,158.8 L606.0,161.1 L607.9,163.5 L609.7,166.0
		L611.6,168.6 L613.5,171.3 L615.4,174.1 L617.3,176.9 L619.2,179.8 L621.1,182.8 L623.0,185.9 L624.8,188.9
		L626.7,192.0 L628.6,195.1 L630.5,198.1 L632.4,201.2 L634.3,204.2 L636.2,207.2 L638.1,210.2 L639.9,213.1
		L641.8,215.9 L643.7,218.8 L645.6,221.5 L647.5,224.3 L649.4,227.0 L651.3,229.6 L653.1,232.3 L655.0,234.9
		L656.9,237.5 L658.8,240.1 L660.7,242.7 L662.6,245.3 L664.5,248.0 L666.4,250.6 L668.2,253.2 L670.1,255.9
		L672.0,258.6 L673.9,261.3 L675.8,264.1 L677.7,266.8 L679.6,269.6 L681.5,272.4 L683.3,275.2 L685.2,278.0
		L687.1,280.8 L689.0,283.6 L690.9,286.5 L692.8,289.3 L694.7,292.2 L696.6,295.0 L698.4,297.9 L700.3,300.7
		L702.2,303.6 L704.1,306.4 L706.0,309.3 L707.9,312.2 L709.8,315.0 L711.7,317.9 L713.5,320.7 L715.4,323.6
		L717.3,326.4 L719.2,329.3 L721.1,332.2 L723.0,335.0 L724.9,337.9 L726.7,340.7 L728.6,343.6 L730.5,346.5
		L732.4,349.4 L734.3,352.3 L736.2,355.2 L738.1,358.1 L740.0,361.0 L741.8,364.0 L743.7,366.9 L745.6,369.9
		L747.5,372.8 L749.4,375.8 L751.3,378.8 L753.2,381.7 L755.1,384.7 L756.9,387.6 L758.8,390.6 L760.7,393.5
		L762.6,396.4 L764.5,399.3 L766.4,402.2 L768.3,405.0 L770.2,407.8 L772.0,410.6 L773.9,413.3 L775.8,416.0
		L777.7,418.7 L779.6,421.3 L781.5,423.9 L783.4,426.5 L785.3,429.1 L787.1,431.6 L789.0,434.1 L790.9,436.5
		L792.8,439.0 L794.7,441.4 L796.6,443.8 L798.5,446.3 L800.3,448.6 L802.2,451.0 L804.1,453.4 L806.0,455.8
		L807.9,458.1 L809.8,460.5 L811.7,462.8 L813.6,465.1 L815.4,467.4 L817.3,469.7 L819.2,471.9 L821.1,474.2
		L823.0,476.4 L824.9,478.5 L826.8,480.7 L828.7,482.8 L830.5,484.9 L832.4,487.0 L834.3,489.1 L836.2,491.2
		L838.1,493.2 L840.0,495.2 L841.9,497.3 L843.8,499.3 L845.6,501.4 L847.5,503.4 L849.4,505.5 L851.3,507.5
		L853.2,509.6 L855.1,511.7 L857.0,513.8 L858.9,516.0 L860.7,518.1 L862.6,520.3 L864.5,522.5 L866.4,524.7
		L868.3,526.8 L870.2,529.0 L872.1,531.2 L873.9,533.4 L875.8,535.6 L877.7,537.8 L879.6,539.9 L881.5,542.1
		L883.4,544.2 L885.3,546.2 L887.2,548.3 L889.0,550.3 L890.9,552.2 L892.8,554.2 L894.7,556.0 L896.6,557.9
		L898.5,559.7 L900.4,561.5 L902.3,563.2 L904.1,564.9 L906.0,566.5 L907.9,568.2 L909.8,569.8 L911.7,571.3
		L913.6,572.9 L915.5,574.4 L917.4,575.9 L919.2,577.3 L921.1,578.8 L923.0,580.2 L924.9,581.6 L926.8,583.0
		L928.7,584.3 L930.6,585.6 L932.5,586.9 L934.3,588.2 L936.2,589.5 L938.1,590.7 L940.0,591.9 L941.9,593.1
		L943.8,594.2 L945.7,595.3 L947.5,596.4 L949.4,597.5 L951.3,598.6 L953.2,599.6 L955.1,600.6 L957.0,601.6
		L958.9,602.6 L960.8,603.6 L962.6,604.6 L964.5,605.5 L966.4,606.5 L968.3,607.4 L970.2,608.3 L972.1,609.3
		L974.0,610.2 L975.9,611.1 L977.7,612.0 L979.6,612.9 L981.5,613.8 L983.4,614.7 L985.3,615.6 L987.2,616.5
		L989.1,617.4 L991.0,618.2 L992.8,619.1 L994.7,619.9 L996.6,620.8 L998.5,621.6 L1000.4,622.4 L1002.3,623.2
		L1004.2,624.0 L1006.1,624.8 L1007.9,625.5 L1009.8,626.3 L1011.7,627.1 L1013.6,627.8  '/></g>
	</g>
	<g id="gnuplot_plot_2" ><title>Confidence interval</title>
<g fill="none" color="white" stroke="rgb( 31, 120, 180)" stroke-width="1.00" stroke-linecap="butt" stroke-linejoin="miter">
</g>
<g fill="none" color="black" stroke="currentColor" stroke-width="1.00" stroke-linecap="butt" stroke-linejoin="miter">
	<g transform="translate(1089.0,85.0)" stroke="none" fill="black" font-family="Helvetica" font-size="12.00"  text-anchor="start">
		<text><tspan font-family="Helvetica" >Confidence interval</tspan></text>
	</g>
</g>
<g fill="none" color="black" stroke="currentColor" stroke-width="1.00" stroke-linecap="butt" stroke-linejoin="miter">
	<g stroke='none' shape-rendering='crispEdges'>
		<polygon fill = 'rgb( 31, 120, 180)' fill-opacity = '0.250000' points = '1038.5,85.6 1080.7,85.6 1080.7,76.6 1038.5,76.6 '/>
		<polygon fill = 'rgb( 31, 120, 180)' fill-opacity = '0.250000' points = '158.7,561.9 158.7,662.4 160.6,662.4 160.6,559.9 '/>
		<polygon fill = 'rgb( 31, 120, 180)' fill-opacity = '0.250000' points = '160.6,559.9 160.6,662.4 162.5,662.4 162.5,557.7 '/>
		<polygon fill = 'rgb( 31, 120, 180)' fill-opacity = '0.250000' points = '162.5,557.7 162.5,662.4 164.4,662.4 164.4,555.6 '/>
		<polygon fill = 'rgb( 31, 120, 180)' fill-opacity = '0.250000' points = '164.4,555.6 164.4,662.4 166.3,662.4 166.3,553.4 '/>
		<polygon fill = 'rgb( 31, 120, 180)' fill-opacity = '0.250000' points = '166.3,553.4 166.3,662.4 168.1,662.4 168.1,551.2 '/>
		<polygon fill = 'rgb( 31, 120, 180)' fill-opacity = '0.250000' points = '168.1,551.2 168.1,662.4 170.0,662.4 170.0,549.0 '/>
		<polygon fill = 'rgb( 31, 120, 180)' fill-opacity = '0.250000' points = '170.0,549.0 170.0,662.4 171.9,662.4 171.9,546.8 '/>
		<polygon fill = 'rgb( 31, 120, 180)' fill-opacity = '0.250000' points = '171.9,546.8 171.9,662.4 173.8,662.4 173.8,544.5 '/>
		<polygon fill = 'rgb( 31, 120, 180)' fill-opacity = '0.250000' points = '173.8,544.5 173.8,662.4 175.7,662.4 175.7,542.3 '/>
		<polygon fill = 'rgb( 31, 120, 180)' fill-opacity = '0.250000' points = '175.7,542.3 175.7,662.4 177.6,662.4 177.6,540.0 '/>
		<polygon fill = 'rgb( 31, 120, 180)' fill-opacity = '0.250000' points = '177.6,540.0 177.6,662.4 179.5,662.4 179.5,537.6 '/>
		<polygon fill = 'rgb( 31, 120, 180)' fill-opacity = '0.250000' points = '179.5,537.6 179.5,662.4 181.4,662.4 181.4,535.3 '/>
		<polygon fill = 'rgb( 31, 120, 180)' fill-opacity = '0.250000' points = '181.4,535.3 181.4,662.4 183.2,662.4 183.2,533.0 '/>
		<polygon fill = 'rgb( 31, 120, 180)' fill-opacity = '0.250000' points = '183.2,533.0 183.2,662.4 185.1,662.4 185.1,530.6 '/>
		<polygon fill = 'rgb( 31, 120, 180)' fill-opacity = '0.250000' points = '185.1,530.6 185.1,662.4 187.0,662.4 187.0,528.3 '/>
		<polygon fill = 'rgb( 31, 120, 180)' fill-opacity = '0.250000' points = '187.0,528.3 187.0,662.4 188.9,662.4 188.9,525.9 '/>
		<polygon fill = 'rgb( 31, 120, 180)' fill-opacity = '0.250000' points = '188.9,525.9 188.9,662.4 190.8,662.4 190.8,523.5 '/>
		<polygon fill = 'rgb( 31, 120, 180)' fill-opacity = '0.250000' points = '190.8,523.5 190.8,662.4 192.7,662.4 192.7,521.1 '/>
		<polygon fill = 'rgb( 31, 120, 180)' fill-opacity = '0.250000' points = '192.7,521.1 192.7,662.4 194.6,662.4 194.6,518.7 '/>
		<polygon fill = 'rgb( 31, 120, 180)' fill-opacity = '0.250000' points = '194.6,518.7 194.6,662.4 196.5,662.4 196.5,516.2 '/>
		<polygon fill = 'rgb( 31, 120, 180)' fill-opacity = '0.250000' points = '196.5,516.2 196.5,662.4 198.3,662.4 198.3,513.8 '/>
		<polygon fill = 'rgb( 31, 120, 180)' fill-opacity = '0.250000' points = '198.3,513.8 198.3,662.4 200.2,662.4 200.2,511.3 '/>
		<polygon fill = 'rgb( 31, 120, 180)' fill-opacity = '0.250000' points = '200.2,511.3 200.2,662.4 202.1,662.4 202.1,508.8 '/>
		<polygon fill = 'rgb( 31, 120, 180)' fill-opacity = '0.250000' points = '202.1,508.8 202.1,662.4 204.0,662.4 204.0,506.3 '/>
		<polygon fill = 'rgb( 31, 120, 180)' fill-opacity = '0.250000' points = '204.0,506.3 204.0,662.4 205.9,662.4 205.9,503.7 '/>
		<polygon fill = 'rgb( 31, 120, 180)' fill-opacity = '0.250000' points = '205.9,503.7 205.9,662.4 207.8,662.4 207.8,501.1 '/>
		<polygon fill = 'rgb( 31, 120, 180)' fill-opacity = '0.250000' points = '207.8,501.1 207.8,662.4 209.7,662.4 209.7,498.5 '/>
		<polygon fill = 'rgb( 31, 120, 180)' fill-opacity = '0.250000' points = '209.7,498.5 209.7,662.4 211.6,662.4 211.6,495.8 '/>
		<polygon fill = 'rgb( 31, 120, 180)' fill-opacity = '0.250000' points = '211.6,495.8 211.6,662.4 213.4,662.4 213.4,493.1 '/>
		<polygon fill = 'rgb( 31, 120, 180)' fill-opacity = '0.250000' points = '213.4,493.1 213.4,662.4 215.3,662.4 215.3,490.4 '/>
		<polygon fill = 'rgb( 31, 120, 180)' fill-opacity = '0.250000' points = '215.3,490.4 215.3,662.4 217.2,662.4 217.2,487.6 '/>
		<polygon fill = 'rgb( 31, 120, 180)' fill-opacity = '0.250000' points = '217.2,487.6 217.2,662.4 219.1,662.4 219.1,484.8 '/>
		<polygon fill = 'rgb( 31, 120, 180)' fill-opacity = '0.250000' points = '219.1,484.8 219.1,662.4 221.0,662.4 221.0,481.9 '/>
		<polygon fill = 'rgb( 31, 120, 180)' fill-opacity = '0.250000' points = '221.0,481.9 221.0,662.4 222.9,662.4 222.9,478.9 '/>
		<polygon fill = 'rgb( 31, 120, 180)' fill-opacity = '0.250000' points = '222.9,478.9 222.9,662.4 224.8,662.4 224.8,475.9 '/>
		<polygon fill = 'rgb( 31, 120, 180)' fill-opacity = '0.250000' points = '224.8,475.9 224.8,662.4 226.6,662.4 226.6,472.9 '/>
		<polygon fill = 'rgb( 31, 120, 180)' fill-opacity = '0.250000' points = '226.6,472.9 226.6,662.4 228.5,662.4 228.5,469.8 '/>
		<polygon fill = 'rgb( 31, 120, 180)' fill-opacity = '0.250000' points = '228.5,469.8 228.5,662.4 230.4,662.4 230.4,466.7 '/>
		<polygon fill = 'rgb( 31, 120, 180)' fill-opacity = '0.250000' points = '230.4,466.7 230.4,662.4 232.3,662.4 232.3,463.5 '/>
		<polygon fill = 'rgb( 31, 120, 180)' fill-opacity = '0.250000' points = '232.3,463.5 232.3,662.4 234.2,662.4 234.2,460.2 '/>
		<polygon fill = 'rgb( 31, 120, 180)' fill-opacity = '0.250000' points = '234.2,460.2 234.2,662.4 236.1,662.4 236.1,456.9 '/>
		<polygon fill = 'rgb( 31, 120, 180)' fill-opacity = '0.250000' points = '236.1,456.9 236.1,662.4 238.0,662.4 238.0,453.6 '/>
		<polygon fill = 'rgb( 31, 120, 180)' fill-opacity = '0.250000' points = '238.0,453.6 238.0,662.4 239.9,662.4 239.9,450.2 '/>
		<polygon fill = 'rgb( 31, 120, 180)' fill-opacity = '0.250000' points = '239.9,450.2 239.9,662.4 241.7,662.4 241.7,446.8 '/>
		<polygon fill = 'rgb( 31, 120, 180)' fill-opacity = '0.250000' points = '241.7,446.8 241.7,662.4 243.6,662.4 243.6,443.3 '/>
		<polygon fill = 'rgb( 31, 120, 180)' fill-opacity = '0.250000' points = '243.6,443.3 243.6,662.4 245.5,662.4 245.5,439.9 '/>
		<polygon fill = 'rgb( 31, 120, 180)' fill-opacity = '0.250000' points = '245.5,439.9 245.5,662.4 247.4,662.4 247.4,436.3 '/>
		<polygon fill = 'rgb( 31, 120, 180)' fill-opacity = '0.250000' points = '247.4,436.3 247.4,662.4 249.3,662.4 249.3,432.8 '/>
		<polygon fill = 'rgb( 31, 120, 180)' fill-opacity = '0.250000' points = '249.3,432.8 249.3,662.4 251.2,662.4 251.2,429.2 '/>
		<polygon fill = 'rgb( 31, 120, 180)' fill-opacity = '0.250000' points = '251.2,429.2 251.2,662.4 253.1,662.4 253.1,425.6 '/>
		<polygon fill = 'rgb( 31, 120, 180)' fill-opacity = '0.250000' points = '253.1,425.6 253.1,662.4 255.0,662.4 255.0,422.0 '/>
		<polygon fill = 'rgb( 31, 120, 180)' fill-opacity = '0.250000' points = '255.0,422.0 255.0,662.4 256.8,662.4 256.8,418.4 '/>
		<polygon fill = 'rgb( 31, 120, 180)' fill-opacity = '0.250000' points = '256.8,418.4 256.8,662.4 258.7,662.4 258.7,414.7 '/>
		<polygon fill = 'rgb( 31, 120, 180)' fill-opacity = '0.250000' points = '258.7,414.7 258.7,662.4 260.6,662.4 260.6,411.1 '/>
		<polygon fill = 'rgb( 31, 120, 180)' fill-opacity = '0.250000' points = '260.6,411.1 260.6,662.4 262.5,662.4 262.5,407.4 '/>
		<polygon fill = 'rgb( 31, 120, 180)' fill-opacity = '0.250000' points = '262.5,407.4 262.5,662.4 264.4,662.4 264.4,403.8 '/>
		<polygon fill = 'rgb( 31, 120, 180)' fill-opacity = '0.250000' points = '264.4,403.8 264.4,662.4 266.3,662.4 266.3,400.2 '/>
		<polygon fill = 'rgb( 31, 120, 180)' fill-opacity = '0.250000' points = '266.3,400.2 266.3,662.4 268.2,662.4 268.2,396.5 '/>
		<polygon fill = 'rgb( 31, 120, 180)' fill-opacity = '0.250000' points = '268.2,396.5 268.2,662.4 270.1,662.4 270.1,392.9 '/>
		<polygon fill = 'rgb( 31, 120, 180)' fill-opacity = '0.250000' points = '270.1,392.9 270.1,662.4 271.9,662.4 271.9,389.2 '/>
		<polygon fill = 'rgb( 31, 120, 180)' fill-opacity = '0.250000' points = '271.9,389.2 271.9,662.4 273.8,662.4 273.8,385.6 '/>
		<polygon fill = 'rgb( 31, 120, 180)' fill-opacity = '0.250000' points = '273.8,385.6 273.8,662.4 275.7,662.4 275.7,382.0 '/>
		<polygon fill = 'rgb( 31, 120, 180)' fill-opacity = '0.250000' points = '275.7,382.0 275.7,662.4 277.6,662.4 277.6,378.4 '/>
		<polygon fill = 'rgb( 31, 120, 180)' fill-opacity = '0.250000' points = '277.6,378.4 277.6,662.4 279.5,662.4 279.5,374.9 '/>
		<polygon fill = 'rgb( 31, 120, 180)' fill-opacity = '0.250000' points = '279.5,374.9 279.5,662.4 281.4,662.4 281.4,371.3 '/>
		<polygon fill = 'rgb( 31, 120, 180)' fill-opacity = '0.250000' points = '281.4,371.3 281.4,662.4 283.3,662.4 283.3,367.7 '/>
		<polygon fill = 'rgb( 31, 120, 180)' fill-opacity = '0.250000' points = '283.3,367.7 283.3,662.4 285.2,662.4 285.2,364.2 '/>
		<polygon fill = 'rgb( 31, 120, 180)' fill-opacity = '0.250000' points = '285.2,364.2 285.2,662.4 287.0,662.4 287.0,360.7 '/>
		<polygon fill = 'rgb( 31, 120, 180)' fill-opacity = '0.250000' points = '287.0,360.7 287.0,662.4 288.9,662.4 288.9,357.2 '/>
		<polygon fill = 'rgb( 31, 120, 180)' fill-opacity = '0.250000' points = '288.9,357.2 288.9,662.4 290.8,662.4 290.8,353.7 '/>
		<polygon fill = 'rgb( 31, 120, 180)' fill-opacity = '0.250000' points = '290.8,353.7 290.8,662.4 292.7,662.4 292.7,350.2 '/>
		<polygon fill = 'rgb( 31, 120, 180)' fill-opacity = '0.250000' points = '292.7,350.2 292.7,662.4 294.6,662.4 294.6,346.7 '/>
		<polygon fill = 'rgb( 31, 120, 180)' fill-opacity = '0.250000' points = '294.6,346.7 294.6,662.4 296.5,662.4 296.5,343.2 '/>
		<polygon fill = 'rgb( 31, 120, 180)' fill-opacity = '0.250000' points = '296.5,343.2 296.5,662.4 298.4,662.4 298.4,339.7 '/>
		<polygon fill = 'rgb( 31, 120, 180)' fill-opacity = '0.250000' points = '298.4,339.7 298.4,662.4 300.2,662.4 300.2,336.3 '/>
		<polygon fill = 'rgb( 31, 120, 180)' fill-opacity = '0.250000' points = '300.2,336.3 300.2,662.4 302.1,662.4 302.1,332.8 '/>
		<polygon fill = 'rgb( 31, 120, 180)' fill-opacity = '0.250000' points = '302.1,332.8 302.1,662.4 304.0,662.4 304.0,329.3 '/>
		<polygon fill = 'rgb( 31, 120, 180)' fill-opacity = '0.250000' points = '304.0,329.3 304.0,662.4 305.9,662.4 305.9,325.9 '/>
		<polygon fill = 'rgb( 31, 120, 180)' fill-opacity = '0.250000' points = '305.9,325.9 305.9,662.4 307.8,662.4 307.8,322.4 '/>
		<polygon fill = 'rgb( 31, 120, 180)' fill-opacity = '0.250000' points = '307.8,322.4 307.8,662.4 309.7,662.4 309.7,319.0 '/>
		<polygon fill = 'rgb( 31, 120, 180)' fill-opacity = '0.250000' points = '309.7,319.0 309.7,662.4 311.6,662.4 311.6,315.5 '/>
		<polygon fill = 'rgb( 31, 120, 180)' fill-opacity = '0.250000' points = '311.6,315.5 311.6,662.4 313.5,662.4 313.5,312.1 '/>
		<polygon fill = 'rgb( 31, 120, 180)' fill-opacity = '0.250000' points = '313.5,312.1 313.5,662.4 315.3,662.4 315.3,308.7 '/>
		<polygon fill = 'rgb( 31, 120, 180)' fill-opacity = '0.250000' points = '315.3,308.7 315.3,662.4 317.2,662.4 317.2,305.3 '/>
		<polygon fill = 'rgb( 31, 120, 180)' fill-opacity = '0.250000' points = '317.2,305.3 317.2,662.4 319.1,662.4 319.1,301.9 '/>
		<polygon fill = 'rgb( 31, 120, 180)' fill-opacity = '0.250000' points = '319.1,301.9 319.1,662.4 321.0,662.4 321.0,298.6 '/>
		<polygon fill = 'rgb( 31, 120, 180)' fill-opacity = '0.250000' points = '321.0,298.6 321.0,662.4 322.9,662.4 322.9,295.3 '/>
		<polygon fill = 'rgb( 31, 120, 180)' fill-opacity = '0.250000' points = '322.9,295.3 322.9,662.4 324.8,662.4 324.8,292.0 '/>
		<polygon fill = 'rgb( 31, 120, 180)' fill-opacity = '0.250000' points = '324.8,292.0 324.8,662.4 326.7,662.4 326.7,288.7 '/>
		<polygon fill = 'rgb( 31, 120, 180)' fill-opacity = '0.250000' points = '326.7,288.7 326.7,662.4 328.6,662.4 328.6,285.5 '/>
		<polygon fill = 'rgb( 31, 120, 180)' fill-opacity = '0.250000' points = '328.6,285.5 328.6,662.4 330.4,662.4 330.4,282.3 '/>
		<polygon fill = 'rgb( 31, 120, 180)' fill-opacity = '0.250000' points = '330.4,282.3 330.4,662.4 332.3,662.4 332.3,279.2 '/>
		<polygon fill = 'rgb( 31, 120, 180)' fill-opacity = '0.250000' points = '332.3,279.2 332.3,662.4 334.2,662.4 334.2,276.1 '/>
		<polygon fill = 'rgb( 31, 120, 180)' fill-opacity = '0.250000' points = '334.2,276.1 334.2,662.4 336.1,662.4 336.1,273.0 '/>
		<polygon fill = 'rgb( 31, 120, 180)' fill-opacity = '0.250000' points = '336.1,273.0 336.1,662.4 338.0,662.4 338.0,269.9 '/>
		<polygon fill = 'rgb( 31, 120, 180)' fill-opacity = '0.250000' points = '338.0,269.9 338.0,662.4 339.9,662.4 339.9,266.9 '/>
		<polygon fill = 'rgb( 31, 120, 180)' fill-opacity = '0.250000' points = '339.9,266.9 339.9,662.4 341.8,662.4 341.8,263.9 '/>
		<polygon fill = 'rgb( 31, 120, 180)' fill-opacity = '0.250000' points = '341.8,263.9 341.8,662.4 343.7,662.4 343.7,261.0 '/>
		<polygon fill = 'rgb( 31, 120, 180)' fill-opacity = '0.250000' points = '343.7,261.0 343.7,662.4 345.5,662.4 345.5,258.0 '/>
		<polygon fill = 'rgb( 31, 120, 180)' fill-opacity = '0.250000' points = '345.5,258.0 345.5,662.4 347.4,662.4 347.4,255.1 '/>
		<polygon fill = 'rgb( 31, 120, 180)' fill-opacity = '0.250000' points = '347.4,255.1 347.4,662.4 349.3,662.4 349.3,252.2 '/>
		<polygon fill = 'rgb( 31, 120, 180)' fill-opacity = '0.250000' points = '349.3,252.2 349.3,662.4 351.2,662.4 351.2,249.3 '/>
		<polygon fill = 'rgb( 31, 120, 180)' fill-opacity = '0.250000' points = '351.2,249.3 351.2,662.4 353.1,662.4 353.1,246.4 '/>
		<polygon fill = 'rgb( 31, 120, 180)' fill-opacity = '0.250000' points = '353.1,246.4 353.1,662.4 355.0,662.4 355.0,243.5 '/>
		<polygon fill = 'rgb( 31, 120, 180)' fill-opacity = '0.250000' points = '355.0,243.5 355.0,662.4 356.9,662.4 356.9,240.6 '/>
		<polygon fill = 'rgb( 31, 120, 180)' fill-opacity = '0.250000' points = '356.9,240.6 356.9,662.4 358.8,662.4 358.8,237.7 '/>
		<polygon fill = 'rgb( 31, 120, 180)' fill-opacity = '0.250000' points = '358.8,237.7 358.8,662.4 360.6,662.4 360.6,234.8 '/>
		<polygon fill = 'rgb( 31, 120, 180)' fill-opacity = '0.250000' points = '360.6,234.8 360.6,662.4 362.5,662.4 362.5,231.9 '/>
		<polygon fill = 'rgb( 31, 120, 180)' fill-opacity = '0.250000' points = '362.5,231.9 362.5,662.4 364.4,662.4 364.4,228.9 '/>
		<polygon fill = 'rgb( 31, 120, 180)' fill-opacity = '0.250000' points = '364.4,228.9 364.4,662.4 366.3,662.4 366.3,225.9 '/>
		<polygon fill = 'rgb( 31, 120, 180)' fill-opacity = '0.250000' points = '366.3,225.9 366.3,662.4 368.2,662.4 368.2,223.0 '/>
		<polygon fill = 'rgb( 31, 120, 180)' fill-opacity = '0.250000' points = '368.2,223.0 368.2,662.4 370.1,662.4 370.1,220.0 '/>
		<polygon fill = 'rgb( 31, 120, 180)' fill-opacity = '0.250000' points = '370.1,220.0 370.1,662.4 372.0,662.4 372.0,217.0 '/>
		<polygon fill = 'rgb( 31, 120, 180)' fill-opacity = '0.250000' points = '372.0,217.0 372.0,662.4 373.8,662.4 373.8,213.9 '/>
		<polygon fill = 'rgb( 31, 120, 180)' fill-opacity = '0.250000' points = '373.8,213.9 373.8,662.4 375.7,662.4 375.7,210.9 '/>
		<polygon fill = 'rgb( 31, 120, 180)' fill-opacity = '0.250000' points = '375.7,210.9 375.7,662.4 377.6,662.4 377.6,207.8 '/>
		<polygon fill = 'rgb( 31, 120, 180)' fill-opacity = '0.250000' points = '377.6,207.8 377.6,662.4 379.5,662.4 379.5,204.8 '/>
		<polygon fill = 'rgb( 31, 120, 180)' fill-opacity = '0.250000' points = '379.5,204.8 379.5,662.4 381.4,662.4 381.4,201.7 '/>
		<polygon fill = 'rgb( 31, 120, 180)' fill-opacity = '0.250000' points = '381.4,201.7 381.4,662.4 383.3,662.4 383.3,198.7 '/>
		<polygon fill = 'rgb( 31, 120, 180)' fill-opacity = '0.250000' points = '383.3,198.7 383.3,662.4 385.2,662.4 385.2,195.6 '/>
		<polygon fill = 'rgb( 31, 120, 180)' fill-opacity = '0.250000' points = '385.2,195.6 385.2,662.4 387.1,662.4 387.1,192.6 '/>
		<polygon fill = 'rgb( 31, 120, 180)' fill-opacity = '0.250000' points = '387.1,192.6 387.1,662.4 388.9,662.4 388.9,189.5 '/>
		<polygon fill = 'rgb( 31, 120, 180)' fill-opacity = '0.250000' points = '388.9,189.5 388.9,662.4 390.8,662.4 390.8,186.5 '/>
		<polygon fill = 'rgb( 31, 120, 180)' fill-opacity = '0.250000' points = '390.8,186.5 390.8,662.4 392.7,662.4 392.7,183.5 '/>
		<polygon fill = 'rgb( 31, 120, 180)' fill-opacity = '0.250000' points = '392.7,183.5 392.7,662.4 394.6,662.4 394.6,180.6 '/>
		<polygon fill = 'rgb( 31, 120, 180)' fill-opacity = '0.250000' points = '394.6,180.6 394.6,662.4 396.5,662.4 396.5,177.7 '/>
		<polygon fill = 'rgb( 31, 120, 180)' fill-opacity = '0.250000' points = '396.5,177.7 396.5,662.4 398.4,662.4 398.4,174.8 '/>
		<polygon fill = 'rgb( 31, 120, 180)' fill-opacity = '0.250000' points = '398.4,174.8 398.4,662.4 400.3,662.4 400.3,171.9 '/>
		<polygon fill = 'rgb( 31, 120, 180)' fill-opacity = '0.250000' points = '400.3,171.9 400.3,662.4 402.2,662.4 402.2,169.1 '/>
		<polygon fill = 'rgb( 31, 120, 180)' fill-opacity = '0.250000' points = '402.2,169.1 402.2,662.4 404.0,662.4 404.0,166.4 '/>
		<polygon fill = 'rgb( 31, 120, 180)' fill-opacity = '0.250000' points = '404.0,166.4 404.0,662.4 405.9,662.4 405.9,163.7 '/>
		<polygon fill = 'rgb( 31, 120, 180)' fill-opacity = '0.250000' points = '405.9,163.7 405.9,662.4 407.8,662.4 407.8,161.1 '/>
		<polygon fill = 'rgb( 31, 120, 180)' fill-opacity = '0.250000' points = '407.8,161.1 407.8,662.4 409.7,662.4 409.7,158.6 '/>
		<polygon fill = 'rgb( 31, 120, 180)' fill-opacity = '0.250000' points = '409.7,158.6 409.7,662.4 411.6,662.4 411.6,156.1 '/>
		<polygon fill = 'rgb( 31, 120, 180)' fill-opacity = '0.250000' points = '411.6,156.1 411.6,662.4 413.5,662.4 413.5,153.7 '/>
		<polygon fill = 'rgb( 31, 120, 180)' fill-opacity = '0.250000' points = '413.5,153.7 413.5,662.4 415.4,662.4 415.4,151.4 '/>
		<polygon fill = 'rgb( 31, 120, 180)' fill-opacity = '0.250000' points = '415.4,151.4 415.4,662.4 417.3,662.4 417.3,149.2 '/>
		<polygon fill = 'rgb( 31, 120, 180)' fill-opacity = '0.250000' points = '417.3,149.2 417.3,662.4 419.1,662.4 419.1,147.0 '/>
		<polygon fill = 'rgb( 31, 120, 180)' fill-opacity = '0.250000' points = '419.1,147.0 419.1,662.4 421.0,662.4 421.0,144.9 '/>
		<polygon fill = 'rgb( 31, 120, 180)' fill-opacity = '0.250000' points = '421.0,144.9 421.0,662.4 422.9,662.4 422.9,142.9 '/>
		<polygon fill = 'rgb( 31, 120, 180)' fill-opacity = '0.250000' points = '422.9,142.9 422.9,662.4 424.8,662.4 424.8,140.9 '/>
		<polygon fill = 'rgb( 31, 120, 180)' fill-opacity = '0.250000' points = '424.8,140.9 424.8,662.4 426.7,662.4 426.7,139.0 '/>
		<polygon fill = 'rgb( 31, 120, 180)' fill-opacity = '0.250000' points = '426.7,139.0 426.7,662.4 428.6,662.4 428.6,137.2 '/>
		<polygon fill = 'rgb( 31, 120, 180)' fill-opacity = '0.250000' points = '428.6,137.2 428.6,662.4 430.5,662.4 430.5,135.5 '/>
		<polygon fill = 'rgb( 31, 120, 180)' fill-opacity = '0.250000' points = '430.5,135.5 430.5,662.4 432.4,662.4 432.4,133.8 '/>
		<polygon fill = 'rgb( 31, 120, 180)' fill-opacity = '0.250000' points = '432.4,133.8 432.4,662.4 434.2,662.4 434.2,132.1 '/>
		<polygon fill = 'rgb( 31, 120, 180)' fill-opacity = '0.250000' points = '434.2,132.1 434.2,662.4 436.1,662.4 436.1,130.5 '/>
		<polygon fill = 'rgb( 31, 120, 180)' fill-opacity = '0.250000' points = '436.1,130.5 436.1,662.4 438.0,662.4 438.0,128.9 '/>
		<polygon fill = 'rgb( 31, 120, 180)' fill-opacity = '0.250000' points = '438.0,128.9 438.0,662.4 439.9,662.4 439.9,127.3 '/>
		<polygon fill = 'rgb( 31, 120, 180)' fill-opacity = '0.250000' points = '439.9,127.3 439.9,662.4 441.8,662.4 441.8,125.8 '/>
		<polygon fill = 'rgb( 31, 120, 180)' fill-opacity = '0.250000' points = '441.8,125.8 441.8,662.4 443.7,662.4 443.7,124.3 '/>
		<polygon fill = 'rgb( 31, 120, 180)' fill-opacity = '0.250000' points = '443.7,124.3 443.7,662.4 445.6,662.4 445.6,122.9 '/>
		<polygon fill = 'rgb( 31, 120, 180)' fill-opacity = '0.250000' points = '445.6,122.9 445.6,662.4 447.4,662.4 447.4,121.4 '/>
		<polygon fill = 'rgb( 31, 120, 180)' fill-opacity = '0.250000' points = '447.4,121.4 447.4,662.4 449.3,662.4 449.3,120.0 '/>
		<polygon fill = 'rgb( 31, 120, 180)' fill-opacity = '0.250000' points = '449.3,120.0 449.3,662.4 451.2,662.4 451.2,118.7 '/>
		<polygon fill = 'rgb( 31, 120, 180)' fill-opacity = '0.250000' points = '451.2,118.7 451.2,662.4 453.1,662.4 453.1,117.3 '/>
		<polygon fill = 'rgb( 31, 120, 180)' fill-opacity = '0.250000' points = '453.1,117.3 453.1,662.4 455.0,662.4 455.0,116.0 '/>
		<polygon fill = 'rgb( 31, 120, 180)' fill-opacity = '0.250000' points = '455.0,116.0 455.0,662.4 456.9,662.4 456.9,114.8 '/>
		<polygon fill = 'rgb( 31, 120, 180)' fill-opacity = '0.250000' points = '456.9,114.8 456.9,662.4 458.8,662.4 458.8,113.5 '/>
		<polygon fill = 'rgb( 31, 120, 180)' fill-opacity = '0.250000' points = '458.8,113.5 458.8,662.4 460.7,662.4 460.7,112.4 '/>
		<polygon fill = 'rgb( 31, 120, 180)' fill-opacity = '0.250000' points = '460.7,112.4 460.7,662.4 462.5,662.4 462.5,111.2 '/>
		<polygon fill = 'rgb( 31, 120, 180)' fill-opacity = '0.250000' points = '462.5,111.2 462.5,662.4 464.4,662.4 464.4,110.1 '/>
		<polygon fill = 'rgb( 31, 120, 180)' fill-opacity = '0.250000' points = '464.4,110.1 464.4,662.4 466.3,662.4 466.3,109.1 '/>
		<polygon fill = 'rgb( 31, 120, 180)' fill-opacity = '0.250000' points = '466.3,109.1 466.3,662.4 468.2,662.4 468.2,108.2 '/>
		<polygon fill = 'rgb( 31, 120, 180)' fill-opacity = '0.250000' points = '468.2,108.2 468.2,662.4 470.1,662.4 470.1,107.2 '/>
		<polygon fill = 'rgb( 31, 120, 180)' fill-opacity = '0.250000' points = '470.1,107.2 470.1,662.4 472.0,662.4 472.0,106.4 '/>
		<polygon fill = 'rgb( 31, 120, 180)' fill-opacity = '0.250000' points = '472.0,106.4 472.0,662.4 473.9,662.4 473.9,105.6 '/>
		<polygon fill = 'rgb( 31, 120, 180)' fill-opacity = '0.250000' points = '473.9,105.6 473.9,662.4 475.8,662.4 475.8,104.9 '/>
		<polygon fill = 'rgb( 31, 120, 180)' fill-opacity = '0.250000' points = '475.8,104.9 475.8,662.4 477.6,662.4 477.6,104.2 '/>
		<polygon fill = 'rgb( 31, 120, 180)' fill-opacity = '0.250000' points = '477.6,104.2 477.6,662.4 479.5,662.4 479.5,103.6 '/>
		<polygon fill = 'rgb( 31, 120, 180)' fill-opacity = '0.250000' points = '479.5,103.6 479.5,662.4 481.4,662.4 481.4,103.0 '/>
		<polygon fill = 'rgb( 31, 120, 180)' fill-opacity = '0.250000' points = '481.4,103.0 481.4,662.4 483.3,662.4 483.3,102.5 '/>
		<polygon fill = 'rgb( 31, 120, 180)' fill-opacity = '0.250000' points = '483.3,102.5 483.3,662.4 485.2,662.4 485.2,102.1 '/>
		<polygon fill = 'rgb( 31, 120, 180)' fill-opacity = '0.250000' points = '485.2,102.1 485.2,662.4 487.1,662.4 487.1,101.6 '/>
		<polygon fill = 'rgb( 31, 120, 180)' fill-opacity = '0.250000' points = '487.1,101.6 487.1,662.4 489.0,662.4 489.0,101.3 '/>
		<polygon fill = 'rgb( 31, 120, 180)' fill-opacity = '0.250000' points = '489.0,101.3 489.0,662.4 490.9,662.4 490.9,100.9 '/>
		<polygon fill = 'rgb( 31, 120, 180)' fill-opacity = '0.250000' points = '490.9,100.9 490.9,662.4 492.7,662.4 492.7,100.7 '/>
		<polygon fill = 'rgb( 31, 120, 180)' fill-opacity = '0.250000' points = '492.7,100.7 492.7,662.4 494.6,662.4 494.6,100.4 '/>
		<polygon fill = 'rgb( 31, 120, 180)' fill-opacity = '0.250000' points = '494.6,100.4 494.6,662.4 496.5,662.4 496.5,100.2 '/>
		<polygon fill = 'rgb( 31, 120, 180)' fill-opacity = '0.250000' points = '496.5,100.2 496.5,662.4 498.4,662.4 498.4,100.0 '/>
		<polygon fill = 'rgb( 31, 120, 180)' fill-opacity = '0.250000' points = '498.4,100.0 498.4,662.4 500.3,662.4 500.3,99.9 '/>
		<polygon fill = 'rgb( 31, 120, 180)' fill-opacity = '0.250000' points = '500.3,99.9 500.3,662.4 502.2,662.4 502.2,99.8 '/>
		<polygon fill = 'rgb( 31, 120, 180)' fill-opacity = '0.250000' points = '502.2,99.8 502.2,662.4 504.1,662.4 504.1,99.7 '/>
		<polygon fill = 'rgb( 31, 120, 180)' fill-opacity = '0.250000' points = '504.1,99.7 504.1,662.4 506.0,662.4 506.0,99.7 '/>
		<polygon fill = 'rgb( 31, 120, 180)' fill-opacity = '0.250000' points = '506.0,99.7 506.0,662.4 507.8,662.4 507.8,99.7 '/>
		<polygon fill = 'rgb( 31, 120, 180)' fill-opacity = '0.250000' points = '507.8,99.7 507.8,662.4 509.7,662.4 509.7,99.8 '/>
		<polygon fill = 'rgb( 31, 120, 180)' fill-opacity = '0.250000' points = '509.7,99.8 509.7,662.4 511.6,662.4 511.6,99.9 '/>
		<polygon fill = 'rgb( 31, 120, 180)' fill-opacity = '0.250000' points = '511.6,99.9 511.6,662.4 513.5,662.4 513.5,100.1 '/>
		<polygon fill = 'rgb( 31, 120, 180)' fill-opacity = '0.250000' points = '513.5,100.1 513.5,662.4 515.4,662.4 515.4,100.4 '/>
		<polygon fill = 'rgb( 31, 120, 180)' fill-opacity = '0.250000' points = '515.4,100.4 515.4,662.4 517.3,662.4 517.3,100.8 '/>
		<polygon fill = 'rgb( 31, 120, 180)' fill-opacity = '0.250000' points = '517.3,100.8 517.3,662.4 519.2,662.4 519.2,101.2 '/>
		<polygon fill = 'rgb( 31, 120, 180)' fill-opacity = '0.250000' points = '519.2,101.2 519.2,662.4 521.0,662.4 521.0,101.7 '/>
		<polygon fill = 'rgb( 31, 120, 180)' fill-opacity = '0.250000' points = '521.0,101.7 521.0,662.4 522.9,662.4 522.9,102.3 '/>
		<polygon fill = 'rgb( 31, 120, 180)' fill-opacity = '0.250000' points = '522.9,102.3 522.9,662.4 524.8,662.4 524.8,103.0 '/>
		<polygon fill = 'rgb( 31, 120, 180)' fill-opacity = '0.250000' points = '524.8,103.0 524.8,662.4 526.7,662.4 526.7,103.7 '/>
		<polygon fill = 'rgb( 31, 120, 180)' fill-opacity = '0.250000' points = '526.7,103.7 526.7,662.4 528.6,662.4 528.6,104.6 '/>
		<polygon fill = 'rgb( 31, 120, 180)' fill-opacity = '0.250000' points = '528.6,104.6 528.6,662.4 530.5,662.4 530.5,105.5 '/>
		<polygon fill = 'rgb( 31, 120, 180)' fill-opacity = '0.250000' points = '530.5,105.5 530.5,662.4 532.4,662.4 532.4,106.5 '/>
		<polygon fill = 'rgb( 31, 120, 180)' fill-opacity = '0.250000' points = '532.4,106.5 532.4,662.4 534.3,662.4 534.3,107.6 '/>
		<polygon fill = 'rgb( 31, 120, 180)' fill-opacity = '0.250000' points = '534.3,107.6 534.3,662.4 536.1,662.4 536.1,108.8 '/>
		<polygon fill = 'rgb( 31, 120, 180)' fill-opacity = '0.250000' points = '536.1,108.8 536.1,662.4 538.0,662.4 538.0,110.0 '/>
		<polygon fill = 'rgb( 31, 120, 180)' fill-opacity = '0.250000' points = '538.0,110.0 538.0,662.4 539.9,662.4 539.9,111.3 '/>
		<polygon fill = 'rgb( 31, 120, 180)' fill-opacity = '0.250000' points = '539.9,111.3 539.9,662.4 541.8,662.4 541.8,112.6 '/>
		<polygon fill = 'rgb( 31, 120, 180)' fill-opacity = '0.250000' points = '541.8,112.6 541.8,662.4 543.7,662.4 543.7,114.0 '/>
		<polygon fill = 'rgb( 31, 120, 180)' fill-opacity = '0.250000' points = '543.7,114.0 543.7,662.4 545.6,662.4 545.6,115.4 '/>
		<polygon fill = 'rgb( 31, 120, 180)' fill-opacity = '0.250000' points = '545.6,115.4 545.6,662.4 547.5,662.4 547.5,116.8 '/>
		<polygon fill = 'rgb( 31, 120, 180)' fill-opacity = '0.250000' points = '547.5,116.8 547.5,662.4 549.4,662.4 549.4,118.2 '/>
		<polygon fill = 'rgb( 31, 120, 180)' fill-opacity = '0.250000' points = '549.4,118.2 549.4,662.4 551.2,662.4 551.2,119.6 '/>
		<polygon fill = 'rgb( 31, 120, 180)' fill-opacity = '0.250000' points = '551.2,119.6 551.2,662.4 553.1,662.4 553.1,121.0 '/>
		<polygon fill = 'rgb( 31, 120, 180)' fill-opacity = '0.250000' points = '553.1,121.0 553.1,662.4 555.0,662.4 555.0,122.4 '/>
		<polygon fill = 'rgb( 31, 120, 180)' fill-opacity = '0.250000' points = '555.0,122.4 555.0,662.4 556.9,662.4 556.9,123.8 '/>
		<polygon fill = 'rgb( 31, 120, 180)' fill-opacity = '0.250000' points = '556.9,123.8 556.9,662.4 558.8,662.4 558.8,125.2 '/>
		<polygon fill = 'rgb( 31, 120, 180)' fill-opacity = '0.250000' points = '558.8,125.2 558.8,662.4 560.7,662.4 560.7,126.5 '/>
		<polygon fill = 'rgb( 31, 120, 180)' fill-opacity = '0.250000' points = '560.7,126.5 560.7,662.4 562.6,662.4 562.6,127.8 '/>
		<polygon fill = 'rgb( 31, 120, 180)' fill-opacity = '0.250000' points = '562.6,127.8 562.6,662.4 564.5,662.4 564.5,129.1 '/>
		<polygon fill = 'rgb( 31, 120, 180)' fill-opacity = '0.250000' points = '564.5,129.1 564.5,662.4 566.3,662.4 566.3,130.4 '/>
		<polygon fill = 'rgb( 31, 120, 180)' fill-opacity = '0.250000' points = '566.3,130.4 566.3,662.4 568.2,662.4 568.2,131.6 '/>
		<polygon fill = 'rgb( 31, 120, 180)' fill-opacity = '0.250000' points = '568.2,131.6 568.2,662.4 570.1,662.4 570.1,132.8 '/>
		<polygon fill = 'rgb( 31, 120, 180)' fill-opacity = '0.250000' points = '570.1,132.8 570.1,662.4 572.0,662.4 572.0,133.9 '/>
		<polygon fill = 'rgb( 31, 120, 180)' fill-opacity = '0.250000' points = '572.0,133.9 572.0,662.4 573.9,662.4 573.9,135.1 '/>
		<polygon fill = 'rgb( 31, 120, 180)' fill-opacity = '0.250000' points = '573.9,135.1 573.9,662.4 575.8,662.4 575.8,136.3 '/>
		<polygon fill = 'rgb( 31, 120, 180)' fill-opacity = '0.250000' points = '575.8,136.3 575.8,662.4 577.7,662.4 577.7,137.4 '/>
		<polygon fill = 'rgb( 31, 120, 180)' fill-opacity = '0.250000' points = '577.7,137.4 577.7,662.4 579.5,662.4 579.5,138.5 '/>
		<polygon fill = 'rgb( 31, 120, 180)' fill-opacity = '0.250000' points = '579.5,138.5 579.5,662.4 581.4,662.4 581.4,139.7 '/>
		<polygon fill = 'rgb( 31, 120, 180)' fill-opacity = '0.250000' points = '581.4,139.7 581.4,662.4 583.3,662.4 583.3,140.9 '/>
		<polygon fill = 'rgb( 31, 120, 180)' fill-opacity = '0.250000' points = '583.3,140.9 583.3,662.4 585.2,662.4 585.2,142.2 '/>
		<polygon fill = 'rgb( 31, 120, 180)' fill-opacity = '0.250000' points = '585.2,142.2 585.2,662.4 587.1,662.4 587.1,143.4 '/>
		<polygon fill = 'rgb( 31, 120, 180)' fill-opacity = '0.250000' points = '587.1,143.4 587.1,662.4 589.0,662.4 589.0,144.8 '/>
		<polygon fill = 'rgb( 31, 120, 180)' fill-opacity = '0.250000' points = '589.0,144.8 589.0,662.4 590.9,662.4 590.9,146.2 '/>
		<polygon fill = 'rgb( 31, 120, 180)' fill-opacity = '0.250000' points = '590.9,146.2 590.9,662.4 592.8,662.4 592.8,147.7 '/>
		<polygon fill = 'rgb( 31, 120, 180)' fill-opacity = '0.250000' points = '592.8,147.7 592.8,662.4 594.6,662.4 594.6,149.3 '/>
		<polygon fill = 'rgb( 31, 120, 180)' fill-opacity = '0.250000' points = '594.6,149.3 594.6,662.4 596.5,662.4 596.5,151.0 '/>
		<polygon fill = 'rgb( 31, 120, 180)' fill-opacity = '0.250000' points = '596.5,151.0 596.5,662.4 598.4,662.4 598.4,152.8 '/>
		<polygon fill = 'rgb( 31, 120, 180)' fill-opacity = '0.250000' points = '598.4,152.8 598.4,662.4 600.3,662.4 600.3,154.7 '/>
		<polygon fill = 'rgb( 31, 120, 180)' fill-opacity = '0.250000' points = '600.3,154.7 600.3,662.4 602.2,662.4 602.2,156.7 '/>
		<polygon fill = 'rgb( 31, 120, 180)' fill-opacity = '0.250000' points = '602.2,156.7 602.2,662.4 604.1,662.4 604.1,158.8 '/>
		<polygon fill = 'rgb( 31, 120, 180)' fill-opacity = '0.250000' points = '604.1,158.8 604.1,662.4 606.0,662.4 606.0,161.1 '/>
		<polygon fill = 'rgb( 31, 120, 180)' fill-opacity = '0.250000' points = '606.0,161.1 606.0,662.4 607.9,662.4 607.9,163.5 '/>
		<polygon fill = 'rgb( 31, 120, 180)' fill-opacity = '0.250000' points = '607.9,163.5 607.9,662.4 609.7,662.4 609.7,166.0 '/>
		<polygon fill = 'rgb( 31, 120, 180)' fill-opacity = '0.250000' points = '609.7,166.0 609.7,662.4 611.6,662.4 611.6,168.6 '/>
		<polygon fill = 'rgb( 31, 120, 180)' fill-opacity = '0.250000' points = '611.6,168.6 611.6,662.4 613.5,662.4 613.5,171.3 '/>
		<polygon fill = 'rgb( 31, 120, 180)' fill-opacity = '0.250000' points = '613.5,171.3 613.5,662.4 615.4,662.4 615.4,174.1 '/>
		<polygon fill = 'rgb( 31, 120, 180)' fill-opacity = '0.250000' points = '615.4,174.1 615.4,662.4 617.3,662.4 617.3,176.9 '/>
		<polygon fill = 'rgb( 31, 120, 180)' fill-opacity = '0.250000' points = '617.3,176.9 617.3,662.4 619.2,662.4 619.2,179.8 '/>
		<polygon fill = 'rgb( 31, 120, 180)' fill-opacity = '0.250000' points = '619.2,179.8 619.2,662.4 621.1,662.4 621.1,182.8 '/>
		<polygon fill = 'rgb( 31, 120, 180)' fill-opacity = '0.250000' points = '621.1,182.8 621.1,662.4 623.0,662.4 623.0,185.9 '/>
		<polygon fill = 'rgb( 31, 120, 180)' fill-opacity = '0.250000' points = '623.0,185.9 623.0,662.4 624.8,662.4 624.8,188.9 '/>
		<polygon fill = 'rgb( 31, 120, 180)' fill-opacity = '0.250000' points = '624.8,188.9 624.8,662.4 626.7,662.4 626.7,192.0 '/>
		<polygon fill = 'rgb( 31, 120, 180)' fill-opacity = '0.250000' points = '626.7,192.0 626.7,662.4 628.6,662.4 628.6,195.1 '/>
		<polygon fill = 'rgb( 31, 120, 180)' fill-opacity = '0.250000' points = '628.6,195.1 628.6,662.4 630.5,662.4 630.5,198.1 '/>
		<polygon fill = 'rgb( 31, 120, 180)' fill-opacity = '0.250000' points = '630.5,198.1 630.5,662.4 632.4,662.4 632.4,201.2 '/>
		<polygon fill = 'rgb( 31, 120, 180)' fill-opacity = '0.250000' points = '632.4,201.2 632.4,662.4 634.3,662.4 634.3,204.2 '/>
		<polygon fill = 'rgb( 31, 120, 180)' fill-opacity = '0.250000' points = '634.3,204.2 634.3,662.4 636.2,662.4 636.2,207.2 '/>
		<polygon fill = 'rgb( 31, 120, 180)' fill-opacity = '0.250000' points = '636.2,207.2 636.2,662.4 638.1,662.4 638.1,210.2 '/>
		<polygon fill = 'rgb( 31, 120, 180)' fill-opacity = '0.250000' points = '638.1,210.2 638.1,662.4 639.9,662.4 639.9,213.1 '/>
		<polygon fill = 'rgb( 31, 120, 180)' fill-opacity = '0.250000' points = '639.9,213.1 639.9,662.4 641.8,662.4 641.8,215.9 '/>
		<polygon fill = 'rgb( 31, 120, 180)' fill-opacity = '0.250000' points = '641.8,215.9 641.8,662.4 643.7,662.4 643.7,218.8 '/>
		<polygon fill = 'rgb( 31, 120, 180)' fill-opacity = '0.250000' points = '643.7,218.8 643.7,662.4 645.6,662.4 645.6,221.5 '/>
		<polygon fill = 'rgb( 31, 120, 180)' fill-opacity = '0.250000' points = '645.6,221.5 645.6,662.4 647.5,662.4 647.5,224.3 '/>
		<polygon fill = 'rgb( 31, 120, 180)' fill-opacity = '0.250000' points = '647.5,224.3 647.5,662.4 649.4,662.4 649.4,227.0 '/>
		<polygon fill = 'rgb( 31, 120, 180)' fill-opacity = '0.250000' points = '649.4,227.0 649.4,662.4 651.3,662.4 651.3,229.6 '/>
		<polygon fill = 'rgb( 31, 120, 180)' fill-opacity = '0.250000' points = '651.3,229.6 651.3,662.4 653.1,662.4 653.1,232.3 '/>
		<polygon fill = 'rgb( 31, 120, 180)' fill-opacity = '0.250000' points = '653.1,232.3 653.1,662.4 655.0,662.4 655.0,234.9 '/>
		<polygon fill = 'rgb( 31, 120, 180)' fill-opacity = '0.250000' points = '655.0,234.9 655.0,662.4 656.9,662.4 656.9,237.5 '/>
		<polygon fill = 'rgb( 31, 120, 180)' fill-opacity = '0.250000' points = '656.9,237.5 656.9,662.4 658.8,662.4 658.8,240.1 '/>
		<polygon fill = 'rgb( 31, 120, 180)' fill-opacity = '0.250000' points = '658.8,240.1 658.8,662.4 660.7,662.4 660.7,242.7 '/>
		<polygon fill = 'rgb( 31, 120, 180)' fill-opacity = '0.250000' points = '660.7,242.7 660.7,662.4 662.6,662.4 662.6,245.3 '/>
		<polygon fill = 'rgb( 31, 120, 180)' fill-opacity = '0.250000' points = '662.6,245.3 662.6,662.4 664.5,662.4 664.5,248.0 '/>
		<polygon fill = 'rgb( 31, 120, 180)' fill-opacity = '0.250000' points = '664.5,248.0 664.5,662.4 666.4,662.4 666.4,250.6 '/>
		<polygon fill = 'rgb( 31, 120, 180)' fill-opacity = '0.250000' points = '666.4,250.6 666.4,662.4 668.2,662.4 668.2,253.2 '/>
		<polygon fill = 'rgb( 31, 120, 180)' fill-opacity = '0.250000' points = '668.2,253.2 668.2,662.4 670.1,662.4 670.1,255.9 '/>
		<polygon fill = 'rgb( 31, 120, 180)' fill-opacity = '0.250000' points = '670.1,255.9 670.1,662.4 672.0,662.4 672.0,258.6 '/>
		<polygon fill = 'rgb( 31, 120, 180)' fill-opacity = '0.250000' points = '672.0,258.6 672.0,662.4 673.9,662.4 673.9,261.3 '/>
		<polygon fill = 'rgb( 31, 120, 180)' fill-opacity = '0.250000' points = '673.9,261.3 673.9,662.4 675.8,662.4 675.8,264.1 '/>
		<polygon fill = 'rgb( 31, 120, 180)' fill-opacity = '0.250000' points = '675.8,264.1 675.8,662.4 677.7,662.4 677.7,266.8 '/>
		<polygon fill = 'rgb( 31, 120, 180)' fill-opacity = '0.250000' points = '677.7,266.8 677.7,662.4 679.6,662.4 679.6,269.6 '/>
		<polygon fill = 'rgb( 31, 120, 180)' fill-opacity = '0.250000' points = '679.6,269.6 679.6,662.4 681.5,662.4 681.5,272.4 '/>
		<polygon fill = 'rgb( 31, 120, 180)' fill-opacity = '0.250000' points = '681.5,272.4 681.5,662.4 683.3,662.4 683.3,275.2 '/>
		<polygon fill = 'rgb( 31, 120, 180)' fill-opacity = '0.250000' points = '683.3,275.2 683.3,662.4 685.2,662.4 685.2,278.0 '/>
		<polygon fill = 'rgb( 31, 120, 180)' fill-opacity = '0.250000' points = '685.2,278.0 685.2,662.4 687.1,662.4 687.1,280.8 '/>
		<polygon fill = 'rgb( 31, 120, 180)' fill-opacity = '0.250000' points = '687.1,280.8 687.1,662.4 689.0,662.4 689.0,283.6 '/>
		<polygon fill = 'rgb( 31, 120, 180)' fill-opacity = '0.250000' points = '689.0,283.6 689.0,662.4 690.9,662.4 690.9,286.5 '/>
		<polygon fill = 'rgb( 31, 120, 180)' fill-opacity = '0.250000' points = '690.9,286.5 690.9,662.4 692.8,662.4 692.8,289.3 '/>
		<polygon fill = 'rgb( 31, 120, 180)' fill-opacity = '0.250000' points = '692.8,289.3 692.8,662.4 694.7,662.4 694.7,292.2 '/>
		<polygon fill = 'rgb( 31, 120, 180)' fill-opacity = '0.250000' points = '694.7,292.2 694.7,662.4 696.6,662.4 696.6,295.0 '/>
		<polygon fill = 'rgb( 31, 120, 180)' fill-opacity = '0.250000' points = '696.6,295.0 696.6,662.4 698.4,662.4 698.4,297.9 '/>
		<polygon fill = 'rgb( 31, 120, 180)' fill-opacity = '0.250000' points = '698.4,297.9 698.4,662.4 700.3,662.4 700.3,300.7 '/>
		<polygon fill = 'rgb( 31, 120, 180)' fill-opacity = '0.250000' points = '700.3,300.7 700.3,662.4 702.2,662.4 702.2,303.6 '/>
		<polygon fill = 'rgb( 31, 120, 180)' fill-opacity = '0.250000' points = '702.2,303.6 702.2,662.4 704.1,662.4 704.1,306.4 '/>
		<polygon fill = 'rgb( 31, 120, 180)' fill-opacity = '0.250000' points = '704.1,306.4 704.1,662.4 706.0,662.4 706.0,309.3 '/>
		<polygon fill = 'rgb( 31, 120, 180)' fill-opacity = '0.250000' points = '706.0,309.3 706.0,662.4 707.9,662.4 707.9,312.2 '/>
		<polygon fill = 'rgb( 31, 120, 180)' fill-opacity = '0.250000' points = '707.9,312.2 707.9,662.4 709.8,662.4 709.8,315.0 '/>
		<polygon fill = 'rgb( 31, 120, 180)' fill-opacity = '0.250000' points = '709.8,315.0 709.8,662.4 711.7,662.4 711.7,317.9 '/>
		<polygon fill = 'rgb( 31, 120, 180)' fill-opacity = '0.250000' points = '711.7,317.9 711.7,662.4 713.5,662.4 713.5,320.7 '/>
		<polygon fill = 'rgb( 31, 120, 180)' fill-opacity = '0.250000' points = '713.5,320.7 713.5,662.4 715.4,662.4 715.4,323.6 '/>
		<polygon fill = 'rgb( 31, 120, 180)' fill-opacity = '0.250000' points = '715.4,323.6 715.4,662.4 717.3,662.4 717.3,326.4 '/>
		<polygon fill = 'rgb( 31, 120, 180)' fill-opacity = '0.250000' points = '717.3,326.4 717.3,662.4 719.2,662.4 719.2,329.3 '/>
		<polygon fill = 'rgb( 31, 120, 180)' fill-opacity = '0.250000' points = '719.2,329.3 719.2,662.4 721.1,662.4 721.1,332.2 '/>
		<polygon fill = 'rgb( 31, 120, 180)' fill-opacity = '0.250000' points = '721.1,332.2 721.1,662.4 723.0,662.4 723.0,335.0 '/>
		<polygon fill = 'rgb( 31, 120, 180)' fill-opacity = '0.250000' points = '723.0,335.0 723.0,662.4 724.9,662.4 724.9,337.9 '/>
		<polygon fill = 'rgb( 31, 120, 180)' fill-opacity = '0.250000' points = '724.9,337.9 724.9,662.4 726.7,662.4 726.7,340.7 '/>
		<polygon fill = 'rgb( 31, 120, 180)' fill-opacity = '0.250000' points = '726.7,340.7 726.7,662.4 728.6,662.4 728.6,343.6 '/>
		<polygon fill = 'rgb( 31, 120, 180)' fill-opacity = '0.250000' points = '728.6,343.6 728.6,662.4 730.5,662.4 730.5,346.5 '/>
		<polygon fill = 'rgb( 31, 120, 180)' fill-opacity = '0.250000' points = '730.5,346.5 730.5,662.4 732.4,662.4 732.4,349.4 '/>
		<polygon fill = 'rgb( 31, 120, 180)' fill-opacity = '0.250000' points = '732.4,349.4 732.4,662.4 734.3,662.4 734.3,352.3 '/>
		<polygon fill = 'rgb( 31, 120, 180)' fill-opacity = '0.250000' points = '734.3,352.3 734.3,662.4 736.2,662.4 736.2,355.2 '/>
		<polygon fill = 'rgb( 31, 120, 180)' fill-opacity = '0.250000' points = '736.2,355.2 736.2,662.4 738.1,662.4 738.1,358.1 '/>
		<polygon fill = 'rgb( 31, 120, 180)' fill-opacity = '0.250000' points = '738.1,358.1 738.1,662.4 740.0,662.4 740.0,361.0 '/>
		<polygon fill = 'rgb( 31, 120, 180)' fill-opacity = '0.250000' points = '740.0,361.0 740.0,662.4 741.8,662.4 741.8,364.0 '/>
		<polygon fill = 'rgb( 31, 120, 180)' fill-opacity = '0.250000' points = '741.8,364.0 741.8,662.4 743.7,662.4 743.7,366.9 '/>
		<polygon fill = 'rgb( 31, 120, 180)' fill-opacity = '0.250000' points = '743.7,366.9 743.7,662.4 745.6,662.4 745.6,369.9 '/>
		<polygon fill = 'rgb( 31, 120, 180)' fill-opacity = '0.250000' points = '745.6,369.9 745.6,662.4 747.5,662.4 747.5,372.8 '/>
		<polygon fill = 'rgb( 31, 120, 180)' fill-opacity = '0.250000' points = '747.5,372.8 747.5,662.4 749.4,662.4 749.4,375.8 '/>
		<polygon fill = 'rgb( 31, 120, 180)' fill-opacity = '0.250000' points = '749.4,375.8 749.4,662.4 751.3,662.4 751.3,378.8 '/>
		<polygon fill = 'rgb( 31, 120, 180)' fill-opacity = '0.250000' points = '751.3,378.8 751.3,662.4 753.2,662.4 753.2,381.7 '/>
		<polygon fill = 'rgb( 31, 120, 180)' fill-opacity = '0.250000' points = '753.2,381.7 753.2,662.4 755.1,662.4 755.1,384.7 '/>
		<polygon fill = 'rgb( 31, 120, 180)' fill-opacity = '0.250000' points = '755.1,384.7 755.1,662.4 756.9,662.4 756.9,387.6 '/>
		<polygon fill = 'rgb( 31, 120, 180)' fill-opacity = '0.250000' points = '756.9,387.6 756.9,662.4 758.8,662.4 758.8,390.6 '/>
		<polygon fill = 'rgb( 31, 120, 180)' fill-opacity = '0.250000' points = '758.8,390.6 758.8,662.4 760.7,662.4 760.7,393.5 '/>
		<polygon fill = 'rgb( 31, 120, 180)' fill-opacity = '0.250000' points = '760.7,393.5 760.7,662.4 762.6,662.4 762.6,396.4 '/>
		<polygon fill = 'rgb( 31, 120, 180)' fill-opacity = '0.250000' points = '762.6,396.4 762.6,662.4 764.5,662.4 764.5,399.3 '/>
		<polygon fill = 'rgb( 31, 120, 180)' fill-opacity = '0.250000' points = '764.5,399.3 764.5,662.4 766.4,662.4 766.4,402.2 '/>
		<polygon fill = 'rgb( 31, 120, 180)' fill-opacity = '0.250000' points = '766.4,402.2 766.4,662.4 768.3,662.4 768.3,405.0 '/>
		<polygon fill = 'rgb( 31, 120, 180)' fill-opacity = '0.250000' points = '768.3,405.0 768.3,662.4 770.2,662.4 770.2,407.8 '/>
		<polygon fill = 'rgb( 31, 120, 180)' fill-opacity = '0.250000' points = '770.2,407.8 770.2,662.4 772.0,662.4 772.0,410.6 '/>
		<polygon fill = 'rgb( 31, 120, 180)' fill-opacity = '0.250000' points = '772.0,410.6 772.0,662.4 773.9,662.4 773.9,413.3 '/>
		<polygon fill = 'rgb( 31, 120, 180)' fill-opacity = '0.250000' points = '773.9,413.3 773.9,662.4 775.8,662.4 775.8,416.0 '/>
		<polygon fill = 'rgb( 31, 120, 180)' fill-opacity = '0.250000' points = '775.8,416.0 775.8,662.4 777.7,662.4 777.7,418.7 '/>
		<polygon fill = 'rgb( 31, 120, 180)' fill-opacity = '0.250000' points = '777.7,418.7 777.7,662.4 779.6,662.4 779.6,421.3 '/>
		<polygon fill = 'rgb( 31, 120, 180)' fill-opacity = '0.250000' points = '779.6,421.3 779.6,662.4 781.5,662.4 781.5,423.9 '/>
		<polygon fill = 'rgb( 31, 120, 180)' fill-opacity = '0.250000' points = '781.5,423.9 781.5,662.4 783.4,662.4 783.4,426.5 '/>
		<polygon fill = 'rgb( 31, 120, 180)' fill-opacity = '0.250000' points = '783.4,426.5 783.4,662.4 785.3,662.4 785.3,429.1 '/>
		<polygon fill = 'rgb( 31, 120, 180)' fill-opacity = '0.250000' points = '785.3,429.1 785.3,662.4 787.1,662.4 787.1,431.6 '/>
		<polygon fill = 'rgb( 31, 120, 180)' fill-opacity = '0.250000' points = '787.1,431.6 787.1,662.4 789.0,662.4 789.0,434.1 '/>
		<polygon fill = 'rgb( 31, 120, 180)' fill-opacity = '0.250000' points = '789.0,434.1 789.0,662.4 790.9,662.4 790.9,436.5 '/>
		<polygon fill = 'rgb( 31, 120, 180)' fill-opacity = '0.250000' points = '790.9,436.5 790.9,662.4 792.8,662.4 792.8,439.0 '/>
		<polygon fill = 'rgb( 31, 120, 180)' fill-opacity = '0.250000' points = '792.8,439.0 792.8,662.4 794.7,662.4 794.7,441.4 '/>
		<polygon fill = 'rgb( 31, 120, 180)' fill-opacity = '0.250000' points = '794.7,441.4 794.7,662.4 796.6,662.4 796.6,443.8 '/>
		<polygon fill = 'rgb( 31, 120, 180)' fill-opacity = '0.250000' points = '796.6,443.8 796.6,662.4 798.5,662.4 798.5,446.3 '/>
		<polygon fill = 'rgb( 31, 120, 180)' fill-opacity = '0.250000' points = '798.5,446.3 798.5,662.4 800.3,662.4 800.3,448.6 '/>
		<polygon fill = 'rgb( 31, 120, 180)' fill-opacity = '0.250000' points = '800.3,448.6 800.3,662.4 802.2,662.4 802.2,451.0 '/>
		<polygon fill = 'rgb( 31, 120, 180)' fill-opacity = '0.250000' points = '802.2,451.0 802.2,662.4 804.1,662.4 804.1,453.4 '/>
		<polygon fill = 'rgb( 31, 120, 180)' fill-opacity = '0.250000' points = '804.1,453.4 804.1,662.4 806.0,662.4 806.0,455.8 '/>
		<polygon fill = 'rgb( 31, 120, 180)' fill-opacity = '0.250000' points = '806.0,455.8 806.0,662.4 807.9,662.4 807.9,458.1 '/>
		<polygon fill = 'rgb( 31, 120, 180)' fill-opacity = '0.250000' points = '807.9,458.1 807.9,662.4 809.8,662.4 809.8,460.5 '/>
		<polygon fill = 'rgb( 31, 120, 180)' fill-opacity = '0.250000' points = '809.8,460.5 809.8,662.4 811.7,662.4 811.7,462.8 '/>
		<polygon fill = 'rgb( 31, 120, 180)' fill-opacity = '0.250000' points = '811.7,462.8 811.7,662.4 813.6,662.4 813.6,465.1 '/>
		<polygon fill = 'rgb( 31, 120, 180)' fill-opacity = '0.250000' points = '813.6,465.1 813.6,662.4 815.4,662.4 815.4,467.4 '/>
		<polygon fill = 'rgb( 31, 120, 180)' fill-opacity = '0.250000' points = '815.4,467.4 815.4,662.4 817.3,662.4 817.3,469.7 '/>
		<polygon fill = 'rgb( 31, 120, 180)' fill-opacity = '0.250000' points = '817.3,469.7 817.3,662.4 819.2,662.4 819.2,471.9 '/>
		<polygon fill = 'rgb( 31, 120, 180)' fill-opacity = '0.250000' points = '819.2,471.9 819.2,662.4 821.1,662.4 821.1,474.2 '/>
		<polygon fill = 'rgb( 31, 120, 180)' fill-opacity = '0.250000' points = '821.1,474.2 821.1,662.4 823.0,662.4 823.0,476.4 '/>
		<polygon fill = 'rgb( 31, 120, 180)' fill-opacity = '0.250000' points = '823.0,476.4 823.0,662.4 824.9,662.4 824.9,478.5 '/>
		<polygon fill = 'rgb( 31, 120, 180)' fill-opacity = '0.250000' points = '824.9,478.5 824.9,662.4 826.8,662.4 826.8,480.7 '/>
		<polygon fill = 'rgb( 31, 120, 180)' fill-opacity = '0.250000' points = '826.8,480.7 826.8,662.4 828.7,662.4 828.7,482.8 '/>
		<polygon fill = 'rgb( 31, 120, 180)' fill-opacity = '0.250000' points = '828.7,482.8 828.7,662.4 830.5,662.4 830.5,484.9 '/>
		<polygon fill = 'rgb( 31, 120, 180)' fill-opacity = '0.250000' points = '830.5,484.9 830.5,662.4 832.4,662.4 832.4,487.0 '/>
		<polygon fill = 'rgb( 31, 120, 180)' fill-opacity = '0.250000' points = '832.4,487.0 832.4,662.4 834.3,662.4 834.3,489.1 '/>
		<polygon fill = 'rgb( 31, 120, 180)' fill-opacity = '0.250000' points = '834.3,489.1 834.3,662.4 836.2,662.4 836.2,491.2 '/>
		<polygon fill = 'rgb( 31, 120, 180)' fill-opacity = '0.250000' points = '836.2,491.2 836.2,662.4 838.1,662.4 838.1,493.2 '/>
		<polygon fill = 'rgb( 31, 120, 180)' fill-opacity = '0.250000' points = '838.1,493.2 838.1,662.4 840.0,662.4 840.0,495.2 '/>
		<polygon fill = 'rgb( 31, 120, 180)' fill-opacity = '0.250000' points = '840.0,495.2 840.0,662.4 841.9,662.4 841.9,497.3 '/>
		<polygon fill = 'rgb( 31, 120, 180)' fill-opacity = '0.250000' points = '841.9,497.3 841.9,662.4 843.8,662.4 843.8,499.3 '/>
		<polygon fill = 'rgb( 31, 120, 180)' fill-opacity = '0.250000' points = '843.8,499.3 843.8,662.4 845.6,662.4 845.6,501.4 '/>
		<polygon fill = 'rgb( 31, 120, 180)' fill-opacity = '0.250000' points = '845.6,501.4 845.6,662.4 847.5,662.4 847.5,503.4 '/>
		<polygon fill = 'rgb( 31, 120, 180)' fill-opacity = '0.250000' points = '847.5,503.4 847.5,662.4 849.4,662.4 849.4,505.5 '/>
		<polygon fill = 'rgb( 31, 120, 180)' fill-opacity = '0.250000' points = '849.4,505.5 849.4,662.4 851.3,662.4 851.3,507.5 '/>
		<polygon fill = 'rgb( 31, 120, 180)' fill-opacity = '0.250000' points = '851.3,507.5 851.3,662.4 853.2,662.4 853.2,509.6 '/>
		<polygon fill = 'rgb( 31, 120, 180)' fill-opacity = '0.250000' points = '853.2,509.6 853.2,662.4 855.1,662.4 855.1,511.7 '/>
		<polygon fill = 'rgb( 31, 120, 180)' fill-opacity = '0.250000' points = '855.1,511.7 855.1,662.4 857.0,662.4 857.0,513.8 '/>
		<polygon fill = 'rgb( 31, 120, 180)' fill-opacity = '0.250000' points = '857.0,513.8 857.0,662.4 858.9,662.4 858.9,516.0 '/>
		<polygon fill = 'rgb( 31, 120, 180)' fill-opacity = '0.250000' points = '858.9,516.0 858.9,662.4 860.7,662.4 860.7,518.1 '/>
		<polygon fill = 'rgb( 31, 120, 180)' fill-opacity = '0.250000' points = '860.7,518.1 860.7,662.4 862.6,662.4 862.6,520.3 '/>
		<polygon fill = 'rgb( 31, 120, 180)' fill-opacity = '0.250000' points = '862.6,520.3 862.6,662.4 864.5,662.4 864.5,522.5 '/>
		<polygon fill = 'rgb( 31, 120, 180)' fill-opacity = '0.250000' points = '864.5,522.5 864.5,662.4 866.4,662.4 866.4,524.7 '/>
		<polygon fill = 'rgb( 31, 120, 180)' fill-opacity = '0.250000' points = '866.4,524.7 866.4,662.4 868.3,662.4 868.3,526.8 '/>
		<polygon fill = 'rgb( 31, 120, 180)' fill-opacity = '0.250000' points = '868.3,526.8 868.3,662.4 870.2,662.4 870.2,529.0 '/>
		<polygon fill = 'rgb( 31, 120, 180)' fill-opacity = '0.250000' points = '870.2,529.0 870.2,662.4 872.1,662.4 872.1,531.2 '/>
		<polygon fill = 'rgb( 31, 120, 180)' fill-opacity = '0.250000' points = '872.1,531.2 872.1,662.4 873.9,662.4 873.9,533.4 '/>
		<polygon fill = 'rgb( 31, 120, 180)' fill-opacity = '0.250000' points = '873.9,533.4 873.9,662.4 875.8,662.4 875.8,535.6 '/>
		<polygon fill = 'rgb( 31, 120, 180)' fill-opacity = '0.250000' points = '875.8,535.6 875.8,662.4 877.7,662.4 877.7,537.8 '/>
		<polygon fill = 'rgb( 31, 120, 180)' fill-opacity = '0.250000' points = '877.7,537.8 877.7,662.4 879.6,662.4 879.6,539.9 '/>
		<polygon fill = 'rgb( 31, 120, 180)' fill-opacity = '0.250000' points = '879.6,539.9 879.6,662.4 881.5,662.4 881.5,542.1 '/>
		<polygon fill = 'rgb( 31, 120, 180)' fill-opacity = '0.250000' points = '881.5,542.1 881.5,662.4 883.4,662.4 883.4,544.2 '/>
		<polygon fill = 'rgb( 31, 120, 180)' fill-opacity = '0.250000' points = '883.4,544.2 883.4,662.4 885.3,662.4 885.3,546.2 '/>
		<polygon fill = 'rgb( 31, 120, 180)' fill-opacity = '0.250000' points = '885.3,546.2 885.3,662.4 887.2,662.4 887.2,548.3 '/>
		<polygon fill = 'rgb( 31, 120, 180)' fill-opacity = '0.250000' points = '887.2,548.3 887.2,662.4 889.0,662.4 889.0,550.3 '/>
		<polygon fill = 'rgb( 31, 120, 180)' fill-opacity = '0.250000' points = '889.0,550.3 889.0,662.4 890.9,662.4 890.9,552.2 '/>
		<polygon fill = 'rgb( 31, 120, 180)' fill-opacity = '0.250000' points = '890.9,552.2 890.9,662.4 892.8,662.4 892.8,554.2 '/>
		<polygon fill = 'rgb( 31, 120, 180)' fill-opacity = '0.250000' points = '892.8,554.2 892.8,662.4 894.7,662.4 894.7,556.0 '/>
		<polygon fill = 'rgb( 31, 120, 180)' fill-opacity = '0.250000' points = '894.7,556.0 894.7,662.4 896.6,662.4 896.6,557.9 '/>
		<polygon fill = 'rgb( 31, 120, 180)' fill-opacity = '0.250000' points = '896.6,557.9 896.6,662.4 898.5,662.4 898.5,559.7 '/>
		<polygon fill = 'rgb( 31, 120, 180)' fill-opacity = '0.250000' points = '898.5,559.7 898.5,662.4 900.4,662.4 900.4,561.5 '/>
		<polygon fill = 'rgb( 31, 120, 180)' fill-opacity = '0.250000' points = '900.4,561.5 900.4,662.4 902.3,662.4 902.3,563.2 '/>
		<polygon fill = 'rgb( 31, 120, 180)' fill-opacity = '0.250000' points = '902.3,563.2 902.3,662.4 904.1,662.4 904.1,564.9 '/>
		<polygon fill = 'rgb( 31, 120, 180)' fill-opacity = '0.250000' points = '904.1,564.9 904.1,662.4 906.0,662.4 906.0,566.5 '/>
		<polygon fill = 'rgb( 31, 120, 180)' fill-opacity = '0.250000' points = '906.0,566.5 906.0,662.4 907.9,662.4 907.9,568.2 '/>
		<polygon fill = 'rgb( 31, 120, 180)' fill-opacity = '0.250000' points = '907.9,568.2 907.9,662.4 909.8,662.4 909.8,569.8 '/>
		<polygon fill = 'rgb( 31, 120, 180)' fill-opacity = '0.250000' points = '909.8,569.8 909.8,662.4 911.7,662.4 911.7,571.3 '/>
		<polygon fill = 'rgb( 31, 120, 180)' fill-opacity = '0.250000' points = '911.7,571.3 911.7,662.4 913.6,662.4 913.6,572.9 '/>
		<polygon fill = 'rgb( 31, 120, 180)' fill-opacity = '0.250000' points = '913.6,572.9 913.6,662.4 915.5,662.4 915.5,574.4 '/>
		<polygon fill = 'rgb( 31, 120, 180)' fill-opacity = '0.250000' points = '915.5,574.4 915.5,662.4 917.4,662.4 917.4,575.9 '/>
		<polygon fill = 'rgb( 31, 120, 180)' fill-opacity = '0.250000' points = '917.4,575.9 917.4,662.4 919.2,662.4 919.2,577.3 '/>
		<polygon fill = 'rgb( 31, 120, 180)' fill-opacity = '0.250000' points = '919.2,577.3 919.2,662.4 921.1,662.4 921.1,578.8 '/>
		<polygon fill = 'rgb( 31, 120, 180)' fill-opacity = '0.250000' points = '921.1,578.8 921.1,662.4 923.0,662.4 923.0,580.2 '/>
		<polygon fill = 'rgb( 31, 120, 180)' fill-opacity = '0.250000' points = '923.0,580.2 923.0,662.4 924.9,662.4 924.9,581.6 '/>
	</g>
</g>
	</g>
	<g id="gnuplot_plot_3" ><title>Point estimate</title>
<g fill="none" color="white" stroke="rgb( 31, 120, 180)" stroke-width="2.00" stroke-linecap="butt" stroke-linejoin="miter">
</g>
<g fill="none" color="black" stroke="currentColor" stroke-width="2.00" stroke-linecap="butt" stroke-linejoin="miter">
	<g transform="translate(1089.0,103.0)" stroke="none" fill="black" font-family="Helvetica" font-size="12.00"  text-anchor="start">
		<text><tspan font-family="Helvetica" >Point estimate</tspan></text>
	</g>
</g>
<g fill="none" color="black" stroke="currentColor" stroke-width="2.00" stroke-linecap="butt" stroke-linejoin="miter">
	<path stroke='rgb( 31, 120, 180)'  d='M1038.5,99.1 L1080.7,99.1 M536.3,662.4 L536.3,108.9  '/></g>
	</g>
	<g id="gnuplot_plot_4" ><title>Noise threshold</title>
<g fill="none" color="white" stroke="rgb( 31, 120, 180)" stroke-width="1.00" stroke-linecap="butt" stroke-linejoin="miter">
</g>
<g fill="none" color="black" stroke="currentColor" stroke-width="1.00" stroke-linecap="butt" stroke-linejoin="miter">
	<g transform="translate(1089.0,121.0)" stroke="none" fill="black" font-family="Helvetica" font-size="12.00"  text-anchor="start">
		<text><tspan font-family="Helvetica" >Noise threshold</tspan></text>
	</g>
</g>
<g fill="none" color="black" stroke="currentColor" stroke-width="1.00" stroke-linecap="butt" stroke-linejoin="miter">
	<g stroke='none' shape-rendering='crispEdges'>
		<polygon fill = 'rgb(227,  26,  28)' fill-opacity = '0.100000' points = '1038.5,121.6 1080.7,121.6 1080.7,112.6 1038.5,112.6 '/>
		<polygon fill = 'rgb(227,  26,  28)' fill-opacity = '0.100000' points = '71.9,54.1 71.9,662.4 1013.6,662.4 1013.6,54.1 '/>
	</g>
</g>
	</g>
<g fill="none" color="white" stroke="rgb(227,  26,  28)" stroke-width="2.00" stroke-linecap="butt" stroke-linejoin="miter">
</g>
<g fill="none" color="black" stroke="currentColor" stroke-width="2.00" stroke-linecap="butt" stroke-linejoin="miter">
</g>
<g fill="none" color="black" stroke="black" stroke-width="1.00" stroke-linecap="butt" stroke-linejoin="miter">
</g>
<g fill="none" color="black" stroke="currentColor" stroke-width="1.00" stroke-linecap="butt" stroke-linejoin="miter">
	<path stroke='black'  d='M71.9,54.1 L71.9,662.4 L1013.6,662.4 L1013.6,54.1 L71.9,54.1 Z  '/></g>
<g fill="none" color="black" stroke="currentColor" stroke-width="1.00" stroke-linecap="butt" stroke-linejoin="miter">
</g>
</g>
</svg>

