<?xml version="1.0" encoding="utf-8"  standalone="no"?>
<svg 
 viewBox="0 0 1280 720"
 xmlns="http://www.w3.org/2000/svg"
 xmlns:xlink="http://www.w3.org/1999/xlink"
>

<title>Gnuplot</title>
<desc>Produced by GNUPLOT 5.0 patchlevel 6 </desc>

<g id="gnuplot_canvas">

<rect x="0" y="0" width="1280" height="720" fill="none"/>
<defs>

	<circle id='gpDot' r='0.5' stroke-width='0.5'/>
	<path id='gpPt0' stroke-width='0.222' stroke='currentColor' d='M-1,0 h2 M0,-1 v2'/>
	<path id='gpPt1' stroke-width='0.222' stroke='currentColor' d='M-1,-1 L1,1 M1,-1 L-1,1'/>
	<path id='gpPt2' stroke-width='0.222' stroke='currentColor' d='M-1,0 L1,0 M0,-1 L0,1 M-1,-1 L1,1 M-1,1 L1,-1'/>
	<rect id='gpPt3' stroke-width='0.222' stroke='currentColor' x='-1' y='-1' width='2' height='2'/>
	<rect id='gpPt4' stroke-width='0.222' stroke='currentColor' fill='currentColor' x='-1' y='-1' width='2' height='2'/>
	<circle id='gpPt5' stroke-width='0.222' stroke='currentColor' cx='0' cy='0' r='1'/>
	<use xlink:href='#gpPt5' id='gpPt6' fill='currentColor' stroke='none'/>
	<path id='gpPt7' stroke-width='0.222' stroke='currentColor' d='M0,-1.33 L-1.33,0.67 L1.33,0.67 z'/>
	<use xlink:href='#gpPt7' id='gpPt8' fill='currentColor' stroke='none'/>
	<use xlink:href='#gpPt7' id='gpPt9' stroke='currentColor' transform='rotate(180)'/>
	<use xlink:href='#gpPt9' id='gpPt10' fill='currentColor' stroke='none'/>
	<use xlink:href='#gpPt3' id='gpPt11' stroke='currentColor' transform='rotate(45)'/>
	<use xlink:href='#gpPt11' id='gpPt12' fill='currentColor' stroke='none'/>
	<path id='gpPt13' stroke-width='0.222' stroke='currentColor' d='M0,1.330 L1.265,0.411 L0.782,-1.067 L-0.782,-1.076 L-1.265,0.411 z'/>
	<use xlink:href='#gpPt13' id='gpPt14' fill='currentColor' stroke='none'/>
	<filter id='textbox' filterUnits='objectBoundingBox' x='0' y='0' height='1' width='1'>
	  <feFlood flood-color='white' flood-opacity='1' result='bgnd'/>
	  <feComposite in='SourceGraphic' in2='bgnd' operator='atop'/>
	</filter>
	<filter id='greybox' filterUnits='objectBoundingBox' x='0' y='0' height='1' width='1'>
	  <feFlood flood-color='lightgrey' flood-opacity='1' result='grey'/>
	  <feComposite in='SourceGraphic' in2='grey' operator='atop'/>
	</filter>
</defs>
<g fill="none" color="white" stroke="currentColor" stroke-width="1.00" stroke-linecap="butt" stroke-linejoin="miter">
</g>
<g fill="none" color="black" stroke="currentColor" stroke-width="1.00" stroke-linecap="butt" stroke-linejoin="miter">
	<path stroke='black'  d='M63.6,662.4 L72.6,662.4  '/>	<g transform="translate(55.3,666.3)" stroke="none" fill="black" font-family="Helvetica" font-size="12.00"  text-anchor="end">
		<text><tspan font-family="Helvetica" > 0</tspan></text>
	</g>
</g>
<g fill="none" color="black" stroke="currentColor" stroke-width="1.00" stroke-linecap="butt" stroke-linejoin="miter">
	<path stroke='black'  d='M63.6,512.0 L72.6,512.0  '/>	<g transform="translate(55.3,515.9)" stroke="none" fill="black" font-family="Helvetica" font-size="12.00"  text-anchor="end">
		<text><tspan font-family="Helvetica" > 5</tspan></text>
	</g>
</g>
<g fill="none" color="black" stroke="currentColor" stroke-width="1.00" stroke-linecap="butt" stroke-linejoin="miter">
	<path stroke='black'  d='M63.6,361.6 L72.6,361.6  '/>	<g transform="translate(55.3,365.5)" stroke="none" fill="black" font-family="Helvetica" font-size="12.00"  text-anchor="end">
		<text><tspan font-family="Helvetica" > 10</tspan></text>
	</g>
</g>
<g fill="none" color="black" stroke="currentColor" stroke-width="1.00" stroke-linecap="butt" stroke-linejoin="miter">
	<path stroke='black'  d='M63.6,211.1 L72.6,211.1  '/>	<g transform="translate(55.3,215.0)" stroke="none" fill="black" font-family="Helvetica" font-size="12.00"  text-anchor="end">
		<text><tspan font-family="Helvetica" > 15</tspan></text>
	</g>
</g>
<g fill="none" color="black" stroke="currentColor" stroke-width="1.00" stroke-linecap="butt" stroke-linejoin="miter">
	<path stroke='black'  d='M63.6,60.7 L72.6,60.7  '/>	<g transform="translate(55.3,64.6)" stroke="none" fill="black" font-family="Helvetica" font-size="12.00"  text-anchor="end">
		<text><tspan font-family="Helvetica" > 20</tspan></text>
	</g>
</g>
<g fill="none" color="black" stroke="currentColor" stroke-width="1.00" stroke-linecap="butt" stroke-linejoin="miter">
	<path stroke='black'  d='M68.8,662.4 L68.8,653.4  '/>	<g transform="translate(68.8,684.3)" stroke="none" fill="black" font-family="Helvetica" font-size="12.00"  text-anchor="middle">
		<text><tspan font-family="Helvetica" > 4.64</tspan></text>
	</g>
</g>
<g fill="none" color="black" stroke="currentColor" stroke-width="1.00" stroke-linecap="butt" stroke-linejoin="miter">
	<path stroke='black'  d='M174.9,662.4 L174.9,653.4  '/>	<g transform="translate(174.9,684.3)" stroke="none" fill="black" font-family="Helvetica" font-size="12.00"  text-anchor="middle">
		<text><tspan font-family="Helvetica" > 4.66</tspan></text>
	</g>
</g>
<g fill="none" color="black" stroke="currentColor" stroke-width="1.00" stroke-linecap="butt" stroke-linejoin="miter">
	<path stroke='black'  d='M280.9,662.4 L280.9,653.4  '/>	<g transform="translate(280.9,684.3)" stroke="none" fill="black" font-family="Helvetica" font-size="12.00"  text-anchor="middle">
		<text><tspan font-family="Helvetica" > 4.68</tspan></text>
	</g>
</g>
<g fill="none" color="black" stroke="currentColor" stroke-width="1.00" stroke-linecap="butt" stroke-linejoin="miter">
	<path stroke='black'  d='M387.0,662.4 L387.0,653.4  '/>	<g transform="translate(387.0,684.3)" stroke="none" fill="black" font-family="Helvetica" font-size="12.00"  text-anchor="middle">
		<text><tspan font-family="Helvetica" > 4.7</tspan></text>
	</g>
</g>
<g fill="none" color="black" stroke="currentColor" stroke-width="1.00" stroke-linecap="butt" stroke-linejoin="miter">
	<path stroke='black'  d='M493.1,662.4 L493.1,653.4  '/>	<g transform="translate(493.1,684.3)" stroke="none" fill="black" font-family="Helvetica" font-size="12.00"  text-anchor="middle">
		<text><tspan font-family="Helvetica" > 4.72</tspan></text>
	</g>
</g>
<g fill="none" color="black" stroke="currentColor" stroke-width="1.00" stroke-linecap="butt" stroke-linejoin="miter">
	<path stroke='black'  d='M599.1,662.4 L599.1,653.4  '/>	<g transform="translate(599.1,684.3)" stroke="none" fill="black" font-family="Helvetica" font-size="12.00"  text-anchor="middle">
		<text><tspan font-family="Helvetica" > 4.74</tspan></text>
	</g>
</g>
<g fill="none" color="black" stroke="currentColor" stroke-width="1.00" stroke-linecap="butt" stroke-linejoin="miter">
	<path stroke='black'  d='M705.2,662.4 L705.2,653.4  '/>	<g transform="translate(705.2,684.3)" stroke="none" fill="black" font-family="Helvetica" font-size="12.00"  text-anchor="middle">
		<text><tspan font-family="Helvetica" > 4.76</tspan></text>
	</g>
</g>
<g fill="none" color="black" stroke="currentColor" stroke-width="1.00" stroke-linecap="butt" stroke-linejoin="miter">
	<path stroke='black'  d='M811.3,662.4 L811.3,653.4  '/>	<g transform="translate(811.3,684.3)" stroke="none" fill="black" font-family="Helvetica" font-size="12.00"  text-anchor="middle">
		<text><tspan font-family="Helvetica" > 4.78</tspan></text>
	</g>
</g>
<g fill="none" color="black" stroke="currentColor" stroke-width="1.00" stroke-linecap="butt" stroke-linejoin="miter">
	<path stroke='black'  d='M917.3,662.4 L917.3,653.4  '/>	<g transform="translate(917.3,684.3)" stroke="none" fill="black" font-family="Helvetica" font-size="12.00"  text-anchor="middle">
		<text><tspan font-family="Helvetica" > 4.8</tspan></text>
	</g>
</g>
<g fill="none" color="black" stroke="currentColor" stroke-width="1.00" stroke-linecap="butt" stroke-linejoin="miter">
	<path stroke='black'  d='M987.3,662.4 L978.3,662.4  '/>	<g transform="translate(995.6,666.3)" stroke="none" fill="black" font-family="Helvetica" font-size="12.00"  text-anchor="start">
		<text><tspan font-family="Helvetica" > 0</tspan></text>
	</g>
</g>
<g fill="none" color="black" stroke="currentColor" stroke-width="1.00" stroke-linecap="butt" stroke-linejoin="miter">
	<path stroke='black'  d='M987.3,540.7 L978.3,540.7  '/>	<g transform="translate(995.6,544.6)" stroke="none" fill="black" font-family="Helvetica" font-size="12.00"  text-anchor="start">
		<text><tspan font-family="Helvetica" > 0.005</tspan></text>
	</g>
</g>
<g fill="none" color="black" stroke="currentColor" stroke-width="1.00" stroke-linecap="butt" stroke-linejoin="miter">
	<path stroke='black'  d='M987.3,419.1 L978.3,419.1  '/>	<g transform="translate(995.6,423.0)" stroke="none" fill="black" font-family="Helvetica" font-size="12.00"  text-anchor="start">
		<text><tspan font-family="Helvetica" > 0.01</tspan></text>
	</g>
</g>
<g fill="none" color="black" stroke="currentColor" stroke-width="1.00" stroke-linecap="butt" stroke-linejoin="miter">
	<path stroke='black'  d='M987.3,297.4 L978.3,297.4  '/>	<g transform="translate(995.6,301.3)" stroke="none" fill="black" font-family="Helvetica" font-size="12.00"  text-anchor="start">
		<text><tspan font-family="Helvetica" > 0.015</tspan></text>
	</g>
</g>
<g fill="none" color="black" stroke="currentColor" stroke-width="1.00" stroke-linecap="butt" stroke-linejoin="miter">
	<path stroke='black'  d='M987.3,175.8 L978.3,175.8  '/>	<g transform="translate(995.6,179.7)" stroke="none" fill="black" font-family="Helvetica" font-size="12.00"  text-anchor="start">
		<text><tspan font-family="Helvetica" > 0.02</tspan></text>
	</g>
</g>
<g fill="none" color="black" stroke="currentColor" stroke-width="1.00" stroke-linecap="butt" stroke-linejoin="miter">
	<path stroke='black'  d='M987.3,54.1 L978.3,54.1  '/>	<g transform="translate(995.6,58.0)" stroke="none" fill="black" font-family="Helvetica" font-size="12.00"  text-anchor="start">
		<text><tspan font-family="Helvetica" > 0.025</tspan></text>
	</g>
</g>
<g fill="none" color="black" stroke="currentColor" stroke-width="1.00" stroke-linecap="butt" stroke-linejoin="miter">
</g>
<g fill="none" color="black" stroke="currentColor" stroke-width="1.00" stroke-linecap="butt" stroke-linejoin="miter">
	<path stroke='black'  d='M63.6,54.1 L63.6,662.4 L987.3,662.4 L987.3,54.1 L63.6,54.1 Z  '/></g>
<g fill="none" color="black" stroke="currentColor" stroke-width="1.00" stroke-linecap="butt" stroke-linejoin="miter">
	<g transform="translate(17.0,358.3) rotate(270)" stroke="none" fill="black" font-family="Helvetica" font-size="12.00"  text-anchor="middle">
		<text><tspan font-family="Helvetica" >Iterations (x 10</tspan><tspan font-family="Helvetica"  font-size="9.6" dy="-6.00px">3</tspan><tspan font-family="Helvetica"  font-size="12.0" dy="6.00px">)</tspan></text>
	</g>
</g>
<g fill="none" color="black" stroke="currentColor" stroke-width="1.00" stroke-linecap="butt" stroke-linejoin="miter">
	<g transform="translate(1066.5,358.3) rotate(270)" stroke="none" fill="black" font-family="Helvetica" font-size="12.00"  text-anchor="middle">
		<text><tspan font-family="Helvetica" >Density (a.u.)</tspan></text>
	</g>
</g>
<g fill="none" color="black" stroke="currentColor" stroke-width="1.00" stroke-linecap="butt" stroke-linejoin="miter">
	<g transform="translate(525.4,711.3)" stroke="none" fill="black" font-family="Helvetica" font-size="12.00"  text-anchor="middle">
		<text><tspan font-family="Helvetica" >Average time (us)</tspan></text>
	</g>
</g>
<g fill="none" color="black" stroke="currentColor" stroke-width="1.00" stroke-linecap="butt" stroke-linejoin="miter">
	<g transform="translate(525.4,31.0)" stroke="none" fill="black" font-family="Helvetica" font-size="12.00"  text-anchor="middle">
		<text><tspan font-family="Helvetica" >language: json/parse error: python/examples/simple-statements-without-trailing-newline.py</tspan></text>
	</g>
</g>
	<g id="gnuplot_plot_1" ><title>PDF</title>
<g fill="none" color="black" stroke="currentColor" stroke-width="1.00" stroke-linecap="butt" stroke-linejoin="miter">
	<g transform="translate(1147.1,67.0)" stroke="none" fill="black" font-family="Helvetica" font-size="12.00"  text-anchor="start">
		<text><tspan font-family="Helvetica" >PDF</tspan></text>
	</g>
</g>
<g fill="none" color="black" stroke="currentColor" stroke-width="1.00" stroke-linecap="butt" stroke-linejoin="miter">
	<g stroke='none' shape-rendering='crispEdges'>
		<polygon fill = 'rgb( 31, 120, 180)' fill-opacity = '0.250000' points = '1096.6,67.6 1138.8,67.6 1138.8,58.6 1096.6,58.6 '/>
		<polygon fill = 'rgb( 31, 120, 180)' fill-opacity = '0.250000' points = '63.6,661.8 63.6,662.4 65.5,662.4 65.5,661.7 '/>
		<polygon fill = 'rgb( 31, 120, 180)' fill-opacity = '0.250000' points = '65.5,661.7 65.5,662.4 67.3,662.4 67.3,661.6 '/>
		<polygon fill = 'rgb( 31, 120, 180)' fill-opacity = '0.250000' points = '67.3,661.6 67.3,662.4 69.2,662.4 69.2,661.6 '/>
		<polygon fill = 'rgb( 31, 120, 180)' fill-opacity = '0.250000' points = '69.2,661.6 69.2,662.4 71.0,662.4 71.0,661.5 '/>
		<polygon fill = 'rgb( 31, 120, 180)' fill-opacity = '0.250000' points = '71.0,661.5 71.0,662.4 72.9,662.4 72.9,661.4 '/>
		<polygon fill = 'rgb( 31, 120, 180)' fill-opacity = '0.250000' points = '72.9,661.4 72.9,662.4 74.7,662.4 74.7,661.3 '/>
		<polygon fill = 'rgb( 31, 120, 180)' fill-opacity = '0.250000' points = '74.7,661.3 74.7,662.4 76.6,662.4 76.6,661.3 '/>
		<polygon fill = 'rgb( 31, 120, 180)' fill-opacity = '0.250000' points = '76.6,661.3 76.6,662.4 78.4,662.4 78.4,661.2 '/>
		<polygon fill = 'rgb( 31, 120, 180)' fill-opacity = '0.250000' points = '78.4,661.2 78.4,662.4 80.3,662.4 80.3,661.1 '/>
		<polygon fill = 'rgb( 31, 120, 180)' fill-opacity = '0.250000' points = '80.3,661.1 80.3,662.4 82.1,662.4 82.1,660.9 '/>
		<polygon fill = 'rgb( 31, 120, 180)' fill-opacity = '0.250000' points = '82.1,660.9 82.1,662.4 84.0,662.4 84.0,660.8 '/>
		<polygon fill = 'rgb( 31, 120, 180)' fill-opacity = '0.250000' points = '84.0,660.8 84.0,662.4 85.8,662.4 85.8,660.7 '/>
		<polygon fill = 'rgb( 31, 120, 180)' fill-opacity = '0.250000' points = '85.8,660.7 85.8,662.4 87.7,662.4 87.7,660.6 '/>
		<polygon fill = 'rgb( 31, 120, 180)' fill-opacity = '0.250000' points = '87.7,660.6 87.7,662.4 89.5,662.4 89.5,660.4 '/>
		<polygon fill = 'rgb( 31, 120, 180)' fill-opacity = '0.250000' points = '89.5,660.4 89.5,662.4 91.4,662.4 91.4,660.2 '/>
		<polygon fill = 'rgb( 31, 120, 180)' fill-opacity = '0.250000' points = '91.4,660.2 91.4,662.4 93.2,662.4 93.2,660.1 '/>
		<polygon fill = 'rgb( 31, 120, 180)' fill-opacity = '0.250000' points = '93.2,660.1 93.2,662.4 95.1,662.4 95.1,659.9 '/>
		<polygon fill = 'rgb( 31, 120, 180)' fill-opacity = '0.250000' points = '95.1,659.9 95.1,662.4 96.9,662.4 96.9,659.7 '/>
		<polygon fill = 'rgb( 31, 120, 180)' fill-opacity = '0.250000' points = '96.9,659.7 96.9,662.4 98.8,662.4 98.8,659.5 '/>
		<polygon fill = 'rgb( 31, 120, 180)' fill-opacity = '0.250000' points = '98.8,659.5 98.8,662.4 100.6,662.4 100.6,659.3 '/>
		<polygon fill = 'rgb( 31, 120, 180)' fill-opacity = '0.250000' points = '100.6,659.3 100.6,662.4 102.5,662.4 102.5,659.0 '/>
		<polygon fill = 'rgb( 31, 120, 180)' fill-opacity = '0.250000' points = '102.5,659.0 102.5,662.4 104.3,662.4 104.3,658.8 '/>
		<polygon fill = 'rgb( 31, 120, 180)' fill-opacity = '0.250000' points = '104.3,658.8 104.3,662.4 106.2,662.4 106.2,658.5 '/>
		<polygon fill = 'rgb( 31, 120, 180)' fill-opacity = '0.250000' points = '106.2,658.5 106.2,662.4 108.0,662.4 108.0,658.2 '/>
		<polygon fill = 'rgb( 31, 120, 180)' fill-opacity = '0.250000' points = '108.0,658.2 108.0,662.4 109.9,662.4 109.9,657.9 '/>
		<polygon fill = 'rgb( 31, 120, 180)' fill-opacity = '0.250000' points = '109.9,657.9 109.9,662.4 111.7,662.4 111.7,657.6 '/>
		<polygon fill = 'rgb( 31, 120, 180)' fill-opacity = '0.250000' points = '111.7,657.6 111.7,662.4 113.6,662.4 113.6,657.3 '/>
		<polygon fill = 'rgb( 31, 120, 180)' fill-opacity = '0.250000' points = '113.6,657.3 113.6,662.4 115.4,662.4 115.4,656.9 '/>
		<polygon fill = 'rgb( 31, 120, 180)' fill-opacity = '0.250000' points = '115.4,656.9 115.4,662.4 117.3,662.4 117.3,656.5 '/>
		<polygon fill = 'rgb( 31, 120, 180)' fill-opacity = '0.250000' points = '117.3,656.5 117.3,662.4 119.1,662.4 119.1,656.1 '/>
		<polygon fill = 'rgb( 31, 120, 180)' fill-opacity = '0.250000' points = '119.1,656.1 119.1,662.4 121.0,662.4 121.0,655.7 '/>
		<polygon fill = 'rgb( 31, 120, 180)' fill-opacity = '0.250000' points = '121.0,655.7 121.0,662.4 122.8,662.4 122.8,655.2 '/>
		<polygon fill = 'rgb( 31, 120, 180)' fill-opacity = '0.250000' points = '122.8,655.2 122.8,662.4 124.7,662.4 124.7,654.7 '/>
		<polygon fill = 'rgb( 31, 120, 180)' fill-opacity = '0.250000' points = '124.7,654.7 124.7,662.4 126.5,662.4 126.5,654.2 '/>
		<polygon fill = 'rgb( 31, 120, 180)' fill-opacity = '0.250000' points = '126.5,654.2 126.5,662.4 128.4,662.4 128.4,653.6 '/>
		<polygon fill = 'rgb( 31, 120, 180)' fill-opacity = '0.250000' points = '128.4,653.6 128.4,662.4 130.2,662.4 130.2,653.1 '/>
		<polygon fill = 'rgb( 31, 120, 180)' fill-opacity = '0.250000' points = '130.2,653.1 130.2,662.4 132.1,662.4 132.1,652.5 '/>
		<polygon fill = 'rgb( 31, 120, 180)' fill-opacity = '0.250000' points = '132.1,652.5 132.1,662.4 133.9,662.4 133.9,651.8 '/>
		<polygon fill = 'rgb( 31, 120, 180)' fill-opacity = '0.250000' points = '133.9,651.8 133.9,662.4 135.8,662.4 135.8,651.1 '/>
		<polygon fill = 'rgb( 31, 120, 180)' fill-opacity = '0.250000' points = '135.8,651.1 135.8,662.4 137.6,662.4 137.6,650.4 '/>
		<polygon fill = 'rgb( 31, 120, 180)' fill-opacity = '0.250000' points = '137.6,650.4 137.6,662.4 139.5,662.4 139.5,649.7 '/>
		<polygon fill = 'rgb( 31, 120, 180)' fill-opacity = '0.250000' points = '139.5,649.7 139.5,662.4 141.3,662.4 141.3,648.9 '/>
		<polygon fill = 'rgb( 31, 120, 180)' fill-opacity = '0.250000' points = '141.3,648.9 141.3,662.4 143.2,662.4 143.2,648.0 '/>
		<polygon fill = 'rgb( 31, 120, 180)' fill-opacity = '0.250000' points = '143.2,648.0 143.2,662.4 145.0,662.4 145.0,647.2 '/>
		<polygon fill = 'rgb( 31, 120, 180)' fill-opacity = '0.250000' points = '145.0,647.2 145.0,662.4 146.9,662.4 146.9,646.3 '/>
		<polygon fill = 'rgb( 31, 120, 180)' fill-opacity = '0.250000' points = '146.9,646.3 146.9,662.4 148.8,662.4 148.8,645.3 '/>
		<polygon fill = 'rgb( 31, 120, 180)' fill-opacity = '0.250000' points = '148.8,645.3 148.8,662.4 150.6,662.4 150.6,644.3 '/>
		<polygon fill = 'rgb( 31, 120, 180)' fill-opacity = '0.250000' points = '150.6,644.3 150.6,662.4 152.5,662.4 152.5,643.2 '/>
		<polygon fill = 'rgb( 31, 120, 180)' fill-opacity = '0.250000' points = '152.5,643.2 152.5,662.4 154.3,662.4 154.3,642.1 '/>
		<polygon fill = 'rgb( 31, 120, 180)' fill-opacity = '0.250000' points = '154.3,642.1 154.3,662.4 156.2,662.4 156.2,640.9 '/>
		<polygon fill = 'rgb( 31, 120, 180)' fill-opacity = '0.250000' points = '156.2,640.9 156.2,662.4 158.0,662.4 158.0,639.7 '/>
		<polygon fill = 'rgb( 31, 120, 180)' fill-opacity = '0.250000' points = '158.0,639.7 158.0,662.4 159.9,662.4 159.9,638.5 '/>
		<polygon fill = 'rgb( 31, 120, 180)' fill-opacity = '0.250000' points = '159.9,638.5 159.9,662.4 161.7,662.4 161.7,637.1 '/>
		<polygon fill = 'rgb( 31, 120, 180)' fill-opacity = '0.250000' points = '161.7,637.1 161.7,662.4 163.6,662.4 163.6,635.7 '/>
		<polygon fill = 'rgb( 31, 120, 180)' fill-opacity = '0.250000' points = '163.6,635.7 163.6,662.4 165.4,662.4 165.4,634.3 '/>
		<polygon fill = 'rgb( 31, 120, 180)' fill-opacity = '0.250000' points = '165.4,634.3 165.4,662.4 167.3,662.4 167.3,632.8 '/>
		<polygon fill = 'rgb( 31, 120, 180)' fill-opacity = '0.250000' points = '167.3,632.8 167.3,662.4 169.1,662.4 169.1,631.2 '/>
		<polygon fill = 'rgb( 31, 120, 180)' fill-opacity = '0.250000' points = '169.1,631.2 169.1,662.4 171.0,662.4 171.0,629.6 '/>
		<polygon fill = 'rgb( 31, 120, 180)' fill-opacity = '0.250000' points = '171.0,629.6 171.0,662.4 172.8,662.4 172.8,627.9 '/>
		<polygon fill = 'rgb( 31, 120, 180)' fill-opacity = '0.250000' points = '172.8,627.9 172.8,662.4 174.7,662.4 174.7,626.1 '/>
		<polygon fill = 'rgb( 31, 120, 180)' fill-opacity = '0.250000' points = '174.7,626.1 174.7,662.4 176.5,662.4 176.5,624.2 '/>
		<polygon fill = 'rgb( 31, 120, 180)' fill-opacity = '0.250000' points = '176.5,624.2 176.5,662.4 178.4,662.4 178.4,622.3 '/>
		<polygon fill = 'rgb( 31, 120, 180)' fill-opacity = '0.250000' points = '178.4,622.3 178.4,662.4 180.2,662.4 180.2,620.3 '/>
		<polygon fill = 'rgb( 31, 120, 180)' fill-opacity = '0.250000' points = '180.2,620.3 180.2,662.4 182.1,662.4 182.1,618.3 '/>
		<polygon fill = 'rgb( 31, 120, 180)' fill-opacity = '0.250000' points = '182.1,618.3 182.1,662.4 183.9,662.4 183.9,616.1 '/>
		<polygon fill = 'rgb( 31, 120, 180)' fill-opacity = '0.250000' points = '183.9,616.1 183.9,662.4 185.8,662.4 185.8,613.9 '/>
		<polygon fill = 'rgb( 31, 120, 180)' fill-opacity = '0.250000' points = '185.8,613.9 185.8,662.4 187.6,662.4 187.6,611.6 '/>
		<polygon fill = 'rgb( 31, 120, 180)' fill-opacity = '0.250000' points = '187.6,611.6 187.6,662.4 189.5,662.4 189.5,609.2 '/>
		<polygon fill = 'rgb( 31, 120, 180)' fill-opacity = '0.250000' points = '189.5,609.2 189.5,662.4 191.3,662.4 191.3,606.7 '/>
		<polygon fill = 'rgb( 31, 120, 180)' fill-opacity = '0.250000' points = '191.3,606.7 191.3,662.4 193.2,662.4 193.2,604.2 '/>
		<polygon fill = 'rgb( 31, 120, 180)' fill-opacity = '0.250000' points = '193.2,604.2 193.2,662.4 195.0,662.4 195.0,601.5 '/>
		<polygon fill = 'rgb( 31, 120, 180)' fill-opacity = '0.250000' points = '195.0,601.5 195.0,662.4 196.9,662.4 196.9,598.8 '/>
		<polygon fill = 'rgb( 31, 120, 180)' fill-opacity = '0.250000' points = '196.9,598.8 196.9,662.4 198.7,662.4 198.7,596.0 '/>
		<polygon fill = 'rgb( 31, 120, 180)' fill-opacity = '0.250000' points = '198.7,596.0 198.7,662.4 200.6,662.4 200.6,593.1 '/>
		<polygon fill = 'rgb( 31, 120, 180)' fill-opacity = '0.250000' points = '200.6,593.1 200.6,662.4 202.4,662.4 202.4,590.1 '/>
		<polygon fill = 'rgb( 31, 120, 180)' fill-opacity = '0.250000' points = '202.4,590.1 202.4,662.4 204.3,662.4 204.3,587.0 '/>
		<polygon fill = 'rgb( 31, 120, 180)' fill-opacity = '0.250000' points = '204.3,587.0 204.3,662.4 206.1,662.4 206.1,583.9 '/>
		<polygon fill = 'rgb( 31, 120, 180)' fill-opacity = '0.250000' points = '206.1,583.9 206.1,662.4 208.0,662.4 208.0,580.6 '/>
		<polygon fill = 'rgb( 31, 120, 180)' fill-opacity = '0.250000' points = '208.0,580.6 208.0,662.4 209.8,662.4 209.8,577.3 '/>
		<polygon fill = 'rgb( 31, 120, 180)' fill-opacity = '0.250000' points = '209.8,577.3 209.8,662.4 211.7,662.4 211.7,573.8 '/>
		<polygon fill = 'rgb( 31, 120, 180)' fill-opacity = '0.250000' points = '211.7,573.8 211.7,662.4 213.5,662.4 213.5,570.3 '/>
		<polygon fill = 'rgb( 31, 120, 180)' fill-opacity = '0.250000' points = '213.5,570.3 213.5,662.4 215.4,662.4 215.4,566.6 '/>
		<polygon fill = 'rgb( 31, 120, 180)' fill-opacity = '0.250000' points = '215.4,566.6 215.4,662.4 217.2,662.4 217.2,562.9 '/>
		<polygon fill = 'rgb( 31, 120, 180)' fill-opacity = '0.250000' points = '217.2,562.9 217.2,662.4 219.1,662.4 219.1,559.1 '/>
		<polygon fill = 'rgb( 31, 120, 180)' fill-opacity = '0.250000' points = '219.1,559.1 219.1,662.4 220.9,662.4 220.9,555.2 '/>
		<polygon fill = 'rgb( 31, 120, 180)' fill-opacity = '0.250000' points = '220.9,555.2 220.9,662.4 222.8,662.4 222.8,551.2 '/>
		<polygon fill = 'rgb( 31, 120, 180)' fill-opacity = '0.250000' points = '222.8,551.2 222.8,662.4 224.6,662.4 224.6,547.1 '/>
		<polygon fill = 'rgb( 31, 120, 180)' fill-opacity = '0.250000' points = '224.6,547.1 224.6,662.4 226.5,662.4 226.5,542.9 '/>
		<polygon fill = 'rgb( 31, 120, 180)' fill-opacity = '0.250000' points = '226.5,542.9 226.5,662.4 228.3,662.4 228.3,538.6 '/>
		<polygon fill = 'rgb( 31, 120, 180)' fill-opacity = '0.250000' points = '228.3,538.6 228.3,662.4 230.2,662.4 230.2,534.2 '/>
		<polygon fill = 'rgb( 31, 120, 180)' fill-opacity = '0.250000' points = '230.2,534.2 230.2,662.4 232.1,662.4 232.1,529.7 '/>
		<polygon fill = 'rgb( 31, 120, 180)' fill-opacity = '0.250000' points = '232.1,529.7 232.1,662.4 233.9,662.4 233.9,525.2 '/>
		<polygon fill = 'rgb( 31, 120, 180)' fill-opacity = '0.250000' points = '233.9,525.2 233.9,662.4 235.8,662.4 235.8,520.5 '/>
		<polygon fill = 'rgb( 31, 120, 180)' fill-opacity = '0.250000' points = '235.8,520.5 235.8,662.4 237.6,662.4 237.6,515.8 '/>
		<polygon fill = 'rgb( 31, 120, 180)' fill-opacity = '0.250000' points = '237.6,515.8 237.6,662.4 239.5,662.4 239.5,511.0 '/>
		<polygon fill = 'rgb( 31, 120, 180)' fill-opacity = '0.250000' points = '239.5,511.0 239.5,662.4 241.3,662.4 241.3,506.1 '/>
		<polygon fill = 'rgb( 31, 120, 180)' fill-opacity = '0.250000' points = '241.3,506.1 241.3,662.4 243.2,662.4 243.2,501.1 '/>
		<polygon fill = 'rgb( 31, 120, 180)' fill-opacity = '0.250000' points = '243.2,501.1 243.2,662.4 245.0,662.4 245.0,496.0 '/>
		<polygon fill = 'rgb( 31, 120, 180)' fill-opacity = '0.250000' points = '245.0,496.0 245.0,662.4 246.9,662.4 246.9,490.8 '/>
		<polygon fill = 'rgb( 31, 120, 180)' fill-opacity = '0.250000' points = '246.9,490.8 246.9,662.4 248.7,662.4 248.7,485.6 '/>
		<polygon fill = 'rgb( 31, 120, 180)' fill-opacity = '0.250000' points = '248.7,485.6 248.7,662.4 250.6,662.4 250.6,480.3 '/>
		<polygon fill = 'rgb( 31, 120, 180)' fill-opacity = '0.250000' points = '250.6,480.3 250.6,662.4 252.4,662.4 252.4,474.9 '/>
		<polygon fill = 'rgb( 31, 120, 180)' fill-opacity = '0.250000' points = '252.4,474.9 252.4,662.4 254.3,662.4 254.3,469.5 '/>
		<polygon fill = 'rgb( 31, 120, 180)' fill-opacity = '0.250000' points = '254.3,469.5 254.3,662.4 256.1,662.4 256.1,464.0 '/>
		<polygon fill = 'rgb( 31, 120, 180)' fill-opacity = '0.250000' points = '256.1,464.0 256.1,662.4 258.0,662.4 258.0,458.4 '/>
		<polygon fill = 'rgb( 31, 120, 180)' fill-opacity = '0.250000' points = '258.0,458.4 258.0,662.4 259.8,662.4 259.8,452.7 '/>
		<polygon fill = 'rgb( 31, 120, 180)' fill-opacity = '0.250000' points = '259.8,452.7 259.8,662.4 261.7,662.4 261.7,447.0 '/>
		<polygon fill = 'rgb( 31, 120, 180)' fill-opacity = '0.250000' points = '261.7,447.0 261.7,662.4 263.5,662.4 263.5,441.3 '/>
		<polygon fill = 'rgb( 31, 120, 180)' fill-opacity = '0.250000' points = '263.5,441.3 263.5,662.4 265.4,662.4 265.4,435.5 '/>
		<polygon fill = 'rgb( 31, 120, 180)' fill-opacity = '0.250000' points = '265.4,435.5 265.4,662.4 267.2,662.4 267.2,429.6 '/>
		<polygon fill = 'rgb( 31, 120, 180)' fill-opacity = '0.250000' points = '267.2,429.6 267.2,662.4 269.1,662.4 269.1,423.7 '/>
		<polygon fill = 'rgb( 31, 120, 180)' fill-opacity = '0.250000' points = '269.1,423.7 269.1,662.4 270.9,662.4 270.9,417.8 '/>
		<polygon fill = 'rgb( 31, 120, 180)' fill-opacity = '0.250000' points = '270.9,417.8 270.9,662.4 272.8,662.4 272.8,411.8 '/>
		<polygon fill = 'rgb( 31, 120, 180)' fill-opacity = '0.250000' points = '272.8,411.8 272.8,662.4 274.6,662.4 274.6,405.8 '/>
		<polygon fill = 'rgb( 31, 120, 180)' fill-opacity = '0.250000' points = '274.6,405.8 274.6,662.4 276.5,662.4 276.5,399.7 '/>
		<polygon fill = 'rgb( 31, 120, 180)' fill-opacity = '0.250000' points = '276.5,399.7 276.5,662.4 278.3,662.4 278.3,393.7 '/>
		<polygon fill = 'rgb( 31, 120, 180)' fill-opacity = '0.250000' points = '278.3,393.7 278.3,662.4 280.2,662.4 280.2,387.6 '/>
		<polygon fill = 'rgb( 31, 120, 180)' fill-opacity = '0.250000' points = '280.2,387.6 280.2,662.4 282.0,662.4 282.0,381.5 '/>
		<polygon fill = 'rgb( 31, 120, 180)' fill-opacity = '0.250000' points = '282.0,381.5 282.0,662.4 283.9,662.4 283.9,375.4 '/>
		<polygon fill = 'rgb( 31, 120, 180)' fill-opacity = '0.250000' points = '283.9,375.4 283.9,662.4 285.7,662.4 285.7,369.2 '/>
		<polygon fill = 'rgb( 31, 120, 180)' fill-opacity = '0.250000' points = '285.7,369.2 285.7,662.4 287.6,662.4 287.6,363.1 '/>
		<polygon fill = 'rgb( 31, 120, 180)' fill-opacity = '0.250000' points = '287.6,363.1 287.6,662.4 289.4,662.4 289.4,357.0 '/>
		<polygon fill = 'rgb( 31, 120, 180)' fill-opacity = '0.250000' points = '289.4,357.0 289.4,662.4 291.3,662.4 291.3,350.9 '/>
		<polygon fill = 'rgb( 31, 120, 180)' fill-opacity = '0.250000' points = '291.3,350.9 291.3,662.4 293.1,662.4 293.1,344.8 '/>
		<polygon fill = 'rgb( 31, 120, 180)' fill-opacity = '0.250000' points = '293.1,344.8 293.1,662.4 295.0,662.4 295.0,338.8 '/>
		<polygon fill = 'rgb( 31, 120, 180)' fill-opacity = '0.250000' points = '295.0,338.8 295.0,662.4 296.8,662.4 296.8,332.7 '/>
		<polygon fill = 'rgb( 31, 120, 180)' fill-opacity = '0.250000' points = '296.8,332.7 296.8,662.4 298.7,662.4 298.7,326.7 '/>
		<polygon fill = 'rgb( 31, 120, 180)' fill-opacity = '0.250000' points = '298.7,326.7 298.7,662.4 300.5,662.4 300.5,320.7 '/>
		<polygon fill = 'rgb( 31, 120, 180)' fill-opacity = '0.250000' points = '300.5,320.7 300.5,662.4 302.4,662.4 302.4,314.8 '/>
		<polygon fill = 'rgb( 31, 120, 180)' fill-opacity = '0.250000' points = '302.4,314.8 302.4,662.4 304.2,662.4 304.2,308.9 '/>
		<polygon fill = 'rgb( 31, 120, 180)' fill-opacity = '0.250000' points = '304.2,308.9 304.2,662.4 306.1,662.4 306.1,303.1 '/>
		<polygon fill = 'rgb( 31, 120, 180)' fill-opacity = '0.250000' points = '306.1,303.1 306.1,662.4 307.9,662.4 307.9,297.3 '/>
		<polygon fill = 'rgb( 31, 120, 180)' fill-opacity = '0.250000' points = '307.9,297.3 307.9,662.4 309.8,662.4 309.8,291.6 '/>
		<polygon fill = 'rgb( 31, 120, 180)' fill-opacity = '0.250000' points = '309.8,291.6 309.8,662.4 311.6,662.4 311.6,286.0 '/>
		<polygon fill = 'rgb( 31, 120, 180)' fill-opacity = '0.250000' points = '311.6,286.0 311.6,662.4 313.5,662.4 313.5,280.4 '/>
		<polygon fill = 'rgb( 31, 120, 180)' fill-opacity = '0.250000' points = '313.5,280.4 313.5,662.4 315.3,662.4 315.3,274.9 '/>
		<polygon fill = 'rgb( 31, 120, 180)' fill-opacity = '0.250000' points = '315.3,274.9 315.3,662.4 317.2,662.4 317.2,269.6 '/>
		<polygon fill = 'rgb( 31, 120, 180)' fill-opacity = '0.250000' points = '317.2,269.6 317.2,662.4 319.1,662.4 319.1,264.3 '/>
		<polygon fill = 'rgb( 31, 120, 180)' fill-opacity = '0.250000' points = '319.1,264.3 319.1,662.4 320.9,662.4 320.9,259.1 '/>
		<polygon fill = 'rgb( 31, 120, 180)' fill-opacity = '0.250000' points = '320.9,259.1 320.9,662.4 322.8,662.4 322.8,254.0 '/>
		<polygon fill = 'rgb( 31, 120, 180)' fill-opacity = '0.250000' points = '322.8,254.0 322.8,662.4 324.6,662.4 324.6,249.0 '/>
		<polygon fill = 'rgb( 31, 120, 180)' fill-opacity = '0.250000' points = '324.6,249.0 324.6,662.4 326.5,662.4 326.5,244.1 '/>
		<polygon fill = 'rgb( 31, 120, 180)' fill-opacity = '0.250000' points = '326.5,244.1 326.5,662.4 328.3,662.4 328.3,239.4 '/>
		<polygon fill = 'rgb( 31, 120, 180)' fill-opacity = '0.250000' points = '328.3,239.4 328.3,662.4 330.2,662.4 330.2,234.8 '/>
		<polygon fill = 'rgb( 31, 120, 180)' fill-opacity = '0.250000' points = '330.2,234.8 330.2,662.4 332.0,662.4 332.0,230.3 '/>
		<polygon fill = 'rgb( 31, 120, 180)' fill-opacity = '0.250000' points = '332.0,230.3 332.0,662.4 333.9,662.4 333.9,225.9 '/>
		<polygon fill = 'rgb( 31, 120, 180)' fill-opacity = '0.250000' points = '333.9,225.9 333.9,662.4 335.7,662.4 335.7,221.7 '/>
		<polygon fill = 'rgb( 31, 120, 180)' fill-opacity = '0.250000' points = '335.7,221.7 335.7,662.4 337.6,662.4 337.6,217.7 '/>
		<polygon fill = 'rgb( 31, 120, 180)' fill-opacity = '0.250000' points = '337.6,217.7 337.6,662.4 339.4,662.4 339.4,213.8 '/>
		<polygon fill = 'rgb( 31, 120, 180)' fill-opacity = '0.250000' points = '339.4,213.8 339.4,662.4 341.3,662.4 341.3,210.0 '/>
		<polygon fill = 'rgb( 31, 120, 180)' fill-opacity = '0.250000' points = '341.3,210.0 341.3,662.4 343.1,662.4 343.1,206.4 '/>
		<polygon fill = 'rgb( 31, 120, 180)' fill-opacity = '0.250000' points = '343.1,206.4 343.1,662.4 345.0,662.4 345.0,203.0 '/>
		<polygon fill = 'rgb( 31, 120, 180)' fill-opacity = '0.250000' points = '345.0,203.0 345.0,662.4 346.8,662.4 346.8,199.8 '/>
		<polygon fill = 'rgb( 31, 120, 180)' fill-opacity = '0.250000' points = '346.8,199.8 346.8,662.4 348.7,662.4 348.7,196.7 '/>
		<polygon fill = 'rgb( 31, 120, 180)' fill-opacity = '0.250000' points = '348.7,196.7 348.7,662.4 350.5,662.4 350.5,193.8 '/>
		<polygon fill = 'rgb( 31, 120, 180)' fill-opacity = '0.250000' points = '350.5,193.8 350.5,662.4 352.4,662.4 352.4,191.1 '/>
		<polygon fill = 'rgb( 31, 120, 180)' fill-opacity = '0.250000' points = '352.4,191.1 352.4,662.4 354.2,662.4 354.2,188.6 '/>
		<polygon fill = 'rgb( 31, 120, 180)' fill-opacity = '0.250000' points = '354.2,188.6 354.2,662.4 356.1,662.4 356.1,186.2 '/>
		<polygon fill = 'rgb( 31, 120, 180)' fill-opacity = '0.250000' points = '356.1,186.2 356.1,662.4 357.9,662.4 357.9,184.1 '/>
		<polygon fill = 'rgb( 31, 120, 180)' fill-opacity = '0.250000' points = '357.9,184.1 357.9,662.4 359.8,662.4 359.8,182.1 '/>
		<polygon fill = 'rgb( 31, 120, 180)' fill-opacity = '0.250000' points = '359.8,182.1 359.8,662.4 361.6,662.4 361.6,180.4 '/>
		<polygon fill = 'rgb( 31, 120, 180)' fill-opacity = '0.250000' points = '361.6,180.4 361.6,662.4 363.5,662.4 363.5,178.8 '/>
		<polygon fill = 'rgb( 31, 120, 180)' fill-opacity = '0.250000' points = '363.5,178.8 363.5,662.4 365.3,662.4 365.3,177.4 '/>
		<polygon fill = 'rgb( 31, 120, 180)' fill-opacity = '0.250000' points = '365.3,177.4 365.3,662.4 367.2,662.4 367.2,176.3 '/>
		<polygon fill = 'rgb( 31, 120, 180)' fill-opacity = '0.250000' points = '367.2,176.3 367.2,662.4 369.0,662.4 369.0,175.3 '/>
		<polygon fill = 'rgb( 31, 120, 180)' fill-opacity = '0.250000' points = '369.0,175.3 369.0,662.4 370.9,662.4 370.9,174.6 '/>
		<polygon fill = 'rgb( 31, 120, 180)' fill-opacity = '0.250000' points = '370.9,174.6 370.9,662.4 372.7,662.4 372.7,174.0 '/>
		<polygon fill = 'rgb( 31, 120, 180)' fill-opacity = '0.250000' points = '372.7,174.0 372.7,662.4 374.6,662.4 374.6,173.7 '/>
		<polygon fill = 'rgb( 31, 120, 180)' fill-opacity = '0.250000' points = '374.6,173.7 374.6,662.4 376.4,662.4 376.4,173.6 '/>
		<polygon fill = 'rgb( 31, 120, 180)' fill-opacity = '0.250000' points = '376.4,173.6 376.4,662.4 378.3,662.4 378.3,173.6 '/>
		<polygon fill = 'rgb( 31, 120, 180)' fill-opacity = '0.250000' points = '378.3,173.6 378.3,662.4 380.1,662.4 380.1,173.9 '/>
		<polygon fill = 'rgb( 31, 120, 180)' fill-opacity = '0.250000' points = '380.1,173.9 380.1,662.4 382.0,662.4 382.0,174.4 '/>
		<polygon fill = 'rgb( 31, 120, 180)' fill-opacity = '0.250000' points = '382.0,174.4 382.0,662.4 383.8,662.4 383.8,175.1 '/>
		<polygon fill = 'rgb( 31, 120, 180)' fill-opacity = '0.250000' points = '383.8,175.1 383.8,662.4 385.7,662.4 385.7,176.0 '/>
		<polygon fill = 'rgb( 31, 120, 180)' fill-opacity = '0.250000' points = '385.7,176.0 385.7,662.4 387.5,662.4 387.5,177.1 '/>
		<polygon fill = 'rgb( 31, 120, 180)' fill-opacity = '0.250000' points = '387.5,177.1 387.5,662.4 389.4,662.4 389.4,178.4 '/>
		<polygon fill = 'rgb( 31, 120, 180)' fill-opacity = '0.250000' points = '389.4,178.4 389.4,662.4 391.2,662.4 391.2,179.9 '/>
		<polygon fill = 'rgb( 31, 120, 180)' fill-opacity = '0.250000' points = '391.2,179.9 391.2,662.4 393.1,662.4 393.1,181.6 '/>
		<polygon fill = 'rgb( 31, 120, 180)' fill-opacity = '0.250000' points = '393.1,181.6 393.1,662.4 394.9,662.4 394.9,183.5 '/>
		<polygon fill = 'rgb( 31, 120, 180)' fill-opacity = '0.250000' points = '394.9,183.5 394.9,662.4 396.8,662.4 396.8,185.6 '/>
		<polygon fill = 'rgb( 31, 120, 180)' fill-opacity = '0.250000' points = '396.8,185.6 396.8,662.4 398.6,662.4 398.6,187.8 '/>
		<polygon fill = 'rgb( 31, 120, 180)' fill-opacity = '0.250000' points = '398.6,187.8 398.6,662.4 400.5,662.4 400.5,190.3 '/>
		<polygon fill = 'rgb( 31, 120, 180)' fill-opacity = '0.250000' points = '400.5,190.3 400.5,662.4 402.4,662.4 402.4,192.9 '/>
		<polygon fill = 'rgb( 31, 120, 180)' fill-opacity = '0.250000' points = '402.4,192.9 402.4,662.4 404.2,662.4 404.2,195.7 '/>
		<polygon fill = 'rgb( 31, 120, 180)' fill-opacity = '0.250000' points = '404.2,195.7 404.2,662.4 406.1,662.4 406.1,198.7 '/>
		<polygon fill = 'rgb( 31, 120, 180)' fill-opacity = '0.250000' points = '406.1,198.7 406.1,662.4 407.9,662.4 407.9,201.8 '/>
		<polygon fill = 'rgb( 31, 120, 180)' fill-opacity = '0.250000' points = '407.9,201.8 407.9,662.4 409.8,662.4 409.8,205.1 '/>
		<polygon fill = 'rgb( 31, 120, 180)' fill-opacity = '0.250000' points = '409.8,205.1 409.8,662.4 411.6,662.4 411.6,208.5 '/>
		<polygon fill = 'rgb( 31, 120, 180)' fill-opacity = '0.250000' points = '411.6,208.5 411.6,662.4 413.5,662.4 413.5,212.1 '/>
		<polygon fill = 'rgb( 31, 120, 180)' fill-opacity = '0.250000' points = '413.5,212.1 413.5,662.4 415.3,662.4 415.3,215.9 '/>
		<polygon fill = 'rgb( 31, 120, 180)' fill-opacity = '0.250000' points = '415.3,215.9 415.3,662.4 417.2,662.4 417.2,219.8 '/>
		<polygon fill = 'rgb( 31, 120, 180)' fill-opacity = '0.250000' points = '417.2,219.8 417.2,662.4 419.0,662.4 419.0,223.8 '/>
		<polygon fill = 'rgb( 31, 120, 180)' fill-opacity = '0.250000' points = '419.0,223.8 419.0,662.4 420.9,662.4 420.9,228.0 '/>
		<polygon fill = 'rgb( 31, 120, 180)' fill-opacity = '0.250000' points = '420.9,228.0 420.9,662.4 422.7,662.4 422.7,232.2 '/>
		<polygon fill = 'rgb( 31, 120, 180)' fill-opacity = '0.250000' points = '422.7,232.2 422.7,662.4 424.6,662.4 424.6,236.6 '/>
		<polygon fill = 'rgb( 31, 120, 180)' fill-opacity = '0.250000' points = '424.6,236.6 424.6,662.4 426.4,662.4 426.4,241.1 '/>
		<polygon fill = 'rgb( 31, 120, 180)' fill-opacity = '0.250000' points = '426.4,241.1 426.4,662.4 428.3,662.4 428.3,245.7 '/>
		<polygon fill = 'rgb( 31, 120, 180)' fill-opacity = '0.250000' points = '428.3,245.7 428.3,662.4 430.1,662.4 430.1,250.4 '/>
		<polygon fill = 'rgb( 31, 120, 180)' fill-opacity = '0.250000' points = '430.1,250.4 430.1,662.4 432.0,662.4 432.0,255.2 '/>
		<polygon fill = 'rgb( 31, 120, 180)' fill-opacity = '0.250000' points = '432.0,255.2 432.0,662.4 433.8,662.4 433.8,260.0 '/>
		<polygon fill = 'rgb( 31, 120, 180)' fill-opacity = '0.250000' points = '433.8,260.0 433.8,662.4 435.7,662.4 435.7,264.9 '/>
		<polygon fill = 'rgb( 31, 120, 180)' fill-opacity = '0.250000' points = '435.7,264.9 435.7,662.4 437.5,662.4 437.5,269.9 '/>
		<polygon fill = 'rgb( 31, 120, 180)' fill-opacity = '0.250000' points = '437.5,269.9 437.5,662.4 439.4,662.4 439.4,275.0 '/>
		<polygon fill = 'rgb( 31, 120, 180)' fill-opacity = '0.250000' points = '439.4,275.0 439.4,662.4 441.2,662.4 441.2,280.1 '/>
		<polygon fill = 'rgb( 31, 120, 180)' fill-opacity = '0.250000' points = '441.2,280.1 441.2,662.4 443.1,662.4 443.1,285.3 '/>
		<polygon fill = 'rgb( 31, 120, 180)' fill-opacity = '0.250000' points = '443.1,285.3 443.1,662.4 444.9,662.4 444.9,290.5 '/>
		<polygon fill = 'rgb( 31, 120, 180)' fill-opacity = '0.250000' points = '444.9,290.5 444.9,662.4 446.8,662.4 446.8,295.7 '/>
		<polygon fill = 'rgb( 31, 120, 180)' fill-opacity = '0.250000' points = '446.8,295.7 446.8,662.4 448.6,662.4 448.6,300.9 '/>
		<polygon fill = 'rgb( 31, 120, 180)' fill-opacity = '0.250000' points = '448.6,300.9 448.6,662.4 450.5,662.4 450.5,306.2 '/>
		<polygon fill = 'rgb( 31, 120, 180)' fill-opacity = '0.250000' points = '450.5,306.2 450.5,662.4 452.3,662.4 452.3,311.5 '/>
		<polygon fill = 'rgb( 31, 120, 180)' fill-opacity = '0.250000' points = '452.3,311.5 452.3,662.4 454.2,662.4 454.2,316.8 '/>
		<polygon fill = 'rgb( 31, 120, 180)' fill-opacity = '0.250000' points = '454.2,316.8 454.2,662.4 456.0,662.4 456.0,322.1 '/>
		<polygon fill = 'rgb( 31, 120, 180)' fill-opacity = '0.250000' points = '456.0,322.1 456.0,662.4 457.9,662.4 457.9,327.3 '/>
		<polygon fill = 'rgb( 31, 120, 180)' fill-opacity = '0.250000' points = '457.9,327.3 457.9,662.4 459.7,662.4 459.7,332.6 '/>
		<polygon fill = 'rgb( 31, 120, 180)' fill-opacity = '0.250000' points = '459.7,332.6 459.7,662.4 461.6,662.4 461.6,337.9 '/>
		<polygon fill = 'rgb( 31, 120, 180)' fill-opacity = '0.250000' points = '461.6,337.9 461.6,662.4 463.4,662.4 463.4,343.1 '/>
		<polygon fill = 'rgb( 31, 120, 180)' fill-opacity = '0.250000' points = '463.4,343.1 463.4,662.4 465.3,662.4 465.3,348.3 '/>
		<polygon fill = 'rgb( 31, 120, 180)' fill-opacity = '0.250000' points = '465.3,348.3 465.3,662.4 467.1,662.4 467.1,353.4 '/>
		<polygon fill = 'rgb( 31, 120, 180)' fill-opacity = '0.250000' points = '467.1,353.4 467.1,662.4 469.0,662.4 469.0,358.6 '/>
		<polygon fill = 'rgb( 31, 120, 180)' fill-opacity = '0.250000' points = '469.0,358.6 469.0,662.4 470.8,662.4 470.8,363.6 '/>
		<polygon fill = 'rgb( 31, 120, 180)' fill-opacity = '0.250000' points = '470.8,363.6 470.8,662.4 472.7,662.4 472.7,368.7 '/>
		<polygon fill = 'rgb( 31, 120, 180)' fill-opacity = '0.250000' points = '472.7,368.7 472.7,662.4 474.5,662.4 474.5,373.6 '/>
		<polygon fill = 'rgb( 31, 120, 180)' fill-opacity = '0.250000' points = '474.5,373.6 474.5,662.4 476.4,662.4 476.4,378.6 '/>
		<polygon fill = 'rgb( 31, 120, 180)' fill-opacity = '0.250000' points = '476.4,378.6 476.4,662.4 478.2,662.4 478.2,383.4 '/>
		<polygon fill = 'rgb( 31, 120, 180)' fill-opacity = '0.250000' points = '478.2,383.4 478.2,662.4 480.1,662.4 480.1,388.2 '/>
		<polygon fill = 'rgb( 31, 120, 180)' fill-opacity = '0.250000' points = '480.1,388.2 480.1,662.4 481.9,662.4 481.9,392.9 '/>
		<polygon fill = 'rgb( 31, 120, 180)' fill-opacity = '0.250000' points = '481.9,392.9 481.9,662.4 483.8,662.4 483.8,397.6 '/>
		<polygon fill = 'rgb( 31, 120, 180)' fill-opacity = '0.250000' points = '483.8,397.6 483.8,662.4 485.7,662.4 485.7,402.1 '/>
		<polygon fill = 'rgb( 31, 120, 180)' fill-opacity = '0.250000' points = '485.7,402.1 485.7,662.4 487.5,662.4 487.5,406.6 '/>
		<polygon fill = 'rgb( 31, 120, 180)' fill-opacity = '0.250000' points = '487.5,406.6 487.5,662.4 489.4,662.4 489.4,411.1 '/>
		<polygon fill = 'rgb( 31, 120, 180)' fill-opacity = '0.250000' points = '489.4,411.1 489.4,662.4 491.2,662.4 491.2,415.4 '/>
		<polygon fill = 'rgb( 31, 120, 180)' fill-opacity = '0.250000' points = '491.2,415.4 491.2,662.4 493.1,662.4 493.1,419.7 '/>
		<polygon fill = 'rgb( 31, 120, 180)' fill-opacity = '0.250000' points = '493.1,419.7 493.1,662.4 494.9,662.4 494.9,423.8 '/>
		<polygon fill = 'rgb( 31, 120, 180)' fill-opacity = '0.250000' points = '494.9,423.8 494.9,662.4 496.8,662.4 496.8,427.9 '/>
		<polygon fill = 'rgb( 31, 120, 180)' fill-opacity = '0.250000' points = '496.8,427.9 496.8,662.4 498.6,662.4 498.6,431.9 '/>
		<polygon fill = 'rgb( 31, 120, 180)' fill-opacity = '0.250000' points = '498.6,431.9 498.6,662.4 500.5,662.4 500.5,435.8 '/>
		<polygon fill = 'rgb( 31, 120, 180)' fill-opacity = '0.250000' points = '500.5,435.8 500.5,662.4 502.3,662.4 502.3,439.7 '/>
		<polygon fill = 'rgb( 31, 120, 180)' fill-opacity = '0.250000' points = '502.3,439.7 502.3,662.4 504.2,662.4 504.2,443.4 '/>
		<polygon fill = 'rgb( 31, 120, 180)' fill-opacity = '0.250000' points = '504.2,443.4 504.2,662.4 506.0,662.4 506.0,447.1 '/>
		<polygon fill = 'rgb( 31, 120, 180)' fill-opacity = '0.250000' points = '506.0,447.1 506.0,662.4 507.9,662.4 507.9,450.7 '/>
		<polygon fill = 'rgb( 31, 120, 180)' fill-opacity = '0.250000' points = '507.9,450.7 507.9,662.4 509.7,662.4 509.7,454.2 '/>
		<polygon fill = 'rgb( 31, 120, 180)' fill-opacity = '0.250000' points = '509.7,454.2 509.7,662.4 511.6,662.4 511.6,457.6 '/>
		<polygon fill = 'rgb( 31, 120, 180)' fill-opacity = '0.250000' points = '511.6,457.6 511.6,662.4 513.4,662.4 513.4,460.9 '/>
		<polygon fill = 'rgb( 31, 120, 180)' fill-opacity = '0.250000' points = '513.4,460.9 513.4,662.4 515.3,662.4 515.3,464.1 '/>
		<polygon fill = 'rgb( 31, 120, 180)' fill-opacity = '0.250000' points = '515.3,464.1 515.3,662.4 517.1,662.4 517.1,467.3 '/>
		<polygon fill = 'rgb( 31, 120, 180)' fill-opacity = '0.250000' points = '517.1,467.3 517.1,662.4 519.0,662.4 519.0,470.4 '/>
		<polygon fill = 'rgb( 31, 120, 180)' fill-opacity = '0.250000' points = '519.0,470.4 519.0,662.4 520.8,662.4 520.8,473.4 '/>
		<polygon fill = 'rgb( 31, 120, 180)' fill-opacity = '0.250000' points = '520.8,473.4 520.8,662.4 522.7,662.4 522.7,476.3 '/>
		<polygon fill = 'rgb( 31, 120, 180)' fill-opacity = '0.250000' points = '522.7,476.3 522.7,662.4 524.5,662.4 524.5,479.2 '/>
		<polygon fill = 'rgb( 31, 120, 180)' fill-opacity = '0.250000' points = '524.5,479.2 524.5,662.4 526.4,662.4 526.4,482.0 '/>
		<polygon fill = 'rgb( 31, 120, 180)' fill-opacity = '0.250000' points = '526.4,482.0 526.4,662.4 528.2,662.4 528.2,484.7 '/>
		<polygon fill = 'rgb( 31, 120, 180)' fill-opacity = '0.250000' points = '528.2,484.7 528.2,662.4 530.1,662.4 530.1,487.4 '/>
		<polygon fill = 'rgb( 31, 120, 180)' fill-opacity = '0.250000' points = '530.1,487.4 530.1,662.4 531.9,662.4 531.9,490.0 '/>
		<polygon fill = 'rgb( 31, 120, 180)' fill-opacity = '0.250000' points = '531.9,490.0 531.9,662.4 533.8,662.4 533.8,492.5 '/>
		<polygon fill = 'rgb( 31, 120, 180)' fill-opacity = '0.250000' points = '533.8,492.5 533.8,662.4 535.6,662.4 535.6,495.0 '/>
		<polygon fill = 'rgb( 31, 120, 180)' fill-opacity = '0.250000' points = '535.6,495.0 535.6,662.4 537.5,662.4 537.5,497.4 '/>
		<polygon fill = 'rgb( 31, 120, 180)' fill-opacity = '0.250000' points = '537.5,497.4 537.5,662.4 539.3,662.4 539.3,499.8 '/>
		<polygon fill = 'rgb( 31, 120, 180)' fill-opacity = '0.250000' points = '539.3,499.8 539.3,662.4 541.2,662.4 541.2,502.1 '/>
		<polygon fill = 'rgb( 31, 120, 180)' fill-opacity = '0.250000' points = '541.2,502.1 541.2,662.4 543.0,662.4 543.0,504.4 '/>
		<polygon fill = 'rgb( 31, 120, 180)' fill-opacity = '0.250000' points = '543.0,504.4 543.0,662.4 544.9,662.4 544.9,506.6 '/>
		<polygon fill = 'rgb( 31, 120, 180)' fill-opacity = '0.250000' points = '544.9,506.6 544.9,662.4 546.7,662.4 546.7,508.8 '/>
		<polygon fill = 'rgb( 31, 120, 180)' fill-opacity = '0.250000' points = '546.7,508.8 546.7,662.4 548.6,662.4 548.6,511.0 '/>
		<polygon fill = 'rgb( 31, 120, 180)' fill-opacity = '0.250000' points = '548.6,511.0 548.6,662.4 550.4,662.4 550.4,513.1 '/>
		<polygon fill = 'rgb( 31, 120, 180)' fill-opacity = '0.250000' points = '550.4,513.1 550.4,662.4 552.3,662.4 552.3,515.2 '/>
		<polygon fill = 'rgb( 31, 120, 180)' fill-opacity = '0.250000' points = '552.3,515.2 552.3,662.4 554.1,662.4 554.1,517.2 '/>
		<polygon fill = 'rgb( 31, 120, 180)' fill-opacity = '0.250000' points = '554.1,517.2 554.1,662.4 556.0,662.4 556.0,519.3 '/>
		<polygon fill = 'rgb( 31, 120, 180)' fill-opacity = '0.250000' points = '556.0,519.3 556.0,662.4 557.8,662.4 557.8,521.2 '/>
		<polygon fill = 'rgb( 31, 120, 180)' fill-opacity = '0.250000' points = '557.8,521.2 557.8,662.4 559.7,662.4 559.7,523.2 '/>
		<polygon fill = 'rgb( 31, 120, 180)' fill-opacity = '0.250000' points = '559.7,523.2 559.7,662.4 561.5,662.4 561.5,525.2 '/>
		<polygon fill = 'rgb( 31, 120, 180)' fill-opacity = '0.250000' points = '561.5,525.2 561.5,662.4 563.4,662.4 563.4,527.1 '/>
		<polygon fill = 'rgb( 31, 120, 180)' fill-opacity = '0.250000' points = '563.4,527.1 563.4,662.4 565.2,662.4 565.2,529.0 '/>
		<polygon fill = 'rgb( 31, 120, 180)' fill-opacity = '0.250000' points = '565.2,529.0 565.2,662.4 567.1,662.4 567.1,530.9 '/>
		<polygon fill = 'rgb( 31, 120, 180)' fill-opacity = '0.250000' points = '567.1,530.9 567.1,662.4 569.0,662.4 569.0,532.8 '/>
		<polygon fill = 'rgb( 31, 120, 180)' fill-opacity = '0.250000' points = '569.0,532.8 569.0,662.4 570.8,662.4 570.8,534.7 '/>
		<polygon fill = 'rgb( 31, 120, 180)' fill-opacity = '0.250000' points = '570.8,534.7 570.8,662.4 572.7,662.4 572.7,536.5 '/>
		<polygon fill = 'rgb( 31, 120, 180)' fill-opacity = '0.250000' points = '572.7,536.5 572.7,662.4 574.5,662.4 574.5,538.4 '/>
		<polygon fill = 'rgb( 31, 120, 180)' fill-opacity = '0.250000' points = '574.5,538.4 574.5,662.4 576.4,662.4 576.4,540.2 '/>
		<polygon fill = 'rgb( 31, 120, 180)' fill-opacity = '0.250000' points = '576.4,540.2 576.4,662.4 578.2,662.4 578.2,542.1 '/>
		<polygon fill = 'rgb( 31, 120, 180)' fill-opacity = '0.250000' points = '578.2,542.1 578.2,662.4 580.1,662.4 580.1,543.9 '/>
		<polygon fill = 'rgb( 31, 120, 180)' fill-opacity = '0.250000' points = '580.1,543.9 580.1,662.4 581.9,662.4 581.9,545.7 '/>
		<polygon fill = 'rgb( 31, 120, 180)' fill-opacity = '0.250000' points = '581.9,545.7 581.9,662.4 583.8,662.4 583.8,547.6 '/>
		<polygon fill = 'rgb( 31, 120, 180)' fill-opacity = '0.250000' points = '583.8,547.6 583.8,662.4 585.6,662.4 585.6,549.4 '/>
		<polygon fill = 'rgb( 31, 120, 180)' fill-opacity = '0.250000' points = '585.6,549.4 585.6,662.4 587.5,662.4 587.5,551.2 '/>
		<polygon fill = 'rgb( 31, 120, 180)' fill-opacity = '0.250000' points = '587.5,551.2 587.5,662.4 589.3,662.4 589.3,553.0 '/>
		<polygon fill = 'rgb( 31, 120, 180)' fill-opacity = '0.250000' points = '589.3,553.0 589.3,662.4 591.2,662.4 591.2,554.8 '/>
		<polygon fill = 'rgb( 31, 120, 180)' fill-opacity = '0.250000' points = '591.2,554.8 591.2,662.4 593.0,662.4 593.0,556.6 '/>
		<polygon fill = 'rgb( 31, 120, 180)' fill-opacity = '0.250000' points = '593.0,556.6 593.0,662.4 594.9,662.4 594.9,558.5 '/>
		<polygon fill = 'rgb( 31, 120, 180)' fill-opacity = '0.250000' points = '594.9,558.5 594.9,662.4 596.7,662.4 596.7,560.3 '/>
		<polygon fill = 'rgb( 31, 120, 180)' fill-opacity = '0.250000' points = '596.7,560.3 596.7,662.4 598.6,662.4 598.6,562.1 '/>
		<polygon fill = 'rgb( 31, 120, 180)' fill-opacity = '0.250000' points = '598.6,562.1 598.6,662.4 600.4,662.4 600.4,563.9 '/>
		<polygon fill = 'rgb( 31, 120, 180)' fill-opacity = '0.250000' points = '600.4,563.9 600.4,662.4 602.3,662.4 602.3,565.6 '/>
		<polygon fill = 'rgb( 31, 120, 180)' fill-opacity = '0.250000' points = '602.3,565.6 602.3,662.4 604.1,662.4 604.1,567.4 '/>
		<polygon fill = 'rgb( 31, 120, 180)' fill-opacity = '0.250000' points = '604.1,567.4 604.1,662.4 606.0,662.4 606.0,569.2 '/>
		<polygon fill = 'rgb( 31, 120, 180)' fill-opacity = '0.250000' points = '606.0,569.2 606.0,662.4 607.8,662.4 607.8,571.0 '/>
		<polygon fill = 'rgb( 31, 120, 180)' fill-opacity = '0.250000' points = '607.8,571.0 607.8,662.4 609.7,662.4 609.7,572.8 '/>
		<polygon fill = 'rgb( 31, 120, 180)' fill-opacity = '0.250000' points = '609.7,572.8 609.7,662.4 611.5,662.4 611.5,574.5 '/>
		<polygon fill = 'rgb( 31, 120, 180)' fill-opacity = '0.250000' points = '611.5,574.5 611.5,662.4 613.4,662.4 613.4,576.3 '/>
		<polygon fill = 'rgb( 31, 120, 180)' fill-opacity = '0.250000' points = '613.4,576.3 613.4,662.4 615.2,662.4 615.2,578.0 '/>
		<polygon fill = 'rgb( 31, 120, 180)' fill-opacity = '0.250000' points = '615.2,578.0 615.2,662.4 617.1,662.4 617.1,579.8 '/>
		<polygon fill = 'rgb( 31, 120, 180)' fill-opacity = '0.250000' points = '617.1,579.8 617.1,662.4 618.9,662.4 618.9,581.5 '/>
		<polygon fill = 'rgb( 31, 120, 180)' fill-opacity = '0.250000' points = '618.9,581.5 618.9,662.4 620.8,662.4 620.8,583.2 '/>
		<polygon fill = 'rgb( 31, 120, 180)' fill-opacity = '0.250000' points = '620.8,583.2 620.8,662.4 622.6,662.4 622.6,584.9 '/>
		<polygon fill = 'rgb( 31, 120, 180)' fill-opacity = '0.250000' points = '622.6,584.9 622.6,662.4 624.5,662.4 624.5,586.5 '/>
		<polygon fill = 'rgb( 31, 120, 180)' fill-opacity = '0.250000' points = '624.5,586.5 624.5,662.4 626.3,662.4 626.3,588.2 '/>
		<polygon fill = 'rgb( 31, 120, 180)' fill-opacity = '0.250000' points = '626.3,588.2 626.3,662.4 628.2,662.4 628.2,589.8 '/>
		<polygon fill = 'rgb( 31, 120, 180)' fill-opacity = '0.250000' points = '628.2,589.8 628.2,662.4 630.0,662.4 630.0,591.5 '/>
		<polygon fill = 'rgb( 31, 120, 180)' fill-opacity = '0.250000' points = '630.0,591.5 630.0,662.4 631.9,662.4 631.9,593.1 '/>
		<polygon fill = 'rgb( 31, 120, 180)' fill-opacity = '0.250000' points = '631.9,593.1 631.9,662.4 633.7,662.4 633.7,594.6 '/>
		<polygon fill = 'rgb( 31, 120, 180)' fill-opacity = '0.250000' points = '633.7,594.6 633.7,662.4 635.6,662.4 635.6,596.2 '/>
		<polygon fill = 'rgb( 31, 120, 180)' fill-opacity = '0.250000' points = '635.6,596.2 635.6,662.4 637.4,662.4 637.4,597.7 '/>
		<polygon fill = 'rgb( 31, 120, 180)' fill-opacity = '0.250000' points = '637.4,597.7 637.4,662.4 639.3,662.4 639.3,599.2 '/>
		<polygon fill = 'rgb( 31, 120, 180)' fill-opacity = '0.250000' points = '639.3,599.2 639.3,662.4 641.1,662.4 641.1,600.6 '/>
		<polygon fill = 'rgb( 31, 120, 180)' fill-opacity = '0.250000' points = '641.1,600.6 641.1,662.4 643.0,662.4 643.0,602.1 '/>
		<polygon fill = 'rgb( 31, 120, 180)' fill-opacity = '0.250000' points = '643.0,602.1 643.0,662.4 644.8,662.4 644.8,603.5 '/>
		<polygon fill = 'rgb( 31, 120, 180)' fill-opacity = '0.250000' points = '644.8,603.5 644.8,662.4 646.7,662.4 646.7,604.9 '/>
		<polygon fill = 'rgb( 31, 120, 180)' fill-opacity = '0.250000' points = '646.7,604.9 646.7,662.4 648.5,662.4 648.5,606.2 '/>
		<polygon fill = 'rgb( 31, 120, 180)' fill-opacity = '0.250000' points = '648.5,606.2 648.5,662.4 650.4,662.4 650.4,607.5 '/>
		<polygon fill = 'rgb( 31, 120, 180)' fill-opacity = '0.250000' points = '650.4,607.5 650.4,662.4 652.3,662.4 652.3,608.8 '/>
		<polygon fill = 'rgb( 31, 120, 180)' fill-opacity = '0.250000' points = '652.3,608.8 652.3,662.4 654.1,662.4 654.1,610.0 '/>
		<polygon fill = 'rgb( 31, 120, 180)' fill-opacity = '0.250000' points = '654.1,610.0 654.1,662.4 656.0,662.4 656.0,611.2 '/>
		<polygon fill = 'rgb( 31, 120, 180)' fill-opacity = '0.250000' points = '656.0,611.2 656.0,662.4 657.8,662.4 657.8,612.3 '/>
		<polygon fill = 'rgb( 31, 120, 180)' fill-opacity = '0.250000' points = '657.8,612.3 657.8,662.4 659.7,662.4 659.7,613.4 '/>
		<polygon fill = 'rgb( 31, 120, 180)' fill-opacity = '0.250000' points = '659.7,613.4 659.7,662.4 661.5,662.4 661.5,614.5 '/>
		<polygon fill = 'rgb( 31, 120, 180)' fill-opacity = '0.250000' points = '661.5,614.5 661.5,662.4 663.4,662.4 663.4,615.6 '/>
		<polygon fill = 'rgb( 31, 120, 180)' fill-opacity = '0.250000' points = '663.4,615.6 663.4,662.4 665.2,662.4 665.2,616.5 '/>
		<polygon fill = 'rgb( 31, 120, 180)' fill-opacity = '0.250000' points = '665.2,616.5 665.2,662.4 667.1,662.4 667.1,617.5 '/>
		<polygon fill = 'rgb( 31, 120, 180)' fill-opacity = '0.250000' points = '667.1,617.5 667.1,662.4 668.9,662.4 668.9,618.4 '/>
		<polygon fill = 'rgb( 31, 120, 180)' fill-opacity = '0.250000' points = '668.9,618.4 668.9,662.4 670.8,662.4 670.8,619.3 '/>
		<polygon fill = 'rgb( 31, 120, 180)' fill-opacity = '0.250000' points = '670.8,619.3 670.8,662.4 672.6,662.4 672.6,620.1 '/>
		<polygon fill = 'rgb( 31, 120, 180)' fill-opacity = '0.250000' points = '672.6,620.1 672.6,662.4 674.5,662.4 674.5,620.9 '/>
		<polygon fill = 'rgb( 31, 120, 180)' fill-opacity = '0.250000' points = '674.5,620.9 674.5,662.4 676.3,662.4 676.3,621.6 '/>
		<polygon fill = 'rgb( 31, 120, 180)' fill-opacity = '0.250000' points = '676.3,621.6 676.3,662.4 678.2,662.4 678.2,622.3 '/>
		<polygon fill = 'rgb( 31, 120, 180)' fill-opacity = '0.250000' points = '678.2,622.3 678.2,662.4 680.0,662.4 680.0,623.0 '/>
		<polygon fill = 'rgb( 31, 120, 180)' fill-opacity = '0.250000' points = '680.0,623.0 680.0,662.4 681.9,662.4 681.9,623.6 '/>
		<polygon fill = 'rgb( 31, 120, 180)' fill-opacity = '0.250000' points = '681.9,623.6 681.9,662.4 683.7,662.4 683.7,624.1 '/>
		<polygon fill = 'rgb( 31, 120, 180)' fill-opacity = '0.250000' points = '683.7,624.1 683.7,662.4 685.6,662.4 685.6,624.7 '/>
		<polygon fill = 'rgb( 31, 120, 180)' fill-opacity = '0.250000' points = '685.6,624.7 685.6,662.4 687.4,662.4 687.4,625.2 '/>
		<polygon fill = 'rgb( 31, 120, 180)' fill-opacity = '0.250000' points = '687.4,625.2 687.4,662.4 689.3,662.4 689.3,625.6 '/>
		<polygon fill = 'rgb( 31, 120, 180)' fill-opacity = '0.250000' points = '689.3,625.6 689.3,662.4 691.1,662.4 691.1,626.0 '/>
		<polygon fill = 'rgb( 31, 120, 180)' fill-opacity = '0.250000' points = '691.1,626.0 691.1,662.4 693.0,662.4 693.0,626.4 '/>
		<polygon fill = 'rgb( 31, 120, 180)' fill-opacity = '0.250000' points = '693.0,626.4 693.0,662.4 694.8,662.4 694.8,626.7 '/>
		<polygon fill = 'rgb( 31, 120, 180)' fill-opacity = '0.250000' points = '694.8,626.7 694.8,662.4 696.7,662.4 696.7,627.0 '/>
		<polygon fill = 'rgb( 31, 120, 180)' fill-opacity = '0.250000' points = '696.7,627.0 696.7,662.4 698.5,662.4 698.5,627.2 '/>
		<polygon fill = 'rgb( 31, 120, 180)' fill-opacity = '0.250000' points = '698.5,627.2 698.5,662.4 700.4,662.4 700.4,627.5 '/>
		<polygon fill = 'rgb( 31, 120, 180)' fill-opacity = '0.250000' points = '700.4,627.5 700.4,662.4 702.2,662.4 702.2,627.7 '/>
		<polygon fill = 'rgb( 31, 120, 180)' fill-opacity = '0.250000' points = '702.2,627.7 702.2,662.4 704.1,662.4 704.1,627.8 '/>
		<polygon fill = 'rgb( 31, 120, 180)' fill-opacity = '0.250000' points = '704.1,627.8 704.1,662.4 705.9,662.4 705.9,627.9 '/>
		<polygon fill = 'rgb( 31, 120, 180)' fill-opacity = '0.250000' points = '705.9,627.9 705.9,662.4 707.8,662.4 707.8,628.0 '/>
		<polygon fill = 'rgb( 31, 120, 180)' fill-opacity = '0.250000' points = '707.8,628.0 707.8,662.4 709.6,662.4 709.6,628.1 '/>
		<polygon fill = 'rgb( 31, 120, 180)' fill-opacity = '0.250000' points = '709.6,628.1 709.6,662.4 711.5,662.4 711.5,628.1 '/>
		<polygon fill = 'rgb( 31, 120, 180)' fill-opacity = '0.250000' points = '711.5,628.1 711.5,662.4 713.3,662.4 713.3,628.1 '/>
		<polygon fill = 'rgb( 31, 120, 180)' fill-opacity = '0.250000' points = '713.3,628.1 713.3,662.4 715.2,662.4 715.2,628.1 '/>
		<polygon fill = 'rgb( 31, 120, 180)' fill-opacity = '0.250000' points = '715.2,628.1 715.2,662.4 717.0,662.4 717.0,628.1 '/>
		<polygon fill = 'rgb( 31, 120, 180)' fill-opacity = '0.250000' points = '717.0,628.1 717.0,662.4 718.9,662.4 718.9,628.0 '/>
		<polygon fill = 'rgb( 31, 120, 180)' fill-opacity = '0.250000' points = '718.9,628.0 718.9,662.4 720.7,662.4 720.7,627.9 '/>
		<polygon fill = 'rgb( 31, 120, 180)' fill-opacity = '0.250000' points = '720.7,627.9 720.7,662.4 722.6,662.4 722.6,627.8 '/>
		<polygon fill = 'rgb( 31, 120, 180)' fill-opacity = '0.250000' points = '722.6,627.8 722.6,662.4 724.4,662.4 724.4,627.7 '/>
		<polygon fill = 'rgb( 31, 120, 180)' fill-opacity = '0.250000' points = '724.4,627.7 724.4,662.4 726.3,662.4 726.3,627.6 '/>
		<polygon fill = 'rgb( 31, 120, 180)' fill-opacity = '0.250000' points = '726.3,627.6 726.3,662.4 728.1,662.4 728.1,627.4 '/>
		<polygon fill = 'rgb( 31, 120, 180)' fill-opacity = '0.250000' points = '728.1,627.4 728.1,662.4 730.0,662.4 730.0,627.3 '/>
		<polygon fill = 'rgb( 31, 120, 180)' fill-opacity = '0.250000' points = '730.0,627.3 730.0,662.4 731.8,662.4 731.8,627.1 '/>
		<polygon fill = 'rgb( 31, 120, 180)' fill-opacity = '0.250000' points = '731.8,627.1 731.8,662.4 733.7,662.4 733.7,626.9 '/>
		<polygon fill = 'rgb( 31, 120, 180)' fill-opacity = '0.250000' points = '733.7,626.9 733.7,662.4 735.6,662.4 735.6,626.7 '/>
		<polygon fill = 'rgb( 31, 120, 180)' fill-opacity = '0.250000' points = '735.6,626.7 735.6,662.4 737.4,662.4 737.4,626.6 '/>
		<polygon fill = 'rgb( 31, 120, 180)' fill-opacity = '0.250000' points = '737.4,626.6 737.4,662.4 739.3,662.4 739.3,626.4 '/>
		<polygon fill = 'rgb( 31, 120, 180)' fill-opacity = '0.250000' points = '739.3,626.4 739.3,662.4 741.1,662.4 741.1,626.2 '/>
		<polygon fill = 'rgb( 31, 120, 180)' fill-opacity = '0.250000' points = '741.1,626.2 741.1,662.4 743.0,662.4 743.0,626.0 '/>
		<polygon fill = 'rgb( 31, 120, 180)' fill-opacity = '0.250000' points = '743.0,626.0 743.0,662.4 744.8,662.4 744.8,625.8 '/>
		<polygon fill = 'rgb( 31, 120, 180)' fill-opacity = '0.250000' points = '744.8,625.8 744.8,662.4 746.7,662.4 746.7,625.6 '/>
		<polygon fill = 'rgb( 31, 120, 180)' fill-opacity = '0.250000' points = '746.7,625.6 746.7,662.4 748.5,662.4 748.5,625.4 '/>
		<polygon fill = 'rgb( 31, 120, 180)' fill-opacity = '0.250000' points = '748.5,625.4 748.5,662.4 750.4,662.4 750.4,625.2 '/>
		<polygon fill = 'rgb( 31, 120, 180)' fill-opacity = '0.250000' points = '750.4,625.2 750.4,662.4 752.2,662.4 752.2,625.1 '/>
		<polygon fill = 'rgb( 31, 120, 180)' fill-opacity = '0.250000' points = '752.2,625.1 752.2,662.4 754.1,662.4 754.1,624.9 '/>
		<polygon fill = 'rgb( 31, 120, 180)' fill-opacity = '0.250000' points = '754.1,624.9 754.1,662.4 755.9,662.4 755.9,624.7 '/>
		<polygon fill = 'rgb( 31, 120, 180)' fill-opacity = '0.250000' points = '755.9,624.7 755.9,662.4 757.8,662.4 757.8,624.6 '/>
		<polygon fill = 'rgb( 31, 120, 180)' fill-opacity = '0.250000' points = '757.8,624.6 757.8,662.4 759.6,662.4 759.6,624.5 '/>
		<polygon fill = 'rgb( 31, 120, 180)' fill-opacity = '0.250000' points = '759.6,624.5 759.6,662.4 761.5,662.4 761.5,624.3 '/>
		<polygon fill = 'rgb( 31, 120, 180)' fill-opacity = '0.250000' points = '761.5,624.3 761.5,662.4 763.3,662.4 763.3,624.2 '/>
		<polygon fill = 'rgb( 31, 120, 180)' fill-opacity = '0.250000' points = '763.3,624.2 763.3,662.4 765.2,662.4 765.2,624.1 '/>
		<polygon fill = 'rgb( 31, 120, 180)' fill-opacity = '0.250000' points = '765.2,624.1 765.2,662.4 767.0,662.4 767.0,624.1 '/>
		<polygon fill = 'rgb( 31, 120, 180)' fill-opacity = '0.250000' points = '767.0,624.1 767.0,662.4 768.9,662.4 768.9,624.0 '/>
		<polygon fill = 'rgb( 31, 120, 180)' fill-opacity = '0.250000' points = '768.9,624.0 768.9,662.4 770.7,662.4 770.7,624.0 '/>
		<polygon fill = 'rgb( 31, 120, 180)' fill-opacity = '0.250000' points = '770.7,624.0 770.7,662.4 772.6,662.4 772.6,623.9 '/>
		<polygon fill = 'rgb( 31, 120, 180)' fill-opacity = '0.250000' points = '772.6,623.9 772.6,662.4 774.4,662.4 774.4,623.9 '/>
		<polygon fill = 'rgb( 31, 120, 180)' fill-opacity = '0.250000' points = '774.4,623.9 774.4,662.4 776.3,662.4 776.3,624.0 '/>
		<polygon fill = 'rgb( 31, 120, 180)' fill-opacity = '0.250000' points = '776.3,624.0 776.3,662.4 778.1,662.4 778.1,624.0 '/>
		<polygon fill = 'rgb( 31, 120, 180)' fill-opacity = '0.250000' points = '778.1,624.0 778.1,662.4 780.0,662.4 780.0,624.1 '/>
		<polygon fill = 'rgb( 31, 120, 180)' fill-opacity = '0.250000' points = '780.0,624.1 780.0,662.4 781.8,662.4 781.8,624.1 '/>
		<polygon fill = 'rgb( 31, 120, 180)' fill-opacity = '0.250000' points = '781.8,624.1 781.8,662.4 783.7,662.4 783.7,624.2 '/>
		<polygon fill = 'rgb( 31, 120, 180)' fill-opacity = '0.250000' points = '783.7,624.2 783.7,662.4 785.5,662.4 785.5,624.4 '/>
		<polygon fill = 'rgb( 31, 120, 180)' fill-opacity = '0.250000' points = '785.5,624.4 785.5,662.4 787.4,662.4 787.4,624.5 '/>
		<polygon fill = 'rgb( 31, 120, 180)' fill-opacity = '0.250000' points = '787.4,624.5 787.4,662.4 789.2,662.4 789.2,624.7 '/>
		<polygon fill = 'rgb( 31, 120, 180)' fill-opacity = '0.250000' points = '789.2,624.7 789.2,662.4 791.1,662.4 791.1,624.9 '/>
		<polygon fill = 'rgb( 31, 120, 180)' fill-opacity = '0.250000' points = '791.1,624.9 791.1,662.4 792.9,662.4 792.9,625.1 '/>
		<polygon fill = 'rgb( 31, 120, 180)' fill-opacity = '0.250000' points = '792.9,625.1 792.9,662.4 794.8,662.4 794.8,625.3 '/>
		<polygon fill = 'rgb( 31, 120, 180)' fill-opacity = '0.250000' points = '794.8,625.3 794.8,662.4 796.6,662.4 796.6,625.6 '/>
		<polygon fill = 'rgb( 31, 120, 180)' fill-opacity = '0.250000' points = '796.6,625.6 796.6,662.4 798.5,662.4 798.5,625.9 '/>
		<polygon fill = 'rgb( 31, 120, 180)' fill-opacity = '0.250000' points = '798.5,625.9 798.5,662.4 800.3,662.4 800.3,626.2 '/>
		<polygon fill = 'rgb( 31, 120, 180)' fill-opacity = '0.250000' points = '800.3,626.2 800.3,662.4 802.2,662.4 802.2,626.5 '/>
		<polygon fill = 'rgb( 31, 120, 180)' fill-opacity = '0.250000' points = '802.2,626.5 802.2,662.4 804.0,662.4 804.0,626.8 '/>
		<polygon fill = 'rgb( 31, 120, 180)' fill-opacity = '0.250000' points = '804.0,626.8 804.0,662.4 805.9,662.4 805.9,627.2 '/>
		<polygon fill = 'rgb( 31, 120, 180)' fill-opacity = '0.250000' points = '805.9,627.2 805.9,662.4 807.7,662.4 807.7,627.6 '/>
		<polygon fill = 'rgb( 31, 120, 180)' fill-opacity = '0.250000' points = '807.7,627.6 807.7,662.4 809.6,662.4 809.6,628.0 '/>
		<polygon fill = 'rgb( 31, 120, 180)' fill-opacity = '0.250000' points = '809.6,628.0 809.6,662.4 811.4,662.4 811.4,628.4 '/>
		<polygon fill = 'rgb( 31, 120, 180)' fill-opacity = '0.250000' points = '811.4,628.4 811.4,662.4 813.3,662.4 813.3,628.8 '/>
		<polygon fill = 'rgb( 31, 120, 180)' fill-opacity = '0.250000' points = '813.3,628.8 813.3,662.4 815.1,662.4 815.1,629.3 '/>
		<polygon fill = 'rgb( 31, 120, 180)' fill-opacity = '0.250000' points = '815.1,629.3 815.1,662.4 817.0,662.4 817.0,629.8 '/>
		<polygon fill = 'rgb( 31, 120, 180)' fill-opacity = '0.250000' points = '817.0,629.8 817.0,662.4 818.8,662.4 818.8,630.2 '/>
		<polygon fill = 'rgb( 31, 120, 180)' fill-opacity = '0.250000' points = '818.8,630.2 818.8,662.4 820.7,662.4 820.7,630.8 '/>
		<polygon fill = 'rgb( 31, 120, 180)' fill-opacity = '0.250000' points = '820.7,630.8 820.7,662.4 822.6,662.4 822.6,631.3 '/>
		<polygon fill = 'rgb( 31, 120, 180)' fill-opacity = '0.250000' points = '822.6,631.3 822.6,662.4 824.4,662.4 824.4,631.8 '/>
		<polygon fill = 'rgb( 31, 120, 180)' fill-opacity = '0.250000' points = '824.4,631.8 824.4,662.4 826.3,662.4 826.3,632.3 '/>
		<polygon fill = 'rgb( 31, 120, 180)' fill-opacity = '0.250000' points = '826.3,632.3 826.3,662.4 828.1,662.4 828.1,632.9 '/>
		<polygon fill = 'rgb( 31, 120, 180)' fill-opacity = '0.250000' points = '828.1,632.9 828.1,662.4 830.0,662.4 830.0,633.4 '/>
		<polygon fill = 'rgb( 31, 120, 180)' fill-opacity = '0.250000' points = '830.0,633.4 830.0,662.4 831.8,662.4 831.8,634.0 '/>
		<polygon fill = 'rgb( 31, 120, 180)' fill-opacity = '0.250000' points = '831.8,634.0 831.8,662.4 833.7,662.4 833.7,634.6 '/>
		<polygon fill = 'rgb( 31, 120, 180)' fill-opacity = '0.250000' points = '833.7,634.6 833.7,662.4 835.5,662.4 835.5,635.2 '/>
		<polygon fill = 'rgb( 31, 120, 180)' fill-opacity = '0.250000' points = '835.5,635.2 835.5,662.4 837.4,662.4 837.4,635.8 '/>
		<polygon fill = 'rgb( 31, 120, 180)' fill-opacity = '0.250000' points = '837.4,635.8 837.4,662.4 839.2,662.4 839.2,636.4 '/>
		<polygon fill = 'rgb( 31, 120, 180)' fill-opacity = '0.250000' points = '839.2,636.4 839.2,662.4 841.1,662.4 841.1,637.0 '/>
		<polygon fill = 'rgb( 31, 120, 180)' fill-opacity = '0.250000' points = '841.1,637.0 841.1,662.4 842.9,662.4 842.9,637.6 '/>
		<polygon fill = 'rgb( 31, 120, 180)' fill-opacity = '0.250000' points = '842.9,637.6 842.9,662.4 844.8,662.4 844.8,638.2 '/>
		<polygon fill = 'rgb( 31, 120, 180)' fill-opacity = '0.250000' points = '844.8,638.2 844.8,662.4 846.6,662.4 846.6,638.8 '/>
		<polygon fill = 'rgb( 31, 120, 180)' fill-opacity = '0.250000' points = '846.6,638.8 846.6,662.4 848.5,662.4 848.5,639.4 '/>
		<polygon fill = 'rgb( 31, 120, 180)' fill-opacity = '0.250000' points = '848.5,639.4 848.5,662.4 850.3,662.4 850.3,640.0 '/>
		<polygon fill = 'rgb( 31, 120, 180)' fill-opacity = '0.250000' points = '850.3,640.0 850.3,662.4 852.2,662.4 852.2,640.6 '/>
		<polygon fill = 'rgb( 31, 120, 180)' fill-opacity = '0.250000' points = '852.2,640.6 852.2,662.4 854.0,662.4 854.0,641.2 '/>
		<polygon fill = 'rgb( 31, 120, 180)' fill-opacity = '0.250000' points = '854.0,641.2 854.0,662.4 855.9,662.4 855.9,641.8 '/>
		<polygon fill = 'rgb( 31, 120, 180)' fill-opacity = '0.250000' points = '855.9,641.8 855.9,662.4 857.7,662.4 857.7,642.4 '/>
		<polygon fill = 'rgb( 31, 120, 180)' fill-opacity = '0.250000' points = '857.7,642.4 857.7,662.4 859.6,662.4 859.6,643.0 '/>
		<polygon fill = 'rgb( 31, 120, 180)' fill-opacity = '0.250000' points = '859.6,643.0 859.6,662.4 861.4,662.4 861.4,643.6 '/>
		<polygon fill = 'rgb( 31, 120, 180)' fill-opacity = '0.250000' points = '861.4,643.6 861.4,662.4 863.3,662.4 863.3,644.2 '/>
		<polygon fill = 'rgb( 31, 120, 180)' fill-opacity = '0.250000' points = '863.3,644.2 863.3,662.4 865.1,662.4 865.1,644.8 '/>
		<polygon fill = 'rgb( 31, 120, 180)' fill-opacity = '0.250000' points = '865.1,644.8 865.1,662.4 867.0,662.4 867.0,645.4 '/>
		<polygon fill = 'rgb( 31, 120, 180)' fill-opacity = '0.250000' points = '867.0,645.4 867.0,662.4 868.8,662.4 868.8,646.0 '/>
		<polygon fill = 'rgb( 31, 120, 180)' fill-opacity = '0.250000' points = '868.8,646.0 868.8,662.4 870.7,662.4 870.7,646.5 '/>
		<polygon fill = 'rgb( 31, 120, 180)' fill-opacity = '0.250000' points = '870.7,646.5 870.7,662.4 872.5,662.4 872.5,647.1 '/>
		<polygon fill = 'rgb( 31, 120, 180)' fill-opacity = '0.250000' points = '872.5,647.1 872.5,662.4 874.4,662.4 874.4,647.6 '/>
		<polygon fill = 'rgb( 31, 120, 180)' fill-opacity = '0.250000' points = '874.4,647.6 874.4,662.4 876.2,662.4 876.2,648.2 '/>
		<polygon fill = 'rgb( 31, 120, 180)' fill-opacity = '0.250000' points = '876.2,648.2 876.2,662.4 878.1,662.4 878.1,648.7 '/>
		<polygon fill = 'rgb( 31, 120, 180)' fill-opacity = '0.250000' points = '878.1,648.7 878.1,662.4 879.9,662.4 879.9,649.2 '/>
		<polygon fill = 'rgb( 31, 120, 180)' fill-opacity = '0.250000' points = '879.9,649.2 879.9,662.4 881.8,662.4 881.8,649.7 '/>
		<polygon fill = 'rgb( 31, 120, 180)' fill-opacity = '0.250000' points = '881.8,649.7 881.8,662.4 883.6,662.4 883.6,650.2 '/>
		<polygon fill = 'rgb( 31, 120, 180)' fill-opacity = '0.250000' points = '883.6,650.2 883.6,662.4 885.5,662.4 885.5,650.7 '/>
		<polygon fill = 'rgb( 31, 120, 180)' fill-opacity = '0.250000' points = '885.5,650.7 885.5,662.4 887.3,662.4 887.3,651.2 '/>
		<polygon fill = 'rgb( 31, 120, 180)' fill-opacity = '0.250000' points = '887.3,651.2 887.3,662.4 889.2,662.4 889.2,651.6 '/>
		<polygon fill = 'rgb( 31, 120, 180)' fill-opacity = '0.250000' points = '889.2,651.6 889.2,662.4 891.0,662.4 891.0,652.1 '/>
		<polygon fill = 'rgb( 31, 120, 180)' fill-opacity = '0.250000' points = '891.0,652.1 891.0,662.4 892.9,662.4 892.9,652.5 '/>
		<polygon fill = 'rgb( 31, 120, 180)' fill-opacity = '0.250000' points = '892.9,652.5 892.9,662.4 894.7,662.4 894.7,652.9 '/>
		<polygon fill = 'rgb( 31, 120, 180)' fill-opacity = '0.250000' points = '894.7,652.9 894.7,662.4 896.6,662.4 896.6,653.4 '/>
		<polygon fill = 'rgb( 31, 120, 180)' fill-opacity = '0.250000' points = '896.6,653.4 896.6,662.4 898.4,662.4 898.4,653.8 '/>
		<polygon fill = 'rgb( 31, 120, 180)' fill-opacity = '0.250000' points = '898.4,653.8 898.4,662.4 900.3,662.4 900.3,654.2 '/>
		<polygon fill = 'rgb( 31, 120, 180)' fill-opacity = '0.250000' points = '900.3,654.2 900.3,662.4 902.1,662.4 902.1,654.5 '/>
		<polygon fill = 'rgb( 31, 120, 180)' fill-opacity = '0.250000' points = '902.1,654.5 902.1,662.4 904.0,662.4 904.0,654.9 '/>
		<polygon fill = 'rgb( 31, 120, 180)' fill-opacity = '0.250000' points = '904.0,654.9 904.0,662.4 905.9,662.4 905.9,655.3 '/>
		<polygon fill = 'rgb( 31, 120, 180)' fill-opacity = '0.250000' points = '905.9,655.3 905.9,662.4 907.7,662.4 907.7,655.6 '/>
		<polygon fill = 'rgb( 31, 120, 180)' fill-opacity = '0.250000' points = '907.7,655.6 907.7,662.4 909.6,662.4 909.6,655.9 '/>
		<polygon fill = 'rgb( 31, 120, 180)' fill-opacity = '0.250000' points = '909.6,655.9 909.6,662.4 911.4,662.4 911.4,656.2 '/>
		<polygon fill = 'rgb( 31, 120, 180)' fill-opacity = '0.250000' points = '911.4,656.2 911.4,662.4 913.3,662.4 913.3,656.6 '/>
		<polygon fill = 'rgb( 31, 120, 180)' fill-opacity = '0.250000' points = '913.3,656.6 913.3,662.4 915.1,662.4 915.1,656.9 '/>
		<polygon fill = 'rgb( 31, 120, 180)' fill-opacity = '0.250000' points = '915.1,656.9 915.1,662.4 917.0,662.4 917.0,657.1 '/>
		<polygon fill = 'rgb( 31, 120, 180)' fill-opacity = '0.250000' points = '917.0,657.1 917.0,662.4 918.8,662.4 918.8,657.4 '/>
		<polygon fill = 'rgb( 31, 120, 180)' fill-opacity = '0.250000' points = '918.8,657.4 918.8,662.4 920.7,662.4 920.7,657.7 '/>
		<polygon fill = 'rgb( 31, 120, 180)' fill-opacity = '0.250000' points = '920.7,657.7 920.7,662.4 922.5,662.4 922.5,657.9 '/>
		<polygon fill = 'rgb( 31, 120, 180)' fill-opacity = '0.250000' points = '922.5,657.9 922.5,662.4 924.4,662.4 924.4,658.2 '/>
		<polygon fill = 'rgb( 31, 120, 180)' fill-opacity = '0.250000' points = '924.4,658.2 924.4,662.4 926.2,662.4 926.2,658.4 '/>
		<polygon fill = 'rgb( 31, 120, 180)' fill-opacity = '0.250000' points = '926.2,658.4 926.2,662.4 928.1,662.4 928.1,658.6 '/>
		<polygon fill = 'rgb( 31, 120, 180)' fill-opacity = '0.250000' points = '928.1,658.6 928.1,662.4 929.9,662.4 929.9,658.8 '/>
		<polygon fill = 'rgb( 31, 120, 180)' fill-opacity = '0.250000' points = '929.9,658.8 929.9,662.4 931.8,662.4 931.8,659.0 '/>
		<polygon fill = 'rgb( 31, 120, 180)' fill-opacity = '0.250000' points = '931.8,659.0 931.8,662.4 933.6,662.4 933.6,659.2 '/>
		<polygon fill = 'rgb( 31, 120, 180)' fill-opacity = '0.250000' points = '933.6,659.2 933.6,662.4 935.5,662.4 935.5,659.4 '/>
		<polygon fill = 'rgb( 31, 120, 180)' fill-opacity = '0.250000' points = '935.5,659.4 935.5,662.4 937.3,662.4 937.3,659.6 '/>
		<polygon fill = 'rgb( 31, 120, 180)' fill-opacity = '0.250000' points = '937.3,659.6 937.3,662.4 939.2,662.4 939.2,659.8 '/>
		<polygon fill = 'rgb( 31, 120, 180)' fill-opacity = '0.250000' points = '939.2,659.8 939.2,662.4 941.0,662.4 941.0,659.9 '/>
		<polygon fill = 'rgb( 31, 120, 180)' fill-opacity = '0.250000' points = '941.0,659.9 941.0,662.4 942.9,662.4 942.9,660.1 '/>
		<polygon fill = 'rgb( 31, 120, 180)' fill-opacity = '0.250000' points = '942.9,660.1 942.9,662.4 944.7,662.4 944.7,660.2 '/>
		<polygon fill = 'rgb( 31, 120, 180)' fill-opacity = '0.250000' points = '944.7,660.2 944.7,662.4 946.6,662.4 946.6,660.3 '/>
		<polygon fill = 'rgb( 31, 120, 180)' fill-opacity = '0.250000' points = '946.6,660.3 946.6,662.4 948.4,662.4 948.4,660.5 '/>
		<polygon fill = 'rgb( 31, 120, 180)' fill-opacity = '0.250000' points = '948.4,660.5 948.4,662.4 950.3,662.4 950.3,660.6 '/>
		<polygon fill = 'rgb( 31, 120, 180)' fill-opacity = '0.250000' points = '950.3,660.6 950.3,662.4 952.1,662.4 952.1,660.7 '/>
		<polygon fill = 'rgb( 31, 120, 180)' fill-opacity = '0.250000' points = '952.1,660.7 952.1,662.4 954.0,662.4 954.0,660.8 '/>
		<polygon fill = 'rgb( 31, 120, 180)' fill-opacity = '0.250000' points = '954.0,660.8 954.0,662.4 955.8,662.4 955.8,660.9 '/>
		<polygon fill = 'rgb( 31, 120, 180)' fill-opacity = '0.250000' points = '955.8,660.9 955.8,662.4 957.7,662.4 957.7,661.0 '/>
		<polygon fill = 'rgb( 31, 120, 180)' fill-opacity = '0.250000' points = '957.7,661.0 957.7,662.4 959.5,662.4 959.5,661.1 '/>
		<polygon fill = 'rgb( 31, 120, 180)' fill-opacity = '0.250000' points = '959.5,661.1 959.5,662.4 961.4,662.4 961.4,661.2 '/>
		<polygon fill = 'rgb( 31, 120, 180)' fill-opacity = '0.250000' points = '961.4,661.2 961.4,662.4 963.2,662.4 963.2,661.3 '/>
		<polygon fill = 'rgb( 31, 120, 180)' fill-opacity = '0.250000' points = '963.2,661.3 963.2,662.4 965.1,662.4 965.1,661.4 '/>
		<polygon fill = 'rgb( 31, 120, 180)' fill-opacity = '0.250000' points = '965.1,661.4 965.1,662.4 966.9,662.4 966.9,661.4 '/>
		<polygon fill = 'rgb( 31, 120, 180)' fill-opacity = '0.250000' points = '966.9,661.4 966.9,662.4 968.8,662.4 968.8,661.5 '/>
		<polygon fill = 'rgb( 31, 120, 180)' fill-opacity = '0.250000' points = '968.8,661.5 968.8,662.4 970.6,662.4 970.6,661.6 '/>
		<polygon fill = 'rgb( 31, 120, 180)' fill-opacity = '0.250000' points = '970.6,661.6 970.6,662.4 972.5,662.4 972.5,661.6 '/>
		<polygon fill = 'rgb( 31, 120, 180)' fill-opacity = '0.250000' points = '972.5,661.6 972.5,662.4 974.3,662.4 974.3,661.7 '/>
		<polygon fill = 'rgb( 31, 120, 180)' fill-opacity = '0.250000' points = '974.3,661.7 974.3,662.4 976.2,662.4 976.2,661.7 '/>
		<polygon fill = 'rgb( 31, 120, 180)' fill-opacity = '0.250000' points = '976.2,661.7 976.2,662.4 978.0,662.4 978.0,661.8 '/>
		<polygon fill = 'rgb( 31, 120, 180)' fill-opacity = '0.250000' points = '978.0,661.8 978.0,662.4 979.9,662.4 979.9,661.8 '/>
		<polygon fill = 'rgb( 31, 120, 180)' fill-opacity = '0.250000' points = '979.9,661.8 979.9,662.4 981.7,662.4 981.7,661.9 '/>
		<polygon fill = 'rgb( 31, 120, 180)' fill-opacity = '0.250000' points = '981.7,661.9 981.7,662.4 983.6,662.4 983.6,661.9 '/>
		<polygon fill = 'rgb( 31, 120, 180)' fill-opacity = '0.250000' points = '983.6,661.9 983.6,662.4 985.4,662.4 985.4,662.0 '/>
		<polygon fill = 'rgb( 31, 120, 180)' fill-opacity = '0.250000' points = '985.4,662.0 985.4,662.4 987.3,662.4 987.3,662.0 '/>
	</g>
</g>
	</g>
	<g id="gnuplot_plot_2" ><title>Mean</title>
<g fill="none" color="white" stroke="rgb( 31, 120, 180)" stroke-width="2.00" stroke-linecap="butt" stroke-linejoin="miter">
</g>
<g fill="none" color="black" stroke="currentColor" stroke-width="2.00" stroke-linecap="butt" stroke-linejoin="miter">
	<g transform="translate(1147.1,85.0)" stroke="none" fill="black" font-family="Helvetica" font-size="12.00"  text-anchor="start">
		<text><tspan font-family="Helvetica" >Mean</tspan></text>
	</g>
</g>
<g fill="none" color="black" stroke="currentColor" stroke-width="2.00" stroke-linecap="butt" stroke-linejoin="miter">
	<path stroke='rgb( 31, 120, 180)'  d='M1096.6,81.1 L1138.8,81.1 M418.0,662.4 L418.0,54.1  '/></g>
	</g>
	<g id="gnuplot_plot_3" ><title>"Clean" sample</title>
<g fill="none" color="white" stroke="rgb( 31, 120, 180)" stroke-width="1.00" stroke-linecap="butt" stroke-linejoin="miter">
</g>
<g fill="none" color="black" stroke="currentColor" stroke-width="1.00" stroke-linecap="butt" stroke-linejoin="miter">
	<g transform="translate(1147.1,103.0)" stroke="none" fill="black" font-family="Helvetica" font-size="12.00"  text-anchor="start">
		<text><tspan font-family="Helvetica" >"Clean" sample</tspan></text>
	</g>
</g>
<g fill="none" color="black" stroke="currentColor" stroke-width="1.00" stroke-linecap="butt" stroke-linejoin="miter">
	<use xlink:href='#gpPt6' transform='translate(398.1,601.6) scale(3.38)' color='rgb( 31, 120, 180)'/>
	<use xlink:href='#gpPt6' transform='translate(350.5,571.2) scale(3.38)' color='rgb( 31, 120, 180)'/>
	<use xlink:href='#gpPt6' transform='translate(382.2,540.7) scale(3.38)' color='rgb( 31, 120, 180)'/>
	<use xlink:href='#gpPt6' transform='translate(270.4,510.3) scale(3.38)' color='rgb( 31, 120, 180)'/>
	<use xlink:href='#gpPt6' transform='translate(447.7,479.9) scale(3.38)' color='rgb( 31, 120, 180)'/>
	<use xlink:href='#gpPt6' transform='translate(323.5,449.5) scale(3.38)' color='rgb( 31, 120, 180)'/>
	<use xlink:href='#gpPt6' transform='translate(332.6,419.1) scale(3.38)' color='rgb( 31, 120, 180)'/>
	<use xlink:href='#gpPt6' transform='translate(385.8,388.7) scale(3.38)' color='rgb( 31, 120, 180)'/>
	<use xlink:href='#gpPt6' transform='translate(565.5,327.8) scale(3.38)' color='rgb( 31, 120, 180)'/>
	<use xlink:href='#gpPt6' transform='translate(294.0,297.4) scale(3.38)' color='rgb( 31, 120, 180)'/>
	<use xlink:href='#gpPt6' transform='translate(521.0,267.0) scale(3.38)' color='rgb( 31, 120, 180)'/>
	<use xlink:href='#gpPt6' transform='translate(392.4,236.6) scale(3.38)' color='rgb( 31, 120, 180)'/>
	<use xlink:href='#gpPt6' transform='translate(423.4,206.2) scale(3.38)' color='rgb( 31, 120, 180)'/>
	<use xlink:href='#gpPt6' transform='translate(339.0,175.8) scale(3.38)' color='rgb( 31, 120, 180)'/>
	<use xlink:href='#gpPt6' transform='translate(339.6,145.3) scale(3.38)' color='rgb( 31, 120, 180)'/>
	<use xlink:href='#gpPt6' transform='translate(407.4,114.9) scale(3.38)' color='rgb( 31, 120, 180)'/>
	<use xlink:href='#gpPt6' transform='translate(396.6,84.5) scale(3.38)' color='rgb( 31, 120, 180)'/>
	<use xlink:href='#gpPt6' transform='translate(425.7,54.1) scale(3.38)' color='rgb( 31, 120, 180)'/>
	<use xlink:href='#gpPt6' transform='translate(1117.7,99.1) scale(3.38)' color='rgb( 31, 120, 180)'/>
</g>
	</g>
	<g id="gnuplot_plot_4" ><title>Mild outliers</title>
<g fill="none" color="black" stroke="currentColor" stroke-width="1.00" stroke-linecap="butt" stroke-linejoin="miter">
	<g transform="translate(1147.1,121.0)" stroke="none" fill="black" font-family="Helvetica" font-size="12.00"  text-anchor="start">
		<text><tspan font-family="Helvetica" >Mild outliers</tspan></text>
	</g>
</g>
<g fill="none" color="black" stroke="currentColor" stroke-width="1.00" stroke-linecap="butt" stroke-linejoin="miter">
	<use xlink:href='#gpPt6' transform='translate(584.5,632.0) scale(3.38)' color='rgb(255, 127,   0)'/>
	<use xlink:href='#gpPt6' transform='translate(1117.7,117.1) scale(3.38)' color='rgb(255, 127,   0)'/>
</g>
	</g>
	<g id="gnuplot_plot_5" ><title>Severe outliers</title>
<g fill="none" color="black" stroke="currentColor" stroke-width="1.00" stroke-linecap="butt" stroke-linejoin="miter">
	<g transform="translate(1147.1,139.0)" stroke="none" fill="black" font-family="Helvetica" font-size="12.00"  text-anchor="start">
		<text><tspan font-family="Helvetica" >Severe outliers</tspan></text>
	</g>
</g>
<g fill="none" color="black" stroke="currentColor" stroke-width="1.00" stroke-linecap="butt" stroke-linejoin="miter">
	<use xlink:href='#gpPt6' transform='translate(780.5,358.2) scale(3.38)' color='rgb(227,  26,  28)'/>
	<use xlink:href='#gpPt6' transform='translate(1117.7,135.1) scale(3.38)' color='rgb(227,  26,  28)'/>
</g>
	</g>
	<g id="gnuplot_plot_6" ><title>gnuplot_plot_6</title>
<g fill="none" color="white" stroke="rgb(227,  26,  28)" stroke-width="2.00" stroke-linecap="butt" stroke-linejoin="miter">
</g>
<g fill="none" color="black" stroke="currentColor" stroke-width="2.00" stroke-linecap="butt" stroke-linejoin="miter">
	<path stroke='rgb(255, 127,   0)'  d='M201.8,662.4 L201.8,54.1  '/></g>
	</g>
	<g id="gnuplot_plot_7" ><title>gnuplot_plot_7</title>
<g fill="none" color="black" stroke="currentColor" stroke-width="2.00" stroke-linecap="butt" stroke-linejoin="miter">
	<path stroke='rgb(255, 127,   0)'  d='M568.9,662.4 L568.9,54.1  '/></g>
	</g>
	<g id="gnuplot_plot_8" ><title>gnuplot_plot_8</title>
<g fill="none" color="black" stroke="currentColor" stroke-width="2.00" stroke-linecap="butt" stroke-linejoin="miter">
	<path stroke='rgb(227,  26,  28)'  d='M64.2,662.4 L64.2,54.1  '/></g>
	</g>
	<g id="gnuplot_plot_9" ><title>gnuplot_plot_9</title>
<g fill="none" color="black" stroke="currentColor" stroke-width="2.00" stroke-linecap="butt" stroke-linejoin="miter">
	<path stroke='rgb(227,  26,  28)'  d='M706.5,662.4 L706.5,54.1  '/></g>
	</g>
<g fill="none" color="black" stroke="currentColor" stroke-width="2.00" stroke-linecap="butt" stroke-linejoin="miter">
</g>
<g fill="none" color="black" stroke="black" stroke-width="1.00" stroke-linecap="butt" stroke-linejoin="miter">
</g>
<g fill="none" color="black" stroke="currentColor" stroke-width="1.00" stroke-linecap="butt" stroke-linejoin="miter">
	<path stroke='black'  d='M63.6,54.1 L63.6,662.4 L987.3,662.4 L987.3,54.1 L63.6,54.1 Z  '/></g>
<g fill="none" color="black" stroke="currentColor" stroke-width="1.00" stroke-linecap="butt" stroke-linejoin="miter">
</g>
</g>
</svg>

