<?xml version="1.0" encoding="utf-8"  standalone="no"?>
<svg 
 viewBox="0 0 1280 720"
 xmlns="http://www.w3.org/2000/svg"
 xmlns:xlink="http://www.w3.org/1999/xlink"
>

<title>Gnuplot</title>
<desc>Produced by GNUPLOT 5.0 patchlevel 6 </desc>

<g id="gnuplot_canvas">

<rect x="0" y="0" width="1280" height="720" fill="none"/>
<defs>

	<circle id='gpDot' r='0.5' stroke-width='0.5'/>
	<path id='gpPt0' stroke-width='0.222' stroke='currentColor' d='M-1,0 h2 M0,-1 v2'/>
	<path id='gpPt1' stroke-width='0.222' stroke='currentColor' d='M-1,-1 L1,1 M1,-1 L-1,1'/>
	<path id='gpPt2' stroke-width='0.222' stroke='currentColor' d='M-1,0 L1,0 M0,-1 L0,1 M-1,-1 L1,1 M-1,1 L1,-1'/>
	<rect id='gpPt3' stroke-width='0.222' stroke='currentColor' x='-1' y='-1' width='2' height='2'/>
	<rect id='gpPt4' stroke-width='0.222' stroke='currentColor' fill='currentColor' x='-1' y='-1' width='2' height='2'/>
	<circle id='gpPt5' stroke-width='0.222' stroke='currentColor' cx='0' cy='0' r='1'/>
	<use xlink:href='#gpPt5' id='gpPt6' fill='currentColor' stroke='none'/>
	<path id='gpPt7' stroke-width='0.222' stroke='currentColor' d='M0,-1.33 L-1.33,0.67 L1.33,0.67 z'/>
	<use xlink:href='#gpPt7' id='gpPt8' fill='currentColor' stroke='none'/>
	<use xlink:href='#gpPt7' id='gpPt9' stroke='currentColor' transform='rotate(180)'/>
	<use xlink:href='#gpPt9' id='gpPt10' fill='currentColor' stroke='none'/>
	<use xlink:href='#gpPt3' id='gpPt11' stroke='currentColor' transform='rotate(45)'/>
	<use xlink:href='#gpPt11' id='gpPt12' fill='currentColor' stroke='none'/>
	<path id='gpPt13' stroke-width='0.222' stroke='currentColor' d='M0,1.330 L1.265,0.411 L0.782,-1.067 L-0.782,-1.076 L-1.265,0.411 z'/>
	<use xlink:href='#gpPt13' id='gpPt14' fill='currentColor' stroke='none'/>
	<filter id='textbox' filterUnits='objectBoundingBox' x='0' y='0' height='1' width='1'>
	  <feFlood flood-color='white' flood-opacity='1' result='bgnd'/>
	  <feComposite in='SourceGraphic' in2='bgnd' operator='atop'/>
	</filter>
	<filter id='greybox' filterUnits='objectBoundingBox' x='0' y='0' height='1' width='1'>
	  <feFlood flood-color='lightgrey' flood-opacity='1' result='grey'/>
	  <feComposite in='SourceGraphic' in2='grey' operator='atop'/>
	</filter>
</defs>
<g fill="none" color="white" stroke="currentColor" stroke-width="1.00" stroke-linecap="butt" stroke-linejoin="miter">
</g>
<g fill="none" color="black" stroke="currentColor" stroke-width="1.00" stroke-linecap="butt" stroke-linejoin="miter">
	<path stroke='black'  d='M71.9,662.4 L80.9,662.4  '/>	<g transform="translate(63.6,666.3)" stroke="none" fill="black" font-family="Helvetica" font-size="12.00"  text-anchor="end">
		<text><tspan font-family="Helvetica" > 0</tspan></text>
	</g>
</g>
<g fill="none" color="black" stroke="currentColor" stroke-width="1.00" stroke-linecap="butt" stroke-linejoin="miter">
	<path stroke='black'  d='M71.9,601.6 L80.9,601.6  '/>	<g transform="translate(63.6,605.5)" stroke="none" fill="black" font-family="Helvetica" font-size="12.00"  text-anchor="end">
		<text><tspan font-family="Helvetica" > 0.5</tspan></text>
	</g>
</g>
<g fill="none" color="black" stroke="currentColor" stroke-width="1.00" stroke-linecap="butt" stroke-linejoin="miter">
	<path stroke='black'  d='M71.9,540.7 L80.9,540.7  '/>	<g transform="translate(63.6,544.6)" stroke="none" fill="black" font-family="Helvetica" font-size="12.00"  text-anchor="end">
		<text><tspan font-family="Helvetica" > 1</tspan></text>
	</g>
</g>
<g fill="none" color="black" stroke="currentColor" stroke-width="1.00" stroke-linecap="butt" stroke-linejoin="miter">
	<path stroke='black'  d='M71.9,479.9 L80.9,479.9  '/>	<g transform="translate(63.6,483.8)" stroke="none" fill="black" font-family="Helvetica" font-size="12.00"  text-anchor="end">
		<text><tspan font-family="Helvetica" > 1.5</tspan></text>
	</g>
</g>
<g fill="none" color="black" stroke="currentColor" stroke-width="1.00" stroke-linecap="butt" stroke-linejoin="miter">
	<path stroke='black'  d='M71.9,419.1 L80.9,419.1  '/>	<g transform="translate(63.6,423.0)" stroke="none" fill="black" font-family="Helvetica" font-size="12.00"  text-anchor="end">
		<text><tspan font-family="Helvetica" > 2</tspan></text>
	</g>
</g>
<g fill="none" color="black" stroke="currentColor" stroke-width="1.00" stroke-linecap="butt" stroke-linejoin="miter">
	<path stroke='black'  d='M71.9,358.2 L80.9,358.2  '/>	<g transform="translate(63.6,362.1)" stroke="none" fill="black" font-family="Helvetica" font-size="12.00"  text-anchor="end">
		<text><tspan font-family="Helvetica" > 2.5</tspan></text>
	</g>
</g>
<g fill="none" color="black" stroke="currentColor" stroke-width="1.00" stroke-linecap="butt" stroke-linejoin="miter">
	<path stroke='black'  d='M71.9,297.4 L80.9,297.4  '/>	<g transform="translate(63.6,301.3)" stroke="none" fill="black" font-family="Helvetica" font-size="12.00"  text-anchor="end">
		<text><tspan font-family="Helvetica" > 3</tspan></text>
	</g>
</g>
<g fill="none" color="black" stroke="currentColor" stroke-width="1.00" stroke-linecap="butt" stroke-linejoin="miter">
	<path stroke='black'  d='M71.9,236.6 L80.9,236.6  '/>	<g transform="translate(63.6,240.5)" stroke="none" fill="black" font-family="Helvetica" font-size="12.00"  text-anchor="end">
		<text><tspan font-family="Helvetica" > 3.5</tspan></text>
	</g>
</g>
<g fill="none" color="black" stroke="currentColor" stroke-width="1.00" stroke-linecap="butt" stroke-linejoin="miter">
	<path stroke='black'  d='M71.9,175.8 L80.9,175.8  '/>	<g transform="translate(63.6,179.7)" stroke="none" fill="black" font-family="Helvetica" font-size="12.00"  text-anchor="end">
		<text><tspan font-family="Helvetica" > 4</tspan></text>
	</g>
</g>
<g fill="none" color="black" stroke="currentColor" stroke-width="1.00" stroke-linecap="butt" stroke-linejoin="miter">
	<path stroke='black'  d='M71.9,114.9 L80.9,114.9  '/>	<g transform="translate(63.6,118.8)" stroke="none" fill="black" font-family="Helvetica" font-size="12.00"  text-anchor="end">
		<text><tspan font-family="Helvetica" > 4.5</tspan></text>
	</g>
</g>
<g fill="none" color="black" stroke="currentColor" stroke-width="1.00" stroke-linecap="butt" stroke-linejoin="miter">
	<path stroke='black'  d='M71.9,54.1 L80.9,54.1  '/>	<g transform="translate(63.6,58.0)" stroke="none" fill="black" font-family="Helvetica" font-size="12.00"  text-anchor="end">
		<text><tspan font-family="Helvetica" > 5</tspan></text>
	</g>
</g>
<g fill="none" color="black" stroke="currentColor" stroke-width="1.00" stroke-linecap="butt" stroke-linejoin="miter">
	<path stroke='black'  d='M183.5,662.4 L183.5,653.4  '/>	<g transform="translate(183.5,684.3)" stroke="none" fill="black" font-family="Helvetica" font-size="12.00"  text-anchor="middle">
		<text><tspan font-family="Helvetica" > 89.5</tspan></text>
	</g>
</g>
<g fill="none" color="black" stroke="currentColor" stroke-width="1.00" stroke-linecap="butt" stroke-linejoin="miter">
	<path stroke='black'  d='M296.7,662.4 L296.7,653.4  '/>	<g transform="translate(296.7,684.3)" stroke="none" fill="black" font-family="Helvetica" font-size="12.00"  text-anchor="middle">
		<text><tspan font-family="Helvetica" > 89.55</tspan></text>
	</g>
</g>
<g fill="none" color="black" stroke="currentColor" stroke-width="1.00" stroke-linecap="butt" stroke-linejoin="miter">
	<path stroke='black'  d='M409.9,662.4 L409.9,653.4  '/>	<g transform="translate(409.9,684.3)" stroke="none" fill="black" font-family="Helvetica" font-size="12.00"  text-anchor="middle">
		<text><tspan font-family="Helvetica" > 89.6</tspan></text>
	</g>
</g>
<g fill="none" color="black" stroke="currentColor" stroke-width="1.00" stroke-linecap="butt" stroke-linejoin="miter">
	<path stroke='black'  d='M523.1,662.4 L523.1,653.4  '/>	<g transform="translate(523.1,684.3)" stroke="none" fill="black" font-family="Helvetica" font-size="12.00"  text-anchor="middle">
		<text><tspan font-family="Helvetica" > 89.65</tspan></text>
	</g>
</g>
<g fill="none" color="black" stroke="currentColor" stroke-width="1.00" stroke-linecap="butt" stroke-linejoin="miter">
	<path stroke='black'  d='M636.3,662.4 L636.3,653.4  '/>	<g transform="translate(636.3,684.3)" stroke="none" fill="black" font-family="Helvetica" font-size="12.00"  text-anchor="middle">
		<text><tspan font-family="Helvetica" > 89.7</tspan></text>
	</g>
</g>
<g fill="none" color="black" stroke="currentColor" stroke-width="1.00" stroke-linecap="butt" stroke-linejoin="miter">
	<path stroke='black'  d='M749.5,662.4 L749.5,653.4  '/>	<g transform="translate(749.5,684.3)" stroke="none" fill="black" font-family="Helvetica" font-size="12.00"  text-anchor="middle">
		<text><tspan font-family="Helvetica" > 89.75</tspan></text>
	</g>
</g>
<g fill="none" color="black" stroke="currentColor" stroke-width="1.00" stroke-linecap="butt" stroke-linejoin="miter">
	<path stroke='black'  d='M862.8,662.4 L862.8,653.4  '/>	<g transform="translate(862.8,684.3)" stroke="none" fill="black" font-family="Helvetica" font-size="12.00"  text-anchor="middle">
		<text><tspan font-family="Helvetica" > 89.8</tspan></text>
	</g>
</g>
<g fill="none" color="black" stroke="currentColor" stroke-width="1.00" stroke-linecap="butt" stroke-linejoin="miter">
	<path stroke='black'  d='M976.0,662.4 L976.0,653.4  '/>	<g transform="translate(976.0,684.3)" stroke="none" fill="black" font-family="Helvetica" font-size="12.00"  text-anchor="middle">
		<text><tspan font-family="Helvetica" > 89.85</tspan></text>
	</g>
</g>
<g fill="none" color="black" stroke="currentColor" stroke-width="1.00" stroke-linecap="butt" stroke-linejoin="miter">
</g>
<g fill="none" color="black" stroke="currentColor" stroke-width="1.00" stroke-linecap="butt" stroke-linejoin="miter">
	<path stroke='black'  d='M71.9,54.1 L71.9,662.4 L1013.6,662.4 L1013.6,54.1 L71.9,54.1 Z  '/></g>
<g fill="none" color="black" stroke="currentColor" stroke-width="1.00" stroke-linecap="butt" stroke-linejoin="miter">
	<g transform="translate(17.0,358.3) rotate(270)" stroke="none" fill="black" font-family="Helvetica" font-size="12.00"  text-anchor="middle">
		<text><tspan font-family="Helvetica" >Density (a.u.)</tspan></text>
	</g>
</g>
<g fill="none" color="black" stroke="currentColor" stroke-width="1.00" stroke-linecap="butt" stroke-linejoin="miter">
	<g transform="translate(542.7,711.3)" stroke="none" fill="black" font-family="Helvetica" font-size="12.00"  text-anchor="middle">
		<text><tspan font-family="Helvetica" >Average time (us)</tspan></text>
	</g>
</g>
<g fill="none" color="black" stroke="currentColor" stroke-width="1.00" stroke-linecap="butt" stroke-linejoin="miter">
	<g transform="translate(542.7,31.0)" stroke="none" fill="black" font-family="Helvetica" font-size="12.00"  text-anchor="middle">
		<text><tspan font-family="Helvetica" >language: javascript/parse error: go/examples/no_newline_at_eof.go: slope</tspan></text>
	</g>
</g>
	<g id="gnuplot_plot_1" ><title>Bootstrap distribution</title>
<g fill="none" color="white" stroke="black" stroke-width="2.00" stroke-linecap="butt" stroke-linejoin="miter">
</g>
<g fill="none" color="black" stroke="currentColor" stroke-width="2.00" stroke-linecap="butt" stroke-linejoin="miter">
	<g transform="translate(1089.0,67.0)" stroke="none" fill="black" font-family="Helvetica" font-size="12.00"  text-anchor="start">
		<text><tspan font-family="Helvetica" >Bootstrap distribution</tspan></text>
	</g>
</g>
<g fill="none" color="black" stroke="currentColor" stroke-width="2.00" stroke-linecap="butt" stroke-linejoin="miter">
	<path stroke='rgb( 31, 120, 180)'  d='M1038.5,63.1 L1080.7,63.1 M71.9,628.1 L73.8,627.1 L75.7,626.2 L77.6,625.2 L79.4,624.3 L81.3,623.3
		L83.2,622.3 L85.1,621.4 L87.0,620.4 L88.9,619.4 L90.8,618.4 L92.7,617.4 L94.5,616.3 L96.4,615.2
		L98.3,614.2 L100.2,613.0 L102.1,611.9 L104.0,610.7 L105.9,609.5 L107.8,608.3 L109.6,607.0 L111.5,605.6
		L113.4,604.2 L115.3,602.8 L117.2,601.3 L119.1,599.8 L121.0,598.3 L122.9,596.6 L124.7,595.0 L126.6,593.3
		L128.5,591.5 L130.4,589.7 L132.3,587.8 L134.2,585.9 L136.1,584.0 L138.0,582.0 L139.8,579.9 L141.7,577.9
		L143.6,575.8 L145.5,573.6 L147.4,571.5 L149.3,569.2 L151.2,567.0 L153.0,564.7 L154.9,562.4 L156.8,560.1
		L158.7,557.7 L160.6,555.3 L162.5,552.9 L164.4,550.4 L166.3,547.9 L168.1,545.3 L170.0,542.7 L171.9,540.0
		L173.8,537.4 L175.7,534.6 L177.6,531.8 L179.5,529.0 L181.4,526.1 L183.2,523.2 L185.1,520.2 L187.0,517.2
		L188.9,514.1 L190.8,511.0 L192.7,507.8 L194.6,504.6 L196.5,501.4 L198.3,498.1 L200.2,494.7 L202.1,491.4
		L204.0,488.0 L205.9,484.5 L207.8,481.1 L209.7,477.6 L211.6,474.0 L213.4,470.5 L215.3,466.9 L217.2,463.3
		L219.1,459.7 L221.0,456.0 L222.9,452.4 L224.8,448.7 L226.6,445.0 L228.5,441.3 L230.4,437.5 L232.3,433.8
		L234.2,430.1 L236.1,426.3 L238.0,422.5 L239.9,418.7 L241.7,414.9 L243.6,411.1 L245.5,407.2 L247.4,403.4
		L249.3,399.5 L251.2,395.7 L253.1,391.8 L255.0,387.9 L256.8,383.9 L258.7,380.0 L260.6,376.0 L262.5,372.1
		L264.4,368.1 L266.3,364.1 L268.2,360.1 L270.1,356.1 L271.9,352.1 L273.8,348.1 L275.7,344.1 L277.6,340.1
		L279.5,336.1 L281.4,332.1 L283.3,328.1 L285.2,324.1 L287.0,320.1 L288.9,316.1 L290.8,312.1 L292.7,308.1
		L294.6,304.1 L296.5,300.1 L298.4,296.2 L300.2,292.2 L302.1,288.2 L304.0,284.3 L305.9,280.3 L307.8,276.3
		L309.7,272.4 L311.6,268.4 L313.5,264.5 L315.3,260.5 L317.2,256.5 L319.1,252.6 L321.0,248.6 L322.9,244.6
		L324.8,240.6 L326.7,236.7 L328.6,232.7 L330.4,228.7 L332.3,224.7 L334.2,220.7 L336.1,216.7 L338.0,212.8
		L339.9,208.8 L341.8,204.8 L343.7,200.9 L345.5,197.0 L347.4,193.1 L349.3,189.3 L351.2,185.5 L353.1,181.8
		L355.0,178.1 L356.9,174.5 L358.8,171.0 L360.6,167.6 L362.5,164.3 L364.4,161.2 L366.3,158.1 L368.2,155.1
		L370.1,152.3 L372.0,149.7 L373.8,147.1 L375.7,144.7 L377.6,142.4 L379.5,140.2 L381.4,138.1 L383.3,136.2
		L385.2,134.4 L387.1,132.6 L388.9,130.9 L390.8,129.3 L392.7,127.8 L394.6,126.3 L396.5,124.8 L398.4,123.4
		L400.3,121.9 L402.2,120.5 L404.0,119.0 L405.9,117.5 L407.8,116.1 L409.7,114.5 L411.6,113.0 L413.5,111.4
		L415.4,109.8 L417.3,108.1 L419.1,106.5 L421.0,104.9 L422.9,103.2 L424.8,101.6 L426.7,100.0 L428.6,98.4
		L430.5,96.9 L432.4,95.4 L434.2,94.0 L436.1,92.7 L438.0,91.5 L439.9,90.3 L441.8,89.2 L443.7,88.1
		L445.6,87.2 L447.4,86.3 L449.3,85.6 L451.2,84.8 L453.1,84.2 L455.0,83.7 L456.9,83.2 L458.8,82.7
		L460.7,82.4 L462.5,82.1 L464.4,81.9 L466.3,81.8 L468.2,81.7 L470.1,81.7 L472.0,81.8 L473.9,82.0
		L475.8,82.3 L477.6,82.6 L479.5,83.1 L481.4,83.6 L483.3,84.3 L485.2,85.0 L487.1,85.9 L489.0,86.8
		L490.9,87.8 L492.7,89.0 L494.6,90.2 L496.5,91.5 L498.4,92.8 L500.3,94.3 L502.2,95.8 L504.1,97.4
		L506.0,99.0 L507.8,100.6 L509.7,102.3 L511.6,104.0 L513.5,105.7 L515.4,107.4 L517.3,109.2 L519.2,110.9
		L521.0,112.6 L522.9,114.3 L524.8,115.9 L526.7,117.6 L528.6,119.2 L530.5,120.9 L532.4,122.5 L534.3,124.2
		L536.1,125.9 L538.0,127.6 L539.9,129.3 L541.8,131.1 L543.7,132.9 L545.6,134.8 L547.5,136.8 L549.4,138.8
		L551.2,140.9 L553.1,143.1 L555.0,145.4 L556.9,147.7 L558.8,150.2 L560.7,152.7 L562.6,155.2 L564.5,157.9
		L566.3,160.5 L568.2,163.3 L570.1,166.0 L572.0,168.8 L573.9,171.6 L575.8,174.5 L577.7,177.3 L579.5,180.2
		L581.4,183.1 L583.3,186.0 L585.2,188.9 L587.1,191.8 L589.0,194.8 L590.9,197.7 L592.8,200.7 L594.6,203.7
		L596.5,206.7 L598.4,209.8 L600.3,212.9 L602.2,216.0 L604.1,219.1 L606.0,222.3 L607.9,225.4 L609.7,228.6
		L611.6,231.8 L613.5,234.9 L615.4,238.1 L617.3,241.3 L619.2,244.4 L621.1,247.5 L623.0,250.6 L624.8,253.6
		L626.7,256.6 L628.6,259.6 L630.5,262.5 L632.4,265.4 L634.3,268.3 L636.2,271.2 L638.1,274.0 L639.9,276.8
		L641.8,279.6 L643.7,282.4 L645.6,285.3 L647.5,288.1 L649.4,290.9 L651.3,293.7 L653.1,296.6 L655.0,299.5
		L656.9,302.3 L658.8,305.2 L660.7,308.1 L662.6,311.0 L664.5,313.9 L666.4,316.8 L668.2,319.7 L670.1,322.5
		L672.0,325.4 L673.9,328.2 L675.8,331.0 L677.7,333.8 L679.6,336.5 L681.5,339.2 L683.3,341.9 L685.2,344.6
		L687.1,347.2 L689.0,349.8 L690.9,352.5 L692.8,355.1 L694.7,357.6 L696.6,360.2 L698.4,362.8 L700.3,365.4
		L702.2,368.0 L704.1,370.7 L706.0,373.3 L707.9,376.0 L709.8,378.7 L711.7,381.4 L713.5,384.2 L715.4,387.0
		L717.3,389.8 L719.2,392.7 L721.1,395.6 L723.0,398.5 L724.9,401.4 L726.7,404.3 L728.6,407.3 L730.5,410.2
		L732.4,413.2 L734.3,416.1 L736.2,419.0 L738.1,421.9 L740.0,424.8 L741.8,427.6 L743.7,430.4 L745.6,433.1
		L747.5,435.8 L749.4,438.5 L751.3,441.1 L753.2,443.6 L755.1,446.0 L756.9,448.5 L758.8,450.8 L760.7,453.1
		L762.6,455.3 L764.5,457.5 L766.4,459.7 L768.3,461.8 L770.2,463.9 L772.0,465.9 L773.9,467.9 L775.8,469.9
		L777.7,471.9 L779.6,473.8 L781.5,475.8 L783.4,477.7 L785.3,479.7 L787.1,481.6 L789.0,483.6 L790.9,485.5
		L792.8,487.5 L794.7,489.5 L796.6,491.5 L798.5,493.5 L800.3,495.5 L802.2,497.6 L804.1,499.6 L806.0,501.7
		L807.9,503.8 L809.8,505.9 L811.7,508.0 L813.6,510.1 L815.4,512.2 L817.3,514.4 L819.2,516.5 L821.1,518.6
		L823.0,520.7 L824.9,522.8 L826.8,524.9 L828.7,527.0 L830.5,529.0 L832.4,531.0 L834.3,533.0 L836.2,535.0
		L838.1,536.9 L840.0,538.8 L841.9,540.7 L843.8,542.5 L845.6,544.3 L847.5,546.0 L849.4,547.8 L851.3,549.5
		L853.2,551.1 L855.1,552.7 L857.0,554.3 L858.9,555.9 L860.7,557.4 L862.6,558.9 L864.5,560.3 L866.4,561.7
		L868.3,563.1 L870.2,564.4 L872.1,565.7 L873.9,567.0 L875.8,568.3 L877.7,569.5 L879.6,570.7 L881.5,571.8
		L883.4,573.0 L885.3,574.1 L887.2,575.2 L889.0,576.2 L890.9,577.3 L892.8,578.3 L894.7,579.4 L896.6,580.4
		L898.5,581.4 L900.4,582.4 L902.3,583.4 L904.1,584.5 L906.0,585.5 L907.9,586.5 L909.8,587.6 L911.7,588.6
		L913.6,589.7 L915.5,590.7 L917.4,591.8 L919.2,592.9 L921.1,593.9 L923.0,595.0 L924.9,596.1 L926.8,597.2
		L928.7,598.2 L930.6,599.3 L932.5,600.4 L934.3,601.4 L936.2,602.4 L938.1,603.4 L940.0,604.4 L941.9,605.4
		L943.8,606.4 L945.7,607.3 L947.5,608.3 L949.4,609.2 L951.3,610.0 L953.2,610.9 L955.1,611.8 L957.0,612.6
		L958.9,613.4 L960.8,614.2 L962.6,615.0 L964.5,615.7 L966.4,616.5 L968.3,617.2 L970.2,617.9 L972.1,618.6
		L974.0,619.3 L975.9,620.0 L977.7,620.7 L979.6,621.4 L981.5,622.1 L983.4,622.7 L985.3,623.4 L987.2,624.1
		L989.1,624.7 L991.0,625.4 L992.8,626.0 L994.7,626.7 L996.6,627.3 L998.5,627.9 L1000.4,628.5 L1002.3,629.2
		L1004.2,629.8 L1006.1,630.4 L1007.9,631.0 L1009.8,631.5 L1011.7,632.1 L1013.6,632.7  '/></g>
	</g>
	<g id="gnuplot_plot_2" ><title>Confidence interval</title>
<g fill="none" color="white" stroke="rgb( 31, 120, 180)" stroke-width="1.00" stroke-linecap="butt" stroke-linejoin="miter">
</g>
<g fill="none" color="black" stroke="currentColor" stroke-width="1.00" stroke-linecap="butt" stroke-linejoin="miter">
	<g transform="translate(1089.0,85.0)" stroke="none" fill="black" font-family="Helvetica" font-size="12.00"  text-anchor="start">
		<text><tspan font-family="Helvetica" >Confidence interval</tspan></text>
	</g>
</g>
<g fill="none" color="black" stroke="currentColor" stroke-width="1.00" stroke-linecap="butt" stroke-linejoin="miter">
	<g stroke='none' shape-rendering='crispEdges'>
		<polygon fill = 'rgb( 31, 120, 180)' fill-opacity = '0.250000' points = '1038.5,85.6 1080.7,85.6 1080.7,76.6 1038.5,76.6 '/>
		<polygon fill = 'rgb( 31, 120, 180)' fill-opacity = '0.250000' points = '158.7,557.7 158.7,662.4 160.6,662.4 160.6,555.3 '/>
		<polygon fill = 'rgb( 31, 120, 180)' fill-opacity = '0.250000' points = '160.6,555.3 160.6,662.4 162.5,662.4 162.5,552.9 '/>
		<polygon fill = 'rgb( 31, 120, 180)' fill-opacity = '0.250000' points = '162.5,552.9 162.5,662.4 164.4,662.4 164.4,550.4 '/>
		<polygon fill = 'rgb( 31, 120, 180)' fill-opacity = '0.250000' points = '164.4,550.4 164.4,662.4 166.3,662.4 166.3,547.9 '/>
		<polygon fill = 'rgb( 31, 120, 180)' fill-opacity = '0.250000' points = '166.3,547.9 166.3,662.4 168.1,662.4 168.1,545.3 '/>
		<polygon fill = 'rgb( 31, 120, 180)' fill-opacity = '0.250000' points = '168.1,545.3 168.1,662.4 170.0,662.4 170.0,542.7 '/>
		<polygon fill = 'rgb( 31, 120, 180)' fill-opacity = '0.250000' points = '170.0,542.7 170.0,662.4 171.9,662.4 171.9,540.0 '/>
		<polygon fill = 'rgb( 31, 120, 180)' fill-opacity = '0.250000' points = '171.9,540.0 171.9,662.4 173.8,662.4 173.8,537.4 '/>
		<polygon fill = 'rgb( 31, 120, 180)' fill-opacity = '0.250000' points = '173.8,537.4 173.8,662.4 175.7,662.4 175.7,534.6 '/>
		<polygon fill = 'rgb( 31, 120, 180)' fill-opacity = '0.250000' points = '175.7,534.6 175.7,662.4 177.6,662.4 177.6,531.8 '/>
		<polygon fill = 'rgb( 31, 120, 180)' fill-opacity = '0.250000' points = '177.6,531.8 177.6,662.4 179.5,662.4 179.5,529.0 '/>
		<polygon fill = 'rgb( 31, 120, 180)' fill-opacity = '0.250000' points = '179.5,529.0 179.5,662.4 181.4,662.4 181.4,526.1 '/>
		<polygon fill = 'rgb( 31, 120, 180)' fill-opacity = '0.250000' points = '181.4,526.1 181.4,662.4 183.2,662.4 183.2,523.2 '/>
		<polygon fill = 'rgb( 31, 120, 180)' fill-opacity = '0.250000' points = '183.2,523.2 183.2,662.4 185.1,662.4 185.1,520.2 '/>
		<polygon fill = 'rgb( 31, 120, 180)' fill-opacity = '0.250000' points = '185.1,520.2 185.1,662.4 187.0,662.4 187.0,517.2 '/>
		<polygon fill = 'rgb( 31, 120, 180)' fill-opacity = '0.250000' points = '187.0,517.2 187.0,662.4 188.9,662.4 188.9,514.1 '/>
		<polygon fill = 'rgb( 31, 120, 180)' fill-opacity = '0.250000' points = '188.9,514.1 188.9,662.4 190.8,662.4 190.8,511.0 '/>
		<polygon fill = 'rgb( 31, 120, 180)' fill-opacity = '0.250000' points = '190.8,511.0 190.8,662.4 192.7,662.4 192.7,507.8 '/>
		<polygon fill = 'rgb( 31, 120, 180)' fill-opacity = '0.250000' points = '192.7,507.8 192.7,662.4 194.6,662.4 194.6,504.6 '/>
		<polygon fill = 'rgb( 31, 120, 180)' fill-opacity = '0.250000' points = '194.6,504.6 194.6,662.4 196.5,662.4 196.5,501.4 '/>
		<polygon fill = 'rgb( 31, 120, 180)' fill-opacity = '0.250000' points = '196.5,501.4 196.5,662.4 198.3,662.4 198.3,498.1 '/>
		<polygon fill = 'rgb( 31, 120, 180)' fill-opacity = '0.250000' points = '198.3,498.1 198.3,662.4 200.2,662.4 200.2,494.7 '/>
		<polygon fill = 'rgb( 31, 120, 180)' fill-opacity = '0.250000' points = '200.2,494.7 200.2,662.4 202.1,662.4 202.1,491.4 '/>
		<polygon fill = 'rgb( 31, 120, 180)' fill-opacity = '0.250000' points = '202.1,491.4 202.1,662.4 204.0,662.4 204.0,488.0 '/>
		<polygon fill = 'rgb( 31, 120, 180)' fill-opacity = '0.250000' points = '204.0,488.0 204.0,662.4 205.9,662.4 205.9,484.5 '/>
		<polygon fill = 'rgb( 31, 120, 180)' fill-opacity = '0.250000' points = '205.9,484.5 205.9,662.4 207.8,662.4 207.8,481.1 '/>
		<polygon fill = 'rgb( 31, 120, 180)' fill-opacity = '0.250000' points = '207.8,481.1 207.8,662.4 209.7,662.4 209.7,477.6 '/>
		<polygon fill = 'rgb( 31, 120, 180)' fill-opacity = '0.250000' points = '209.7,477.6 209.7,662.4 211.6,662.4 211.6,474.0 '/>
		<polygon fill = 'rgb( 31, 120, 180)' fill-opacity = '0.250000' points = '211.6,474.0 211.6,662.4 213.4,662.4 213.4,470.5 '/>
		<polygon fill = 'rgb( 31, 120, 180)' fill-opacity = '0.250000' points = '213.4,470.5 213.4,662.4 215.3,662.4 215.3,466.9 '/>
		<polygon fill = 'rgb( 31, 120, 180)' fill-opacity = '0.250000' points = '215.3,466.9 215.3,662.4 217.2,662.4 217.2,463.3 '/>
		<polygon fill = 'rgb( 31, 120, 180)' fill-opacity = '0.250000' points = '217.2,463.3 217.2,662.4 219.1,662.4 219.1,459.7 '/>
		<polygon fill = 'rgb( 31, 120, 180)' fill-opacity = '0.250000' points = '219.1,459.7 219.1,662.4 221.0,662.4 221.0,456.0 '/>
		<polygon fill = 'rgb( 31, 120, 180)' fill-opacity = '0.250000' points = '221.0,456.0 221.0,662.4 222.9,662.4 222.9,452.4 '/>
		<polygon fill = 'rgb( 31, 120, 180)' fill-opacity = '0.250000' points = '222.9,452.4 222.9,662.4 224.8,662.4 224.8,448.7 '/>
		<polygon fill = 'rgb( 31, 120, 180)' fill-opacity = '0.250000' points = '224.8,448.7 224.8,662.4 226.6,662.4 226.6,445.0 '/>
		<polygon fill = 'rgb( 31, 120, 180)' fill-opacity = '0.250000' points = '226.6,445.0 226.6,662.4 228.5,662.4 228.5,441.3 '/>
		<polygon fill = 'rgb( 31, 120, 180)' fill-opacity = '0.250000' points = '228.5,441.3 228.5,662.4 230.4,662.4 230.4,437.5 '/>
		<polygon fill = 'rgb( 31, 120, 180)' fill-opacity = '0.250000' points = '230.4,437.5 230.4,662.4 232.3,662.4 232.3,433.8 '/>
		<polygon fill = 'rgb( 31, 120, 180)' fill-opacity = '0.250000' points = '232.3,433.8 232.3,662.4 234.2,662.4 234.2,430.1 '/>
		<polygon fill = 'rgb( 31, 120, 180)' fill-opacity = '0.250000' points = '234.2,430.1 234.2,662.4 236.1,662.4 236.1,426.3 '/>
		<polygon fill = 'rgb( 31, 120, 180)' fill-opacity = '0.250000' points = '236.1,426.3 236.1,662.4 238.0,662.4 238.0,422.5 '/>
		<polygon fill = 'rgb( 31, 120, 180)' fill-opacity = '0.250000' points = '238.0,422.5 238.0,662.4 239.9,662.4 239.9,418.7 '/>
		<polygon fill = 'rgb( 31, 120, 180)' fill-opacity = '0.250000' points = '239.9,418.7 239.9,662.4 241.7,662.4 241.7,414.9 '/>
		<polygon fill = 'rgb( 31, 120, 180)' fill-opacity = '0.250000' points = '241.7,414.9 241.7,662.4 243.6,662.4 243.6,411.1 '/>
		<polygon fill = 'rgb( 31, 120, 180)' fill-opacity = '0.250000' points = '243.6,411.1 243.6,662.4 245.5,662.4 245.5,407.2 '/>
		<polygon fill = 'rgb( 31, 120, 180)' fill-opacity = '0.250000' points = '245.5,407.2 245.5,662.4 247.4,662.4 247.4,403.4 '/>
		<polygon fill = 'rgb( 31, 120, 180)' fill-opacity = '0.250000' points = '247.4,403.4 247.4,662.4 249.3,662.4 249.3,399.5 '/>
		<polygon fill = 'rgb( 31, 120, 180)' fill-opacity = '0.250000' points = '249.3,399.5 249.3,662.4 251.2,662.4 251.2,395.7 '/>
		<polygon fill = 'rgb( 31, 120, 180)' fill-opacity = '0.250000' points = '251.2,395.7 251.2,662.4 253.1,662.4 253.1,391.8 '/>
		<polygon fill = 'rgb( 31, 120, 180)' fill-opacity = '0.250000' points = '253.1,391.8 253.1,662.4 255.0,662.4 255.0,387.9 '/>
		<polygon fill = 'rgb( 31, 120, 180)' fill-opacity = '0.250000' points = '255.0,387.9 255.0,662.4 256.8,662.4 256.8,383.9 '/>
		<polygon fill = 'rgb( 31, 120, 180)' fill-opacity = '0.250000' points = '256.8,383.9 256.8,662.4 258.7,662.4 258.7,380.0 '/>
		<polygon fill = 'rgb( 31, 120, 180)' fill-opacity = '0.250000' points = '258.7,380.0 258.7,662.4 260.6,662.4 260.6,376.0 '/>
		<polygon fill = 'rgb( 31, 120, 180)' fill-opacity = '0.250000' points = '260.6,376.0 260.6,662.4 262.5,662.4 262.5,372.1 '/>
		<polygon fill = 'rgb( 31, 120, 180)' fill-opacity = '0.250000' points = '262.5,372.1 262.5,662.4 264.4,662.4 264.4,368.1 '/>
		<polygon fill = 'rgb( 31, 120, 180)' fill-opacity = '0.250000' points = '264.4,368.1 264.4,662.4 266.3,662.4 266.3,364.1 '/>
		<polygon fill = 'rgb( 31, 120, 180)' fill-opacity = '0.250000' points = '266.3,364.1 266.3,662.4 268.2,662.4 268.2,360.1 '/>
		<polygon fill = 'rgb( 31, 120, 180)' fill-opacity = '0.250000' points = '268.2,360.1 268.2,662.4 270.1,662.4 270.1,356.1 '/>
		<polygon fill = 'rgb( 31, 120, 180)' fill-opacity = '0.250000' points = '270.1,356.1 270.1,662.4 271.9,662.4 271.9,352.1 '/>
		<polygon fill = 'rgb( 31, 120, 180)' fill-opacity = '0.250000' points = '271.9,352.1 271.9,662.4 273.8,662.4 273.8,348.1 '/>
		<polygon fill = 'rgb( 31, 120, 180)' fill-opacity = '0.250000' points = '273.8,348.1 273.8,662.4 275.7,662.4 275.7,344.1 '/>
		<polygon fill = 'rgb( 31, 120, 180)' fill-opacity = '0.250000' points = '275.7,344.1 275.7,662.4 277.6,662.4 277.6,340.1 '/>
		<polygon fill = 'rgb( 31, 120, 180)' fill-opacity = '0.250000' points = '277.6,340.1 277.6,662.4 279.5,662.4 279.5,336.1 '/>
		<polygon fill = 'rgb( 31, 120, 180)' fill-opacity = '0.250000' points = '279.5,336.1 279.5,662.4 281.4,662.4 281.4,332.1 '/>
		<polygon fill = 'rgb( 31, 120, 180)' fill-opacity = '0.250000' points = '281.4,332.1 281.4,662.4 283.3,662.4 283.3,328.1 '/>
		<polygon fill = 'rgb( 31, 120, 180)' fill-opacity = '0.250000' points = '283.3,328.1 283.3,662.4 285.2,662.4 285.2,324.1 '/>
		<polygon fill = 'rgb( 31, 120, 180)' fill-opacity = '0.250000' points = '285.2,324.1 285.2,662.4 287.0,662.4 287.0,320.1 '/>
		<polygon fill = 'rgb( 31, 120, 180)' fill-opacity = '0.250000' points = '287.0,320.1 287.0,662.4 288.9,662.4 288.9,316.1 '/>
		<polygon fill = 'rgb( 31, 120, 180)' fill-opacity = '0.250000' points = '288.9,316.1 288.9,662.4 290.8,662.4 290.8,312.1 '/>
		<polygon fill = 'rgb( 31, 120, 180)' fill-opacity = '0.250000' points = '290.8,312.1 290.8,662.4 292.7,662.4 292.7,308.1 '/>
		<polygon fill = 'rgb( 31, 120, 180)' fill-opacity = '0.250000' points = '292.7,308.1 292.7,662.4 294.6,662.4 294.6,304.1 '/>
		<polygon fill = 'rgb( 31, 120, 180)' fill-opacity = '0.250000' points = '294.6,304.1 294.6,662.4 296.5,662.4 296.5,300.1 '/>
		<polygon fill = 'rgb( 31, 120, 180)' fill-opacity = '0.250000' points = '296.5,300.1 296.5,662.4 298.4,662.4 298.4,296.2 '/>
		<polygon fill = 'rgb( 31, 120, 180)' fill-opacity = '0.250000' points = '298.4,296.2 298.4,662.4 300.2,662.4 300.2,292.2 '/>
		<polygon fill = 'rgb( 31, 120, 180)' fill-opacity = '0.250000' points = '300.2,292.2 300.2,662.4 302.1,662.4 302.1,288.2 '/>
		<polygon fill = 'rgb( 31, 120, 180)' fill-opacity = '0.250000' points = '302.1,288.2 302.1,662.4 304.0,662.4 304.0,284.3 '/>
		<polygon fill = 'rgb( 31, 120, 180)' fill-opacity = '0.250000' points = '304.0,284.3 304.0,662.4 305.9,662.4 305.9,280.3 '/>
		<polygon fill = 'rgb( 31, 120, 180)' fill-opacity = '0.250000' points = '305.9,280.3 305.9,662.4 307.8,662.4 307.8,276.3 '/>
		<polygon fill = 'rgb( 31, 120, 180)' fill-opacity = '0.250000' points = '307.8,276.3 307.8,662.4 309.7,662.4 309.7,272.4 '/>
		<polygon fill = 'rgb( 31, 120, 180)' fill-opacity = '0.250000' points = '309.7,272.4 309.7,662.4 311.6,662.4 311.6,268.4 '/>
		<polygon fill = 'rgb( 31, 120, 180)' fill-opacity = '0.250000' points = '311.6,268.4 311.6,662.4 313.5,662.4 313.5,264.5 '/>
		<polygon fill = 'rgb( 31, 120, 180)' fill-opacity = '0.250000' points = '313.5,264.5 313.5,662.4 315.3,662.4 315.3,260.5 '/>
		<polygon fill = 'rgb( 31, 120, 180)' fill-opacity = '0.250000' points = '315.3,260.5 315.3,662.4 317.2,662.4 317.2,256.5 '/>
		<polygon fill = 'rgb( 31, 120, 180)' fill-opacity = '0.250000' points = '317.2,256.5 317.2,662.4 319.1,662.4 319.1,252.6 '/>
		<polygon fill = 'rgb( 31, 120, 180)' fill-opacity = '0.250000' points = '319.1,252.6 319.1,662.4 321.0,662.4 321.0,248.6 '/>
		<polygon fill = 'rgb( 31, 120, 180)' fill-opacity = '0.250000' points = '321.0,248.6 321.0,662.4 322.9,662.4 322.9,244.6 '/>
		<polygon fill = 'rgb( 31, 120, 180)' fill-opacity = '0.250000' points = '322.9,244.6 322.9,662.4 324.8,662.4 324.8,240.6 '/>
		<polygon fill = 'rgb( 31, 120, 180)' fill-opacity = '0.250000' points = '324.8,240.6 324.8,662.4 326.7,662.4 326.7,236.7 '/>
		<polygon fill = 'rgb( 31, 120, 180)' fill-opacity = '0.250000' points = '326.7,236.7 326.7,662.4 328.6,662.4 328.6,232.7 '/>
		<polygon fill = 'rgb( 31, 120, 180)' fill-opacity = '0.250000' points = '328.6,232.7 328.6,662.4 330.4,662.4 330.4,228.7 '/>
		<polygon fill = 'rgb( 31, 120, 180)' fill-opacity = '0.250000' points = '330.4,228.7 330.4,662.4 332.3,662.4 332.3,224.7 '/>
		<polygon fill = 'rgb( 31, 120, 180)' fill-opacity = '0.250000' points = '332.3,224.7 332.3,662.4 334.2,662.4 334.2,220.7 '/>
		<polygon fill = 'rgb( 31, 120, 180)' fill-opacity = '0.250000' points = '334.2,220.7 334.2,662.4 336.1,662.4 336.1,216.7 '/>
		<polygon fill = 'rgb( 31, 120, 180)' fill-opacity = '0.250000' points = '336.1,216.7 336.1,662.4 338.0,662.4 338.0,212.8 '/>
		<polygon fill = 'rgb( 31, 120, 180)' fill-opacity = '0.250000' points = '338.0,212.8 338.0,662.4 339.9,662.4 339.9,208.8 '/>
		<polygon fill = 'rgb( 31, 120, 180)' fill-opacity = '0.250000' points = '339.9,208.8 339.9,662.4 341.8,662.4 341.8,204.8 '/>
		<polygon fill = 'rgb( 31, 120, 180)' fill-opacity = '0.250000' points = '341.8,204.8 341.8,662.4 343.7,662.4 343.7,200.9 '/>
		<polygon fill = 'rgb( 31, 120, 180)' fill-opacity = '0.250000' points = '343.7,200.9 343.7,662.4 345.5,662.4 345.5,197.0 '/>
		<polygon fill = 'rgb( 31, 120, 180)' fill-opacity = '0.250000' points = '345.5,197.0 345.5,662.4 347.4,662.4 347.4,193.1 '/>
		<polygon fill = 'rgb( 31, 120, 180)' fill-opacity = '0.250000' points = '347.4,193.1 347.4,662.4 349.3,662.4 349.3,189.3 '/>
		<polygon fill = 'rgb( 31, 120, 180)' fill-opacity = '0.250000' points = '349.3,189.3 349.3,662.4 351.2,662.4 351.2,185.5 '/>
		<polygon fill = 'rgb( 31, 120, 180)' fill-opacity = '0.250000' points = '351.2,185.5 351.2,662.4 353.1,662.4 353.1,181.8 '/>
		<polygon fill = 'rgb( 31, 120, 180)' fill-opacity = '0.250000' points = '353.1,181.8 353.1,662.4 355.0,662.4 355.0,178.1 '/>
		<polygon fill = 'rgb( 31, 120, 180)' fill-opacity = '0.250000' points = '355.0,178.1 355.0,662.4 356.9,662.4 356.9,174.5 '/>
		<polygon fill = 'rgb( 31, 120, 180)' fill-opacity = '0.250000' points = '356.9,174.5 356.9,662.4 358.8,662.4 358.8,171.0 '/>
		<polygon fill = 'rgb( 31, 120, 180)' fill-opacity = '0.250000' points = '358.8,171.0 358.8,662.4 360.6,662.4 360.6,167.6 '/>
		<polygon fill = 'rgb( 31, 120, 180)' fill-opacity = '0.250000' points = '360.6,167.6 360.6,662.4 362.5,662.4 362.5,164.3 '/>
		<polygon fill = 'rgb( 31, 120, 180)' fill-opacity = '0.250000' points = '362.5,164.3 362.5,662.4 364.4,662.4 364.4,161.2 '/>
		<polygon fill = 'rgb( 31, 120, 180)' fill-opacity = '0.250000' points = '364.4,161.2 364.4,662.4 366.3,662.4 366.3,158.1 '/>
		<polygon fill = 'rgb( 31, 120, 180)' fill-opacity = '0.250000' points = '366.3,158.1 366.3,662.4 368.2,662.4 368.2,155.1 '/>
		<polygon fill = 'rgb( 31, 120, 180)' fill-opacity = '0.250000' points = '368.2,155.1 368.2,662.4 370.1,662.4 370.1,152.3 '/>
		<polygon fill = 'rgb( 31, 120, 180)' fill-opacity = '0.250000' points = '370.1,152.3 370.1,662.4 372.0,662.4 372.0,149.7 '/>
		<polygon fill = 'rgb( 31, 120, 180)' fill-opacity = '0.250000' points = '372.0,149.7 372.0,662.4 373.8,662.4 373.8,147.1 '/>
		<polygon fill = 'rgb( 31, 120, 180)' fill-opacity = '0.250000' points = '373.8,147.1 373.8,662.4 375.7,662.4 375.7,144.7 '/>
		<polygon fill = 'rgb( 31, 120, 180)' fill-opacity = '0.250000' points = '375.7,144.7 375.7,662.4 377.6,662.4 377.6,142.4 '/>
		<polygon fill = 'rgb( 31, 120, 180)' fill-opacity = '0.250000' points = '377.6,142.4 377.6,662.4 379.5,662.4 379.5,140.2 '/>
		<polygon fill = 'rgb( 31, 120, 180)' fill-opacity = '0.250000' points = '379.5,140.2 379.5,662.4 381.4,662.4 381.4,138.1 '/>
		<polygon fill = 'rgb( 31, 120, 180)' fill-opacity = '0.250000' points = '381.4,138.1 381.4,662.4 383.3,662.4 383.3,136.2 '/>
		<polygon fill = 'rgb( 31, 120, 180)' fill-opacity = '0.250000' points = '383.3,136.2 383.3,662.4 385.2,662.4 385.2,134.4 '/>
		<polygon fill = 'rgb( 31, 120, 180)' fill-opacity = '0.250000' points = '385.2,134.4 385.2,662.4 387.1,662.4 387.1,132.6 '/>
		<polygon fill = 'rgb( 31, 120, 180)' fill-opacity = '0.250000' points = '387.1,132.6 387.1,662.4 388.9,662.4 388.9,130.9 '/>
		<polygon fill = 'rgb( 31, 120, 180)' fill-opacity = '0.250000' points = '388.9,130.9 388.9,662.4 390.8,662.4 390.8,129.3 '/>
		<polygon fill = 'rgb( 31, 120, 180)' fill-opacity = '0.250000' points = '390.8,129.3 390.8,662.4 392.7,662.4 392.7,127.8 '/>
		<polygon fill = 'rgb( 31, 120, 180)' fill-opacity = '0.250000' points = '392.7,127.8 392.7,662.4 394.6,662.4 394.6,126.3 '/>
		<polygon fill = 'rgb( 31, 120, 180)' fill-opacity = '0.250000' points = '394.6,126.3 394.6,662.4 396.5,662.4 396.5,124.8 '/>
		<polygon fill = 'rgb( 31, 120, 180)' fill-opacity = '0.250000' points = '396.5,124.8 396.5,662.4 398.4,662.4 398.4,123.4 '/>
		<polygon fill = 'rgb( 31, 120, 180)' fill-opacity = '0.250000' points = '398.4,123.4 398.4,662.4 400.3,662.4 400.3,121.9 '/>
		<polygon fill = 'rgb( 31, 120, 180)' fill-opacity = '0.250000' points = '400.3,121.9 400.3,662.4 402.2,662.4 402.2,120.5 '/>
		<polygon fill = 'rgb( 31, 120, 180)' fill-opacity = '0.250000' points = '402.2,120.5 402.2,662.4 404.0,662.4 404.0,119.0 '/>
		<polygon fill = 'rgb( 31, 120, 180)' fill-opacity = '0.250000' points = '404.0,119.0 404.0,662.4 405.9,662.4 405.9,117.5 '/>
		<polygon fill = 'rgb( 31, 120, 180)' fill-opacity = '0.250000' points = '405.9,117.5 405.9,662.4 407.8,662.4 407.8,116.1 '/>
		<polygon fill = 'rgb( 31, 120, 180)' fill-opacity = '0.250000' points = '407.8,116.1 407.8,662.4 409.7,662.4 409.7,114.5 '/>
		<polygon fill = 'rgb( 31, 120, 180)' fill-opacity = '0.250000' points = '409.7,114.5 409.7,662.4 411.6,662.4 411.6,113.0 '/>
		<polygon fill = 'rgb( 31, 120, 180)' fill-opacity = '0.250000' points = '411.6,113.0 411.6,662.4 413.5,662.4 413.5,111.4 '/>
		<polygon fill = 'rgb( 31, 120, 180)' fill-opacity = '0.250000' points = '413.5,111.4 413.5,662.4 415.4,662.4 415.4,109.8 '/>
		<polygon fill = 'rgb( 31, 120, 180)' fill-opacity = '0.250000' points = '415.4,109.8 415.4,662.4 417.3,662.4 417.3,108.1 '/>
		<polygon fill = 'rgb( 31, 120, 180)' fill-opacity = '0.250000' points = '417.3,108.1 417.3,662.4 419.1,662.4 419.1,106.5 '/>
		<polygon fill = 'rgb( 31, 120, 180)' fill-opacity = '0.250000' points = '419.1,106.5 419.1,662.4 421.0,662.4 421.0,104.9 '/>
		<polygon fill = 'rgb( 31, 120, 180)' fill-opacity = '0.250000' points = '421.0,104.9 421.0,662.4 422.9,662.4 422.9,103.2 '/>
		<polygon fill = 'rgb( 31, 120, 180)' fill-opacity = '0.250000' points = '422.9,103.2 422.9,662.4 424.8,662.4 424.8,101.6 '/>
		<polygon fill = 'rgb( 31, 120, 180)' fill-opacity = '0.250000' points = '424.8,101.6 424.8,662.4 426.7,662.4 426.7,100.0 '/>
		<polygon fill = 'rgb( 31, 120, 180)' fill-opacity = '0.250000' points = '426.7,100.0 426.7,662.4 428.6,662.4 428.6,98.4 '/>
		<polygon fill = 'rgb( 31, 120, 180)' fill-opacity = '0.250000' points = '428.6,98.4 428.6,662.4 430.5,662.4 430.5,96.9 '/>
		<polygon fill = 'rgb( 31, 120, 180)' fill-opacity = '0.250000' points = '430.5,96.9 430.5,662.4 432.4,662.4 432.4,95.4 '/>
		<polygon fill = 'rgb( 31, 120, 180)' fill-opacity = '0.250000' points = '432.4,95.4 432.4,662.4 434.2,662.4 434.2,94.0 '/>
		<polygon fill = 'rgb( 31, 120, 180)' fill-opacity = '0.250000' points = '434.2,94.0 434.2,662.4 436.1,662.4 436.1,92.7 '/>
		<polygon fill = 'rgb( 31, 120, 180)' fill-opacity = '0.250000' points = '436.1,92.7 436.1,662.4 438.0,662.4 438.0,91.5 '/>
		<polygon fill = 'rgb( 31, 120, 180)' fill-opacity = '0.250000' points = '438.0,91.5 438.0,662.4 439.9,662.4 439.9,90.3 '/>
		<polygon fill = 'rgb( 31, 120, 180)' fill-opacity = '0.250000' points = '439.9,90.3 439.9,662.4 441.8,662.4 441.8,89.2 '/>
		<polygon fill = 'rgb( 31, 120, 180)' fill-opacity = '0.250000' points = '441.8,89.2 441.8,662.4 443.7,662.4 443.7,88.1 '/>
		<polygon fill = 'rgb( 31, 120, 180)' fill-opacity = '0.250000' points = '443.7,88.1 443.7,662.4 445.6,662.4 445.6,87.2 '/>
		<polygon fill = 'rgb( 31, 120, 180)' fill-opacity = '0.250000' points = '445.6,87.2 445.6,662.4 447.4,662.4 447.4,86.3 '/>
		<polygon fill = 'rgb( 31, 120, 180)' fill-opacity = '0.250000' points = '447.4,86.3 447.4,662.4 449.3,662.4 449.3,85.6 '/>
		<polygon fill = 'rgb( 31, 120, 180)' fill-opacity = '0.250000' points = '449.3,85.6 449.3,662.4 451.2,662.4 451.2,84.8 '/>
		<polygon fill = 'rgb( 31, 120, 180)' fill-opacity = '0.250000' points = '451.2,84.8 451.2,662.4 453.1,662.4 453.1,84.2 '/>
		<polygon fill = 'rgb( 31, 120, 180)' fill-opacity = '0.250000' points = '453.1,84.2 453.1,662.4 455.0,662.4 455.0,83.7 '/>
		<polygon fill = 'rgb( 31, 120, 180)' fill-opacity = '0.250000' points = '455.0,83.7 455.0,662.4 456.9,662.4 456.9,83.2 '/>
		<polygon fill = 'rgb( 31, 120, 180)' fill-opacity = '0.250000' points = '456.9,83.2 456.9,662.4 458.8,662.4 458.8,82.7 '/>
		<polygon fill = 'rgb( 31, 120, 180)' fill-opacity = '0.250000' points = '458.8,82.7 458.8,662.4 460.7,662.4 460.7,82.4 '/>
		<polygon fill = 'rgb( 31, 120, 180)' fill-opacity = '0.250000' points = '460.7,82.4 460.7,662.4 462.5,662.4 462.5,82.1 '/>
		<polygon fill = 'rgb( 31, 120, 180)' fill-opacity = '0.250000' points = '462.5,82.1 462.5,662.4 464.4,662.4 464.4,81.9 '/>
		<polygon fill = 'rgb( 31, 120, 180)' fill-opacity = '0.250000' points = '464.4,81.9 464.4,662.4 466.3,662.4 466.3,81.8 '/>
		<polygon fill = 'rgb( 31, 120, 180)' fill-opacity = '0.250000' points = '466.3,81.8 466.3,662.4 468.2,662.4 468.2,81.7 '/>
		<polygon fill = 'rgb( 31, 120, 180)' fill-opacity = '0.250000' points = '468.2,81.7 468.2,662.4 470.1,662.4 470.1,81.7 '/>
		<polygon fill = 'rgb( 31, 120, 180)' fill-opacity = '0.250000' points = '470.1,81.7 470.1,662.4 472.0,662.4 472.0,81.8 '/>
		<polygon fill = 'rgb( 31, 120, 180)' fill-opacity = '0.250000' points = '472.0,81.8 472.0,662.4 473.9,662.4 473.9,82.0 '/>
		<polygon fill = 'rgb( 31, 120, 180)' fill-opacity = '0.250000' points = '473.9,82.0 473.9,662.4 475.8,662.4 475.8,82.3 '/>
		<polygon fill = 'rgb( 31, 120, 180)' fill-opacity = '0.250000' points = '475.8,82.3 475.8,662.4 477.6,662.4 477.6,82.6 '/>
		<polygon fill = 'rgb( 31, 120, 180)' fill-opacity = '0.250000' points = '477.6,82.6 477.6,662.4 479.5,662.4 479.5,83.1 '/>
		<polygon fill = 'rgb( 31, 120, 180)' fill-opacity = '0.250000' points = '479.5,83.1 479.5,662.4 481.4,662.4 481.4,83.6 '/>
		<polygon fill = 'rgb( 31, 120, 180)' fill-opacity = '0.250000' points = '481.4,83.6 481.4,662.4 483.3,662.4 483.3,84.3 '/>
		<polygon fill = 'rgb( 31, 120, 180)' fill-opacity = '0.250000' points = '483.3,84.3 483.3,662.4 485.2,662.4 485.2,85.0 '/>
		<polygon fill = 'rgb( 31, 120, 180)' fill-opacity = '0.250000' points = '485.2,85.0 485.2,662.4 487.1,662.4 487.1,85.9 '/>
		<polygon fill = 'rgb( 31, 120, 180)' fill-opacity = '0.250000' points = '487.1,85.9 487.1,662.4 489.0,662.4 489.0,86.8 '/>
		<polygon fill = 'rgb( 31, 120, 180)' fill-opacity = '0.250000' points = '489.0,86.8 489.0,662.4 490.9,662.4 490.9,87.8 '/>
		<polygon fill = 'rgb( 31, 120, 180)' fill-opacity = '0.250000' points = '490.9,87.8 490.9,662.4 492.7,662.4 492.7,89.0 '/>
		<polygon fill = 'rgb( 31, 120, 180)' fill-opacity = '0.250000' points = '492.7,89.0 492.7,662.4 494.6,662.4 494.6,90.2 '/>
		<polygon fill = 'rgb( 31, 120, 180)' fill-opacity = '0.250000' points = '494.6,90.2 494.6,662.4 496.5,662.4 496.5,91.5 '/>
		<polygon fill = 'rgb( 31, 120, 180)' fill-opacity = '0.250000' points = '496.5,91.5 496.5,662.4 498.4,662.4 498.4,92.8 '/>
		<polygon fill = 'rgb( 31, 120, 180)' fill-opacity = '0.250000' points = '498.4,92.8 498.4,662.4 500.3,662.4 500.3,94.3 '/>
		<polygon fill = 'rgb( 31, 120, 180)' fill-opacity = '0.250000' points = '500.3,94.3 500.3,662.4 502.2,662.4 502.2,95.8 '/>
		<polygon fill = 'rgb( 31, 120, 180)' fill-opacity = '0.250000' points = '502.2,95.8 502.2,662.4 504.1,662.4 504.1,97.4 '/>
		<polygon fill = 'rgb( 31, 120, 180)' fill-opacity = '0.250000' points = '504.1,97.4 504.1,662.4 506.0,662.4 506.0,99.0 '/>
		<polygon fill = 'rgb( 31, 120, 180)' fill-opacity = '0.250000' points = '506.0,99.0 506.0,662.4 507.8,662.4 507.8,100.6 '/>
		<polygon fill = 'rgb( 31, 120, 180)' fill-opacity = '0.250000' points = '507.8,100.6 507.8,662.4 509.7,662.4 509.7,102.3 '/>
		<polygon fill = 'rgb( 31, 120, 180)' fill-opacity = '0.250000' points = '509.7,102.3 509.7,662.4 511.6,662.4 511.6,104.0 '/>
		<polygon fill = 'rgb( 31, 120, 180)' fill-opacity = '0.250000' points = '511.6,104.0 511.6,662.4 513.5,662.4 513.5,105.7 '/>
		<polygon fill = 'rgb( 31, 120, 180)' fill-opacity = '0.250000' points = '513.5,105.7 513.5,662.4 515.4,662.4 515.4,107.4 '/>
		<polygon fill = 'rgb( 31, 120, 180)' fill-opacity = '0.250000' points = '515.4,107.4 515.4,662.4 517.3,662.4 517.3,109.2 '/>
		<polygon fill = 'rgb( 31, 120, 180)' fill-opacity = '0.250000' points = '517.3,109.2 517.3,662.4 519.2,662.4 519.2,110.9 '/>
		<polygon fill = 'rgb( 31, 120, 180)' fill-opacity = '0.250000' points = '519.2,110.9 519.2,662.4 521.0,662.4 521.0,112.6 '/>
		<polygon fill = 'rgb( 31, 120, 180)' fill-opacity = '0.250000' points = '521.0,112.6 521.0,662.4 522.9,662.4 522.9,114.3 '/>
		<polygon fill = 'rgb( 31, 120, 180)' fill-opacity = '0.250000' points = '522.9,114.3 522.9,662.4 524.8,662.4 524.8,115.9 '/>
		<polygon fill = 'rgb( 31, 120, 180)' fill-opacity = '0.250000' points = '524.8,115.9 524.8,662.4 526.7,662.4 526.7,117.6 '/>
		<polygon fill = 'rgb( 31, 120, 180)' fill-opacity = '0.250000' points = '526.7,117.6 526.7,662.4 528.6,662.4 528.6,119.2 '/>
		<polygon fill = 'rgb( 31, 120, 180)' fill-opacity = '0.250000' points = '528.6,119.2 528.6,662.4 530.5,662.4 530.5,120.9 '/>
		<polygon fill = 'rgb( 31, 120, 180)' fill-opacity = '0.250000' points = '530.5,120.9 530.5,662.4 532.4,662.4 532.4,122.5 '/>
		<polygon fill = 'rgb( 31, 120, 180)' fill-opacity = '0.250000' points = '532.4,122.5 532.4,662.4 534.3,662.4 534.3,124.2 '/>
		<polygon fill = 'rgb( 31, 120, 180)' fill-opacity = '0.250000' points = '534.3,124.2 534.3,662.4 536.1,662.4 536.1,125.9 '/>
		<polygon fill = 'rgb( 31, 120, 180)' fill-opacity = '0.250000' points = '536.1,125.9 536.1,662.4 538.0,662.4 538.0,127.6 '/>
		<polygon fill = 'rgb( 31, 120, 180)' fill-opacity = '0.250000' points = '538.0,127.6 538.0,662.4 539.9,662.4 539.9,129.3 '/>
		<polygon fill = 'rgb( 31, 120, 180)' fill-opacity = '0.250000' points = '539.9,129.3 539.9,662.4 541.8,662.4 541.8,131.1 '/>
		<polygon fill = 'rgb( 31, 120, 180)' fill-opacity = '0.250000' points = '541.8,131.1 541.8,662.4 543.7,662.4 543.7,132.9 '/>
		<polygon fill = 'rgb( 31, 120, 180)' fill-opacity = '0.250000' points = '543.7,132.9 543.7,662.4 545.6,662.4 545.6,134.8 '/>
		<polygon fill = 'rgb( 31, 120, 180)' fill-opacity = '0.250000' points = '545.6,134.8 545.6,662.4 547.5,662.4 547.5,136.8 '/>
		<polygon fill = 'rgb( 31, 120, 180)' fill-opacity = '0.250000' points = '547.5,136.8 547.5,662.4 549.4,662.4 549.4,138.8 '/>
		<polygon fill = 'rgb( 31, 120, 180)' fill-opacity = '0.250000' points = '549.4,138.8 549.4,662.4 551.2,662.4 551.2,140.9 '/>
		<polygon fill = 'rgb( 31, 120, 180)' fill-opacity = '0.250000' points = '551.2,140.9 551.2,662.4 553.1,662.4 553.1,143.1 '/>
		<polygon fill = 'rgb( 31, 120, 180)' fill-opacity = '0.250000' points = '553.1,143.1 553.1,662.4 555.0,662.4 555.0,145.4 '/>
		<polygon fill = 'rgb( 31, 120, 180)' fill-opacity = '0.250000' points = '555.0,145.4 555.0,662.4 556.9,662.4 556.9,147.7 '/>
		<polygon fill = 'rgb( 31, 120, 180)' fill-opacity = '0.250000' points = '556.9,147.7 556.9,662.4 558.8,662.4 558.8,150.2 '/>
		<polygon fill = 'rgb( 31, 120, 180)' fill-opacity = '0.250000' points = '558.8,150.2 558.8,662.4 560.7,662.4 560.7,152.7 '/>
		<polygon fill = 'rgb( 31, 120, 180)' fill-opacity = '0.250000' points = '560.7,152.7 560.7,662.4 562.6,662.4 562.6,155.2 '/>
		<polygon fill = 'rgb( 31, 120, 180)' fill-opacity = '0.250000' points = '562.6,155.2 562.6,662.4 564.5,662.4 564.5,157.9 '/>
		<polygon fill = 'rgb( 31, 120, 180)' fill-opacity = '0.250000' points = '564.5,157.9 564.5,662.4 566.3,662.4 566.3,160.5 '/>
		<polygon fill = 'rgb( 31, 120, 180)' fill-opacity = '0.250000' points = '566.3,160.5 566.3,662.4 568.2,662.4 568.2,163.3 '/>
		<polygon fill = 'rgb( 31, 120, 180)' fill-opacity = '0.250000' points = '568.2,163.3 568.2,662.4 570.1,662.4 570.1,166.0 '/>
		<polygon fill = 'rgb( 31, 120, 180)' fill-opacity = '0.250000' points = '570.1,166.0 570.1,662.4 572.0,662.4 572.0,168.8 '/>
		<polygon fill = 'rgb( 31, 120, 180)' fill-opacity = '0.250000' points = '572.0,168.8 572.0,662.4 573.9,662.4 573.9,171.6 '/>
		<polygon fill = 'rgb( 31, 120, 180)' fill-opacity = '0.250000' points = '573.9,171.6 573.9,662.4 575.8,662.4 575.8,174.5 '/>
		<polygon fill = 'rgb( 31, 120, 180)' fill-opacity = '0.250000' points = '575.8,174.5 575.8,662.4 577.7,662.4 577.7,177.3 '/>
		<polygon fill = 'rgb( 31, 120, 180)' fill-opacity = '0.250000' points = '577.7,177.3 577.7,662.4 579.5,662.4 579.5,180.2 '/>
		<polygon fill = 'rgb( 31, 120, 180)' fill-opacity = '0.250000' points = '579.5,180.2 579.5,662.4 581.4,662.4 581.4,183.1 '/>
		<polygon fill = 'rgb( 31, 120, 180)' fill-opacity = '0.250000' points = '581.4,183.1 581.4,662.4 583.3,662.4 583.3,186.0 '/>
		<polygon fill = 'rgb( 31, 120, 180)' fill-opacity = '0.250000' points = '583.3,186.0 583.3,662.4 585.2,662.4 585.2,188.9 '/>
		<polygon fill = 'rgb( 31, 120, 180)' fill-opacity = '0.250000' points = '585.2,188.9 585.2,662.4 587.1,662.4 587.1,191.8 '/>
		<polygon fill = 'rgb( 31, 120, 180)' fill-opacity = '0.250000' points = '587.1,191.8 587.1,662.4 589.0,662.4 589.0,194.8 '/>
		<polygon fill = 'rgb( 31, 120, 180)' fill-opacity = '0.250000' points = '589.0,194.8 589.0,662.4 590.9,662.4 590.9,197.7 '/>
		<polygon fill = 'rgb( 31, 120, 180)' fill-opacity = '0.250000' points = '590.9,197.7 590.9,662.4 592.8,662.4 592.8,200.7 '/>
		<polygon fill = 'rgb( 31, 120, 180)' fill-opacity = '0.250000' points = '592.8,200.7 592.8,662.4 594.6,662.4 594.6,203.7 '/>
		<polygon fill = 'rgb( 31, 120, 180)' fill-opacity = '0.250000' points = '594.6,203.7 594.6,662.4 596.5,662.4 596.5,206.7 '/>
		<polygon fill = 'rgb( 31, 120, 180)' fill-opacity = '0.250000' points = '596.5,206.7 596.5,662.4 598.4,662.4 598.4,209.8 '/>
		<polygon fill = 'rgb( 31, 120, 180)' fill-opacity = '0.250000' points = '598.4,209.8 598.4,662.4 600.3,662.4 600.3,212.9 '/>
		<polygon fill = 'rgb( 31, 120, 180)' fill-opacity = '0.250000' points = '600.3,212.9 600.3,662.4 602.2,662.4 602.2,216.0 '/>
		<polygon fill = 'rgb( 31, 120, 180)' fill-opacity = '0.250000' points = '602.2,216.0 602.2,662.4 604.1,662.4 604.1,219.1 '/>
		<polygon fill = 'rgb( 31, 120, 180)' fill-opacity = '0.250000' points = '604.1,219.1 604.1,662.4 606.0,662.4 606.0,222.3 '/>
		<polygon fill = 'rgb( 31, 120, 180)' fill-opacity = '0.250000' points = '606.0,222.3 606.0,662.4 607.9,662.4 607.9,225.4 '/>
		<polygon fill = 'rgb( 31, 120, 180)' fill-opacity = '0.250000' points = '607.9,225.4 607.9,662.4 609.7,662.4 609.7,228.6 '/>
		<polygon fill = 'rgb( 31, 120, 180)' fill-opacity = '0.250000' points = '609.7,228.6 609.7,662.4 611.6,662.4 611.6,231.8 '/>
		<polygon fill = 'rgb( 31, 120, 180)' fill-opacity = '0.250000' points = '611.6,231.8 611.6,662.4 613.5,662.4 613.5,234.9 '/>
		<polygon fill = 'rgb( 31, 120, 180)' fill-opacity = '0.250000' points = '613.5,234.9 613.5,662.4 615.4,662.4 615.4,238.1 '/>
		<polygon fill = 'rgb( 31, 120, 180)' fill-opacity = '0.250000' points = '615.4,238.1 615.4,662.4 617.3,662.4 617.3,241.3 '/>
		<polygon fill = 'rgb( 31, 120, 180)' fill-opacity = '0.250000' points = '617.3,241.3 617.3,662.4 619.2,662.4 619.2,244.4 '/>
		<polygon fill = 'rgb( 31, 120, 180)' fill-opacity = '0.250000' points = '619.2,244.4 619.2,662.4 621.1,662.4 621.1,247.5 '/>
		<polygon fill = 'rgb( 31, 120, 180)' fill-opacity = '0.250000' points = '621.1,247.5 621.1,662.4 623.0,662.4 623.0,250.6 '/>
		<polygon fill = 'rgb( 31, 120, 180)' fill-opacity = '0.250000' points = '623.0,250.6 623.0,662.4 624.8,662.4 624.8,253.6 '/>
		<polygon fill = 'rgb( 31, 120, 180)' fill-opacity = '0.250000' points = '624.8,253.6 624.8,662.4 626.7,662.4 626.7,256.6 '/>
		<polygon fill = 'rgb( 31, 120, 180)' fill-opacity = '0.250000' points = '626.7,256.6 626.7,662.4 628.6,662.4 628.6,259.6 '/>
		<polygon fill = 'rgb( 31, 120, 180)' fill-opacity = '0.250000' points = '628.6,259.6 628.6,662.4 630.5,662.4 630.5,262.5 '/>
		<polygon fill = 'rgb( 31, 120, 180)' fill-opacity = '0.250000' points = '630.5,262.5 630.5,662.4 632.4,662.4 632.4,265.4 '/>
		<polygon fill = 'rgb( 31, 120, 180)' fill-opacity = '0.250000' points = '632.4,265.4 632.4,662.4 634.3,662.4 634.3,268.3 '/>
		<polygon fill = 'rgb( 31, 120, 180)' fill-opacity = '0.250000' points = '634.3,268.3 634.3,662.4 636.2,662.4 636.2,271.2 '/>
		<polygon fill = 'rgb( 31, 120, 180)' fill-opacity = '0.250000' points = '636.2,271.2 636.2,662.4 638.1,662.4 638.1,274.0 '/>
		<polygon fill = 'rgb( 31, 120, 180)' fill-opacity = '0.250000' points = '638.1,274.0 638.1,662.4 639.9,662.4 639.9,276.8 '/>
		<polygon fill = 'rgb( 31, 120, 180)' fill-opacity = '0.250000' points = '639.9,276.8 639.9,662.4 641.8,662.4 641.8,279.6 '/>
		<polygon fill = 'rgb( 31, 120, 180)' fill-opacity = '0.250000' points = '641.8,279.6 641.8,662.4 643.7,662.4 643.7,282.4 '/>
		<polygon fill = 'rgb( 31, 120, 180)' fill-opacity = '0.250000' points = '643.7,282.4 643.7,662.4 645.6,662.4 645.6,285.3 '/>
		<polygon fill = 'rgb( 31, 120, 180)' fill-opacity = '0.250000' points = '645.6,285.3 645.6,662.4 647.5,662.4 647.5,288.1 '/>
		<polygon fill = 'rgb( 31, 120, 180)' fill-opacity = '0.250000' points = '647.5,288.1 647.5,662.4 649.4,662.4 649.4,290.9 '/>
		<polygon fill = 'rgb( 31, 120, 180)' fill-opacity = '0.250000' points = '649.4,290.9 649.4,662.4 651.3,662.4 651.3,293.7 '/>
		<polygon fill = 'rgb( 31, 120, 180)' fill-opacity = '0.250000' points = '651.3,293.7 651.3,662.4 653.1,662.4 653.1,296.6 '/>
		<polygon fill = 'rgb( 31, 120, 180)' fill-opacity = '0.250000' points = '653.1,296.6 653.1,662.4 655.0,662.4 655.0,299.5 '/>
		<polygon fill = 'rgb( 31, 120, 180)' fill-opacity = '0.250000' points = '655.0,299.5 655.0,662.4 656.9,662.4 656.9,302.3 '/>
		<polygon fill = 'rgb( 31, 120, 180)' fill-opacity = '0.250000' points = '656.9,302.3 656.9,662.4 658.8,662.4 658.8,305.2 '/>
		<polygon fill = 'rgb( 31, 120, 180)' fill-opacity = '0.250000' points = '658.8,305.2 658.8,662.4 660.7,662.4 660.7,308.1 '/>
		<polygon fill = 'rgb( 31, 120, 180)' fill-opacity = '0.250000' points = '660.7,308.1 660.7,662.4 662.6,662.4 662.6,311.0 '/>
		<polygon fill = 'rgb( 31, 120, 180)' fill-opacity = '0.250000' points = '662.6,311.0 662.6,662.4 664.5,662.4 664.5,313.9 '/>
		<polygon fill = 'rgb( 31, 120, 180)' fill-opacity = '0.250000' points = '664.5,313.9 664.5,662.4 666.4,662.4 666.4,316.8 '/>
		<polygon fill = 'rgb( 31, 120, 180)' fill-opacity = '0.250000' points = '666.4,316.8 666.4,662.4 668.2,662.4 668.2,319.7 '/>
		<polygon fill = 'rgb( 31, 120, 180)' fill-opacity = '0.250000' points = '668.2,319.7 668.2,662.4 670.1,662.4 670.1,322.5 '/>
		<polygon fill = 'rgb( 31, 120, 180)' fill-opacity = '0.250000' points = '670.1,322.5 670.1,662.4 672.0,662.4 672.0,325.4 '/>
		<polygon fill = 'rgb( 31, 120, 180)' fill-opacity = '0.250000' points = '672.0,325.4 672.0,662.4 673.9,662.4 673.9,328.2 '/>
		<polygon fill = 'rgb( 31, 120, 180)' fill-opacity = '0.250000' points = '673.9,328.2 673.9,662.4 675.8,662.4 675.8,331.0 '/>
		<polygon fill = 'rgb( 31, 120, 180)' fill-opacity = '0.250000' points = '675.8,331.0 675.8,662.4 677.7,662.4 677.7,333.8 '/>
		<polygon fill = 'rgb( 31, 120, 180)' fill-opacity = '0.250000' points = '677.7,333.8 677.7,662.4 679.6,662.4 679.6,336.5 '/>
		<polygon fill = 'rgb( 31, 120, 180)' fill-opacity = '0.250000' points = '679.6,336.5 679.6,662.4 681.5,662.4 681.5,339.2 '/>
		<polygon fill = 'rgb( 31, 120, 180)' fill-opacity = '0.250000' points = '681.5,339.2 681.5,662.4 683.3,662.4 683.3,341.9 '/>
		<polygon fill = 'rgb( 31, 120, 180)' fill-opacity = '0.250000' points = '683.3,341.9 683.3,662.4 685.2,662.4 685.2,344.6 '/>
		<polygon fill = 'rgb( 31, 120, 180)' fill-opacity = '0.250000' points = '685.2,344.6 685.2,662.4 687.1,662.4 687.1,347.2 '/>
		<polygon fill = 'rgb( 31, 120, 180)' fill-opacity = '0.250000' points = '687.1,347.2 687.1,662.4 689.0,662.4 689.0,349.8 '/>
		<polygon fill = 'rgb( 31, 120, 180)' fill-opacity = '0.250000' points = '689.0,349.8 689.0,662.4 690.9,662.4 690.9,352.5 '/>
		<polygon fill = 'rgb( 31, 120, 180)' fill-opacity = '0.250000' points = '690.9,352.5 690.9,662.4 692.8,662.4 692.8,355.1 '/>
		<polygon fill = 'rgb( 31, 120, 180)' fill-opacity = '0.250000' points = '692.8,355.1 692.8,662.4 694.7,662.4 694.7,357.6 '/>
		<polygon fill = 'rgb( 31, 120, 180)' fill-opacity = '0.250000' points = '694.7,357.6 694.7,662.4 696.6,662.4 696.6,360.2 '/>
		<polygon fill = 'rgb( 31, 120, 180)' fill-opacity = '0.250000' points = '696.6,360.2 696.6,662.4 698.4,662.4 698.4,362.8 '/>
		<polygon fill = 'rgb( 31, 120, 180)' fill-opacity = '0.250000' points = '698.4,362.8 698.4,662.4 700.3,662.4 700.3,365.4 '/>
		<polygon fill = 'rgb( 31, 120, 180)' fill-opacity = '0.250000' points = '700.3,365.4 700.3,662.4 702.2,662.4 702.2,368.0 '/>
		<polygon fill = 'rgb( 31, 120, 180)' fill-opacity = '0.250000' points = '702.2,368.0 702.2,662.4 704.1,662.4 704.1,370.7 '/>
		<polygon fill = 'rgb( 31, 120, 180)' fill-opacity = '0.250000' points = '704.1,370.7 704.1,662.4 706.0,662.4 706.0,373.3 '/>
		<polygon fill = 'rgb( 31, 120, 180)' fill-opacity = '0.250000' points = '706.0,373.3 706.0,662.4 707.9,662.4 707.9,376.0 '/>
		<polygon fill = 'rgb( 31, 120, 180)' fill-opacity = '0.250000' points = '707.9,376.0 707.9,662.4 709.8,662.4 709.8,378.7 '/>
		<polygon fill = 'rgb( 31, 120, 180)' fill-opacity = '0.250000' points = '709.8,378.7 709.8,662.4 711.7,662.4 711.7,381.4 '/>
		<polygon fill = 'rgb( 31, 120, 180)' fill-opacity = '0.250000' points = '711.7,381.4 711.7,662.4 713.5,662.4 713.5,384.2 '/>
		<polygon fill = 'rgb( 31, 120, 180)' fill-opacity = '0.250000' points = '713.5,384.2 713.5,662.4 715.4,662.4 715.4,387.0 '/>
		<polygon fill = 'rgb( 31, 120, 180)' fill-opacity = '0.250000' points = '715.4,387.0 715.4,662.4 717.3,662.4 717.3,389.8 '/>
		<polygon fill = 'rgb( 31, 120, 180)' fill-opacity = '0.250000' points = '717.3,389.8 717.3,662.4 719.2,662.4 719.2,392.7 '/>
		<polygon fill = 'rgb( 31, 120, 180)' fill-opacity = '0.250000' points = '719.2,392.7 719.2,662.4 721.1,662.4 721.1,395.6 '/>
		<polygon fill = 'rgb( 31, 120, 180)' fill-opacity = '0.250000' points = '721.1,395.6 721.1,662.4 723.0,662.4 723.0,398.5 '/>
		<polygon fill = 'rgb( 31, 120, 180)' fill-opacity = '0.250000' points = '723.0,398.5 723.0,662.4 724.9,662.4 724.9,401.4 '/>
		<polygon fill = 'rgb( 31, 120, 180)' fill-opacity = '0.250000' points = '724.9,401.4 724.9,662.4 726.7,662.4 726.7,404.3 '/>
		<polygon fill = 'rgb( 31, 120, 180)' fill-opacity = '0.250000' points = '726.7,404.3 726.7,662.4 728.6,662.4 728.6,407.3 '/>
		<polygon fill = 'rgb( 31, 120, 180)' fill-opacity = '0.250000' points = '728.6,407.3 728.6,662.4 730.5,662.4 730.5,410.2 '/>
		<polygon fill = 'rgb( 31, 120, 180)' fill-opacity = '0.250000' points = '730.5,410.2 730.5,662.4 732.4,662.4 732.4,413.2 '/>
		<polygon fill = 'rgb( 31, 120, 180)' fill-opacity = '0.250000' points = '732.4,413.2 732.4,662.4 734.3,662.4 734.3,416.1 '/>
		<polygon fill = 'rgb( 31, 120, 180)' fill-opacity = '0.250000' points = '734.3,416.1 734.3,662.4 736.2,662.4 736.2,419.0 '/>
		<polygon fill = 'rgb( 31, 120, 180)' fill-opacity = '0.250000' points = '736.2,419.0 736.2,662.4 738.1,662.4 738.1,421.9 '/>
		<polygon fill = 'rgb( 31, 120, 180)' fill-opacity = '0.250000' points = '738.1,421.9 738.1,662.4 740.0,662.4 740.0,424.8 '/>
		<polygon fill = 'rgb( 31, 120, 180)' fill-opacity = '0.250000' points = '740.0,424.8 740.0,662.4 741.8,662.4 741.8,427.6 '/>
		<polygon fill = 'rgb( 31, 120, 180)' fill-opacity = '0.250000' points = '741.8,427.6 741.8,662.4 743.7,662.4 743.7,430.4 '/>
		<polygon fill = 'rgb( 31, 120, 180)' fill-opacity = '0.250000' points = '743.7,430.4 743.7,662.4 745.6,662.4 745.6,433.1 '/>
		<polygon fill = 'rgb( 31, 120, 180)' fill-opacity = '0.250000' points = '745.6,433.1 745.6,662.4 747.5,662.4 747.5,435.8 '/>
		<polygon fill = 'rgb( 31, 120, 180)' fill-opacity = '0.250000' points = '747.5,435.8 747.5,662.4 749.4,662.4 749.4,438.5 '/>
		<polygon fill = 'rgb( 31, 120, 180)' fill-opacity = '0.250000' points = '749.4,438.5 749.4,662.4 751.3,662.4 751.3,441.1 '/>
		<polygon fill = 'rgb( 31, 120, 180)' fill-opacity = '0.250000' points = '751.3,441.1 751.3,662.4 753.2,662.4 753.2,443.6 '/>
		<polygon fill = 'rgb( 31, 120, 180)' fill-opacity = '0.250000' points = '753.2,443.6 753.2,662.4 755.1,662.4 755.1,446.0 '/>
		<polygon fill = 'rgb( 31, 120, 180)' fill-opacity = '0.250000' points = '755.1,446.0 755.1,662.4 756.9,662.4 756.9,448.5 '/>
		<polygon fill = 'rgb( 31, 120, 180)' fill-opacity = '0.250000' points = '756.9,448.5 756.9,662.4 758.8,662.4 758.8,450.8 '/>
		<polygon fill = 'rgb( 31, 120, 180)' fill-opacity = '0.250000' points = '758.8,450.8 758.8,662.4 760.7,662.4 760.7,453.1 '/>
		<polygon fill = 'rgb( 31, 120, 180)' fill-opacity = '0.250000' points = '760.7,453.1 760.7,662.4 762.6,662.4 762.6,455.3 '/>
		<polygon fill = 'rgb( 31, 120, 180)' fill-opacity = '0.250000' points = '762.6,455.3 762.6,662.4 764.5,662.4 764.5,457.5 '/>
		<polygon fill = 'rgb( 31, 120, 180)' fill-opacity = '0.250000' points = '764.5,457.5 764.5,662.4 766.4,662.4 766.4,459.7 '/>
		<polygon fill = 'rgb( 31, 120, 180)' fill-opacity = '0.250000' points = '766.4,459.7 766.4,662.4 768.3,662.4 768.3,461.8 '/>
		<polygon fill = 'rgb( 31, 120, 180)' fill-opacity = '0.250000' points = '768.3,461.8 768.3,662.4 770.2,662.4 770.2,463.9 '/>
		<polygon fill = 'rgb( 31, 120, 180)' fill-opacity = '0.250000' points = '770.2,463.9 770.2,662.4 772.0,662.4 772.0,465.9 '/>
		<polygon fill = 'rgb( 31, 120, 180)' fill-opacity = '0.250000' points = '772.0,465.9 772.0,662.4 773.9,662.4 773.9,467.9 '/>
		<polygon fill = 'rgb( 31, 120, 180)' fill-opacity = '0.250000' points = '773.9,467.9 773.9,662.4 775.8,662.4 775.8,469.9 '/>
		<polygon fill = 'rgb( 31, 120, 180)' fill-opacity = '0.250000' points = '775.8,469.9 775.8,662.4 777.7,662.4 777.7,471.9 '/>
		<polygon fill = 'rgb( 31, 120, 180)' fill-opacity = '0.250000' points = '777.7,471.9 777.7,662.4 779.6,662.4 779.6,473.8 '/>
		<polygon fill = 'rgb( 31, 120, 180)' fill-opacity = '0.250000' points = '779.6,473.8 779.6,662.4 781.5,662.4 781.5,475.8 '/>
		<polygon fill = 'rgb( 31, 120, 180)' fill-opacity = '0.250000' points = '781.5,475.8 781.5,662.4 783.4,662.4 783.4,477.7 '/>
		<polygon fill = 'rgb( 31, 120, 180)' fill-opacity = '0.250000' points = '783.4,477.7 783.4,662.4 785.3,662.4 785.3,479.7 '/>
		<polygon fill = 'rgb( 31, 120, 180)' fill-opacity = '0.250000' points = '785.3,479.7 785.3,662.4 787.1,662.4 787.1,481.6 '/>
		<polygon fill = 'rgb( 31, 120, 180)' fill-opacity = '0.250000' points = '787.1,481.6 787.1,662.4 789.0,662.4 789.0,483.6 '/>
		<polygon fill = 'rgb( 31, 120, 180)' fill-opacity = '0.250000' points = '789.0,483.6 789.0,662.4 790.9,662.4 790.9,485.5 '/>
		<polygon fill = 'rgb( 31, 120, 180)' fill-opacity = '0.250000' points = '790.9,485.5 790.9,662.4 792.8,662.4 792.8,487.5 '/>
		<polygon fill = 'rgb( 31, 120, 180)' fill-opacity = '0.250000' points = '792.8,487.5 792.8,662.4 794.7,662.4 794.7,489.5 '/>
		<polygon fill = 'rgb( 31, 120, 180)' fill-opacity = '0.250000' points = '794.7,489.5 794.7,662.4 796.6,662.4 796.6,491.5 '/>
		<polygon fill = 'rgb( 31, 120, 180)' fill-opacity = '0.250000' points = '796.6,491.5 796.6,662.4 798.5,662.4 798.5,493.5 '/>
		<polygon fill = 'rgb( 31, 120, 180)' fill-opacity = '0.250000' points = '798.5,493.5 798.5,662.4 800.3,662.4 800.3,495.5 '/>
		<polygon fill = 'rgb( 31, 120, 180)' fill-opacity = '0.250000' points = '800.3,495.5 800.3,662.4 802.2,662.4 802.2,497.6 '/>
		<polygon fill = 'rgb( 31, 120, 180)' fill-opacity = '0.250000' points = '802.2,497.6 802.2,662.4 804.1,662.4 804.1,499.6 '/>
		<polygon fill = 'rgb( 31, 120, 180)' fill-opacity = '0.250000' points = '804.1,499.6 804.1,662.4 806.0,662.4 806.0,501.7 '/>
		<polygon fill = 'rgb( 31, 120, 180)' fill-opacity = '0.250000' points = '806.0,501.7 806.0,662.4 807.9,662.4 807.9,503.8 '/>
		<polygon fill = 'rgb( 31, 120, 180)' fill-opacity = '0.250000' points = '807.9,503.8 807.9,662.4 809.8,662.4 809.8,505.9 '/>
		<polygon fill = 'rgb( 31, 120, 180)' fill-opacity = '0.250000' points = '809.8,505.9 809.8,662.4 811.7,662.4 811.7,508.0 '/>
		<polygon fill = 'rgb( 31, 120, 180)' fill-opacity = '0.250000' points = '811.7,508.0 811.7,662.4 813.6,662.4 813.6,510.1 '/>
		<polygon fill = 'rgb( 31, 120, 180)' fill-opacity = '0.250000' points = '813.6,510.1 813.6,662.4 815.4,662.4 815.4,512.2 '/>
		<polygon fill = 'rgb( 31, 120, 180)' fill-opacity = '0.250000' points = '815.4,512.2 815.4,662.4 817.3,662.4 817.3,514.4 '/>
		<polygon fill = 'rgb( 31, 120, 180)' fill-opacity = '0.250000' points = '817.3,514.4 817.3,662.4 819.2,662.4 819.2,516.5 '/>
		<polygon fill = 'rgb( 31, 120, 180)' fill-opacity = '0.250000' points = '819.2,516.5 819.2,662.4 821.1,662.4 821.1,518.6 '/>
		<polygon fill = 'rgb( 31, 120, 180)' fill-opacity = '0.250000' points = '821.1,518.6 821.1,662.4 823.0,662.4 823.0,520.7 '/>
		<polygon fill = 'rgb( 31, 120, 180)' fill-opacity = '0.250000' points = '823.0,520.7 823.0,662.4 824.9,662.4 824.9,522.8 '/>
		<polygon fill = 'rgb( 31, 120, 180)' fill-opacity = '0.250000' points = '824.9,522.8 824.9,662.4 826.8,662.4 826.8,524.9 '/>
		<polygon fill = 'rgb( 31, 120, 180)' fill-opacity = '0.250000' points = '826.8,524.9 826.8,662.4 828.7,662.4 828.7,527.0 '/>
		<polygon fill = 'rgb( 31, 120, 180)' fill-opacity = '0.250000' points = '828.7,527.0 828.7,662.4 830.5,662.4 830.5,529.0 '/>
		<polygon fill = 'rgb( 31, 120, 180)' fill-opacity = '0.250000' points = '830.5,529.0 830.5,662.4 832.4,662.4 832.4,531.0 '/>
		<polygon fill = 'rgb( 31, 120, 180)' fill-opacity = '0.250000' points = '832.4,531.0 832.4,662.4 834.3,662.4 834.3,533.0 '/>
		<polygon fill = 'rgb( 31, 120, 180)' fill-opacity = '0.250000' points = '834.3,533.0 834.3,662.4 836.2,662.4 836.2,535.0 '/>
		<polygon fill = 'rgb( 31, 120, 180)' fill-opacity = '0.250000' points = '836.2,535.0 836.2,662.4 838.1,662.4 838.1,536.9 '/>
		<polygon fill = 'rgb( 31, 120, 180)' fill-opacity = '0.250000' points = '838.1,536.9 838.1,662.4 840.0,662.4 840.0,538.8 '/>
		<polygon fill = 'rgb( 31, 120, 180)' fill-opacity = '0.250000' points = '840.0,538.8 840.0,662.4 841.9,662.4 841.9,540.7 '/>
		<polygon fill = 'rgb( 31, 120, 180)' fill-opacity = '0.250000' points = '841.9,540.7 841.9,662.4 843.8,662.4 843.8,542.5 '/>
		<polygon fill = 'rgb( 31, 120, 180)' fill-opacity = '0.250000' points = '843.8,542.5 843.8,662.4 845.6,662.4 845.6,544.3 '/>
		<polygon fill = 'rgb( 31, 120, 180)' fill-opacity = '0.250000' points = '845.6,544.3 845.6,662.4 847.5,662.4 847.5,546.0 '/>
		<polygon fill = 'rgb( 31, 120, 180)' fill-opacity = '0.250000' points = '847.5,546.0 847.5,662.4 849.4,662.4 849.4,547.8 '/>
		<polygon fill = 'rgb( 31, 120, 180)' fill-opacity = '0.250000' points = '849.4,547.8 849.4,662.4 851.3,662.4 851.3,549.5 '/>
		<polygon fill = 'rgb( 31, 120, 180)' fill-opacity = '0.250000' points = '851.3,549.5 851.3,662.4 853.2,662.4 853.2,551.1 '/>
		<polygon fill = 'rgb( 31, 120, 180)' fill-opacity = '0.250000' points = '853.2,551.1 853.2,662.4 855.1,662.4 855.1,552.7 '/>
		<polygon fill = 'rgb( 31, 120, 180)' fill-opacity = '0.250000' points = '855.1,552.7 855.1,662.4 857.0,662.4 857.0,554.3 '/>
		<polygon fill = 'rgb( 31, 120, 180)' fill-opacity = '0.250000' points = '857.0,554.3 857.0,662.4 858.9,662.4 858.9,555.9 '/>
		<polygon fill = 'rgb( 31, 120, 180)' fill-opacity = '0.250000' points = '858.9,555.9 858.9,662.4 860.7,662.4 860.7,557.4 '/>
		<polygon fill = 'rgb( 31, 120, 180)' fill-opacity = '0.250000' points = '860.7,557.4 860.7,662.4 862.6,662.4 862.6,558.9 '/>
		<polygon fill = 'rgb( 31, 120, 180)' fill-opacity = '0.250000' points = '862.6,558.9 862.6,662.4 864.5,662.4 864.5,560.3 '/>
		<polygon fill = 'rgb( 31, 120, 180)' fill-opacity = '0.250000' points = '864.5,560.3 864.5,662.4 866.4,662.4 866.4,561.7 '/>
		<polygon fill = 'rgb( 31, 120, 180)' fill-opacity = '0.250000' points = '866.4,561.7 866.4,662.4 868.3,662.4 868.3,563.1 '/>
		<polygon fill = 'rgb( 31, 120, 180)' fill-opacity = '0.250000' points = '868.3,563.1 868.3,662.4 870.2,662.4 870.2,564.4 '/>
		<polygon fill = 'rgb( 31, 120, 180)' fill-opacity = '0.250000' points = '870.2,564.4 870.2,662.4 872.1,662.4 872.1,565.7 '/>
		<polygon fill = 'rgb( 31, 120, 180)' fill-opacity = '0.250000' points = '872.1,565.7 872.1,662.4 873.9,662.4 873.9,567.0 '/>
		<polygon fill = 'rgb( 31, 120, 180)' fill-opacity = '0.250000' points = '873.9,567.0 873.9,662.4 875.8,662.4 875.8,568.3 '/>
		<polygon fill = 'rgb( 31, 120, 180)' fill-opacity = '0.250000' points = '875.8,568.3 875.8,662.4 877.7,662.4 877.7,569.5 '/>
		<polygon fill = 'rgb( 31, 120, 180)' fill-opacity = '0.250000' points = '877.7,569.5 877.7,662.4 879.6,662.4 879.6,570.7 '/>
		<polygon fill = 'rgb( 31, 120, 180)' fill-opacity = '0.250000' points = '879.6,570.7 879.6,662.4 881.5,662.4 881.5,571.8 '/>
		<polygon fill = 'rgb( 31, 120, 180)' fill-opacity = '0.250000' points = '881.5,571.8 881.5,662.4 883.4,662.4 883.4,573.0 '/>
		<polygon fill = 'rgb( 31, 120, 180)' fill-opacity = '0.250000' points = '883.4,573.0 883.4,662.4 885.3,662.4 885.3,574.1 '/>
		<polygon fill = 'rgb( 31, 120, 180)' fill-opacity = '0.250000' points = '885.3,574.1 885.3,662.4 887.2,662.4 887.2,575.2 '/>
		<polygon fill = 'rgb( 31, 120, 180)' fill-opacity = '0.250000' points = '887.2,575.2 887.2,662.4 889.0,662.4 889.0,576.2 '/>
		<polygon fill = 'rgb( 31, 120, 180)' fill-opacity = '0.250000' points = '889.0,576.2 889.0,662.4 890.9,662.4 890.9,577.3 '/>
		<polygon fill = 'rgb( 31, 120, 180)' fill-opacity = '0.250000' points = '890.9,577.3 890.9,662.4 892.8,662.4 892.8,578.3 '/>
		<polygon fill = 'rgb( 31, 120, 180)' fill-opacity = '0.250000' points = '892.8,578.3 892.8,662.4 894.7,662.4 894.7,579.4 '/>
		<polygon fill = 'rgb( 31, 120, 180)' fill-opacity = '0.250000' points = '894.7,579.4 894.7,662.4 896.6,662.4 896.6,580.4 '/>
		<polygon fill = 'rgb( 31, 120, 180)' fill-opacity = '0.250000' points = '896.6,580.4 896.6,662.4 898.5,662.4 898.5,581.4 '/>
		<polygon fill = 'rgb( 31, 120, 180)' fill-opacity = '0.250000' points = '898.5,581.4 898.5,662.4 900.4,662.4 900.4,582.4 '/>
		<polygon fill = 'rgb( 31, 120, 180)' fill-opacity = '0.250000' points = '900.4,582.4 900.4,662.4 902.3,662.4 902.3,583.4 '/>
		<polygon fill = 'rgb( 31, 120, 180)' fill-opacity = '0.250000' points = '902.3,583.4 902.3,662.4 904.1,662.4 904.1,584.5 '/>
		<polygon fill = 'rgb( 31, 120, 180)' fill-opacity = '0.250000' points = '904.1,584.5 904.1,662.4 906.0,662.4 906.0,585.5 '/>
		<polygon fill = 'rgb( 31, 120, 180)' fill-opacity = '0.250000' points = '906.0,585.5 906.0,662.4 907.9,662.4 907.9,586.5 '/>
		<polygon fill = 'rgb( 31, 120, 180)' fill-opacity = '0.250000' points = '907.9,586.5 907.9,662.4 909.8,662.4 909.8,587.6 '/>
		<polygon fill = 'rgb( 31, 120, 180)' fill-opacity = '0.250000' points = '909.8,587.6 909.8,662.4 911.7,662.4 911.7,588.6 '/>
		<polygon fill = 'rgb( 31, 120, 180)' fill-opacity = '0.250000' points = '911.7,588.6 911.7,662.4 913.6,662.4 913.6,589.7 '/>
		<polygon fill = 'rgb( 31, 120, 180)' fill-opacity = '0.250000' points = '913.6,589.7 913.6,662.4 915.5,662.4 915.5,590.7 '/>
		<polygon fill = 'rgb( 31, 120, 180)' fill-opacity = '0.250000' points = '915.5,590.7 915.5,662.4 917.4,662.4 917.4,591.8 '/>
		<polygon fill = 'rgb( 31, 120, 180)' fill-opacity = '0.250000' points = '917.4,591.8 917.4,662.4 919.2,662.4 919.2,592.9 '/>
		<polygon fill = 'rgb( 31, 120, 180)' fill-opacity = '0.250000' points = '919.2,592.9 919.2,662.4 921.1,662.4 921.1,593.9 '/>
		<polygon fill = 'rgb( 31, 120, 180)' fill-opacity = '0.250000' points = '921.1,593.9 921.1,662.4 923.0,662.4 923.0,595.0 '/>
		<polygon fill = 'rgb( 31, 120, 180)' fill-opacity = '0.250000' points = '923.0,595.0 923.0,662.4 924.9,662.4 924.9,596.1 '/>
	</g>
</g>
	</g>
	<g id="gnuplot_plot_3" ><title>Point estimate</title>
<g fill="none" color="white" stroke="rgb( 31, 120, 180)" stroke-width="2.00" stroke-linecap="butt" stroke-linejoin="miter">
</g>
<g fill="none" color="black" stroke="currentColor" stroke-width="2.00" stroke-linecap="butt" stroke-linejoin="miter">
	<g transform="translate(1089.0,103.0)" stroke="none" fill="black" font-family="Helvetica" font-size="12.00"  text-anchor="start">
		<text><tspan font-family="Helvetica" >Point estimate</tspan></text>
	</g>
</g>
<g fill="none" color="black" stroke="currentColor" stroke-width="2.00" stroke-linecap="butt" stroke-linejoin="miter">
	<path stroke='rgb( 31, 120, 180)'  d='M1038.5,99.1 L1080.7,99.1 M499.0,662.4 L499.0,93.3  '/></g>
	</g>
<g fill="none" color="black" stroke="currentColor" stroke-width="2.00" stroke-linecap="butt" stroke-linejoin="miter">
</g>
<g fill="none" color="black" stroke="black" stroke-width="1.00" stroke-linecap="butt" stroke-linejoin="miter">
</g>
<g fill="none" color="black" stroke="currentColor" stroke-width="1.00" stroke-linecap="butt" stroke-linejoin="miter">
	<path stroke='black'  d='M71.9,54.1 L71.9,662.4 L1013.6,662.4 L1013.6,54.1 L71.9,54.1 Z  '/></g>
<g fill="none" color="black" stroke="currentColor" stroke-width="1.00" stroke-linecap="butt" stroke-linejoin="miter">
</g>
</g>
</svg>

