<?xml version="1.0" encoding="utf-8"  standalone="no"?>
<svg 
 viewBox="0 0 450 300"
 xmlns="http://www.w3.org/2000/svg"
 xmlns:xlink="http://www.w3.org/1999/xlink"
>

<title>Gnuplot</title>
<desc>Produced by GNUPLOT 5.0 patchlevel 6 </desc>

<g id="gnuplot_canvas">

<rect x="0" y="0" width="450" height="300" fill="none"/>
<defs>

	<circle id='gpDot' r='0.5' stroke-width='0.5'/>
	<path id='gpPt0' stroke-width='0.222' stroke='currentColor' d='M-1,0 h2 M0,-1 v2'/>
	<path id='gpPt1' stroke-width='0.222' stroke='currentColor' d='M-1,-1 L1,1 M1,-1 L-1,1'/>
	<path id='gpPt2' stroke-width='0.222' stroke='currentColor' d='M-1,0 L1,0 M0,-1 L0,1 M-1,-1 L1,1 M-1,1 L1,-1'/>
	<rect id='gpPt3' stroke-width='0.222' stroke='currentColor' x='-1' y='-1' width='2' height='2'/>
	<rect id='gpPt4' stroke-width='0.222' stroke='currentColor' fill='currentColor' x='-1' y='-1' width='2' height='2'/>
	<circle id='gpPt5' stroke-width='0.222' stroke='currentColor' cx='0' cy='0' r='1'/>
	<use xlink:href='#gpPt5' id='gpPt6' fill='currentColor' stroke='none'/>
	<path id='gpPt7' stroke-width='0.222' stroke='currentColor' d='M0,-1.33 L-1.33,0.67 L1.33,0.67 z'/>
	<use xlink:href='#gpPt7' id='gpPt8' fill='currentColor' stroke='none'/>
	<use xlink:href='#gpPt7' id='gpPt9' stroke='currentColor' transform='rotate(180)'/>
	<use xlink:href='#gpPt9' id='gpPt10' fill='currentColor' stroke='none'/>
	<use xlink:href='#gpPt3' id='gpPt11' stroke='currentColor' transform='rotate(45)'/>
	<use xlink:href='#gpPt11' id='gpPt12' fill='currentColor' stroke='none'/>
	<path id='gpPt13' stroke-width='0.222' stroke='currentColor' d='M0,1.330 L1.265,0.411 L0.782,-1.067 L-0.782,-1.076 L-1.265,0.411 z'/>
	<use xlink:href='#gpPt13' id='gpPt14' fill='currentColor' stroke='none'/>
	<filter id='textbox' filterUnits='objectBoundingBox' x='0' y='0' height='1' width='1'>
	  <feFlood flood-color='white' flood-opacity='1' result='bgnd'/>
	  <feComposite in='SourceGraphic' in2='bgnd' operator='atop'/>
	</filter>
	<filter id='greybox' filterUnits='objectBoundingBox' x='0' y='0' height='1' width='1'>
	  <feFlood flood-color='lightgrey' flood-opacity='1' result='grey'/>
	  <feComposite in='SourceGraphic' in2='grey' operator='atop'/>
	</filter>
</defs>
<g fill="none" color="white" stroke="currentColor" stroke-width="1.00" stroke-linecap="butt" stroke-linejoin="miter">
</g>
<g fill="none" color="black" stroke="currentColor" stroke-width="1.00" stroke-linecap="butt" stroke-linejoin="miter">
	<path stroke='black'  d='M96.8,242.4 L105.8,242.4  '/>	<g transform="translate(88.5,246.3)" stroke="none" fill="black" font-family="Helvetica" font-size="12.00"  text-anchor="end">
		<text><tspan font-family="Helvetica" > 0</tspan></text>
	</g>
</g>
<g fill="none" color="black" stroke="currentColor" stroke-width="1.00" stroke-linecap="butt" stroke-linejoin="miter">
	<path stroke='black'  d='M96.8,198.3 L105.8,198.3  '/>	<g transform="translate(88.5,202.2)" stroke="none" fill="black" font-family="Helvetica" font-size="12.00"  text-anchor="end">
		<text><tspan font-family="Helvetica" > 2x10</tspan><tspan font-family="Helvetica"  font-size="9.6" dy="-6.00px">-5</tspan><tspan font-size="12.0" dy="6.00"></tspan></text>
	</g>
</g>
<g fill="none" color="black" stroke="currentColor" stroke-width="1.00" stroke-linecap="butt" stroke-linejoin="miter">
	<path stroke='black'  d='M96.8,154.1 L105.8,154.1  '/>	<g transform="translate(88.5,158.0)" stroke="none" fill="black" font-family="Helvetica" font-size="12.00"  text-anchor="end">
		<text><tspan font-family="Helvetica" > 4x10</tspan><tspan font-family="Helvetica"  font-size="9.6" dy="-6.00px">-5</tspan><tspan font-size="12.0" dy="6.00"></tspan></text>
	</g>
</g>
<g fill="none" color="black" stroke="currentColor" stroke-width="1.00" stroke-linecap="butt" stroke-linejoin="miter">
	<path stroke='black'  d='M96.8,110.0 L105.8,110.0  '/>	<g transform="translate(88.5,113.9)" stroke="none" fill="black" font-family="Helvetica" font-size="12.00"  text-anchor="end">
		<text><tspan font-family="Helvetica" > 6x10</tspan><tspan font-family="Helvetica"  font-size="9.6" dy="-6.00px">-5</tspan><tspan font-size="12.0" dy="6.00"></tspan></text>
	</g>
</g>
<g fill="none" color="black" stroke="currentColor" stroke-width="1.00" stroke-linecap="butt" stroke-linejoin="miter">
	<path stroke='black'  d='M96.8,65.9 L105.8,65.9  '/>	<g transform="translate(88.5,69.8)" stroke="none" fill="black" font-family="Helvetica" font-size="12.00"  text-anchor="end">
		<text><tspan font-family="Helvetica" > 8x10</tspan><tspan font-family="Helvetica"  font-size="9.6" dy="-6.00px">-5</tspan><tspan font-size="12.0" dy="6.00"></tspan></text>
	</g>
</g>
<g fill="none" color="black" stroke="currentColor" stroke-width="1.00" stroke-linecap="butt" stroke-linejoin="miter">
	<path stroke='black'  d='M96.8,21.8 L105.8,21.8  '/>	<g transform="translate(88.5,25.7)" stroke="none" fill="black" font-family="Helvetica" font-size="12.00"  text-anchor="end">
		<text><tspan font-family="Helvetica" > 0.0001</tspan></text>
	</g>
</g>
<g fill="none" color="black" stroke="currentColor" stroke-width="1.00" stroke-linecap="butt" stroke-linejoin="miter">
	<path stroke='black'  d='M146.2,242.4 L146.2,233.4  '/>	<g transform="translate(146.2,264.3)" stroke="none" fill="black" font-family="Helvetica" font-size="12.00"  text-anchor="middle">
		<text><tspan font-family="Helvetica" > 1.44</tspan></text>
	</g>
</g>
<g fill="none" color="black" stroke="currentColor" stroke-width="1.00" stroke-linecap="butt" stroke-linejoin="miter">
	<path stroke='black'  d='M201.4,242.4 L201.4,233.4  '/>	<g transform="translate(201.4,264.3)" stroke="none" fill="black" font-family="Helvetica" font-size="12.00"  text-anchor="middle">
		<text><tspan font-family="Helvetica" > 1.445</tspan></text>
	</g>
</g>
<g fill="none" color="black" stroke="currentColor" stroke-width="1.00" stroke-linecap="butt" stroke-linejoin="miter">
	<path stroke='black'  d='M256.7,242.4 L256.7,233.4  '/>	<g transform="translate(256.7,264.3)" stroke="none" fill="black" font-family="Helvetica" font-size="12.00"  text-anchor="middle">
		<text><tspan font-family="Helvetica" > 1.45</tspan></text>
	</g>
</g>
<g fill="none" color="black" stroke="currentColor" stroke-width="1.00" stroke-linecap="butt" stroke-linejoin="miter">
	<path stroke='black'  d='M311.9,242.4 L311.9,233.4  '/>	<g transform="translate(311.9,264.3)" stroke="none" fill="black" font-family="Helvetica" font-size="12.00"  text-anchor="middle">
		<text><tspan font-family="Helvetica" > 1.455</tspan></text>
	</g>
</g>
<g fill="none" color="black" stroke="currentColor" stroke-width="1.00" stroke-linecap="butt" stroke-linejoin="miter">
	<path stroke='black'  d='M367.1,242.4 L367.1,233.4  '/>	<g transform="translate(367.1,264.3)" stroke="none" fill="black" font-family="Helvetica" font-size="12.00"  text-anchor="middle">
		<text><tspan font-family="Helvetica" > 1.46</tspan></text>
	</g>
</g>
<g fill="none" color="black" stroke="currentColor" stroke-width="1.00" stroke-linecap="butt" stroke-linejoin="miter">
	<path stroke='black'  d='M422.4,242.4 L422.4,233.4  '/>	<g transform="translate(422.4,264.3)" stroke="none" fill="black" font-family="Helvetica" font-size="12.00"  text-anchor="middle">
		<text><tspan font-family="Helvetica" > 1.465</tspan></text>
	</g>
</g>
<g fill="none" color="black" stroke="currentColor" stroke-width="1.00" stroke-linecap="butt" stroke-linejoin="miter">
</g>
<g fill="none" color="black" stroke="currentColor" stroke-width="1.00" stroke-linecap="butt" stroke-linejoin="miter">
	<path stroke='black'  d='M96.8,16.7 L96.8,242.4 L425.0,242.4 L425.0,16.7 L96.8,16.7 Z  '/></g>
<g fill="none" color="black" stroke="currentColor" stroke-width="1.00" stroke-linecap="butt" stroke-linejoin="miter">
	<g transform="translate(17.0,129.6) rotate(270)" stroke="none" fill="black" font-family="Helvetica" font-size="12.00"  text-anchor="middle">
		<text><tspan font-family="Helvetica" >Density (a.u.)</tspan></text>
	</g>
</g>
<g fill="none" color="black" stroke="currentColor" stroke-width="1.00" stroke-linecap="butt" stroke-linejoin="miter">
	<g transform="translate(260.9,291.3)" stroke="none" fill="black" font-family="Helvetica" font-size="12.00"  text-anchor="middle">
		<text><tspan font-family="Helvetica" >Average time (ms)</tspan></text>
	</g>
</g>
<g fill="none" color="black" stroke="currentColor" stroke-width="1.00" stroke-linecap="butt" stroke-linejoin="miter">
</g>
	<g id="gnuplot_plot_1" ><title>PDF</title>
<g fill="none" color="black" stroke="currentColor" stroke-width="1.00" stroke-linecap="butt" stroke-linejoin="miter">
	<g stroke='none' shape-rendering='crispEdges'>
		<polygon fill = 'rgb( 31, 120, 180)' fill-opacity = '0.250000' points = '96.8,241.8 96.8,242.4 97.5,242.4 97.5,241.7 '/>
		<polygon fill = 'rgb( 31, 120, 180)' fill-opacity = '0.250000' points = '97.5,241.7 97.5,242.4 98.1,242.4 98.1,241.7 '/>
		<polygon fill = 'rgb( 31, 120, 180)' fill-opacity = '0.250000' points = '98.1,241.7 98.1,242.4 98.8,242.4 98.8,241.6 '/>
		<polygon fill = 'rgb( 31, 120, 180)' fill-opacity = '0.250000' points = '98.8,241.6 98.8,242.4 99.4,242.4 99.4,241.6 '/>
		<polygon fill = 'rgb( 31, 120, 180)' fill-opacity = '0.250000' points = '99.4,241.6 99.4,242.4 100.1,242.4 100.1,241.5 '/>
		<polygon fill = 'rgb( 31, 120, 180)' fill-opacity = '0.250000' points = '100.1,241.5 100.1,242.4 100.7,242.4 100.7,241.4 '/>
		<polygon fill = 'rgb( 31, 120, 180)' fill-opacity = '0.250000' points = '100.7,241.4 100.7,242.4 101.4,242.4 101.4,241.4 '/>
		<polygon fill = 'rgb( 31, 120, 180)' fill-opacity = '0.250000' points = '101.4,241.4 101.4,242.4 102.1,242.4 102.1,241.3 '/>
		<polygon fill = 'rgb( 31, 120, 180)' fill-opacity = '0.250000' points = '102.1,241.3 102.1,242.4 102.7,242.4 102.7,241.2 '/>
		<polygon fill = 'rgb( 31, 120, 180)' fill-opacity = '0.250000' points = '102.7,241.2 102.7,242.4 103.4,242.4 103.4,241.1 '/>
		<polygon fill = 'rgb( 31, 120, 180)' fill-opacity = '0.250000' points = '103.4,241.1 103.4,242.4 104.0,242.4 104.0,241.0 '/>
		<polygon fill = 'rgb( 31, 120, 180)' fill-opacity = '0.250000' points = '104.0,241.0 104.0,242.4 104.7,242.4 104.7,240.9 '/>
		<polygon fill = 'rgb( 31, 120, 180)' fill-opacity = '0.250000' points = '104.7,240.9 104.7,242.4 105.4,242.4 105.4,240.8 '/>
		<polygon fill = 'rgb( 31, 120, 180)' fill-opacity = '0.250000' points = '105.4,240.8 105.4,242.4 106.0,242.4 106.0,240.7 '/>
		<polygon fill = 'rgb( 31, 120, 180)' fill-opacity = '0.250000' points = '106.0,240.7 106.0,242.4 106.7,242.4 106.7,240.6 '/>
		<polygon fill = 'rgb( 31, 120, 180)' fill-opacity = '0.250000' points = '106.7,240.6 106.7,242.4 107.3,242.4 107.3,240.4 '/>
		<polygon fill = 'rgb( 31, 120, 180)' fill-opacity = '0.250000' points = '107.3,240.4 107.3,242.4 108.0,242.4 108.0,240.3 '/>
		<polygon fill = 'rgb( 31, 120, 180)' fill-opacity = '0.250000' points = '108.0,240.3 108.0,242.4 108.6,242.4 108.6,240.1 '/>
		<polygon fill = 'rgb( 31, 120, 180)' fill-opacity = '0.250000' points = '108.6,240.1 108.6,242.4 109.3,242.4 109.3,240.0 '/>
		<polygon fill = 'rgb( 31, 120, 180)' fill-opacity = '0.250000' points = '109.3,240.0 109.3,242.4 110.0,242.4 110.0,239.8 '/>
		<polygon fill = 'rgb( 31, 120, 180)' fill-opacity = '0.250000' points = '110.0,239.8 110.0,242.4 110.6,242.4 110.6,239.6 '/>
		<polygon fill = 'rgb( 31, 120, 180)' fill-opacity = '0.250000' points = '110.6,239.6 110.6,242.4 111.3,242.4 111.3,239.4 '/>
		<polygon fill = 'rgb( 31, 120, 180)' fill-opacity = '0.250000' points = '111.3,239.4 111.3,242.4 111.9,242.4 111.9,239.2 '/>
		<polygon fill = 'rgb( 31, 120, 180)' fill-opacity = '0.250000' points = '111.9,239.2 111.9,242.4 112.6,242.4 112.6,239.0 '/>
		<polygon fill = 'rgb( 31, 120, 180)' fill-opacity = '0.250000' points = '112.6,239.0 112.6,242.4 113.2,242.4 113.2,238.8 '/>
		<polygon fill = 'rgb( 31, 120, 180)' fill-opacity = '0.250000' points = '113.2,238.8 113.2,242.4 113.9,242.4 113.9,238.6 '/>
		<polygon fill = 'rgb( 31, 120, 180)' fill-opacity = '0.250000' points = '113.9,238.6 113.9,242.4 114.6,242.4 114.6,238.3 '/>
		<polygon fill = 'rgb( 31, 120, 180)' fill-opacity = '0.250000' points = '114.6,238.3 114.6,242.4 115.2,242.4 115.2,238.0 '/>
		<polygon fill = 'rgb( 31, 120, 180)' fill-opacity = '0.250000' points = '115.2,238.0 115.2,242.4 115.9,242.4 115.9,237.8 '/>
		<polygon fill = 'rgb( 31, 120, 180)' fill-opacity = '0.250000' points = '115.9,237.8 115.9,242.4 116.5,242.4 116.5,237.5 '/>
		<polygon fill = 'rgb( 31, 120, 180)' fill-opacity = '0.250000' points = '116.5,237.5 116.5,242.4 117.2,242.4 117.2,237.2 '/>
		<polygon fill = 'rgb( 31, 120, 180)' fill-opacity = '0.250000' points = '117.2,237.2 117.2,242.4 117.8,242.4 117.8,236.8 '/>
		<polygon fill = 'rgb( 31, 120, 180)' fill-opacity = '0.250000' points = '117.8,236.8 117.8,242.4 118.5,242.4 118.5,236.5 '/>
		<polygon fill = 'rgb( 31, 120, 180)' fill-opacity = '0.250000' points = '118.5,236.5 118.5,242.4 119.2,242.4 119.2,236.1 '/>
		<polygon fill = 'rgb( 31, 120, 180)' fill-opacity = '0.250000' points = '119.2,236.1 119.2,242.4 119.8,242.4 119.8,235.7 '/>
		<polygon fill = 'rgb( 31, 120, 180)' fill-opacity = '0.250000' points = '119.8,235.7 119.8,242.4 120.5,242.4 120.5,235.3 '/>
		<polygon fill = 'rgb( 31, 120, 180)' fill-opacity = '0.250000' points = '120.5,235.3 120.5,242.4 121.1,242.4 121.1,234.9 '/>
		<polygon fill = 'rgb( 31, 120, 180)' fill-opacity = '0.250000' points = '121.1,234.9 121.1,242.4 121.8,242.4 121.8,234.5 '/>
		<polygon fill = 'rgb( 31, 120, 180)' fill-opacity = '0.250000' points = '121.8,234.5 121.8,242.4 122.5,242.4 122.5,234.0 '/>
		<polygon fill = 'rgb( 31, 120, 180)' fill-opacity = '0.250000' points = '122.5,234.0 122.5,242.4 123.1,242.4 123.1,233.5 '/>
		<polygon fill = 'rgb( 31, 120, 180)' fill-opacity = '0.250000' points = '123.1,233.5 123.1,242.4 123.8,242.4 123.8,233.0 '/>
		<polygon fill = 'rgb( 31, 120, 180)' fill-opacity = '0.250000' points = '123.8,233.0 123.8,242.4 124.4,242.4 124.4,232.5 '/>
		<polygon fill = 'rgb( 31, 120, 180)' fill-opacity = '0.250000' points = '124.4,232.5 124.4,242.4 125.1,242.4 125.1,231.9 '/>
		<polygon fill = 'rgb( 31, 120, 180)' fill-opacity = '0.250000' points = '125.1,231.9 125.1,242.4 125.7,242.4 125.7,231.3 '/>
		<polygon fill = 'rgb( 31, 120, 180)' fill-opacity = '0.250000' points = '125.7,231.3 125.7,242.4 126.4,242.4 126.4,230.7 '/>
		<polygon fill = 'rgb( 31, 120, 180)' fill-opacity = '0.250000' points = '126.4,230.7 126.4,242.4 127.1,242.4 127.1,230.1 '/>
		<polygon fill = 'rgb( 31, 120, 180)' fill-opacity = '0.250000' points = '127.1,230.1 127.1,242.4 127.7,242.4 127.7,229.4 '/>
		<polygon fill = 'rgb( 31, 120, 180)' fill-opacity = '0.250000' points = '127.7,229.4 127.7,242.4 128.4,242.4 128.4,228.7 '/>
		<polygon fill = 'rgb( 31, 120, 180)' fill-opacity = '0.250000' points = '128.4,228.7 128.4,242.4 129.0,242.4 129.0,228.0 '/>
		<polygon fill = 'rgb( 31, 120, 180)' fill-opacity = '0.250000' points = '129.0,228.0 129.0,242.4 129.7,242.4 129.7,227.3 '/>
		<polygon fill = 'rgb( 31, 120, 180)' fill-opacity = '0.250000' points = '129.7,227.3 129.7,242.4 130.3,242.4 130.3,226.5 '/>
		<polygon fill = 'rgb( 31, 120, 180)' fill-opacity = '0.250000' points = '130.3,226.5 130.3,242.4 131.0,242.4 131.0,225.7 '/>
		<polygon fill = 'rgb( 31, 120, 180)' fill-opacity = '0.250000' points = '131.0,225.7 131.0,242.4 131.7,242.4 131.7,224.8 '/>
		<polygon fill = 'rgb( 31, 120, 180)' fill-opacity = '0.250000' points = '131.7,224.8 131.7,242.4 132.3,242.4 132.3,223.9 '/>
		<polygon fill = 'rgb( 31, 120, 180)' fill-opacity = '0.250000' points = '132.3,223.9 132.3,242.4 133.0,242.4 133.0,223.0 '/>
		<polygon fill = 'rgb( 31, 120, 180)' fill-opacity = '0.250000' points = '133.0,223.0 133.0,242.4 133.6,242.4 133.6,222.0 '/>
		<polygon fill = 'rgb( 31, 120, 180)' fill-opacity = '0.250000' points = '133.6,222.0 133.6,242.4 134.3,242.4 134.3,221.1 '/>
		<polygon fill = 'rgb( 31, 120, 180)' fill-opacity = '0.250000' points = '134.3,221.1 134.3,242.4 134.9,242.4 134.9,220.0 '/>
		<polygon fill = 'rgb( 31, 120, 180)' fill-opacity = '0.250000' points = '134.9,220.0 134.9,242.4 135.6,242.4 135.6,219.0 '/>
		<polygon fill = 'rgb( 31, 120, 180)' fill-opacity = '0.250000' points = '135.6,219.0 135.6,242.4 136.3,242.4 136.3,217.9 '/>
		<polygon fill = 'rgb( 31, 120, 180)' fill-opacity = '0.250000' points = '136.3,217.9 136.3,242.4 136.9,242.4 136.9,216.7 '/>
		<polygon fill = 'rgb( 31, 120, 180)' fill-opacity = '0.250000' points = '136.9,216.7 136.9,242.4 137.6,242.4 137.6,215.6 '/>
		<polygon fill = 'rgb( 31, 120, 180)' fill-opacity = '0.250000' points = '137.6,215.6 137.6,242.4 138.2,242.4 138.2,214.3 '/>
		<polygon fill = 'rgb( 31, 120, 180)' fill-opacity = '0.250000' points = '138.2,214.3 138.2,242.4 138.9,242.4 138.9,213.1 '/>
		<polygon fill = 'rgb( 31, 120, 180)' fill-opacity = '0.250000' points = '138.9,213.1 138.9,242.4 139.6,242.4 139.6,211.8 '/>
		<polygon fill = 'rgb( 31, 120, 180)' fill-opacity = '0.250000' points = '139.6,211.8 139.6,242.4 140.2,242.4 140.2,210.4 '/>
		<polygon fill = 'rgb( 31, 120, 180)' fill-opacity = '0.250000' points = '140.2,210.4 140.2,242.4 140.9,242.4 140.9,209.1 '/>
		<polygon fill = 'rgb( 31, 120, 180)' fill-opacity = '0.250000' points = '140.9,209.1 140.9,242.4 141.5,242.4 141.5,207.6 '/>
		<polygon fill = 'rgb( 31, 120, 180)' fill-opacity = '0.250000' points = '141.5,207.6 141.5,242.4 142.2,242.4 142.2,206.2 '/>
		<polygon fill = 'rgb( 31, 120, 180)' fill-opacity = '0.250000' points = '142.2,206.2 142.2,242.4 142.8,242.4 142.8,204.7 '/>
		<polygon fill = 'rgb( 31, 120, 180)' fill-opacity = '0.250000' points = '142.8,204.7 142.8,242.4 143.5,242.4 143.5,203.1 '/>
		<polygon fill = 'rgb( 31, 120, 180)' fill-opacity = '0.250000' points = '143.5,203.1 143.5,242.4 144.2,242.4 144.2,201.5 '/>
		<polygon fill = 'rgb( 31, 120, 180)' fill-opacity = '0.250000' points = '144.2,201.5 144.2,242.4 144.8,242.4 144.8,199.9 '/>
		<polygon fill = 'rgb( 31, 120, 180)' fill-opacity = '0.250000' points = '144.8,199.9 144.8,242.4 145.5,242.4 145.5,198.2 '/>
		<polygon fill = 'rgb( 31, 120, 180)' fill-opacity = '0.250000' points = '145.5,198.2 145.5,242.4 146.1,242.4 146.1,196.5 '/>
		<polygon fill = 'rgb( 31, 120, 180)' fill-opacity = '0.250000' points = '146.1,196.5 146.1,242.4 146.8,242.4 146.8,194.7 '/>
		<polygon fill = 'rgb( 31, 120, 180)' fill-opacity = '0.250000' points = '146.8,194.7 146.8,242.4 147.4,242.4 147.4,192.9 '/>
		<polygon fill = 'rgb( 31, 120, 180)' fill-opacity = '0.250000' points = '147.4,192.9 147.4,242.4 148.1,242.4 148.1,191.0 '/>
		<polygon fill = 'rgb( 31, 120, 180)' fill-opacity = '0.250000' points = '148.1,191.0 148.1,242.4 148.8,242.4 148.8,189.1 '/>
		<polygon fill = 'rgb( 31, 120, 180)' fill-opacity = '0.250000' points = '148.8,189.1 148.8,242.4 149.4,242.4 149.4,187.2 '/>
		<polygon fill = 'rgb( 31, 120, 180)' fill-opacity = '0.250000' points = '149.4,187.2 149.4,242.4 150.1,242.4 150.1,185.2 '/>
		<polygon fill = 'rgb( 31, 120, 180)' fill-opacity = '0.250000' points = '150.1,185.2 150.1,242.4 150.7,242.4 150.7,183.2 '/>
		<polygon fill = 'rgb( 31, 120, 180)' fill-opacity = '0.250000' points = '150.7,183.2 150.7,242.4 151.4,242.4 151.4,181.1 '/>
		<polygon fill = 'rgb( 31, 120, 180)' fill-opacity = '0.250000' points = '151.4,181.1 151.4,242.4 152.0,242.4 152.0,179.0 '/>
		<polygon fill = 'rgb( 31, 120, 180)' fill-opacity = '0.250000' points = '152.0,179.0 152.0,242.4 152.7,242.4 152.7,176.8 '/>
		<polygon fill = 'rgb( 31, 120, 180)' fill-opacity = '0.250000' points = '152.7,176.8 152.7,242.4 153.4,242.4 153.4,174.6 '/>
		<polygon fill = 'rgb( 31, 120, 180)' fill-opacity = '0.250000' points = '153.4,174.6 153.4,242.4 154.0,242.4 154.0,172.4 '/>
		<polygon fill = 'rgb( 31, 120, 180)' fill-opacity = '0.250000' points = '154.0,172.4 154.0,242.4 154.7,242.4 154.7,170.1 '/>
		<polygon fill = 'rgb( 31, 120, 180)' fill-opacity = '0.250000' points = '154.7,170.1 154.7,242.4 155.3,242.4 155.3,167.8 '/>
		<polygon fill = 'rgb( 31, 120, 180)' fill-opacity = '0.250000' points = '155.3,167.8 155.3,242.4 156.0,242.4 156.0,165.5 '/>
		<polygon fill = 'rgb( 31, 120, 180)' fill-opacity = '0.250000' points = '156.0,165.5 156.0,242.4 156.7,242.4 156.7,163.1 '/>
		<polygon fill = 'rgb( 31, 120, 180)' fill-opacity = '0.250000' points = '156.7,163.1 156.7,242.4 157.3,242.4 157.3,160.7 '/>
		<polygon fill = 'rgb( 31, 120, 180)' fill-opacity = '0.250000' points = '157.3,160.7 157.3,242.4 158.0,242.4 158.0,158.3 '/>
		<polygon fill = 'rgb( 31, 120, 180)' fill-opacity = '0.250000' points = '158.0,158.3 158.0,242.4 158.6,242.4 158.6,155.8 '/>
		<polygon fill = 'rgb( 31, 120, 180)' fill-opacity = '0.250000' points = '158.6,155.8 158.6,242.4 159.3,242.4 159.3,153.3 '/>
		<polygon fill = 'rgb( 31, 120, 180)' fill-opacity = '0.250000' points = '159.3,153.3 159.3,242.4 159.9,242.4 159.9,150.7 '/>
		<polygon fill = 'rgb( 31, 120, 180)' fill-opacity = '0.250000' points = '159.9,150.7 159.9,242.4 160.6,242.4 160.6,148.2 '/>
		<polygon fill = 'rgb( 31, 120, 180)' fill-opacity = '0.250000' points = '160.6,148.2 160.6,242.4 161.3,242.4 161.3,145.6 '/>
		<polygon fill = 'rgb( 31, 120, 180)' fill-opacity = '0.250000' points = '161.3,145.6 161.3,242.4 161.9,242.4 161.9,143.0 '/>
		<polygon fill = 'rgb( 31, 120, 180)' fill-opacity = '0.250000' points = '161.9,143.0 161.9,242.4 162.6,242.4 162.6,140.3 '/>
		<polygon fill = 'rgb( 31, 120, 180)' fill-opacity = '0.250000' points = '162.6,140.3 162.6,242.4 163.2,242.4 163.2,137.7 '/>
		<polygon fill = 'rgb( 31, 120, 180)' fill-opacity = '0.250000' points = '163.2,137.7 163.2,242.4 163.9,242.4 163.9,135.0 '/>
		<polygon fill = 'rgb( 31, 120, 180)' fill-opacity = '0.250000' points = '163.9,135.0 163.9,242.4 164.5,242.4 164.5,132.3 '/>
		<polygon fill = 'rgb( 31, 120, 180)' fill-opacity = '0.250000' points = '164.5,132.3 164.5,242.4 165.2,242.4 165.2,129.6 '/>
		<polygon fill = 'rgb( 31, 120, 180)' fill-opacity = '0.250000' points = '165.2,129.6 165.2,242.4 165.9,242.4 165.9,126.9 '/>
		<polygon fill = 'rgb( 31, 120, 180)' fill-opacity = '0.250000' points = '165.9,126.9 165.9,242.4 166.5,242.4 166.5,124.1 '/>
		<polygon fill = 'rgb( 31, 120, 180)' fill-opacity = '0.250000' points = '166.5,124.1 166.5,242.4 167.2,242.4 167.2,121.4 '/>
		<polygon fill = 'rgb( 31, 120, 180)' fill-opacity = '0.250000' points = '167.2,121.4 167.2,242.4 167.8,242.4 167.8,118.6 '/>
		<polygon fill = 'rgb( 31, 120, 180)' fill-opacity = '0.250000' points = '167.8,118.6 167.8,242.4 168.5,242.4 168.5,115.9 '/>
		<polygon fill = 'rgb( 31, 120, 180)' fill-opacity = '0.250000' points = '168.5,115.9 168.5,242.4 169.1,242.4 169.1,113.1 '/>
		<polygon fill = 'rgb( 31, 120, 180)' fill-opacity = '0.250000' points = '169.1,113.1 169.1,242.4 169.8,242.4 169.8,110.3 '/>
		<polygon fill = 'rgb( 31, 120, 180)' fill-opacity = '0.250000' points = '169.8,110.3 169.8,242.4 170.5,242.4 170.5,107.6 '/>
		<polygon fill = 'rgb( 31, 120, 180)' fill-opacity = '0.250000' points = '170.5,107.6 170.5,242.4 171.1,242.4 171.1,104.8 '/>
		<polygon fill = 'rgb( 31, 120, 180)' fill-opacity = '0.250000' points = '171.1,104.8 171.1,242.4 171.8,242.4 171.8,102.0 '/>
		<polygon fill = 'rgb( 31, 120, 180)' fill-opacity = '0.250000' points = '171.8,102.0 171.8,242.4 172.4,242.4 172.4,99.3 '/>
		<polygon fill = 'rgb( 31, 120, 180)' fill-opacity = '0.250000' points = '172.4,99.3 172.4,242.4 173.1,242.4 173.1,96.5 '/>
		<polygon fill = 'rgb( 31, 120, 180)' fill-opacity = '0.250000' points = '173.1,96.5 173.1,242.4 173.8,242.4 173.8,93.8 '/>
		<polygon fill = 'rgb( 31, 120, 180)' fill-opacity = '0.250000' points = '173.8,93.8 173.8,242.4 174.4,242.4 174.4,91.1 '/>
		<polygon fill = 'rgb( 31, 120, 180)' fill-opacity = '0.250000' points = '174.4,91.1 174.4,242.4 175.1,242.4 175.1,88.4 '/>
		<polygon fill = 'rgb( 31, 120, 180)' fill-opacity = '0.250000' points = '175.1,88.4 175.1,242.4 175.7,242.4 175.7,85.7 '/>
		<polygon fill = 'rgb( 31, 120, 180)' fill-opacity = '0.250000' points = '175.7,85.7 175.7,242.4 176.4,242.4 176.4,83.1 '/>
		<polygon fill = 'rgb( 31, 120, 180)' fill-opacity = '0.250000' points = '176.4,83.1 176.4,242.4 177.0,242.4 177.0,80.4 '/>
		<polygon fill = 'rgb( 31, 120, 180)' fill-opacity = '0.250000' points = '177.0,80.4 177.0,242.4 177.7,242.4 177.7,77.8 '/>
		<polygon fill = 'rgb( 31, 120, 180)' fill-opacity = '0.250000' points = '177.7,77.8 177.7,242.4 178.4,242.4 178.4,75.3 '/>
		<polygon fill = 'rgb( 31, 120, 180)' fill-opacity = '0.250000' points = '178.4,75.3 178.4,242.4 179.0,242.4 179.0,72.7 '/>
		<polygon fill = 'rgb( 31, 120, 180)' fill-opacity = '0.250000' points = '179.0,72.7 179.0,242.4 179.7,242.4 179.7,70.2 '/>
		<polygon fill = 'rgb( 31, 120, 180)' fill-opacity = '0.250000' points = '179.7,70.2 179.7,242.4 180.3,242.4 180.3,67.7 '/>
		<polygon fill = 'rgb( 31, 120, 180)' fill-opacity = '0.250000' points = '180.3,67.7 180.3,242.4 181.0,242.4 181.0,65.3 '/>
		<polygon fill = 'rgb( 31, 120, 180)' fill-opacity = '0.250000' points = '181.0,65.3 181.0,242.4 181.6,242.4 181.6,62.9 '/>
		<polygon fill = 'rgb( 31, 120, 180)' fill-opacity = '0.250000' points = '181.6,62.9 181.6,242.4 182.3,242.4 182.3,60.6 '/>
		<polygon fill = 'rgb( 31, 120, 180)' fill-opacity = '0.250000' points = '182.3,60.6 182.3,242.4 183.0,242.4 183.0,58.2 '/>
		<polygon fill = 'rgb( 31, 120, 180)' fill-opacity = '0.250000' points = '183.0,58.2 183.0,242.4 183.6,242.4 183.6,56.0 '/>
		<polygon fill = 'rgb( 31, 120, 180)' fill-opacity = '0.250000' points = '183.6,56.0 183.6,242.4 184.3,242.4 184.3,53.8 '/>
		<polygon fill = 'rgb( 31, 120, 180)' fill-opacity = '0.250000' points = '184.3,53.8 184.3,242.4 184.9,242.4 184.9,51.6 '/>
		<polygon fill = 'rgb( 31, 120, 180)' fill-opacity = '0.250000' points = '184.9,51.6 184.9,242.4 185.6,242.4 185.6,49.5 '/>
		<polygon fill = 'rgb( 31, 120, 180)' fill-opacity = '0.250000' points = '185.6,49.5 185.6,242.4 186.2,242.4 186.2,47.4 '/>
		<polygon fill = 'rgb( 31, 120, 180)' fill-opacity = '0.250000' points = '186.2,47.4 186.2,242.4 186.9,242.4 186.9,45.4 '/>
		<polygon fill = 'rgb( 31, 120, 180)' fill-opacity = '0.250000' points = '186.9,45.4 186.9,242.4 187.6,242.4 187.6,43.5 '/>
		<polygon fill = 'rgb( 31, 120, 180)' fill-opacity = '0.250000' points = '187.6,43.5 187.6,242.4 188.2,242.4 188.2,41.6 '/>
		<polygon fill = 'rgb( 31, 120, 180)' fill-opacity = '0.250000' points = '188.2,41.6 188.2,242.4 188.9,242.4 188.9,39.8 '/>
		<polygon fill = 'rgb( 31, 120, 180)' fill-opacity = '0.250000' points = '188.9,39.8 188.9,242.4 189.5,242.4 189.5,38.0 '/>
		<polygon fill = 'rgb( 31, 120, 180)' fill-opacity = '0.250000' points = '189.5,38.0 189.5,242.4 190.2,242.4 190.2,36.3 '/>
		<polygon fill = 'rgb( 31, 120, 180)' fill-opacity = '0.250000' points = '190.2,36.3 190.2,242.4 190.9,242.4 190.9,34.7 '/>
		<polygon fill = 'rgb( 31, 120, 180)' fill-opacity = '0.250000' points = '190.9,34.7 190.9,242.4 191.5,242.4 191.5,33.1 '/>
		<polygon fill = 'rgb( 31, 120, 180)' fill-opacity = '0.250000' points = '191.5,33.1 191.5,242.4 192.2,242.4 192.2,31.6 '/>
		<polygon fill = 'rgb( 31, 120, 180)' fill-opacity = '0.250000' points = '192.2,31.6 192.2,242.4 192.8,242.4 192.8,30.2 '/>
		<polygon fill = 'rgb( 31, 120, 180)' fill-opacity = '0.250000' points = '192.8,30.2 192.8,242.4 193.5,242.4 193.5,28.8 '/>
		<polygon fill = 'rgb( 31, 120, 180)' fill-opacity = '0.250000' points = '193.5,28.8 193.5,242.4 194.1,242.4 194.1,27.5 '/>
		<polygon fill = 'rgb( 31, 120, 180)' fill-opacity = '0.250000' points = '194.1,27.5 194.1,242.4 194.8,242.4 194.8,26.3 '/>
		<polygon fill = 'rgb( 31, 120, 180)' fill-opacity = '0.250000' points = '194.8,26.3 194.8,242.4 195.5,242.4 195.5,25.1 '/>
		<polygon fill = 'rgb( 31, 120, 180)' fill-opacity = '0.250000' points = '195.5,25.1 195.5,242.4 196.1,242.4 196.1,24.0 '/>
		<polygon fill = 'rgb( 31, 120, 180)' fill-opacity = '0.250000' points = '196.1,24.0 196.1,242.4 196.8,242.4 196.8,23.0 '/>
		<polygon fill = 'rgb( 31, 120, 180)' fill-opacity = '0.250000' points = '196.8,23.0 196.8,242.4 197.4,242.4 197.4,22.1 '/>
		<polygon fill = 'rgb( 31, 120, 180)' fill-opacity = '0.250000' points = '197.4,22.1 197.4,242.4 198.1,242.4 198.1,21.2 '/>
		<polygon fill = 'rgb( 31, 120, 180)' fill-opacity = '0.250000' points = '198.1,21.2 198.1,242.4 198.7,242.4 198.7,20.5 '/>
		<polygon fill = 'rgb( 31, 120, 180)' fill-opacity = '0.250000' points = '198.7,20.5 198.7,242.4 199.4,242.4 199.4,19.8 '/>
		<polygon fill = 'rgb( 31, 120, 180)' fill-opacity = '0.250000' points = '199.4,19.8 199.4,242.4 200.1,242.4 200.1,19.1 '/>
		<polygon fill = 'rgb( 31, 120, 180)' fill-opacity = '0.250000' points = '200.1,19.1 200.1,242.4 200.7,242.4 200.7,18.6 '/>
		<polygon fill = 'rgb( 31, 120, 180)' fill-opacity = '0.250000' points = '200.7,18.6 200.7,242.4 201.4,242.4 201.4,18.1 '/>
		<polygon fill = 'rgb( 31, 120, 180)' fill-opacity = '0.250000' points = '201.4,18.1 201.4,242.4 202.0,242.4 202.0,17.7 '/>
		<polygon fill = 'rgb( 31, 120, 180)' fill-opacity = '0.250000' points = '202.0,17.7 202.0,242.4 202.7,242.4 202.7,17.3 '/>
		<polygon fill = 'rgb( 31, 120, 180)' fill-opacity = '0.250000' points = '202.7,17.3 202.7,242.4 203.3,242.4 203.3,17.1 '/>
		<polygon fill = 'rgb( 31, 120, 180)' fill-opacity = '0.250000' points = '203.3,17.1 203.3,242.4 204.0,242.4 204.0,16.9 '/>
		<polygon fill = 'rgb( 31, 120, 180)' fill-opacity = '0.250000' points = '204.0,16.9 204.0,242.4 204.7,242.4 204.7,16.7 '/>
		<polygon fill = 'rgb( 31, 120, 180)' fill-opacity = '0.250000' points = '204.7,16.7 204.7,242.4 205.3,242.4 205.3,16.7 '/>
		<polygon fill = 'rgb( 31, 120, 180)' fill-opacity = '0.250000' points = '205.3,16.7 205.3,242.4 206.0,242.4 206.0,16.7 '/>
		<polygon fill = 'rgb( 31, 120, 180)' fill-opacity = '0.250000' points = '206.0,16.7 206.0,242.4 206.6,242.4 206.6,16.8 '/>
		<polygon fill = 'rgb( 31, 120, 180)' fill-opacity = '0.250000' points = '206.6,16.8 206.6,242.4 207.3,242.4 207.3,17.0 '/>
		<polygon fill = 'rgb( 31, 120, 180)' fill-opacity = '0.250000' points = '207.3,17.0 207.3,242.4 208.0,242.4 208.0,17.2 '/>
		<polygon fill = 'rgb( 31, 120, 180)' fill-opacity = '0.250000' points = '208.0,17.2 208.0,242.4 208.6,242.4 208.6,17.5 '/>
		<polygon fill = 'rgb( 31, 120, 180)' fill-opacity = '0.250000' points = '208.6,17.5 208.6,242.4 209.3,242.4 209.3,17.9 '/>
		<polygon fill = 'rgb( 31, 120, 180)' fill-opacity = '0.250000' points = '209.3,17.9 209.3,242.4 209.9,242.4 209.9,18.3 '/>
		<polygon fill = 'rgb( 31, 120, 180)' fill-opacity = '0.250000' points = '209.9,18.3 209.9,242.4 210.6,242.4 210.6,18.8 '/>
		<polygon fill = 'rgb( 31, 120, 180)' fill-opacity = '0.250000' points = '210.6,18.8 210.6,242.4 211.2,242.4 211.2,19.4 '/>
		<polygon fill = 'rgb( 31, 120, 180)' fill-opacity = '0.250000' points = '211.2,19.4 211.2,242.4 211.9,242.4 211.9,20.0 '/>
		<polygon fill = 'rgb( 31, 120, 180)' fill-opacity = '0.250000' points = '211.9,20.0 211.9,242.4 212.6,242.4 212.6,20.7 '/>
		<polygon fill = 'rgb( 31, 120, 180)' fill-opacity = '0.250000' points = '212.6,20.7 212.6,242.4 213.2,242.4 213.2,21.4 '/>
		<polygon fill = 'rgb( 31, 120, 180)' fill-opacity = '0.250000' points = '213.2,21.4 213.2,242.4 213.9,242.4 213.9,22.2 '/>
		<polygon fill = 'rgb( 31, 120, 180)' fill-opacity = '0.250000' points = '213.9,22.2 213.9,242.4 214.5,242.4 214.5,23.1 '/>
		<polygon fill = 'rgb( 31, 120, 180)' fill-opacity = '0.250000' points = '214.5,23.1 214.5,242.4 215.2,242.4 215.2,24.0 '/>
		<polygon fill = 'rgb( 31, 120, 180)' fill-opacity = '0.250000' points = '215.2,24.0 215.2,242.4 215.8,242.4 215.8,25.0 '/>
		<polygon fill = 'rgb( 31, 120, 180)' fill-opacity = '0.250000' points = '215.8,25.0 215.8,242.4 216.5,242.4 216.5,26.0 '/>
		<polygon fill = 'rgb( 31, 120, 180)' fill-opacity = '0.250000' points = '216.5,26.0 216.5,242.4 217.2,242.4 217.2,27.1 '/>
		<polygon fill = 'rgb( 31, 120, 180)' fill-opacity = '0.250000' points = '217.2,27.1 217.2,242.4 217.8,242.4 217.8,28.2 '/>
		<polygon fill = 'rgb( 31, 120, 180)' fill-opacity = '0.250000' points = '217.8,28.2 217.8,242.4 218.5,242.4 218.5,29.3 '/>
		<polygon fill = 'rgb( 31, 120, 180)' fill-opacity = '0.250000' points = '218.5,29.3 218.5,242.4 219.1,242.4 219.1,30.5 '/>
		<polygon fill = 'rgb( 31, 120, 180)' fill-opacity = '0.250000' points = '219.1,30.5 219.1,242.4 219.8,242.4 219.8,31.8 '/>
		<polygon fill = 'rgb( 31, 120, 180)' fill-opacity = '0.250000' points = '219.8,31.8 219.8,242.4 220.5,242.4 220.5,33.1 '/>
		<polygon fill = 'rgb( 31, 120, 180)' fill-opacity = '0.250000' points = '220.5,33.1 220.5,242.4 221.1,242.4 221.1,34.4 '/>
		<polygon fill = 'rgb( 31, 120, 180)' fill-opacity = '0.250000' points = '221.1,34.4 221.1,242.4 221.8,242.4 221.8,35.7 '/>
		<polygon fill = 'rgb( 31, 120, 180)' fill-opacity = '0.250000' points = '221.8,35.7 221.8,242.4 222.4,242.4 222.4,37.1 '/>
		<polygon fill = 'rgb( 31, 120, 180)' fill-opacity = '0.250000' points = '222.4,37.1 222.4,242.4 223.1,242.4 223.1,38.5 '/>
		<polygon fill = 'rgb( 31, 120, 180)' fill-opacity = '0.250000' points = '223.1,38.5 223.1,242.4 223.7,242.4 223.7,40.0 '/>
		<polygon fill = 'rgb( 31, 120, 180)' fill-opacity = '0.250000' points = '223.7,40.0 223.7,242.4 224.4,242.4 224.4,41.5 '/>
		<polygon fill = 'rgb( 31, 120, 180)' fill-opacity = '0.250000' points = '224.4,41.5 224.4,242.4 225.1,242.4 225.1,43.0 '/>
		<polygon fill = 'rgb( 31, 120, 180)' fill-opacity = '0.250000' points = '225.1,43.0 225.1,242.4 225.7,242.4 225.7,44.5 '/>
		<polygon fill = 'rgb( 31, 120, 180)' fill-opacity = '0.250000' points = '225.7,44.5 225.7,242.4 226.4,242.4 226.4,46.1 '/>
		<polygon fill = 'rgb( 31, 120, 180)' fill-opacity = '0.250000' points = '226.4,46.1 226.4,242.4 227.0,242.4 227.0,47.6 '/>
		<polygon fill = 'rgb( 31, 120, 180)' fill-opacity = '0.250000' points = '227.0,47.6 227.0,242.4 227.7,242.4 227.7,49.2 '/>
		<polygon fill = 'rgb( 31, 120, 180)' fill-opacity = '0.250000' points = '227.7,49.2 227.7,242.4 228.3,242.4 228.3,50.8 '/>
		<polygon fill = 'rgb( 31, 120, 180)' fill-opacity = '0.250000' points = '228.3,50.8 228.3,242.4 229.0,242.4 229.0,52.5 '/>
		<polygon fill = 'rgb( 31, 120, 180)' fill-opacity = '0.250000' points = '229.0,52.5 229.0,242.4 229.7,242.4 229.7,54.1 '/>
		<polygon fill = 'rgb( 31, 120, 180)' fill-opacity = '0.250000' points = '229.7,54.1 229.7,242.4 230.3,242.4 230.3,55.7 '/>
		<polygon fill = 'rgb( 31, 120, 180)' fill-opacity = '0.250000' points = '230.3,55.7 230.3,242.4 231.0,242.4 231.0,57.4 '/>
		<polygon fill = 'rgb( 31, 120, 180)' fill-opacity = '0.250000' points = '231.0,57.4 231.0,242.4 231.6,242.4 231.6,59.0 '/>
		<polygon fill = 'rgb( 31, 120, 180)' fill-opacity = '0.250000' points = '231.6,59.0 231.6,242.4 232.3,242.4 232.3,60.7 '/>
		<polygon fill = 'rgb( 31, 120, 180)' fill-opacity = '0.250000' points = '232.3,60.7 232.3,242.4 232.9,242.4 232.9,62.4 '/>
		<polygon fill = 'rgb( 31, 120, 180)' fill-opacity = '0.250000' points = '232.9,62.4 232.9,242.4 233.6,242.4 233.6,64.0 '/>
		<polygon fill = 'rgb( 31, 120, 180)' fill-opacity = '0.250000' points = '233.6,64.0 233.6,242.4 234.3,242.4 234.3,65.7 '/>
		<polygon fill = 'rgb( 31, 120, 180)' fill-opacity = '0.250000' points = '234.3,65.7 234.3,242.4 234.9,242.4 234.9,67.4 '/>
		<polygon fill = 'rgb( 31, 120, 180)' fill-opacity = '0.250000' points = '234.9,67.4 234.9,242.4 235.6,242.4 235.6,69.0 '/>
		<polygon fill = 'rgb( 31, 120, 180)' fill-opacity = '0.250000' points = '235.6,69.0 235.6,242.4 236.2,242.4 236.2,70.7 '/>
		<polygon fill = 'rgb( 31, 120, 180)' fill-opacity = '0.250000' points = '236.2,70.7 236.2,242.4 236.9,242.4 236.9,72.3 '/>
		<polygon fill = 'rgb( 31, 120, 180)' fill-opacity = '0.250000' points = '236.9,72.3 236.9,242.4 237.6,242.4 237.6,74.0 '/>
		<polygon fill = 'rgb( 31, 120, 180)' fill-opacity = '0.250000' points = '237.6,74.0 237.6,242.4 238.2,242.4 238.2,75.6 '/>
		<polygon fill = 'rgb( 31, 120, 180)' fill-opacity = '0.250000' points = '238.2,75.6 238.2,242.4 238.9,242.4 238.9,77.2 '/>
		<polygon fill = 'rgb( 31, 120, 180)' fill-opacity = '0.250000' points = '238.9,77.2 238.9,242.4 239.5,242.4 239.5,78.8 '/>
		<polygon fill = 'rgb( 31, 120, 180)' fill-opacity = '0.250000' points = '239.5,78.8 239.5,242.4 240.2,242.4 240.2,80.4 '/>
		<polygon fill = 'rgb( 31, 120, 180)' fill-opacity = '0.250000' points = '240.2,80.4 240.2,242.4 240.8,242.4 240.8,82.0 '/>
		<polygon fill = 'rgb( 31, 120, 180)' fill-opacity = '0.250000' points = '240.8,82.0 240.8,242.4 241.5,242.4 241.5,83.5 '/>
		<polygon fill = 'rgb( 31, 120, 180)' fill-opacity = '0.250000' points = '241.5,83.5 241.5,242.4 242.2,242.4 242.2,85.1 '/>
		<polygon fill = 'rgb( 31, 120, 180)' fill-opacity = '0.250000' points = '242.2,85.1 242.2,242.4 242.8,242.4 242.8,86.6 '/>
		<polygon fill = 'rgb( 31, 120, 180)' fill-opacity = '0.250000' points = '242.8,86.6 242.8,242.4 243.5,242.4 243.5,88.1 '/>
		<polygon fill = 'rgb( 31, 120, 180)' fill-opacity = '0.250000' points = '243.5,88.1 243.5,242.4 244.1,242.4 244.1,89.6 '/>
		<polygon fill = 'rgb( 31, 120, 180)' fill-opacity = '0.250000' points = '244.1,89.6 244.1,242.4 244.8,242.4 244.8,91.1 '/>
		<polygon fill = 'rgb( 31, 120, 180)' fill-opacity = '0.250000' points = '244.8,91.1 244.8,242.4 245.4,242.4 245.4,92.5 '/>
		<polygon fill = 'rgb( 31, 120, 180)' fill-opacity = '0.250000' points = '245.4,92.5 245.4,242.4 246.1,242.4 246.1,93.9 '/>
		<polygon fill = 'rgb( 31, 120, 180)' fill-opacity = '0.250000' points = '246.1,93.9 246.1,242.4 246.8,242.4 246.8,95.3 '/>
		<polygon fill = 'rgb( 31, 120, 180)' fill-opacity = '0.250000' points = '246.8,95.3 246.8,242.4 247.4,242.4 247.4,96.7 '/>
		<polygon fill = 'rgb( 31, 120, 180)' fill-opacity = '0.250000' points = '247.4,96.7 247.4,242.4 248.1,242.4 248.1,98.0 '/>
		<polygon fill = 'rgb( 31, 120, 180)' fill-opacity = '0.250000' points = '248.1,98.0 248.1,242.4 248.7,242.4 248.7,99.4 '/>
		<polygon fill = 'rgb( 31, 120, 180)' fill-opacity = '0.250000' points = '248.7,99.4 248.7,242.4 249.4,242.4 249.4,100.7 '/>
		<polygon fill = 'rgb( 31, 120, 180)' fill-opacity = '0.250000' points = '249.4,100.7 249.4,242.4 250.0,242.4 250.0,101.9 '/>
		<polygon fill = 'rgb( 31, 120, 180)' fill-opacity = '0.250000' points = '250.0,101.9 250.0,242.4 250.7,242.4 250.7,103.2 '/>
		<polygon fill = 'rgb( 31, 120, 180)' fill-opacity = '0.250000' points = '250.7,103.2 250.7,242.4 251.4,242.4 251.4,104.4 '/>
		<polygon fill = 'rgb( 31, 120, 180)' fill-opacity = '0.250000' points = '251.4,104.4 251.4,242.4 252.0,242.4 252.0,105.6 '/>
		<polygon fill = 'rgb( 31, 120, 180)' fill-opacity = '0.250000' points = '252.0,105.6 252.0,242.4 252.7,242.4 252.7,106.8 '/>
		<polygon fill = 'rgb( 31, 120, 180)' fill-opacity = '0.250000' points = '252.7,106.8 252.7,242.4 253.3,242.4 253.3,107.9 '/>
		<polygon fill = 'rgb( 31, 120, 180)' fill-opacity = '0.250000' points = '253.3,107.9 253.3,242.4 254.0,242.4 254.0,109.0 '/>
		<polygon fill = 'rgb( 31, 120, 180)' fill-opacity = '0.250000' points = '254.0,109.0 254.0,242.4 254.7,242.4 254.7,110.1 '/>
		<polygon fill = 'rgb( 31, 120, 180)' fill-opacity = '0.250000' points = '254.7,110.1 254.7,242.4 255.3,242.4 255.3,111.2 '/>
		<polygon fill = 'rgb( 31, 120, 180)' fill-opacity = '0.250000' points = '255.3,111.2 255.3,242.4 256.0,242.4 256.0,112.2 '/>
		<polygon fill = 'rgb( 31, 120, 180)' fill-opacity = '0.250000' points = '256.0,112.2 256.0,242.4 256.6,242.4 256.6,113.2 '/>
		<polygon fill = 'rgb( 31, 120, 180)' fill-opacity = '0.250000' points = '256.6,113.2 256.6,242.4 257.3,242.4 257.3,114.2 '/>
		<polygon fill = 'rgb( 31, 120, 180)' fill-opacity = '0.250000' points = '257.3,114.2 257.3,242.4 257.9,242.4 257.9,115.2 '/>
		<polygon fill = 'rgb( 31, 120, 180)' fill-opacity = '0.250000' points = '257.9,115.2 257.9,242.4 258.6,242.4 258.6,116.1 '/>
		<polygon fill = 'rgb( 31, 120, 180)' fill-opacity = '0.250000' points = '258.6,116.1 258.6,242.4 259.3,242.4 259.3,117.1 '/>
		<polygon fill = 'rgb( 31, 120, 180)' fill-opacity = '0.250000' points = '259.3,117.1 259.3,242.4 259.9,242.4 259.9,118.0 '/>
		<polygon fill = 'rgb( 31, 120, 180)' fill-opacity = '0.250000' points = '259.9,118.0 259.9,242.4 260.6,242.4 260.6,118.8 '/>
		<polygon fill = 'rgb( 31, 120, 180)' fill-opacity = '0.250000' points = '260.6,118.8 260.6,242.4 261.2,242.4 261.2,119.7 '/>
		<polygon fill = 'rgb( 31, 120, 180)' fill-opacity = '0.250000' points = '261.2,119.7 261.2,242.4 261.9,242.4 261.9,120.5 '/>
		<polygon fill = 'rgb( 31, 120, 180)' fill-opacity = '0.250000' points = '261.9,120.5 261.9,242.4 262.5,242.4 262.5,121.3 '/>
		<polygon fill = 'rgb( 31, 120, 180)' fill-opacity = '0.250000' points = '262.5,121.3 262.5,242.4 263.2,242.4 263.2,122.1 '/>
		<polygon fill = 'rgb( 31, 120, 180)' fill-opacity = '0.250000' points = '263.2,122.1 263.2,242.4 263.9,242.4 263.9,122.9 '/>
		<polygon fill = 'rgb( 31, 120, 180)' fill-opacity = '0.250000' points = '263.9,122.9 263.9,242.4 264.5,242.4 264.5,123.6 '/>
		<polygon fill = 'rgb( 31, 120, 180)' fill-opacity = '0.250000' points = '264.5,123.6 264.5,242.4 265.2,242.4 265.2,124.4 '/>
		<polygon fill = 'rgb( 31, 120, 180)' fill-opacity = '0.250000' points = '265.2,124.4 265.2,242.4 265.8,242.4 265.8,125.1 '/>
		<polygon fill = 'rgb( 31, 120, 180)' fill-opacity = '0.250000' points = '265.8,125.1 265.8,242.4 266.5,242.4 266.5,125.8 '/>
		<polygon fill = 'rgb( 31, 120, 180)' fill-opacity = '0.250000' points = '266.5,125.8 266.5,242.4 267.1,242.4 267.1,126.5 '/>
		<polygon fill = 'rgb( 31, 120, 180)' fill-opacity = '0.250000' points = '267.1,126.5 267.1,242.4 267.8,242.4 267.8,127.2 '/>
		<polygon fill = 'rgb( 31, 120, 180)' fill-opacity = '0.250000' points = '267.8,127.2 267.8,242.4 268.5,242.4 268.5,127.8 '/>
		<polygon fill = 'rgb( 31, 120, 180)' fill-opacity = '0.250000' points = '268.5,127.8 268.5,242.4 269.1,242.4 269.1,128.5 '/>
		<polygon fill = 'rgb( 31, 120, 180)' fill-opacity = '0.250000' points = '269.1,128.5 269.1,242.4 269.8,242.4 269.8,129.1 '/>
		<polygon fill = 'rgb( 31, 120, 180)' fill-opacity = '0.250000' points = '269.8,129.1 269.8,242.4 270.4,242.4 270.4,129.7 '/>
		<polygon fill = 'rgb( 31, 120, 180)' fill-opacity = '0.250000' points = '270.4,129.7 270.4,242.4 271.1,242.4 271.1,130.3 '/>
		<polygon fill = 'rgb( 31, 120, 180)' fill-opacity = '0.250000' points = '271.1,130.3 271.1,242.4 271.8,242.4 271.8,131.0 '/>
		<polygon fill = 'rgb( 31, 120, 180)' fill-opacity = '0.250000' points = '271.8,131.0 271.8,242.4 272.4,242.4 272.4,131.6 '/>
		<polygon fill = 'rgb( 31, 120, 180)' fill-opacity = '0.250000' points = '272.4,131.6 272.4,242.4 273.1,242.4 273.1,132.2 '/>
		<polygon fill = 'rgb( 31, 120, 180)' fill-opacity = '0.250000' points = '273.1,132.2 273.1,242.4 273.7,242.4 273.7,132.7 '/>
		<polygon fill = 'rgb( 31, 120, 180)' fill-opacity = '0.250000' points = '273.7,132.7 273.7,242.4 274.4,242.4 274.4,133.3 '/>
		<polygon fill = 'rgb( 31, 120, 180)' fill-opacity = '0.250000' points = '274.4,133.3 274.4,242.4 275.0,242.4 275.0,133.9 '/>
		<polygon fill = 'rgb( 31, 120, 180)' fill-opacity = '0.250000' points = '275.0,133.9 275.0,242.4 275.7,242.4 275.7,134.5 '/>
		<polygon fill = 'rgb( 31, 120, 180)' fill-opacity = '0.250000' points = '275.7,134.5 275.7,242.4 276.4,242.4 276.4,135.0 '/>
		<polygon fill = 'rgb( 31, 120, 180)' fill-opacity = '0.250000' points = '276.4,135.0 276.4,242.4 277.0,242.4 277.0,135.6 '/>
		<polygon fill = 'rgb( 31, 120, 180)' fill-opacity = '0.250000' points = '277.0,135.6 277.0,242.4 277.7,242.4 277.7,136.2 '/>
		<polygon fill = 'rgb( 31, 120, 180)' fill-opacity = '0.250000' points = '277.7,136.2 277.7,242.4 278.3,242.4 278.3,136.8 '/>
		<polygon fill = 'rgb( 31, 120, 180)' fill-opacity = '0.250000' points = '278.3,136.8 278.3,242.4 279.0,242.4 279.0,137.3 '/>
		<polygon fill = 'rgb( 31, 120, 180)' fill-opacity = '0.250000' points = '279.0,137.3 279.0,242.4 279.6,242.4 279.6,137.9 '/>
		<polygon fill = 'rgb( 31, 120, 180)' fill-opacity = '0.250000' points = '279.6,137.9 279.6,242.4 280.3,242.4 280.3,138.5 '/>
		<polygon fill = 'rgb( 31, 120, 180)' fill-opacity = '0.250000' points = '280.3,138.5 280.3,242.4 281.0,242.4 281.0,139.0 '/>
		<polygon fill = 'rgb( 31, 120, 180)' fill-opacity = '0.250000' points = '281.0,139.0 281.0,242.4 281.6,242.4 281.6,139.6 '/>
		<polygon fill = 'rgb( 31, 120, 180)' fill-opacity = '0.250000' points = '281.6,139.6 281.6,242.4 282.3,242.4 282.3,140.2 '/>
		<polygon fill = 'rgb( 31, 120, 180)' fill-opacity = '0.250000' points = '282.3,140.2 282.3,242.4 282.9,242.4 282.9,140.8 '/>
		<polygon fill = 'rgb( 31, 120, 180)' fill-opacity = '0.250000' points = '282.9,140.8 282.9,242.4 283.6,242.4 283.6,141.4 '/>
		<polygon fill = 'rgb( 31, 120, 180)' fill-opacity = '0.250000' points = '283.6,141.4 283.6,242.4 284.2,242.4 284.2,142.0 '/>
		<polygon fill = 'rgb( 31, 120, 180)' fill-opacity = '0.250000' points = '284.2,142.0 284.2,242.4 284.9,242.4 284.9,142.6 '/>
		<polygon fill = 'rgb( 31, 120, 180)' fill-opacity = '0.250000' points = '284.9,142.6 284.9,242.4 285.6,242.4 285.6,143.2 '/>
		<polygon fill = 'rgb( 31, 120, 180)' fill-opacity = '0.250000' points = '285.6,143.2 285.6,242.4 286.2,242.4 286.2,143.8 '/>
		<polygon fill = 'rgb( 31, 120, 180)' fill-opacity = '0.250000' points = '286.2,143.8 286.2,242.4 286.9,242.4 286.9,144.4 '/>
		<polygon fill = 'rgb( 31, 120, 180)' fill-opacity = '0.250000' points = '286.9,144.4 286.9,242.4 287.5,242.4 287.5,145.1 '/>
		<polygon fill = 'rgb( 31, 120, 180)' fill-opacity = '0.250000' points = '287.5,145.1 287.5,242.4 288.2,242.4 288.2,145.7 '/>
		<polygon fill = 'rgb( 31, 120, 180)' fill-opacity = '0.250000' points = '288.2,145.7 288.2,242.4 288.9,242.4 288.9,146.4 '/>
		<polygon fill = 'rgb( 31, 120, 180)' fill-opacity = '0.250000' points = '288.9,146.4 288.9,242.4 289.5,242.4 289.5,147.0 '/>
		<polygon fill = 'rgb( 31, 120, 180)' fill-opacity = '0.250000' points = '289.5,147.0 289.5,242.4 290.2,242.4 290.2,147.7 '/>
		<polygon fill = 'rgb( 31, 120, 180)' fill-opacity = '0.250000' points = '290.2,147.7 290.2,242.4 290.8,242.4 290.8,148.3 '/>
		<polygon fill = 'rgb( 31, 120, 180)' fill-opacity = '0.250000' points = '290.8,148.3 290.8,242.4 291.5,242.4 291.5,149.0 '/>
		<polygon fill = 'rgb( 31, 120, 180)' fill-opacity = '0.250000' points = '291.5,149.0 291.5,242.4 292.1,242.4 292.1,149.7 '/>
		<polygon fill = 'rgb( 31, 120, 180)' fill-opacity = '0.250000' points = '292.1,149.7 292.1,242.4 292.8,242.4 292.8,150.4 '/>
		<polygon fill = 'rgb( 31, 120, 180)' fill-opacity = '0.250000' points = '292.8,150.4 292.8,242.4 293.5,242.4 293.5,151.1 '/>
		<polygon fill = 'rgb( 31, 120, 180)' fill-opacity = '0.250000' points = '293.5,151.1 293.5,242.4 294.1,242.4 294.1,151.8 '/>
		<polygon fill = 'rgb( 31, 120, 180)' fill-opacity = '0.250000' points = '294.1,151.8 294.1,242.4 294.8,242.4 294.8,152.6 '/>
		<polygon fill = 'rgb( 31, 120, 180)' fill-opacity = '0.250000' points = '294.8,152.6 294.8,242.4 295.4,242.4 295.4,153.3 '/>
		<polygon fill = 'rgb( 31, 120, 180)' fill-opacity = '0.250000' points = '295.4,153.3 295.4,242.4 296.1,242.4 296.1,154.0 '/>
		<polygon fill = 'rgb( 31, 120, 180)' fill-opacity = '0.250000' points = '296.1,154.0 296.1,242.4 296.7,242.4 296.7,154.8 '/>
		<polygon fill = 'rgb( 31, 120, 180)' fill-opacity = '0.250000' points = '296.7,154.8 296.7,242.4 297.4,242.4 297.4,155.5 '/>
		<polygon fill = 'rgb( 31, 120, 180)' fill-opacity = '0.250000' points = '297.4,155.5 297.4,242.4 298.1,242.4 298.1,156.3 '/>
		<polygon fill = 'rgb( 31, 120, 180)' fill-opacity = '0.250000' points = '298.1,156.3 298.1,242.4 298.7,242.4 298.7,157.1 '/>
		<polygon fill = 'rgb( 31, 120, 180)' fill-opacity = '0.250000' points = '298.7,157.1 298.7,242.4 299.4,242.4 299.4,157.8 '/>
		<polygon fill = 'rgb( 31, 120, 180)' fill-opacity = '0.250000' points = '299.4,157.8 299.4,242.4 300.0,242.4 300.0,158.6 '/>
		<polygon fill = 'rgb( 31, 120, 180)' fill-opacity = '0.250000' points = '300.0,158.6 300.0,242.4 300.7,242.4 300.7,159.4 '/>
		<polygon fill = 'rgb( 31, 120, 180)' fill-opacity = '0.250000' points = '300.7,159.4 300.7,242.4 301.3,242.4 301.3,160.2 '/>
		<polygon fill = 'rgb( 31, 120, 180)' fill-opacity = '0.250000' points = '301.3,160.2 301.3,242.4 302.0,242.4 302.0,161.0 '/>
		<polygon fill = 'rgb( 31, 120, 180)' fill-opacity = '0.250000' points = '302.0,161.0 302.0,242.4 302.7,242.4 302.7,161.8 '/>
		<polygon fill = 'rgb( 31, 120, 180)' fill-opacity = '0.250000' points = '302.7,161.8 302.7,242.4 303.3,242.4 303.3,162.6 '/>
		<polygon fill = 'rgb( 31, 120, 180)' fill-opacity = '0.250000' points = '303.3,162.6 303.3,242.4 304.0,242.4 304.0,163.5 '/>
		<polygon fill = 'rgb( 31, 120, 180)' fill-opacity = '0.250000' points = '304.0,163.5 304.0,242.4 304.6,242.4 304.6,164.3 '/>
		<polygon fill = 'rgb( 31, 120, 180)' fill-opacity = '0.250000' points = '304.6,164.3 304.6,242.4 305.3,242.4 305.3,165.1 '/>
		<polygon fill = 'rgb( 31, 120, 180)' fill-opacity = '0.250000' points = '305.3,165.1 305.3,242.4 306.0,242.4 306.0,165.9 '/>
		<polygon fill = 'rgb( 31, 120, 180)' fill-opacity = '0.250000' points = '306.0,165.9 306.0,242.4 306.6,242.4 306.6,166.8 '/>
		<polygon fill = 'rgb( 31, 120, 180)' fill-opacity = '0.250000' points = '306.6,166.8 306.6,242.4 307.3,242.4 307.3,167.6 '/>
		<polygon fill = 'rgb( 31, 120, 180)' fill-opacity = '0.250000' points = '307.3,167.6 307.3,242.4 307.9,242.4 307.9,168.5 '/>
		<polygon fill = 'rgb( 31, 120, 180)' fill-opacity = '0.250000' points = '307.9,168.5 307.9,242.4 308.6,242.4 308.6,169.3 '/>
		<polygon fill = 'rgb( 31, 120, 180)' fill-opacity = '0.250000' points = '308.6,169.3 308.6,242.4 309.2,242.4 309.2,170.1 '/>
		<polygon fill = 'rgb( 31, 120, 180)' fill-opacity = '0.250000' points = '309.2,170.1 309.2,242.4 309.9,242.4 309.9,171.0 '/>
		<polygon fill = 'rgb( 31, 120, 180)' fill-opacity = '0.250000' points = '309.9,171.0 309.9,242.4 310.6,242.4 310.6,171.8 '/>
		<polygon fill = 'rgb( 31, 120, 180)' fill-opacity = '0.250000' points = '310.6,171.8 310.6,242.4 311.2,242.4 311.2,172.7 '/>
		<polygon fill = 'rgb( 31, 120, 180)' fill-opacity = '0.250000' points = '311.2,172.7 311.2,242.4 311.9,242.4 311.9,173.5 '/>
		<polygon fill = 'rgb( 31, 120, 180)' fill-opacity = '0.250000' points = '311.9,173.5 311.9,242.4 312.5,242.4 312.5,174.4 '/>
		<polygon fill = 'rgb( 31, 120, 180)' fill-opacity = '0.250000' points = '312.5,174.4 312.5,242.4 313.2,242.4 313.2,175.2 '/>
		<polygon fill = 'rgb( 31, 120, 180)' fill-opacity = '0.250000' points = '313.2,175.2 313.2,242.4 313.8,242.4 313.8,176.1 '/>
		<polygon fill = 'rgb( 31, 120, 180)' fill-opacity = '0.250000' points = '313.8,176.1 313.8,242.4 314.5,242.4 314.5,176.9 '/>
		<polygon fill = 'rgb( 31, 120, 180)' fill-opacity = '0.250000' points = '314.5,176.9 314.5,242.4 315.2,242.4 315.2,177.7 '/>
		<polygon fill = 'rgb( 31, 120, 180)' fill-opacity = '0.250000' points = '315.2,177.7 315.2,242.4 315.8,242.4 315.8,178.6 '/>
		<polygon fill = 'rgb( 31, 120, 180)' fill-opacity = '0.250000' points = '315.8,178.6 315.8,242.4 316.5,242.4 316.5,179.4 '/>
		<polygon fill = 'rgb( 31, 120, 180)' fill-opacity = '0.250000' points = '316.5,179.4 316.5,242.4 317.1,242.4 317.1,180.2 '/>
		<polygon fill = 'rgb( 31, 120, 180)' fill-opacity = '0.250000' points = '317.1,180.2 317.1,242.4 317.8,242.4 317.8,181.0 '/>
		<polygon fill = 'rgb( 31, 120, 180)' fill-opacity = '0.250000' points = '317.8,181.0 317.8,242.4 318.5,242.4 318.5,181.9 '/>
		<polygon fill = 'rgb( 31, 120, 180)' fill-opacity = '0.250000' points = '318.5,181.9 318.5,242.4 319.1,242.4 319.1,182.7 '/>
		<polygon fill = 'rgb( 31, 120, 180)' fill-opacity = '0.250000' points = '319.1,182.7 319.1,242.4 319.8,242.4 319.8,183.5 '/>
		<polygon fill = 'rgb( 31, 120, 180)' fill-opacity = '0.250000' points = '319.8,183.5 319.8,242.4 320.4,242.4 320.4,184.3 '/>
		<polygon fill = 'rgb( 31, 120, 180)' fill-opacity = '0.250000' points = '320.4,184.3 320.4,242.4 321.1,242.4 321.1,185.1 '/>
		<polygon fill = 'rgb( 31, 120, 180)' fill-opacity = '0.250000' points = '321.1,185.1 321.1,242.4 321.7,242.4 321.7,185.9 '/>
		<polygon fill = 'rgb( 31, 120, 180)' fill-opacity = '0.250000' points = '321.7,185.9 321.7,242.4 322.4,242.4 322.4,186.7 '/>
		<polygon fill = 'rgb( 31, 120, 180)' fill-opacity = '0.250000' points = '322.4,186.7 322.4,242.4 323.1,242.4 323.1,187.5 '/>
		<polygon fill = 'rgb( 31, 120, 180)' fill-opacity = '0.250000' points = '323.1,187.5 323.1,242.4 323.7,242.4 323.7,188.2 '/>
		<polygon fill = 'rgb( 31, 120, 180)' fill-opacity = '0.250000' points = '323.7,188.2 323.7,242.4 324.4,242.4 324.4,189.0 '/>
		<polygon fill = 'rgb( 31, 120, 180)' fill-opacity = '0.250000' points = '324.4,189.0 324.4,242.4 325.0,242.4 325.0,189.8 '/>
		<polygon fill = 'rgb( 31, 120, 180)' fill-opacity = '0.250000' points = '325.0,189.8 325.0,242.4 325.7,242.4 325.7,190.5 '/>
		<polygon fill = 'rgb( 31, 120, 180)' fill-opacity = '0.250000' points = '325.7,190.5 325.7,242.4 326.3,242.4 326.3,191.3 '/>
		<polygon fill = 'rgb( 31, 120, 180)' fill-opacity = '0.250000' points = '326.3,191.3 326.3,242.4 327.0,242.4 327.0,192.0 '/>
		<polygon fill = 'rgb( 31, 120, 180)' fill-opacity = '0.250000' points = '327.0,192.0 327.0,242.4 327.7,242.4 327.7,192.7 '/>
		<polygon fill = 'rgb( 31, 120, 180)' fill-opacity = '0.250000' points = '327.7,192.7 327.7,242.4 328.3,242.4 328.3,193.5 '/>
		<polygon fill = 'rgb( 31, 120, 180)' fill-opacity = '0.250000' points = '328.3,193.5 328.3,242.4 329.0,242.4 329.0,194.2 '/>
		<polygon fill = 'rgb( 31, 120, 180)' fill-opacity = '0.250000' points = '329.0,194.2 329.0,242.4 329.6,242.4 329.6,194.9 '/>
		<polygon fill = 'rgb( 31, 120, 180)' fill-opacity = '0.250000' points = '329.6,194.9 329.6,242.4 330.3,242.4 330.3,195.6 '/>
		<polygon fill = 'rgb( 31, 120, 180)' fill-opacity = '0.250000' points = '330.3,195.6 330.3,242.4 330.9,242.4 330.9,196.3 '/>
		<polygon fill = 'rgb( 31, 120, 180)' fill-opacity = '0.250000' points = '330.9,196.3 330.9,242.4 331.6,242.4 331.6,197.0 '/>
		<polygon fill = 'rgb( 31, 120, 180)' fill-opacity = '0.250000' points = '331.6,197.0 331.6,242.4 332.3,242.4 332.3,197.7 '/>
		<polygon fill = 'rgb( 31, 120, 180)' fill-opacity = '0.250000' points = '332.3,197.7 332.3,242.4 332.9,242.4 332.9,198.4 '/>
		<polygon fill = 'rgb( 31, 120, 180)' fill-opacity = '0.250000' points = '332.9,198.4 332.9,242.4 333.6,242.4 333.6,199.1 '/>
		<polygon fill = 'rgb( 31, 120, 180)' fill-opacity = '0.250000' points = '333.6,199.1 333.6,242.4 334.2,242.4 334.2,199.7 '/>
		<polygon fill = 'rgb( 31, 120, 180)' fill-opacity = '0.250000' points = '334.2,199.7 334.2,242.4 334.9,242.4 334.9,200.4 '/>
		<polygon fill = 'rgb( 31, 120, 180)' fill-opacity = '0.250000' points = '334.9,200.4 334.9,242.4 335.6,242.4 335.6,201.1 '/>
		<polygon fill = 'rgb( 31, 120, 180)' fill-opacity = '0.250000' points = '335.6,201.1 335.6,242.4 336.2,242.4 336.2,201.7 '/>
		<polygon fill = 'rgb( 31, 120, 180)' fill-opacity = '0.250000' points = '336.2,201.7 336.2,242.4 336.9,242.4 336.9,202.3 '/>
		<polygon fill = 'rgb( 31, 120, 180)' fill-opacity = '0.250000' points = '336.9,202.3 336.9,242.4 337.5,242.4 337.5,203.0 '/>
		<polygon fill = 'rgb( 31, 120, 180)' fill-opacity = '0.250000' points = '337.5,203.0 337.5,242.4 338.2,242.4 338.2,203.6 '/>
		<polygon fill = 'rgb( 31, 120, 180)' fill-opacity = '0.250000' points = '338.2,203.6 338.2,242.4 338.8,242.4 338.8,204.2 '/>
		<polygon fill = 'rgb( 31, 120, 180)' fill-opacity = '0.250000' points = '338.8,204.2 338.8,242.4 339.5,242.4 339.5,204.9 '/>
		<polygon fill = 'rgb( 31, 120, 180)' fill-opacity = '0.250000' points = '339.5,204.9 339.5,242.4 340.2,242.4 340.2,205.5 '/>
		<polygon fill = 'rgb( 31, 120, 180)' fill-opacity = '0.250000' points = '340.2,205.5 340.2,242.4 340.8,242.4 340.8,206.1 '/>
		<polygon fill = 'rgb( 31, 120, 180)' fill-opacity = '0.250000' points = '340.8,206.1 340.8,242.4 341.5,242.4 341.5,206.7 '/>
		<polygon fill = 'rgb( 31, 120, 180)' fill-opacity = '0.250000' points = '341.5,206.7 341.5,242.4 342.1,242.4 342.1,207.3 '/>
		<polygon fill = 'rgb( 31, 120, 180)' fill-opacity = '0.250000' points = '342.1,207.3 342.1,242.4 342.8,242.4 342.8,207.9 '/>
		<polygon fill = 'rgb( 31, 120, 180)' fill-opacity = '0.250000' points = '342.8,207.9 342.8,242.4 343.4,242.4 343.4,208.5 '/>
		<polygon fill = 'rgb( 31, 120, 180)' fill-opacity = '0.250000' points = '343.4,208.5 343.4,242.4 344.1,242.4 344.1,209.0 '/>
		<polygon fill = 'rgb( 31, 120, 180)' fill-opacity = '0.250000' points = '344.1,209.0 344.1,242.4 344.8,242.4 344.8,209.6 '/>
		<polygon fill = 'rgb( 31, 120, 180)' fill-opacity = '0.250000' points = '344.8,209.6 344.8,242.4 345.4,242.4 345.4,210.2 '/>
		<polygon fill = 'rgb( 31, 120, 180)' fill-opacity = '0.250000' points = '345.4,210.2 345.4,242.4 346.1,242.4 346.1,210.8 '/>
		<polygon fill = 'rgb( 31, 120, 180)' fill-opacity = '0.250000' points = '346.1,210.8 346.1,242.4 346.7,242.4 346.7,211.3 '/>
		<polygon fill = 'rgb( 31, 120, 180)' fill-opacity = '0.250000' points = '346.7,211.3 346.7,242.4 347.4,242.4 347.4,211.9 '/>
		<polygon fill = 'rgb( 31, 120, 180)' fill-opacity = '0.250000' points = '347.4,211.9 347.4,242.4 348.0,242.4 348.0,212.4 '/>
		<polygon fill = 'rgb( 31, 120, 180)' fill-opacity = '0.250000' points = '348.0,212.4 348.0,242.4 348.7,242.4 348.7,213.0 '/>
		<polygon fill = 'rgb( 31, 120, 180)' fill-opacity = '0.250000' points = '348.7,213.0 348.7,242.4 349.4,242.4 349.4,213.5 '/>
		<polygon fill = 'rgb( 31, 120, 180)' fill-opacity = '0.250000' points = '349.4,213.5 349.4,242.4 350.0,242.4 350.0,214.1 '/>
		<polygon fill = 'rgb( 31, 120, 180)' fill-opacity = '0.250000' points = '350.0,214.1 350.0,242.4 350.7,242.4 350.7,214.6 '/>
		<polygon fill = 'rgb( 31, 120, 180)' fill-opacity = '0.250000' points = '350.7,214.6 350.7,242.4 351.3,242.4 351.3,215.1 '/>
		<polygon fill = 'rgb( 31, 120, 180)' fill-opacity = '0.250000' points = '351.3,215.1 351.3,242.4 352.0,242.4 352.0,215.7 '/>
		<polygon fill = 'rgb( 31, 120, 180)' fill-opacity = '0.250000' points = '352.0,215.7 352.0,242.4 352.7,242.4 352.7,216.2 '/>
		<polygon fill = 'rgb( 31, 120, 180)' fill-opacity = '0.250000' points = '352.7,216.2 352.7,242.4 353.3,242.4 353.3,216.7 '/>
		<polygon fill = 'rgb( 31, 120, 180)' fill-opacity = '0.250000' points = '353.3,216.7 353.3,242.4 354.0,242.4 354.0,217.2 '/>
		<polygon fill = 'rgb( 31, 120, 180)' fill-opacity = '0.250000' points = '354.0,217.2 354.0,242.4 354.6,242.4 354.6,217.7 '/>
		<polygon fill = 'rgb( 31, 120, 180)' fill-opacity = '0.250000' points = '354.6,217.7 354.6,242.4 355.3,242.4 355.3,218.2 '/>
		<polygon fill = 'rgb( 31, 120, 180)' fill-opacity = '0.250000' points = '355.3,218.2 355.3,242.4 355.9,242.4 355.9,218.7 '/>
		<polygon fill = 'rgb( 31, 120, 180)' fill-opacity = '0.250000' points = '355.9,218.7 355.9,242.4 356.6,242.4 356.6,219.2 '/>
		<polygon fill = 'rgb( 31, 120, 180)' fill-opacity = '0.250000' points = '356.6,219.2 356.6,242.4 357.3,242.4 357.3,219.7 '/>
		<polygon fill = 'rgb( 31, 120, 180)' fill-opacity = '0.250000' points = '357.3,219.7 357.3,242.4 357.9,242.4 357.9,220.2 '/>
		<polygon fill = 'rgb( 31, 120, 180)' fill-opacity = '0.250000' points = '357.9,220.2 357.9,242.4 358.6,242.4 358.6,220.7 '/>
		<polygon fill = 'rgb( 31, 120, 180)' fill-opacity = '0.250000' points = '358.6,220.7 358.6,242.4 359.2,242.4 359.2,221.2 '/>
		<polygon fill = 'rgb( 31, 120, 180)' fill-opacity = '0.250000' points = '359.2,221.2 359.2,242.4 359.9,242.4 359.9,221.7 '/>
		<polygon fill = 'rgb( 31, 120, 180)' fill-opacity = '0.250000' points = '359.9,221.7 359.9,242.4 360.5,242.4 360.5,222.2 '/>
		<polygon fill = 'rgb( 31, 120, 180)' fill-opacity = '0.250000' points = '360.5,222.2 360.5,242.4 361.2,242.4 361.2,222.6 '/>
		<polygon fill = 'rgb( 31, 120, 180)' fill-opacity = '0.250000' points = '361.2,222.6 361.2,242.4 361.9,242.4 361.9,223.1 '/>
		<polygon fill = 'rgb( 31, 120, 180)' fill-opacity = '0.250000' points = '361.9,223.1 361.9,242.4 362.5,242.4 362.5,223.6 '/>
		<polygon fill = 'rgb( 31, 120, 180)' fill-opacity = '0.250000' points = '362.5,223.6 362.5,242.4 363.2,242.4 363.2,224.0 '/>
		<polygon fill = 'rgb( 31, 120, 180)' fill-opacity = '0.250000' points = '363.2,224.0 363.2,242.4 363.8,242.4 363.8,224.5 '/>
		<polygon fill = 'rgb( 31, 120, 180)' fill-opacity = '0.250000' points = '363.8,224.5 363.8,242.4 364.5,242.4 364.5,224.9 '/>
		<polygon fill = 'rgb( 31, 120, 180)' fill-opacity = '0.250000' points = '364.5,224.9 364.5,242.4 365.1,242.4 365.1,225.3 '/>
		<polygon fill = 'rgb( 31, 120, 180)' fill-opacity = '0.250000' points = '365.1,225.3 365.1,242.4 365.8,242.4 365.8,225.8 '/>
		<polygon fill = 'rgb( 31, 120, 180)' fill-opacity = '0.250000' points = '365.8,225.8 365.8,242.4 366.5,242.4 366.5,226.2 '/>
		<polygon fill = 'rgb( 31, 120, 180)' fill-opacity = '0.250000' points = '366.5,226.2 366.5,242.4 367.1,242.4 367.1,226.6 '/>
		<polygon fill = 'rgb( 31, 120, 180)' fill-opacity = '0.250000' points = '367.1,226.6 367.1,242.4 367.8,242.4 367.8,227.1 '/>
		<polygon fill = 'rgb( 31, 120, 180)' fill-opacity = '0.250000' points = '367.8,227.1 367.8,242.4 368.4,242.4 368.4,227.5 '/>
		<polygon fill = 'rgb( 31, 120, 180)' fill-opacity = '0.250000' points = '368.4,227.5 368.4,242.4 369.1,242.4 369.1,227.9 '/>
		<polygon fill = 'rgb( 31, 120, 180)' fill-opacity = '0.250000' points = '369.1,227.9 369.1,242.4 369.8,242.4 369.8,228.3 '/>
		<polygon fill = 'rgb( 31, 120, 180)' fill-opacity = '0.250000' points = '369.8,228.3 369.8,242.4 370.4,242.4 370.4,228.7 '/>
		<polygon fill = 'rgb( 31, 120, 180)' fill-opacity = '0.250000' points = '370.4,228.7 370.4,242.4 371.1,242.4 371.1,229.1 '/>
		<polygon fill = 'rgb( 31, 120, 180)' fill-opacity = '0.250000' points = '371.1,229.1 371.1,242.4 371.7,242.4 371.7,229.5 '/>
		<polygon fill = 'rgb( 31, 120, 180)' fill-opacity = '0.250000' points = '371.7,229.5 371.7,242.4 372.4,242.4 372.4,229.9 '/>
		<polygon fill = 'rgb( 31, 120, 180)' fill-opacity = '0.250000' points = '372.4,229.9 372.4,242.4 373.0,242.4 373.0,230.2 '/>
		<polygon fill = 'rgb( 31, 120, 180)' fill-opacity = '0.250000' points = '373.0,230.2 373.0,242.4 373.7,242.4 373.7,230.6 '/>
		<polygon fill = 'rgb( 31, 120, 180)' fill-opacity = '0.250000' points = '373.7,230.6 373.7,242.4 374.4,242.4 374.4,231.0 '/>
		<polygon fill = 'rgb( 31, 120, 180)' fill-opacity = '0.250000' points = '374.4,231.0 374.4,242.4 375.0,242.4 375.0,231.3 '/>
		<polygon fill = 'rgb( 31, 120, 180)' fill-opacity = '0.250000' points = '375.0,231.3 375.0,242.4 375.7,242.4 375.7,231.7 '/>
		<polygon fill = 'rgb( 31, 120, 180)' fill-opacity = '0.250000' points = '375.7,231.7 375.7,242.4 376.3,242.4 376.3,232.0 '/>
		<polygon fill = 'rgb( 31, 120, 180)' fill-opacity = '0.250000' points = '376.3,232.0 376.3,242.4 377.0,242.4 377.0,232.4 '/>
		<polygon fill = 'rgb( 31, 120, 180)' fill-opacity = '0.250000' points = '377.0,232.4 377.0,242.4 377.6,242.4 377.6,232.7 '/>
		<polygon fill = 'rgb( 31, 120, 180)' fill-opacity = '0.250000' points = '377.6,232.7 377.6,242.4 378.3,242.4 378.3,233.0 '/>
		<polygon fill = 'rgb( 31, 120, 180)' fill-opacity = '0.250000' points = '378.3,233.0 378.3,242.4 379.0,242.4 379.0,233.3 '/>
		<polygon fill = 'rgb( 31, 120, 180)' fill-opacity = '0.250000' points = '379.0,233.3 379.0,242.4 379.6,242.4 379.6,233.7 '/>
		<polygon fill = 'rgb( 31, 120, 180)' fill-opacity = '0.250000' points = '379.6,233.7 379.6,242.4 380.3,242.4 380.3,234.0 '/>
		<polygon fill = 'rgb( 31, 120, 180)' fill-opacity = '0.250000' points = '380.3,234.0 380.3,242.4 380.9,242.4 380.9,234.3 '/>
		<polygon fill = 'rgb( 31, 120, 180)' fill-opacity = '0.250000' points = '380.9,234.3 380.9,242.4 381.6,242.4 381.6,234.5 '/>
		<polygon fill = 'rgb( 31, 120, 180)' fill-opacity = '0.250000' points = '381.6,234.5 381.6,242.4 382.2,242.4 382.2,234.8 '/>
		<polygon fill = 'rgb( 31, 120, 180)' fill-opacity = '0.250000' points = '382.2,234.8 382.2,242.4 382.9,242.4 382.9,235.1 '/>
		<polygon fill = 'rgb( 31, 120, 180)' fill-opacity = '0.250000' points = '382.9,235.1 382.9,242.4 383.6,242.4 383.6,235.4 '/>
		<polygon fill = 'rgb( 31, 120, 180)' fill-opacity = '0.250000' points = '383.6,235.4 383.6,242.4 384.2,242.4 384.2,235.6 '/>
		<polygon fill = 'rgb( 31, 120, 180)' fill-opacity = '0.250000' points = '384.2,235.6 384.2,242.4 384.9,242.4 384.9,235.9 '/>
		<polygon fill = 'rgb( 31, 120, 180)' fill-opacity = '0.250000' points = '384.9,235.9 384.9,242.4 385.5,242.4 385.5,236.2 '/>
		<polygon fill = 'rgb( 31, 120, 180)' fill-opacity = '0.250000' points = '385.5,236.2 385.5,242.4 386.2,242.4 386.2,236.4 '/>
		<polygon fill = 'rgb( 31, 120, 180)' fill-opacity = '0.250000' points = '386.2,236.4 386.2,242.4 386.9,242.4 386.9,236.6 '/>
		<polygon fill = 'rgb( 31, 120, 180)' fill-opacity = '0.250000' points = '386.9,236.6 386.9,242.4 387.5,242.4 387.5,236.9 '/>
		<polygon fill = 'rgb( 31, 120, 180)' fill-opacity = '0.250000' points = '387.5,236.9 387.5,242.4 388.2,242.4 388.2,237.1 '/>
		<polygon fill = 'rgb( 31, 120, 180)' fill-opacity = '0.250000' points = '388.2,237.1 388.2,242.4 388.8,242.4 388.8,237.3 '/>
		<polygon fill = 'rgb( 31, 120, 180)' fill-opacity = '0.250000' points = '388.8,237.3 388.8,242.4 389.5,242.4 389.5,237.5 '/>
		<polygon fill = 'rgb( 31, 120, 180)' fill-opacity = '0.250000' points = '389.5,237.5 389.5,242.4 390.1,242.4 390.1,237.7 '/>
		<polygon fill = 'rgb( 31, 120, 180)' fill-opacity = '0.250000' points = '390.1,237.7 390.1,242.4 390.8,242.4 390.8,237.9 '/>
		<polygon fill = 'rgb( 31, 120, 180)' fill-opacity = '0.250000' points = '390.8,237.9 390.8,242.4 391.5,242.4 391.5,238.1 '/>
		<polygon fill = 'rgb( 31, 120, 180)' fill-opacity = '0.250000' points = '391.5,238.1 391.5,242.4 392.1,242.4 392.1,238.3 '/>
		<polygon fill = 'rgb( 31, 120, 180)' fill-opacity = '0.250000' points = '392.1,238.3 392.1,242.4 392.8,242.4 392.8,238.5 '/>
		<polygon fill = 'rgb( 31, 120, 180)' fill-opacity = '0.250000' points = '392.8,238.5 392.8,242.4 393.4,242.4 393.4,238.7 '/>
		<polygon fill = 'rgb( 31, 120, 180)' fill-opacity = '0.250000' points = '393.4,238.7 393.4,242.4 394.1,242.4 394.1,238.8 '/>
		<polygon fill = 'rgb( 31, 120, 180)' fill-opacity = '0.250000' points = '394.1,238.8 394.1,242.4 394.7,242.4 394.7,239.0 '/>
		<polygon fill = 'rgb( 31, 120, 180)' fill-opacity = '0.250000' points = '394.7,239.0 394.7,242.4 395.4,242.4 395.4,239.1 '/>
		<polygon fill = 'rgb( 31, 120, 180)' fill-opacity = '0.250000' points = '395.4,239.1 395.4,242.4 396.1,242.4 396.1,239.3 '/>
		<polygon fill = 'rgb( 31, 120, 180)' fill-opacity = '0.250000' points = '396.1,239.3 396.1,242.4 396.7,242.4 396.7,239.4 '/>
		<polygon fill = 'rgb( 31, 120, 180)' fill-opacity = '0.250000' points = '396.7,239.4 396.7,242.4 397.4,242.4 397.4,239.6 '/>
		<polygon fill = 'rgb( 31, 120, 180)' fill-opacity = '0.250000' points = '397.4,239.6 397.4,242.4 398.0,242.4 398.0,239.7 '/>
		<polygon fill = 'rgb( 31, 120, 180)' fill-opacity = '0.250000' points = '398.0,239.7 398.0,242.4 398.7,242.4 398.7,239.9 '/>
		<polygon fill = 'rgb( 31, 120, 180)' fill-opacity = '0.250000' points = '398.7,239.9 398.7,242.4 399.3,242.4 399.3,240.0 '/>
		<polygon fill = 'rgb( 31, 120, 180)' fill-opacity = '0.250000' points = '399.3,240.0 399.3,242.4 400.0,242.4 400.0,240.1 '/>
		<polygon fill = 'rgb( 31, 120, 180)' fill-opacity = '0.250000' points = '400.0,240.1 400.0,242.4 400.7,242.4 400.7,240.2 '/>
		<polygon fill = 'rgb( 31, 120, 180)' fill-opacity = '0.250000' points = '400.7,240.2 400.7,242.4 401.3,242.4 401.3,240.3 '/>
		<polygon fill = 'rgb( 31, 120, 180)' fill-opacity = '0.250000' points = '401.3,240.3 401.3,242.4 402.0,242.4 402.0,240.4 '/>
		<polygon fill = 'rgb( 31, 120, 180)' fill-opacity = '0.250000' points = '402.0,240.4 402.0,242.4 402.6,242.4 402.6,240.5 '/>
		<polygon fill = 'rgb( 31, 120, 180)' fill-opacity = '0.250000' points = '402.6,240.5 402.6,242.4 403.3,242.4 403.3,240.6 '/>
		<polygon fill = 'rgb( 31, 120, 180)' fill-opacity = '0.250000' points = '403.3,240.6 403.3,242.4 404.0,242.4 404.0,240.7 '/>
		<polygon fill = 'rgb( 31, 120, 180)' fill-opacity = '0.250000' points = '404.0,240.7 404.0,242.4 404.6,242.4 404.6,240.8 '/>
		<polygon fill = 'rgb( 31, 120, 180)' fill-opacity = '0.250000' points = '404.6,240.8 404.6,242.4 405.3,242.4 405.3,240.9 '/>
		<polygon fill = 'rgb( 31, 120, 180)' fill-opacity = '0.250000' points = '405.3,240.9 405.3,242.4 405.9,242.4 405.9,241.0 '/>
		<polygon fill = 'rgb( 31, 120, 180)' fill-opacity = '0.250000' points = '405.9,241.0 405.9,242.4 406.6,242.4 406.6,241.1 '/>
		<polygon fill = 'rgb( 31, 120, 180)' fill-opacity = '0.250000' points = '406.6,241.1 406.6,242.4 407.2,242.4 407.2,241.1 '/>
		<polygon fill = 'rgb( 31, 120, 180)' fill-opacity = '0.250000' points = '407.2,241.1 407.2,242.4 407.9,242.4 407.9,241.2 '/>
		<polygon fill = 'rgb( 31, 120, 180)' fill-opacity = '0.250000' points = '407.9,241.2 407.9,242.4 408.6,242.4 408.6,241.3 '/>
		<polygon fill = 'rgb( 31, 120, 180)' fill-opacity = '0.250000' points = '408.6,241.3 408.6,242.4 409.2,242.4 409.2,241.3 '/>
		<polygon fill = 'rgb( 31, 120, 180)' fill-opacity = '0.250000' points = '409.2,241.3 409.2,242.4 409.9,242.4 409.9,241.4 '/>
		<polygon fill = 'rgb( 31, 120, 180)' fill-opacity = '0.250000' points = '409.9,241.4 409.9,242.4 410.5,242.4 410.5,241.5 '/>
		<polygon fill = 'rgb( 31, 120, 180)' fill-opacity = '0.250000' points = '410.5,241.5 410.5,242.4 411.2,242.4 411.2,241.5 '/>
		<polygon fill = 'rgb( 31, 120, 180)' fill-opacity = '0.250000' points = '411.2,241.5 411.2,242.4 411.8,242.4 411.8,241.6 '/>
		<polygon fill = 'rgb( 31, 120, 180)' fill-opacity = '0.250000' points = '411.8,241.6 411.8,242.4 412.5,242.4 412.5,241.6 '/>
		<polygon fill = 'rgb( 31, 120, 180)' fill-opacity = '0.250000' points = '412.5,241.6 412.5,242.4 413.2,242.4 413.2,241.7 '/>
		<polygon fill = 'rgb( 31, 120, 180)' fill-opacity = '0.250000' points = '413.2,241.7 413.2,242.4 413.8,242.4 413.8,241.7 '/>
		<polygon fill = 'rgb( 31, 120, 180)' fill-opacity = '0.250000' points = '413.8,241.7 413.8,242.4 414.5,242.4 414.5,241.7 '/>
		<polygon fill = 'rgb( 31, 120, 180)' fill-opacity = '0.250000' points = '414.5,241.7 414.5,242.4 415.1,242.4 415.1,241.8 '/>
		<polygon fill = 'rgb( 31, 120, 180)' fill-opacity = '0.250000' points = '415.1,241.8 415.1,242.4 415.8,242.4 415.8,241.8 '/>
		<polygon fill = 'rgb( 31, 120, 180)' fill-opacity = '0.250000' points = '415.8,241.8 415.8,242.4 416.4,242.4 416.4,241.9 '/>
		<polygon fill = 'rgb( 31, 120, 180)' fill-opacity = '0.250000' points = '416.4,241.9 416.4,242.4 417.1,242.4 417.1,241.9 '/>
		<polygon fill = 'rgb( 31, 120, 180)' fill-opacity = '0.250000' points = '417.1,241.9 417.1,242.4 417.8,242.4 417.8,241.9 '/>
		<polygon fill = 'rgb( 31, 120, 180)' fill-opacity = '0.250000' points = '417.8,241.9 417.8,242.4 418.4,242.4 418.4,242.0 '/>
		<polygon fill = 'rgb( 31, 120, 180)' fill-opacity = '0.250000' points = '418.4,242.0 418.4,242.4 419.1,242.4 419.1,242.0 '/>
		<polygon fill = 'rgb( 31, 120, 180)' fill-opacity = '0.250000' points = '419.1,242.0 419.1,242.4 419.7,242.4 419.7,242.0 '/>
		<polygon fill = 'rgb( 31, 120, 180)' fill-opacity = '0.250000' points = '419.7,242.0 419.7,242.4 420.4,242.4 420.4,242.0 '/>
		<polygon fill = 'rgb( 31, 120, 180)' fill-opacity = '0.250000' points = '420.4,242.0 420.4,242.4 421.1,242.4 421.1,242.1 '/>
		<polygon fill = 'rgb( 31, 120, 180)' fill-opacity = '0.250000' points = '421.1,242.1 421.1,242.4 421.7,242.4 421.7,242.1 '/>
		<polygon fill = 'rgb( 31, 120, 180)' fill-opacity = '0.250000' points = '421.7,242.1 421.7,242.4 422.4,242.4 422.4,242.1 '/>
		<polygon fill = 'rgb( 31, 120, 180)' fill-opacity = '0.250000' points = '422.4,242.1 422.4,242.4 423.0,242.4 423.0,242.1 '/>
		<polygon fill = 'rgb( 31, 120, 180)' fill-opacity = '0.250000' points = '423.0,242.1 423.0,242.4 423.7,242.4 423.7,242.1 '/>
		<polygon fill = 'rgb( 31, 120, 180)' fill-opacity = '0.250000' points = '423.7,242.1 423.7,242.4 424.3,242.4 424.3,242.2 '/>
		<polygon fill = 'rgb( 31, 120, 180)' fill-opacity = '0.250000' points = '424.3,242.2 424.3,242.4 425.0,242.4 425.0,242.2 '/>
	</g>
</g>
	</g>
	<g id="gnuplot_plot_2" ><title>Mean</title>
<g fill="none" color="white" stroke="rgb( 31, 120, 180)" stroke-width="2.00" stroke-linecap="butt" stroke-linejoin="miter">
</g>
<g fill="none" color="black" stroke="currentColor" stroke-width="2.00" stroke-linecap="butt" stroke-linejoin="miter">
	<path stroke='rgb( 31, 120, 180)'  d='M232.0,242.4 L232.0,76.4  '/></g>
	</g>
<g fill="none" color="black" stroke="currentColor" stroke-width="2.00" stroke-linecap="butt" stroke-linejoin="miter">
</g>
<g fill="none" color="black" stroke="black" stroke-width="1.00" stroke-linecap="butt" stroke-linejoin="miter">
</g>
<g fill="none" color="black" stroke="currentColor" stroke-width="1.00" stroke-linecap="butt" stroke-linejoin="miter">
	<path stroke='black'  d='M96.8,16.7 L96.8,242.4 L425.0,242.4 L425.0,16.7 L96.8,16.7 Z  '/></g>
<g fill="none" color="black" stroke="currentColor" stroke-width="1.00" stroke-linecap="butt" stroke-linejoin="miter">
</g>
</g>
</svg>

