<?xml version="1.0" encoding="utf-8"  standalone="no"?>
<svg 
 viewBox="0 0 1280 720"
 xmlns="http://www.w3.org/2000/svg"
 xmlns:xlink="http://www.w3.org/1999/xlink"
>

<title>Gnuplot</title>
<desc>Produced by GNUPLOT 5.0 patchlevel 6 </desc>

<g id="gnuplot_canvas">

<rect x="0" y="0" width="1280" height="720" fill="none"/>
<defs>

	<circle id='gpDot' r='0.5' stroke-width='0.5'/>
	<path id='gpPt0' stroke-width='0.222' stroke='currentColor' d='M-1,0 h2 M0,-1 v2'/>
	<path id='gpPt1' stroke-width='0.222' stroke='currentColor' d='M-1,-1 L1,1 M1,-1 L-1,1'/>
	<path id='gpPt2' stroke-width='0.222' stroke='currentColor' d='M-1,0 L1,0 M0,-1 L0,1 M-1,-1 L1,1 M-1,1 L1,-1'/>
	<rect id='gpPt3' stroke-width='0.222' stroke='currentColor' x='-1' y='-1' width='2' height='2'/>
	<rect id='gpPt4' stroke-width='0.222' stroke='currentColor' fill='currentColor' x='-1' y='-1' width='2' height='2'/>
	<circle id='gpPt5' stroke-width='0.222' stroke='currentColor' cx='0' cy='0' r='1'/>
	<use xlink:href='#gpPt5' id='gpPt6' fill='currentColor' stroke='none'/>
	<path id='gpPt7' stroke-width='0.222' stroke='currentColor' d='M0,-1.33 L-1.33,0.67 L1.33,0.67 z'/>
	<use xlink:href='#gpPt7' id='gpPt8' fill='currentColor' stroke='none'/>
	<use xlink:href='#gpPt7' id='gpPt9' stroke='currentColor' transform='rotate(180)'/>
	<use xlink:href='#gpPt9' id='gpPt10' fill='currentColor' stroke='none'/>
	<use xlink:href='#gpPt3' id='gpPt11' stroke='currentColor' transform='rotate(45)'/>
	<use xlink:href='#gpPt11' id='gpPt12' fill='currentColor' stroke='none'/>
	<path id='gpPt13' stroke-width='0.222' stroke='currentColor' d='M0,1.330 L1.265,0.411 L0.782,-1.067 L-0.782,-1.076 L-1.265,0.411 z'/>
	<use xlink:href='#gpPt13' id='gpPt14' fill='currentColor' stroke='none'/>
	<filter id='textbox' filterUnits='objectBoundingBox' x='0' y='0' height='1' width='1'>
	  <feFlood flood-color='white' flood-opacity='1' result='bgnd'/>
	  <feComposite in='SourceGraphic' in2='bgnd' operator='atop'/>
	</filter>
	<filter id='greybox' filterUnits='objectBoundingBox' x='0' y='0' height='1' width='1'>
	  <feFlood flood-color='lightgrey' flood-opacity='1' result='grey'/>
	  <feComposite in='SourceGraphic' in2='grey' operator='atop'/>
	</filter>
</defs>
<g fill="none" color="white" stroke="currentColor" stroke-width="1.00" stroke-linecap="butt" stroke-linejoin="miter">
</g>
<g fill="none" color="black" stroke="currentColor" stroke-width="1.00" stroke-linecap="butt" stroke-linejoin="miter">
	<path stroke='black'  d='M71.9,662.4 L80.9,662.4  '/>	<g transform="translate(63.6,666.3)" stroke="none" fill="black" font-family="Helvetica" font-size="12.00"  text-anchor="end">
		<text><tspan font-family="Helvetica" > 0</tspan></text>
	</g>
</g>
<g fill="none" color="black" stroke="currentColor" stroke-width="1.00" stroke-linecap="butt" stroke-linejoin="miter">
	<path stroke='black'  d='M71.9,575.5 L80.9,575.5  '/>	<g transform="translate(63.6,579.4)" stroke="none" fill="black" font-family="Helvetica" font-size="12.00"  text-anchor="end">
		<text><tspan font-family="Helvetica" > 50</tspan></text>
	</g>
</g>
<g fill="none" color="black" stroke="currentColor" stroke-width="1.00" stroke-linecap="butt" stroke-linejoin="miter">
	<path stroke='black'  d='M71.9,488.6 L80.9,488.6  '/>	<g transform="translate(63.6,492.5)" stroke="none" fill="black" font-family="Helvetica" font-size="12.00"  text-anchor="end">
		<text><tspan font-family="Helvetica" > 100</tspan></text>
	</g>
</g>
<g fill="none" color="black" stroke="currentColor" stroke-width="1.00" stroke-linecap="butt" stroke-linejoin="miter">
	<path stroke='black'  d='M71.9,401.7 L80.9,401.7  '/>	<g transform="translate(63.6,405.6)" stroke="none" fill="black" font-family="Helvetica" font-size="12.00"  text-anchor="end">
		<text><tspan font-family="Helvetica" > 150</tspan></text>
	</g>
</g>
<g fill="none" color="black" stroke="currentColor" stroke-width="1.00" stroke-linecap="butt" stroke-linejoin="miter">
	<path stroke='black'  d='M71.9,314.8 L80.9,314.8  '/>	<g transform="translate(63.6,318.7)" stroke="none" fill="black" font-family="Helvetica" font-size="12.00"  text-anchor="end">
		<text><tspan font-family="Helvetica" > 200</tspan></text>
	</g>
</g>
<g fill="none" color="black" stroke="currentColor" stroke-width="1.00" stroke-linecap="butt" stroke-linejoin="miter">
	<path stroke='black'  d='M71.9,227.9 L80.9,227.9  '/>	<g transform="translate(63.6,231.8)" stroke="none" fill="black" font-family="Helvetica" font-size="12.00"  text-anchor="end">
		<text><tspan font-family="Helvetica" > 250</tspan></text>
	</g>
</g>
<g fill="none" color="black" stroke="currentColor" stroke-width="1.00" stroke-linecap="butt" stroke-linejoin="miter">
	<path stroke='black'  d='M71.9,141.0 L80.9,141.0  '/>	<g transform="translate(63.6,144.9)" stroke="none" fill="black" font-family="Helvetica" font-size="12.00"  text-anchor="end">
		<text><tspan font-family="Helvetica" > 300</tspan></text>
	</g>
</g>
<g fill="none" color="black" stroke="currentColor" stroke-width="1.00" stroke-linecap="butt" stroke-linejoin="miter">
	<path stroke='black'  d='M71.9,54.1 L80.9,54.1  '/>	<g transform="translate(63.6,58.0)" stroke="none" fill="black" font-family="Helvetica" font-size="12.00"  text-anchor="end">
		<text><tspan font-family="Helvetica" > 350</tspan></text>
	</g>
</g>
<g fill="none" color="black" stroke="currentColor" stroke-width="1.00" stroke-linecap="butt" stroke-linejoin="miter">
	<path stroke='black'  d='M196.3,662.4 L196.3,653.4  '/>	<g transform="translate(196.3,684.3)" stroke="none" fill="black" font-family="Helvetica" font-size="12.00"  text-anchor="middle">
		<text><tspan font-family="Helvetica" >-1.2</tspan></text>
	</g>
</g>
<g fill="none" color="black" stroke="currentColor" stroke-width="1.00" stroke-linecap="butt" stroke-linejoin="miter">
	<path stroke='black'  d='M356.5,662.4 L356.5,653.4  '/>	<g transform="translate(356.5,684.3)" stroke="none" fill="black" font-family="Helvetica" font-size="12.00"  text-anchor="middle">
		<text><tspan font-family="Helvetica" >-1.1</tspan></text>
	</g>
</g>
<g fill="none" color="black" stroke="currentColor" stroke-width="1.00" stroke-linecap="butt" stroke-linejoin="miter">
	<path stroke='black'  d='M516.6,662.4 L516.6,653.4  '/>	<g transform="translate(516.6,684.3)" stroke="none" fill="black" font-family="Helvetica" font-size="12.00"  text-anchor="middle">
		<text><tspan font-family="Helvetica" >-1</tspan></text>
	</g>
</g>
<g fill="none" color="black" stroke="currentColor" stroke-width="1.00" stroke-linecap="butt" stroke-linejoin="miter">
	<path stroke='black'  d='M676.7,662.4 L676.7,653.4  '/>	<g transform="translate(676.7,684.3)" stroke="none" fill="black" font-family="Helvetica" font-size="12.00"  text-anchor="middle">
		<text><tspan font-family="Helvetica" >-0.9</tspan></text>
	</g>
</g>
<g fill="none" color="black" stroke="currentColor" stroke-width="1.00" stroke-linecap="butt" stroke-linejoin="miter">
	<path stroke='black'  d='M836.9,662.4 L836.9,653.4  '/>	<g transform="translate(836.9,684.3)" stroke="none" fill="black" font-family="Helvetica" font-size="12.00"  text-anchor="middle">
		<text><tspan font-family="Helvetica" >-0.8</tspan></text>
	</g>
</g>
<g fill="none" color="black" stroke="currentColor" stroke-width="1.00" stroke-linecap="butt" stroke-linejoin="miter">
	<path stroke='black'  d='M997.0,662.4 L997.0,653.4  '/>	<g transform="translate(997.0,684.3)" stroke="none" fill="black" font-family="Helvetica" font-size="12.00"  text-anchor="middle">
		<text><tspan font-family="Helvetica" >-0.7</tspan></text>
	</g>
</g>
<g fill="none" color="black" stroke="currentColor" stroke-width="1.00" stroke-linecap="butt" stroke-linejoin="miter">
</g>
<g fill="none" color="black" stroke="currentColor" stroke-width="1.00" stroke-linecap="butt" stroke-linejoin="miter">
	<path stroke='black'  d='M71.9,54.1 L71.9,662.4 L1013.6,662.4 L1013.6,54.1 L71.9,54.1 Z  '/></g>
<g fill="none" color="black" stroke="currentColor" stroke-width="1.00" stroke-linecap="butt" stroke-linejoin="miter">
	<g transform="translate(17.0,358.3) rotate(270)" stroke="none" fill="black" font-family="Helvetica" font-size="12.00"  text-anchor="middle">
		<text><tspan font-family="Helvetica" >Density (a.u.)</tspan></text>
	</g>
</g>
<g fill="none" color="black" stroke="currentColor" stroke-width="1.00" stroke-linecap="butt" stroke-linejoin="miter">
	<g transform="translate(542.7,711.3)" stroke="none" fill="black" font-family="Helvetica" font-size="12.00"  text-anchor="middle">
		<text><tspan font-family="Helvetica" >Relative change (%)</tspan></text>
	</g>
</g>
<g fill="none" color="black" stroke="currentColor" stroke-width="1.00" stroke-linecap="butt" stroke-linejoin="miter">
	<g transform="translate(542.7,31.0)" stroke="none" fill="black" font-family="Helvetica" font-size="12.00"  text-anchor="middle">
		<text><tspan font-family="Helvetica" >language: tsx/parse error: bash/examples/install.sh: mean</tspan></text>
	</g>
</g>
	<g id="gnuplot_plot_1" ><title>Bootstrap distribution</title>
<g fill="none" color="white" stroke="black" stroke-width="2.00" stroke-linecap="butt" stroke-linejoin="miter">
</g>
<g fill="none" color="black" stroke="currentColor" stroke-width="2.00" stroke-linecap="butt" stroke-linejoin="miter">
	<g transform="translate(1089.0,67.0)" stroke="none" fill="black" font-family="Helvetica" font-size="12.00"  text-anchor="start">
		<text><tspan font-family="Helvetica" >Bootstrap distribution</tspan></text>
	</g>
</g>
<g fill="none" color="black" stroke="currentColor" stroke-width="2.00" stroke-linecap="butt" stroke-linejoin="miter">
	<path stroke='rgb( 31, 120, 180)'  d='M1038.5,63.1 L1080.7,63.1 M71.9,628.1 L73.8,627.5 L75.7,626.9 L77.6,626.2 L79.4,625.6 L81.3,625.0
		L83.2,624.3 L85.1,623.7 L87.0,623.1 L88.9,622.5 L90.8,621.8 L92.7,621.2 L94.5,620.5 L96.4,619.8
		L98.3,619.1 L100.2,618.3 L102.1,617.5 L104.0,616.7 L105.9,615.8 L107.8,614.9 L109.6,613.9 L111.5,612.9
		L113.4,611.8 L115.3,610.6 L117.2,609.4 L119.1,608.2 L121.0,606.9 L122.9,605.6 L124.7,604.2 L126.6,602.8
		L128.5,601.3 L130.4,599.8 L132.3,598.3 L134.2,596.7 L136.1,595.2 L138.0,593.6 L139.8,592.0 L141.7,590.5
		L143.6,588.9 L145.5,587.3 L147.4,585.7 L149.3,584.2 L151.2,582.6 L153.0,581.1 L154.9,579.5 L156.8,578.0
		L158.7,576.4 L160.6,574.9 L162.5,573.3 L164.4,571.7 L166.3,570.1 L168.1,568.5 L170.0,566.8 L171.9,565.2
		L173.8,563.4 L175.7,561.7 L177.6,559.9 L179.5,558.1 L181.4,556.3 L183.2,554.4 L185.1,552.4 L187.0,550.5
		L188.9,548.5 L190.8,546.5 L192.7,544.5 L194.6,542.4 L196.5,540.4 L198.3,538.3 L200.2,536.2 L202.1,534.1
		L204.0,531.9 L205.9,529.8 L207.8,527.6 L209.7,525.5 L211.6,523.3 L213.4,521.1 L215.3,518.9 L217.2,516.6
		L219.1,514.4 L221.0,512.1 L222.9,509.8 L224.8,507.5 L226.6,505.1 L228.5,502.7 L230.4,500.3 L232.3,497.9
		L234.2,495.4 L236.1,492.9 L238.0,490.4 L239.9,487.8 L241.7,485.3 L243.6,482.7 L245.5,480.1 L247.4,477.5
		L249.3,474.9 L251.2,472.2 L253.1,469.6 L255.0,467.0 L256.8,464.3 L258.7,461.7 L260.6,459.1 L262.5,456.4
		L264.4,453.7 L266.3,451.1 L268.2,448.4 L270.1,445.7 L271.9,442.9 L273.8,440.2 L275.7,437.4 L277.6,434.6
		L279.5,431.7 L281.4,428.8 L283.3,425.9 L285.2,422.9 L287.0,419.9 L288.9,416.8 L290.8,413.7 L292.7,410.5
		L294.6,407.3 L296.5,404.0 L298.4,400.7 L300.2,397.3 L302.1,394.0 L304.0,390.5 L305.9,387.1 L307.8,383.6
		L309.7,380.1 L311.6,376.6 L313.5,373.1 L315.3,369.6 L317.2,366.0 L319.1,362.5 L321.0,358.9 L322.9,355.3
		L324.8,351.8 L326.7,348.2 L328.6,344.5 L330.4,340.9 L332.3,337.3 L334.2,333.6 L336.1,329.9 L338.0,326.2
		L339.9,322.4 L341.8,318.7 L343.7,314.9 L345.5,311.1 L347.4,307.3 L349.3,303.5 L351.2,299.7 L353.1,295.9
		L355.0,292.1 L356.9,288.3 L358.8,284.5 L360.6,280.8 L362.5,277.1 L364.4,273.4 L366.3,269.8 L368.2,266.2
		L370.1,262.6 L372.0,259.2 L373.8,255.7 L375.7,252.3 L377.6,249.0 L379.5,245.7 L381.4,242.4 L383.3,239.2
		L385.2,236.1 L387.1,233.0 L388.9,229.9 L390.8,226.8 L392.7,223.8 L394.6,220.9 L396.5,217.9 L398.4,215.0
		L400.3,212.2 L402.2,209.3 L404.0,206.5 L405.9,203.8 L407.8,201.0 L409.7,198.4 L411.6,195.7 L413.5,193.1
		L415.4,190.5 L417.3,188.0 L419.1,185.5 L421.0,183.1 L422.9,180.6 L424.8,178.2 L426.7,175.8 L428.6,173.5
		L430.5,171.1 L432.4,168.8 L434.2,166.4 L436.1,164.1 L438.0,161.8 L439.9,159.5 L441.8,157.1 L443.7,154.8
		L445.6,152.5 L447.4,150.1 L449.3,147.8 L451.2,145.4 L453.1,143.1 L455.0,140.7 L456.9,138.4 L458.8,136.1
		L460.7,133.8 L462.5,131.6 L464.4,129.4 L466.3,127.2 L468.2,125.1 L470.1,123.0 L472.0,121.0 L473.9,119.1
		L475.8,117.2 L477.6,115.4 L479.5,113.6 L481.4,111.9 L483.3,110.3 L485.2,108.8 L487.1,107.3 L489.0,105.8
		L490.9,104.5 L492.7,103.1 L494.6,101.9 L496.5,100.6 L498.4,99.4 L500.3,98.3 L502.2,97.1 L504.1,96.0
		L506.0,95.0 L507.8,93.9 L509.7,92.9 L511.6,91.9 L513.5,91.0 L515.4,90.1 L517.3,89.2 L519.2,88.4
		L521.0,87.6 L522.9,86.9 L524.8,86.3 L526.7,85.7 L528.6,85.2 L530.5,84.8 L532.4,84.4 L534.3,84.1
		L536.1,83.9 L538.0,83.8 L539.9,83.7 L541.8,83.8 L543.7,83.8 L545.6,84.0 L547.5,84.2 L549.4,84.6
		L551.2,84.9 L553.1,85.4 L555.0,85.9 L556.9,86.6 L558.8,87.3 L560.7,88.1 L562.6,88.9 L564.5,89.9
		L566.3,90.9 L568.2,92.1 L570.1,93.3 L572.0,94.6 L573.9,96.0 L575.8,97.5 L577.7,99.1 L579.5,100.7
		L581.4,102.4 L583.3,104.2 L585.2,105.9 L587.1,107.8 L589.0,109.7 L590.9,111.5 L592.8,113.5 L594.6,115.4
		L596.5,117.3 L598.4,119.3 L600.3,121.2 L602.2,123.2 L604.1,125.2 L606.0,127.2 L607.9,129.2 L609.7,131.2
		L611.6,133.2 L613.5,135.3 L615.4,137.4 L617.3,139.6 L619.2,141.8 L621.1,144.1 L623.0,146.4 L624.8,148.8
		L626.7,151.2 L628.6,153.7 L630.5,156.2 L632.4,158.8 L634.3,161.5 L636.2,164.2 L638.1,166.9 L639.9,169.6
		L641.8,172.4 L643.7,175.2 L645.6,177.9 L647.5,180.7 L649.4,183.5 L651.3,186.3 L653.1,189.1 L655.0,191.8
		L656.9,194.6 L658.8,197.3 L660.7,200.1 L662.6,202.9 L664.5,205.6 L666.4,208.4 L668.2,211.3 L670.1,214.1
		L672.0,217.0 L673.9,220.0 L675.8,223.0 L677.7,226.0 L679.6,229.2 L681.5,232.4 L683.3,235.7 L685.2,239.0
		L687.1,242.4 L689.0,245.9 L690.9,249.5 L692.8,253.1 L694.7,256.8 L696.6,260.5 L698.4,264.3 L700.3,268.0
		L702.2,271.8 L704.1,275.6 L706.0,279.3 L707.9,283.0 L709.8,286.7 L711.7,290.4 L713.5,294.0 L715.4,297.6
		L717.3,301.1 L719.2,304.5 L721.1,307.9 L723.0,311.2 L724.9,314.5 L726.7,317.7 L728.6,320.8 L730.5,323.9
		L732.4,327.0 L734.3,330.1 L736.2,333.1 L738.1,336.1 L740.0,339.1 L741.8,342.1 L743.7,345.1 L745.6,348.1
		L747.5,351.1 L749.4,354.1 L751.3,357.2 L753.2,360.2 L755.1,363.3 L756.9,366.4 L758.8,369.6 L760.7,372.7
		L762.6,375.9 L764.5,379.0 L766.4,382.2 L768.3,385.4 L770.2,388.7 L772.0,391.9 L773.9,395.1 L775.8,398.4
		L777.7,401.6 L779.6,404.9 L781.5,408.1 L783.4,411.4 L785.3,414.6 L787.1,417.8 L789.0,421.0 L790.9,424.2
		L792.8,427.3 L794.7,430.5 L796.6,433.6 L798.5,436.7 L800.3,439.7 L802.2,442.8 L804.1,445.8 L806.0,448.7
		L807.9,451.7 L809.8,454.6 L811.7,457.4 L813.6,460.2 L815.4,463.0 L817.3,465.8 L819.2,468.5 L821.1,471.2
		L823.0,473.9 L824.9,476.5 L826.8,479.1 L828.7,481.7 L830.5,484.3 L832.4,486.8 L834.3,489.2 L836.2,491.7
		L838.1,494.1 L840.0,496.5 L841.9,498.8 L843.8,501.2 L845.6,503.5 L847.5,505.8 L849.4,508.0 L851.3,510.2
		L853.2,512.4 L855.1,514.6 L857.0,516.7 L858.9,518.9 L860.7,521.0 L862.6,523.0 L864.5,525.1 L866.4,527.1
		L868.3,529.1 L870.2,531.1 L872.1,533.1 L873.9,535.1 L875.8,537.0 L877.7,539.0 L879.6,540.9 L881.5,542.8
		L883.4,544.7 L885.3,546.6 L887.2,548.4 L889.0,550.3 L890.9,552.1 L892.8,553.9 L894.7,555.8 L896.6,557.6
		L898.5,559.3 L900.4,561.1 L902.3,562.9 L904.1,564.6 L906.0,566.3 L907.9,568.0 L909.8,569.7 L911.7,571.3
		L913.6,573.0 L915.5,574.6 L917.4,576.1 L919.2,577.7 L921.1,579.2 L923.0,580.8 L924.9,582.2 L926.8,583.7
		L928.7,585.1 L930.6,586.5 L932.5,587.9 L934.3,589.3 L936.2,590.6 L938.1,591.9 L940.0,593.2 L941.9,594.4
		L943.8,595.6 L945.7,596.8 L947.5,598.0 L949.4,599.1 L951.3,600.2 L953.2,601.3 L955.1,602.4 L957.0,603.4
		L958.9,604.4 L960.8,605.4 L962.6,606.4 L964.5,607.3 L966.4,608.3 L968.3,609.2 L970.2,610.1 L972.1,611.0
		L974.0,611.9 L975.9,612.8 L977.7,613.7 L979.6,614.5 L981.5,615.4 L983.4,616.2 L985.3,617.0 L987.2,617.8
		L989.1,618.6 L991.0,619.4 L992.8,620.2 L994.7,620.9 L996.6,621.6 L998.5,622.4 L1000.4,623.1 L1002.3,623.8
		L1004.2,624.5 L1006.1,625.2 L1007.9,625.8 L1009.8,626.5 L1011.7,627.2 L1013.6,627.9  '/></g>
	</g>
	<g id="gnuplot_plot_2" ><title>Confidence interval</title>
<g fill="none" color="white" stroke="rgb( 31, 120, 180)" stroke-width="1.00" stroke-linecap="butt" stroke-linejoin="miter">
</g>
<g fill="none" color="black" stroke="currentColor" stroke-width="1.00" stroke-linecap="butt" stroke-linejoin="miter">
	<g transform="translate(1089.0,85.0)" stroke="none" fill="black" font-family="Helvetica" font-size="12.00"  text-anchor="start">
		<text><tspan font-family="Helvetica" >Confidence interval</tspan></text>
	</g>
</g>
<g fill="none" color="black" stroke="currentColor" stroke-width="1.00" stroke-linecap="butt" stroke-linejoin="miter">
	<g stroke='none' shape-rendering='crispEdges'>
		<polygon fill = 'rgb( 31, 120, 180)' fill-opacity = '0.250000' points = '1038.5,85.6 1080.7,85.6 1080.7,76.6 1038.5,76.6 '/>
		<polygon fill = 'rgb( 31, 120, 180)' fill-opacity = '0.250000' points = '158.7,576.4 158.7,662.4 160.6,662.4 160.6,574.9 '/>
		<polygon fill = 'rgb( 31, 120, 180)' fill-opacity = '0.250000' points = '160.6,574.9 160.6,662.4 162.5,662.4 162.5,573.3 '/>
		<polygon fill = 'rgb( 31, 120, 180)' fill-opacity = '0.250000' points = '162.5,573.3 162.5,662.4 164.4,662.4 164.4,571.7 '/>
		<polygon fill = 'rgb( 31, 120, 180)' fill-opacity = '0.250000' points = '164.4,571.7 164.4,662.4 166.3,662.4 166.3,570.1 '/>
		<polygon fill = 'rgb( 31, 120, 180)' fill-opacity = '0.250000' points = '166.3,570.1 166.3,662.4 168.1,662.4 168.1,568.5 '/>
		<polygon fill = 'rgb( 31, 120, 180)' fill-opacity = '0.250000' points = '168.1,568.5 168.1,662.4 170.0,662.4 170.0,566.8 '/>
		<polygon fill = 'rgb( 31, 120, 180)' fill-opacity = '0.250000' points = '170.0,566.8 170.0,662.4 171.9,662.4 171.9,565.2 '/>
		<polygon fill = 'rgb( 31, 120, 180)' fill-opacity = '0.250000' points = '171.9,565.2 171.9,662.4 173.8,662.4 173.8,563.4 '/>
		<polygon fill = 'rgb( 31, 120, 180)' fill-opacity = '0.250000' points = '173.8,563.4 173.8,662.4 175.7,662.4 175.7,561.7 '/>
		<polygon fill = 'rgb( 31, 120, 180)' fill-opacity = '0.250000' points = '175.7,561.7 175.7,662.4 177.6,662.4 177.6,559.9 '/>
		<polygon fill = 'rgb( 31, 120, 180)' fill-opacity = '0.250000' points = '177.6,559.9 177.6,662.4 179.5,662.4 179.5,558.1 '/>
		<polygon fill = 'rgb( 31, 120, 180)' fill-opacity = '0.250000' points = '179.5,558.1 179.5,662.4 181.4,662.4 181.4,556.3 '/>
		<polygon fill = 'rgb( 31, 120, 180)' fill-opacity = '0.250000' points = '181.4,556.3 181.4,662.4 183.2,662.4 183.2,554.4 '/>
		<polygon fill = 'rgb( 31, 120, 180)' fill-opacity = '0.250000' points = '183.2,554.4 183.2,662.4 185.1,662.4 185.1,552.4 '/>
		<polygon fill = 'rgb( 31, 120, 180)' fill-opacity = '0.250000' points = '185.1,552.4 185.1,662.4 187.0,662.4 187.0,550.5 '/>
		<polygon fill = 'rgb( 31, 120, 180)' fill-opacity = '0.250000' points = '187.0,550.5 187.0,662.4 188.9,662.4 188.9,548.5 '/>
		<polygon fill = 'rgb( 31, 120, 180)' fill-opacity = '0.250000' points = '188.9,548.5 188.9,662.4 190.8,662.4 190.8,546.5 '/>
		<polygon fill = 'rgb( 31, 120, 180)' fill-opacity = '0.250000' points = '190.8,546.5 190.8,662.4 192.7,662.4 192.7,544.5 '/>
		<polygon fill = 'rgb( 31, 120, 180)' fill-opacity = '0.250000' points = '192.7,544.5 192.7,662.4 194.6,662.4 194.6,542.4 '/>
		<polygon fill = 'rgb( 31, 120, 180)' fill-opacity = '0.250000' points = '194.6,542.4 194.6,662.4 196.5,662.4 196.5,540.4 '/>
		<polygon fill = 'rgb( 31, 120, 180)' fill-opacity = '0.250000' points = '196.5,540.4 196.5,662.4 198.3,662.4 198.3,538.3 '/>
		<polygon fill = 'rgb( 31, 120, 180)' fill-opacity = '0.250000' points = '198.3,538.3 198.3,662.4 200.2,662.4 200.2,536.2 '/>
		<polygon fill = 'rgb( 31, 120, 180)' fill-opacity = '0.250000' points = '200.2,536.2 200.2,662.4 202.1,662.4 202.1,534.1 '/>
		<polygon fill = 'rgb( 31, 120, 180)' fill-opacity = '0.250000' points = '202.1,534.1 202.1,662.4 204.0,662.4 204.0,531.9 '/>
		<polygon fill = 'rgb( 31, 120, 180)' fill-opacity = '0.250000' points = '204.0,531.9 204.0,662.4 205.9,662.4 205.9,529.8 '/>
		<polygon fill = 'rgb( 31, 120, 180)' fill-opacity = '0.250000' points = '205.9,529.8 205.9,662.4 207.8,662.4 207.8,527.6 '/>
		<polygon fill = 'rgb( 31, 120, 180)' fill-opacity = '0.250000' points = '207.8,527.6 207.8,662.4 209.7,662.4 209.7,525.5 '/>
		<polygon fill = 'rgb( 31, 120, 180)' fill-opacity = '0.250000' points = '209.7,525.5 209.7,662.4 211.6,662.4 211.6,523.3 '/>
		<polygon fill = 'rgb( 31, 120, 180)' fill-opacity = '0.250000' points = '211.6,523.3 211.6,662.4 213.4,662.4 213.4,521.1 '/>
		<polygon fill = 'rgb( 31, 120, 180)' fill-opacity = '0.250000' points = '213.4,521.1 213.4,662.4 215.3,662.4 215.3,518.9 '/>
		<polygon fill = 'rgb( 31, 120, 180)' fill-opacity = '0.250000' points = '215.3,518.9 215.3,662.4 217.2,662.4 217.2,516.6 '/>
		<polygon fill = 'rgb( 31, 120, 180)' fill-opacity = '0.250000' points = '217.2,516.6 217.2,662.4 219.1,662.4 219.1,514.4 '/>
		<polygon fill = 'rgb( 31, 120, 180)' fill-opacity = '0.250000' points = '219.1,514.4 219.1,662.4 221.0,662.4 221.0,512.1 '/>
		<polygon fill = 'rgb( 31, 120, 180)' fill-opacity = '0.250000' points = '221.0,512.1 221.0,662.4 222.9,662.4 222.9,509.8 '/>
		<polygon fill = 'rgb( 31, 120, 180)' fill-opacity = '0.250000' points = '222.9,509.8 222.9,662.4 224.8,662.4 224.8,507.5 '/>
		<polygon fill = 'rgb( 31, 120, 180)' fill-opacity = '0.250000' points = '224.8,507.5 224.8,662.4 226.6,662.4 226.6,505.1 '/>
		<polygon fill = 'rgb( 31, 120, 180)' fill-opacity = '0.250000' points = '226.6,505.1 226.6,662.4 228.5,662.4 228.5,502.7 '/>
		<polygon fill = 'rgb( 31, 120, 180)' fill-opacity = '0.250000' points = '228.5,502.7 228.5,662.4 230.4,662.4 230.4,500.3 '/>
		<polygon fill = 'rgb( 31, 120, 180)' fill-opacity = '0.250000' points = '230.4,500.3 230.4,662.4 232.3,662.4 232.3,497.9 '/>
		<polygon fill = 'rgb( 31, 120, 180)' fill-opacity = '0.250000' points = '232.3,497.9 232.3,662.4 234.2,662.4 234.2,495.4 '/>
		<polygon fill = 'rgb( 31, 120, 180)' fill-opacity = '0.250000' points = '234.2,495.4 234.2,662.4 236.1,662.4 236.1,492.9 '/>
		<polygon fill = 'rgb( 31, 120, 180)' fill-opacity = '0.250000' points = '236.1,492.9 236.1,662.4 238.0,662.4 238.0,490.4 '/>
		<polygon fill = 'rgb( 31, 120, 180)' fill-opacity = '0.250000' points = '238.0,490.4 238.0,662.4 239.9,662.4 239.9,487.8 '/>
		<polygon fill = 'rgb( 31, 120, 180)' fill-opacity = '0.250000' points = '239.9,487.8 239.9,662.4 241.7,662.4 241.7,485.3 '/>
		<polygon fill = 'rgb( 31, 120, 180)' fill-opacity = '0.250000' points = '241.7,485.3 241.7,662.4 243.6,662.4 243.6,482.7 '/>
		<polygon fill = 'rgb( 31, 120, 180)' fill-opacity = '0.250000' points = '243.6,482.7 243.6,662.4 245.5,662.4 245.5,480.1 '/>
		<polygon fill = 'rgb( 31, 120, 180)' fill-opacity = '0.250000' points = '245.5,480.1 245.5,662.4 247.4,662.4 247.4,477.5 '/>
		<polygon fill = 'rgb( 31, 120, 180)' fill-opacity = '0.250000' points = '247.4,477.5 247.4,662.4 249.3,662.4 249.3,474.9 '/>
		<polygon fill = 'rgb( 31, 120, 180)' fill-opacity = '0.250000' points = '249.3,474.9 249.3,662.4 251.2,662.4 251.2,472.2 '/>
		<polygon fill = 'rgb( 31, 120, 180)' fill-opacity = '0.250000' points = '251.2,472.2 251.2,662.4 253.1,662.4 253.1,469.6 '/>
		<polygon fill = 'rgb( 31, 120, 180)' fill-opacity = '0.250000' points = '253.1,469.6 253.1,662.4 255.0,662.4 255.0,467.0 '/>
		<polygon fill = 'rgb( 31, 120, 180)' fill-opacity = '0.250000' points = '255.0,467.0 255.0,662.4 256.8,662.4 256.8,464.3 '/>
		<polygon fill = 'rgb( 31, 120, 180)' fill-opacity = '0.250000' points = '256.8,464.3 256.8,662.4 258.7,662.4 258.7,461.7 '/>
		<polygon fill = 'rgb( 31, 120, 180)' fill-opacity = '0.250000' points = '258.7,461.7 258.7,662.4 260.6,662.4 260.6,459.1 '/>
		<polygon fill = 'rgb( 31, 120, 180)' fill-opacity = '0.250000' points = '260.6,459.1 260.6,662.4 262.5,662.4 262.5,456.4 '/>
		<polygon fill = 'rgb( 31, 120, 180)' fill-opacity = '0.250000' points = '262.5,456.4 262.5,662.4 264.4,662.4 264.4,453.7 '/>
		<polygon fill = 'rgb( 31, 120, 180)' fill-opacity = '0.250000' points = '264.4,453.7 264.4,662.4 266.3,662.4 266.3,451.1 '/>
		<polygon fill = 'rgb( 31, 120, 180)' fill-opacity = '0.250000' points = '266.3,451.1 266.3,662.4 268.2,662.4 268.2,448.4 '/>
		<polygon fill = 'rgb( 31, 120, 180)' fill-opacity = '0.250000' points = '268.2,448.4 268.2,662.4 270.1,662.4 270.1,445.7 '/>
		<polygon fill = 'rgb( 31, 120, 180)' fill-opacity = '0.250000' points = '270.1,445.7 270.1,662.4 271.9,662.4 271.9,442.9 '/>
		<polygon fill = 'rgb( 31, 120, 180)' fill-opacity = '0.250000' points = '271.9,442.9 271.9,662.4 273.8,662.4 273.8,440.2 '/>
		<polygon fill = 'rgb( 31, 120, 180)' fill-opacity = '0.250000' points = '273.8,440.2 273.8,662.4 275.7,662.4 275.7,437.4 '/>
		<polygon fill = 'rgb( 31, 120, 180)' fill-opacity = '0.250000' points = '275.7,437.4 275.7,662.4 277.6,662.4 277.6,434.6 '/>
		<polygon fill = 'rgb( 31, 120, 180)' fill-opacity = '0.250000' points = '277.6,434.6 277.6,662.4 279.5,662.4 279.5,431.7 '/>
		<polygon fill = 'rgb( 31, 120, 180)' fill-opacity = '0.250000' points = '279.5,431.7 279.5,662.4 281.4,662.4 281.4,428.8 '/>
		<polygon fill = 'rgb( 31, 120, 180)' fill-opacity = '0.250000' points = '281.4,428.8 281.4,662.4 283.3,662.4 283.3,425.9 '/>
		<polygon fill = 'rgb( 31, 120, 180)' fill-opacity = '0.250000' points = '283.3,425.9 283.3,662.4 285.2,662.4 285.2,422.9 '/>
		<polygon fill = 'rgb( 31, 120, 180)' fill-opacity = '0.250000' points = '285.2,422.9 285.2,662.4 287.0,662.4 287.0,419.9 '/>
		<polygon fill = 'rgb( 31, 120, 180)' fill-opacity = '0.250000' points = '287.0,419.9 287.0,662.4 288.9,662.4 288.9,416.8 '/>
		<polygon fill = 'rgb( 31, 120, 180)' fill-opacity = '0.250000' points = '288.9,416.8 288.9,662.4 290.8,662.4 290.8,413.7 '/>
		<polygon fill = 'rgb( 31, 120, 180)' fill-opacity = '0.250000' points = '290.8,413.7 290.8,662.4 292.7,662.4 292.7,410.5 '/>
		<polygon fill = 'rgb( 31, 120, 180)' fill-opacity = '0.250000' points = '292.7,410.5 292.7,662.4 294.6,662.4 294.6,407.3 '/>
		<polygon fill = 'rgb( 31, 120, 180)' fill-opacity = '0.250000' points = '294.6,407.3 294.6,662.4 296.5,662.4 296.5,404.0 '/>
		<polygon fill = 'rgb( 31, 120, 180)' fill-opacity = '0.250000' points = '296.5,404.0 296.5,662.4 298.4,662.4 298.4,400.7 '/>
		<polygon fill = 'rgb( 31, 120, 180)' fill-opacity = '0.250000' points = '298.4,400.7 298.4,662.4 300.2,662.4 300.2,397.3 '/>
		<polygon fill = 'rgb( 31, 120, 180)' fill-opacity = '0.250000' points = '300.2,397.3 300.2,662.4 302.1,662.4 302.1,394.0 '/>
		<polygon fill = 'rgb( 31, 120, 180)' fill-opacity = '0.250000' points = '302.1,394.0 302.1,662.4 304.0,662.4 304.0,390.5 '/>
		<polygon fill = 'rgb( 31, 120, 180)' fill-opacity = '0.250000' points = '304.0,390.5 304.0,662.4 305.9,662.4 305.9,387.1 '/>
		<polygon fill = 'rgb( 31, 120, 180)' fill-opacity = '0.250000' points = '305.9,387.1 305.9,662.4 307.8,662.4 307.8,383.6 '/>
		<polygon fill = 'rgb( 31, 120, 180)' fill-opacity = '0.250000' points = '307.8,383.6 307.8,662.4 309.7,662.4 309.7,380.1 '/>
		<polygon fill = 'rgb( 31, 120, 180)' fill-opacity = '0.250000' points = '309.7,380.1 309.7,662.4 311.6,662.4 311.6,376.6 '/>
		<polygon fill = 'rgb( 31, 120, 180)' fill-opacity = '0.250000' points = '311.6,376.6 311.6,662.4 313.5,662.4 313.5,373.1 '/>
		<polygon fill = 'rgb( 31, 120, 180)' fill-opacity = '0.250000' points = '313.5,373.1 313.5,662.4 315.3,662.4 315.3,369.6 '/>
		<polygon fill = 'rgb( 31, 120, 180)' fill-opacity = '0.250000' points = '315.3,369.6 315.3,662.4 317.2,662.4 317.2,366.0 '/>
		<polygon fill = 'rgb( 31, 120, 180)' fill-opacity = '0.250000' points = '317.2,366.0 317.2,662.4 319.1,662.4 319.1,362.5 '/>
		<polygon fill = 'rgb( 31, 120, 180)' fill-opacity = '0.250000' points = '319.1,362.5 319.1,662.4 321.0,662.4 321.0,358.9 '/>
		<polygon fill = 'rgb( 31, 120, 180)' fill-opacity = '0.250000' points = '321.0,358.9 321.0,662.4 322.9,662.4 322.9,355.3 '/>
		<polygon fill = 'rgb( 31, 120, 180)' fill-opacity = '0.250000' points = '322.9,355.3 322.9,662.4 324.8,662.4 324.8,351.8 '/>
		<polygon fill = 'rgb( 31, 120, 180)' fill-opacity = '0.250000' points = '324.8,351.8 324.8,662.4 326.7,662.4 326.7,348.2 '/>
		<polygon fill = 'rgb( 31, 120, 180)' fill-opacity = '0.250000' points = '326.7,348.2 326.7,662.4 328.6,662.4 328.6,344.5 '/>
		<polygon fill = 'rgb( 31, 120, 180)' fill-opacity = '0.250000' points = '328.6,344.5 328.6,662.4 330.4,662.4 330.4,340.9 '/>
		<polygon fill = 'rgb( 31, 120, 180)' fill-opacity = '0.250000' points = '330.4,340.9 330.4,662.4 332.3,662.4 332.3,337.3 '/>
		<polygon fill = 'rgb( 31, 120, 180)' fill-opacity = '0.250000' points = '332.3,337.3 332.3,662.4 334.2,662.4 334.2,333.6 '/>
		<polygon fill = 'rgb( 31, 120, 180)' fill-opacity = '0.250000' points = '334.2,333.6 334.2,662.4 336.1,662.4 336.1,329.9 '/>
		<polygon fill = 'rgb( 31, 120, 180)' fill-opacity = '0.250000' points = '336.1,329.9 336.1,662.4 338.0,662.4 338.0,326.2 '/>
		<polygon fill = 'rgb( 31, 120, 180)' fill-opacity = '0.250000' points = '338.0,326.2 338.0,662.4 339.9,662.4 339.9,322.4 '/>
		<polygon fill = 'rgb( 31, 120, 180)' fill-opacity = '0.250000' points = '339.9,322.4 339.9,662.4 341.8,662.4 341.8,318.7 '/>
		<polygon fill = 'rgb( 31, 120, 180)' fill-opacity = '0.250000' points = '341.8,318.7 341.8,662.4 343.7,662.4 343.7,314.9 '/>
		<polygon fill = 'rgb( 31, 120, 180)' fill-opacity = '0.250000' points = '343.7,314.9 343.7,662.4 345.5,662.4 345.5,311.1 '/>
		<polygon fill = 'rgb( 31, 120, 180)' fill-opacity = '0.250000' points = '345.5,311.1 345.5,662.4 347.4,662.4 347.4,307.3 '/>
		<polygon fill = 'rgb( 31, 120, 180)' fill-opacity = '0.250000' points = '347.4,307.3 347.4,662.4 349.3,662.4 349.3,303.5 '/>
		<polygon fill = 'rgb( 31, 120, 180)' fill-opacity = '0.250000' points = '349.3,303.5 349.3,662.4 351.2,662.4 351.2,299.7 '/>
		<polygon fill = 'rgb( 31, 120, 180)' fill-opacity = '0.250000' points = '351.2,299.7 351.2,662.4 353.1,662.4 353.1,295.9 '/>
		<polygon fill = 'rgb( 31, 120, 180)' fill-opacity = '0.250000' points = '353.1,295.9 353.1,662.4 355.0,662.4 355.0,292.1 '/>
		<polygon fill = 'rgb( 31, 120, 180)' fill-opacity = '0.250000' points = '355.0,292.1 355.0,662.4 356.9,662.4 356.9,288.3 '/>
		<polygon fill = 'rgb( 31, 120, 180)' fill-opacity = '0.250000' points = '356.9,288.3 356.9,662.4 358.8,662.4 358.8,284.5 '/>
		<polygon fill = 'rgb( 31, 120, 180)' fill-opacity = '0.250000' points = '358.8,284.5 358.8,662.4 360.6,662.4 360.6,280.8 '/>
		<polygon fill = 'rgb( 31, 120, 180)' fill-opacity = '0.250000' points = '360.6,280.8 360.6,662.4 362.5,662.4 362.5,277.1 '/>
		<polygon fill = 'rgb( 31, 120, 180)' fill-opacity = '0.250000' points = '362.5,277.1 362.5,662.4 364.4,662.4 364.4,273.4 '/>
		<polygon fill = 'rgb( 31, 120, 180)' fill-opacity = '0.250000' points = '364.4,273.4 364.4,662.4 366.3,662.4 366.3,269.8 '/>
		<polygon fill = 'rgb( 31, 120, 180)' fill-opacity = '0.250000' points = '366.3,269.8 366.3,662.4 368.2,662.4 368.2,266.2 '/>
		<polygon fill = 'rgb( 31, 120, 180)' fill-opacity = '0.250000' points = '368.2,266.2 368.2,662.4 370.1,662.4 370.1,262.6 '/>
		<polygon fill = 'rgb( 31, 120, 180)' fill-opacity = '0.250000' points = '370.1,262.6 370.1,662.4 372.0,662.4 372.0,259.2 '/>
		<polygon fill = 'rgb( 31, 120, 180)' fill-opacity = '0.250000' points = '372.0,259.2 372.0,662.4 373.8,662.4 373.8,255.7 '/>
		<polygon fill = 'rgb( 31, 120, 180)' fill-opacity = '0.250000' points = '373.8,255.7 373.8,662.4 375.7,662.4 375.7,252.3 '/>
		<polygon fill = 'rgb( 31, 120, 180)' fill-opacity = '0.250000' points = '375.7,252.3 375.7,662.4 377.6,662.4 377.6,249.0 '/>
		<polygon fill = 'rgb( 31, 120, 180)' fill-opacity = '0.250000' points = '377.6,249.0 377.6,662.4 379.5,662.4 379.5,245.7 '/>
		<polygon fill = 'rgb( 31, 120, 180)' fill-opacity = '0.250000' points = '379.5,245.7 379.5,662.4 381.4,662.4 381.4,242.4 '/>
		<polygon fill = 'rgb( 31, 120, 180)' fill-opacity = '0.250000' points = '381.4,242.4 381.4,662.4 383.3,662.4 383.3,239.2 '/>
		<polygon fill = 'rgb( 31, 120, 180)' fill-opacity = '0.250000' points = '383.3,239.2 383.3,662.4 385.2,662.4 385.2,236.1 '/>
		<polygon fill = 'rgb( 31, 120, 180)' fill-opacity = '0.250000' points = '385.2,236.1 385.2,662.4 387.1,662.4 387.1,233.0 '/>
		<polygon fill = 'rgb( 31, 120, 180)' fill-opacity = '0.250000' points = '387.1,233.0 387.1,662.4 388.9,662.4 388.9,229.9 '/>
		<polygon fill = 'rgb( 31, 120, 180)' fill-opacity = '0.250000' points = '388.9,229.9 388.9,662.4 390.8,662.4 390.8,226.8 '/>
		<polygon fill = 'rgb( 31, 120, 180)' fill-opacity = '0.250000' points = '390.8,226.8 390.8,662.4 392.7,662.4 392.7,223.8 '/>
		<polygon fill = 'rgb( 31, 120, 180)' fill-opacity = '0.250000' points = '392.7,223.8 392.7,662.4 394.6,662.4 394.6,220.9 '/>
		<polygon fill = 'rgb( 31, 120, 180)' fill-opacity = '0.250000' points = '394.6,220.9 394.6,662.4 396.5,662.4 396.5,217.9 '/>
		<polygon fill = 'rgb( 31, 120, 180)' fill-opacity = '0.250000' points = '396.5,217.9 396.5,662.4 398.4,662.4 398.4,215.0 '/>
		<polygon fill = 'rgb( 31, 120, 180)' fill-opacity = '0.250000' points = '398.4,215.0 398.4,662.4 400.3,662.4 400.3,212.2 '/>
		<polygon fill = 'rgb( 31, 120, 180)' fill-opacity = '0.250000' points = '400.3,212.2 400.3,662.4 402.2,662.4 402.2,209.3 '/>
		<polygon fill = 'rgb( 31, 120, 180)' fill-opacity = '0.250000' points = '402.2,209.3 402.2,662.4 404.0,662.4 404.0,206.5 '/>
		<polygon fill = 'rgb( 31, 120, 180)' fill-opacity = '0.250000' points = '404.0,206.5 404.0,662.4 405.9,662.4 405.9,203.8 '/>
		<polygon fill = 'rgb( 31, 120, 180)' fill-opacity = '0.250000' points = '405.9,203.8 405.9,662.4 407.8,662.4 407.8,201.0 '/>
		<polygon fill = 'rgb( 31, 120, 180)' fill-opacity = '0.250000' points = '407.8,201.0 407.8,662.4 409.7,662.4 409.7,198.4 '/>
		<polygon fill = 'rgb( 31, 120, 180)' fill-opacity = '0.250000' points = '409.7,198.4 409.7,662.4 411.6,662.4 411.6,195.7 '/>
		<polygon fill = 'rgb( 31, 120, 180)' fill-opacity = '0.250000' points = '411.6,195.7 411.6,662.4 413.5,662.4 413.5,193.1 '/>
		<polygon fill = 'rgb( 31, 120, 180)' fill-opacity = '0.250000' points = '413.5,193.1 413.5,662.4 415.4,662.4 415.4,190.5 '/>
		<polygon fill = 'rgb( 31, 120, 180)' fill-opacity = '0.250000' points = '415.4,190.5 415.4,662.4 417.3,662.4 417.3,188.0 '/>
		<polygon fill = 'rgb( 31, 120, 180)' fill-opacity = '0.250000' points = '417.3,188.0 417.3,662.4 419.1,662.4 419.1,185.5 '/>
		<polygon fill = 'rgb( 31, 120, 180)' fill-opacity = '0.250000' points = '419.1,185.5 419.1,662.4 421.0,662.4 421.0,183.1 '/>
		<polygon fill = 'rgb( 31, 120, 180)' fill-opacity = '0.250000' points = '421.0,183.1 421.0,662.4 422.9,662.4 422.9,180.6 '/>
		<polygon fill = 'rgb( 31, 120, 180)' fill-opacity = '0.250000' points = '422.9,180.6 422.9,662.4 424.8,662.4 424.8,178.2 '/>
		<polygon fill = 'rgb( 31, 120, 180)' fill-opacity = '0.250000' points = '424.8,178.2 424.8,662.4 426.7,662.4 426.7,175.8 '/>
		<polygon fill = 'rgb( 31, 120, 180)' fill-opacity = '0.250000' points = '426.7,175.8 426.7,662.4 428.6,662.4 428.6,173.5 '/>
		<polygon fill = 'rgb( 31, 120, 180)' fill-opacity = '0.250000' points = '428.6,173.5 428.6,662.4 430.5,662.4 430.5,171.1 '/>
		<polygon fill = 'rgb( 31, 120, 180)' fill-opacity = '0.250000' points = '430.5,171.1 430.5,662.4 432.4,662.4 432.4,168.8 '/>
		<polygon fill = 'rgb( 31, 120, 180)' fill-opacity = '0.250000' points = '432.4,168.8 432.4,662.4 434.2,662.4 434.2,166.4 '/>
		<polygon fill = 'rgb( 31, 120, 180)' fill-opacity = '0.250000' points = '434.2,166.4 434.2,662.4 436.1,662.4 436.1,164.1 '/>
		<polygon fill = 'rgb( 31, 120, 180)' fill-opacity = '0.250000' points = '436.1,164.1 436.1,662.4 438.0,662.4 438.0,161.8 '/>
		<polygon fill = 'rgb( 31, 120, 180)' fill-opacity = '0.250000' points = '438.0,161.8 438.0,662.4 439.9,662.4 439.9,159.5 '/>
		<polygon fill = 'rgb( 31, 120, 180)' fill-opacity = '0.250000' points = '439.9,159.5 439.9,662.4 441.8,662.4 441.8,157.1 '/>
		<polygon fill = 'rgb( 31, 120, 180)' fill-opacity = '0.250000' points = '441.8,157.1 441.8,662.4 443.7,662.4 443.7,154.8 '/>
		<polygon fill = 'rgb( 31, 120, 180)' fill-opacity = '0.250000' points = '443.7,154.8 443.7,662.4 445.6,662.4 445.6,152.5 '/>
		<polygon fill = 'rgb( 31, 120, 180)' fill-opacity = '0.250000' points = '445.6,152.5 445.6,662.4 447.4,662.4 447.4,150.1 '/>
		<polygon fill = 'rgb( 31, 120, 180)' fill-opacity = '0.250000' points = '447.4,150.1 447.4,662.4 449.3,662.4 449.3,147.8 '/>
		<polygon fill = 'rgb( 31, 120, 180)' fill-opacity = '0.250000' points = '449.3,147.8 449.3,662.4 451.2,662.4 451.2,145.4 '/>
		<polygon fill = 'rgb( 31, 120, 180)' fill-opacity = '0.250000' points = '451.2,145.4 451.2,662.4 453.1,662.4 453.1,143.1 '/>
		<polygon fill = 'rgb( 31, 120, 180)' fill-opacity = '0.250000' points = '453.1,143.1 453.1,662.4 455.0,662.4 455.0,140.7 '/>
		<polygon fill = 'rgb( 31, 120, 180)' fill-opacity = '0.250000' points = '455.0,140.7 455.0,662.4 456.9,662.4 456.9,138.4 '/>
		<polygon fill = 'rgb( 31, 120, 180)' fill-opacity = '0.250000' points = '456.9,138.4 456.9,662.4 458.8,662.4 458.8,136.1 '/>
		<polygon fill = 'rgb( 31, 120, 180)' fill-opacity = '0.250000' points = '458.8,136.1 458.8,662.4 460.7,662.4 460.7,133.8 '/>
		<polygon fill = 'rgb( 31, 120, 180)' fill-opacity = '0.250000' points = '460.7,133.8 460.7,662.4 462.5,662.4 462.5,131.6 '/>
		<polygon fill = 'rgb( 31, 120, 180)' fill-opacity = '0.250000' points = '462.5,131.6 462.5,662.4 464.4,662.4 464.4,129.4 '/>
		<polygon fill = 'rgb( 31, 120, 180)' fill-opacity = '0.250000' points = '464.4,129.4 464.4,662.4 466.3,662.4 466.3,127.2 '/>
		<polygon fill = 'rgb( 31, 120, 180)' fill-opacity = '0.250000' points = '466.3,127.2 466.3,662.4 468.2,662.4 468.2,125.1 '/>
		<polygon fill = 'rgb( 31, 120, 180)' fill-opacity = '0.250000' points = '468.2,125.1 468.2,662.4 470.1,662.4 470.1,123.0 '/>
		<polygon fill = 'rgb( 31, 120, 180)' fill-opacity = '0.250000' points = '470.1,123.0 470.1,662.4 472.0,662.4 472.0,121.0 '/>
		<polygon fill = 'rgb( 31, 120, 180)' fill-opacity = '0.250000' points = '472.0,121.0 472.0,662.4 473.9,662.4 473.9,119.1 '/>
		<polygon fill = 'rgb( 31, 120, 180)' fill-opacity = '0.250000' points = '473.9,119.1 473.9,662.4 475.8,662.4 475.8,117.2 '/>
		<polygon fill = 'rgb( 31, 120, 180)' fill-opacity = '0.250000' points = '475.8,117.2 475.8,662.4 477.6,662.4 477.6,115.4 '/>
		<polygon fill = 'rgb( 31, 120, 180)' fill-opacity = '0.250000' points = '477.6,115.4 477.6,662.4 479.5,662.4 479.5,113.6 '/>
		<polygon fill = 'rgb( 31, 120, 180)' fill-opacity = '0.250000' points = '479.5,113.6 479.5,662.4 481.4,662.4 481.4,111.9 '/>
		<polygon fill = 'rgb( 31, 120, 180)' fill-opacity = '0.250000' points = '481.4,111.9 481.4,662.4 483.3,662.4 483.3,110.3 '/>
		<polygon fill = 'rgb( 31, 120, 180)' fill-opacity = '0.250000' points = '483.3,110.3 483.3,662.4 485.2,662.4 485.2,108.8 '/>
		<polygon fill = 'rgb( 31, 120, 180)' fill-opacity = '0.250000' points = '485.2,108.8 485.2,662.4 487.1,662.4 487.1,107.3 '/>
		<polygon fill = 'rgb( 31, 120, 180)' fill-opacity = '0.250000' points = '487.1,107.3 487.1,662.4 489.0,662.4 489.0,105.8 '/>
		<polygon fill = 'rgb( 31, 120, 180)' fill-opacity = '0.250000' points = '489.0,105.8 489.0,662.4 490.9,662.4 490.9,104.5 '/>
		<polygon fill = 'rgb( 31, 120, 180)' fill-opacity = '0.250000' points = '490.9,104.5 490.9,662.4 492.7,662.4 492.7,103.1 '/>
		<polygon fill = 'rgb( 31, 120, 180)' fill-opacity = '0.250000' points = '492.7,103.1 492.7,662.4 494.6,662.4 494.6,101.9 '/>
		<polygon fill = 'rgb( 31, 120, 180)' fill-opacity = '0.250000' points = '494.6,101.9 494.6,662.4 496.5,662.4 496.5,100.6 '/>
		<polygon fill = 'rgb( 31, 120, 180)' fill-opacity = '0.250000' points = '496.5,100.6 496.5,662.4 498.4,662.4 498.4,99.4 '/>
		<polygon fill = 'rgb( 31, 120, 180)' fill-opacity = '0.250000' points = '498.4,99.4 498.4,662.4 500.3,662.4 500.3,98.3 '/>
		<polygon fill = 'rgb( 31, 120, 180)' fill-opacity = '0.250000' points = '500.3,98.3 500.3,662.4 502.2,662.4 502.2,97.1 '/>
		<polygon fill = 'rgb( 31, 120, 180)' fill-opacity = '0.250000' points = '502.2,97.1 502.2,662.4 504.1,662.4 504.1,96.0 '/>
		<polygon fill = 'rgb( 31, 120, 180)' fill-opacity = '0.250000' points = '504.1,96.0 504.1,662.4 506.0,662.4 506.0,95.0 '/>
		<polygon fill = 'rgb( 31, 120, 180)' fill-opacity = '0.250000' points = '506.0,95.0 506.0,662.4 507.8,662.4 507.8,93.9 '/>
		<polygon fill = 'rgb( 31, 120, 180)' fill-opacity = '0.250000' points = '507.8,93.9 507.8,662.4 509.7,662.4 509.7,92.9 '/>
		<polygon fill = 'rgb( 31, 120, 180)' fill-opacity = '0.250000' points = '509.7,92.9 509.7,662.4 511.6,662.4 511.6,91.9 '/>
		<polygon fill = 'rgb( 31, 120, 180)' fill-opacity = '0.250000' points = '511.6,91.9 511.6,662.4 513.5,662.4 513.5,91.0 '/>
		<polygon fill = 'rgb( 31, 120, 180)' fill-opacity = '0.250000' points = '513.5,91.0 513.5,662.4 515.4,662.4 515.4,90.1 '/>
		<polygon fill = 'rgb( 31, 120, 180)' fill-opacity = '0.250000' points = '515.4,90.1 515.4,662.4 517.3,662.4 517.3,89.2 '/>
		<polygon fill = 'rgb( 31, 120, 180)' fill-opacity = '0.250000' points = '517.3,89.2 517.3,662.4 519.2,662.4 519.2,88.4 '/>
		<polygon fill = 'rgb( 31, 120, 180)' fill-opacity = '0.250000' points = '519.2,88.4 519.2,662.4 521.0,662.4 521.0,87.6 '/>
		<polygon fill = 'rgb( 31, 120, 180)' fill-opacity = '0.250000' points = '521.0,87.6 521.0,662.4 522.9,662.4 522.9,86.9 '/>
		<polygon fill = 'rgb( 31, 120, 180)' fill-opacity = '0.250000' points = '522.9,86.9 522.9,662.4 524.8,662.4 524.8,86.3 '/>
		<polygon fill = 'rgb( 31, 120, 180)' fill-opacity = '0.250000' points = '524.8,86.3 524.8,662.4 526.7,662.4 526.7,85.7 '/>
		<polygon fill = 'rgb( 31, 120, 180)' fill-opacity = '0.250000' points = '526.7,85.7 526.7,662.4 528.6,662.4 528.6,85.2 '/>
		<polygon fill = 'rgb( 31, 120, 180)' fill-opacity = '0.250000' points = '528.6,85.2 528.6,662.4 530.5,662.4 530.5,84.8 '/>
		<polygon fill = 'rgb( 31, 120, 180)' fill-opacity = '0.250000' points = '530.5,84.8 530.5,662.4 532.4,662.4 532.4,84.4 '/>
		<polygon fill = 'rgb( 31, 120, 180)' fill-opacity = '0.250000' points = '532.4,84.4 532.4,662.4 534.3,662.4 534.3,84.1 '/>
		<polygon fill = 'rgb( 31, 120, 180)' fill-opacity = '0.250000' points = '534.3,84.1 534.3,662.4 536.1,662.4 536.1,83.9 '/>
		<polygon fill = 'rgb( 31, 120, 180)' fill-opacity = '0.250000' points = '536.1,83.9 536.1,662.4 538.0,662.4 538.0,83.8 '/>
		<polygon fill = 'rgb( 31, 120, 180)' fill-opacity = '0.250000' points = '538.0,83.8 538.0,662.4 539.9,662.4 539.9,83.7 '/>
		<polygon fill = 'rgb( 31, 120, 180)' fill-opacity = '0.250000' points = '539.9,83.7 539.9,662.4 541.8,662.4 541.8,83.8 '/>
		<polygon fill = 'rgb( 31, 120, 180)' fill-opacity = '0.250000' points = '541.8,83.8 541.8,662.4 543.7,662.4 543.7,83.8 '/>
		<polygon fill = 'rgb( 31, 120, 180)' fill-opacity = '0.250000' points = '543.7,83.8 543.7,662.4 545.6,662.4 545.6,84.0 '/>
		<polygon fill = 'rgb( 31, 120, 180)' fill-opacity = '0.250000' points = '545.6,84.0 545.6,662.4 547.5,662.4 547.5,84.2 '/>
		<polygon fill = 'rgb( 31, 120, 180)' fill-opacity = '0.250000' points = '547.5,84.2 547.5,662.4 549.4,662.4 549.4,84.6 '/>
		<polygon fill = 'rgb( 31, 120, 180)' fill-opacity = '0.250000' points = '549.4,84.6 549.4,662.4 551.2,662.4 551.2,84.9 '/>
		<polygon fill = 'rgb( 31, 120, 180)' fill-opacity = '0.250000' points = '551.2,84.9 551.2,662.4 553.1,662.4 553.1,85.4 '/>
		<polygon fill = 'rgb( 31, 120, 180)' fill-opacity = '0.250000' points = '553.1,85.4 553.1,662.4 555.0,662.4 555.0,85.9 '/>
		<polygon fill = 'rgb( 31, 120, 180)' fill-opacity = '0.250000' points = '555.0,85.9 555.0,662.4 556.9,662.4 556.9,86.6 '/>
		<polygon fill = 'rgb( 31, 120, 180)' fill-opacity = '0.250000' points = '556.9,86.6 556.9,662.4 558.8,662.4 558.8,87.3 '/>
		<polygon fill = 'rgb( 31, 120, 180)' fill-opacity = '0.250000' points = '558.8,87.3 558.8,662.4 560.7,662.4 560.7,88.1 '/>
		<polygon fill = 'rgb( 31, 120, 180)' fill-opacity = '0.250000' points = '560.7,88.1 560.7,662.4 562.6,662.4 562.6,88.9 '/>
		<polygon fill = 'rgb( 31, 120, 180)' fill-opacity = '0.250000' points = '562.6,88.9 562.6,662.4 564.5,662.4 564.5,89.9 '/>
		<polygon fill = 'rgb( 31, 120, 180)' fill-opacity = '0.250000' points = '564.5,89.9 564.5,662.4 566.3,662.4 566.3,90.9 '/>
		<polygon fill = 'rgb( 31, 120, 180)' fill-opacity = '0.250000' points = '566.3,90.9 566.3,662.4 568.2,662.4 568.2,92.1 '/>
		<polygon fill = 'rgb( 31, 120, 180)' fill-opacity = '0.250000' points = '568.2,92.1 568.2,662.4 570.1,662.4 570.1,93.3 '/>
		<polygon fill = 'rgb( 31, 120, 180)' fill-opacity = '0.250000' points = '570.1,93.3 570.1,662.4 572.0,662.4 572.0,94.6 '/>
		<polygon fill = 'rgb( 31, 120, 180)' fill-opacity = '0.250000' points = '572.0,94.6 572.0,662.4 573.9,662.4 573.9,96.0 '/>
		<polygon fill = 'rgb( 31, 120, 180)' fill-opacity = '0.250000' points = '573.9,96.0 573.9,662.4 575.8,662.4 575.8,97.5 '/>
		<polygon fill = 'rgb( 31, 120, 180)' fill-opacity = '0.250000' points = '575.8,97.5 575.8,662.4 577.7,662.4 577.7,99.1 '/>
		<polygon fill = 'rgb( 31, 120, 180)' fill-opacity = '0.250000' points = '577.7,99.1 577.7,662.4 579.5,662.4 579.5,100.7 '/>
		<polygon fill = 'rgb( 31, 120, 180)' fill-opacity = '0.250000' points = '579.5,100.7 579.5,662.4 581.4,662.4 581.4,102.4 '/>
		<polygon fill = 'rgb( 31, 120, 180)' fill-opacity = '0.250000' points = '581.4,102.4 581.4,662.4 583.3,662.4 583.3,104.2 '/>
		<polygon fill = 'rgb( 31, 120, 180)' fill-opacity = '0.250000' points = '583.3,104.2 583.3,662.4 585.2,662.4 585.2,105.9 '/>
		<polygon fill = 'rgb( 31, 120, 180)' fill-opacity = '0.250000' points = '585.2,105.9 585.2,662.4 587.1,662.4 587.1,107.8 '/>
		<polygon fill = 'rgb( 31, 120, 180)' fill-opacity = '0.250000' points = '587.1,107.8 587.1,662.4 589.0,662.4 589.0,109.7 '/>
		<polygon fill = 'rgb( 31, 120, 180)' fill-opacity = '0.250000' points = '589.0,109.7 589.0,662.4 590.9,662.4 590.9,111.5 '/>
		<polygon fill = 'rgb( 31, 120, 180)' fill-opacity = '0.250000' points = '590.9,111.5 590.9,662.4 592.8,662.4 592.8,113.5 '/>
		<polygon fill = 'rgb( 31, 120, 180)' fill-opacity = '0.250000' points = '592.8,113.5 592.8,662.4 594.6,662.4 594.6,115.4 '/>
		<polygon fill = 'rgb( 31, 120, 180)' fill-opacity = '0.250000' points = '594.6,115.4 594.6,662.4 596.5,662.4 596.5,117.3 '/>
		<polygon fill = 'rgb( 31, 120, 180)' fill-opacity = '0.250000' points = '596.5,117.3 596.5,662.4 598.4,662.4 598.4,119.3 '/>
		<polygon fill = 'rgb( 31, 120, 180)' fill-opacity = '0.250000' points = '598.4,119.3 598.4,662.4 600.3,662.4 600.3,121.2 '/>
		<polygon fill = 'rgb( 31, 120, 180)' fill-opacity = '0.250000' points = '600.3,121.2 600.3,662.4 602.2,662.4 602.2,123.2 '/>
		<polygon fill = 'rgb( 31, 120, 180)' fill-opacity = '0.250000' points = '602.2,123.2 602.2,662.4 604.1,662.4 604.1,125.2 '/>
		<polygon fill = 'rgb( 31, 120, 180)' fill-opacity = '0.250000' points = '604.1,125.2 604.1,662.4 606.0,662.4 606.0,127.2 '/>
		<polygon fill = 'rgb( 31, 120, 180)' fill-opacity = '0.250000' points = '606.0,127.2 606.0,662.4 607.9,662.4 607.9,129.2 '/>
		<polygon fill = 'rgb( 31, 120, 180)' fill-opacity = '0.250000' points = '607.9,129.2 607.9,662.4 609.7,662.4 609.7,131.2 '/>
		<polygon fill = 'rgb( 31, 120, 180)' fill-opacity = '0.250000' points = '609.7,131.2 609.7,662.4 611.6,662.4 611.6,133.2 '/>
		<polygon fill = 'rgb( 31, 120, 180)' fill-opacity = '0.250000' points = '611.6,133.2 611.6,662.4 613.5,662.4 613.5,135.3 '/>
		<polygon fill = 'rgb( 31, 120, 180)' fill-opacity = '0.250000' points = '613.5,135.3 613.5,662.4 615.4,662.4 615.4,137.4 '/>
		<polygon fill = 'rgb( 31, 120, 180)' fill-opacity = '0.250000' points = '615.4,137.4 615.4,662.4 617.3,662.4 617.3,139.6 '/>
		<polygon fill = 'rgb( 31, 120, 180)' fill-opacity = '0.250000' points = '617.3,139.6 617.3,662.4 619.2,662.4 619.2,141.8 '/>
		<polygon fill = 'rgb( 31, 120, 180)' fill-opacity = '0.250000' points = '619.2,141.8 619.2,662.4 621.1,662.4 621.1,144.1 '/>
		<polygon fill = 'rgb( 31, 120, 180)' fill-opacity = '0.250000' points = '621.1,144.1 621.1,662.4 623.0,662.4 623.0,146.4 '/>
		<polygon fill = 'rgb( 31, 120, 180)' fill-opacity = '0.250000' points = '623.0,146.4 623.0,662.4 624.8,662.4 624.8,148.8 '/>
		<polygon fill = 'rgb( 31, 120, 180)' fill-opacity = '0.250000' points = '624.8,148.8 624.8,662.4 626.7,662.4 626.7,151.2 '/>
		<polygon fill = 'rgb( 31, 120, 180)' fill-opacity = '0.250000' points = '626.7,151.2 626.7,662.4 628.6,662.4 628.6,153.7 '/>
		<polygon fill = 'rgb( 31, 120, 180)' fill-opacity = '0.250000' points = '628.6,153.7 628.6,662.4 630.5,662.4 630.5,156.2 '/>
		<polygon fill = 'rgb( 31, 120, 180)' fill-opacity = '0.250000' points = '630.5,156.2 630.5,662.4 632.4,662.4 632.4,158.8 '/>
		<polygon fill = 'rgb( 31, 120, 180)' fill-opacity = '0.250000' points = '632.4,158.8 632.4,662.4 634.3,662.4 634.3,161.5 '/>
		<polygon fill = 'rgb( 31, 120, 180)' fill-opacity = '0.250000' points = '634.3,161.5 634.3,662.4 636.2,662.4 636.2,164.2 '/>
		<polygon fill = 'rgb( 31, 120, 180)' fill-opacity = '0.250000' points = '636.2,164.2 636.2,662.4 638.1,662.4 638.1,166.9 '/>
		<polygon fill = 'rgb( 31, 120, 180)' fill-opacity = '0.250000' points = '638.1,166.9 638.1,662.4 639.9,662.4 639.9,169.6 '/>
		<polygon fill = 'rgb( 31, 120, 180)' fill-opacity = '0.250000' points = '639.9,169.6 639.9,662.4 641.8,662.4 641.8,172.4 '/>
		<polygon fill = 'rgb( 31, 120, 180)' fill-opacity = '0.250000' points = '641.8,172.4 641.8,662.4 643.7,662.4 643.7,175.2 '/>
		<polygon fill = 'rgb( 31, 120, 180)' fill-opacity = '0.250000' points = '643.7,175.2 643.7,662.4 645.6,662.4 645.6,177.9 '/>
		<polygon fill = 'rgb( 31, 120, 180)' fill-opacity = '0.250000' points = '645.6,177.9 645.6,662.4 647.5,662.4 647.5,180.7 '/>
		<polygon fill = 'rgb( 31, 120, 180)' fill-opacity = '0.250000' points = '647.5,180.7 647.5,662.4 649.4,662.4 649.4,183.5 '/>
		<polygon fill = 'rgb( 31, 120, 180)' fill-opacity = '0.250000' points = '649.4,183.5 649.4,662.4 651.3,662.4 651.3,186.3 '/>
		<polygon fill = 'rgb( 31, 120, 180)' fill-opacity = '0.250000' points = '651.3,186.3 651.3,662.4 653.1,662.4 653.1,189.1 '/>
		<polygon fill = 'rgb( 31, 120, 180)' fill-opacity = '0.250000' points = '653.1,189.1 653.1,662.4 655.0,662.4 655.0,191.8 '/>
		<polygon fill = 'rgb( 31, 120, 180)' fill-opacity = '0.250000' points = '655.0,191.8 655.0,662.4 656.9,662.4 656.9,194.6 '/>
		<polygon fill = 'rgb( 31, 120, 180)' fill-opacity = '0.250000' points = '656.9,194.6 656.9,662.4 658.8,662.4 658.8,197.3 '/>
		<polygon fill = 'rgb( 31, 120, 180)' fill-opacity = '0.250000' points = '658.8,197.3 658.8,662.4 660.7,662.4 660.7,200.1 '/>
		<polygon fill = 'rgb( 31, 120, 180)' fill-opacity = '0.250000' points = '660.7,200.1 660.7,662.4 662.6,662.4 662.6,202.9 '/>
		<polygon fill = 'rgb( 31, 120, 180)' fill-opacity = '0.250000' points = '662.6,202.9 662.6,662.4 664.5,662.4 664.5,205.6 '/>
		<polygon fill = 'rgb( 31, 120, 180)' fill-opacity = '0.250000' points = '664.5,205.6 664.5,662.4 666.4,662.4 666.4,208.4 '/>
		<polygon fill = 'rgb( 31, 120, 180)' fill-opacity = '0.250000' points = '666.4,208.4 666.4,662.4 668.2,662.4 668.2,211.3 '/>
		<polygon fill = 'rgb( 31, 120, 180)' fill-opacity = '0.250000' points = '668.2,211.3 668.2,662.4 670.1,662.4 670.1,214.1 '/>
		<polygon fill = 'rgb( 31, 120, 180)' fill-opacity = '0.250000' points = '670.1,214.1 670.1,662.4 672.0,662.4 672.0,217.0 '/>
		<polygon fill = 'rgb( 31, 120, 180)' fill-opacity = '0.250000' points = '672.0,217.0 672.0,662.4 673.9,662.4 673.9,220.0 '/>
		<polygon fill = 'rgb( 31, 120, 180)' fill-opacity = '0.250000' points = '673.9,220.0 673.9,662.4 675.8,662.4 675.8,223.0 '/>
		<polygon fill = 'rgb( 31, 120, 180)' fill-opacity = '0.250000' points = '675.8,223.0 675.8,662.4 677.7,662.4 677.7,226.0 '/>
		<polygon fill = 'rgb( 31, 120, 180)' fill-opacity = '0.250000' points = '677.7,226.0 677.7,662.4 679.6,662.4 679.6,229.2 '/>
		<polygon fill = 'rgb( 31, 120, 180)' fill-opacity = '0.250000' points = '679.6,229.2 679.6,662.4 681.5,662.4 681.5,232.4 '/>
		<polygon fill = 'rgb( 31, 120, 180)' fill-opacity = '0.250000' points = '681.5,232.4 681.5,662.4 683.3,662.4 683.3,235.7 '/>
		<polygon fill = 'rgb( 31, 120, 180)' fill-opacity = '0.250000' points = '683.3,235.7 683.3,662.4 685.2,662.4 685.2,239.0 '/>
		<polygon fill = 'rgb( 31, 120, 180)' fill-opacity = '0.250000' points = '685.2,239.0 685.2,662.4 687.1,662.4 687.1,242.4 '/>
		<polygon fill = 'rgb( 31, 120, 180)' fill-opacity = '0.250000' points = '687.1,242.4 687.1,662.4 689.0,662.4 689.0,245.9 '/>
		<polygon fill = 'rgb( 31, 120, 180)' fill-opacity = '0.250000' points = '689.0,245.9 689.0,662.4 690.9,662.4 690.9,249.5 '/>
		<polygon fill = 'rgb( 31, 120, 180)' fill-opacity = '0.250000' points = '690.9,249.5 690.9,662.4 692.8,662.4 692.8,253.1 '/>
		<polygon fill = 'rgb( 31, 120, 180)' fill-opacity = '0.250000' points = '692.8,253.1 692.8,662.4 694.7,662.4 694.7,256.8 '/>
		<polygon fill = 'rgb( 31, 120, 180)' fill-opacity = '0.250000' points = '694.7,256.8 694.7,662.4 696.6,662.4 696.6,260.5 '/>
		<polygon fill = 'rgb( 31, 120, 180)' fill-opacity = '0.250000' points = '696.6,260.5 696.6,662.4 698.4,662.4 698.4,264.3 '/>
		<polygon fill = 'rgb( 31, 120, 180)' fill-opacity = '0.250000' points = '698.4,264.3 698.4,662.4 700.3,662.4 700.3,268.0 '/>
		<polygon fill = 'rgb( 31, 120, 180)' fill-opacity = '0.250000' points = '700.3,268.0 700.3,662.4 702.2,662.4 702.2,271.8 '/>
		<polygon fill = 'rgb( 31, 120, 180)' fill-opacity = '0.250000' points = '702.2,271.8 702.2,662.4 704.1,662.4 704.1,275.6 '/>
		<polygon fill = 'rgb( 31, 120, 180)' fill-opacity = '0.250000' points = '704.1,275.6 704.1,662.4 706.0,662.4 706.0,279.3 '/>
		<polygon fill = 'rgb( 31, 120, 180)' fill-opacity = '0.250000' points = '706.0,279.3 706.0,662.4 707.9,662.4 707.9,283.0 '/>
		<polygon fill = 'rgb( 31, 120, 180)' fill-opacity = '0.250000' points = '707.9,283.0 707.9,662.4 709.8,662.4 709.8,286.7 '/>
		<polygon fill = 'rgb( 31, 120, 180)' fill-opacity = '0.250000' points = '709.8,286.7 709.8,662.4 711.7,662.4 711.7,290.4 '/>
		<polygon fill = 'rgb( 31, 120, 180)' fill-opacity = '0.250000' points = '711.7,290.4 711.7,662.4 713.5,662.4 713.5,294.0 '/>
		<polygon fill = 'rgb( 31, 120, 180)' fill-opacity = '0.250000' points = '713.5,294.0 713.5,662.4 715.4,662.4 715.4,297.6 '/>
		<polygon fill = 'rgb( 31, 120, 180)' fill-opacity = '0.250000' points = '715.4,297.6 715.4,662.4 717.3,662.4 717.3,301.1 '/>
		<polygon fill = 'rgb( 31, 120, 180)' fill-opacity = '0.250000' points = '717.3,301.1 717.3,662.4 719.2,662.4 719.2,304.5 '/>
		<polygon fill = 'rgb( 31, 120, 180)' fill-opacity = '0.250000' points = '719.2,304.5 719.2,662.4 721.1,662.4 721.1,307.9 '/>
		<polygon fill = 'rgb( 31, 120, 180)' fill-opacity = '0.250000' points = '721.1,307.9 721.1,662.4 723.0,662.4 723.0,311.2 '/>
		<polygon fill = 'rgb( 31, 120, 180)' fill-opacity = '0.250000' points = '723.0,311.2 723.0,662.4 724.9,662.4 724.9,314.5 '/>
		<polygon fill = 'rgb( 31, 120, 180)' fill-opacity = '0.250000' points = '724.9,314.5 724.9,662.4 726.7,662.4 726.7,317.7 '/>
		<polygon fill = 'rgb( 31, 120, 180)' fill-opacity = '0.250000' points = '726.7,317.7 726.7,662.4 728.6,662.4 728.6,320.8 '/>
		<polygon fill = 'rgb( 31, 120, 180)' fill-opacity = '0.250000' points = '728.6,320.8 728.6,662.4 730.5,662.4 730.5,323.9 '/>
		<polygon fill = 'rgb( 31, 120, 180)' fill-opacity = '0.250000' points = '730.5,323.9 730.5,662.4 732.4,662.4 732.4,327.0 '/>
		<polygon fill = 'rgb( 31, 120, 180)' fill-opacity = '0.250000' points = '732.4,327.0 732.4,662.4 734.3,662.4 734.3,330.1 '/>
		<polygon fill = 'rgb( 31, 120, 180)' fill-opacity = '0.250000' points = '734.3,330.1 734.3,662.4 736.2,662.4 736.2,333.1 '/>
		<polygon fill = 'rgb( 31, 120, 180)' fill-opacity = '0.250000' points = '736.2,333.1 736.2,662.4 738.1,662.4 738.1,336.1 '/>
		<polygon fill = 'rgb( 31, 120, 180)' fill-opacity = '0.250000' points = '738.1,336.1 738.1,662.4 740.0,662.4 740.0,339.1 '/>
		<polygon fill = 'rgb( 31, 120, 180)' fill-opacity = '0.250000' points = '740.0,339.1 740.0,662.4 741.8,662.4 741.8,342.1 '/>
		<polygon fill = 'rgb( 31, 120, 180)' fill-opacity = '0.250000' points = '741.8,342.1 741.8,662.4 743.7,662.4 743.7,345.1 '/>
		<polygon fill = 'rgb( 31, 120, 180)' fill-opacity = '0.250000' points = '743.7,345.1 743.7,662.4 745.6,662.4 745.6,348.1 '/>
		<polygon fill = 'rgb( 31, 120, 180)' fill-opacity = '0.250000' points = '745.6,348.1 745.6,662.4 747.5,662.4 747.5,351.1 '/>
		<polygon fill = 'rgb( 31, 120, 180)' fill-opacity = '0.250000' points = '747.5,351.1 747.5,662.4 749.4,662.4 749.4,354.1 '/>
		<polygon fill = 'rgb( 31, 120, 180)' fill-opacity = '0.250000' points = '749.4,354.1 749.4,662.4 751.3,662.4 751.3,357.2 '/>
		<polygon fill = 'rgb( 31, 120, 180)' fill-opacity = '0.250000' points = '751.3,357.2 751.3,662.4 753.2,662.4 753.2,360.2 '/>
		<polygon fill = 'rgb( 31, 120, 180)' fill-opacity = '0.250000' points = '753.2,360.2 753.2,662.4 755.1,662.4 755.1,363.3 '/>
		<polygon fill = 'rgb( 31, 120, 180)' fill-opacity = '0.250000' points = '755.1,363.3 755.1,662.4 756.9,662.4 756.9,366.4 '/>
		<polygon fill = 'rgb( 31, 120, 180)' fill-opacity = '0.250000' points = '756.9,366.4 756.9,662.4 758.8,662.4 758.8,369.6 '/>
		<polygon fill = 'rgb( 31, 120, 180)' fill-opacity = '0.250000' points = '758.8,369.6 758.8,662.4 760.7,662.4 760.7,372.7 '/>
		<polygon fill = 'rgb( 31, 120, 180)' fill-opacity = '0.250000' points = '760.7,372.7 760.7,662.4 762.6,662.4 762.6,375.9 '/>
		<polygon fill = 'rgb( 31, 120, 180)' fill-opacity = '0.250000' points = '762.6,375.9 762.6,662.4 764.5,662.4 764.5,379.0 '/>
		<polygon fill = 'rgb( 31, 120, 180)' fill-opacity = '0.250000' points = '764.5,379.0 764.5,662.4 766.4,662.4 766.4,382.2 '/>
		<polygon fill = 'rgb( 31, 120, 180)' fill-opacity = '0.250000' points = '766.4,382.2 766.4,662.4 768.3,662.4 768.3,385.4 '/>
		<polygon fill = 'rgb( 31, 120, 180)' fill-opacity = '0.250000' points = '768.3,385.4 768.3,662.4 770.2,662.4 770.2,388.7 '/>
		<polygon fill = 'rgb( 31, 120, 180)' fill-opacity = '0.250000' points = '770.2,388.7 770.2,662.4 772.0,662.4 772.0,391.9 '/>
		<polygon fill = 'rgb( 31, 120, 180)' fill-opacity = '0.250000' points = '772.0,391.9 772.0,662.4 773.9,662.4 773.9,395.1 '/>
		<polygon fill = 'rgb( 31, 120, 180)' fill-opacity = '0.250000' points = '773.9,395.1 773.9,662.4 775.8,662.4 775.8,398.4 '/>
		<polygon fill = 'rgb( 31, 120, 180)' fill-opacity = '0.250000' points = '775.8,398.4 775.8,662.4 777.7,662.4 777.7,401.6 '/>
		<polygon fill = 'rgb( 31, 120, 180)' fill-opacity = '0.250000' points = '777.7,401.6 777.7,662.4 779.6,662.4 779.6,404.9 '/>
		<polygon fill = 'rgb( 31, 120, 180)' fill-opacity = '0.250000' points = '779.6,404.9 779.6,662.4 781.5,662.4 781.5,408.1 '/>
		<polygon fill = 'rgb( 31, 120, 180)' fill-opacity = '0.250000' points = '781.5,408.1 781.5,662.4 783.4,662.4 783.4,411.4 '/>
		<polygon fill = 'rgb( 31, 120, 180)' fill-opacity = '0.250000' points = '783.4,411.4 783.4,662.4 785.3,662.4 785.3,414.6 '/>
		<polygon fill = 'rgb( 31, 120, 180)' fill-opacity = '0.250000' points = '785.3,414.6 785.3,662.4 787.1,662.4 787.1,417.8 '/>
		<polygon fill = 'rgb( 31, 120, 180)' fill-opacity = '0.250000' points = '787.1,417.8 787.1,662.4 789.0,662.4 789.0,421.0 '/>
		<polygon fill = 'rgb( 31, 120, 180)' fill-opacity = '0.250000' points = '789.0,421.0 789.0,662.4 790.9,662.4 790.9,424.2 '/>
		<polygon fill = 'rgb( 31, 120, 180)' fill-opacity = '0.250000' points = '790.9,424.2 790.9,662.4 792.8,662.4 792.8,427.3 '/>
		<polygon fill = 'rgb( 31, 120, 180)' fill-opacity = '0.250000' points = '792.8,427.3 792.8,662.4 794.7,662.4 794.7,430.5 '/>
		<polygon fill = 'rgb( 31, 120, 180)' fill-opacity = '0.250000' points = '794.7,430.5 794.7,662.4 796.6,662.4 796.6,433.6 '/>
		<polygon fill = 'rgb( 31, 120, 180)' fill-opacity = '0.250000' points = '796.6,433.6 796.6,662.4 798.5,662.4 798.5,436.7 '/>
		<polygon fill = 'rgb( 31, 120, 180)' fill-opacity = '0.250000' points = '798.5,436.7 798.5,662.4 800.3,662.4 800.3,439.7 '/>
		<polygon fill = 'rgb( 31, 120, 180)' fill-opacity = '0.250000' points = '800.3,439.7 800.3,662.4 802.2,662.4 802.2,442.8 '/>
		<polygon fill = 'rgb( 31, 120, 180)' fill-opacity = '0.250000' points = '802.2,442.8 802.2,662.4 804.1,662.4 804.1,445.8 '/>
		<polygon fill = 'rgb( 31, 120, 180)' fill-opacity = '0.250000' points = '804.1,445.8 804.1,662.4 806.0,662.4 806.0,448.7 '/>
		<polygon fill = 'rgb( 31, 120, 180)' fill-opacity = '0.250000' points = '806.0,448.7 806.0,662.4 807.9,662.4 807.9,451.7 '/>
		<polygon fill = 'rgb( 31, 120, 180)' fill-opacity = '0.250000' points = '807.9,451.7 807.9,662.4 809.8,662.4 809.8,454.6 '/>
		<polygon fill = 'rgb( 31, 120, 180)' fill-opacity = '0.250000' points = '809.8,454.6 809.8,662.4 811.7,662.4 811.7,457.4 '/>
		<polygon fill = 'rgb( 31, 120, 180)' fill-opacity = '0.250000' points = '811.7,457.4 811.7,662.4 813.6,662.4 813.6,460.2 '/>
		<polygon fill = 'rgb( 31, 120, 180)' fill-opacity = '0.250000' points = '813.6,460.2 813.6,662.4 815.4,662.4 815.4,463.0 '/>
		<polygon fill = 'rgb( 31, 120, 180)' fill-opacity = '0.250000' points = '815.4,463.0 815.4,662.4 817.3,662.4 817.3,465.8 '/>
		<polygon fill = 'rgb( 31, 120, 180)' fill-opacity = '0.250000' points = '817.3,465.8 817.3,662.4 819.2,662.4 819.2,468.5 '/>
		<polygon fill = 'rgb( 31, 120, 180)' fill-opacity = '0.250000' points = '819.2,468.5 819.2,662.4 821.1,662.4 821.1,471.2 '/>
		<polygon fill = 'rgb( 31, 120, 180)' fill-opacity = '0.250000' points = '821.1,471.2 821.1,662.4 823.0,662.4 823.0,473.9 '/>
		<polygon fill = 'rgb( 31, 120, 180)' fill-opacity = '0.250000' points = '823.0,473.9 823.0,662.4 824.9,662.4 824.9,476.5 '/>
		<polygon fill = 'rgb( 31, 120, 180)' fill-opacity = '0.250000' points = '824.9,476.5 824.9,662.4 826.8,662.4 826.8,479.1 '/>
		<polygon fill = 'rgb( 31, 120, 180)' fill-opacity = '0.250000' points = '826.8,479.1 826.8,662.4 828.7,662.4 828.7,481.7 '/>
		<polygon fill = 'rgb( 31, 120, 180)' fill-opacity = '0.250000' points = '828.7,481.7 828.7,662.4 830.5,662.4 830.5,484.3 '/>
		<polygon fill = 'rgb( 31, 120, 180)' fill-opacity = '0.250000' points = '830.5,484.3 830.5,662.4 832.4,662.4 832.4,486.8 '/>
		<polygon fill = 'rgb( 31, 120, 180)' fill-opacity = '0.250000' points = '832.4,486.8 832.4,662.4 834.3,662.4 834.3,489.2 '/>
		<polygon fill = 'rgb( 31, 120, 180)' fill-opacity = '0.250000' points = '834.3,489.2 834.3,662.4 836.2,662.4 836.2,491.7 '/>
		<polygon fill = 'rgb( 31, 120, 180)' fill-opacity = '0.250000' points = '836.2,491.7 836.2,662.4 838.1,662.4 838.1,494.1 '/>
		<polygon fill = 'rgb( 31, 120, 180)' fill-opacity = '0.250000' points = '838.1,494.1 838.1,662.4 840.0,662.4 840.0,496.5 '/>
		<polygon fill = 'rgb( 31, 120, 180)' fill-opacity = '0.250000' points = '840.0,496.5 840.0,662.4 841.9,662.4 841.9,498.8 '/>
		<polygon fill = 'rgb( 31, 120, 180)' fill-opacity = '0.250000' points = '841.9,498.8 841.9,662.4 843.8,662.4 843.8,501.2 '/>
		<polygon fill = 'rgb( 31, 120, 180)' fill-opacity = '0.250000' points = '843.8,501.2 843.8,662.4 845.6,662.4 845.6,503.5 '/>
		<polygon fill = 'rgb( 31, 120, 180)' fill-opacity = '0.250000' points = '845.6,503.5 845.6,662.4 847.5,662.4 847.5,505.8 '/>
		<polygon fill = 'rgb( 31, 120, 180)' fill-opacity = '0.250000' points = '847.5,505.8 847.5,662.4 849.4,662.4 849.4,508.0 '/>
		<polygon fill = 'rgb( 31, 120, 180)' fill-opacity = '0.250000' points = '849.4,508.0 849.4,662.4 851.3,662.4 851.3,510.2 '/>
		<polygon fill = 'rgb( 31, 120, 180)' fill-opacity = '0.250000' points = '851.3,510.2 851.3,662.4 853.2,662.4 853.2,512.4 '/>
		<polygon fill = 'rgb( 31, 120, 180)' fill-opacity = '0.250000' points = '853.2,512.4 853.2,662.4 855.1,662.4 855.1,514.6 '/>
		<polygon fill = 'rgb( 31, 120, 180)' fill-opacity = '0.250000' points = '855.1,514.6 855.1,662.4 857.0,662.4 857.0,516.7 '/>
		<polygon fill = 'rgb( 31, 120, 180)' fill-opacity = '0.250000' points = '857.0,516.7 857.0,662.4 858.9,662.4 858.9,518.9 '/>
		<polygon fill = 'rgb( 31, 120, 180)' fill-opacity = '0.250000' points = '858.9,518.9 858.9,662.4 860.7,662.4 860.7,521.0 '/>
		<polygon fill = 'rgb( 31, 120, 180)' fill-opacity = '0.250000' points = '860.7,521.0 860.7,662.4 862.6,662.4 862.6,523.0 '/>
		<polygon fill = 'rgb( 31, 120, 180)' fill-opacity = '0.250000' points = '862.6,523.0 862.6,662.4 864.5,662.4 864.5,525.1 '/>
		<polygon fill = 'rgb( 31, 120, 180)' fill-opacity = '0.250000' points = '864.5,525.1 864.5,662.4 866.4,662.4 866.4,527.1 '/>
		<polygon fill = 'rgb( 31, 120, 180)' fill-opacity = '0.250000' points = '866.4,527.1 866.4,662.4 868.3,662.4 868.3,529.1 '/>
		<polygon fill = 'rgb( 31, 120, 180)' fill-opacity = '0.250000' points = '868.3,529.1 868.3,662.4 870.2,662.4 870.2,531.1 '/>
		<polygon fill = 'rgb( 31, 120, 180)' fill-opacity = '0.250000' points = '870.2,531.1 870.2,662.4 872.1,662.4 872.1,533.1 '/>
		<polygon fill = 'rgb( 31, 120, 180)' fill-opacity = '0.250000' points = '872.1,533.1 872.1,662.4 873.9,662.4 873.9,535.1 '/>
		<polygon fill = 'rgb( 31, 120, 180)' fill-opacity = '0.250000' points = '873.9,535.1 873.9,662.4 875.8,662.4 875.8,537.0 '/>
		<polygon fill = 'rgb( 31, 120, 180)' fill-opacity = '0.250000' points = '875.8,537.0 875.8,662.4 877.7,662.4 877.7,539.0 '/>
		<polygon fill = 'rgb( 31, 120, 180)' fill-opacity = '0.250000' points = '877.7,539.0 877.7,662.4 879.6,662.4 879.6,540.9 '/>
		<polygon fill = 'rgb( 31, 120, 180)' fill-opacity = '0.250000' points = '879.6,540.9 879.6,662.4 881.5,662.4 881.5,542.8 '/>
		<polygon fill = 'rgb( 31, 120, 180)' fill-opacity = '0.250000' points = '881.5,542.8 881.5,662.4 883.4,662.4 883.4,544.7 '/>
		<polygon fill = 'rgb( 31, 120, 180)' fill-opacity = '0.250000' points = '883.4,544.7 883.4,662.4 885.3,662.4 885.3,546.6 '/>
		<polygon fill = 'rgb( 31, 120, 180)' fill-opacity = '0.250000' points = '885.3,546.6 885.3,662.4 887.2,662.4 887.2,548.4 '/>
		<polygon fill = 'rgb( 31, 120, 180)' fill-opacity = '0.250000' points = '887.2,548.4 887.2,662.4 889.0,662.4 889.0,550.3 '/>
		<polygon fill = 'rgb( 31, 120, 180)' fill-opacity = '0.250000' points = '889.0,550.3 889.0,662.4 890.9,662.4 890.9,552.1 '/>
		<polygon fill = 'rgb( 31, 120, 180)' fill-opacity = '0.250000' points = '890.9,552.1 890.9,662.4 892.8,662.4 892.8,553.9 '/>
		<polygon fill = 'rgb( 31, 120, 180)' fill-opacity = '0.250000' points = '892.8,553.9 892.8,662.4 894.7,662.4 894.7,555.8 '/>
		<polygon fill = 'rgb( 31, 120, 180)' fill-opacity = '0.250000' points = '894.7,555.8 894.7,662.4 896.6,662.4 896.6,557.6 '/>
		<polygon fill = 'rgb( 31, 120, 180)' fill-opacity = '0.250000' points = '896.6,557.6 896.6,662.4 898.5,662.4 898.5,559.3 '/>
		<polygon fill = 'rgb( 31, 120, 180)' fill-opacity = '0.250000' points = '898.5,559.3 898.5,662.4 900.4,662.4 900.4,561.1 '/>
		<polygon fill = 'rgb( 31, 120, 180)' fill-opacity = '0.250000' points = '900.4,561.1 900.4,662.4 902.3,662.4 902.3,562.9 '/>
		<polygon fill = 'rgb( 31, 120, 180)' fill-opacity = '0.250000' points = '902.3,562.9 902.3,662.4 904.1,662.4 904.1,564.6 '/>
		<polygon fill = 'rgb( 31, 120, 180)' fill-opacity = '0.250000' points = '904.1,564.6 904.1,662.4 906.0,662.4 906.0,566.3 '/>
		<polygon fill = 'rgb( 31, 120, 180)' fill-opacity = '0.250000' points = '906.0,566.3 906.0,662.4 907.9,662.4 907.9,568.0 '/>
		<polygon fill = 'rgb( 31, 120, 180)' fill-opacity = '0.250000' points = '907.9,568.0 907.9,662.4 909.8,662.4 909.8,569.7 '/>
		<polygon fill = 'rgb( 31, 120, 180)' fill-opacity = '0.250000' points = '909.8,569.7 909.8,662.4 911.7,662.4 911.7,571.3 '/>
		<polygon fill = 'rgb( 31, 120, 180)' fill-opacity = '0.250000' points = '911.7,571.3 911.7,662.4 913.6,662.4 913.6,573.0 '/>
		<polygon fill = 'rgb( 31, 120, 180)' fill-opacity = '0.250000' points = '913.6,573.0 913.6,662.4 915.5,662.4 915.5,574.6 '/>
		<polygon fill = 'rgb( 31, 120, 180)' fill-opacity = '0.250000' points = '915.5,574.6 915.5,662.4 917.4,662.4 917.4,576.1 '/>
		<polygon fill = 'rgb( 31, 120, 180)' fill-opacity = '0.250000' points = '917.4,576.1 917.4,662.4 919.2,662.4 919.2,577.7 '/>
		<polygon fill = 'rgb( 31, 120, 180)' fill-opacity = '0.250000' points = '919.2,577.7 919.2,662.4 921.1,662.4 921.1,579.2 '/>
		<polygon fill = 'rgb( 31, 120, 180)' fill-opacity = '0.250000' points = '921.1,579.2 921.1,662.4 923.0,662.4 923.0,580.8 '/>
		<polygon fill = 'rgb( 31, 120, 180)' fill-opacity = '0.250000' points = '923.0,580.8 923.0,662.4 924.9,662.4 924.9,582.2 '/>
	</g>
</g>
	</g>
	<g id="gnuplot_plot_3" ><title>Point estimate</title>
<g fill="none" color="white" stroke="rgb( 31, 120, 180)" stroke-width="2.00" stroke-linecap="butt" stroke-linejoin="miter">
</g>
<g fill="none" color="black" stroke="currentColor" stroke-width="2.00" stroke-linecap="butt" stroke-linejoin="miter">
	<g transform="translate(1089.0,103.0)" stroke="none" fill="black" font-family="Helvetica" font-size="12.00"  text-anchor="start">
		<text><tspan font-family="Helvetica" >Point estimate</tspan></text>
	</g>
</g>
<g fill="none" color="black" stroke="currentColor" stroke-width="2.00" stroke-linecap="butt" stroke-linejoin="miter">
	<path stroke='rgb( 31, 120, 180)'  d='M1038.5,99.1 L1080.7,99.1 M521.3,662.4 L521.3,87.5  '/></g>
	</g>
	<g id="gnuplot_plot_4" ><title>Noise threshold</title>
<g fill="none" color="white" stroke="rgb( 31, 120, 180)" stroke-width="1.00" stroke-linecap="butt" stroke-linejoin="miter">
</g>
<g fill="none" color="black" stroke="currentColor" stroke-width="1.00" stroke-linecap="butt" stroke-linejoin="miter">
	<g transform="translate(1089.0,121.0)" stroke="none" fill="black" font-family="Helvetica" font-size="12.00"  text-anchor="start">
		<text><tspan font-family="Helvetica" >Noise threshold</tspan></text>
	</g>
</g>
<g fill="none" color="black" stroke="currentColor" stroke-width="1.00" stroke-linecap="butt" stroke-linejoin="miter">
	<g stroke='none' shape-rendering='crispEdges'>
		<polygon fill = 'rgb(227,  26,  28)' fill-opacity = '0.100000' points = '1038.5,121.6 1080.7,121.6 1080.7,112.6 1038.5,112.6 '/>
		<polygon fill = 'rgb(227,  26,  28)' fill-opacity = '0.100000' points = '516.6,54.1 516.6,662.4 1013.6,662.4 1013.6,54.1 '/>
	</g>
</g>
	</g>
<g fill="none" color="white" stroke="rgb(227,  26,  28)" stroke-width="2.00" stroke-linecap="butt" stroke-linejoin="miter">
</g>
<g fill="none" color="black" stroke="currentColor" stroke-width="2.00" stroke-linecap="butt" stroke-linejoin="miter">
</g>
<g fill="none" color="black" stroke="black" stroke-width="1.00" stroke-linecap="butt" stroke-linejoin="miter">
</g>
<g fill="none" color="black" stroke="currentColor" stroke-width="1.00" stroke-linecap="butt" stroke-linejoin="miter">
	<path stroke='black'  d='M71.9,54.1 L71.9,662.4 L1013.6,662.4 L1013.6,54.1 L71.9,54.1 Z  '/></g>
<g fill="none" color="black" stroke="currentColor" stroke-width="1.00" stroke-linecap="butt" stroke-linejoin="miter">
</g>
</g>
</svg>

