<?xml version="1.0" encoding="utf-8"  standalone="no"?>
<svg 
 viewBox="0 0 1280 720"
 xmlns="http://www.w3.org/2000/svg"
 xmlns:xlink="http://www.w3.org/1999/xlink"
>

<title>Gnuplot</title>
<desc>Produced by GNUPLOT 5.0 patchlevel 6 </desc>

<g id="gnuplot_canvas">

<rect x="0" y="0" width="1280" height="720" fill="none"/>
<defs>

	<circle id='gpDot' r='0.5' stroke-width='0.5'/>
	<path id='gpPt0' stroke-width='0.222' stroke='currentColor' d='M-1,0 h2 M0,-1 v2'/>
	<path id='gpPt1' stroke-width='0.222' stroke='currentColor' d='M-1,-1 L1,1 M1,-1 L-1,1'/>
	<path id='gpPt2' stroke-width='0.222' stroke='currentColor' d='M-1,0 L1,0 M0,-1 L0,1 M-1,-1 L1,1 M-1,1 L1,-1'/>
	<rect id='gpPt3' stroke-width='0.222' stroke='currentColor' x='-1' y='-1' width='2' height='2'/>
	<rect id='gpPt4' stroke-width='0.222' stroke='currentColor' fill='currentColor' x='-1' y='-1' width='2' height='2'/>
	<circle id='gpPt5' stroke-width='0.222' stroke='currentColor' cx='0' cy='0' r='1'/>
	<use xlink:href='#gpPt5' id='gpPt6' fill='currentColor' stroke='none'/>
	<path id='gpPt7' stroke-width='0.222' stroke='currentColor' d='M0,-1.33 L-1.33,0.67 L1.33,0.67 z'/>
	<use xlink:href='#gpPt7' id='gpPt8' fill='currentColor' stroke='none'/>
	<use xlink:href='#gpPt7' id='gpPt9' stroke='currentColor' transform='rotate(180)'/>
	<use xlink:href='#gpPt9' id='gpPt10' fill='currentColor' stroke='none'/>
	<use xlink:href='#gpPt3' id='gpPt11' stroke='currentColor' transform='rotate(45)'/>
	<use xlink:href='#gpPt11' id='gpPt12' fill='currentColor' stroke='none'/>
	<path id='gpPt13' stroke-width='0.222' stroke='currentColor' d='M0,1.330 L1.265,0.411 L0.782,-1.067 L-0.782,-1.076 L-1.265,0.411 z'/>
	<use xlink:href='#gpPt13' id='gpPt14' fill='currentColor' stroke='none'/>
	<filter id='textbox' filterUnits='objectBoundingBox' x='0' y='0' height='1' width='1'>
	  <feFlood flood-color='white' flood-opacity='1' result='bgnd'/>
	  <feComposite in='SourceGraphic' in2='bgnd' operator='atop'/>
	</filter>
	<filter id='greybox' filterUnits='objectBoundingBox' x='0' y='0' height='1' width='1'>
	  <feFlood flood-color='lightgrey' flood-opacity='1' result='grey'/>
	  <feComposite in='SourceGraphic' in2='grey' operator='atop'/>
	</filter>
</defs>
<g fill="none" color="white" stroke="currentColor" stroke-width="1.00" stroke-linecap="butt" stroke-linejoin="miter">
</g>
<g fill="none" color="black" stroke="currentColor" stroke-width="1.00" stroke-linecap="butt" stroke-linejoin="miter">
	<path stroke='black'  d='M71.9,662.4 L80.9,662.4  '/>	<g transform="translate(63.6,666.3)" stroke="none" fill="black" font-family="Helvetica" font-size="12.00"  text-anchor="end">
		<text><tspan font-family="Helvetica" > 0</tspan></text>
	</g>
</g>
<g fill="none" color="black" stroke="currentColor" stroke-width="1.00" stroke-linecap="butt" stroke-linejoin="miter">
	<path stroke='black'  d='M71.9,586.4 L80.9,586.4  '/>	<g transform="translate(63.6,590.3)" stroke="none" fill="black" font-family="Helvetica" font-size="12.00"  text-anchor="end">
		<text><tspan font-family="Helvetica" > 50</tspan></text>
	</g>
</g>
<g fill="none" color="black" stroke="currentColor" stroke-width="1.00" stroke-linecap="butt" stroke-linejoin="miter">
	<path stroke='black'  d='M71.9,510.3 L80.9,510.3  '/>	<g transform="translate(63.6,514.2)" stroke="none" fill="black" font-family="Helvetica" font-size="12.00"  text-anchor="end">
		<text><tspan font-family="Helvetica" > 100</tspan></text>
	</g>
</g>
<g fill="none" color="black" stroke="currentColor" stroke-width="1.00" stroke-linecap="butt" stroke-linejoin="miter">
	<path stroke='black'  d='M71.9,434.3 L80.9,434.3  '/>	<g transform="translate(63.6,438.2)" stroke="none" fill="black" font-family="Helvetica" font-size="12.00"  text-anchor="end">
		<text><tspan font-family="Helvetica" > 150</tspan></text>
	</g>
</g>
<g fill="none" color="black" stroke="currentColor" stroke-width="1.00" stroke-linecap="butt" stroke-linejoin="miter">
	<path stroke='black'  d='M71.9,358.2 L80.9,358.2  '/>	<g transform="translate(63.6,362.1)" stroke="none" fill="black" font-family="Helvetica" font-size="12.00"  text-anchor="end">
		<text><tspan font-family="Helvetica" > 200</tspan></text>
	</g>
</g>
<g fill="none" color="black" stroke="currentColor" stroke-width="1.00" stroke-linecap="butt" stroke-linejoin="miter">
	<path stroke='black'  d='M71.9,282.2 L80.9,282.2  '/>	<g transform="translate(63.6,286.1)" stroke="none" fill="black" font-family="Helvetica" font-size="12.00"  text-anchor="end">
		<text><tspan font-family="Helvetica" > 250</tspan></text>
	</g>
</g>
<g fill="none" color="black" stroke="currentColor" stroke-width="1.00" stroke-linecap="butt" stroke-linejoin="miter">
	<path stroke='black'  d='M71.9,206.2 L80.9,206.2  '/>	<g transform="translate(63.6,210.1)" stroke="none" fill="black" font-family="Helvetica" font-size="12.00"  text-anchor="end">
		<text><tspan font-family="Helvetica" > 300</tspan></text>
	</g>
</g>
<g fill="none" color="black" stroke="currentColor" stroke-width="1.00" stroke-linecap="butt" stroke-linejoin="miter">
	<path stroke='black'  d='M71.9,130.1 L80.9,130.1  '/>	<g transform="translate(63.6,134.0)" stroke="none" fill="black" font-family="Helvetica" font-size="12.00"  text-anchor="end">
		<text><tspan font-family="Helvetica" > 350</tspan></text>
	</g>
</g>
<g fill="none" color="black" stroke="currentColor" stroke-width="1.00" stroke-linecap="butt" stroke-linejoin="miter">
	<path stroke='black'  d='M71.9,54.1 L80.9,54.1  '/>	<g transform="translate(63.6,58.0)" stroke="none" fill="black" font-family="Helvetica" font-size="12.00"  text-anchor="end">
		<text><tspan font-family="Helvetica" > 400</tspan></text>
	</g>
</g>
<g fill="none" color="black" stroke="currentColor" stroke-width="1.00" stroke-linecap="butt" stroke-linejoin="miter">
	<path stroke='black'  d='M246.3,662.4 L246.3,653.4  '/>	<g transform="translate(246.3,684.3)" stroke="none" fill="black" font-family="Helvetica" font-size="12.00"  text-anchor="middle">
		<text><tspan font-family="Helvetica" > 0</tspan></text>
	</g>
</g>
<g fill="none" color="black" stroke="currentColor" stroke-width="1.00" stroke-linecap="butt" stroke-linejoin="miter">
	<path stroke='black'  d='M428.1,662.4 L428.1,653.4  '/>	<g transform="translate(428.1,684.3)" stroke="none" fill="black" font-family="Helvetica" font-size="12.00"  text-anchor="middle">
		<text><tspan font-family="Helvetica" > 0.1</tspan></text>
	</g>
</g>
<g fill="none" color="black" stroke="currentColor" stroke-width="1.00" stroke-linecap="butt" stroke-linejoin="miter">
	<path stroke='black'  d='M609.9,662.4 L609.9,653.4  '/>	<g transform="translate(609.9,684.3)" stroke="none" fill="black" font-family="Helvetica" font-size="12.00"  text-anchor="middle">
		<text><tspan font-family="Helvetica" > 0.2</tspan></text>
	</g>
</g>
<g fill="none" color="black" stroke="currentColor" stroke-width="1.00" stroke-linecap="butt" stroke-linejoin="miter">
	<path stroke='black'  d='M791.7,662.4 L791.7,653.4  '/>	<g transform="translate(791.7,684.3)" stroke="none" fill="black" font-family="Helvetica" font-size="12.00"  text-anchor="middle">
		<text><tspan font-family="Helvetica" > 0.3</tspan></text>
	</g>
</g>
<g fill="none" color="black" stroke="currentColor" stroke-width="1.00" stroke-linecap="butt" stroke-linejoin="miter">
	<path stroke='black'  d='M973.4,662.4 L973.4,653.4  '/>	<g transform="translate(973.4,684.3)" stroke="none" fill="black" font-family="Helvetica" font-size="12.00"  text-anchor="middle">
		<text><tspan font-family="Helvetica" > 0.4</tspan></text>
	</g>
</g>
<g fill="none" color="black" stroke="currentColor" stroke-width="1.00" stroke-linecap="butt" stroke-linejoin="miter">
</g>
<g fill="none" color="black" stroke="currentColor" stroke-width="1.00" stroke-linecap="butt" stroke-linejoin="miter">
	<path stroke='black'  d='M71.9,54.1 L71.9,662.4 L1013.6,662.4 L1013.6,54.1 L71.9,54.1 Z  '/></g>
<g fill="none" color="black" stroke="currentColor" stroke-width="1.00" stroke-linecap="butt" stroke-linejoin="miter">
	<g transform="translate(17.0,358.3) rotate(270)" stroke="none" fill="black" font-family="Helvetica" font-size="12.00"  text-anchor="middle">
		<text><tspan font-family="Helvetica" >Density (a.u.)</tspan></text>
	</g>
</g>
<g fill="none" color="black" stroke="currentColor" stroke-width="1.00" stroke-linecap="butt" stroke-linejoin="miter">
	<g transform="translate(542.7,711.3)" stroke="none" fill="black" font-family="Helvetica" font-size="12.00"  text-anchor="middle">
		<text><tspan font-family="Helvetica" >Relative change (%)</tspan></text>
	</g>
</g>
<g fill="none" color="black" stroke="currentColor" stroke-width="1.00" stroke-linecap="butt" stroke-linejoin="miter">
	<g transform="translate(542.7,31.0)" stroke="none" fill="black" font-family="Helvetica" font-size="12.00"  text-anchor="middle">
		<text><tspan font-family="Helvetica" >language: python/parse error: bash/examples/update-authors.sh: mean</tspan></text>
	</g>
</g>
	<g id="gnuplot_plot_1" ><title>Bootstrap distribution</title>
<g fill="none" color="white" stroke="black" stroke-width="2.00" stroke-linecap="butt" stroke-linejoin="miter">
</g>
<g fill="none" color="black" stroke="currentColor" stroke-width="2.00" stroke-linecap="butt" stroke-linejoin="miter">
	<g transform="translate(1089.0,67.0)" stroke="none" fill="black" font-family="Helvetica" font-size="12.00"  text-anchor="start">
		<text><tspan font-family="Helvetica" >Bootstrap distribution</tspan></text>
	</g>
</g>
<g fill="none" color="black" stroke="currentColor" stroke-width="2.00" stroke-linecap="butt" stroke-linejoin="miter">
	<path stroke='rgb( 31, 120, 180)'  d='M1038.5,63.1 L1080.7,63.1 M71.9,628.0 L73.8,627.2 L75.7,626.3 L77.6,625.5 L79.4,624.7 L81.3,623.8
		L83.2,623.0 L85.1,622.1 L87.0,621.2 L88.9,620.3 L90.8,619.4 L92.7,618.5 L94.5,617.6 L96.4,616.7
		L98.3,615.7 L100.2,614.7 L102.1,613.8 L104.0,612.8 L105.9,611.7 L107.8,610.7 L109.6,609.7 L111.5,608.6
		L113.4,607.6 L115.3,606.5 L117.2,605.4 L119.1,604.3 L121.0,603.2 L122.9,602.2 L124.7,601.1 L126.6,600.0
		L128.5,598.8 L130.4,597.7 L132.3,596.6 L134.2,595.4 L136.1,594.3 L138.0,593.1 L139.8,591.9 L141.7,590.6
		L143.6,589.4 L145.5,588.1 L147.4,586.7 L149.3,585.3 L151.2,583.9 L153.0,582.4 L154.9,580.8 L156.8,579.3
		L158.7,577.6 L160.6,575.9 L162.5,574.2 L164.4,572.4 L166.3,570.6 L168.1,568.7 L170.0,566.8 L171.9,564.8
		L173.8,562.9 L175.7,560.9 L177.6,558.8 L179.5,556.8 L181.4,554.7 L183.2,552.7 L185.1,550.6 L187.0,548.5
		L188.9,546.4 L190.8,544.3 L192.7,542.2 L194.6,540.1 L196.5,538.0 L198.3,535.9 L200.2,533.8 L202.1,531.7
		L204.0,529.6 L205.9,527.5 L207.8,525.4 L209.7,523.3 L211.6,521.2 L213.4,519.1 L215.3,516.9 L217.2,514.7
		L219.1,512.5 L221.0,510.2 L222.9,507.9 L224.8,505.6 L226.6,503.2 L228.5,500.8 L230.4,498.3 L232.3,495.8
		L234.2,493.2 L236.1,490.5 L238.0,487.8 L239.9,485.0 L241.7,482.2 L243.6,479.3 L245.5,476.4 L247.4,473.5
		L249.3,470.5 L251.2,467.5 L253.1,464.4 L255.0,461.4 L256.8,458.4 L258.7,455.4 L260.6,452.4 L262.5,449.4
		L264.4,446.4 L266.3,443.5 L268.2,440.6 L270.1,437.7 L271.9,434.9 L273.8,432.1 L275.7,429.4 L277.6,426.6
		L279.5,423.9 L281.4,421.3 L283.3,418.6 L285.2,415.9 L287.0,413.3 L288.9,410.6 L290.8,407.9 L292.7,405.2
		L294.6,402.5 L296.5,399.8 L298.4,397.0 L300.2,394.2 L302.1,391.4 L304.0,388.6 L305.9,385.7 L307.8,382.8
		L309.7,379.8 L311.6,376.9 L313.5,373.9 L315.3,370.9 L317.2,367.9 L319.1,364.8 L321.0,361.7 L322.9,358.7
		L324.8,355.6 L326.7,352.4 L328.6,349.3 L330.4,346.1 L332.3,343.0 L334.2,339.8 L336.1,336.6 L338.0,333.3
		L339.9,330.1 L341.8,326.8 L343.7,323.5 L345.5,320.2 L347.4,316.9 L349.3,313.5 L351.2,310.2 L353.1,306.8
		L355.0,303.4 L356.9,300.0 L358.8,296.7 L360.6,293.3 L362.5,289.9 L364.4,286.6 L366.3,283.3 L368.2,280.0
		L370.1,276.7 L372.0,273.4 L373.8,270.2 L375.7,267.0 L377.6,263.8 L379.5,260.7 L381.4,257.6 L383.3,254.5
		L385.2,251.5 L387.1,248.5 L388.9,245.5 L390.8,242.6 L392.7,239.6 L394.6,236.7 L396.5,233.8 L398.4,231.0
		L400.3,228.1 L402.2,225.3 L404.0,222.5 L405.9,219.6 L407.8,216.8 L409.7,214.0 L411.6,211.2 L413.5,208.4
		L415.4,205.7 L417.3,202.9 L419.1,200.1 L421.0,197.4 L422.9,194.6 L424.8,191.9 L426.7,189.1 L428.6,186.4
		L430.5,183.7 L432.4,181.0 L434.2,178.3 L436.1,175.6 L438.0,173.0 L439.9,170.3 L441.8,167.7 L443.7,165.2
		L445.6,162.6 L447.4,160.1 L449.3,157.6 L451.2,155.2 L453.1,152.8 L455.0,150.5 L456.9,148.2 L458.8,145.9
		L460.7,143.8 L462.5,141.7 L464.4,139.6 L466.3,137.6 L468.2,135.7 L470.1,133.8 L472.0,132.1 L473.9,130.4
		L475.8,128.7 L477.6,127.2 L479.5,125.7 L481.4,124.3 L483.3,122.9 L485.2,121.6 L487.1,120.4 L489.0,119.3
		L490.9,118.2 L492.7,117.1 L494.6,116.2 L496.5,115.2 L498.4,114.4 L500.3,113.6 L502.2,112.8 L504.1,112.1
		L506.0,111.4 L507.8,110.7 L509.7,110.1 L511.6,109.6 L513.5,109.1 L515.4,108.6 L517.3,108.1 L519.2,107.7
		L521.0,107.4 L522.9,107.1 L524.8,106.8 L526.7,106.6 L528.6,106.4 L530.5,106.2 L532.4,106.1 L534.3,106.1
		L536.1,106.1 L538.0,106.1 L539.9,106.2 L541.8,106.4 L543.7,106.6 L545.6,106.8 L547.5,107.1 L549.4,107.5
		L551.2,107.8 L553.1,108.3 L555.0,108.7 L556.9,109.3 L558.8,109.8 L560.7,110.4 L562.6,111.0 L564.5,111.7
		L566.3,112.4 L568.2,113.1 L570.1,113.8 L572.0,114.6 L573.9,115.4 L575.8,116.3 L577.7,117.2 L579.5,118.1
		L581.4,119.1 L583.3,120.1 L585.2,121.2 L587.1,122.3 L589.0,123.5 L590.9,124.7 L592.8,126.0 L594.6,127.3
		L596.5,128.7 L598.4,130.2 L600.3,131.7 L602.2,133.3 L604.1,134.9 L606.0,136.6 L607.9,138.3 L609.7,140.1
		L611.6,141.9 L613.5,143.7 L615.4,145.6 L617.3,147.5 L619.2,149.5 L621.1,151.4 L623.0,153.4 L624.8,155.4
		L626.7,157.4 L628.6,159.4 L630.5,161.4 L632.4,163.5 L634.3,165.6 L636.2,167.7 L638.1,169.9 L639.9,172.1
		L641.8,174.3 L643.7,176.6 L645.6,179.0 L647.5,181.4 L649.4,183.9 L651.3,186.4 L653.1,189.0 L655.0,191.7
		L656.9,194.4 L658.8,197.2 L660.7,200.0 L662.6,202.8 L664.5,205.8 L666.4,208.7 L668.2,211.7 L670.1,214.7
		L672.0,217.7 L673.9,220.7 L675.8,223.7 L677.7,226.7 L679.6,229.6 L681.5,232.6 L683.3,235.5 L685.2,238.4
		L687.1,241.3 L689.0,244.2 L690.9,247.0 L692.8,249.8 L694.7,252.6 L696.6,255.4 L698.4,258.2 L700.3,261.0
		L702.2,263.7 L704.1,266.5 L706.0,269.4 L707.9,272.2 L709.8,275.1 L711.7,278.0 L713.5,281.0 L715.4,284.0
		L717.3,287.1 L719.2,290.3 L721.1,293.5 L723.0,296.7 L724.9,300.1 L726.7,303.4 L728.6,306.9 L730.5,310.4
		L732.4,313.9 L734.3,317.5 L736.2,321.1 L738.1,324.8 L740.0,328.4 L741.8,332.1 L743.7,335.8 L745.6,339.4
		L747.5,343.1 L749.4,346.7 L751.3,350.3 L753.2,353.9 L755.1,357.4 L756.9,360.9 L758.8,364.3 L760.7,367.6
		L762.6,370.9 L764.5,374.2 L766.4,377.4 L768.3,380.5 L770.2,383.6 L772.0,386.6 L773.9,389.6 L775.8,392.5
		L777.7,395.4 L779.6,398.3 L781.5,401.1 L783.4,404.0 L785.3,406.8 L787.1,409.6 L789.0,412.4 L790.9,415.3
		L792.8,418.1 L794.7,420.9 L796.6,423.7 L798.5,426.5 L800.3,429.4 L802.2,432.2 L804.1,435.0 L806.0,437.8
		L807.9,440.6 L809.8,443.3 L811.7,446.1 L813.6,448.8 L815.4,451.5 L817.3,454.1 L819.2,456.7 L821.1,459.3
		L823.0,461.9 L824.9,464.5 L826.8,467.0 L828.7,469.5 L830.5,472.0 L832.4,474.5 L834.3,477.0 L836.2,479.5
		L838.1,481.9 L840.0,484.4 L841.9,486.9 L843.8,489.4 L845.6,492.0 L847.5,494.5 L849.4,497.0 L851.3,499.6
		L853.2,502.1 L855.1,504.7 L857.0,507.3 L858.9,509.8 L860.7,512.4 L862.6,514.9 L864.5,517.4 L866.4,519.9
		L868.3,522.3 L870.2,524.8 L872.1,527.2 L873.9,529.5 L875.8,531.9 L877.7,534.1 L879.6,536.4 L881.5,538.6
		L883.4,540.7 L885.3,542.8 L887.2,544.9 L889.0,546.9 L890.9,548.8 L892.8,550.7 L894.7,552.6 L896.6,554.4
		L898.5,556.2 L900.4,558.0 L902.3,559.8 L904.1,561.5 L906.0,563.2 L907.9,564.9 L909.8,566.6 L911.7,568.3
		L913.6,570.0 L915.5,571.6 L917.4,573.3 L919.2,574.9 L921.1,576.6 L923.0,578.3 L924.9,579.9 L926.8,581.5
		L928.7,583.1 L930.6,584.8 L932.5,586.3 L934.3,587.9 L936.2,589.5 L938.1,591.0 L940.0,592.5 L941.9,593.9
		L943.8,595.4 L945.7,596.8 L947.5,598.2 L949.4,599.6 L951.3,600.9 L953.2,602.2 L955.1,603.5 L957.0,604.8
		L958.9,606.0 L960.8,607.2 L962.6,608.4 L964.5,609.6 L966.4,610.8 L968.3,612.0 L970.2,613.1 L972.1,614.2
		L974.0,615.3 L975.9,616.4 L977.7,617.5 L979.6,618.5 L981.5,619.6 L983.4,620.6 L985.3,621.6 L987.2,622.5
		L989.1,623.5 L991.0,624.4 L992.8,625.3 L994.7,626.2 L996.6,627.0 L998.5,627.8 L1000.4,628.6 L1002.3,629.4
		L1004.2,630.1 L1006.1,630.8 L1007.9,631.5 L1009.8,632.2 L1011.7,632.8 L1013.6,633.4  '/></g>
	</g>
	<g id="gnuplot_plot_2" ><title>Confidence interval</title>
<g fill="none" color="white" stroke="rgb( 31, 120, 180)" stroke-width="1.00" stroke-linecap="butt" stroke-linejoin="miter">
</g>
<g fill="none" color="black" stroke="currentColor" stroke-width="1.00" stroke-linecap="butt" stroke-linejoin="miter">
	<g transform="translate(1089.0,85.0)" stroke="none" fill="black" font-family="Helvetica" font-size="12.00"  text-anchor="start">
		<text><tspan font-family="Helvetica" >Confidence interval</tspan></text>
	</g>
</g>
<g fill="none" color="black" stroke="currentColor" stroke-width="1.00" stroke-linecap="butt" stroke-linejoin="miter">
	<g stroke='none' shape-rendering='crispEdges'>
		<polygon fill = 'rgb( 31, 120, 180)' fill-opacity = '0.250000' points = '1038.5,85.6 1080.7,85.6 1080.7,76.6 1038.5,76.6 '/>
		<polygon fill = 'rgb( 31, 120, 180)' fill-opacity = '0.250000' points = '158.7,577.6 158.7,662.4 160.6,662.4 160.6,575.9 '/>
		<polygon fill = 'rgb( 31, 120, 180)' fill-opacity = '0.250000' points = '160.6,575.9 160.6,662.4 162.5,662.4 162.5,574.2 '/>
		<polygon fill = 'rgb( 31, 120, 180)' fill-opacity = '0.250000' points = '162.5,574.2 162.5,662.4 164.4,662.4 164.4,572.4 '/>
		<polygon fill = 'rgb( 31, 120, 180)' fill-opacity = '0.250000' points = '164.4,572.4 164.4,662.4 166.3,662.4 166.3,570.6 '/>
		<polygon fill = 'rgb( 31, 120, 180)' fill-opacity = '0.250000' points = '166.3,570.6 166.3,662.4 168.1,662.4 168.1,568.7 '/>
		<polygon fill = 'rgb( 31, 120, 180)' fill-opacity = '0.250000' points = '168.1,568.7 168.1,662.4 170.0,662.4 170.0,566.8 '/>
		<polygon fill = 'rgb( 31, 120, 180)' fill-opacity = '0.250000' points = '170.0,566.8 170.0,662.4 171.9,662.4 171.9,564.8 '/>
		<polygon fill = 'rgb( 31, 120, 180)' fill-opacity = '0.250000' points = '171.9,564.8 171.9,662.4 173.8,662.4 173.8,562.9 '/>
		<polygon fill = 'rgb( 31, 120, 180)' fill-opacity = '0.250000' points = '173.8,562.9 173.8,662.4 175.7,662.4 175.7,560.9 '/>
		<polygon fill = 'rgb( 31, 120, 180)' fill-opacity = '0.250000' points = '175.7,560.9 175.7,662.4 177.6,662.4 177.6,558.8 '/>
		<polygon fill = 'rgb( 31, 120, 180)' fill-opacity = '0.250000' points = '177.6,558.8 177.6,662.4 179.5,662.4 179.5,556.8 '/>
		<polygon fill = 'rgb( 31, 120, 180)' fill-opacity = '0.250000' points = '179.5,556.8 179.5,662.4 181.4,662.4 181.4,554.7 '/>
		<polygon fill = 'rgb( 31, 120, 180)' fill-opacity = '0.250000' points = '181.4,554.7 181.4,662.4 183.2,662.4 183.2,552.7 '/>
		<polygon fill = 'rgb( 31, 120, 180)' fill-opacity = '0.250000' points = '183.2,552.7 183.2,662.4 185.1,662.4 185.1,550.6 '/>
		<polygon fill = 'rgb( 31, 120, 180)' fill-opacity = '0.250000' points = '185.1,550.6 185.1,662.4 187.0,662.4 187.0,548.5 '/>
		<polygon fill = 'rgb( 31, 120, 180)' fill-opacity = '0.250000' points = '187.0,548.5 187.0,662.4 188.9,662.4 188.9,546.4 '/>
		<polygon fill = 'rgb( 31, 120, 180)' fill-opacity = '0.250000' points = '188.9,546.4 188.9,662.4 190.8,662.4 190.8,544.3 '/>
		<polygon fill = 'rgb( 31, 120, 180)' fill-opacity = '0.250000' points = '190.8,544.3 190.8,662.4 192.7,662.4 192.7,542.2 '/>
		<polygon fill = 'rgb( 31, 120, 180)' fill-opacity = '0.250000' points = '192.7,542.2 192.7,662.4 194.6,662.4 194.6,540.1 '/>
		<polygon fill = 'rgb( 31, 120, 180)' fill-opacity = '0.250000' points = '194.6,540.1 194.6,662.4 196.5,662.4 196.5,538.0 '/>
		<polygon fill = 'rgb( 31, 120, 180)' fill-opacity = '0.250000' points = '196.5,538.0 196.5,662.4 198.3,662.4 198.3,535.9 '/>
		<polygon fill = 'rgb( 31, 120, 180)' fill-opacity = '0.250000' points = '198.3,535.9 198.3,662.4 200.2,662.4 200.2,533.8 '/>
		<polygon fill = 'rgb( 31, 120, 180)' fill-opacity = '0.250000' points = '200.2,533.8 200.2,662.4 202.1,662.4 202.1,531.7 '/>
		<polygon fill = 'rgb( 31, 120, 180)' fill-opacity = '0.250000' points = '202.1,531.7 202.1,662.4 204.0,662.4 204.0,529.6 '/>
		<polygon fill = 'rgb( 31, 120, 180)' fill-opacity = '0.250000' points = '204.0,529.6 204.0,662.4 205.9,662.4 205.9,527.5 '/>
		<polygon fill = 'rgb( 31, 120, 180)' fill-opacity = '0.250000' points = '205.9,527.5 205.9,662.4 207.8,662.4 207.8,525.4 '/>
		<polygon fill = 'rgb( 31, 120, 180)' fill-opacity = '0.250000' points = '207.8,525.4 207.8,662.4 209.7,662.4 209.7,523.3 '/>
		<polygon fill = 'rgb( 31, 120, 180)' fill-opacity = '0.250000' points = '209.7,523.3 209.7,662.4 211.6,662.4 211.6,521.2 '/>
		<polygon fill = 'rgb( 31, 120, 180)' fill-opacity = '0.250000' points = '211.6,521.2 211.6,662.4 213.4,662.4 213.4,519.1 '/>
		<polygon fill = 'rgb( 31, 120, 180)' fill-opacity = '0.250000' points = '213.4,519.1 213.4,662.4 215.3,662.4 215.3,516.9 '/>
		<polygon fill = 'rgb( 31, 120, 180)' fill-opacity = '0.250000' points = '215.3,516.9 215.3,662.4 217.2,662.4 217.2,514.7 '/>
		<polygon fill = 'rgb( 31, 120, 180)' fill-opacity = '0.250000' points = '217.2,514.7 217.2,662.4 219.1,662.4 219.1,512.5 '/>
		<polygon fill = 'rgb( 31, 120, 180)' fill-opacity = '0.250000' points = '219.1,512.5 219.1,662.4 221.0,662.4 221.0,510.2 '/>
		<polygon fill = 'rgb( 31, 120, 180)' fill-opacity = '0.250000' points = '221.0,510.2 221.0,662.4 222.9,662.4 222.9,507.9 '/>
		<polygon fill = 'rgb( 31, 120, 180)' fill-opacity = '0.250000' points = '222.9,507.9 222.9,662.4 224.8,662.4 224.8,505.6 '/>
		<polygon fill = 'rgb( 31, 120, 180)' fill-opacity = '0.250000' points = '224.8,505.6 224.8,662.4 226.6,662.4 226.6,503.2 '/>
		<polygon fill = 'rgb( 31, 120, 180)' fill-opacity = '0.250000' points = '226.6,503.2 226.6,662.4 228.5,662.4 228.5,500.8 '/>
		<polygon fill = 'rgb( 31, 120, 180)' fill-opacity = '0.250000' points = '228.5,500.8 228.5,662.4 230.4,662.4 230.4,498.3 '/>
		<polygon fill = 'rgb( 31, 120, 180)' fill-opacity = '0.250000' points = '230.4,498.3 230.4,662.4 232.3,662.4 232.3,495.8 '/>
		<polygon fill = 'rgb( 31, 120, 180)' fill-opacity = '0.250000' points = '232.3,495.8 232.3,662.4 234.2,662.4 234.2,493.2 '/>
		<polygon fill = 'rgb( 31, 120, 180)' fill-opacity = '0.250000' points = '234.2,493.2 234.2,662.4 236.1,662.4 236.1,490.5 '/>
		<polygon fill = 'rgb( 31, 120, 180)' fill-opacity = '0.250000' points = '236.1,490.5 236.1,662.4 238.0,662.4 238.0,487.8 '/>
		<polygon fill = 'rgb( 31, 120, 180)' fill-opacity = '0.250000' points = '238.0,487.8 238.0,662.4 239.9,662.4 239.9,485.0 '/>
		<polygon fill = 'rgb( 31, 120, 180)' fill-opacity = '0.250000' points = '239.9,485.0 239.9,662.4 241.7,662.4 241.7,482.2 '/>
		<polygon fill = 'rgb( 31, 120, 180)' fill-opacity = '0.250000' points = '241.7,482.2 241.7,662.4 243.6,662.4 243.6,479.3 '/>
		<polygon fill = 'rgb( 31, 120, 180)' fill-opacity = '0.250000' points = '243.6,479.3 243.6,662.4 245.5,662.4 245.5,476.4 '/>
		<polygon fill = 'rgb( 31, 120, 180)' fill-opacity = '0.250000' points = '245.5,476.4 245.5,662.4 247.4,662.4 247.4,473.5 '/>
		<polygon fill = 'rgb( 31, 120, 180)' fill-opacity = '0.250000' points = '247.4,473.5 247.4,662.4 249.3,662.4 249.3,470.5 '/>
		<polygon fill = 'rgb( 31, 120, 180)' fill-opacity = '0.250000' points = '249.3,470.5 249.3,662.4 251.2,662.4 251.2,467.5 '/>
		<polygon fill = 'rgb( 31, 120, 180)' fill-opacity = '0.250000' points = '251.2,467.5 251.2,662.4 253.1,662.4 253.1,464.4 '/>
		<polygon fill = 'rgb( 31, 120, 180)' fill-opacity = '0.250000' points = '253.1,464.4 253.1,662.4 255.0,662.4 255.0,461.4 '/>
		<polygon fill = 'rgb( 31, 120, 180)' fill-opacity = '0.250000' points = '255.0,461.4 255.0,662.4 256.8,662.4 256.8,458.4 '/>
		<polygon fill = 'rgb( 31, 120, 180)' fill-opacity = '0.250000' points = '256.8,458.4 256.8,662.4 258.7,662.4 258.7,455.4 '/>
		<polygon fill = 'rgb( 31, 120, 180)' fill-opacity = '0.250000' points = '258.7,455.4 258.7,662.4 260.6,662.4 260.6,452.4 '/>
		<polygon fill = 'rgb( 31, 120, 180)' fill-opacity = '0.250000' points = '260.6,452.4 260.6,662.4 262.5,662.4 262.5,449.4 '/>
		<polygon fill = 'rgb( 31, 120, 180)' fill-opacity = '0.250000' points = '262.5,449.4 262.5,662.4 264.4,662.4 264.4,446.4 '/>
		<polygon fill = 'rgb( 31, 120, 180)' fill-opacity = '0.250000' points = '264.4,446.4 264.4,662.4 266.3,662.4 266.3,443.5 '/>
		<polygon fill = 'rgb( 31, 120, 180)' fill-opacity = '0.250000' points = '266.3,443.5 266.3,662.4 268.2,662.4 268.2,440.6 '/>
		<polygon fill = 'rgb( 31, 120, 180)' fill-opacity = '0.250000' points = '268.2,440.6 268.2,662.4 270.1,662.4 270.1,437.7 '/>
		<polygon fill = 'rgb( 31, 120, 180)' fill-opacity = '0.250000' points = '270.1,437.7 270.1,662.4 271.9,662.4 271.9,434.9 '/>
		<polygon fill = 'rgb( 31, 120, 180)' fill-opacity = '0.250000' points = '271.9,434.9 271.9,662.4 273.8,662.4 273.8,432.1 '/>
		<polygon fill = 'rgb( 31, 120, 180)' fill-opacity = '0.250000' points = '273.8,432.1 273.8,662.4 275.7,662.4 275.7,429.4 '/>
		<polygon fill = 'rgb( 31, 120, 180)' fill-opacity = '0.250000' points = '275.7,429.4 275.7,662.4 277.6,662.4 277.6,426.6 '/>
		<polygon fill = 'rgb( 31, 120, 180)' fill-opacity = '0.250000' points = '277.6,426.6 277.6,662.4 279.5,662.4 279.5,423.9 '/>
		<polygon fill = 'rgb( 31, 120, 180)' fill-opacity = '0.250000' points = '279.5,423.9 279.5,662.4 281.4,662.4 281.4,421.3 '/>
		<polygon fill = 'rgb( 31, 120, 180)' fill-opacity = '0.250000' points = '281.4,421.3 281.4,662.4 283.3,662.4 283.3,418.6 '/>
		<polygon fill = 'rgb( 31, 120, 180)' fill-opacity = '0.250000' points = '283.3,418.6 283.3,662.4 285.2,662.4 285.2,415.9 '/>
		<polygon fill = 'rgb( 31, 120, 180)' fill-opacity = '0.250000' points = '285.2,415.9 285.2,662.4 287.0,662.4 287.0,413.3 '/>
		<polygon fill = 'rgb( 31, 120, 180)' fill-opacity = '0.250000' points = '287.0,413.3 287.0,662.4 288.9,662.4 288.9,410.6 '/>
		<polygon fill = 'rgb( 31, 120, 180)' fill-opacity = '0.250000' points = '288.9,410.6 288.9,662.4 290.8,662.4 290.8,407.9 '/>
		<polygon fill = 'rgb( 31, 120, 180)' fill-opacity = '0.250000' points = '290.8,407.9 290.8,662.4 292.7,662.4 292.7,405.2 '/>
		<polygon fill = 'rgb( 31, 120, 180)' fill-opacity = '0.250000' points = '292.7,405.2 292.7,662.4 294.6,662.4 294.6,402.5 '/>
		<polygon fill = 'rgb( 31, 120, 180)' fill-opacity = '0.250000' points = '294.6,402.5 294.6,662.4 296.5,662.4 296.5,399.8 '/>
		<polygon fill = 'rgb( 31, 120, 180)' fill-opacity = '0.250000' points = '296.5,399.8 296.5,662.4 298.4,662.4 298.4,397.0 '/>
		<polygon fill = 'rgb( 31, 120, 180)' fill-opacity = '0.250000' points = '298.4,397.0 298.4,662.4 300.2,662.4 300.2,394.2 '/>
		<polygon fill = 'rgb( 31, 120, 180)' fill-opacity = '0.250000' points = '300.2,394.2 300.2,662.4 302.1,662.4 302.1,391.4 '/>
		<polygon fill = 'rgb( 31, 120, 180)' fill-opacity = '0.250000' points = '302.1,391.4 302.1,662.4 304.0,662.4 304.0,388.6 '/>
		<polygon fill = 'rgb( 31, 120, 180)' fill-opacity = '0.250000' points = '304.0,388.6 304.0,662.4 305.9,662.4 305.9,385.7 '/>
		<polygon fill = 'rgb( 31, 120, 180)' fill-opacity = '0.250000' points = '305.9,385.7 305.9,662.4 307.8,662.4 307.8,382.8 '/>
		<polygon fill = 'rgb( 31, 120, 180)' fill-opacity = '0.250000' points = '307.8,382.8 307.8,662.4 309.7,662.4 309.7,379.8 '/>
		<polygon fill = 'rgb( 31, 120, 180)' fill-opacity = '0.250000' points = '309.7,379.8 309.7,662.4 311.6,662.4 311.6,376.9 '/>
		<polygon fill = 'rgb( 31, 120, 180)' fill-opacity = '0.250000' points = '311.6,376.9 311.6,662.4 313.5,662.4 313.5,373.9 '/>
		<polygon fill = 'rgb( 31, 120, 180)' fill-opacity = '0.250000' points = '313.5,373.9 313.5,662.4 315.3,662.4 315.3,370.9 '/>
		<polygon fill = 'rgb( 31, 120, 180)' fill-opacity = '0.250000' points = '315.3,370.9 315.3,662.4 317.2,662.4 317.2,367.9 '/>
		<polygon fill = 'rgb( 31, 120, 180)' fill-opacity = '0.250000' points = '317.2,367.9 317.2,662.4 319.1,662.4 319.1,364.8 '/>
		<polygon fill = 'rgb( 31, 120, 180)' fill-opacity = '0.250000' points = '319.1,364.8 319.1,662.4 321.0,662.4 321.0,361.7 '/>
		<polygon fill = 'rgb( 31, 120, 180)' fill-opacity = '0.250000' points = '321.0,361.7 321.0,662.4 322.9,662.4 322.9,358.7 '/>
		<polygon fill = 'rgb( 31, 120, 180)' fill-opacity = '0.250000' points = '322.9,358.7 322.9,662.4 324.8,662.4 324.8,355.6 '/>
		<polygon fill = 'rgb( 31, 120, 180)' fill-opacity = '0.250000' points = '324.8,355.6 324.8,662.4 326.7,662.4 326.7,352.4 '/>
		<polygon fill = 'rgb( 31, 120, 180)' fill-opacity = '0.250000' points = '326.7,352.4 326.7,662.4 328.6,662.4 328.6,349.3 '/>
		<polygon fill = 'rgb( 31, 120, 180)' fill-opacity = '0.250000' points = '328.6,349.3 328.6,662.4 330.4,662.4 330.4,346.1 '/>
		<polygon fill = 'rgb( 31, 120, 180)' fill-opacity = '0.250000' points = '330.4,346.1 330.4,662.4 332.3,662.4 332.3,343.0 '/>
		<polygon fill = 'rgb( 31, 120, 180)' fill-opacity = '0.250000' points = '332.3,343.0 332.3,662.4 334.2,662.4 334.2,339.8 '/>
		<polygon fill = 'rgb( 31, 120, 180)' fill-opacity = '0.250000' points = '334.2,339.8 334.2,662.4 336.1,662.4 336.1,336.6 '/>
		<polygon fill = 'rgb( 31, 120, 180)' fill-opacity = '0.250000' points = '336.1,336.6 336.1,662.4 338.0,662.4 338.0,333.3 '/>
		<polygon fill = 'rgb( 31, 120, 180)' fill-opacity = '0.250000' points = '338.0,333.3 338.0,662.4 339.9,662.4 339.9,330.1 '/>
		<polygon fill = 'rgb( 31, 120, 180)' fill-opacity = '0.250000' points = '339.9,330.1 339.9,662.4 341.8,662.4 341.8,326.8 '/>
		<polygon fill = 'rgb( 31, 120, 180)' fill-opacity = '0.250000' points = '341.8,326.8 341.8,662.4 343.7,662.4 343.7,323.5 '/>
		<polygon fill = 'rgb( 31, 120, 180)' fill-opacity = '0.250000' points = '343.7,323.5 343.7,662.4 345.5,662.4 345.5,320.2 '/>
		<polygon fill = 'rgb( 31, 120, 180)' fill-opacity = '0.250000' points = '345.5,320.2 345.5,662.4 347.4,662.4 347.4,316.9 '/>
		<polygon fill = 'rgb( 31, 120, 180)' fill-opacity = '0.250000' points = '347.4,316.9 347.4,662.4 349.3,662.4 349.3,313.5 '/>
		<polygon fill = 'rgb( 31, 120, 180)' fill-opacity = '0.250000' points = '349.3,313.5 349.3,662.4 351.2,662.4 351.2,310.2 '/>
		<polygon fill = 'rgb( 31, 120, 180)' fill-opacity = '0.250000' points = '351.2,310.2 351.2,662.4 353.1,662.4 353.1,306.8 '/>
		<polygon fill = 'rgb( 31, 120, 180)' fill-opacity = '0.250000' points = '353.1,306.8 353.1,662.4 355.0,662.4 355.0,303.4 '/>
		<polygon fill = 'rgb( 31, 120, 180)' fill-opacity = '0.250000' points = '355.0,303.4 355.0,662.4 356.9,662.4 356.9,300.0 '/>
		<polygon fill = 'rgb( 31, 120, 180)' fill-opacity = '0.250000' points = '356.9,300.0 356.9,662.4 358.8,662.4 358.8,296.7 '/>
		<polygon fill = 'rgb( 31, 120, 180)' fill-opacity = '0.250000' points = '358.8,296.7 358.8,662.4 360.6,662.4 360.6,293.3 '/>
		<polygon fill = 'rgb( 31, 120, 180)' fill-opacity = '0.250000' points = '360.6,293.3 360.6,662.4 362.5,662.4 362.5,289.9 '/>
		<polygon fill = 'rgb( 31, 120, 180)' fill-opacity = '0.250000' points = '362.5,289.9 362.5,662.4 364.4,662.4 364.4,286.6 '/>
		<polygon fill = 'rgb( 31, 120, 180)' fill-opacity = '0.250000' points = '364.4,286.6 364.4,662.4 366.3,662.4 366.3,283.3 '/>
		<polygon fill = 'rgb( 31, 120, 180)' fill-opacity = '0.250000' points = '366.3,283.3 366.3,662.4 368.2,662.4 368.2,280.0 '/>
		<polygon fill = 'rgb( 31, 120, 180)' fill-opacity = '0.250000' points = '368.2,280.0 368.2,662.4 370.1,662.4 370.1,276.7 '/>
		<polygon fill = 'rgb( 31, 120, 180)' fill-opacity = '0.250000' points = '370.1,276.7 370.1,662.4 372.0,662.4 372.0,273.4 '/>
		<polygon fill = 'rgb( 31, 120, 180)' fill-opacity = '0.250000' points = '372.0,273.4 372.0,662.4 373.8,662.4 373.8,270.2 '/>
		<polygon fill = 'rgb( 31, 120, 180)' fill-opacity = '0.250000' points = '373.8,270.2 373.8,662.4 375.7,662.4 375.7,267.0 '/>
		<polygon fill = 'rgb( 31, 120, 180)' fill-opacity = '0.250000' points = '375.7,267.0 375.7,662.4 377.6,662.4 377.6,263.8 '/>
		<polygon fill = 'rgb( 31, 120, 180)' fill-opacity = '0.250000' points = '377.6,263.8 377.6,662.4 379.5,662.4 379.5,260.7 '/>
		<polygon fill = 'rgb( 31, 120, 180)' fill-opacity = '0.250000' points = '379.5,260.7 379.5,662.4 381.4,662.4 381.4,257.6 '/>
		<polygon fill = 'rgb( 31, 120, 180)' fill-opacity = '0.250000' points = '381.4,257.6 381.4,662.4 383.3,662.4 383.3,254.5 '/>
		<polygon fill = 'rgb( 31, 120, 180)' fill-opacity = '0.250000' points = '383.3,254.5 383.3,662.4 385.2,662.4 385.2,251.5 '/>
		<polygon fill = 'rgb( 31, 120, 180)' fill-opacity = '0.250000' points = '385.2,251.5 385.2,662.4 387.1,662.4 387.1,248.5 '/>
		<polygon fill = 'rgb( 31, 120, 180)' fill-opacity = '0.250000' points = '387.1,248.5 387.1,662.4 388.9,662.4 388.9,245.5 '/>
		<polygon fill = 'rgb( 31, 120, 180)' fill-opacity = '0.250000' points = '388.9,245.5 388.9,662.4 390.8,662.4 390.8,242.6 '/>
		<polygon fill = 'rgb( 31, 120, 180)' fill-opacity = '0.250000' points = '390.8,242.6 390.8,662.4 392.7,662.4 392.7,239.6 '/>
		<polygon fill = 'rgb( 31, 120, 180)' fill-opacity = '0.250000' points = '392.7,239.6 392.7,662.4 394.6,662.4 394.6,236.7 '/>
		<polygon fill = 'rgb( 31, 120, 180)' fill-opacity = '0.250000' points = '394.6,236.7 394.6,662.4 396.5,662.4 396.5,233.8 '/>
		<polygon fill = 'rgb( 31, 120, 180)' fill-opacity = '0.250000' points = '396.5,233.8 396.5,662.4 398.4,662.4 398.4,231.0 '/>
		<polygon fill = 'rgb( 31, 120, 180)' fill-opacity = '0.250000' points = '398.4,231.0 398.4,662.4 400.3,662.4 400.3,228.1 '/>
		<polygon fill = 'rgb( 31, 120, 180)' fill-opacity = '0.250000' points = '400.3,228.1 400.3,662.4 402.2,662.4 402.2,225.3 '/>
		<polygon fill = 'rgb( 31, 120, 180)' fill-opacity = '0.250000' points = '402.2,225.3 402.2,662.4 404.0,662.4 404.0,222.5 '/>
		<polygon fill = 'rgb( 31, 120, 180)' fill-opacity = '0.250000' points = '404.0,222.5 404.0,662.4 405.9,662.4 405.9,219.6 '/>
		<polygon fill = 'rgb( 31, 120, 180)' fill-opacity = '0.250000' points = '405.9,219.6 405.9,662.4 407.8,662.4 407.8,216.8 '/>
		<polygon fill = 'rgb( 31, 120, 180)' fill-opacity = '0.250000' points = '407.8,216.8 407.8,662.4 409.7,662.4 409.7,214.0 '/>
		<polygon fill = 'rgb( 31, 120, 180)' fill-opacity = '0.250000' points = '409.7,214.0 409.7,662.4 411.6,662.4 411.6,211.2 '/>
		<polygon fill = 'rgb( 31, 120, 180)' fill-opacity = '0.250000' points = '411.6,211.2 411.6,662.4 413.5,662.4 413.5,208.4 '/>
		<polygon fill = 'rgb( 31, 120, 180)' fill-opacity = '0.250000' points = '413.5,208.4 413.5,662.4 415.4,662.4 415.4,205.7 '/>
		<polygon fill = 'rgb( 31, 120, 180)' fill-opacity = '0.250000' points = '415.4,205.7 415.4,662.4 417.3,662.4 417.3,202.9 '/>
		<polygon fill = 'rgb( 31, 120, 180)' fill-opacity = '0.250000' points = '417.3,202.9 417.3,662.4 419.1,662.4 419.1,200.1 '/>
		<polygon fill = 'rgb( 31, 120, 180)' fill-opacity = '0.250000' points = '419.1,200.1 419.1,662.4 421.0,662.4 421.0,197.4 '/>
		<polygon fill = 'rgb( 31, 120, 180)' fill-opacity = '0.250000' points = '421.0,197.4 421.0,662.4 422.9,662.4 422.9,194.6 '/>
		<polygon fill = 'rgb( 31, 120, 180)' fill-opacity = '0.250000' points = '422.9,194.6 422.9,662.4 424.8,662.4 424.8,191.9 '/>
		<polygon fill = 'rgb( 31, 120, 180)' fill-opacity = '0.250000' points = '424.8,191.9 424.8,662.4 426.7,662.4 426.7,189.1 '/>
		<polygon fill = 'rgb( 31, 120, 180)' fill-opacity = '0.250000' points = '426.7,189.1 426.7,662.4 428.6,662.4 428.6,186.4 '/>
		<polygon fill = 'rgb( 31, 120, 180)' fill-opacity = '0.250000' points = '428.6,186.4 428.6,662.4 430.5,662.4 430.5,183.7 '/>
		<polygon fill = 'rgb( 31, 120, 180)' fill-opacity = '0.250000' points = '430.5,183.7 430.5,662.4 432.4,662.4 432.4,181.0 '/>
		<polygon fill = 'rgb( 31, 120, 180)' fill-opacity = '0.250000' points = '432.4,181.0 432.4,662.4 434.2,662.4 434.2,178.3 '/>
		<polygon fill = 'rgb( 31, 120, 180)' fill-opacity = '0.250000' points = '434.2,178.3 434.2,662.4 436.1,662.4 436.1,175.6 '/>
		<polygon fill = 'rgb( 31, 120, 180)' fill-opacity = '0.250000' points = '436.1,175.6 436.1,662.4 438.0,662.4 438.0,173.0 '/>
		<polygon fill = 'rgb( 31, 120, 180)' fill-opacity = '0.250000' points = '438.0,173.0 438.0,662.4 439.9,662.4 439.9,170.3 '/>
		<polygon fill = 'rgb( 31, 120, 180)' fill-opacity = '0.250000' points = '439.9,170.3 439.9,662.4 441.8,662.4 441.8,167.7 '/>
		<polygon fill = 'rgb( 31, 120, 180)' fill-opacity = '0.250000' points = '441.8,167.7 441.8,662.4 443.7,662.4 443.7,165.2 '/>
		<polygon fill = 'rgb( 31, 120, 180)' fill-opacity = '0.250000' points = '443.7,165.2 443.7,662.4 445.6,662.4 445.6,162.6 '/>
		<polygon fill = 'rgb( 31, 120, 180)' fill-opacity = '0.250000' points = '445.6,162.6 445.6,662.4 447.4,662.4 447.4,160.1 '/>
		<polygon fill = 'rgb( 31, 120, 180)' fill-opacity = '0.250000' points = '447.4,160.1 447.4,662.4 449.3,662.4 449.3,157.6 '/>
		<polygon fill = 'rgb( 31, 120, 180)' fill-opacity = '0.250000' points = '449.3,157.6 449.3,662.4 451.2,662.4 451.2,155.2 '/>
		<polygon fill = 'rgb( 31, 120, 180)' fill-opacity = '0.250000' points = '451.2,155.2 451.2,662.4 453.1,662.4 453.1,152.8 '/>
		<polygon fill = 'rgb( 31, 120, 180)' fill-opacity = '0.250000' points = '453.1,152.8 453.1,662.4 455.0,662.4 455.0,150.5 '/>
		<polygon fill = 'rgb( 31, 120, 180)' fill-opacity = '0.250000' points = '455.0,150.5 455.0,662.4 456.9,662.4 456.9,148.2 '/>
		<polygon fill = 'rgb( 31, 120, 180)' fill-opacity = '0.250000' points = '456.9,148.2 456.9,662.4 458.8,662.4 458.8,145.9 '/>
		<polygon fill = 'rgb( 31, 120, 180)' fill-opacity = '0.250000' points = '458.8,145.9 458.8,662.4 460.7,662.4 460.7,143.8 '/>
		<polygon fill = 'rgb( 31, 120, 180)' fill-opacity = '0.250000' points = '460.7,143.8 460.7,662.4 462.5,662.4 462.5,141.7 '/>
		<polygon fill = 'rgb( 31, 120, 180)' fill-opacity = '0.250000' points = '462.5,141.7 462.5,662.4 464.4,662.4 464.4,139.6 '/>
		<polygon fill = 'rgb( 31, 120, 180)' fill-opacity = '0.250000' points = '464.4,139.6 464.4,662.4 466.3,662.4 466.3,137.6 '/>
		<polygon fill = 'rgb( 31, 120, 180)' fill-opacity = '0.250000' points = '466.3,137.6 466.3,662.4 468.2,662.4 468.2,135.7 '/>
		<polygon fill = 'rgb( 31, 120, 180)' fill-opacity = '0.250000' points = '468.2,135.7 468.2,662.4 470.1,662.4 470.1,133.8 '/>
		<polygon fill = 'rgb( 31, 120, 180)' fill-opacity = '0.250000' points = '470.1,133.8 470.1,662.4 472.0,662.4 472.0,132.1 '/>
		<polygon fill = 'rgb( 31, 120, 180)' fill-opacity = '0.250000' points = '472.0,132.1 472.0,662.4 473.9,662.4 473.9,130.4 '/>
		<polygon fill = 'rgb( 31, 120, 180)' fill-opacity = '0.250000' points = '473.9,130.4 473.9,662.4 475.8,662.4 475.8,128.7 '/>
		<polygon fill = 'rgb( 31, 120, 180)' fill-opacity = '0.250000' points = '475.8,128.7 475.8,662.4 477.6,662.4 477.6,127.2 '/>
		<polygon fill = 'rgb( 31, 120, 180)' fill-opacity = '0.250000' points = '477.6,127.2 477.6,662.4 479.5,662.4 479.5,125.7 '/>
		<polygon fill = 'rgb( 31, 120, 180)' fill-opacity = '0.250000' points = '479.5,125.7 479.5,662.4 481.4,662.4 481.4,124.3 '/>
		<polygon fill = 'rgb( 31, 120, 180)' fill-opacity = '0.250000' points = '481.4,124.3 481.4,662.4 483.3,662.4 483.3,122.9 '/>
		<polygon fill = 'rgb( 31, 120, 180)' fill-opacity = '0.250000' points = '483.3,122.9 483.3,662.4 485.2,662.4 485.2,121.6 '/>
		<polygon fill = 'rgb( 31, 120, 180)' fill-opacity = '0.250000' points = '485.2,121.6 485.2,662.4 487.1,662.4 487.1,120.4 '/>
		<polygon fill = 'rgb( 31, 120, 180)' fill-opacity = '0.250000' points = '487.1,120.4 487.1,662.4 489.0,662.4 489.0,119.3 '/>
		<polygon fill = 'rgb( 31, 120, 180)' fill-opacity = '0.250000' points = '489.0,119.3 489.0,662.4 490.9,662.4 490.9,118.2 '/>
		<polygon fill = 'rgb( 31, 120, 180)' fill-opacity = '0.250000' points = '490.9,118.2 490.9,662.4 492.7,662.4 492.7,117.1 '/>
		<polygon fill = 'rgb( 31, 120, 180)' fill-opacity = '0.250000' points = '492.7,117.1 492.7,662.4 494.6,662.4 494.6,116.2 '/>
		<polygon fill = 'rgb( 31, 120, 180)' fill-opacity = '0.250000' points = '494.6,116.2 494.6,662.4 496.5,662.4 496.5,115.2 '/>
		<polygon fill = 'rgb( 31, 120, 180)' fill-opacity = '0.250000' points = '496.5,115.2 496.5,662.4 498.4,662.4 498.4,114.4 '/>
		<polygon fill = 'rgb( 31, 120, 180)' fill-opacity = '0.250000' points = '498.4,114.4 498.4,662.4 500.3,662.4 500.3,113.6 '/>
		<polygon fill = 'rgb( 31, 120, 180)' fill-opacity = '0.250000' points = '500.3,113.6 500.3,662.4 502.2,662.4 502.2,112.8 '/>
		<polygon fill = 'rgb( 31, 120, 180)' fill-opacity = '0.250000' points = '502.2,112.8 502.2,662.4 504.1,662.4 504.1,112.1 '/>
		<polygon fill = 'rgb( 31, 120, 180)' fill-opacity = '0.250000' points = '504.1,112.1 504.1,662.4 506.0,662.4 506.0,111.4 '/>
		<polygon fill = 'rgb( 31, 120, 180)' fill-opacity = '0.250000' points = '506.0,111.4 506.0,662.4 507.8,662.4 507.8,110.7 '/>
		<polygon fill = 'rgb( 31, 120, 180)' fill-opacity = '0.250000' points = '507.8,110.7 507.8,662.4 509.7,662.4 509.7,110.1 '/>
		<polygon fill = 'rgb( 31, 120, 180)' fill-opacity = '0.250000' points = '509.7,110.1 509.7,662.4 511.6,662.4 511.6,109.6 '/>
		<polygon fill = 'rgb( 31, 120, 180)' fill-opacity = '0.250000' points = '511.6,109.6 511.6,662.4 513.5,662.4 513.5,109.1 '/>
		<polygon fill = 'rgb( 31, 120, 180)' fill-opacity = '0.250000' points = '513.5,109.1 513.5,662.4 515.4,662.4 515.4,108.6 '/>
		<polygon fill = 'rgb( 31, 120, 180)' fill-opacity = '0.250000' points = '515.4,108.6 515.4,662.4 517.3,662.4 517.3,108.1 '/>
		<polygon fill = 'rgb( 31, 120, 180)' fill-opacity = '0.250000' points = '517.3,108.1 517.3,662.4 519.2,662.4 519.2,107.7 '/>
		<polygon fill = 'rgb( 31, 120, 180)' fill-opacity = '0.250000' points = '519.2,107.7 519.2,662.4 521.0,662.4 521.0,107.4 '/>
		<polygon fill = 'rgb( 31, 120, 180)' fill-opacity = '0.250000' points = '521.0,107.4 521.0,662.4 522.9,662.4 522.9,107.1 '/>
		<polygon fill = 'rgb( 31, 120, 180)' fill-opacity = '0.250000' points = '522.9,107.1 522.9,662.4 524.8,662.4 524.8,106.8 '/>
		<polygon fill = 'rgb( 31, 120, 180)' fill-opacity = '0.250000' points = '524.8,106.8 524.8,662.4 526.7,662.4 526.7,106.6 '/>
		<polygon fill = 'rgb( 31, 120, 180)' fill-opacity = '0.250000' points = '526.7,106.6 526.7,662.4 528.6,662.4 528.6,106.4 '/>
		<polygon fill = 'rgb( 31, 120, 180)' fill-opacity = '0.250000' points = '528.6,106.4 528.6,662.4 530.5,662.4 530.5,106.2 '/>
		<polygon fill = 'rgb( 31, 120, 180)' fill-opacity = '0.250000' points = '530.5,106.2 530.5,662.4 532.4,662.4 532.4,106.1 '/>
		<polygon fill = 'rgb( 31, 120, 180)' fill-opacity = '0.250000' points = '532.4,106.1 532.4,662.4 534.3,662.4 534.3,106.1 '/>
		<polygon fill = 'rgb( 31, 120, 180)' fill-opacity = '0.250000' points = '534.3,106.1 534.3,662.4 536.1,662.4 536.1,106.1 '/>
		<polygon fill = 'rgb( 31, 120, 180)' fill-opacity = '0.250000' points = '536.1,106.1 536.1,662.4 538.0,662.4 538.0,106.1 '/>
		<polygon fill = 'rgb( 31, 120, 180)' fill-opacity = '0.250000' points = '538.0,106.1 538.0,662.4 539.9,662.4 539.9,106.2 '/>
		<polygon fill = 'rgb( 31, 120, 180)' fill-opacity = '0.250000' points = '539.9,106.2 539.9,662.4 541.8,662.4 541.8,106.4 '/>
		<polygon fill = 'rgb( 31, 120, 180)' fill-opacity = '0.250000' points = '541.8,106.4 541.8,662.4 543.7,662.4 543.7,106.6 '/>
		<polygon fill = 'rgb( 31, 120, 180)' fill-opacity = '0.250000' points = '543.7,106.6 543.7,662.4 545.6,662.4 545.6,106.8 '/>
		<polygon fill = 'rgb( 31, 120, 180)' fill-opacity = '0.250000' points = '545.6,106.8 545.6,662.4 547.5,662.4 547.5,107.1 '/>
		<polygon fill = 'rgb( 31, 120, 180)' fill-opacity = '0.250000' points = '547.5,107.1 547.5,662.4 549.4,662.4 549.4,107.5 '/>
		<polygon fill = 'rgb( 31, 120, 180)' fill-opacity = '0.250000' points = '549.4,107.5 549.4,662.4 551.2,662.4 551.2,107.8 '/>
		<polygon fill = 'rgb( 31, 120, 180)' fill-opacity = '0.250000' points = '551.2,107.8 551.2,662.4 553.1,662.4 553.1,108.3 '/>
		<polygon fill = 'rgb( 31, 120, 180)' fill-opacity = '0.250000' points = '553.1,108.3 553.1,662.4 555.0,662.4 555.0,108.7 '/>
		<polygon fill = 'rgb( 31, 120, 180)' fill-opacity = '0.250000' points = '555.0,108.7 555.0,662.4 556.9,662.4 556.9,109.3 '/>
		<polygon fill = 'rgb( 31, 120, 180)' fill-opacity = '0.250000' points = '556.9,109.3 556.9,662.4 558.8,662.4 558.8,109.8 '/>
		<polygon fill = 'rgb( 31, 120, 180)' fill-opacity = '0.250000' points = '558.8,109.8 558.8,662.4 560.7,662.4 560.7,110.4 '/>
		<polygon fill = 'rgb( 31, 120, 180)' fill-opacity = '0.250000' points = '560.7,110.4 560.7,662.4 562.6,662.4 562.6,111.0 '/>
		<polygon fill = 'rgb( 31, 120, 180)' fill-opacity = '0.250000' points = '562.6,111.0 562.6,662.4 564.5,662.4 564.5,111.7 '/>
		<polygon fill = 'rgb( 31, 120, 180)' fill-opacity = '0.250000' points = '564.5,111.7 564.5,662.4 566.3,662.4 566.3,112.4 '/>
		<polygon fill = 'rgb( 31, 120, 180)' fill-opacity = '0.250000' points = '566.3,112.4 566.3,662.4 568.2,662.4 568.2,113.1 '/>
		<polygon fill = 'rgb( 31, 120, 180)' fill-opacity = '0.250000' points = '568.2,113.1 568.2,662.4 570.1,662.4 570.1,113.8 '/>
		<polygon fill = 'rgb( 31, 120, 180)' fill-opacity = '0.250000' points = '570.1,113.8 570.1,662.4 572.0,662.4 572.0,114.6 '/>
		<polygon fill = 'rgb( 31, 120, 180)' fill-opacity = '0.250000' points = '572.0,114.6 572.0,662.4 573.9,662.4 573.9,115.4 '/>
		<polygon fill = 'rgb( 31, 120, 180)' fill-opacity = '0.250000' points = '573.9,115.4 573.9,662.4 575.8,662.4 575.8,116.3 '/>
		<polygon fill = 'rgb( 31, 120, 180)' fill-opacity = '0.250000' points = '575.8,116.3 575.8,662.4 577.7,662.4 577.7,117.2 '/>
		<polygon fill = 'rgb( 31, 120, 180)' fill-opacity = '0.250000' points = '577.7,117.2 577.7,662.4 579.5,662.4 579.5,118.1 '/>
		<polygon fill = 'rgb( 31, 120, 180)' fill-opacity = '0.250000' points = '579.5,118.1 579.5,662.4 581.4,662.4 581.4,119.1 '/>
		<polygon fill = 'rgb( 31, 120, 180)' fill-opacity = '0.250000' points = '581.4,119.1 581.4,662.4 583.3,662.4 583.3,120.1 '/>
		<polygon fill = 'rgb( 31, 120, 180)' fill-opacity = '0.250000' points = '583.3,120.1 583.3,662.4 585.2,662.4 585.2,121.2 '/>
		<polygon fill = 'rgb( 31, 120, 180)' fill-opacity = '0.250000' points = '585.2,121.2 585.2,662.4 587.1,662.4 587.1,122.3 '/>
		<polygon fill = 'rgb( 31, 120, 180)' fill-opacity = '0.250000' points = '587.1,122.3 587.1,662.4 589.0,662.4 589.0,123.5 '/>
		<polygon fill = 'rgb( 31, 120, 180)' fill-opacity = '0.250000' points = '589.0,123.5 589.0,662.4 590.9,662.4 590.9,124.7 '/>
		<polygon fill = 'rgb( 31, 120, 180)' fill-opacity = '0.250000' points = '590.9,124.7 590.9,662.4 592.8,662.4 592.8,126.0 '/>
		<polygon fill = 'rgb( 31, 120, 180)' fill-opacity = '0.250000' points = '592.8,126.0 592.8,662.4 594.6,662.4 594.6,127.3 '/>
		<polygon fill = 'rgb( 31, 120, 180)' fill-opacity = '0.250000' points = '594.6,127.3 594.6,662.4 596.5,662.4 596.5,128.7 '/>
		<polygon fill = 'rgb( 31, 120, 180)' fill-opacity = '0.250000' points = '596.5,128.7 596.5,662.4 598.4,662.4 598.4,130.2 '/>
		<polygon fill = 'rgb( 31, 120, 180)' fill-opacity = '0.250000' points = '598.4,130.2 598.4,662.4 600.3,662.4 600.3,131.7 '/>
		<polygon fill = 'rgb( 31, 120, 180)' fill-opacity = '0.250000' points = '600.3,131.7 600.3,662.4 602.2,662.4 602.2,133.3 '/>
		<polygon fill = 'rgb( 31, 120, 180)' fill-opacity = '0.250000' points = '602.2,133.3 602.2,662.4 604.1,662.4 604.1,134.9 '/>
		<polygon fill = 'rgb( 31, 120, 180)' fill-opacity = '0.250000' points = '604.1,134.9 604.1,662.4 606.0,662.4 606.0,136.6 '/>
		<polygon fill = 'rgb( 31, 120, 180)' fill-opacity = '0.250000' points = '606.0,136.6 606.0,662.4 607.9,662.4 607.9,138.3 '/>
		<polygon fill = 'rgb( 31, 120, 180)' fill-opacity = '0.250000' points = '607.9,138.3 607.9,662.4 609.7,662.4 609.7,140.1 '/>
		<polygon fill = 'rgb( 31, 120, 180)' fill-opacity = '0.250000' points = '609.7,140.1 609.7,662.4 611.6,662.4 611.6,141.9 '/>
		<polygon fill = 'rgb( 31, 120, 180)' fill-opacity = '0.250000' points = '611.6,141.9 611.6,662.4 613.5,662.4 613.5,143.7 '/>
		<polygon fill = 'rgb( 31, 120, 180)' fill-opacity = '0.250000' points = '613.5,143.7 613.5,662.4 615.4,662.4 615.4,145.6 '/>
		<polygon fill = 'rgb( 31, 120, 180)' fill-opacity = '0.250000' points = '615.4,145.6 615.4,662.4 617.3,662.4 617.3,147.5 '/>
		<polygon fill = 'rgb( 31, 120, 180)' fill-opacity = '0.250000' points = '617.3,147.5 617.3,662.4 619.2,662.4 619.2,149.5 '/>
		<polygon fill = 'rgb( 31, 120, 180)' fill-opacity = '0.250000' points = '619.2,149.5 619.2,662.4 621.1,662.4 621.1,151.4 '/>
		<polygon fill = 'rgb( 31, 120, 180)' fill-opacity = '0.250000' points = '621.1,151.4 621.1,662.4 623.0,662.4 623.0,153.4 '/>
		<polygon fill = 'rgb( 31, 120, 180)' fill-opacity = '0.250000' points = '623.0,153.4 623.0,662.4 624.8,662.4 624.8,155.4 '/>
		<polygon fill = 'rgb( 31, 120, 180)' fill-opacity = '0.250000' points = '624.8,155.4 624.8,662.4 626.7,662.4 626.7,157.4 '/>
		<polygon fill = 'rgb( 31, 120, 180)' fill-opacity = '0.250000' points = '626.7,157.4 626.7,662.4 628.6,662.4 628.6,159.4 '/>
		<polygon fill = 'rgb( 31, 120, 180)' fill-opacity = '0.250000' points = '628.6,159.4 628.6,662.4 630.5,662.4 630.5,161.4 '/>
		<polygon fill = 'rgb( 31, 120, 180)' fill-opacity = '0.250000' points = '630.5,161.4 630.5,662.4 632.4,662.4 632.4,163.5 '/>
		<polygon fill = 'rgb( 31, 120, 180)' fill-opacity = '0.250000' points = '632.4,163.5 632.4,662.4 634.3,662.4 634.3,165.6 '/>
		<polygon fill = 'rgb( 31, 120, 180)' fill-opacity = '0.250000' points = '634.3,165.6 634.3,662.4 636.2,662.4 636.2,167.7 '/>
		<polygon fill = 'rgb( 31, 120, 180)' fill-opacity = '0.250000' points = '636.2,167.7 636.2,662.4 638.1,662.4 638.1,169.9 '/>
		<polygon fill = 'rgb( 31, 120, 180)' fill-opacity = '0.250000' points = '638.1,169.9 638.1,662.4 639.9,662.4 639.9,172.1 '/>
		<polygon fill = 'rgb( 31, 120, 180)' fill-opacity = '0.250000' points = '639.9,172.1 639.9,662.4 641.8,662.4 641.8,174.3 '/>
		<polygon fill = 'rgb( 31, 120, 180)' fill-opacity = '0.250000' points = '641.8,174.3 641.8,662.4 643.7,662.4 643.7,176.6 '/>
		<polygon fill = 'rgb( 31, 120, 180)' fill-opacity = '0.250000' points = '643.7,176.6 643.7,662.4 645.6,662.4 645.6,179.0 '/>
		<polygon fill = 'rgb( 31, 120, 180)' fill-opacity = '0.250000' points = '645.6,179.0 645.6,662.4 647.5,662.4 647.5,181.4 '/>
		<polygon fill = 'rgb( 31, 120, 180)' fill-opacity = '0.250000' points = '647.5,181.4 647.5,662.4 649.4,662.4 649.4,183.9 '/>
		<polygon fill = 'rgb( 31, 120, 180)' fill-opacity = '0.250000' points = '649.4,183.9 649.4,662.4 651.3,662.4 651.3,186.4 '/>
		<polygon fill = 'rgb( 31, 120, 180)' fill-opacity = '0.250000' points = '651.3,186.4 651.3,662.4 653.1,662.4 653.1,189.0 '/>
		<polygon fill = 'rgb( 31, 120, 180)' fill-opacity = '0.250000' points = '653.1,189.0 653.1,662.4 655.0,662.4 655.0,191.7 '/>
		<polygon fill = 'rgb( 31, 120, 180)' fill-opacity = '0.250000' points = '655.0,191.7 655.0,662.4 656.9,662.4 656.9,194.4 '/>
		<polygon fill = 'rgb( 31, 120, 180)' fill-opacity = '0.250000' points = '656.9,194.4 656.9,662.4 658.8,662.4 658.8,197.2 '/>
		<polygon fill = 'rgb( 31, 120, 180)' fill-opacity = '0.250000' points = '658.8,197.2 658.8,662.4 660.7,662.4 660.7,200.0 '/>
		<polygon fill = 'rgb( 31, 120, 180)' fill-opacity = '0.250000' points = '660.7,200.0 660.7,662.4 662.6,662.4 662.6,202.8 '/>
		<polygon fill = 'rgb( 31, 120, 180)' fill-opacity = '0.250000' points = '662.6,202.8 662.6,662.4 664.5,662.4 664.5,205.8 '/>
		<polygon fill = 'rgb( 31, 120, 180)' fill-opacity = '0.250000' points = '664.5,205.8 664.5,662.4 666.4,662.4 666.4,208.7 '/>
		<polygon fill = 'rgb( 31, 120, 180)' fill-opacity = '0.250000' points = '666.4,208.7 666.4,662.4 668.2,662.4 668.2,211.7 '/>
		<polygon fill = 'rgb( 31, 120, 180)' fill-opacity = '0.250000' points = '668.2,211.7 668.2,662.4 670.1,662.4 670.1,214.7 '/>
		<polygon fill = 'rgb( 31, 120, 180)' fill-opacity = '0.250000' points = '670.1,214.7 670.1,662.4 672.0,662.4 672.0,217.7 '/>
		<polygon fill = 'rgb( 31, 120, 180)' fill-opacity = '0.250000' points = '672.0,217.7 672.0,662.4 673.9,662.4 673.9,220.7 '/>
		<polygon fill = 'rgb( 31, 120, 180)' fill-opacity = '0.250000' points = '673.9,220.7 673.9,662.4 675.8,662.4 675.8,223.7 '/>
		<polygon fill = 'rgb( 31, 120, 180)' fill-opacity = '0.250000' points = '675.8,223.7 675.8,662.4 677.7,662.4 677.7,226.7 '/>
		<polygon fill = 'rgb( 31, 120, 180)' fill-opacity = '0.250000' points = '677.7,226.7 677.7,662.4 679.6,662.4 679.6,229.6 '/>
		<polygon fill = 'rgb( 31, 120, 180)' fill-opacity = '0.250000' points = '679.6,229.6 679.6,662.4 681.5,662.4 681.5,232.6 '/>
		<polygon fill = 'rgb( 31, 120, 180)' fill-opacity = '0.250000' points = '681.5,232.6 681.5,662.4 683.3,662.4 683.3,235.5 '/>
		<polygon fill = 'rgb( 31, 120, 180)' fill-opacity = '0.250000' points = '683.3,235.5 683.3,662.4 685.2,662.4 685.2,238.4 '/>
		<polygon fill = 'rgb( 31, 120, 180)' fill-opacity = '0.250000' points = '685.2,238.4 685.2,662.4 687.1,662.4 687.1,241.3 '/>
		<polygon fill = 'rgb( 31, 120, 180)' fill-opacity = '0.250000' points = '687.1,241.3 687.1,662.4 689.0,662.4 689.0,244.2 '/>
		<polygon fill = 'rgb( 31, 120, 180)' fill-opacity = '0.250000' points = '689.0,244.2 689.0,662.4 690.9,662.4 690.9,247.0 '/>
		<polygon fill = 'rgb( 31, 120, 180)' fill-opacity = '0.250000' points = '690.9,247.0 690.9,662.4 692.8,662.4 692.8,249.8 '/>
		<polygon fill = 'rgb( 31, 120, 180)' fill-opacity = '0.250000' points = '692.8,249.8 692.8,662.4 694.7,662.4 694.7,252.6 '/>
		<polygon fill = 'rgb( 31, 120, 180)' fill-opacity = '0.250000' points = '694.7,252.6 694.7,662.4 696.6,662.4 696.6,255.4 '/>
		<polygon fill = 'rgb( 31, 120, 180)' fill-opacity = '0.250000' points = '696.6,255.4 696.6,662.4 698.4,662.4 698.4,258.2 '/>
		<polygon fill = 'rgb( 31, 120, 180)' fill-opacity = '0.250000' points = '698.4,258.2 698.4,662.4 700.3,662.4 700.3,261.0 '/>
		<polygon fill = 'rgb( 31, 120, 180)' fill-opacity = '0.250000' points = '700.3,261.0 700.3,662.4 702.2,662.4 702.2,263.7 '/>
		<polygon fill = 'rgb( 31, 120, 180)' fill-opacity = '0.250000' points = '702.2,263.7 702.2,662.4 704.1,662.4 704.1,266.5 '/>
		<polygon fill = 'rgb( 31, 120, 180)' fill-opacity = '0.250000' points = '704.1,266.5 704.1,662.4 706.0,662.4 706.0,269.4 '/>
		<polygon fill = 'rgb( 31, 120, 180)' fill-opacity = '0.250000' points = '706.0,269.4 706.0,662.4 707.9,662.4 707.9,272.2 '/>
		<polygon fill = 'rgb( 31, 120, 180)' fill-opacity = '0.250000' points = '707.9,272.2 707.9,662.4 709.8,662.4 709.8,275.1 '/>
		<polygon fill = 'rgb( 31, 120, 180)' fill-opacity = '0.250000' points = '709.8,275.1 709.8,662.4 711.7,662.4 711.7,278.0 '/>
		<polygon fill = 'rgb( 31, 120, 180)' fill-opacity = '0.250000' points = '711.7,278.0 711.7,662.4 713.5,662.4 713.5,281.0 '/>
		<polygon fill = 'rgb( 31, 120, 180)' fill-opacity = '0.250000' points = '713.5,281.0 713.5,662.4 715.4,662.4 715.4,284.0 '/>
		<polygon fill = 'rgb( 31, 120, 180)' fill-opacity = '0.250000' points = '715.4,284.0 715.4,662.4 717.3,662.4 717.3,287.1 '/>
		<polygon fill = 'rgb( 31, 120, 180)' fill-opacity = '0.250000' points = '717.3,287.1 717.3,662.4 719.2,662.4 719.2,290.3 '/>
		<polygon fill = 'rgb( 31, 120, 180)' fill-opacity = '0.250000' points = '719.2,290.3 719.2,662.4 721.1,662.4 721.1,293.5 '/>
		<polygon fill = 'rgb( 31, 120, 180)' fill-opacity = '0.250000' points = '721.1,293.5 721.1,662.4 723.0,662.4 723.0,296.7 '/>
		<polygon fill = 'rgb( 31, 120, 180)' fill-opacity = '0.250000' points = '723.0,296.7 723.0,662.4 724.9,662.4 724.9,300.1 '/>
		<polygon fill = 'rgb( 31, 120, 180)' fill-opacity = '0.250000' points = '724.9,300.1 724.9,662.4 726.7,662.4 726.7,303.4 '/>
		<polygon fill = 'rgb( 31, 120, 180)' fill-opacity = '0.250000' points = '726.7,303.4 726.7,662.4 728.6,662.4 728.6,306.9 '/>
		<polygon fill = 'rgb( 31, 120, 180)' fill-opacity = '0.250000' points = '728.6,306.9 728.6,662.4 730.5,662.4 730.5,310.4 '/>
		<polygon fill = 'rgb( 31, 120, 180)' fill-opacity = '0.250000' points = '730.5,310.4 730.5,662.4 732.4,662.4 732.4,313.9 '/>
		<polygon fill = 'rgb( 31, 120, 180)' fill-opacity = '0.250000' points = '732.4,313.9 732.4,662.4 734.3,662.4 734.3,317.5 '/>
		<polygon fill = 'rgb( 31, 120, 180)' fill-opacity = '0.250000' points = '734.3,317.5 734.3,662.4 736.2,662.4 736.2,321.1 '/>
		<polygon fill = 'rgb( 31, 120, 180)' fill-opacity = '0.250000' points = '736.2,321.1 736.2,662.4 738.1,662.4 738.1,324.8 '/>
		<polygon fill = 'rgb( 31, 120, 180)' fill-opacity = '0.250000' points = '738.1,324.8 738.1,662.4 740.0,662.4 740.0,328.4 '/>
		<polygon fill = 'rgb( 31, 120, 180)' fill-opacity = '0.250000' points = '740.0,328.4 740.0,662.4 741.8,662.4 741.8,332.1 '/>
		<polygon fill = 'rgb( 31, 120, 180)' fill-opacity = '0.250000' points = '741.8,332.1 741.8,662.4 743.7,662.4 743.7,335.8 '/>
		<polygon fill = 'rgb( 31, 120, 180)' fill-opacity = '0.250000' points = '743.7,335.8 743.7,662.4 745.6,662.4 745.6,339.4 '/>
		<polygon fill = 'rgb( 31, 120, 180)' fill-opacity = '0.250000' points = '745.6,339.4 745.6,662.4 747.5,662.4 747.5,343.1 '/>
		<polygon fill = 'rgb( 31, 120, 180)' fill-opacity = '0.250000' points = '747.5,343.1 747.5,662.4 749.4,662.4 749.4,346.7 '/>
		<polygon fill = 'rgb( 31, 120, 180)' fill-opacity = '0.250000' points = '749.4,346.7 749.4,662.4 751.3,662.4 751.3,350.3 '/>
		<polygon fill = 'rgb( 31, 120, 180)' fill-opacity = '0.250000' points = '751.3,350.3 751.3,662.4 753.2,662.4 753.2,353.9 '/>
		<polygon fill = 'rgb( 31, 120, 180)' fill-opacity = '0.250000' points = '753.2,353.9 753.2,662.4 755.1,662.4 755.1,357.4 '/>
		<polygon fill = 'rgb( 31, 120, 180)' fill-opacity = '0.250000' points = '755.1,357.4 755.1,662.4 756.9,662.4 756.9,360.9 '/>
		<polygon fill = 'rgb( 31, 120, 180)' fill-opacity = '0.250000' points = '756.9,360.9 756.9,662.4 758.8,662.4 758.8,364.3 '/>
		<polygon fill = 'rgb( 31, 120, 180)' fill-opacity = '0.250000' points = '758.8,364.3 758.8,662.4 760.7,662.4 760.7,367.6 '/>
		<polygon fill = 'rgb( 31, 120, 180)' fill-opacity = '0.250000' points = '760.7,367.6 760.7,662.4 762.6,662.4 762.6,370.9 '/>
		<polygon fill = 'rgb( 31, 120, 180)' fill-opacity = '0.250000' points = '762.6,370.9 762.6,662.4 764.5,662.4 764.5,374.2 '/>
		<polygon fill = 'rgb( 31, 120, 180)' fill-opacity = '0.250000' points = '764.5,374.2 764.5,662.4 766.4,662.4 766.4,377.4 '/>
		<polygon fill = 'rgb( 31, 120, 180)' fill-opacity = '0.250000' points = '766.4,377.4 766.4,662.4 768.3,662.4 768.3,380.5 '/>
		<polygon fill = 'rgb( 31, 120, 180)' fill-opacity = '0.250000' points = '768.3,380.5 768.3,662.4 770.2,662.4 770.2,383.6 '/>
		<polygon fill = 'rgb( 31, 120, 180)' fill-opacity = '0.250000' points = '770.2,383.6 770.2,662.4 772.0,662.4 772.0,386.6 '/>
		<polygon fill = 'rgb( 31, 120, 180)' fill-opacity = '0.250000' points = '772.0,386.6 772.0,662.4 773.9,662.4 773.9,389.6 '/>
		<polygon fill = 'rgb( 31, 120, 180)' fill-opacity = '0.250000' points = '773.9,389.6 773.9,662.4 775.8,662.4 775.8,392.5 '/>
		<polygon fill = 'rgb( 31, 120, 180)' fill-opacity = '0.250000' points = '775.8,392.5 775.8,662.4 777.7,662.4 777.7,395.4 '/>
		<polygon fill = 'rgb( 31, 120, 180)' fill-opacity = '0.250000' points = '777.7,395.4 777.7,662.4 779.6,662.4 779.6,398.3 '/>
		<polygon fill = 'rgb( 31, 120, 180)' fill-opacity = '0.250000' points = '779.6,398.3 779.6,662.4 781.5,662.4 781.5,401.1 '/>
		<polygon fill = 'rgb( 31, 120, 180)' fill-opacity = '0.250000' points = '781.5,401.1 781.5,662.4 783.4,662.4 783.4,404.0 '/>
		<polygon fill = 'rgb( 31, 120, 180)' fill-opacity = '0.250000' points = '783.4,404.0 783.4,662.4 785.3,662.4 785.3,406.8 '/>
		<polygon fill = 'rgb( 31, 120, 180)' fill-opacity = '0.250000' points = '785.3,406.8 785.3,662.4 787.1,662.4 787.1,409.6 '/>
		<polygon fill = 'rgb( 31, 120, 180)' fill-opacity = '0.250000' points = '787.1,409.6 787.1,662.4 789.0,662.4 789.0,412.4 '/>
		<polygon fill = 'rgb( 31, 120, 180)' fill-opacity = '0.250000' points = '789.0,412.4 789.0,662.4 790.9,662.4 790.9,415.3 '/>
		<polygon fill = 'rgb( 31, 120, 180)' fill-opacity = '0.250000' points = '790.9,415.3 790.9,662.4 792.8,662.4 792.8,418.1 '/>
		<polygon fill = 'rgb( 31, 120, 180)' fill-opacity = '0.250000' points = '792.8,418.1 792.8,662.4 794.7,662.4 794.7,420.9 '/>
		<polygon fill = 'rgb( 31, 120, 180)' fill-opacity = '0.250000' points = '794.7,420.9 794.7,662.4 796.6,662.4 796.6,423.7 '/>
		<polygon fill = 'rgb( 31, 120, 180)' fill-opacity = '0.250000' points = '796.6,423.7 796.6,662.4 798.5,662.4 798.5,426.5 '/>
		<polygon fill = 'rgb( 31, 120, 180)' fill-opacity = '0.250000' points = '798.5,426.5 798.5,662.4 800.3,662.4 800.3,429.4 '/>
		<polygon fill = 'rgb( 31, 120, 180)' fill-opacity = '0.250000' points = '800.3,429.4 800.3,662.4 802.2,662.4 802.2,432.2 '/>
		<polygon fill = 'rgb( 31, 120, 180)' fill-opacity = '0.250000' points = '802.2,432.2 802.2,662.4 804.1,662.4 804.1,435.0 '/>
		<polygon fill = 'rgb( 31, 120, 180)' fill-opacity = '0.250000' points = '804.1,435.0 804.1,662.4 806.0,662.4 806.0,437.8 '/>
		<polygon fill = 'rgb( 31, 120, 180)' fill-opacity = '0.250000' points = '806.0,437.8 806.0,662.4 807.9,662.4 807.9,440.6 '/>
		<polygon fill = 'rgb( 31, 120, 180)' fill-opacity = '0.250000' points = '807.9,440.6 807.9,662.4 809.8,662.4 809.8,443.3 '/>
		<polygon fill = 'rgb( 31, 120, 180)' fill-opacity = '0.250000' points = '809.8,443.3 809.8,662.4 811.7,662.4 811.7,446.1 '/>
		<polygon fill = 'rgb( 31, 120, 180)' fill-opacity = '0.250000' points = '811.7,446.1 811.7,662.4 813.6,662.4 813.6,448.8 '/>
		<polygon fill = 'rgb( 31, 120, 180)' fill-opacity = '0.250000' points = '813.6,448.8 813.6,662.4 815.4,662.4 815.4,451.5 '/>
		<polygon fill = 'rgb( 31, 120, 180)' fill-opacity = '0.250000' points = '815.4,451.5 815.4,662.4 817.3,662.4 817.3,454.1 '/>
		<polygon fill = 'rgb( 31, 120, 180)' fill-opacity = '0.250000' points = '817.3,454.1 817.3,662.4 819.2,662.4 819.2,456.7 '/>
		<polygon fill = 'rgb( 31, 120, 180)' fill-opacity = '0.250000' points = '819.2,456.7 819.2,662.4 821.1,662.4 821.1,459.3 '/>
		<polygon fill = 'rgb( 31, 120, 180)' fill-opacity = '0.250000' points = '821.1,459.3 821.1,662.4 823.0,662.4 823.0,461.9 '/>
		<polygon fill = 'rgb( 31, 120, 180)' fill-opacity = '0.250000' points = '823.0,461.9 823.0,662.4 824.9,662.4 824.9,464.5 '/>
		<polygon fill = 'rgb( 31, 120, 180)' fill-opacity = '0.250000' points = '824.9,464.5 824.9,662.4 826.8,662.4 826.8,467.0 '/>
		<polygon fill = 'rgb( 31, 120, 180)' fill-opacity = '0.250000' points = '826.8,467.0 826.8,662.4 828.7,662.4 828.7,469.5 '/>
		<polygon fill = 'rgb( 31, 120, 180)' fill-opacity = '0.250000' points = '828.7,469.5 828.7,662.4 830.5,662.4 830.5,472.0 '/>
		<polygon fill = 'rgb( 31, 120, 180)' fill-opacity = '0.250000' points = '830.5,472.0 830.5,662.4 832.4,662.4 832.4,474.5 '/>
		<polygon fill = 'rgb( 31, 120, 180)' fill-opacity = '0.250000' points = '832.4,474.5 832.4,662.4 834.3,662.4 834.3,477.0 '/>
		<polygon fill = 'rgb( 31, 120, 180)' fill-opacity = '0.250000' points = '834.3,477.0 834.3,662.4 836.2,662.4 836.2,479.5 '/>
		<polygon fill = 'rgb( 31, 120, 180)' fill-opacity = '0.250000' points = '836.2,479.5 836.2,662.4 838.1,662.4 838.1,481.9 '/>
		<polygon fill = 'rgb( 31, 120, 180)' fill-opacity = '0.250000' points = '838.1,481.9 838.1,662.4 840.0,662.4 840.0,484.4 '/>
		<polygon fill = 'rgb( 31, 120, 180)' fill-opacity = '0.250000' points = '840.0,484.4 840.0,662.4 841.9,662.4 841.9,486.9 '/>
		<polygon fill = 'rgb( 31, 120, 180)' fill-opacity = '0.250000' points = '841.9,486.9 841.9,662.4 843.8,662.4 843.8,489.4 '/>
		<polygon fill = 'rgb( 31, 120, 180)' fill-opacity = '0.250000' points = '843.8,489.4 843.8,662.4 845.6,662.4 845.6,492.0 '/>
		<polygon fill = 'rgb( 31, 120, 180)' fill-opacity = '0.250000' points = '845.6,492.0 845.6,662.4 847.5,662.4 847.5,494.5 '/>
		<polygon fill = 'rgb( 31, 120, 180)' fill-opacity = '0.250000' points = '847.5,494.5 847.5,662.4 849.4,662.4 849.4,497.0 '/>
		<polygon fill = 'rgb( 31, 120, 180)' fill-opacity = '0.250000' points = '849.4,497.0 849.4,662.4 851.3,662.4 851.3,499.6 '/>
		<polygon fill = 'rgb( 31, 120, 180)' fill-opacity = '0.250000' points = '851.3,499.6 851.3,662.4 853.2,662.4 853.2,502.1 '/>
		<polygon fill = 'rgb( 31, 120, 180)' fill-opacity = '0.250000' points = '853.2,502.1 853.2,662.4 855.1,662.4 855.1,504.7 '/>
		<polygon fill = 'rgb( 31, 120, 180)' fill-opacity = '0.250000' points = '855.1,504.7 855.1,662.4 857.0,662.4 857.0,507.3 '/>
		<polygon fill = 'rgb( 31, 120, 180)' fill-opacity = '0.250000' points = '857.0,507.3 857.0,662.4 858.9,662.4 858.9,509.8 '/>
		<polygon fill = 'rgb( 31, 120, 180)' fill-opacity = '0.250000' points = '858.9,509.8 858.9,662.4 860.7,662.4 860.7,512.4 '/>
		<polygon fill = 'rgb( 31, 120, 180)' fill-opacity = '0.250000' points = '860.7,512.4 860.7,662.4 862.6,662.4 862.6,514.9 '/>
		<polygon fill = 'rgb( 31, 120, 180)' fill-opacity = '0.250000' points = '862.6,514.9 862.6,662.4 864.5,662.4 864.5,517.4 '/>
		<polygon fill = 'rgb( 31, 120, 180)' fill-opacity = '0.250000' points = '864.5,517.4 864.5,662.4 866.4,662.4 866.4,519.9 '/>
		<polygon fill = 'rgb( 31, 120, 180)' fill-opacity = '0.250000' points = '866.4,519.9 866.4,662.4 868.3,662.4 868.3,522.3 '/>
		<polygon fill = 'rgb( 31, 120, 180)' fill-opacity = '0.250000' points = '868.3,522.3 868.3,662.4 870.2,662.4 870.2,524.8 '/>
		<polygon fill = 'rgb( 31, 120, 180)' fill-opacity = '0.250000' points = '870.2,524.8 870.2,662.4 872.1,662.4 872.1,527.2 '/>
		<polygon fill = 'rgb( 31, 120, 180)' fill-opacity = '0.250000' points = '872.1,527.2 872.1,662.4 873.9,662.4 873.9,529.5 '/>
		<polygon fill = 'rgb( 31, 120, 180)' fill-opacity = '0.250000' points = '873.9,529.5 873.9,662.4 875.8,662.4 875.8,531.9 '/>
		<polygon fill = 'rgb( 31, 120, 180)' fill-opacity = '0.250000' points = '875.8,531.9 875.8,662.4 877.7,662.4 877.7,534.1 '/>
		<polygon fill = 'rgb( 31, 120, 180)' fill-opacity = '0.250000' points = '877.7,534.1 877.7,662.4 879.6,662.4 879.6,536.4 '/>
		<polygon fill = 'rgb( 31, 120, 180)' fill-opacity = '0.250000' points = '879.6,536.4 879.6,662.4 881.5,662.4 881.5,538.6 '/>
		<polygon fill = 'rgb( 31, 120, 180)' fill-opacity = '0.250000' points = '881.5,538.6 881.5,662.4 883.4,662.4 883.4,540.7 '/>
		<polygon fill = 'rgb( 31, 120, 180)' fill-opacity = '0.250000' points = '883.4,540.7 883.4,662.4 885.3,662.4 885.3,542.8 '/>
		<polygon fill = 'rgb( 31, 120, 180)' fill-opacity = '0.250000' points = '885.3,542.8 885.3,662.4 887.2,662.4 887.2,544.9 '/>
		<polygon fill = 'rgb( 31, 120, 180)' fill-opacity = '0.250000' points = '887.2,544.9 887.2,662.4 889.0,662.4 889.0,546.9 '/>
		<polygon fill = 'rgb( 31, 120, 180)' fill-opacity = '0.250000' points = '889.0,546.9 889.0,662.4 890.9,662.4 890.9,548.8 '/>
		<polygon fill = 'rgb( 31, 120, 180)' fill-opacity = '0.250000' points = '890.9,548.8 890.9,662.4 892.8,662.4 892.8,550.7 '/>
		<polygon fill = 'rgb( 31, 120, 180)' fill-opacity = '0.250000' points = '892.8,550.7 892.8,662.4 894.7,662.4 894.7,552.6 '/>
		<polygon fill = 'rgb( 31, 120, 180)' fill-opacity = '0.250000' points = '894.7,552.6 894.7,662.4 896.6,662.4 896.6,554.4 '/>
		<polygon fill = 'rgb( 31, 120, 180)' fill-opacity = '0.250000' points = '896.6,554.4 896.6,662.4 898.5,662.4 898.5,556.2 '/>
		<polygon fill = 'rgb( 31, 120, 180)' fill-opacity = '0.250000' points = '898.5,556.2 898.5,662.4 900.4,662.4 900.4,558.0 '/>
		<polygon fill = 'rgb( 31, 120, 180)' fill-opacity = '0.250000' points = '900.4,558.0 900.4,662.4 902.3,662.4 902.3,559.8 '/>
		<polygon fill = 'rgb( 31, 120, 180)' fill-opacity = '0.250000' points = '902.3,559.8 902.3,662.4 904.1,662.4 904.1,561.5 '/>
		<polygon fill = 'rgb( 31, 120, 180)' fill-opacity = '0.250000' points = '904.1,561.5 904.1,662.4 906.0,662.4 906.0,563.2 '/>
		<polygon fill = 'rgb( 31, 120, 180)' fill-opacity = '0.250000' points = '906.0,563.2 906.0,662.4 907.9,662.4 907.9,564.9 '/>
		<polygon fill = 'rgb( 31, 120, 180)' fill-opacity = '0.250000' points = '907.9,564.9 907.9,662.4 909.8,662.4 909.8,566.6 '/>
		<polygon fill = 'rgb( 31, 120, 180)' fill-opacity = '0.250000' points = '909.8,566.6 909.8,662.4 911.7,662.4 911.7,568.3 '/>
		<polygon fill = 'rgb( 31, 120, 180)' fill-opacity = '0.250000' points = '911.7,568.3 911.7,662.4 913.6,662.4 913.6,570.0 '/>
		<polygon fill = 'rgb( 31, 120, 180)' fill-opacity = '0.250000' points = '913.6,570.0 913.6,662.4 915.5,662.4 915.5,571.6 '/>
		<polygon fill = 'rgb( 31, 120, 180)' fill-opacity = '0.250000' points = '915.5,571.6 915.5,662.4 917.4,662.4 917.4,573.3 '/>
		<polygon fill = 'rgb( 31, 120, 180)' fill-opacity = '0.250000' points = '917.4,573.3 917.4,662.4 919.2,662.4 919.2,574.9 '/>
		<polygon fill = 'rgb( 31, 120, 180)' fill-opacity = '0.250000' points = '919.2,574.9 919.2,662.4 921.1,662.4 921.1,576.6 '/>
		<polygon fill = 'rgb( 31, 120, 180)' fill-opacity = '0.250000' points = '921.1,576.6 921.1,662.4 923.0,662.4 923.0,578.3 '/>
		<polygon fill = 'rgb( 31, 120, 180)' fill-opacity = '0.250000' points = '923.0,578.3 923.0,662.4 924.9,662.4 924.9,579.9 '/>
	</g>
</g>
	</g>
	<g id="gnuplot_plot_3" ><title>Point estimate</title>
<g fill="none" color="white" stroke="rgb( 31, 120, 180)" stroke-width="2.00" stroke-linecap="butt" stroke-linejoin="miter">
</g>
<g fill="none" color="black" stroke="currentColor" stroke-width="2.00" stroke-linecap="butt" stroke-linejoin="miter">
	<g transform="translate(1089.0,103.0)" stroke="none" fill="black" font-family="Helvetica" font-size="12.00"  text-anchor="start">
		<text><tspan font-family="Helvetica" >Point estimate</tspan></text>
	</g>
</g>
<g fill="none" color="black" stroke="currentColor" stroke-width="2.00" stroke-linecap="butt" stroke-linejoin="miter">
	<path stroke='rgb( 31, 120, 180)'  d='M1038.5,99.1 L1080.7,99.1 M544.9,662.4 L544.9,106.7  '/></g>
	</g>
	<g id="gnuplot_plot_4" ><title>Noise threshold</title>
<g fill="none" color="white" stroke="rgb( 31, 120, 180)" stroke-width="1.00" stroke-linecap="butt" stroke-linejoin="miter">
</g>
<g fill="none" color="black" stroke="currentColor" stroke-width="1.00" stroke-linecap="butt" stroke-linejoin="miter">
	<g transform="translate(1089.0,121.0)" stroke="none" fill="black" font-family="Helvetica" font-size="12.00"  text-anchor="start">
		<text><tspan font-family="Helvetica" >Noise threshold</tspan></text>
	</g>
</g>
<g fill="none" color="black" stroke="currentColor" stroke-width="1.00" stroke-linecap="butt" stroke-linejoin="miter">
	<g stroke='none' shape-rendering='crispEdges'>
		<polygon fill = 'rgb(227,  26,  28)' fill-opacity = '0.100000' points = '1038.5,121.6 1080.7,121.6 1080.7,112.6 1038.5,112.6 '/>
		<polygon fill = 'rgb(227,  26,  28)' fill-opacity = '0.100000' points = '71.9,54.1 71.9,662.4 1013.6,662.4 1013.6,54.1 '/>
	</g>
</g>
	</g>
<g fill="none" color="white" stroke="rgb(227,  26,  28)" stroke-width="2.00" stroke-linecap="butt" stroke-linejoin="miter">
</g>
<g fill="none" color="black" stroke="currentColor" stroke-width="2.00" stroke-linecap="butt" stroke-linejoin="miter">
</g>
<g fill="none" color="black" stroke="black" stroke-width="1.00" stroke-linecap="butt" stroke-linejoin="miter">
</g>
<g fill="none" color="black" stroke="currentColor" stroke-width="1.00" stroke-linecap="butt" stroke-linejoin="miter">
	<path stroke='black'  d='M71.9,54.1 L71.9,662.4 L1013.6,662.4 L1013.6,54.1 L71.9,54.1 Z  '/></g>
<g fill="none" color="black" stroke="currentColor" stroke-width="1.00" stroke-linecap="butt" stroke-linejoin="miter">
</g>
</g>
</svg>

