<?xml version="1.0" encoding="utf-8"  standalone="no"?>
<svg 
 viewBox="0 0 1280 720"
 xmlns="http://www.w3.org/2000/svg"
 xmlns:xlink="http://www.w3.org/1999/xlink"
>

<title>Gnuplot</title>
<desc>Produced by GNUPLOT 5.0 patchlevel 6 </desc>

<g id="gnuplot_canvas">

<rect x="0" y="0" width="1280" height="720" fill="none"/>
<defs>

	<circle id='gpDot' r='0.5' stroke-width='0.5'/>
	<path id='gpPt0' stroke-width='0.222' stroke='currentColor' d='M-1,0 h2 M0,-1 v2'/>
	<path id='gpPt1' stroke-width='0.222' stroke='currentColor' d='M-1,-1 L1,1 M1,-1 L-1,1'/>
	<path id='gpPt2' stroke-width='0.222' stroke='currentColor' d='M-1,0 L1,0 M0,-1 L0,1 M-1,-1 L1,1 M-1,1 L1,-1'/>
	<rect id='gpPt3' stroke-width='0.222' stroke='currentColor' x='-1' y='-1' width='2' height='2'/>
	<rect id='gpPt4' stroke-width='0.222' stroke='currentColor' fill='currentColor' x='-1' y='-1' width='2' height='2'/>
	<circle id='gpPt5' stroke-width='0.222' stroke='currentColor' cx='0' cy='0' r='1'/>
	<use xlink:href='#gpPt5' id='gpPt6' fill='currentColor' stroke='none'/>
	<path id='gpPt7' stroke-width='0.222' stroke='currentColor' d='M0,-1.33 L-1.33,0.67 L1.33,0.67 z'/>
	<use xlink:href='#gpPt7' id='gpPt8' fill='currentColor' stroke='none'/>
	<use xlink:href='#gpPt7' id='gpPt9' stroke='currentColor' transform='rotate(180)'/>
	<use xlink:href='#gpPt9' id='gpPt10' fill='currentColor' stroke='none'/>
	<use xlink:href='#gpPt3' id='gpPt11' stroke='currentColor' transform='rotate(45)'/>
	<use xlink:href='#gpPt11' id='gpPt12' fill='currentColor' stroke='none'/>
	<path id='gpPt13' stroke-width='0.222' stroke='currentColor' d='M0,1.330 L1.265,0.411 L0.782,-1.067 L-0.782,-1.076 L-1.265,0.411 z'/>
	<use xlink:href='#gpPt13' id='gpPt14' fill='currentColor' stroke='none'/>
	<filter id='textbox' filterUnits='objectBoundingBox' x='0' y='0' height='1' width='1'>
	  <feFlood flood-color='white' flood-opacity='1' result='bgnd'/>
	  <feComposite in='SourceGraphic' in2='bgnd' operator='atop'/>
	</filter>
	<filter id='greybox' filterUnits='objectBoundingBox' x='0' y='0' height='1' width='1'>
	  <feFlood flood-color='lightgrey' flood-opacity='1' result='grey'/>
	  <feComposite in='SourceGraphic' in2='grey' operator='atop'/>
	</filter>
</defs>
<g fill="none" color="white" stroke="currentColor" stroke-width="1.00" stroke-linecap="butt" stroke-linejoin="miter">
</g>
<g fill="none" color="black" stroke="currentColor" stroke-width="1.00" stroke-linecap="butt" stroke-linejoin="miter">
	<path stroke='black'  d='M63.6,662.4 L72.6,662.4  '/>	<g transform="translate(55.3,666.3)" stroke="none" fill="black" font-family="Helvetica" font-size="12.00"  text-anchor="end">
		<text><tspan font-family="Helvetica" > 0</tspan></text>
	</g>
</g>
<g fill="none" color="black" stroke="currentColor" stroke-width="1.00" stroke-linecap="butt" stroke-linejoin="miter">
	<path stroke='black'  d='M63.6,540.7 L72.6,540.7  '/>	<g transform="translate(55.3,544.6)" stroke="none" fill="black" font-family="Helvetica" font-size="12.00"  text-anchor="end">
		<text><tspan font-family="Helvetica" > 5</tspan></text>
	</g>
</g>
<g fill="none" color="black" stroke="currentColor" stroke-width="1.00" stroke-linecap="butt" stroke-linejoin="miter">
	<path stroke='black'  d='M63.6,419.1 L72.6,419.1  '/>	<g transform="translate(55.3,423.0)" stroke="none" fill="black" font-family="Helvetica" font-size="12.00"  text-anchor="end">
		<text><tspan font-family="Helvetica" > 10</tspan></text>
	</g>
</g>
<g fill="none" color="black" stroke="currentColor" stroke-width="1.00" stroke-linecap="butt" stroke-linejoin="miter">
	<path stroke='black'  d='M63.6,297.4 L72.6,297.4  '/>	<g transform="translate(55.3,301.3)" stroke="none" fill="black" font-family="Helvetica" font-size="12.00"  text-anchor="end">
		<text><tspan font-family="Helvetica" > 15</tspan></text>
	</g>
</g>
<g fill="none" color="black" stroke="currentColor" stroke-width="1.00" stroke-linecap="butt" stroke-linejoin="miter">
	<path stroke='black'  d='M63.6,175.8 L72.6,175.8  '/>	<g transform="translate(55.3,179.7)" stroke="none" fill="black" font-family="Helvetica" font-size="12.00"  text-anchor="end">
		<text><tspan font-family="Helvetica" > 20</tspan></text>
	</g>
</g>
<g fill="none" color="black" stroke="currentColor" stroke-width="1.00" stroke-linecap="butt" stroke-linejoin="miter">
	<path stroke='black'  d='M63.6,54.1 L72.6,54.1  '/>	<g transform="translate(55.3,58.0)" stroke="none" fill="black" font-family="Helvetica" font-size="12.00"  text-anchor="end">
		<text><tspan font-family="Helvetica" > 25</tspan></text>
	</g>
</g>
<g fill="none" color="black" stroke="currentColor" stroke-width="1.00" stroke-linecap="butt" stroke-linejoin="miter">
	<path stroke='black'  d='M102.1,662.4 L102.1,653.4  '/>	<g transform="translate(102.1,684.3)" stroke="none" fill="black" font-family="Helvetica" font-size="12.00"  text-anchor="middle">
		<text><tspan font-family="Helvetica" > 16.86</tspan></text>
	</g>
</g>
<g fill="none" color="black" stroke="currentColor" stroke-width="1.00" stroke-linecap="butt" stroke-linejoin="miter">
	<path stroke='black'  d='M200.7,662.4 L200.7,653.4  '/>	<g transform="translate(200.7,684.3)" stroke="none" fill="black" font-family="Helvetica" font-size="12.00"  text-anchor="middle">
		<text><tspan font-family="Helvetica" > 16.87</tspan></text>
	</g>
</g>
<g fill="none" color="black" stroke="currentColor" stroke-width="1.00" stroke-linecap="butt" stroke-linejoin="miter">
	<path stroke='black'  d='M299.3,662.4 L299.3,653.4  '/>	<g transform="translate(299.3,684.3)" stroke="none" fill="black" font-family="Helvetica" font-size="12.00"  text-anchor="middle">
		<text><tspan font-family="Helvetica" > 16.88</tspan></text>
	</g>
</g>
<g fill="none" color="black" stroke="currentColor" stroke-width="1.00" stroke-linecap="butt" stroke-linejoin="miter">
	<path stroke='black'  d='M397.8,662.4 L397.8,653.4  '/>	<g transform="translate(397.8,684.3)" stroke="none" fill="black" font-family="Helvetica" font-size="12.00"  text-anchor="middle">
		<text><tspan font-family="Helvetica" > 16.89</tspan></text>
	</g>
</g>
<g fill="none" color="black" stroke="currentColor" stroke-width="1.00" stroke-linecap="butt" stroke-linejoin="miter">
	<path stroke='black'  d='M496.4,662.4 L496.4,653.4  '/>	<g transform="translate(496.4,684.3)" stroke="none" fill="black" font-family="Helvetica" font-size="12.00"  text-anchor="middle">
		<text><tspan font-family="Helvetica" > 16.9</tspan></text>
	</g>
</g>
<g fill="none" color="black" stroke="currentColor" stroke-width="1.00" stroke-linecap="butt" stroke-linejoin="miter">
	<path stroke='black'  d='M595.0,662.4 L595.0,653.4  '/>	<g transform="translate(595.0,684.3)" stroke="none" fill="black" font-family="Helvetica" font-size="12.00"  text-anchor="middle">
		<text><tspan font-family="Helvetica" > 16.91</tspan></text>
	</g>
</g>
<g fill="none" color="black" stroke="currentColor" stroke-width="1.00" stroke-linecap="butt" stroke-linejoin="miter">
	<path stroke='black'  d='M693.5,662.4 L693.5,653.4  '/>	<g transform="translate(693.5,684.3)" stroke="none" fill="black" font-family="Helvetica" font-size="12.00"  text-anchor="middle">
		<text><tspan font-family="Helvetica" > 16.92</tspan></text>
	</g>
</g>
<g fill="none" color="black" stroke="currentColor" stroke-width="1.00" stroke-linecap="butt" stroke-linejoin="miter">
	<path stroke='black'  d='M792.1,662.4 L792.1,653.4  '/>	<g transform="translate(792.1,684.3)" stroke="none" fill="black" font-family="Helvetica" font-size="12.00"  text-anchor="middle">
		<text><tspan font-family="Helvetica" > 16.93</tspan></text>
	</g>
</g>
<g fill="none" color="black" stroke="currentColor" stroke-width="1.00" stroke-linecap="butt" stroke-linejoin="miter">
	<path stroke='black'  d='M890.7,662.4 L890.7,653.4  '/>	<g transform="translate(890.7,684.3)" stroke="none" fill="black" font-family="Helvetica" font-size="12.00"  text-anchor="middle">
		<text><tspan font-family="Helvetica" > 16.94</tspan></text>
	</g>
</g>
<g fill="none" color="black" stroke="currentColor" stroke-width="1.00" stroke-linecap="butt" stroke-linejoin="miter">
	<path stroke='black'  d='M989.2,662.4 L989.2,653.4  '/>	<g transform="translate(989.2,684.3)" stroke="none" fill="black" font-family="Helvetica" font-size="12.00"  text-anchor="middle">
		<text><tspan font-family="Helvetica" > 16.95</tspan></text>
	</g>
</g>
<g fill="none" color="black" stroke="currentColor" stroke-width="1.00" stroke-linecap="butt" stroke-linejoin="miter">
</g>
<g fill="none" color="black" stroke="currentColor" stroke-width="1.00" stroke-linecap="butt" stroke-linejoin="miter">
	<path stroke='black'  d='M63.6,54.1 L63.6,662.4 L1013.6,662.4 L1013.6,54.1 L63.6,54.1 Z  '/></g>
<g fill="none" color="black" stroke="currentColor" stroke-width="1.00" stroke-linecap="butt" stroke-linejoin="miter">
	<g transform="translate(17.0,358.3) rotate(270)" stroke="none" fill="black" font-family="Helvetica" font-size="12.00"  text-anchor="middle">
		<text><tspan font-family="Helvetica" >Density (a.u.)</tspan></text>
	</g>
</g>
<g fill="none" color="black" stroke="currentColor" stroke-width="1.00" stroke-linecap="butt" stroke-linejoin="miter">
	<g transform="translate(538.6,711.3)" stroke="none" fill="black" font-family="Helvetica" font-size="12.00"  text-anchor="middle">
		<text><tspan font-family="Helvetica" >Average time (ms)</tspan></text>
	</g>
</g>
<g fill="none" color="black" stroke="currentColor" stroke-width="1.00" stroke-linecap="butt" stroke-linejoin="miter">
	<g transform="translate(538.6,31.0)" stroke="none" fill="black" font-family="Helvetica" font-size="12.00"  text-anchor="middle">
		<text><tspan font-family="Helvetica" >language: tsx/parse error: javascript/examples/text-editor-component.js: median</tspan></text>
	</g>
</g>
	<g id="gnuplot_plot_1" ><title>Bootstrap distribution</title>
<g fill="none" color="white" stroke="black" stroke-width="2.00" stroke-linecap="butt" stroke-linejoin="miter">
</g>
<g fill="none" color="black" stroke="currentColor" stroke-width="2.00" stroke-linecap="butt" stroke-linejoin="miter">
	<g transform="translate(1089.0,67.0)" stroke="none" fill="black" font-family="Helvetica" font-size="12.00"  text-anchor="start">
		<text><tspan font-family="Helvetica" >Bootstrap distribution</tspan></text>
	</g>
</g>
<g fill="none" color="black" stroke="currentColor" stroke-width="2.00" stroke-linecap="butt" stroke-linejoin="miter">
	<path stroke='rgb( 31, 120, 180)'  d='M1038.5,63.1 L1080.7,63.1 M63.6,624.3 L65.5,623.3 L67.4,622.3 L69.3,621.4 L71.2,620.5 L73.1,619.7
		L75.0,619.1 L76.9,618.5 L78.8,618.1 L80.7,617.8 L82.6,617.6 L84.5,617.6 L86.4,617.7 L88.3,617.9
		L90.3,618.3 L92.2,618.7 L94.1,619.3 L96.0,619.8 L97.9,620.4 L99.8,621.0 L101.7,621.5 L103.6,622.0
		L105.5,622.4 L107.4,622.7 L109.3,622.8 L111.2,622.8 L113.1,622.6 L115.0,622.2 L116.9,621.6 L118.8,620.8
		L120.7,619.8 L122.6,618.6 L124.5,617.3 L126.4,615.9 L128.3,614.3 L130.2,612.7 L132.1,611.0 L134.0,609.3
		L135.9,607.7 L137.8,606.2 L139.8,604.7 L141.7,603.4 L143.6,602.3 L145.5,601.4 L147.4,600.8 L149.3,600.3
		L151.2,600.1 L153.1,600.2 L155.0,600.4 L156.9,600.8 L158.8,601.4 L160.7,602.1 L162.6,602.9 L164.5,603.8
		L166.4,604.6 L168.3,605.3 L170.2,605.9 L172.1,606.3 L174.0,606.4 L175.9,606.3 L177.8,605.8 L179.7,605.0
		L181.6,603.8 L183.5,602.1 L185.4,600.1 L187.3,597.6 L189.3,594.8 L191.2,591.6 L193.1,588.1 L195.0,584.4
		L196.9,580.4 L198.8,576.4 L200.7,572.3 L202.6,568.2 L204.5,564.2 L206.4,560.5 L208.3,557.1 L210.2,554.0
		L212.1,551.3 L214.0,549.1 L215.9,547.5 L217.8,546.4 L219.7,546.0 L221.6,546.1 L223.5,546.7 L225.4,547.9
		L227.3,549.6 L229.2,551.8 L231.1,554.2 L233.0,557.0 L234.9,559.9 L236.8,562.9 L238.8,565.9 L240.7,568.8
		L242.6,571.4 L244.5,573.8 L246.4,575.8 L248.3,577.3 L250.2,578.3 L252.1,578.7 L254.0,578.5 L255.9,577.8
		L257.8,576.4 L259.7,574.5 L261.6,572.0 L263.5,569.0 L265.4,565.7 L267.3,562.0 L269.2,558.0 L271.1,553.9
		L273.0,549.7 L274.9,545.6 L276.8,541.6 L278.7,537.8 L280.6,534.4 L282.5,531.3 L284.4,528.7 L286.3,526.7
		L288.2,525.1 L290.2,524.1 L292.1,523.7 L294.0,523.7 L295.9,524.3 L297.8,525.2 L299.7,526.5 L301.6,528.1
		L303.5,529.9 L305.4,531.7 L307.3,533.5 L309.2,535.1 L311.1,536.5 L313.0,537.5 L314.9,538.1 L316.8,538.2
		L318.7,537.7 L320.6,536.6 L322.5,534.8 L324.4,532.4 L326.3,529.3 L328.2,525.5 L330.1,521.2 L332.0,516.3
		L333.9,511.0 L335.8,505.3 L337.7,499.3 L339.7,493.1 L341.6,486.9 L343.5,480.7 L345.4,474.7 L347.3,468.9
		L349.2,463.5 L351.1,458.4 L353.0,453.9 L354.9,450.0 L356.8,446.6 L358.7,443.9 L360.6,441.7 L362.5,440.1
		L364.4,439.1 L366.3,438.5 L368.2,438.4 L370.1,438.5 L372.0,438.9 L373.9,439.4 L375.8,440.0 L377.7,440.4
		L379.6,440.7 L381.5,440.8 L383.4,440.6 L385.3,440.0 L387.2,439.0 L389.2,437.7 L391.1,435.9 L393.0,433.8
		L394.9,431.3 L396.8,428.5 L398.7,425.6 L400.6,422.4 L402.5,419.2 L404.4,416.1 L406.3,413.0 L408.2,410.0
		L410.1,407.2 L412.0,404.7 L413.9,402.3 L415.8,400.2 L417.7,398.3 L419.6,396.6 L421.5,394.9 L423.4,393.3
		L425.3,391.5 L427.2,389.7 L429.1,387.6 L431.0,385.1 L432.9,382.2 L434.8,378.8 L436.7,375.0 L438.7,370.5
		L440.6,365.5 L442.5,360.1 L444.4,354.1 L446.3,347.8 L448.2,341.2 L450.1,334.4 L452.0,327.6 L453.9,320.9
		L455.8,314.5 L457.7,308.5 L459.6,302.9 L461.5,298.0 L463.4,293.8 L465.3,290.3 L467.2,287.6 L469.1,285.7
		L471.0,284.6 L472.9,284.1 L474.8,284.3 L476.7,284.9 L478.6,285.9 L480.5,287.2 L482.4,288.7 L484.3,290.1
		L486.2,291.4 L488.1,292.5 L490.1,293.3 L492.0,293.8 L493.9,293.9 L495.8,293.5 L497.7,292.8 L499.6,291.7
		L501.5,290.2 L503.4,288.6 L505.3,286.7 L507.2,284.8 L509.1,282.8 L511.0,280.9 L512.9,279.1 L514.8,277.5
		L516.7,276.1 L518.6,274.8 L520.5,273.9 L522.4,273.1 L524.3,272.5 L526.2,272.1 L528.1,271.8 L530.0,271.5
		L531.9,271.4 L533.8,271.2 L535.7,271.0 L537.6,270.8 L539.6,270.6 L541.5,270.4 L543.4,270.2 L545.3,270.0
		L547.2,270.1 L549.1,270.3 L551.0,270.7 L552.9,271.5 L554.8,272.7 L556.7,274.4 L558.6,276.6 L560.5,279.4
		L562.4,282.8 L564.3,286.7 L566.2,291.3 L568.1,296.4 L570.0,302.0 L571.9,308.0 L573.8,314.5 L575.7,321.2
		L577.6,328.0 L579.5,334.9 L581.4,341.7 L583.3,348.2 L585.2,354.4 L587.1,360.1 L589.1,365.2 L591.0,369.6
		L592.9,373.1 L594.8,375.7 L596.7,377.2 L598.6,377.7 L600.5,377.1 L602.4,375.4 L604.3,372.6 L606.2,368.8
		L608.1,363.9 L610.0,358.3 L611.9,351.8 L613.8,344.8 L615.7,337.4 L617.6,329.7 L619.5,322.0 L621.4,314.5
		L623.3,307.4 L625.2,300.9 L627.1,295.1 L629.0,290.4 L630.9,286.8 L632.8,284.4 L634.7,283.4 L636.6,283.7
		L638.5,285.4 L640.5,288.5 L642.4,292.9 L644.3,298.4 L646.2,304.9 L648.1,312.3 L650.0,320.2 L651.9,328.6
		L653.8,337.0 L655.7,345.4 L657.6,353.3 L659.5,360.6 L661.4,367.0 L663.3,372.4 L665.2,376.5 L667.1,379.2
		L669.0,380.4 L670.9,380.0 L672.8,378.1 L674.7,374.5 L676.6,369.4 L678.5,362.8 L680.4,355.0 L682.3,346.1
		L684.2,336.3 L686.1,325.8 L688.0,314.9 L690.0,303.9 L691.9,293.0 L693.8,282.5 L695.7,272.7 L697.6,263.7
		L699.5,255.9 L701.4,249.5 L703.3,244.5 L705.2,241.1 L707.1,239.4 L709.0,239.4 L710.9,241.0 L712.8,244.3
		L714.7,249.2 L716.6,255.3 L718.5,262.7 L720.4,271.0 L722.3,280.0 L724.2,289.5 L726.1,299.2 L728.0,308.7
		L729.9,318.0 L731.8,326.6 L733.7,334.4 L735.6,341.2 L737.5,346.8 L739.5,351.1 L741.4,354.1 L743.3,355.6
		L745.2,355.8 L747.1,354.6 L749.0,352.2 L750.9,348.7 L752.8,344.2 L754.7,339.0 L756.6,333.3 L758.5,327.2
		L760.4,321.0 L762.3,314.9 L764.2,309.1 L766.1,303.7 L768.0,299.0 L769.9,295.1 L771.8,292.0 L773.7,289.7
		L775.6,288.4 L777.5,287.9 L779.4,288.2 L781.3,289.3 L783.2,290.9 L785.1,293.0 L787.0,295.4 L789.0,297.8
		L790.9,300.2 L792.8,302.3 L794.7,303.9 L796.6,304.9 L798.5,305.2 L800.4,304.6 L802.3,303.0 L804.2,300.3
		L806.1,296.6 L808.0,291.8 L809.9,285.9 L811.8,279.0 L813.7,271.2 L815.6,262.5 L817.5,253.1 L819.4,243.1
		L821.3,232.7 L823.2,222.1 L825.1,211.3 L827.0,200.6 L828.9,190.2 L830.8,180.0 L832.7,170.3 L834.6,161.3
		L836.5,152.9 L838.4,145.4 L840.4,138.7 L842.3,132.9 L844.2,128.1 L846.1,124.3 L848.0,121.5 L849.9,119.7
		L851.8,118.9 L853.7,119.0 L855.6,120.1 L857.5,122.0 L859.4,124.8 L861.3,128.5 L863.2,132.8 L865.1,137.9
		L867.0,143.7 L868.9,150.0 L870.8,156.9 L872.7,164.2 L874.6,172.0 L876.5,180.2 L878.4,188.6 L880.3,197.4
		L882.2,206.4 L884.1,215.6 L886.0,225.0 L887.9,234.4 L889.9,243.9 L891.8,253.5 L893.7,263.2 L895.6,272.8
		L897.5,282.5 L899.4,292.1 L901.3,301.7 L903.2,311.4 L905.1,321.1 L907.0,330.7 L908.9,340.4 L910.8,350.2
		L912.7,359.9 L914.6,369.8 L916.5,379.7 L918.4,389.7 L920.3,399.8 L922.2,410.0 L924.1,420.2 L926.0,430.5
		L927.9,440.9 L929.8,451.4 L931.7,461.8 L933.6,472.2 L935.5,482.6 L937.4,492.9 L939.4,503.0 L941.3,513.0
		L943.2,522.8 L945.1,532.4 L947.0,541.6 L948.9,550.5 L950.8,559.1 L952.7,567.3 L954.6,575.0 L956.5,582.2
		L958.4,589.0 L960.3,595.3 L962.2,601.2 L964.1,606.5 L966.0,611.3 L967.9,615.6 L969.8,619.4 L971.7,622.8
		L973.6,625.7 L975.5,628.2 L977.4,630.3 L979.3,632.0 L981.2,633.4 L983.1,634.5 L985.0,635.3 L986.9,635.9
		L988.9,636.3 L990.8,636.4 L992.7,636.5 L994.6,636.4 L996.5,636.3 L998.4,636.1 L1000.3,635.9 L1002.2,635.8
		L1004.1,635.6 L1006.0,635.5 L1007.9,635.5 L1009.8,635.5 L1011.7,635.7 L1013.6,635.9  '/></g>
	</g>
	<g id="gnuplot_plot_2" ><title>Confidence interval</title>
<g fill="none" color="white" stroke="rgb( 31, 120, 180)" stroke-width="1.00" stroke-linecap="butt" stroke-linejoin="miter">
</g>
<g fill="none" color="black" stroke="currentColor" stroke-width="1.00" stroke-linecap="butt" stroke-linejoin="miter">
	<g transform="translate(1089.0,85.0)" stroke="none" fill="black" font-family="Helvetica" font-size="12.00"  text-anchor="start">
		<text><tspan font-family="Helvetica" >Confidence interval</tspan></text>
	</g>
</g>
<g fill="none" color="black" stroke="currentColor" stroke-width="1.00" stroke-linecap="butt" stroke-linejoin="miter">
	<g stroke='none' shape-rendering='crispEdges'>
		<polygon fill = 'rgb( 31, 120, 180)' fill-opacity = '0.250000' points = '1038.5,85.6 1080.7,85.6 1080.7,76.6 1038.5,76.6 '/>
		<polygon fill = 'rgb( 31, 120, 180)' fill-opacity = '0.250000' points = '151.2,600.1 151.2,662.4 153.1,662.4 153.1,600.2 '/>
		<polygon fill = 'rgb( 31, 120, 180)' fill-opacity = '0.250000' points = '153.1,600.2 153.1,662.4 155.0,662.4 155.0,600.4 '/>
		<polygon fill = 'rgb( 31, 120, 180)' fill-opacity = '0.250000' points = '155.0,600.4 155.0,662.4 156.9,662.4 156.9,600.8 '/>
		<polygon fill = 'rgb( 31, 120, 180)' fill-opacity = '0.250000' points = '156.9,600.8 156.9,662.4 158.8,662.4 158.8,601.4 '/>
		<polygon fill = 'rgb( 31, 120, 180)' fill-opacity = '0.250000' points = '158.8,601.4 158.8,662.4 160.7,662.4 160.7,602.1 '/>
		<polygon fill = 'rgb( 31, 120, 180)' fill-opacity = '0.250000' points = '160.7,602.1 160.7,662.4 162.6,662.4 162.6,602.9 '/>
		<polygon fill = 'rgb( 31, 120, 180)' fill-opacity = '0.250000' points = '162.6,602.9 162.6,662.4 164.5,662.4 164.5,603.8 '/>
		<polygon fill = 'rgb( 31, 120, 180)' fill-opacity = '0.250000' points = '164.5,603.8 164.5,662.4 166.4,662.4 166.4,604.6 '/>
		<polygon fill = 'rgb( 31, 120, 180)' fill-opacity = '0.250000' points = '166.4,604.6 166.4,662.4 168.3,662.4 168.3,605.3 '/>
		<polygon fill = 'rgb( 31, 120, 180)' fill-opacity = '0.250000' points = '168.3,605.3 168.3,662.4 170.2,662.4 170.2,605.9 '/>
		<polygon fill = 'rgb( 31, 120, 180)' fill-opacity = '0.250000' points = '170.2,605.9 170.2,662.4 172.1,662.4 172.1,606.3 '/>
		<polygon fill = 'rgb( 31, 120, 180)' fill-opacity = '0.250000' points = '172.1,606.3 172.1,662.4 174.0,662.4 174.0,606.4 '/>
		<polygon fill = 'rgb( 31, 120, 180)' fill-opacity = '0.250000' points = '174.0,606.4 174.0,662.4 175.9,662.4 175.9,606.3 '/>
		<polygon fill = 'rgb( 31, 120, 180)' fill-opacity = '0.250000' points = '175.9,606.3 175.9,662.4 177.8,662.4 177.8,605.8 '/>
		<polygon fill = 'rgb( 31, 120, 180)' fill-opacity = '0.250000' points = '177.8,605.8 177.8,662.4 179.7,662.4 179.7,605.0 '/>
		<polygon fill = 'rgb( 31, 120, 180)' fill-opacity = '0.250000' points = '179.7,605.0 179.7,662.4 181.6,662.4 181.6,603.8 '/>
		<polygon fill = 'rgb( 31, 120, 180)' fill-opacity = '0.250000' points = '181.6,603.8 181.6,662.4 183.5,662.4 183.5,602.1 '/>
		<polygon fill = 'rgb( 31, 120, 180)' fill-opacity = '0.250000' points = '183.5,602.1 183.5,662.4 185.4,662.4 185.4,600.1 '/>
		<polygon fill = 'rgb( 31, 120, 180)' fill-opacity = '0.250000' points = '185.4,600.1 185.4,662.4 187.3,662.4 187.3,597.6 '/>
		<polygon fill = 'rgb( 31, 120, 180)' fill-opacity = '0.250000' points = '187.3,597.6 187.3,662.4 189.3,662.4 189.3,594.8 '/>
		<polygon fill = 'rgb( 31, 120, 180)' fill-opacity = '0.250000' points = '189.3,594.8 189.3,662.4 191.2,662.4 191.2,591.6 '/>
		<polygon fill = 'rgb( 31, 120, 180)' fill-opacity = '0.250000' points = '191.2,591.6 191.2,662.4 193.1,662.4 193.1,588.1 '/>
		<polygon fill = 'rgb( 31, 120, 180)' fill-opacity = '0.250000' points = '193.1,588.1 193.1,662.4 195.0,662.4 195.0,584.4 '/>
		<polygon fill = 'rgb( 31, 120, 180)' fill-opacity = '0.250000' points = '195.0,584.4 195.0,662.4 196.9,662.4 196.9,580.4 '/>
		<polygon fill = 'rgb( 31, 120, 180)' fill-opacity = '0.250000' points = '196.9,580.4 196.9,662.4 198.8,662.4 198.8,576.4 '/>
		<polygon fill = 'rgb( 31, 120, 180)' fill-opacity = '0.250000' points = '198.8,576.4 198.8,662.4 200.7,662.4 200.7,572.3 '/>
		<polygon fill = 'rgb( 31, 120, 180)' fill-opacity = '0.250000' points = '200.7,572.3 200.7,662.4 202.6,662.4 202.6,568.2 '/>
		<polygon fill = 'rgb( 31, 120, 180)' fill-opacity = '0.250000' points = '202.6,568.2 202.6,662.4 204.5,662.4 204.5,564.2 '/>
		<polygon fill = 'rgb( 31, 120, 180)' fill-opacity = '0.250000' points = '204.5,564.2 204.5,662.4 206.4,662.4 206.4,560.5 '/>
		<polygon fill = 'rgb( 31, 120, 180)' fill-opacity = '0.250000' points = '206.4,560.5 206.4,662.4 208.3,662.4 208.3,557.1 '/>
		<polygon fill = 'rgb( 31, 120, 180)' fill-opacity = '0.250000' points = '208.3,557.1 208.3,662.4 210.2,662.4 210.2,554.0 '/>
		<polygon fill = 'rgb( 31, 120, 180)' fill-opacity = '0.250000' points = '210.2,554.0 210.2,662.4 212.1,662.4 212.1,551.3 '/>
		<polygon fill = 'rgb( 31, 120, 180)' fill-opacity = '0.250000' points = '212.1,551.3 212.1,662.4 214.0,662.4 214.0,549.1 '/>
		<polygon fill = 'rgb( 31, 120, 180)' fill-opacity = '0.250000' points = '214.0,549.1 214.0,662.4 215.9,662.4 215.9,547.5 '/>
		<polygon fill = 'rgb( 31, 120, 180)' fill-opacity = '0.250000' points = '215.9,547.5 215.9,662.4 217.8,662.4 217.8,546.4 '/>
		<polygon fill = 'rgb( 31, 120, 180)' fill-opacity = '0.250000' points = '217.8,546.4 217.8,662.4 219.7,662.4 219.7,546.0 '/>
		<polygon fill = 'rgb( 31, 120, 180)' fill-opacity = '0.250000' points = '219.7,546.0 219.7,662.4 221.6,662.4 221.6,546.1 '/>
		<polygon fill = 'rgb( 31, 120, 180)' fill-opacity = '0.250000' points = '221.6,546.1 221.6,662.4 223.5,662.4 223.5,546.7 '/>
		<polygon fill = 'rgb( 31, 120, 180)' fill-opacity = '0.250000' points = '223.5,546.7 223.5,662.4 225.4,662.4 225.4,547.9 '/>
		<polygon fill = 'rgb( 31, 120, 180)' fill-opacity = '0.250000' points = '225.4,547.9 225.4,662.4 227.3,662.4 227.3,549.6 '/>
		<polygon fill = 'rgb( 31, 120, 180)' fill-opacity = '0.250000' points = '227.3,549.6 227.3,662.4 229.2,662.4 229.2,551.8 '/>
		<polygon fill = 'rgb( 31, 120, 180)' fill-opacity = '0.250000' points = '229.2,551.8 229.2,662.4 231.1,662.4 231.1,554.2 '/>
		<polygon fill = 'rgb( 31, 120, 180)' fill-opacity = '0.250000' points = '231.1,554.2 231.1,662.4 233.0,662.4 233.0,557.0 '/>
		<polygon fill = 'rgb( 31, 120, 180)' fill-opacity = '0.250000' points = '233.0,557.0 233.0,662.4 234.9,662.4 234.9,559.9 '/>
		<polygon fill = 'rgb( 31, 120, 180)' fill-opacity = '0.250000' points = '234.9,559.9 234.9,662.4 236.8,662.4 236.8,562.9 '/>
		<polygon fill = 'rgb( 31, 120, 180)' fill-opacity = '0.250000' points = '236.8,562.9 236.8,662.4 238.8,662.4 238.8,565.9 '/>
		<polygon fill = 'rgb( 31, 120, 180)' fill-opacity = '0.250000' points = '238.8,565.9 238.8,662.4 240.7,662.4 240.7,568.8 '/>
		<polygon fill = 'rgb( 31, 120, 180)' fill-opacity = '0.250000' points = '240.7,568.8 240.7,662.4 242.6,662.4 242.6,571.4 '/>
		<polygon fill = 'rgb( 31, 120, 180)' fill-opacity = '0.250000' points = '242.6,571.4 242.6,662.4 244.5,662.4 244.5,573.8 '/>
		<polygon fill = 'rgb( 31, 120, 180)' fill-opacity = '0.250000' points = '244.5,573.8 244.5,662.4 246.4,662.4 246.4,575.8 '/>
		<polygon fill = 'rgb( 31, 120, 180)' fill-opacity = '0.250000' points = '246.4,575.8 246.4,662.4 248.3,662.4 248.3,577.3 '/>
		<polygon fill = 'rgb( 31, 120, 180)' fill-opacity = '0.250000' points = '248.3,577.3 248.3,662.4 250.2,662.4 250.2,578.3 '/>
		<polygon fill = 'rgb( 31, 120, 180)' fill-opacity = '0.250000' points = '250.2,578.3 250.2,662.4 252.1,662.4 252.1,578.7 '/>
		<polygon fill = 'rgb( 31, 120, 180)' fill-opacity = '0.250000' points = '252.1,578.7 252.1,662.4 254.0,662.4 254.0,578.5 '/>
		<polygon fill = 'rgb( 31, 120, 180)' fill-opacity = '0.250000' points = '254.0,578.5 254.0,662.4 255.9,662.4 255.9,577.8 '/>
		<polygon fill = 'rgb( 31, 120, 180)' fill-opacity = '0.250000' points = '255.9,577.8 255.9,662.4 257.8,662.4 257.8,576.4 '/>
		<polygon fill = 'rgb( 31, 120, 180)' fill-opacity = '0.250000' points = '257.8,576.4 257.8,662.4 259.7,662.4 259.7,574.5 '/>
		<polygon fill = 'rgb( 31, 120, 180)' fill-opacity = '0.250000' points = '259.7,574.5 259.7,662.4 261.6,662.4 261.6,572.0 '/>
		<polygon fill = 'rgb( 31, 120, 180)' fill-opacity = '0.250000' points = '261.6,572.0 261.6,662.4 263.5,662.4 263.5,569.0 '/>
		<polygon fill = 'rgb( 31, 120, 180)' fill-opacity = '0.250000' points = '263.5,569.0 263.5,662.4 265.4,662.4 265.4,565.7 '/>
		<polygon fill = 'rgb( 31, 120, 180)' fill-opacity = '0.250000' points = '265.4,565.7 265.4,662.4 267.3,662.4 267.3,562.0 '/>
		<polygon fill = 'rgb( 31, 120, 180)' fill-opacity = '0.250000' points = '267.3,562.0 267.3,662.4 269.2,662.4 269.2,558.0 '/>
		<polygon fill = 'rgb( 31, 120, 180)' fill-opacity = '0.250000' points = '269.2,558.0 269.2,662.4 271.1,662.4 271.1,553.9 '/>
		<polygon fill = 'rgb( 31, 120, 180)' fill-opacity = '0.250000' points = '271.1,553.9 271.1,662.4 273.0,662.4 273.0,549.7 '/>
		<polygon fill = 'rgb( 31, 120, 180)' fill-opacity = '0.250000' points = '273.0,549.7 273.0,662.4 274.9,662.4 274.9,545.6 '/>
		<polygon fill = 'rgb( 31, 120, 180)' fill-opacity = '0.250000' points = '274.9,545.6 274.9,662.4 276.8,662.4 276.8,541.6 '/>
		<polygon fill = 'rgb( 31, 120, 180)' fill-opacity = '0.250000' points = '276.8,541.6 276.8,662.4 278.7,662.4 278.7,537.8 '/>
		<polygon fill = 'rgb( 31, 120, 180)' fill-opacity = '0.250000' points = '278.7,537.8 278.7,662.4 280.6,662.4 280.6,534.4 '/>
		<polygon fill = 'rgb( 31, 120, 180)' fill-opacity = '0.250000' points = '280.6,534.4 280.6,662.4 282.5,662.4 282.5,531.3 '/>
		<polygon fill = 'rgb( 31, 120, 180)' fill-opacity = '0.250000' points = '282.5,531.3 282.5,662.4 284.4,662.4 284.4,528.7 '/>
		<polygon fill = 'rgb( 31, 120, 180)' fill-opacity = '0.250000' points = '284.4,528.7 284.4,662.4 286.3,662.4 286.3,526.7 '/>
		<polygon fill = 'rgb( 31, 120, 180)' fill-opacity = '0.250000' points = '286.3,526.7 286.3,662.4 288.2,662.4 288.2,525.1 '/>
		<polygon fill = 'rgb( 31, 120, 180)' fill-opacity = '0.250000' points = '288.2,525.1 288.2,662.4 290.2,662.4 290.2,524.1 '/>
		<polygon fill = 'rgb( 31, 120, 180)' fill-opacity = '0.250000' points = '290.2,524.1 290.2,662.4 292.1,662.4 292.1,523.7 '/>
		<polygon fill = 'rgb( 31, 120, 180)' fill-opacity = '0.250000' points = '292.1,523.7 292.1,662.4 294.0,662.4 294.0,523.7 '/>
		<polygon fill = 'rgb( 31, 120, 180)' fill-opacity = '0.250000' points = '294.0,523.7 294.0,662.4 295.9,662.4 295.9,524.3 '/>
		<polygon fill = 'rgb( 31, 120, 180)' fill-opacity = '0.250000' points = '295.9,524.3 295.9,662.4 297.8,662.4 297.8,525.2 '/>
		<polygon fill = 'rgb( 31, 120, 180)' fill-opacity = '0.250000' points = '297.8,525.2 297.8,662.4 299.7,662.4 299.7,526.5 '/>
		<polygon fill = 'rgb( 31, 120, 180)' fill-opacity = '0.250000' points = '299.7,526.5 299.7,662.4 301.6,662.4 301.6,528.1 '/>
		<polygon fill = 'rgb( 31, 120, 180)' fill-opacity = '0.250000' points = '301.6,528.1 301.6,662.4 303.5,662.4 303.5,529.9 '/>
		<polygon fill = 'rgb( 31, 120, 180)' fill-opacity = '0.250000' points = '303.5,529.9 303.5,662.4 305.4,662.4 305.4,531.7 '/>
		<polygon fill = 'rgb( 31, 120, 180)' fill-opacity = '0.250000' points = '305.4,531.7 305.4,662.4 307.3,662.4 307.3,533.5 '/>
		<polygon fill = 'rgb( 31, 120, 180)' fill-opacity = '0.250000' points = '307.3,533.5 307.3,662.4 309.2,662.4 309.2,535.1 '/>
		<polygon fill = 'rgb( 31, 120, 180)' fill-opacity = '0.250000' points = '309.2,535.1 309.2,662.4 311.1,662.4 311.1,536.5 '/>
		<polygon fill = 'rgb( 31, 120, 180)' fill-opacity = '0.250000' points = '311.1,536.5 311.1,662.4 313.0,662.4 313.0,537.5 '/>
		<polygon fill = 'rgb( 31, 120, 180)' fill-opacity = '0.250000' points = '313.0,537.5 313.0,662.4 314.9,662.4 314.9,538.1 '/>
		<polygon fill = 'rgb( 31, 120, 180)' fill-opacity = '0.250000' points = '314.9,538.1 314.9,662.4 316.8,662.4 316.8,538.2 '/>
		<polygon fill = 'rgb( 31, 120, 180)' fill-opacity = '0.250000' points = '316.8,538.2 316.8,662.4 318.7,662.4 318.7,537.7 '/>
		<polygon fill = 'rgb( 31, 120, 180)' fill-opacity = '0.250000' points = '318.7,537.7 318.7,662.4 320.6,662.4 320.6,536.6 '/>
		<polygon fill = 'rgb( 31, 120, 180)' fill-opacity = '0.250000' points = '320.6,536.6 320.6,662.4 322.5,662.4 322.5,534.8 '/>
		<polygon fill = 'rgb( 31, 120, 180)' fill-opacity = '0.250000' points = '322.5,534.8 322.5,662.4 324.4,662.4 324.4,532.4 '/>
		<polygon fill = 'rgb( 31, 120, 180)' fill-opacity = '0.250000' points = '324.4,532.4 324.4,662.4 326.3,662.4 326.3,529.3 '/>
		<polygon fill = 'rgb( 31, 120, 180)' fill-opacity = '0.250000' points = '326.3,529.3 326.3,662.4 328.2,662.4 328.2,525.5 '/>
		<polygon fill = 'rgb( 31, 120, 180)' fill-opacity = '0.250000' points = '328.2,525.5 328.2,662.4 330.1,662.4 330.1,521.2 '/>
		<polygon fill = 'rgb( 31, 120, 180)' fill-opacity = '0.250000' points = '330.1,521.2 330.1,662.4 332.0,662.4 332.0,516.3 '/>
		<polygon fill = 'rgb( 31, 120, 180)' fill-opacity = '0.250000' points = '332.0,516.3 332.0,662.4 333.9,662.4 333.9,511.0 '/>
		<polygon fill = 'rgb( 31, 120, 180)' fill-opacity = '0.250000' points = '333.9,511.0 333.9,662.4 335.8,662.4 335.8,505.3 '/>
		<polygon fill = 'rgb( 31, 120, 180)' fill-opacity = '0.250000' points = '335.8,505.3 335.8,662.4 337.7,662.4 337.7,499.3 '/>
		<polygon fill = 'rgb( 31, 120, 180)' fill-opacity = '0.250000' points = '337.7,499.3 337.7,662.4 339.7,662.4 339.7,493.1 '/>
		<polygon fill = 'rgb( 31, 120, 180)' fill-opacity = '0.250000' points = '339.7,493.1 339.7,662.4 341.6,662.4 341.6,486.9 '/>
		<polygon fill = 'rgb( 31, 120, 180)' fill-opacity = '0.250000' points = '341.6,486.9 341.6,662.4 343.5,662.4 343.5,480.7 '/>
		<polygon fill = 'rgb( 31, 120, 180)' fill-opacity = '0.250000' points = '343.5,480.7 343.5,662.4 345.4,662.4 345.4,474.7 '/>
		<polygon fill = 'rgb( 31, 120, 180)' fill-opacity = '0.250000' points = '345.4,474.7 345.4,662.4 347.3,662.4 347.3,468.9 '/>
		<polygon fill = 'rgb( 31, 120, 180)' fill-opacity = '0.250000' points = '347.3,468.9 347.3,662.4 349.2,662.4 349.2,463.5 '/>
		<polygon fill = 'rgb( 31, 120, 180)' fill-opacity = '0.250000' points = '349.2,463.5 349.2,662.4 351.1,662.4 351.1,458.4 '/>
		<polygon fill = 'rgb( 31, 120, 180)' fill-opacity = '0.250000' points = '351.1,458.4 351.1,662.4 353.0,662.4 353.0,453.9 '/>
		<polygon fill = 'rgb( 31, 120, 180)' fill-opacity = '0.250000' points = '353.0,453.9 353.0,662.4 354.9,662.4 354.9,450.0 '/>
		<polygon fill = 'rgb( 31, 120, 180)' fill-opacity = '0.250000' points = '354.9,450.0 354.9,662.4 356.8,662.4 356.8,446.6 '/>
		<polygon fill = 'rgb( 31, 120, 180)' fill-opacity = '0.250000' points = '356.8,446.6 356.8,662.4 358.7,662.4 358.7,443.9 '/>
		<polygon fill = 'rgb( 31, 120, 180)' fill-opacity = '0.250000' points = '358.7,443.9 358.7,662.4 360.6,662.4 360.6,441.7 '/>
		<polygon fill = 'rgb( 31, 120, 180)' fill-opacity = '0.250000' points = '360.6,441.7 360.6,662.4 362.5,662.4 362.5,440.1 '/>
		<polygon fill = 'rgb( 31, 120, 180)' fill-opacity = '0.250000' points = '362.5,440.1 362.5,662.4 364.4,662.4 364.4,439.1 '/>
		<polygon fill = 'rgb( 31, 120, 180)' fill-opacity = '0.250000' points = '364.4,439.1 364.4,662.4 366.3,662.4 366.3,438.5 '/>
		<polygon fill = 'rgb( 31, 120, 180)' fill-opacity = '0.250000' points = '366.3,438.5 366.3,662.4 368.2,662.4 368.2,438.4 '/>
		<polygon fill = 'rgb( 31, 120, 180)' fill-opacity = '0.250000' points = '368.2,438.4 368.2,662.4 370.1,662.4 370.1,438.5 '/>
		<polygon fill = 'rgb( 31, 120, 180)' fill-opacity = '0.250000' points = '370.1,438.5 370.1,662.4 372.0,662.4 372.0,438.9 '/>
		<polygon fill = 'rgb( 31, 120, 180)' fill-opacity = '0.250000' points = '372.0,438.9 372.0,662.4 373.9,662.4 373.9,439.4 '/>
		<polygon fill = 'rgb( 31, 120, 180)' fill-opacity = '0.250000' points = '373.9,439.4 373.9,662.4 375.8,662.4 375.8,440.0 '/>
		<polygon fill = 'rgb( 31, 120, 180)' fill-opacity = '0.250000' points = '375.8,440.0 375.8,662.4 377.7,662.4 377.7,440.4 '/>
		<polygon fill = 'rgb( 31, 120, 180)' fill-opacity = '0.250000' points = '377.7,440.4 377.7,662.4 379.6,662.4 379.6,440.7 '/>
		<polygon fill = 'rgb( 31, 120, 180)' fill-opacity = '0.250000' points = '379.6,440.7 379.6,662.4 381.5,662.4 381.5,440.8 '/>
		<polygon fill = 'rgb( 31, 120, 180)' fill-opacity = '0.250000' points = '381.5,440.8 381.5,662.4 383.4,662.4 383.4,440.6 '/>
		<polygon fill = 'rgb( 31, 120, 180)' fill-opacity = '0.250000' points = '383.4,440.6 383.4,662.4 385.3,662.4 385.3,440.0 '/>
		<polygon fill = 'rgb( 31, 120, 180)' fill-opacity = '0.250000' points = '385.3,440.0 385.3,662.4 387.2,662.4 387.2,439.0 '/>
		<polygon fill = 'rgb( 31, 120, 180)' fill-opacity = '0.250000' points = '387.2,439.0 387.2,662.4 389.2,662.4 389.2,437.7 '/>
		<polygon fill = 'rgb( 31, 120, 180)' fill-opacity = '0.250000' points = '389.2,437.7 389.2,662.4 391.1,662.4 391.1,435.9 '/>
		<polygon fill = 'rgb( 31, 120, 180)' fill-opacity = '0.250000' points = '391.1,435.9 391.1,662.4 393.0,662.4 393.0,433.8 '/>
		<polygon fill = 'rgb( 31, 120, 180)' fill-opacity = '0.250000' points = '393.0,433.8 393.0,662.4 394.9,662.4 394.9,431.3 '/>
		<polygon fill = 'rgb( 31, 120, 180)' fill-opacity = '0.250000' points = '394.9,431.3 394.9,662.4 396.8,662.4 396.8,428.5 '/>
		<polygon fill = 'rgb( 31, 120, 180)' fill-opacity = '0.250000' points = '396.8,428.5 396.8,662.4 398.7,662.4 398.7,425.6 '/>
		<polygon fill = 'rgb( 31, 120, 180)' fill-opacity = '0.250000' points = '398.7,425.6 398.7,662.4 400.6,662.4 400.6,422.4 '/>
		<polygon fill = 'rgb( 31, 120, 180)' fill-opacity = '0.250000' points = '400.6,422.4 400.6,662.4 402.5,662.4 402.5,419.2 '/>
		<polygon fill = 'rgb( 31, 120, 180)' fill-opacity = '0.250000' points = '402.5,419.2 402.5,662.4 404.4,662.4 404.4,416.1 '/>
		<polygon fill = 'rgb( 31, 120, 180)' fill-opacity = '0.250000' points = '404.4,416.1 404.4,662.4 406.3,662.4 406.3,413.0 '/>
		<polygon fill = 'rgb( 31, 120, 180)' fill-opacity = '0.250000' points = '406.3,413.0 406.3,662.4 408.2,662.4 408.2,410.0 '/>
		<polygon fill = 'rgb( 31, 120, 180)' fill-opacity = '0.250000' points = '408.2,410.0 408.2,662.4 410.1,662.4 410.1,407.2 '/>
		<polygon fill = 'rgb( 31, 120, 180)' fill-opacity = '0.250000' points = '410.1,407.2 410.1,662.4 412.0,662.4 412.0,404.7 '/>
		<polygon fill = 'rgb( 31, 120, 180)' fill-opacity = '0.250000' points = '412.0,404.7 412.0,662.4 413.9,662.4 413.9,402.3 '/>
		<polygon fill = 'rgb( 31, 120, 180)' fill-opacity = '0.250000' points = '413.9,402.3 413.9,662.4 415.8,662.4 415.8,400.2 '/>
		<polygon fill = 'rgb( 31, 120, 180)' fill-opacity = '0.250000' points = '415.8,400.2 415.8,662.4 417.7,662.4 417.7,398.3 '/>
		<polygon fill = 'rgb( 31, 120, 180)' fill-opacity = '0.250000' points = '417.7,398.3 417.7,662.4 419.6,662.4 419.6,396.6 '/>
		<polygon fill = 'rgb( 31, 120, 180)' fill-opacity = '0.250000' points = '419.6,396.6 419.6,662.4 421.5,662.4 421.5,394.9 '/>
		<polygon fill = 'rgb( 31, 120, 180)' fill-opacity = '0.250000' points = '421.5,394.9 421.5,662.4 423.4,662.4 423.4,393.3 '/>
		<polygon fill = 'rgb( 31, 120, 180)' fill-opacity = '0.250000' points = '423.4,393.3 423.4,662.4 425.3,662.4 425.3,391.5 '/>
		<polygon fill = 'rgb( 31, 120, 180)' fill-opacity = '0.250000' points = '425.3,391.5 425.3,662.4 427.2,662.4 427.2,389.7 '/>
		<polygon fill = 'rgb( 31, 120, 180)' fill-opacity = '0.250000' points = '427.2,389.7 427.2,662.4 429.1,662.4 429.1,387.6 '/>
		<polygon fill = 'rgb( 31, 120, 180)' fill-opacity = '0.250000' points = '429.1,387.6 429.1,662.4 431.0,662.4 431.0,385.1 '/>
		<polygon fill = 'rgb( 31, 120, 180)' fill-opacity = '0.250000' points = '431.0,385.1 431.0,662.4 432.9,662.4 432.9,382.2 '/>
		<polygon fill = 'rgb( 31, 120, 180)' fill-opacity = '0.250000' points = '432.9,382.2 432.9,662.4 434.8,662.4 434.8,378.8 '/>
		<polygon fill = 'rgb( 31, 120, 180)' fill-opacity = '0.250000' points = '434.8,378.8 434.8,662.4 436.7,662.4 436.7,375.0 '/>
		<polygon fill = 'rgb( 31, 120, 180)' fill-opacity = '0.250000' points = '436.7,375.0 436.7,662.4 438.7,662.4 438.7,370.5 '/>
		<polygon fill = 'rgb( 31, 120, 180)' fill-opacity = '0.250000' points = '438.7,370.5 438.7,662.4 440.6,662.4 440.6,365.5 '/>
		<polygon fill = 'rgb( 31, 120, 180)' fill-opacity = '0.250000' points = '440.6,365.5 440.6,662.4 442.5,662.4 442.5,360.1 '/>
		<polygon fill = 'rgb( 31, 120, 180)' fill-opacity = '0.250000' points = '442.5,360.1 442.5,662.4 444.4,662.4 444.4,354.1 '/>
		<polygon fill = 'rgb( 31, 120, 180)' fill-opacity = '0.250000' points = '444.4,354.1 444.4,662.4 446.3,662.4 446.3,347.8 '/>
		<polygon fill = 'rgb( 31, 120, 180)' fill-opacity = '0.250000' points = '446.3,347.8 446.3,662.4 448.2,662.4 448.2,341.2 '/>
		<polygon fill = 'rgb( 31, 120, 180)' fill-opacity = '0.250000' points = '448.2,341.2 448.2,662.4 450.1,662.4 450.1,334.4 '/>
		<polygon fill = 'rgb( 31, 120, 180)' fill-opacity = '0.250000' points = '450.1,334.4 450.1,662.4 452.0,662.4 452.0,327.6 '/>
		<polygon fill = 'rgb( 31, 120, 180)' fill-opacity = '0.250000' points = '452.0,327.6 452.0,662.4 453.9,662.4 453.9,320.9 '/>
		<polygon fill = 'rgb( 31, 120, 180)' fill-opacity = '0.250000' points = '453.9,320.9 453.9,662.4 455.8,662.4 455.8,314.5 '/>
		<polygon fill = 'rgb( 31, 120, 180)' fill-opacity = '0.250000' points = '455.8,314.5 455.8,662.4 457.7,662.4 457.7,308.5 '/>
		<polygon fill = 'rgb( 31, 120, 180)' fill-opacity = '0.250000' points = '457.7,308.5 457.7,662.4 459.6,662.4 459.6,302.9 '/>
		<polygon fill = 'rgb( 31, 120, 180)' fill-opacity = '0.250000' points = '459.6,302.9 459.6,662.4 461.5,662.4 461.5,298.0 '/>
		<polygon fill = 'rgb( 31, 120, 180)' fill-opacity = '0.250000' points = '461.5,298.0 461.5,662.4 463.4,662.4 463.4,293.8 '/>
		<polygon fill = 'rgb( 31, 120, 180)' fill-opacity = '0.250000' points = '463.4,293.8 463.4,662.4 465.3,662.4 465.3,290.3 '/>
		<polygon fill = 'rgb( 31, 120, 180)' fill-opacity = '0.250000' points = '465.3,290.3 465.3,662.4 467.2,662.4 467.2,287.6 '/>
		<polygon fill = 'rgb( 31, 120, 180)' fill-opacity = '0.250000' points = '467.2,287.6 467.2,662.4 469.1,662.4 469.1,285.7 '/>
		<polygon fill = 'rgb( 31, 120, 180)' fill-opacity = '0.250000' points = '469.1,285.7 469.1,662.4 471.0,662.4 471.0,284.6 '/>
		<polygon fill = 'rgb( 31, 120, 180)' fill-opacity = '0.250000' points = '471.0,284.6 471.0,662.4 472.9,662.4 472.9,284.1 '/>
		<polygon fill = 'rgb( 31, 120, 180)' fill-opacity = '0.250000' points = '472.9,284.1 472.9,662.4 474.8,662.4 474.8,284.3 '/>
		<polygon fill = 'rgb( 31, 120, 180)' fill-opacity = '0.250000' points = '474.8,284.3 474.8,662.4 476.7,662.4 476.7,284.9 '/>
		<polygon fill = 'rgb( 31, 120, 180)' fill-opacity = '0.250000' points = '476.7,284.9 476.7,662.4 478.6,662.4 478.6,285.9 '/>
		<polygon fill = 'rgb( 31, 120, 180)' fill-opacity = '0.250000' points = '478.6,285.9 478.6,662.4 480.5,662.4 480.5,287.2 '/>
		<polygon fill = 'rgb( 31, 120, 180)' fill-opacity = '0.250000' points = '480.5,287.2 480.5,662.4 482.4,662.4 482.4,288.7 '/>
		<polygon fill = 'rgb( 31, 120, 180)' fill-opacity = '0.250000' points = '482.4,288.7 482.4,662.4 484.3,662.4 484.3,290.1 '/>
		<polygon fill = 'rgb( 31, 120, 180)' fill-opacity = '0.250000' points = '484.3,290.1 484.3,662.4 486.2,662.4 486.2,291.4 '/>
		<polygon fill = 'rgb( 31, 120, 180)' fill-opacity = '0.250000' points = '486.2,291.4 486.2,662.4 488.1,662.4 488.1,292.5 '/>
		<polygon fill = 'rgb( 31, 120, 180)' fill-opacity = '0.250000' points = '488.1,292.5 488.1,662.4 490.1,662.4 490.1,293.3 '/>
		<polygon fill = 'rgb( 31, 120, 180)' fill-opacity = '0.250000' points = '490.1,293.3 490.1,662.4 492.0,662.4 492.0,293.8 '/>
		<polygon fill = 'rgb( 31, 120, 180)' fill-opacity = '0.250000' points = '492.0,293.8 492.0,662.4 493.9,662.4 493.9,293.9 '/>
		<polygon fill = 'rgb( 31, 120, 180)' fill-opacity = '0.250000' points = '493.9,293.9 493.9,662.4 495.8,662.4 495.8,293.5 '/>
		<polygon fill = 'rgb( 31, 120, 180)' fill-opacity = '0.250000' points = '495.8,293.5 495.8,662.4 497.7,662.4 497.7,292.8 '/>
		<polygon fill = 'rgb( 31, 120, 180)' fill-opacity = '0.250000' points = '497.7,292.8 497.7,662.4 499.6,662.4 499.6,291.7 '/>
		<polygon fill = 'rgb( 31, 120, 180)' fill-opacity = '0.250000' points = '499.6,291.7 499.6,662.4 501.5,662.4 501.5,290.2 '/>
		<polygon fill = 'rgb( 31, 120, 180)' fill-opacity = '0.250000' points = '501.5,290.2 501.5,662.4 503.4,662.4 503.4,288.6 '/>
		<polygon fill = 'rgb( 31, 120, 180)' fill-opacity = '0.250000' points = '503.4,288.6 503.4,662.4 505.3,662.4 505.3,286.7 '/>
		<polygon fill = 'rgb( 31, 120, 180)' fill-opacity = '0.250000' points = '505.3,286.7 505.3,662.4 507.2,662.4 507.2,284.8 '/>
		<polygon fill = 'rgb( 31, 120, 180)' fill-opacity = '0.250000' points = '507.2,284.8 507.2,662.4 509.1,662.4 509.1,282.8 '/>
		<polygon fill = 'rgb( 31, 120, 180)' fill-opacity = '0.250000' points = '509.1,282.8 509.1,662.4 511.0,662.4 511.0,280.9 '/>
		<polygon fill = 'rgb( 31, 120, 180)' fill-opacity = '0.250000' points = '511.0,280.9 511.0,662.4 512.9,662.4 512.9,279.1 '/>
		<polygon fill = 'rgb( 31, 120, 180)' fill-opacity = '0.250000' points = '512.9,279.1 512.9,662.4 514.8,662.4 514.8,277.5 '/>
		<polygon fill = 'rgb( 31, 120, 180)' fill-opacity = '0.250000' points = '514.8,277.5 514.8,662.4 516.7,662.4 516.7,276.1 '/>
		<polygon fill = 'rgb( 31, 120, 180)' fill-opacity = '0.250000' points = '516.7,276.1 516.7,662.4 518.6,662.4 518.6,274.8 '/>
		<polygon fill = 'rgb( 31, 120, 180)' fill-opacity = '0.250000' points = '518.6,274.8 518.6,662.4 520.5,662.4 520.5,273.9 '/>
		<polygon fill = 'rgb( 31, 120, 180)' fill-opacity = '0.250000' points = '520.5,273.9 520.5,662.4 522.4,662.4 522.4,273.1 '/>
		<polygon fill = 'rgb( 31, 120, 180)' fill-opacity = '0.250000' points = '522.4,273.1 522.4,662.4 524.3,662.4 524.3,272.5 '/>
		<polygon fill = 'rgb( 31, 120, 180)' fill-opacity = '0.250000' points = '524.3,272.5 524.3,662.4 526.2,662.4 526.2,272.1 '/>
		<polygon fill = 'rgb( 31, 120, 180)' fill-opacity = '0.250000' points = '526.2,272.1 526.2,662.4 528.1,662.4 528.1,271.8 '/>
		<polygon fill = 'rgb( 31, 120, 180)' fill-opacity = '0.250000' points = '528.1,271.8 528.1,662.4 530.0,662.4 530.0,271.5 '/>
		<polygon fill = 'rgb( 31, 120, 180)' fill-opacity = '0.250000' points = '530.0,271.5 530.0,662.4 531.9,662.4 531.9,271.4 '/>
		<polygon fill = 'rgb( 31, 120, 180)' fill-opacity = '0.250000' points = '531.9,271.4 531.9,662.4 533.8,662.4 533.8,271.2 '/>
		<polygon fill = 'rgb( 31, 120, 180)' fill-opacity = '0.250000' points = '533.8,271.2 533.8,662.4 535.7,662.4 535.7,271.0 '/>
		<polygon fill = 'rgb( 31, 120, 180)' fill-opacity = '0.250000' points = '535.7,271.0 535.7,662.4 537.6,662.4 537.6,270.8 '/>
		<polygon fill = 'rgb( 31, 120, 180)' fill-opacity = '0.250000' points = '537.6,270.8 537.6,662.4 539.6,662.4 539.6,270.6 '/>
		<polygon fill = 'rgb( 31, 120, 180)' fill-opacity = '0.250000' points = '539.6,270.6 539.6,662.4 541.5,662.4 541.5,270.4 '/>
		<polygon fill = 'rgb( 31, 120, 180)' fill-opacity = '0.250000' points = '541.5,270.4 541.5,662.4 543.4,662.4 543.4,270.2 '/>
		<polygon fill = 'rgb( 31, 120, 180)' fill-opacity = '0.250000' points = '543.4,270.2 543.4,662.4 545.3,662.4 545.3,270.0 '/>
		<polygon fill = 'rgb( 31, 120, 180)' fill-opacity = '0.250000' points = '545.3,270.0 545.3,662.4 547.2,662.4 547.2,270.1 '/>
		<polygon fill = 'rgb( 31, 120, 180)' fill-opacity = '0.250000' points = '547.2,270.1 547.2,662.4 549.1,662.4 549.1,270.3 '/>
		<polygon fill = 'rgb( 31, 120, 180)' fill-opacity = '0.250000' points = '549.1,270.3 549.1,662.4 551.0,662.4 551.0,270.7 '/>
		<polygon fill = 'rgb( 31, 120, 180)' fill-opacity = '0.250000' points = '551.0,270.7 551.0,662.4 552.9,662.4 552.9,271.5 '/>
		<polygon fill = 'rgb( 31, 120, 180)' fill-opacity = '0.250000' points = '552.9,271.5 552.9,662.4 554.8,662.4 554.8,272.7 '/>
		<polygon fill = 'rgb( 31, 120, 180)' fill-opacity = '0.250000' points = '554.8,272.7 554.8,662.4 556.7,662.4 556.7,274.4 '/>
		<polygon fill = 'rgb( 31, 120, 180)' fill-opacity = '0.250000' points = '556.7,274.4 556.7,662.4 558.6,662.4 558.6,276.6 '/>
		<polygon fill = 'rgb( 31, 120, 180)' fill-opacity = '0.250000' points = '558.6,276.6 558.6,662.4 560.5,662.4 560.5,279.4 '/>
		<polygon fill = 'rgb( 31, 120, 180)' fill-opacity = '0.250000' points = '560.5,279.4 560.5,662.4 562.4,662.4 562.4,282.8 '/>
		<polygon fill = 'rgb( 31, 120, 180)' fill-opacity = '0.250000' points = '562.4,282.8 562.4,662.4 564.3,662.4 564.3,286.7 '/>
		<polygon fill = 'rgb( 31, 120, 180)' fill-opacity = '0.250000' points = '564.3,286.7 564.3,662.4 566.2,662.4 566.2,291.3 '/>
		<polygon fill = 'rgb( 31, 120, 180)' fill-opacity = '0.250000' points = '566.2,291.3 566.2,662.4 568.1,662.4 568.1,296.4 '/>
		<polygon fill = 'rgb( 31, 120, 180)' fill-opacity = '0.250000' points = '568.1,296.4 568.1,662.4 570.0,662.4 570.0,302.0 '/>
		<polygon fill = 'rgb( 31, 120, 180)' fill-opacity = '0.250000' points = '570.0,302.0 570.0,662.4 571.9,662.4 571.9,308.0 '/>
		<polygon fill = 'rgb( 31, 120, 180)' fill-opacity = '0.250000' points = '571.9,308.0 571.9,662.4 573.8,662.4 573.8,314.5 '/>
		<polygon fill = 'rgb( 31, 120, 180)' fill-opacity = '0.250000' points = '573.8,314.5 573.8,662.4 575.7,662.4 575.7,321.2 '/>
		<polygon fill = 'rgb( 31, 120, 180)' fill-opacity = '0.250000' points = '575.7,321.2 575.7,662.4 577.6,662.4 577.6,328.0 '/>
		<polygon fill = 'rgb( 31, 120, 180)' fill-opacity = '0.250000' points = '577.6,328.0 577.6,662.4 579.5,662.4 579.5,334.9 '/>
		<polygon fill = 'rgb( 31, 120, 180)' fill-opacity = '0.250000' points = '579.5,334.9 579.5,662.4 581.4,662.4 581.4,341.7 '/>
		<polygon fill = 'rgb( 31, 120, 180)' fill-opacity = '0.250000' points = '581.4,341.7 581.4,662.4 583.3,662.4 583.3,348.2 '/>
		<polygon fill = 'rgb( 31, 120, 180)' fill-opacity = '0.250000' points = '583.3,348.2 583.3,662.4 585.2,662.4 585.2,354.4 '/>
		<polygon fill = 'rgb( 31, 120, 180)' fill-opacity = '0.250000' points = '585.2,354.4 585.2,662.4 587.1,662.4 587.1,360.1 '/>
		<polygon fill = 'rgb( 31, 120, 180)' fill-opacity = '0.250000' points = '587.1,360.1 587.1,662.4 589.1,662.4 589.1,365.2 '/>
		<polygon fill = 'rgb( 31, 120, 180)' fill-opacity = '0.250000' points = '589.1,365.2 589.1,662.4 591.0,662.4 591.0,369.6 '/>
		<polygon fill = 'rgb( 31, 120, 180)' fill-opacity = '0.250000' points = '591.0,369.6 591.0,662.4 592.9,662.4 592.9,373.1 '/>
		<polygon fill = 'rgb( 31, 120, 180)' fill-opacity = '0.250000' points = '592.9,373.1 592.9,662.4 594.8,662.4 594.8,375.7 '/>
		<polygon fill = 'rgb( 31, 120, 180)' fill-opacity = '0.250000' points = '594.8,375.7 594.8,662.4 596.7,662.4 596.7,377.2 '/>
		<polygon fill = 'rgb( 31, 120, 180)' fill-opacity = '0.250000' points = '596.7,377.2 596.7,662.4 598.6,662.4 598.6,377.7 '/>
		<polygon fill = 'rgb( 31, 120, 180)' fill-opacity = '0.250000' points = '598.6,377.7 598.6,662.4 600.5,662.4 600.5,377.1 '/>
		<polygon fill = 'rgb( 31, 120, 180)' fill-opacity = '0.250000' points = '600.5,377.1 600.5,662.4 602.4,662.4 602.4,375.4 '/>
		<polygon fill = 'rgb( 31, 120, 180)' fill-opacity = '0.250000' points = '602.4,375.4 602.4,662.4 604.3,662.4 604.3,372.6 '/>
		<polygon fill = 'rgb( 31, 120, 180)' fill-opacity = '0.250000' points = '604.3,372.6 604.3,662.4 606.2,662.4 606.2,368.8 '/>
		<polygon fill = 'rgb( 31, 120, 180)' fill-opacity = '0.250000' points = '606.2,368.8 606.2,662.4 608.1,662.4 608.1,363.9 '/>
		<polygon fill = 'rgb( 31, 120, 180)' fill-opacity = '0.250000' points = '608.1,363.9 608.1,662.4 610.0,662.4 610.0,358.3 '/>
		<polygon fill = 'rgb( 31, 120, 180)' fill-opacity = '0.250000' points = '610.0,358.3 610.0,662.4 611.9,662.4 611.9,351.8 '/>
		<polygon fill = 'rgb( 31, 120, 180)' fill-opacity = '0.250000' points = '611.9,351.8 611.9,662.4 613.8,662.4 613.8,344.8 '/>
		<polygon fill = 'rgb( 31, 120, 180)' fill-opacity = '0.250000' points = '613.8,344.8 613.8,662.4 615.7,662.4 615.7,337.4 '/>
		<polygon fill = 'rgb( 31, 120, 180)' fill-opacity = '0.250000' points = '615.7,337.4 615.7,662.4 617.6,662.4 617.6,329.7 '/>
		<polygon fill = 'rgb( 31, 120, 180)' fill-opacity = '0.250000' points = '617.6,329.7 617.6,662.4 619.5,662.4 619.5,322.0 '/>
		<polygon fill = 'rgb( 31, 120, 180)' fill-opacity = '0.250000' points = '619.5,322.0 619.5,662.4 621.4,662.4 621.4,314.5 '/>
		<polygon fill = 'rgb( 31, 120, 180)' fill-opacity = '0.250000' points = '621.4,314.5 621.4,662.4 623.3,662.4 623.3,307.4 '/>
		<polygon fill = 'rgb( 31, 120, 180)' fill-opacity = '0.250000' points = '623.3,307.4 623.3,662.4 625.2,662.4 625.2,300.9 '/>
		<polygon fill = 'rgb( 31, 120, 180)' fill-opacity = '0.250000' points = '625.2,300.9 625.2,662.4 627.1,662.4 627.1,295.1 '/>
		<polygon fill = 'rgb( 31, 120, 180)' fill-opacity = '0.250000' points = '627.1,295.1 627.1,662.4 629.0,662.4 629.0,290.4 '/>
		<polygon fill = 'rgb( 31, 120, 180)' fill-opacity = '0.250000' points = '629.0,290.4 629.0,662.4 630.9,662.4 630.9,286.8 '/>
		<polygon fill = 'rgb( 31, 120, 180)' fill-opacity = '0.250000' points = '630.9,286.8 630.9,662.4 632.8,662.4 632.8,284.4 '/>
		<polygon fill = 'rgb( 31, 120, 180)' fill-opacity = '0.250000' points = '632.8,284.4 632.8,662.4 634.7,662.4 634.7,283.4 '/>
		<polygon fill = 'rgb( 31, 120, 180)' fill-opacity = '0.250000' points = '634.7,283.4 634.7,662.4 636.6,662.4 636.6,283.7 '/>
		<polygon fill = 'rgb( 31, 120, 180)' fill-opacity = '0.250000' points = '636.6,283.7 636.6,662.4 638.5,662.4 638.5,285.4 '/>
		<polygon fill = 'rgb( 31, 120, 180)' fill-opacity = '0.250000' points = '638.5,285.4 638.5,662.4 640.5,662.4 640.5,288.5 '/>
		<polygon fill = 'rgb( 31, 120, 180)' fill-opacity = '0.250000' points = '640.5,288.5 640.5,662.4 642.4,662.4 642.4,292.9 '/>
		<polygon fill = 'rgb( 31, 120, 180)' fill-opacity = '0.250000' points = '642.4,292.9 642.4,662.4 644.3,662.4 644.3,298.4 '/>
		<polygon fill = 'rgb( 31, 120, 180)' fill-opacity = '0.250000' points = '644.3,298.4 644.3,662.4 646.2,662.4 646.2,304.9 '/>
		<polygon fill = 'rgb( 31, 120, 180)' fill-opacity = '0.250000' points = '646.2,304.9 646.2,662.4 648.1,662.4 648.1,312.3 '/>
		<polygon fill = 'rgb( 31, 120, 180)' fill-opacity = '0.250000' points = '648.1,312.3 648.1,662.4 650.0,662.4 650.0,320.2 '/>
		<polygon fill = 'rgb( 31, 120, 180)' fill-opacity = '0.250000' points = '650.0,320.2 650.0,662.4 651.9,662.4 651.9,328.6 '/>
		<polygon fill = 'rgb( 31, 120, 180)' fill-opacity = '0.250000' points = '651.9,328.6 651.9,662.4 653.8,662.4 653.8,337.0 '/>
		<polygon fill = 'rgb( 31, 120, 180)' fill-opacity = '0.250000' points = '653.8,337.0 653.8,662.4 655.7,662.4 655.7,345.4 '/>
		<polygon fill = 'rgb( 31, 120, 180)' fill-opacity = '0.250000' points = '655.7,345.4 655.7,662.4 657.6,662.4 657.6,353.3 '/>
		<polygon fill = 'rgb( 31, 120, 180)' fill-opacity = '0.250000' points = '657.6,353.3 657.6,662.4 659.5,662.4 659.5,360.6 '/>
		<polygon fill = 'rgb( 31, 120, 180)' fill-opacity = '0.250000' points = '659.5,360.6 659.5,662.4 661.4,662.4 661.4,367.0 '/>
		<polygon fill = 'rgb( 31, 120, 180)' fill-opacity = '0.250000' points = '661.4,367.0 661.4,662.4 663.3,662.4 663.3,372.4 '/>
		<polygon fill = 'rgb( 31, 120, 180)' fill-opacity = '0.250000' points = '663.3,372.4 663.3,662.4 665.2,662.4 665.2,376.5 '/>
		<polygon fill = 'rgb( 31, 120, 180)' fill-opacity = '0.250000' points = '665.2,376.5 665.2,662.4 667.1,662.4 667.1,379.2 '/>
		<polygon fill = 'rgb( 31, 120, 180)' fill-opacity = '0.250000' points = '667.1,379.2 667.1,662.4 669.0,662.4 669.0,380.4 '/>
		<polygon fill = 'rgb( 31, 120, 180)' fill-opacity = '0.250000' points = '669.0,380.4 669.0,662.4 670.9,662.4 670.9,380.0 '/>
		<polygon fill = 'rgb( 31, 120, 180)' fill-opacity = '0.250000' points = '670.9,380.0 670.9,662.4 672.8,662.4 672.8,378.1 '/>
		<polygon fill = 'rgb( 31, 120, 180)' fill-opacity = '0.250000' points = '672.8,378.1 672.8,662.4 674.7,662.4 674.7,374.5 '/>
		<polygon fill = 'rgb( 31, 120, 180)' fill-opacity = '0.250000' points = '674.7,374.5 674.7,662.4 676.6,662.4 676.6,369.4 '/>
		<polygon fill = 'rgb( 31, 120, 180)' fill-opacity = '0.250000' points = '676.6,369.4 676.6,662.4 678.5,662.4 678.5,362.8 '/>
		<polygon fill = 'rgb( 31, 120, 180)' fill-opacity = '0.250000' points = '678.5,362.8 678.5,662.4 680.4,662.4 680.4,355.0 '/>
		<polygon fill = 'rgb( 31, 120, 180)' fill-opacity = '0.250000' points = '680.4,355.0 680.4,662.4 682.3,662.4 682.3,346.1 '/>
		<polygon fill = 'rgb( 31, 120, 180)' fill-opacity = '0.250000' points = '682.3,346.1 682.3,662.4 684.2,662.4 684.2,336.3 '/>
		<polygon fill = 'rgb( 31, 120, 180)' fill-opacity = '0.250000' points = '684.2,336.3 684.2,662.4 686.1,662.4 686.1,325.8 '/>
		<polygon fill = 'rgb( 31, 120, 180)' fill-opacity = '0.250000' points = '686.1,325.8 686.1,662.4 688.0,662.4 688.0,314.9 '/>
		<polygon fill = 'rgb( 31, 120, 180)' fill-opacity = '0.250000' points = '688.0,314.9 688.0,662.4 690.0,662.4 690.0,303.9 '/>
		<polygon fill = 'rgb( 31, 120, 180)' fill-opacity = '0.250000' points = '690.0,303.9 690.0,662.4 691.9,662.4 691.9,293.0 '/>
		<polygon fill = 'rgb( 31, 120, 180)' fill-opacity = '0.250000' points = '691.9,293.0 691.9,662.4 693.8,662.4 693.8,282.5 '/>
		<polygon fill = 'rgb( 31, 120, 180)' fill-opacity = '0.250000' points = '693.8,282.5 693.8,662.4 695.7,662.4 695.7,272.7 '/>
		<polygon fill = 'rgb( 31, 120, 180)' fill-opacity = '0.250000' points = '695.7,272.7 695.7,662.4 697.6,662.4 697.6,263.7 '/>
		<polygon fill = 'rgb( 31, 120, 180)' fill-opacity = '0.250000' points = '697.6,263.7 697.6,662.4 699.5,662.4 699.5,255.9 '/>
		<polygon fill = 'rgb( 31, 120, 180)' fill-opacity = '0.250000' points = '699.5,255.9 699.5,662.4 701.4,662.4 701.4,249.5 '/>
		<polygon fill = 'rgb( 31, 120, 180)' fill-opacity = '0.250000' points = '701.4,249.5 701.4,662.4 703.3,662.4 703.3,244.5 '/>
		<polygon fill = 'rgb( 31, 120, 180)' fill-opacity = '0.250000' points = '703.3,244.5 703.3,662.4 705.2,662.4 705.2,241.1 '/>
		<polygon fill = 'rgb( 31, 120, 180)' fill-opacity = '0.250000' points = '705.2,241.1 705.2,662.4 707.1,662.4 707.1,239.4 '/>
		<polygon fill = 'rgb( 31, 120, 180)' fill-opacity = '0.250000' points = '707.1,239.4 707.1,662.4 709.0,662.4 709.0,239.4 '/>
		<polygon fill = 'rgb( 31, 120, 180)' fill-opacity = '0.250000' points = '709.0,239.4 709.0,662.4 710.9,662.4 710.9,241.0 '/>
		<polygon fill = 'rgb( 31, 120, 180)' fill-opacity = '0.250000' points = '710.9,241.0 710.9,662.4 712.8,662.4 712.8,244.3 '/>
		<polygon fill = 'rgb( 31, 120, 180)' fill-opacity = '0.250000' points = '712.8,244.3 712.8,662.4 714.7,662.4 714.7,249.2 '/>
		<polygon fill = 'rgb( 31, 120, 180)' fill-opacity = '0.250000' points = '714.7,249.2 714.7,662.4 716.6,662.4 716.6,255.3 '/>
		<polygon fill = 'rgb( 31, 120, 180)' fill-opacity = '0.250000' points = '716.6,255.3 716.6,662.4 718.5,662.4 718.5,262.7 '/>
		<polygon fill = 'rgb( 31, 120, 180)' fill-opacity = '0.250000' points = '718.5,262.7 718.5,662.4 720.4,662.4 720.4,271.0 '/>
		<polygon fill = 'rgb( 31, 120, 180)' fill-opacity = '0.250000' points = '720.4,271.0 720.4,662.4 722.3,662.4 722.3,280.0 '/>
		<polygon fill = 'rgb( 31, 120, 180)' fill-opacity = '0.250000' points = '722.3,280.0 722.3,662.4 724.2,662.4 724.2,289.5 '/>
		<polygon fill = 'rgb( 31, 120, 180)' fill-opacity = '0.250000' points = '724.2,289.5 724.2,662.4 726.1,662.4 726.1,299.2 '/>
		<polygon fill = 'rgb( 31, 120, 180)' fill-opacity = '0.250000' points = '726.1,299.2 726.1,662.4 728.0,662.4 728.0,308.7 '/>
		<polygon fill = 'rgb( 31, 120, 180)' fill-opacity = '0.250000' points = '728.0,308.7 728.0,662.4 729.9,662.4 729.9,318.0 '/>
		<polygon fill = 'rgb( 31, 120, 180)' fill-opacity = '0.250000' points = '729.9,318.0 729.9,662.4 731.8,662.4 731.8,326.6 '/>
		<polygon fill = 'rgb( 31, 120, 180)' fill-opacity = '0.250000' points = '731.8,326.6 731.8,662.4 733.7,662.4 733.7,334.4 '/>
		<polygon fill = 'rgb( 31, 120, 180)' fill-opacity = '0.250000' points = '733.7,334.4 733.7,662.4 735.6,662.4 735.6,341.2 '/>
		<polygon fill = 'rgb( 31, 120, 180)' fill-opacity = '0.250000' points = '735.6,341.2 735.6,662.4 737.5,662.4 737.5,346.8 '/>
		<polygon fill = 'rgb( 31, 120, 180)' fill-opacity = '0.250000' points = '737.5,346.8 737.5,662.4 739.5,662.4 739.5,351.1 '/>
		<polygon fill = 'rgb( 31, 120, 180)' fill-opacity = '0.250000' points = '739.5,351.1 739.5,662.4 741.4,662.4 741.4,354.1 '/>
		<polygon fill = 'rgb( 31, 120, 180)' fill-opacity = '0.250000' points = '741.4,354.1 741.4,662.4 743.3,662.4 743.3,355.6 '/>
		<polygon fill = 'rgb( 31, 120, 180)' fill-opacity = '0.250000' points = '743.3,355.6 743.3,662.4 745.2,662.4 745.2,355.8 '/>
		<polygon fill = 'rgb( 31, 120, 180)' fill-opacity = '0.250000' points = '745.2,355.8 745.2,662.4 747.1,662.4 747.1,354.6 '/>
		<polygon fill = 'rgb( 31, 120, 180)' fill-opacity = '0.250000' points = '747.1,354.6 747.1,662.4 749.0,662.4 749.0,352.2 '/>
		<polygon fill = 'rgb( 31, 120, 180)' fill-opacity = '0.250000' points = '749.0,352.2 749.0,662.4 750.9,662.4 750.9,348.7 '/>
		<polygon fill = 'rgb( 31, 120, 180)' fill-opacity = '0.250000' points = '750.9,348.7 750.9,662.4 752.8,662.4 752.8,344.2 '/>
		<polygon fill = 'rgb( 31, 120, 180)' fill-opacity = '0.250000' points = '752.8,344.2 752.8,662.4 754.7,662.4 754.7,339.0 '/>
		<polygon fill = 'rgb( 31, 120, 180)' fill-opacity = '0.250000' points = '754.7,339.0 754.7,662.4 756.6,662.4 756.6,333.3 '/>
		<polygon fill = 'rgb( 31, 120, 180)' fill-opacity = '0.250000' points = '756.6,333.3 756.6,662.4 758.5,662.4 758.5,327.2 '/>
		<polygon fill = 'rgb( 31, 120, 180)' fill-opacity = '0.250000' points = '758.5,327.2 758.5,662.4 760.4,662.4 760.4,321.0 '/>
		<polygon fill = 'rgb( 31, 120, 180)' fill-opacity = '0.250000' points = '760.4,321.0 760.4,662.4 762.3,662.4 762.3,314.9 '/>
		<polygon fill = 'rgb( 31, 120, 180)' fill-opacity = '0.250000' points = '762.3,314.9 762.3,662.4 764.2,662.4 764.2,309.1 '/>
		<polygon fill = 'rgb( 31, 120, 180)' fill-opacity = '0.250000' points = '764.2,309.1 764.2,662.4 766.1,662.4 766.1,303.7 '/>
		<polygon fill = 'rgb( 31, 120, 180)' fill-opacity = '0.250000' points = '766.1,303.7 766.1,662.4 768.0,662.4 768.0,299.0 '/>
		<polygon fill = 'rgb( 31, 120, 180)' fill-opacity = '0.250000' points = '768.0,299.0 768.0,662.4 769.9,662.4 769.9,295.1 '/>
		<polygon fill = 'rgb( 31, 120, 180)' fill-opacity = '0.250000' points = '769.9,295.1 769.9,662.4 771.8,662.4 771.8,292.0 '/>
		<polygon fill = 'rgb( 31, 120, 180)' fill-opacity = '0.250000' points = '771.8,292.0 771.8,662.4 773.7,662.4 773.7,289.7 '/>
		<polygon fill = 'rgb( 31, 120, 180)' fill-opacity = '0.250000' points = '773.7,289.7 773.7,662.4 775.6,662.4 775.6,288.4 '/>
		<polygon fill = 'rgb( 31, 120, 180)' fill-opacity = '0.250000' points = '775.6,288.4 775.6,662.4 777.5,662.4 777.5,287.9 '/>
		<polygon fill = 'rgb( 31, 120, 180)' fill-opacity = '0.250000' points = '777.5,287.9 777.5,662.4 779.4,662.4 779.4,288.2 '/>
		<polygon fill = 'rgb( 31, 120, 180)' fill-opacity = '0.250000' points = '779.4,288.2 779.4,662.4 781.3,662.4 781.3,289.3 '/>
		<polygon fill = 'rgb( 31, 120, 180)' fill-opacity = '0.250000' points = '781.3,289.3 781.3,662.4 783.2,662.4 783.2,290.9 '/>
		<polygon fill = 'rgb( 31, 120, 180)' fill-opacity = '0.250000' points = '783.2,290.9 783.2,662.4 785.1,662.4 785.1,293.0 '/>
		<polygon fill = 'rgb( 31, 120, 180)' fill-opacity = '0.250000' points = '785.1,293.0 785.1,662.4 787.0,662.4 787.0,295.4 '/>
		<polygon fill = 'rgb( 31, 120, 180)' fill-opacity = '0.250000' points = '787.0,295.4 787.0,662.4 789.0,662.4 789.0,297.8 '/>
		<polygon fill = 'rgb( 31, 120, 180)' fill-opacity = '0.250000' points = '789.0,297.8 789.0,662.4 790.9,662.4 790.9,300.2 '/>
		<polygon fill = 'rgb( 31, 120, 180)' fill-opacity = '0.250000' points = '790.9,300.2 790.9,662.4 792.8,662.4 792.8,302.3 '/>
		<polygon fill = 'rgb( 31, 120, 180)' fill-opacity = '0.250000' points = '792.8,302.3 792.8,662.4 794.7,662.4 794.7,303.9 '/>
		<polygon fill = 'rgb( 31, 120, 180)' fill-opacity = '0.250000' points = '794.7,303.9 794.7,662.4 796.6,662.4 796.6,304.9 '/>
		<polygon fill = 'rgb( 31, 120, 180)' fill-opacity = '0.250000' points = '796.6,304.9 796.6,662.4 798.5,662.4 798.5,305.2 '/>
		<polygon fill = 'rgb( 31, 120, 180)' fill-opacity = '0.250000' points = '798.5,305.2 798.5,662.4 800.4,662.4 800.4,304.6 '/>
		<polygon fill = 'rgb( 31, 120, 180)' fill-opacity = '0.250000' points = '800.4,304.6 800.4,662.4 802.3,662.4 802.3,303.0 '/>
		<polygon fill = 'rgb( 31, 120, 180)' fill-opacity = '0.250000' points = '802.3,303.0 802.3,662.4 804.2,662.4 804.2,300.3 '/>
		<polygon fill = 'rgb( 31, 120, 180)' fill-opacity = '0.250000' points = '804.2,300.3 804.2,662.4 806.1,662.4 806.1,296.6 '/>
		<polygon fill = 'rgb( 31, 120, 180)' fill-opacity = '0.250000' points = '806.1,296.6 806.1,662.4 808.0,662.4 808.0,291.8 '/>
		<polygon fill = 'rgb( 31, 120, 180)' fill-opacity = '0.250000' points = '808.0,291.8 808.0,662.4 809.9,662.4 809.9,285.9 '/>
		<polygon fill = 'rgb( 31, 120, 180)' fill-opacity = '0.250000' points = '809.9,285.9 809.9,662.4 811.8,662.4 811.8,279.0 '/>
		<polygon fill = 'rgb( 31, 120, 180)' fill-opacity = '0.250000' points = '811.8,279.0 811.8,662.4 813.7,662.4 813.7,271.2 '/>
		<polygon fill = 'rgb( 31, 120, 180)' fill-opacity = '0.250000' points = '813.7,271.2 813.7,662.4 815.6,662.4 815.6,262.5 '/>
		<polygon fill = 'rgb( 31, 120, 180)' fill-opacity = '0.250000' points = '815.6,262.5 815.6,662.4 817.5,662.4 817.5,253.1 '/>
		<polygon fill = 'rgb( 31, 120, 180)' fill-opacity = '0.250000' points = '817.5,253.1 817.5,662.4 819.4,662.4 819.4,243.1 '/>
		<polygon fill = 'rgb( 31, 120, 180)' fill-opacity = '0.250000' points = '819.4,243.1 819.4,662.4 821.3,662.4 821.3,232.7 '/>
		<polygon fill = 'rgb( 31, 120, 180)' fill-opacity = '0.250000' points = '821.3,232.7 821.3,662.4 823.2,662.4 823.2,222.1 '/>
		<polygon fill = 'rgb( 31, 120, 180)' fill-opacity = '0.250000' points = '823.2,222.1 823.2,662.4 825.1,662.4 825.1,211.3 '/>
		<polygon fill = 'rgb( 31, 120, 180)' fill-opacity = '0.250000' points = '825.1,211.3 825.1,662.4 827.0,662.4 827.0,200.6 '/>
		<polygon fill = 'rgb( 31, 120, 180)' fill-opacity = '0.250000' points = '827.0,200.6 827.0,662.4 828.9,662.4 828.9,190.2 '/>
		<polygon fill = 'rgb( 31, 120, 180)' fill-opacity = '0.250000' points = '828.9,190.2 828.9,662.4 830.8,662.4 830.8,180.0 '/>
		<polygon fill = 'rgb( 31, 120, 180)' fill-opacity = '0.250000' points = '830.8,180.0 830.8,662.4 832.7,662.4 832.7,170.3 '/>
		<polygon fill = 'rgb( 31, 120, 180)' fill-opacity = '0.250000' points = '832.7,170.3 832.7,662.4 834.6,662.4 834.6,161.3 '/>
		<polygon fill = 'rgb( 31, 120, 180)' fill-opacity = '0.250000' points = '834.6,161.3 834.6,662.4 836.5,662.4 836.5,152.9 '/>
		<polygon fill = 'rgb( 31, 120, 180)' fill-opacity = '0.250000' points = '836.5,152.9 836.5,662.4 838.4,662.4 838.4,145.4 '/>
		<polygon fill = 'rgb( 31, 120, 180)' fill-opacity = '0.250000' points = '838.4,145.4 838.4,662.4 840.4,662.4 840.4,138.7 '/>
		<polygon fill = 'rgb( 31, 120, 180)' fill-opacity = '0.250000' points = '840.4,138.7 840.4,662.4 842.3,662.4 842.3,132.9 '/>
		<polygon fill = 'rgb( 31, 120, 180)' fill-opacity = '0.250000' points = '842.3,132.9 842.3,662.4 844.2,662.4 844.2,128.1 '/>
		<polygon fill = 'rgb( 31, 120, 180)' fill-opacity = '0.250000' points = '844.2,128.1 844.2,662.4 846.1,662.4 846.1,124.3 '/>
		<polygon fill = 'rgb( 31, 120, 180)' fill-opacity = '0.250000' points = '846.1,124.3 846.1,662.4 848.0,662.4 848.0,121.5 '/>
		<polygon fill = 'rgb( 31, 120, 180)' fill-opacity = '0.250000' points = '848.0,121.5 848.0,662.4 849.9,662.4 849.9,119.7 '/>
		<polygon fill = 'rgb( 31, 120, 180)' fill-opacity = '0.250000' points = '849.9,119.7 849.9,662.4 851.8,662.4 851.8,118.9 '/>
		<polygon fill = 'rgb( 31, 120, 180)' fill-opacity = '0.250000' points = '851.8,118.9 851.8,662.4 853.7,662.4 853.7,119.0 '/>
		<polygon fill = 'rgb( 31, 120, 180)' fill-opacity = '0.250000' points = '853.7,119.0 853.7,662.4 855.6,662.4 855.6,120.1 '/>
		<polygon fill = 'rgb( 31, 120, 180)' fill-opacity = '0.250000' points = '855.6,120.1 855.6,662.4 857.5,662.4 857.5,122.0 '/>
		<polygon fill = 'rgb( 31, 120, 180)' fill-opacity = '0.250000' points = '857.5,122.0 857.5,662.4 859.4,662.4 859.4,124.8 '/>
		<polygon fill = 'rgb( 31, 120, 180)' fill-opacity = '0.250000' points = '859.4,124.8 859.4,662.4 861.3,662.4 861.3,128.5 '/>
		<polygon fill = 'rgb( 31, 120, 180)' fill-opacity = '0.250000' points = '861.3,128.5 861.3,662.4 863.2,662.4 863.2,132.8 '/>
		<polygon fill = 'rgb( 31, 120, 180)' fill-opacity = '0.250000' points = '863.2,132.8 863.2,662.4 865.1,662.4 865.1,137.9 '/>
		<polygon fill = 'rgb( 31, 120, 180)' fill-opacity = '0.250000' points = '865.1,137.9 865.1,662.4 867.0,662.4 867.0,143.7 '/>
		<polygon fill = 'rgb( 31, 120, 180)' fill-opacity = '0.250000' points = '867.0,143.7 867.0,662.4 868.9,662.4 868.9,150.0 '/>
		<polygon fill = 'rgb( 31, 120, 180)' fill-opacity = '0.250000' points = '868.9,150.0 868.9,662.4 870.8,662.4 870.8,156.9 '/>
		<polygon fill = 'rgb( 31, 120, 180)' fill-opacity = '0.250000' points = '870.8,156.9 870.8,662.4 872.7,662.4 872.7,164.2 '/>
		<polygon fill = 'rgb( 31, 120, 180)' fill-opacity = '0.250000' points = '872.7,164.2 872.7,662.4 874.6,662.4 874.6,172.0 '/>
		<polygon fill = 'rgb( 31, 120, 180)' fill-opacity = '0.250000' points = '874.6,172.0 874.6,662.4 876.5,662.4 876.5,180.2 '/>
		<polygon fill = 'rgb( 31, 120, 180)' fill-opacity = '0.250000' points = '876.5,180.2 876.5,662.4 878.4,662.4 878.4,188.6 '/>
		<polygon fill = 'rgb( 31, 120, 180)' fill-opacity = '0.250000' points = '878.4,188.6 878.4,662.4 880.3,662.4 880.3,197.4 '/>
		<polygon fill = 'rgb( 31, 120, 180)' fill-opacity = '0.250000' points = '880.3,197.4 880.3,662.4 882.2,662.4 882.2,206.4 '/>
		<polygon fill = 'rgb( 31, 120, 180)' fill-opacity = '0.250000' points = '882.2,206.4 882.2,662.4 884.1,662.4 884.1,215.6 '/>
		<polygon fill = 'rgb( 31, 120, 180)' fill-opacity = '0.250000' points = '884.1,215.6 884.1,662.4 886.0,662.4 886.0,225.0 '/>
		<polygon fill = 'rgb( 31, 120, 180)' fill-opacity = '0.250000' points = '886.0,225.0 886.0,662.4 887.9,662.4 887.9,234.4 '/>
		<polygon fill = 'rgb( 31, 120, 180)' fill-opacity = '0.250000' points = '887.9,234.4 887.9,662.4 889.9,662.4 889.9,243.9 '/>
		<polygon fill = 'rgb( 31, 120, 180)' fill-opacity = '0.250000' points = '889.9,243.9 889.9,662.4 891.8,662.4 891.8,253.5 '/>
		<polygon fill = 'rgb( 31, 120, 180)' fill-opacity = '0.250000' points = '891.8,253.5 891.8,662.4 893.7,662.4 893.7,263.2 '/>
		<polygon fill = 'rgb( 31, 120, 180)' fill-opacity = '0.250000' points = '893.7,263.2 893.7,662.4 895.6,662.4 895.6,272.8 '/>
		<polygon fill = 'rgb( 31, 120, 180)' fill-opacity = '0.250000' points = '895.6,272.8 895.6,662.4 897.5,662.4 897.5,282.5 '/>
		<polygon fill = 'rgb( 31, 120, 180)' fill-opacity = '0.250000' points = '897.5,282.5 897.5,662.4 899.4,662.4 899.4,292.1 '/>
		<polygon fill = 'rgb( 31, 120, 180)' fill-opacity = '0.250000' points = '899.4,292.1 899.4,662.4 901.3,662.4 901.3,301.7 '/>
		<polygon fill = 'rgb( 31, 120, 180)' fill-opacity = '0.250000' points = '901.3,301.7 901.3,662.4 903.2,662.4 903.2,311.4 '/>
		<polygon fill = 'rgb( 31, 120, 180)' fill-opacity = '0.250000' points = '903.2,311.4 903.2,662.4 905.1,662.4 905.1,321.1 '/>
		<polygon fill = 'rgb( 31, 120, 180)' fill-opacity = '0.250000' points = '905.1,321.1 905.1,662.4 907.0,662.4 907.0,330.7 '/>
		<polygon fill = 'rgb( 31, 120, 180)' fill-opacity = '0.250000' points = '907.0,330.7 907.0,662.4 908.9,662.4 908.9,340.4 '/>
		<polygon fill = 'rgb( 31, 120, 180)' fill-opacity = '0.250000' points = '908.9,340.4 908.9,662.4 910.8,662.4 910.8,350.2 '/>
		<polygon fill = 'rgb( 31, 120, 180)' fill-opacity = '0.250000' points = '910.8,350.2 910.8,662.4 912.7,662.4 912.7,359.9 '/>
		<polygon fill = 'rgb( 31, 120, 180)' fill-opacity = '0.250000' points = '912.7,359.9 912.7,662.4 914.6,662.4 914.6,369.8 '/>
		<polygon fill = 'rgb( 31, 120, 180)' fill-opacity = '0.250000' points = '914.6,369.8 914.6,662.4 916.5,662.4 916.5,379.7 '/>
		<polygon fill = 'rgb( 31, 120, 180)' fill-opacity = '0.250000' points = '916.5,379.7 916.5,662.4 918.4,662.4 918.4,389.7 '/>
		<polygon fill = 'rgb( 31, 120, 180)' fill-opacity = '0.250000' points = '918.4,389.7 918.4,662.4 920.3,662.4 920.3,399.8 '/>
		<polygon fill = 'rgb( 31, 120, 180)' fill-opacity = '0.250000' points = '920.3,399.8 920.3,662.4 922.2,662.4 922.2,410.0 '/>
		<polygon fill = 'rgb( 31, 120, 180)' fill-opacity = '0.250000' points = '922.2,410.0 922.2,662.4 924.1,662.4 924.1,420.2 '/>
	</g>
</g>
	</g>
	<g id="gnuplot_plot_3" ><title>Point estimate</title>
<g fill="none" color="white" stroke="rgb( 31, 120, 180)" stroke-width="2.00" stroke-linecap="butt" stroke-linejoin="miter">
</g>
<g fill="none" color="black" stroke="currentColor" stroke-width="2.00" stroke-linecap="butt" stroke-linejoin="miter">
	<g transform="translate(1089.0,103.0)" stroke="none" fill="black" font-family="Helvetica" font-size="12.00"  text-anchor="start">
		<text><tspan font-family="Helvetica" >Point estimate</tspan></text>
	</g>
</g>
<g fill="none" color="black" stroke="currentColor" stroke-width="2.00" stroke-linecap="butt" stroke-linejoin="miter">
	<path stroke='rgb( 31, 120, 180)'  d='M1038.5,99.1 L1080.7,99.1 M635.3,662.4 L635.3,283.5  '/></g>
	</g>
<g fill="none" color="black" stroke="currentColor" stroke-width="2.00" stroke-linecap="butt" stroke-linejoin="miter">
</g>
<g fill="none" color="black" stroke="black" stroke-width="1.00" stroke-linecap="butt" stroke-linejoin="miter">
</g>
<g fill="none" color="black" stroke="currentColor" stroke-width="1.00" stroke-linecap="butt" stroke-linejoin="miter">
	<path stroke='black'  d='M63.6,54.1 L63.6,662.4 L1013.6,662.4 L1013.6,54.1 L63.6,54.1 Z  '/></g>
<g fill="none" color="black" stroke="currentColor" stroke-width="1.00" stroke-linecap="butt" stroke-linejoin="miter">
</g>
</g>
</svg>

