<?xml version="1.0" encoding="utf-8"  standalone="no"?>
<svg 
 viewBox="0 0 1280 720"
 xmlns="http://www.w3.org/2000/svg"
 xmlns:xlink="http://www.w3.org/1999/xlink"
>

<title>Gnuplot</title>
<desc>Produced by GNUPLOT 5.0 patchlevel 6 </desc>

<g id="gnuplot_canvas">

<rect x="0" y="0" width="1280" height="720" fill="none"/>
<defs>

	<circle id='gpDot' r='0.5' stroke-width='0.5'/>
	<path id='gpPt0' stroke-width='0.222' stroke='currentColor' d='M-1,0 h2 M0,-1 v2'/>
	<path id='gpPt1' stroke-width='0.222' stroke='currentColor' d='M-1,-1 L1,1 M1,-1 L-1,1'/>
	<path id='gpPt2' stroke-width='0.222' stroke='currentColor' d='M-1,0 L1,0 M0,-1 L0,1 M-1,-1 L1,1 M-1,1 L1,-1'/>
	<rect id='gpPt3' stroke-width='0.222' stroke='currentColor' x='-1' y='-1' width='2' height='2'/>
	<rect id='gpPt4' stroke-width='0.222' stroke='currentColor' fill='currentColor' x='-1' y='-1' width='2' height='2'/>
	<circle id='gpPt5' stroke-width='0.222' stroke='currentColor' cx='0' cy='0' r='1'/>
	<use xlink:href='#gpPt5' id='gpPt6' fill='currentColor' stroke='none'/>
	<path id='gpPt7' stroke-width='0.222' stroke='currentColor' d='M0,-1.33 L-1.33,0.67 L1.33,0.67 z'/>
	<use xlink:href='#gpPt7' id='gpPt8' fill='currentColor' stroke='none'/>
	<use xlink:href='#gpPt7' id='gpPt9' stroke='currentColor' transform='rotate(180)'/>
	<use xlink:href='#gpPt9' id='gpPt10' fill='currentColor' stroke='none'/>
	<use xlink:href='#gpPt3' id='gpPt11' stroke='currentColor' transform='rotate(45)'/>
	<use xlink:href='#gpPt11' id='gpPt12' fill='currentColor' stroke='none'/>
	<path id='gpPt13' stroke-width='0.222' stroke='currentColor' d='M0,1.330 L1.265,0.411 L0.782,-1.067 L-0.782,-1.076 L-1.265,0.411 z'/>
	<use xlink:href='#gpPt13' id='gpPt14' fill='currentColor' stroke='none'/>
	<filter id='textbox' filterUnits='objectBoundingBox' x='0' y='0' height='1' width='1'>
	  <feFlood flood-color='white' flood-opacity='1' result='bgnd'/>
	  <feComposite in='SourceGraphic' in2='bgnd' operator='atop'/>
	</filter>
	<filter id='greybox' filterUnits='objectBoundingBox' x='0' y='0' height='1' width='1'>
	  <feFlood flood-color='lightgrey' flood-opacity='1' result='grey'/>
	  <feComposite in='SourceGraphic' in2='grey' operator='atop'/>
	</filter>
</defs>
<g fill="none" color="white" stroke="currentColor" stroke-width="1.00" stroke-linecap="butt" stroke-linejoin="miter">
</g>
<g fill="none" color="black" stroke="currentColor" stroke-width="1.00" stroke-linecap="butt" stroke-linejoin="miter">
	<path stroke='black'  d='M80.2,662.4 L89.2,662.4  '/>	<g transform="translate(71.9,666.3)" stroke="none" fill="black" font-family="Helvetica" font-size="12.00"  text-anchor="end">
		<text><tspan font-family="Helvetica" > 0</tspan></text>
	</g>
</g>
<g fill="none" color="black" stroke="currentColor" stroke-width="1.00" stroke-linecap="butt" stroke-linejoin="miter">
	<path stroke='black'  d='M80.2,601.6 L89.2,601.6  '/>	<g transform="translate(71.9,605.5)" stroke="none" fill="black" font-family="Helvetica" font-size="12.00"  text-anchor="end">
		<text><tspan font-family="Helvetica" > 0.05</tspan></text>
	</g>
</g>
<g fill="none" color="black" stroke="currentColor" stroke-width="1.00" stroke-linecap="butt" stroke-linejoin="miter">
	<path stroke='black'  d='M80.2,540.7 L89.2,540.7  '/>	<g transform="translate(71.9,544.6)" stroke="none" fill="black" font-family="Helvetica" font-size="12.00"  text-anchor="end">
		<text><tspan font-family="Helvetica" > 0.1</tspan></text>
	</g>
</g>
<g fill="none" color="black" stroke="currentColor" stroke-width="1.00" stroke-linecap="butt" stroke-linejoin="miter">
	<path stroke='black'  d='M80.2,479.9 L89.2,479.9  '/>	<g transform="translate(71.9,483.8)" stroke="none" fill="black" font-family="Helvetica" font-size="12.00"  text-anchor="end">
		<text><tspan font-family="Helvetica" > 0.15</tspan></text>
	</g>
</g>
<g fill="none" color="black" stroke="currentColor" stroke-width="1.00" stroke-linecap="butt" stroke-linejoin="miter">
	<path stroke='black'  d='M80.2,419.1 L89.2,419.1  '/>	<g transform="translate(71.9,423.0)" stroke="none" fill="black" font-family="Helvetica" font-size="12.00"  text-anchor="end">
		<text><tspan font-family="Helvetica" > 0.2</tspan></text>
	</g>
</g>
<g fill="none" color="black" stroke="currentColor" stroke-width="1.00" stroke-linecap="butt" stroke-linejoin="miter">
	<path stroke='black'  d='M80.2,358.2 L89.2,358.2  '/>	<g transform="translate(71.9,362.1)" stroke="none" fill="black" font-family="Helvetica" font-size="12.00"  text-anchor="end">
		<text><tspan font-family="Helvetica" > 0.25</tspan></text>
	</g>
</g>
<g fill="none" color="black" stroke="currentColor" stroke-width="1.00" stroke-linecap="butt" stroke-linejoin="miter">
	<path stroke='black'  d='M80.2,297.4 L89.2,297.4  '/>	<g transform="translate(71.9,301.3)" stroke="none" fill="black" font-family="Helvetica" font-size="12.00"  text-anchor="end">
		<text><tspan font-family="Helvetica" > 0.3</tspan></text>
	</g>
</g>
<g fill="none" color="black" stroke="currentColor" stroke-width="1.00" stroke-linecap="butt" stroke-linejoin="miter">
	<path stroke='black'  d='M80.2,236.6 L89.2,236.6  '/>	<g transform="translate(71.9,240.5)" stroke="none" fill="black" font-family="Helvetica" font-size="12.00"  text-anchor="end">
		<text><tspan font-family="Helvetica" > 0.35</tspan></text>
	</g>
</g>
<g fill="none" color="black" stroke="currentColor" stroke-width="1.00" stroke-linecap="butt" stroke-linejoin="miter">
	<path stroke='black'  d='M80.2,175.8 L89.2,175.8  '/>	<g transform="translate(71.9,179.7)" stroke="none" fill="black" font-family="Helvetica" font-size="12.00"  text-anchor="end">
		<text><tspan font-family="Helvetica" > 0.4</tspan></text>
	</g>
</g>
<g fill="none" color="black" stroke="currentColor" stroke-width="1.00" stroke-linecap="butt" stroke-linejoin="miter">
	<path stroke='black'  d='M80.2,114.9 L89.2,114.9  '/>	<g transform="translate(71.9,118.8)" stroke="none" fill="black" font-family="Helvetica" font-size="12.00"  text-anchor="end">
		<text><tspan font-family="Helvetica" > 0.45</tspan></text>
	</g>
</g>
<g fill="none" color="black" stroke="currentColor" stroke-width="1.00" stroke-linecap="butt" stroke-linejoin="miter">
	<path stroke='black'  d='M80.2,54.1 L89.2,54.1  '/>	<g transform="translate(71.9,58.0)" stroke="none" fill="black" font-family="Helvetica" font-size="12.00"  text-anchor="end">
		<text><tspan font-family="Helvetica" > 0.5</tspan></text>
	</g>
</g>
<g fill="none" color="black" stroke="currentColor" stroke-width="1.00" stroke-linecap="butt" stroke-linejoin="miter">
	<path stroke='black'  d='M81.6,662.4 L81.6,653.4  '/>	<g transform="translate(81.6,684.3)" stroke="none" fill="black" font-family="Helvetica" font-size="12.00"  text-anchor="middle">
		<text><tspan font-family="Helvetica" > 0</tspan></text>
	</g>
</g>
<g fill="none" color="black" stroke="currentColor" stroke-width="1.00" stroke-linecap="butt" stroke-linejoin="miter">
	<path stroke='black'  d='M267.5,662.4 L267.5,653.4  '/>	<g transform="translate(267.5,684.3)" stroke="none" fill="black" font-family="Helvetica" font-size="12.00"  text-anchor="middle">
		<text><tspan font-family="Helvetica" > 2</tspan></text>
	</g>
</g>
<g fill="none" color="black" stroke="currentColor" stroke-width="1.00" stroke-linecap="butt" stroke-linejoin="miter">
	<path stroke='black'  d='M453.4,662.4 L453.4,653.4  '/>	<g transform="translate(453.4,684.3)" stroke="none" fill="black" font-family="Helvetica" font-size="12.00"  text-anchor="middle">
		<text><tspan font-family="Helvetica" > 4</tspan></text>
	</g>
</g>
<g fill="none" color="black" stroke="currentColor" stroke-width="1.00" stroke-linecap="butt" stroke-linejoin="miter">
	<path stroke='black'  d='M639.3,662.4 L639.3,653.4  '/>	<g transform="translate(639.3,684.3)" stroke="none" fill="black" font-family="Helvetica" font-size="12.00"  text-anchor="middle">
		<text><tspan font-family="Helvetica" > 6</tspan></text>
	</g>
</g>
<g fill="none" color="black" stroke="currentColor" stroke-width="1.00" stroke-linecap="butt" stroke-linejoin="miter">
	<path stroke='black'  d='M825.3,662.4 L825.3,653.4  '/>	<g transform="translate(825.3,684.3)" stroke="none" fill="black" font-family="Helvetica" font-size="12.00"  text-anchor="middle">
		<text><tspan font-family="Helvetica" > 8</tspan></text>
	</g>
</g>
<g fill="none" color="black" stroke="currentColor" stroke-width="1.00" stroke-linecap="butt" stroke-linejoin="miter">
	<path stroke='black'  d='M1011.2,662.4 L1011.2,653.4  '/>	<g transform="translate(1011.2,684.3)" stroke="none" fill="black" font-family="Helvetica" font-size="12.00"  text-anchor="middle">
		<text><tspan font-family="Helvetica" > 10</tspan></text>
	</g>
</g>
<g fill="none" color="black" stroke="currentColor" stroke-width="1.00" stroke-linecap="butt" stroke-linejoin="miter">
</g>
<g fill="none" color="black" stroke="currentColor" stroke-width="1.00" stroke-linecap="butt" stroke-linejoin="miter">
	<path stroke='black'  d='M80.2,54.1 L80.2,662.4 L1013.6,662.4 L1013.6,54.1 L80.2,54.1 Z  '/></g>
<g fill="none" color="black" stroke="currentColor" stroke-width="1.00" stroke-linecap="butt" stroke-linejoin="miter">
	<g transform="translate(17.0,358.3) rotate(270)" stroke="none" fill="black" font-family="Helvetica" font-size="12.00"  text-anchor="middle">
		<text><tspan font-family="Helvetica" >Density (a.u.)</tspan></text>
	</g>
</g>
<g fill="none" color="black" stroke="currentColor" stroke-width="1.00" stroke-linecap="butt" stroke-linejoin="miter">
	<g transform="translate(546.9,711.3)" stroke="none" fill="black" font-family="Helvetica" font-size="12.00"  text-anchor="middle">
		<text><tspan font-family="Helvetica" >Average time (us)</tspan></text>
	</g>
</g>
<g fill="none" color="black" stroke="currentColor" stroke-width="1.00" stroke-linecap="butt" stroke-linejoin="miter">
	<g transform="translate(546.9,31.0)" stroke="none" fill="black" font-family="Helvetica" font-size="12.00"  text-anchor="middle">
		<text><tspan font-family="Helvetica" >language: bash/parse normal: bash/examples/install.sh: MAD</tspan></text>
	</g>
</g>
	<g id="gnuplot_plot_1" ><title>Bootstrap distribution</title>
<g fill="none" color="white" stroke="black" stroke-width="2.00" stroke-linecap="butt" stroke-linejoin="miter">
</g>
<g fill="none" color="black" stroke="currentColor" stroke-width="2.00" stroke-linecap="butt" stroke-linejoin="miter">
	<g transform="translate(1089.0,67.0)" stroke="none" fill="black" font-family="Helvetica" font-size="12.00"  text-anchor="start">
		<text><tspan font-family="Helvetica" >Bootstrap distribution</tspan></text>
	</g>
</g>
<g fill="none" color="black" stroke="currentColor" stroke-width="2.00" stroke-linecap="butt" stroke-linejoin="miter">
	<path stroke='rgb( 31, 120, 180)'  d='M1038.5,63.1 L1080.7,63.1 M80.2,661.9 L82.1,661.7 L83.9,661.6 L85.8,661.4 L87.7,661.2 L89.6,660.9
		L91.4,660.6 L93.3,660.2 L95.2,659.7 L97.0,659.2 L98.9,658.6 L100.8,657.9 L102.6,657.1 L104.5,656.2
		L106.4,655.1 L108.3,654.0 L110.1,652.6 L112.0,651.2 L113.9,649.5 L115.7,647.7 L117.6,645.8 L119.5,643.6
		L121.4,641.2 L123.2,638.7 L125.1,636.0 L127.0,633.1 L128.8,630.0 L130.7,626.8 L132.6,623.4 L134.4,619.9
		L136.3,616.3 L138.2,612.6 L140.1,608.9 L141.9,605.1 L143.8,601.4 L145.7,597.8 L147.5,594.4 L149.4,591.1
		L151.3,588.0 L153.2,585.2 L155.0,582.7 L156.9,580.5 L158.8,578.8 L160.6,577.4 L162.5,576.4 L164.4,575.9
		L166.2,575.9 L168.1,576.2 L170.0,577.0 L171.9,578.2 L173.7,579.7 L175.6,581.5 L177.5,583.7 L179.3,586.0
		L181.2,588.5 L183.1,591.2 L185.0,593.9 L186.8,596.6 L188.7,599.2 L190.6,601.8 L192.4,604.1 L194.3,606.3
		L196.2,608.1 L198.0,609.6 L199.9,610.8 L201.8,611.5 L203.7,611.7 L205.5,611.4 L207.4,610.6 L209.3,609.2
		L211.1,607.2 L213.0,604.6 L214.9,601.3 L216.7,597.5 L218.6,593.0 L220.5,587.9 L222.4,582.3 L224.2,576.1
		L226.1,569.5 L228.0,562.5 L229.8,555.2 L231.7,547.7 L233.6,540.1 L235.5,532.5 L237.3,524.9 L239.2,517.5
		L241.1,510.4 L242.9,503.7 L244.8,497.3 L246.7,491.5 L248.5,486.1 L250.4,481.4 L252.3,477.2 L254.2,473.6
		L256.0,470.6 L257.9,468.1 L259.8,466.0 L261.6,464.5 L263.5,463.3 L265.4,462.4 L267.3,461.8 L269.1,461.4
		L271.0,461.1 L272.9,460.8 L274.7,460.5 L276.6,460.2 L278.5,459.7 L280.3,458.9 L282.2,458.0 L284.1,456.7
		L286.0,455.0 L287.8,452.9 L289.7,450.4 L291.6,447.3 L293.4,443.7 L295.3,439.5 L297.2,434.7 L299.1,429.2
		L300.9,423.0 L302.8,416.2 L304.7,408.5 L306.5,400.1 L308.4,390.9 L310.3,380.9 L312.1,370.1 L314.0,358.4
		L315.9,346.0 L317.8,332.9 L319.6,319.0 L321.5,304.5 L323.4,289.4 L325.2,273.9 L327.1,257.9 L329.0,241.7
		L330.9,225.5 L332.7,209.2 L334.6,193.2 L336.5,177.7 L338.3,162.8 L340.2,148.7 L342.1,135.7 L343.9,123.9
		L345.8,113.6 L347.7,105.0 L349.6,98.1 L351.4,93.3 L353.3,90.6 L355.2,90.1 L357.0,91.8 L358.9,95.8
		L360.8,102.0 L362.7,110.4 L364.5,120.8 L366.4,133.1 L368.3,147.1 L370.1,162.6 L372.0,179.3 L373.9,197.0
		L375.7,215.4 L377.6,234.2 L379.5,253.2 L381.4,272.1 L383.2,290.8 L385.1,309.0 L387.0,326.6 L388.8,343.4
		L390.7,359.4 L392.6,374.5 L394.5,388.7 L396.3,402.0 L398.2,414.3 L400.1,425.7 L401.9,436.2 L403.8,446.0
		L405.7,454.9 L407.5,463.2 L409.4,470.8 L411.3,477.8 L413.2,484.2 L415.0,490.0 L416.9,495.3 L418.8,500.0
		L420.6,504.0 L422.5,507.5 L424.4,510.3 L426.3,512.5 L428.1,513.9 L430.0,514.6 L431.9,514.6 L433.7,513.7
		L435.6,512.1 L437.5,509.7 L439.3,506.6 L441.2,502.8 L443.1,498.4 L445.0,493.5 L446.8,488.1 L448.7,482.4
		L450.6,476.6 L452.4,470.7 L454.3,464.9 L456.2,459.3 L458.0,454.1 L459.9,449.4 L461.8,445.2 L463.7,441.7
		L465.5,438.9 L467.4,436.8 L469.3,435.5 L471.1,434.9 L473.0,434.9 L474.9,435.7 L476.8,437.0 L478.6,438.9
		L480.5,441.2 L482.4,443.9 L484.2,446.9 L486.1,450.2 L488.0,453.6 L489.8,457.3 L491.7,461.0 L493.6,464.8
		L495.5,468.7 L497.3,472.7 L499.2,476.7 L501.1,480.7 L502.9,484.7 L504.8,488.8 L506.7,492.8 L508.6,496.9
		L510.4,500.8 L512.3,504.8 L514.2,508.6 L516.0,512.3 L517.9,515.9 L519.8,519.4 L521.6,522.7 L523.5,525.8
		L525.4,528.8 L527.3,531.6 L529.1,534.1 L531.0,536.5 L532.9,538.7 L534.7,540.8 L536.6,542.7 L538.5,544.4
		L540.4,546.0 L542.2,547.5 L544.1,548.8 L546.0,550.1 L547.8,551.3 L549.7,552.4 L551.6,553.4 L553.4,554.4
		L555.3,555.3 L557.2,556.2 L559.1,557.0 L560.9,557.8 L562.8,558.5 L564.7,559.2 L566.5,559.8 L568.4,560.3
		L570.3,560.8 L572.2,561.2 L574.0,561.5 L575.9,561.8 L577.8,562.0 L579.6,562.0 L581.5,562.0 L583.4,561.9
		L585.2,561.7 L587.1,561.3 L589.0,560.9 L590.9,560.3 L592.7,559.7 L594.6,559.0 L596.5,558.2 L598.3,557.3
		L600.2,556.3 L602.1,555.4 L604.0,554.4 L605.8,553.4 L607.7,552.5 L609.6,551.6 L611.4,550.8 L613.3,550.1
		L615.2,549.6 L617.0,549.2 L618.9,549.1 L620.8,549.1 L622.7,549.4 L624.5,550.0 L626.4,550.8 L628.3,551.9
		L630.1,553.2 L632.0,554.8 L633.9,556.7 L635.8,558.8 L637.6,561.1 L639.5,563.6 L641.4,566.3 L643.2,569.0
		L645.1,571.9 L647.0,574.8 L648.8,577.7 L650.7,580.7 L652.6,583.6 L654.5,586.5 L656.3,589.2 L658.2,591.9
		L660.1,594.5 L661.9,596.9 L663.8,599.3 L665.7,601.5 L667.5,603.5 L669.4,605.4 L671.3,607.2 L673.2,608.8
		L675.0,610.4 L676.9,611.7 L678.8,613.0 L680.6,614.2 L682.5,615.2 L684.4,616.1 L686.3,617.0 L688.1,617.7
		L690.0,618.3 L691.9,618.8 L693.7,619.3 L695.6,619.6 L697.5,619.9 L699.3,620.0 L701.2,620.1 L703.1,620.1
		L705.0,620.0 L706.8,619.9 L708.7,619.6 L710.6,619.3 L712.4,619.0 L714.3,618.6 L716.2,618.1 L718.1,617.7
		L719.9,617.2 L721.8,616.6 L723.7,616.1 L725.5,615.5 L727.4,615.0 L729.3,614.5 L731.1,613.9 L733.0,613.4
		L734.9,613.0 L736.8,612.5 L738.6,612.2 L740.5,611.8 L742.4,611.6 L744.2,611.4 L746.1,611.2 L748.0,611.2
		L749.9,611.2 L751.7,611.3 L753.6,611.4 L755.5,611.7 L757.3,612.0 L759.2,612.4 L761.1,612.9 L762.9,613.4
		L764.8,614.0 L766.7,614.7 L768.6,615.4 L770.4,616.1 L772.3,616.9 L774.2,617.7 L776.0,618.5 L777.9,619.4
		L779.8,620.2 L781.7,621.0 L783.5,621.8 L785.4,622.6 L787.3,623.4 L789.1,624.1 L791.0,624.8 L792.9,625.5
		L794.7,626.1 L796.6,626.6 L798.5,627.1 L800.4,627.6 L802.2,628.0 L804.1,628.3 L806.0,628.6 L807.8,628.8
		L809.7,628.9 L811.6,629.0 L813.5,629.0 L815.3,628.9 L817.2,628.8 L819.1,628.6 L820.9,628.3 L822.8,628.0
		L824.7,627.6 L826.5,627.2 L828.4,626.7 L830.3,626.2 L832.2,625.7 L834.0,625.2 L835.9,624.7 L837.8,624.2
		L839.6,623.7 L841.5,623.3 L843.4,622.9 L845.3,622.6 L847.1,622.3 L849.0,622.1 L850.9,622.0 L852.7,621.9
		L854.6,621.9 L856.5,622.0 L858.3,622.1 L860.2,622.3 L862.1,622.5 L864.0,622.8 L865.8,623.1 L867.7,623.4
		L869.6,623.7 L871.4,624.0 L873.3,624.4 L875.2,624.8 L877.1,625.2 L878.9,625.5 L880.8,626.0 L882.7,626.4
		L884.5,626.8 L886.4,627.2 L888.3,627.6 L890.1,628.1 L892.0,628.5 L893.9,628.9 L895.8,629.3 L897.6,629.7
		L899.5,630.1 L901.4,630.4 L903.2,630.7 L905.1,631.0 L907.0,631.3 L908.8,631.5 L910.7,631.6 L912.6,631.8
		L914.5,631.9 L916.3,631.9 L918.2,632.0 L920.1,632.0 L921.9,632.0 L923.8,631.9 L925.7,631.9 L927.6,631.9
		L929.4,631.8 L931.3,631.8 L933.2,631.8 L935.0,631.8 L936.9,631.9 L938.8,631.9 L940.6,632.0 L942.5,632.2
		L944.4,632.4 L946.3,632.6 L948.1,632.9 L950.0,633.2 L951.9,633.6 L953.7,633.9 L955.6,634.4 L957.5,634.8
		L959.4,635.3 L961.2,635.7 L963.1,636.2 L965.0,636.7 L966.8,637.2 L968.7,637.7 L970.6,638.2 L972.4,638.7
		L974.3,639.2 L976.2,639.6 L978.1,640.0 L979.9,640.4 L981.8,640.8 L983.7,641.2 L985.5,641.5 L987.4,641.8
		L989.3,642.1 L991.2,642.4 L993.0,642.7 L994.9,642.9 L996.8,643.2 L998.6,643.5 L1000.5,643.8 L1002.4,644.1
		L1004.2,644.4 L1006.1,644.8 L1008.0,645.2 L1009.9,645.7 L1011.7,646.1 L1013.6,646.6  '/></g>
	</g>
	<g id="gnuplot_plot_2" ><title>Confidence interval</title>
<g fill="none" color="white" stroke="rgb( 31, 120, 180)" stroke-width="1.00" stroke-linecap="butt" stroke-linejoin="miter">
</g>
<g fill="none" color="black" stroke="currentColor" stroke-width="1.00" stroke-linecap="butt" stroke-linejoin="miter">
	<g transform="translate(1089.0,85.0)" stroke="none" fill="black" font-family="Helvetica" font-size="12.00"  text-anchor="start">
		<text><tspan font-family="Helvetica" >Confidence interval</tspan></text>
	</g>
</g>
<g fill="none" color="black" stroke="currentColor" stroke-width="1.00" stroke-linecap="butt" stroke-linejoin="miter">
	<g stroke='none' shape-rendering='crispEdges'>
		<polygon fill = 'rgb( 31, 120, 180)' fill-opacity = '0.250000' points = '1038.5,85.6 1080.7,85.6 1080.7,76.6 1038.5,76.6 '/>
		<polygon fill = 'rgb( 31, 120, 180)' fill-opacity = '0.250000' points = '166.2,575.9 166.2,662.4 168.1,662.4 168.1,576.2 '/>
		<polygon fill = 'rgb( 31, 120, 180)' fill-opacity = '0.250000' points = '168.1,576.2 168.1,662.4 170.0,662.4 170.0,577.0 '/>
		<polygon fill = 'rgb( 31, 120, 180)' fill-opacity = '0.250000' points = '170.0,577.0 170.0,662.4 171.9,662.4 171.9,578.2 '/>
		<polygon fill = 'rgb( 31, 120, 180)' fill-opacity = '0.250000' points = '171.9,578.2 171.9,662.4 173.7,662.4 173.7,579.7 '/>
		<polygon fill = 'rgb( 31, 120, 180)' fill-opacity = '0.250000' points = '173.7,579.7 173.7,662.4 175.6,662.4 175.6,581.5 '/>
		<polygon fill = 'rgb( 31, 120, 180)' fill-opacity = '0.250000' points = '175.6,581.5 175.6,662.4 177.5,662.4 177.5,583.7 '/>
		<polygon fill = 'rgb( 31, 120, 180)' fill-opacity = '0.250000' points = '177.5,583.7 177.5,662.4 179.3,662.4 179.3,586.0 '/>
		<polygon fill = 'rgb( 31, 120, 180)' fill-opacity = '0.250000' points = '179.3,586.0 179.3,662.4 181.2,662.4 181.2,588.5 '/>
		<polygon fill = 'rgb( 31, 120, 180)' fill-opacity = '0.250000' points = '181.2,588.5 181.2,662.4 183.1,662.4 183.1,591.2 '/>
		<polygon fill = 'rgb( 31, 120, 180)' fill-opacity = '0.250000' points = '183.1,591.2 183.1,662.4 185.0,662.4 185.0,593.9 '/>
		<polygon fill = 'rgb( 31, 120, 180)' fill-opacity = '0.250000' points = '185.0,593.9 185.0,662.4 186.8,662.4 186.8,596.6 '/>
		<polygon fill = 'rgb( 31, 120, 180)' fill-opacity = '0.250000' points = '186.8,596.6 186.8,662.4 188.7,662.4 188.7,599.2 '/>
		<polygon fill = 'rgb( 31, 120, 180)' fill-opacity = '0.250000' points = '188.7,599.2 188.7,662.4 190.6,662.4 190.6,601.8 '/>
		<polygon fill = 'rgb( 31, 120, 180)' fill-opacity = '0.250000' points = '190.6,601.8 190.6,662.4 192.4,662.4 192.4,604.1 '/>
		<polygon fill = 'rgb( 31, 120, 180)' fill-opacity = '0.250000' points = '192.4,604.1 192.4,662.4 194.3,662.4 194.3,606.3 '/>
		<polygon fill = 'rgb( 31, 120, 180)' fill-opacity = '0.250000' points = '194.3,606.3 194.3,662.4 196.2,662.4 196.2,608.1 '/>
		<polygon fill = 'rgb( 31, 120, 180)' fill-opacity = '0.250000' points = '196.2,608.1 196.2,662.4 198.0,662.4 198.0,609.6 '/>
		<polygon fill = 'rgb( 31, 120, 180)' fill-opacity = '0.250000' points = '198.0,609.6 198.0,662.4 199.9,662.4 199.9,610.8 '/>
		<polygon fill = 'rgb( 31, 120, 180)' fill-opacity = '0.250000' points = '199.9,610.8 199.9,662.4 201.8,662.4 201.8,611.5 '/>
		<polygon fill = 'rgb( 31, 120, 180)' fill-opacity = '0.250000' points = '201.8,611.5 201.8,662.4 203.7,662.4 203.7,611.7 '/>
		<polygon fill = 'rgb( 31, 120, 180)' fill-opacity = '0.250000' points = '203.7,611.7 203.7,662.4 205.5,662.4 205.5,611.4 '/>
		<polygon fill = 'rgb( 31, 120, 180)' fill-opacity = '0.250000' points = '205.5,611.4 205.5,662.4 207.4,662.4 207.4,610.6 '/>
		<polygon fill = 'rgb( 31, 120, 180)' fill-opacity = '0.250000' points = '207.4,610.6 207.4,662.4 209.3,662.4 209.3,609.2 '/>
		<polygon fill = 'rgb( 31, 120, 180)' fill-opacity = '0.250000' points = '209.3,609.2 209.3,662.4 211.1,662.4 211.1,607.2 '/>
		<polygon fill = 'rgb( 31, 120, 180)' fill-opacity = '0.250000' points = '211.1,607.2 211.1,662.4 213.0,662.4 213.0,604.6 '/>
		<polygon fill = 'rgb( 31, 120, 180)' fill-opacity = '0.250000' points = '213.0,604.6 213.0,662.4 214.9,662.4 214.9,601.3 '/>
		<polygon fill = 'rgb( 31, 120, 180)' fill-opacity = '0.250000' points = '214.9,601.3 214.9,662.4 216.7,662.4 216.7,597.5 '/>
		<polygon fill = 'rgb( 31, 120, 180)' fill-opacity = '0.250000' points = '216.7,597.5 216.7,662.4 218.6,662.4 218.6,593.0 '/>
		<polygon fill = 'rgb( 31, 120, 180)' fill-opacity = '0.250000' points = '218.6,593.0 218.6,662.4 220.5,662.4 220.5,587.9 '/>
		<polygon fill = 'rgb( 31, 120, 180)' fill-opacity = '0.250000' points = '220.5,587.9 220.5,662.4 222.4,662.4 222.4,582.3 '/>
		<polygon fill = 'rgb( 31, 120, 180)' fill-opacity = '0.250000' points = '222.4,582.3 222.4,662.4 224.2,662.4 224.2,576.1 '/>
		<polygon fill = 'rgb( 31, 120, 180)' fill-opacity = '0.250000' points = '224.2,576.1 224.2,662.4 226.1,662.4 226.1,569.5 '/>
		<polygon fill = 'rgb( 31, 120, 180)' fill-opacity = '0.250000' points = '226.1,569.5 226.1,662.4 228.0,662.4 228.0,562.5 '/>
		<polygon fill = 'rgb( 31, 120, 180)' fill-opacity = '0.250000' points = '228.0,562.5 228.0,662.4 229.8,662.4 229.8,555.2 '/>
		<polygon fill = 'rgb( 31, 120, 180)' fill-opacity = '0.250000' points = '229.8,555.2 229.8,662.4 231.7,662.4 231.7,547.7 '/>
		<polygon fill = 'rgb( 31, 120, 180)' fill-opacity = '0.250000' points = '231.7,547.7 231.7,662.4 233.6,662.4 233.6,540.1 '/>
		<polygon fill = 'rgb( 31, 120, 180)' fill-opacity = '0.250000' points = '233.6,540.1 233.6,662.4 235.5,662.4 235.5,532.5 '/>
		<polygon fill = 'rgb( 31, 120, 180)' fill-opacity = '0.250000' points = '235.5,532.5 235.5,662.4 237.3,662.4 237.3,524.9 '/>
		<polygon fill = 'rgb( 31, 120, 180)' fill-opacity = '0.250000' points = '237.3,524.9 237.3,662.4 239.2,662.4 239.2,517.5 '/>
		<polygon fill = 'rgb( 31, 120, 180)' fill-opacity = '0.250000' points = '239.2,517.5 239.2,662.4 241.1,662.4 241.1,510.4 '/>
		<polygon fill = 'rgb( 31, 120, 180)' fill-opacity = '0.250000' points = '241.1,510.4 241.1,662.4 242.9,662.4 242.9,503.7 '/>
		<polygon fill = 'rgb( 31, 120, 180)' fill-opacity = '0.250000' points = '242.9,503.7 242.9,662.4 244.8,662.4 244.8,497.3 '/>
		<polygon fill = 'rgb( 31, 120, 180)' fill-opacity = '0.250000' points = '244.8,497.3 244.8,662.4 246.7,662.4 246.7,491.5 '/>
		<polygon fill = 'rgb( 31, 120, 180)' fill-opacity = '0.250000' points = '246.7,491.5 246.7,662.4 248.5,662.4 248.5,486.1 '/>
		<polygon fill = 'rgb( 31, 120, 180)' fill-opacity = '0.250000' points = '248.5,486.1 248.5,662.4 250.4,662.4 250.4,481.4 '/>
		<polygon fill = 'rgb( 31, 120, 180)' fill-opacity = '0.250000' points = '250.4,481.4 250.4,662.4 252.3,662.4 252.3,477.2 '/>
		<polygon fill = 'rgb( 31, 120, 180)' fill-opacity = '0.250000' points = '252.3,477.2 252.3,662.4 254.2,662.4 254.2,473.6 '/>
		<polygon fill = 'rgb( 31, 120, 180)' fill-opacity = '0.250000' points = '254.2,473.6 254.2,662.4 256.0,662.4 256.0,470.6 '/>
		<polygon fill = 'rgb( 31, 120, 180)' fill-opacity = '0.250000' points = '256.0,470.6 256.0,662.4 257.9,662.4 257.9,468.1 '/>
		<polygon fill = 'rgb( 31, 120, 180)' fill-opacity = '0.250000' points = '257.9,468.1 257.9,662.4 259.8,662.4 259.8,466.0 '/>
		<polygon fill = 'rgb( 31, 120, 180)' fill-opacity = '0.250000' points = '259.8,466.0 259.8,662.4 261.6,662.4 261.6,464.5 '/>
		<polygon fill = 'rgb( 31, 120, 180)' fill-opacity = '0.250000' points = '261.6,464.5 261.6,662.4 263.5,662.4 263.5,463.3 '/>
		<polygon fill = 'rgb( 31, 120, 180)' fill-opacity = '0.250000' points = '263.5,463.3 263.5,662.4 265.4,662.4 265.4,462.4 '/>
		<polygon fill = 'rgb( 31, 120, 180)' fill-opacity = '0.250000' points = '265.4,462.4 265.4,662.4 267.3,662.4 267.3,461.8 '/>
		<polygon fill = 'rgb( 31, 120, 180)' fill-opacity = '0.250000' points = '267.3,461.8 267.3,662.4 269.1,662.4 269.1,461.4 '/>
		<polygon fill = 'rgb( 31, 120, 180)' fill-opacity = '0.250000' points = '269.1,461.4 269.1,662.4 271.0,662.4 271.0,461.1 '/>
		<polygon fill = 'rgb( 31, 120, 180)' fill-opacity = '0.250000' points = '271.0,461.1 271.0,662.4 272.9,662.4 272.9,460.8 '/>
		<polygon fill = 'rgb( 31, 120, 180)' fill-opacity = '0.250000' points = '272.9,460.8 272.9,662.4 274.7,662.4 274.7,460.5 '/>
		<polygon fill = 'rgb( 31, 120, 180)' fill-opacity = '0.250000' points = '274.7,460.5 274.7,662.4 276.6,662.4 276.6,460.2 '/>
		<polygon fill = 'rgb( 31, 120, 180)' fill-opacity = '0.250000' points = '276.6,460.2 276.6,662.4 278.5,662.4 278.5,459.7 '/>
		<polygon fill = 'rgb( 31, 120, 180)' fill-opacity = '0.250000' points = '278.5,459.7 278.5,662.4 280.3,662.4 280.3,458.9 '/>
		<polygon fill = 'rgb( 31, 120, 180)' fill-opacity = '0.250000' points = '280.3,458.9 280.3,662.4 282.2,662.4 282.2,458.0 '/>
		<polygon fill = 'rgb( 31, 120, 180)' fill-opacity = '0.250000' points = '282.2,458.0 282.2,662.4 284.1,662.4 284.1,456.7 '/>
		<polygon fill = 'rgb( 31, 120, 180)' fill-opacity = '0.250000' points = '284.1,456.7 284.1,662.4 286.0,662.4 286.0,455.0 '/>
		<polygon fill = 'rgb( 31, 120, 180)' fill-opacity = '0.250000' points = '286.0,455.0 286.0,662.4 287.8,662.4 287.8,452.9 '/>
		<polygon fill = 'rgb( 31, 120, 180)' fill-opacity = '0.250000' points = '287.8,452.9 287.8,662.4 289.7,662.4 289.7,450.4 '/>
		<polygon fill = 'rgb( 31, 120, 180)' fill-opacity = '0.250000' points = '289.7,450.4 289.7,662.4 291.6,662.4 291.6,447.3 '/>
		<polygon fill = 'rgb( 31, 120, 180)' fill-opacity = '0.250000' points = '291.6,447.3 291.6,662.4 293.4,662.4 293.4,443.7 '/>
		<polygon fill = 'rgb( 31, 120, 180)' fill-opacity = '0.250000' points = '293.4,443.7 293.4,662.4 295.3,662.4 295.3,439.5 '/>
		<polygon fill = 'rgb( 31, 120, 180)' fill-opacity = '0.250000' points = '295.3,439.5 295.3,662.4 297.2,662.4 297.2,434.7 '/>
		<polygon fill = 'rgb( 31, 120, 180)' fill-opacity = '0.250000' points = '297.2,434.7 297.2,662.4 299.1,662.4 299.1,429.2 '/>
		<polygon fill = 'rgb( 31, 120, 180)' fill-opacity = '0.250000' points = '299.1,429.2 299.1,662.4 300.9,662.4 300.9,423.0 '/>
		<polygon fill = 'rgb( 31, 120, 180)' fill-opacity = '0.250000' points = '300.9,423.0 300.9,662.4 302.8,662.4 302.8,416.2 '/>
		<polygon fill = 'rgb( 31, 120, 180)' fill-opacity = '0.250000' points = '302.8,416.2 302.8,662.4 304.7,662.4 304.7,408.5 '/>
		<polygon fill = 'rgb( 31, 120, 180)' fill-opacity = '0.250000' points = '304.7,408.5 304.7,662.4 306.5,662.4 306.5,400.1 '/>
		<polygon fill = 'rgb( 31, 120, 180)' fill-opacity = '0.250000' points = '306.5,400.1 306.5,662.4 308.4,662.4 308.4,390.9 '/>
		<polygon fill = 'rgb( 31, 120, 180)' fill-opacity = '0.250000' points = '308.4,390.9 308.4,662.4 310.3,662.4 310.3,380.9 '/>
		<polygon fill = 'rgb( 31, 120, 180)' fill-opacity = '0.250000' points = '310.3,380.9 310.3,662.4 312.1,662.4 312.1,370.1 '/>
		<polygon fill = 'rgb( 31, 120, 180)' fill-opacity = '0.250000' points = '312.1,370.1 312.1,662.4 314.0,662.4 314.0,358.4 '/>
		<polygon fill = 'rgb( 31, 120, 180)' fill-opacity = '0.250000' points = '314.0,358.4 314.0,662.4 315.9,662.4 315.9,346.0 '/>
		<polygon fill = 'rgb( 31, 120, 180)' fill-opacity = '0.250000' points = '315.9,346.0 315.9,662.4 317.8,662.4 317.8,332.9 '/>
		<polygon fill = 'rgb( 31, 120, 180)' fill-opacity = '0.250000' points = '317.8,332.9 317.8,662.4 319.6,662.4 319.6,319.0 '/>
		<polygon fill = 'rgb( 31, 120, 180)' fill-opacity = '0.250000' points = '319.6,319.0 319.6,662.4 321.5,662.4 321.5,304.5 '/>
		<polygon fill = 'rgb( 31, 120, 180)' fill-opacity = '0.250000' points = '321.5,304.5 321.5,662.4 323.4,662.4 323.4,289.4 '/>
		<polygon fill = 'rgb( 31, 120, 180)' fill-opacity = '0.250000' points = '323.4,289.4 323.4,662.4 325.2,662.4 325.2,273.9 '/>
		<polygon fill = 'rgb( 31, 120, 180)' fill-opacity = '0.250000' points = '325.2,273.9 325.2,662.4 327.1,662.4 327.1,257.9 '/>
		<polygon fill = 'rgb( 31, 120, 180)' fill-opacity = '0.250000' points = '327.1,257.9 327.1,662.4 329.0,662.4 329.0,241.7 '/>
		<polygon fill = 'rgb( 31, 120, 180)' fill-opacity = '0.250000' points = '329.0,241.7 329.0,662.4 330.9,662.4 330.9,225.5 '/>
		<polygon fill = 'rgb( 31, 120, 180)' fill-opacity = '0.250000' points = '330.9,225.5 330.9,662.4 332.7,662.4 332.7,209.2 '/>
		<polygon fill = 'rgb( 31, 120, 180)' fill-opacity = '0.250000' points = '332.7,209.2 332.7,662.4 334.6,662.4 334.6,193.2 '/>
		<polygon fill = 'rgb( 31, 120, 180)' fill-opacity = '0.250000' points = '334.6,193.2 334.6,662.4 336.5,662.4 336.5,177.7 '/>
		<polygon fill = 'rgb( 31, 120, 180)' fill-opacity = '0.250000' points = '336.5,177.7 336.5,662.4 338.3,662.4 338.3,162.8 '/>
		<polygon fill = 'rgb( 31, 120, 180)' fill-opacity = '0.250000' points = '338.3,162.8 338.3,662.4 340.2,662.4 340.2,148.7 '/>
		<polygon fill = 'rgb( 31, 120, 180)' fill-opacity = '0.250000' points = '340.2,148.7 340.2,662.4 342.1,662.4 342.1,135.7 '/>
		<polygon fill = 'rgb( 31, 120, 180)' fill-opacity = '0.250000' points = '342.1,135.7 342.1,662.4 343.9,662.4 343.9,123.9 '/>
		<polygon fill = 'rgb( 31, 120, 180)' fill-opacity = '0.250000' points = '343.9,123.9 343.9,662.4 345.8,662.4 345.8,113.6 '/>
		<polygon fill = 'rgb( 31, 120, 180)' fill-opacity = '0.250000' points = '345.8,113.6 345.8,662.4 347.7,662.4 347.7,105.0 '/>
		<polygon fill = 'rgb( 31, 120, 180)' fill-opacity = '0.250000' points = '347.7,105.0 347.7,662.4 349.6,662.4 349.6,98.1 '/>
		<polygon fill = 'rgb( 31, 120, 180)' fill-opacity = '0.250000' points = '349.6,98.1 349.6,662.4 351.4,662.4 351.4,93.3 '/>
		<polygon fill = 'rgb( 31, 120, 180)' fill-opacity = '0.250000' points = '351.4,93.3 351.4,662.4 353.3,662.4 353.3,90.6 '/>
		<polygon fill = 'rgb( 31, 120, 180)' fill-opacity = '0.250000' points = '353.3,90.6 353.3,662.4 355.2,662.4 355.2,90.1 '/>
		<polygon fill = 'rgb( 31, 120, 180)' fill-opacity = '0.250000' points = '355.2,90.1 355.2,662.4 357.0,662.4 357.0,91.8 '/>
		<polygon fill = 'rgb( 31, 120, 180)' fill-opacity = '0.250000' points = '357.0,91.8 357.0,662.4 358.9,662.4 358.9,95.8 '/>
		<polygon fill = 'rgb( 31, 120, 180)' fill-opacity = '0.250000' points = '358.9,95.8 358.9,662.4 360.8,662.4 360.8,102.0 '/>
		<polygon fill = 'rgb( 31, 120, 180)' fill-opacity = '0.250000' points = '360.8,102.0 360.8,662.4 362.7,662.4 362.7,110.4 '/>
		<polygon fill = 'rgb( 31, 120, 180)' fill-opacity = '0.250000' points = '362.7,110.4 362.7,662.4 364.5,662.4 364.5,120.8 '/>
		<polygon fill = 'rgb( 31, 120, 180)' fill-opacity = '0.250000' points = '364.5,120.8 364.5,662.4 366.4,662.4 366.4,133.1 '/>
		<polygon fill = 'rgb( 31, 120, 180)' fill-opacity = '0.250000' points = '366.4,133.1 366.4,662.4 368.3,662.4 368.3,147.1 '/>
		<polygon fill = 'rgb( 31, 120, 180)' fill-opacity = '0.250000' points = '368.3,147.1 368.3,662.4 370.1,662.4 370.1,162.6 '/>
		<polygon fill = 'rgb( 31, 120, 180)' fill-opacity = '0.250000' points = '370.1,162.6 370.1,662.4 372.0,662.4 372.0,179.3 '/>
		<polygon fill = 'rgb( 31, 120, 180)' fill-opacity = '0.250000' points = '372.0,179.3 372.0,662.4 373.9,662.4 373.9,197.0 '/>
		<polygon fill = 'rgb( 31, 120, 180)' fill-opacity = '0.250000' points = '373.9,197.0 373.9,662.4 375.7,662.4 375.7,215.4 '/>
		<polygon fill = 'rgb( 31, 120, 180)' fill-opacity = '0.250000' points = '375.7,215.4 375.7,662.4 377.6,662.4 377.6,234.2 '/>
		<polygon fill = 'rgb( 31, 120, 180)' fill-opacity = '0.250000' points = '377.6,234.2 377.6,662.4 379.5,662.4 379.5,253.2 '/>
		<polygon fill = 'rgb( 31, 120, 180)' fill-opacity = '0.250000' points = '379.5,253.2 379.5,662.4 381.4,662.4 381.4,272.1 '/>
		<polygon fill = 'rgb( 31, 120, 180)' fill-opacity = '0.250000' points = '381.4,272.1 381.4,662.4 383.2,662.4 383.2,290.8 '/>
		<polygon fill = 'rgb( 31, 120, 180)' fill-opacity = '0.250000' points = '383.2,290.8 383.2,662.4 385.1,662.4 385.1,309.0 '/>
		<polygon fill = 'rgb( 31, 120, 180)' fill-opacity = '0.250000' points = '385.1,309.0 385.1,662.4 387.0,662.4 387.0,326.6 '/>
		<polygon fill = 'rgb( 31, 120, 180)' fill-opacity = '0.250000' points = '387.0,326.6 387.0,662.4 388.8,662.4 388.8,343.4 '/>
		<polygon fill = 'rgb( 31, 120, 180)' fill-opacity = '0.250000' points = '388.8,343.4 388.8,662.4 390.7,662.4 390.7,359.4 '/>
		<polygon fill = 'rgb( 31, 120, 180)' fill-opacity = '0.250000' points = '390.7,359.4 390.7,662.4 392.6,662.4 392.6,374.5 '/>
		<polygon fill = 'rgb( 31, 120, 180)' fill-opacity = '0.250000' points = '392.6,374.5 392.6,662.4 394.5,662.4 394.5,388.7 '/>
		<polygon fill = 'rgb( 31, 120, 180)' fill-opacity = '0.250000' points = '394.5,388.7 394.5,662.4 396.3,662.4 396.3,402.0 '/>
		<polygon fill = 'rgb( 31, 120, 180)' fill-opacity = '0.250000' points = '396.3,402.0 396.3,662.4 398.2,662.4 398.2,414.3 '/>
		<polygon fill = 'rgb( 31, 120, 180)' fill-opacity = '0.250000' points = '398.2,414.3 398.2,662.4 400.1,662.4 400.1,425.7 '/>
		<polygon fill = 'rgb( 31, 120, 180)' fill-opacity = '0.250000' points = '400.1,425.7 400.1,662.4 401.9,662.4 401.9,436.2 '/>
		<polygon fill = 'rgb( 31, 120, 180)' fill-opacity = '0.250000' points = '401.9,436.2 401.9,662.4 403.8,662.4 403.8,446.0 '/>
		<polygon fill = 'rgb( 31, 120, 180)' fill-opacity = '0.250000' points = '403.8,446.0 403.8,662.4 405.7,662.4 405.7,454.9 '/>
		<polygon fill = 'rgb( 31, 120, 180)' fill-opacity = '0.250000' points = '405.7,454.9 405.7,662.4 407.5,662.4 407.5,463.2 '/>
		<polygon fill = 'rgb( 31, 120, 180)' fill-opacity = '0.250000' points = '407.5,463.2 407.5,662.4 409.4,662.4 409.4,470.8 '/>
		<polygon fill = 'rgb( 31, 120, 180)' fill-opacity = '0.250000' points = '409.4,470.8 409.4,662.4 411.3,662.4 411.3,477.8 '/>
		<polygon fill = 'rgb( 31, 120, 180)' fill-opacity = '0.250000' points = '411.3,477.8 411.3,662.4 413.2,662.4 413.2,484.2 '/>
		<polygon fill = 'rgb( 31, 120, 180)' fill-opacity = '0.250000' points = '413.2,484.2 413.2,662.4 415.0,662.4 415.0,490.0 '/>
		<polygon fill = 'rgb( 31, 120, 180)' fill-opacity = '0.250000' points = '415.0,490.0 415.0,662.4 416.9,662.4 416.9,495.3 '/>
		<polygon fill = 'rgb( 31, 120, 180)' fill-opacity = '0.250000' points = '416.9,495.3 416.9,662.4 418.8,662.4 418.8,500.0 '/>
		<polygon fill = 'rgb( 31, 120, 180)' fill-opacity = '0.250000' points = '418.8,500.0 418.8,662.4 420.6,662.4 420.6,504.0 '/>
		<polygon fill = 'rgb( 31, 120, 180)' fill-opacity = '0.250000' points = '420.6,504.0 420.6,662.4 422.5,662.4 422.5,507.5 '/>
		<polygon fill = 'rgb( 31, 120, 180)' fill-opacity = '0.250000' points = '422.5,507.5 422.5,662.4 424.4,662.4 424.4,510.3 '/>
		<polygon fill = 'rgb( 31, 120, 180)' fill-opacity = '0.250000' points = '424.4,510.3 424.4,662.4 426.3,662.4 426.3,512.5 '/>
		<polygon fill = 'rgb( 31, 120, 180)' fill-opacity = '0.250000' points = '426.3,512.5 426.3,662.4 428.1,662.4 428.1,513.9 '/>
		<polygon fill = 'rgb( 31, 120, 180)' fill-opacity = '0.250000' points = '428.1,513.9 428.1,662.4 430.0,662.4 430.0,514.6 '/>
		<polygon fill = 'rgb( 31, 120, 180)' fill-opacity = '0.250000' points = '430.0,514.6 430.0,662.4 431.9,662.4 431.9,514.6 '/>
		<polygon fill = 'rgb( 31, 120, 180)' fill-opacity = '0.250000' points = '431.9,514.6 431.9,662.4 433.7,662.4 433.7,513.7 '/>
		<polygon fill = 'rgb( 31, 120, 180)' fill-opacity = '0.250000' points = '433.7,513.7 433.7,662.4 435.6,662.4 435.6,512.1 '/>
		<polygon fill = 'rgb( 31, 120, 180)' fill-opacity = '0.250000' points = '435.6,512.1 435.6,662.4 437.5,662.4 437.5,509.7 '/>
		<polygon fill = 'rgb( 31, 120, 180)' fill-opacity = '0.250000' points = '437.5,509.7 437.5,662.4 439.3,662.4 439.3,506.6 '/>
		<polygon fill = 'rgb( 31, 120, 180)' fill-opacity = '0.250000' points = '439.3,506.6 439.3,662.4 441.2,662.4 441.2,502.8 '/>
		<polygon fill = 'rgb( 31, 120, 180)' fill-opacity = '0.250000' points = '441.2,502.8 441.2,662.4 443.1,662.4 443.1,498.4 '/>
		<polygon fill = 'rgb( 31, 120, 180)' fill-opacity = '0.250000' points = '443.1,498.4 443.1,662.4 445.0,662.4 445.0,493.5 '/>
		<polygon fill = 'rgb( 31, 120, 180)' fill-opacity = '0.250000' points = '445.0,493.5 445.0,662.4 446.8,662.4 446.8,488.1 '/>
		<polygon fill = 'rgb( 31, 120, 180)' fill-opacity = '0.250000' points = '446.8,488.1 446.8,662.4 448.7,662.4 448.7,482.4 '/>
		<polygon fill = 'rgb( 31, 120, 180)' fill-opacity = '0.250000' points = '448.7,482.4 448.7,662.4 450.6,662.4 450.6,476.6 '/>
		<polygon fill = 'rgb( 31, 120, 180)' fill-opacity = '0.250000' points = '450.6,476.6 450.6,662.4 452.4,662.4 452.4,470.7 '/>
		<polygon fill = 'rgb( 31, 120, 180)' fill-opacity = '0.250000' points = '452.4,470.7 452.4,662.4 454.3,662.4 454.3,464.9 '/>
		<polygon fill = 'rgb( 31, 120, 180)' fill-opacity = '0.250000' points = '454.3,464.9 454.3,662.4 456.2,662.4 456.2,459.3 '/>
		<polygon fill = 'rgb( 31, 120, 180)' fill-opacity = '0.250000' points = '456.2,459.3 456.2,662.4 458.0,662.4 458.0,454.1 '/>
		<polygon fill = 'rgb( 31, 120, 180)' fill-opacity = '0.250000' points = '458.0,454.1 458.0,662.4 459.9,662.4 459.9,449.4 '/>
		<polygon fill = 'rgb( 31, 120, 180)' fill-opacity = '0.250000' points = '459.9,449.4 459.9,662.4 461.8,662.4 461.8,445.2 '/>
		<polygon fill = 'rgb( 31, 120, 180)' fill-opacity = '0.250000' points = '461.8,445.2 461.8,662.4 463.7,662.4 463.7,441.7 '/>
		<polygon fill = 'rgb( 31, 120, 180)' fill-opacity = '0.250000' points = '463.7,441.7 463.7,662.4 465.5,662.4 465.5,438.9 '/>
		<polygon fill = 'rgb( 31, 120, 180)' fill-opacity = '0.250000' points = '465.5,438.9 465.5,662.4 467.4,662.4 467.4,436.8 '/>
		<polygon fill = 'rgb( 31, 120, 180)' fill-opacity = '0.250000' points = '467.4,436.8 467.4,662.4 469.3,662.4 469.3,435.5 '/>
		<polygon fill = 'rgb( 31, 120, 180)' fill-opacity = '0.250000' points = '469.3,435.5 469.3,662.4 471.1,662.4 471.1,434.9 '/>
		<polygon fill = 'rgb( 31, 120, 180)' fill-opacity = '0.250000' points = '471.1,434.9 471.1,662.4 473.0,662.4 473.0,434.9 '/>
		<polygon fill = 'rgb( 31, 120, 180)' fill-opacity = '0.250000' points = '473.0,434.9 473.0,662.4 474.9,662.4 474.9,435.7 '/>
		<polygon fill = 'rgb( 31, 120, 180)' fill-opacity = '0.250000' points = '474.9,435.7 474.9,662.4 476.8,662.4 476.8,437.0 '/>
		<polygon fill = 'rgb( 31, 120, 180)' fill-opacity = '0.250000' points = '476.8,437.0 476.8,662.4 478.6,662.4 478.6,438.9 '/>
		<polygon fill = 'rgb( 31, 120, 180)' fill-opacity = '0.250000' points = '478.6,438.9 478.6,662.4 480.5,662.4 480.5,441.2 '/>
		<polygon fill = 'rgb( 31, 120, 180)' fill-opacity = '0.250000' points = '480.5,441.2 480.5,662.4 482.4,662.4 482.4,443.9 '/>
		<polygon fill = 'rgb( 31, 120, 180)' fill-opacity = '0.250000' points = '482.4,443.9 482.4,662.4 484.2,662.4 484.2,446.9 '/>
		<polygon fill = 'rgb( 31, 120, 180)' fill-opacity = '0.250000' points = '484.2,446.9 484.2,662.4 486.1,662.4 486.1,450.2 '/>
		<polygon fill = 'rgb( 31, 120, 180)' fill-opacity = '0.250000' points = '486.1,450.2 486.1,662.4 488.0,662.4 488.0,453.6 '/>
		<polygon fill = 'rgb( 31, 120, 180)' fill-opacity = '0.250000' points = '488.0,453.6 488.0,662.4 489.8,662.4 489.8,457.3 '/>
		<polygon fill = 'rgb( 31, 120, 180)' fill-opacity = '0.250000' points = '489.8,457.3 489.8,662.4 491.7,662.4 491.7,461.0 '/>
		<polygon fill = 'rgb( 31, 120, 180)' fill-opacity = '0.250000' points = '491.7,461.0 491.7,662.4 493.6,662.4 493.6,464.8 '/>
		<polygon fill = 'rgb( 31, 120, 180)' fill-opacity = '0.250000' points = '493.6,464.8 493.6,662.4 495.5,662.4 495.5,468.7 '/>
		<polygon fill = 'rgb( 31, 120, 180)' fill-opacity = '0.250000' points = '495.5,468.7 495.5,662.4 497.3,662.4 497.3,472.7 '/>
		<polygon fill = 'rgb( 31, 120, 180)' fill-opacity = '0.250000' points = '497.3,472.7 497.3,662.4 499.2,662.4 499.2,476.7 '/>
		<polygon fill = 'rgb( 31, 120, 180)' fill-opacity = '0.250000' points = '499.2,476.7 499.2,662.4 501.1,662.4 501.1,480.7 '/>
		<polygon fill = 'rgb( 31, 120, 180)' fill-opacity = '0.250000' points = '501.1,480.7 501.1,662.4 502.9,662.4 502.9,484.7 '/>
		<polygon fill = 'rgb( 31, 120, 180)' fill-opacity = '0.250000' points = '502.9,484.7 502.9,662.4 504.8,662.4 504.8,488.8 '/>
		<polygon fill = 'rgb( 31, 120, 180)' fill-opacity = '0.250000' points = '504.8,488.8 504.8,662.4 506.7,662.4 506.7,492.8 '/>
		<polygon fill = 'rgb( 31, 120, 180)' fill-opacity = '0.250000' points = '506.7,492.8 506.7,662.4 508.6,662.4 508.6,496.9 '/>
		<polygon fill = 'rgb( 31, 120, 180)' fill-opacity = '0.250000' points = '508.6,496.9 508.6,662.4 510.4,662.4 510.4,500.8 '/>
		<polygon fill = 'rgb( 31, 120, 180)' fill-opacity = '0.250000' points = '510.4,500.8 510.4,662.4 512.3,662.4 512.3,504.8 '/>
		<polygon fill = 'rgb( 31, 120, 180)' fill-opacity = '0.250000' points = '512.3,504.8 512.3,662.4 514.2,662.4 514.2,508.6 '/>
		<polygon fill = 'rgb( 31, 120, 180)' fill-opacity = '0.250000' points = '514.2,508.6 514.2,662.4 516.0,662.4 516.0,512.3 '/>
		<polygon fill = 'rgb( 31, 120, 180)' fill-opacity = '0.250000' points = '516.0,512.3 516.0,662.4 517.9,662.4 517.9,515.9 '/>
		<polygon fill = 'rgb( 31, 120, 180)' fill-opacity = '0.250000' points = '517.9,515.9 517.9,662.4 519.8,662.4 519.8,519.4 '/>
		<polygon fill = 'rgb( 31, 120, 180)' fill-opacity = '0.250000' points = '519.8,519.4 519.8,662.4 521.6,662.4 521.6,522.7 '/>
		<polygon fill = 'rgb( 31, 120, 180)' fill-opacity = '0.250000' points = '521.6,522.7 521.6,662.4 523.5,662.4 523.5,525.8 '/>
		<polygon fill = 'rgb( 31, 120, 180)' fill-opacity = '0.250000' points = '523.5,525.8 523.5,662.4 525.4,662.4 525.4,528.8 '/>
		<polygon fill = 'rgb( 31, 120, 180)' fill-opacity = '0.250000' points = '525.4,528.8 525.4,662.4 527.3,662.4 527.3,531.6 '/>
		<polygon fill = 'rgb( 31, 120, 180)' fill-opacity = '0.250000' points = '527.3,531.6 527.3,662.4 529.1,662.4 529.1,534.1 '/>
		<polygon fill = 'rgb( 31, 120, 180)' fill-opacity = '0.250000' points = '529.1,534.1 529.1,662.4 531.0,662.4 531.0,536.5 '/>
		<polygon fill = 'rgb( 31, 120, 180)' fill-opacity = '0.250000' points = '531.0,536.5 531.0,662.4 532.9,662.4 532.9,538.7 '/>
		<polygon fill = 'rgb( 31, 120, 180)' fill-opacity = '0.250000' points = '532.9,538.7 532.9,662.4 534.7,662.4 534.7,540.8 '/>
		<polygon fill = 'rgb( 31, 120, 180)' fill-opacity = '0.250000' points = '534.7,540.8 534.7,662.4 536.6,662.4 536.6,542.7 '/>
		<polygon fill = 'rgb( 31, 120, 180)' fill-opacity = '0.250000' points = '536.6,542.7 536.6,662.4 538.5,662.4 538.5,544.4 '/>
		<polygon fill = 'rgb( 31, 120, 180)' fill-opacity = '0.250000' points = '538.5,544.4 538.5,662.4 540.4,662.4 540.4,546.0 '/>
		<polygon fill = 'rgb( 31, 120, 180)' fill-opacity = '0.250000' points = '540.4,546.0 540.4,662.4 542.2,662.4 542.2,547.5 '/>
		<polygon fill = 'rgb( 31, 120, 180)' fill-opacity = '0.250000' points = '542.2,547.5 542.2,662.4 544.1,662.4 544.1,548.8 '/>
		<polygon fill = 'rgb( 31, 120, 180)' fill-opacity = '0.250000' points = '544.1,548.8 544.1,662.4 546.0,662.4 546.0,550.1 '/>
		<polygon fill = 'rgb( 31, 120, 180)' fill-opacity = '0.250000' points = '546.0,550.1 546.0,662.4 547.8,662.4 547.8,551.3 '/>
		<polygon fill = 'rgb( 31, 120, 180)' fill-opacity = '0.250000' points = '547.8,551.3 547.8,662.4 549.7,662.4 549.7,552.4 '/>
		<polygon fill = 'rgb( 31, 120, 180)' fill-opacity = '0.250000' points = '549.7,552.4 549.7,662.4 551.6,662.4 551.6,553.4 '/>
		<polygon fill = 'rgb( 31, 120, 180)' fill-opacity = '0.250000' points = '551.6,553.4 551.6,662.4 553.4,662.4 553.4,554.4 '/>
		<polygon fill = 'rgb( 31, 120, 180)' fill-opacity = '0.250000' points = '553.4,554.4 553.4,662.4 555.3,662.4 555.3,555.3 '/>
		<polygon fill = 'rgb( 31, 120, 180)' fill-opacity = '0.250000' points = '555.3,555.3 555.3,662.4 557.2,662.4 557.2,556.2 '/>
		<polygon fill = 'rgb( 31, 120, 180)' fill-opacity = '0.250000' points = '557.2,556.2 557.2,662.4 559.1,662.4 559.1,557.0 '/>
		<polygon fill = 'rgb( 31, 120, 180)' fill-opacity = '0.250000' points = '559.1,557.0 559.1,662.4 560.9,662.4 560.9,557.8 '/>
		<polygon fill = 'rgb( 31, 120, 180)' fill-opacity = '0.250000' points = '560.9,557.8 560.9,662.4 562.8,662.4 562.8,558.5 '/>
		<polygon fill = 'rgb( 31, 120, 180)' fill-opacity = '0.250000' points = '562.8,558.5 562.8,662.4 564.7,662.4 564.7,559.2 '/>
		<polygon fill = 'rgb( 31, 120, 180)' fill-opacity = '0.250000' points = '564.7,559.2 564.7,662.4 566.5,662.4 566.5,559.8 '/>
		<polygon fill = 'rgb( 31, 120, 180)' fill-opacity = '0.250000' points = '566.5,559.8 566.5,662.4 568.4,662.4 568.4,560.3 '/>
		<polygon fill = 'rgb( 31, 120, 180)' fill-opacity = '0.250000' points = '568.4,560.3 568.4,662.4 570.3,662.4 570.3,560.8 '/>
		<polygon fill = 'rgb( 31, 120, 180)' fill-opacity = '0.250000' points = '570.3,560.8 570.3,662.4 572.2,662.4 572.2,561.2 '/>
		<polygon fill = 'rgb( 31, 120, 180)' fill-opacity = '0.250000' points = '572.2,561.2 572.2,662.4 574.0,662.4 574.0,561.5 '/>
		<polygon fill = 'rgb( 31, 120, 180)' fill-opacity = '0.250000' points = '574.0,561.5 574.0,662.4 575.9,662.4 575.9,561.8 '/>
		<polygon fill = 'rgb( 31, 120, 180)' fill-opacity = '0.250000' points = '575.9,561.8 575.9,662.4 577.8,662.4 577.8,562.0 '/>
		<polygon fill = 'rgb( 31, 120, 180)' fill-opacity = '0.250000' points = '577.8,562.0 577.8,662.4 579.6,662.4 579.6,562.0 '/>
		<polygon fill = 'rgb( 31, 120, 180)' fill-opacity = '0.250000' points = '579.6,562.0 579.6,662.4 581.5,662.4 581.5,562.0 '/>
		<polygon fill = 'rgb( 31, 120, 180)' fill-opacity = '0.250000' points = '581.5,562.0 581.5,662.4 583.4,662.4 583.4,561.9 '/>
		<polygon fill = 'rgb( 31, 120, 180)' fill-opacity = '0.250000' points = '583.4,561.9 583.4,662.4 585.2,662.4 585.2,561.7 '/>
		<polygon fill = 'rgb( 31, 120, 180)' fill-opacity = '0.250000' points = '585.2,561.7 585.2,662.4 587.1,662.4 587.1,561.3 '/>
		<polygon fill = 'rgb( 31, 120, 180)' fill-opacity = '0.250000' points = '587.1,561.3 587.1,662.4 589.0,662.4 589.0,560.9 '/>
		<polygon fill = 'rgb( 31, 120, 180)' fill-opacity = '0.250000' points = '589.0,560.9 589.0,662.4 590.9,662.4 590.9,560.3 '/>
		<polygon fill = 'rgb( 31, 120, 180)' fill-opacity = '0.250000' points = '590.9,560.3 590.9,662.4 592.7,662.4 592.7,559.7 '/>
		<polygon fill = 'rgb( 31, 120, 180)' fill-opacity = '0.250000' points = '592.7,559.7 592.7,662.4 594.6,662.4 594.6,559.0 '/>
		<polygon fill = 'rgb( 31, 120, 180)' fill-opacity = '0.250000' points = '594.6,559.0 594.6,662.4 596.5,662.4 596.5,558.2 '/>
		<polygon fill = 'rgb( 31, 120, 180)' fill-opacity = '0.250000' points = '596.5,558.2 596.5,662.4 598.3,662.4 598.3,557.3 '/>
		<polygon fill = 'rgb( 31, 120, 180)' fill-opacity = '0.250000' points = '598.3,557.3 598.3,662.4 600.2,662.4 600.2,556.3 '/>
		<polygon fill = 'rgb( 31, 120, 180)' fill-opacity = '0.250000' points = '600.2,556.3 600.2,662.4 602.1,662.4 602.1,555.4 '/>
		<polygon fill = 'rgb( 31, 120, 180)' fill-opacity = '0.250000' points = '602.1,555.4 602.1,662.4 604.0,662.4 604.0,554.4 '/>
		<polygon fill = 'rgb( 31, 120, 180)' fill-opacity = '0.250000' points = '604.0,554.4 604.0,662.4 605.8,662.4 605.8,553.4 '/>
		<polygon fill = 'rgb( 31, 120, 180)' fill-opacity = '0.250000' points = '605.8,553.4 605.8,662.4 607.7,662.4 607.7,552.5 '/>
		<polygon fill = 'rgb( 31, 120, 180)' fill-opacity = '0.250000' points = '607.7,552.5 607.7,662.4 609.6,662.4 609.6,551.6 '/>
		<polygon fill = 'rgb( 31, 120, 180)' fill-opacity = '0.250000' points = '609.6,551.6 609.6,662.4 611.4,662.4 611.4,550.8 '/>
		<polygon fill = 'rgb( 31, 120, 180)' fill-opacity = '0.250000' points = '611.4,550.8 611.4,662.4 613.3,662.4 613.3,550.1 '/>
		<polygon fill = 'rgb( 31, 120, 180)' fill-opacity = '0.250000' points = '613.3,550.1 613.3,662.4 615.2,662.4 615.2,549.6 '/>
		<polygon fill = 'rgb( 31, 120, 180)' fill-opacity = '0.250000' points = '615.2,549.6 615.2,662.4 617.0,662.4 617.0,549.2 '/>
		<polygon fill = 'rgb( 31, 120, 180)' fill-opacity = '0.250000' points = '617.0,549.2 617.0,662.4 618.9,662.4 618.9,549.1 '/>
		<polygon fill = 'rgb( 31, 120, 180)' fill-opacity = '0.250000' points = '618.9,549.1 618.9,662.4 620.8,662.4 620.8,549.1 '/>
		<polygon fill = 'rgb( 31, 120, 180)' fill-opacity = '0.250000' points = '620.8,549.1 620.8,662.4 622.7,662.4 622.7,549.4 '/>
		<polygon fill = 'rgb( 31, 120, 180)' fill-opacity = '0.250000' points = '622.7,549.4 622.7,662.4 624.5,662.4 624.5,550.0 '/>
		<polygon fill = 'rgb( 31, 120, 180)' fill-opacity = '0.250000' points = '624.5,550.0 624.5,662.4 626.4,662.4 626.4,550.8 '/>
		<polygon fill = 'rgb( 31, 120, 180)' fill-opacity = '0.250000' points = '626.4,550.8 626.4,662.4 628.3,662.4 628.3,551.9 '/>
		<polygon fill = 'rgb( 31, 120, 180)' fill-opacity = '0.250000' points = '628.3,551.9 628.3,662.4 630.1,662.4 630.1,553.2 '/>
		<polygon fill = 'rgb( 31, 120, 180)' fill-opacity = '0.250000' points = '630.1,553.2 630.1,662.4 632.0,662.4 632.0,554.8 '/>
		<polygon fill = 'rgb( 31, 120, 180)' fill-opacity = '0.250000' points = '632.0,554.8 632.0,662.4 633.9,662.4 633.9,556.7 '/>
		<polygon fill = 'rgb( 31, 120, 180)' fill-opacity = '0.250000' points = '633.9,556.7 633.9,662.4 635.8,662.4 635.8,558.8 '/>
		<polygon fill = 'rgb( 31, 120, 180)' fill-opacity = '0.250000' points = '635.8,558.8 635.8,662.4 637.6,662.4 637.6,561.1 '/>
		<polygon fill = 'rgb( 31, 120, 180)' fill-opacity = '0.250000' points = '637.6,561.1 637.6,662.4 639.5,662.4 639.5,563.6 '/>
		<polygon fill = 'rgb( 31, 120, 180)' fill-opacity = '0.250000' points = '639.5,563.6 639.5,662.4 641.4,662.4 641.4,566.3 '/>
		<polygon fill = 'rgb( 31, 120, 180)' fill-opacity = '0.250000' points = '641.4,566.3 641.4,662.4 643.2,662.4 643.2,569.0 '/>
		<polygon fill = 'rgb( 31, 120, 180)' fill-opacity = '0.250000' points = '643.2,569.0 643.2,662.4 645.1,662.4 645.1,571.9 '/>
		<polygon fill = 'rgb( 31, 120, 180)' fill-opacity = '0.250000' points = '645.1,571.9 645.1,662.4 647.0,662.4 647.0,574.8 '/>
		<polygon fill = 'rgb( 31, 120, 180)' fill-opacity = '0.250000' points = '647.0,574.8 647.0,662.4 648.8,662.4 648.8,577.7 '/>
		<polygon fill = 'rgb( 31, 120, 180)' fill-opacity = '0.250000' points = '648.8,577.7 648.8,662.4 650.7,662.4 650.7,580.7 '/>
		<polygon fill = 'rgb( 31, 120, 180)' fill-opacity = '0.250000' points = '650.7,580.7 650.7,662.4 652.6,662.4 652.6,583.6 '/>
		<polygon fill = 'rgb( 31, 120, 180)' fill-opacity = '0.250000' points = '652.6,583.6 652.6,662.4 654.5,662.4 654.5,586.5 '/>
		<polygon fill = 'rgb( 31, 120, 180)' fill-opacity = '0.250000' points = '654.5,586.5 654.5,662.4 656.3,662.4 656.3,589.2 '/>
		<polygon fill = 'rgb( 31, 120, 180)' fill-opacity = '0.250000' points = '656.3,589.2 656.3,662.4 658.2,662.4 658.2,591.9 '/>
		<polygon fill = 'rgb( 31, 120, 180)' fill-opacity = '0.250000' points = '658.2,591.9 658.2,662.4 660.1,662.4 660.1,594.5 '/>
		<polygon fill = 'rgb( 31, 120, 180)' fill-opacity = '0.250000' points = '660.1,594.5 660.1,662.4 661.9,662.4 661.9,596.9 '/>
		<polygon fill = 'rgb( 31, 120, 180)' fill-opacity = '0.250000' points = '661.9,596.9 661.9,662.4 663.8,662.4 663.8,599.3 '/>
		<polygon fill = 'rgb( 31, 120, 180)' fill-opacity = '0.250000' points = '663.8,599.3 663.8,662.4 665.7,662.4 665.7,601.5 '/>
		<polygon fill = 'rgb( 31, 120, 180)' fill-opacity = '0.250000' points = '665.7,601.5 665.7,662.4 667.5,662.4 667.5,603.5 '/>
		<polygon fill = 'rgb( 31, 120, 180)' fill-opacity = '0.250000' points = '667.5,603.5 667.5,662.4 669.4,662.4 669.4,605.4 '/>
		<polygon fill = 'rgb( 31, 120, 180)' fill-opacity = '0.250000' points = '669.4,605.4 669.4,662.4 671.3,662.4 671.3,607.2 '/>
		<polygon fill = 'rgb( 31, 120, 180)' fill-opacity = '0.250000' points = '671.3,607.2 671.3,662.4 673.2,662.4 673.2,608.8 '/>
		<polygon fill = 'rgb( 31, 120, 180)' fill-opacity = '0.250000' points = '673.2,608.8 673.2,662.4 675.0,662.4 675.0,610.4 '/>
		<polygon fill = 'rgb( 31, 120, 180)' fill-opacity = '0.250000' points = '675.0,610.4 675.0,662.4 676.9,662.4 676.9,611.7 '/>
		<polygon fill = 'rgb( 31, 120, 180)' fill-opacity = '0.250000' points = '676.9,611.7 676.9,662.4 678.8,662.4 678.8,613.0 '/>
		<polygon fill = 'rgb( 31, 120, 180)' fill-opacity = '0.250000' points = '678.8,613.0 678.8,662.4 680.6,662.4 680.6,614.2 '/>
		<polygon fill = 'rgb( 31, 120, 180)' fill-opacity = '0.250000' points = '680.6,614.2 680.6,662.4 682.5,662.4 682.5,615.2 '/>
		<polygon fill = 'rgb( 31, 120, 180)' fill-opacity = '0.250000' points = '682.5,615.2 682.5,662.4 684.4,662.4 684.4,616.1 '/>
		<polygon fill = 'rgb( 31, 120, 180)' fill-opacity = '0.250000' points = '684.4,616.1 684.4,662.4 686.3,662.4 686.3,617.0 '/>
		<polygon fill = 'rgb( 31, 120, 180)' fill-opacity = '0.250000' points = '686.3,617.0 686.3,662.4 688.1,662.4 688.1,617.7 '/>
		<polygon fill = 'rgb( 31, 120, 180)' fill-opacity = '0.250000' points = '688.1,617.7 688.1,662.4 690.0,662.4 690.0,618.3 '/>
		<polygon fill = 'rgb( 31, 120, 180)' fill-opacity = '0.250000' points = '690.0,618.3 690.0,662.4 691.9,662.4 691.9,618.8 '/>
		<polygon fill = 'rgb( 31, 120, 180)' fill-opacity = '0.250000' points = '691.9,618.8 691.9,662.4 693.7,662.4 693.7,619.3 '/>
		<polygon fill = 'rgb( 31, 120, 180)' fill-opacity = '0.250000' points = '693.7,619.3 693.7,662.4 695.6,662.4 695.6,619.6 '/>
		<polygon fill = 'rgb( 31, 120, 180)' fill-opacity = '0.250000' points = '695.6,619.6 695.6,662.4 697.5,662.4 697.5,619.9 '/>
		<polygon fill = 'rgb( 31, 120, 180)' fill-opacity = '0.250000' points = '697.5,619.9 697.5,662.4 699.3,662.4 699.3,620.0 '/>
		<polygon fill = 'rgb( 31, 120, 180)' fill-opacity = '0.250000' points = '699.3,620.0 699.3,662.4 701.2,662.4 701.2,620.1 '/>
		<polygon fill = 'rgb( 31, 120, 180)' fill-opacity = '0.250000' points = '701.2,620.1 701.2,662.4 703.1,662.4 703.1,620.1 '/>
		<polygon fill = 'rgb( 31, 120, 180)' fill-opacity = '0.250000' points = '703.1,620.1 703.1,662.4 705.0,662.4 705.0,620.0 '/>
		<polygon fill = 'rgb( 31, 120, 180)' fill-opacity = '0.250000' points = '705.0,620.0 705.0,662.4 706.8,662.4 706.8,619.9 '/>
		<polygon fill = 'rgb( 31, 120, 180)' fill-opacity = '0.250000' points = '706.8,619.9 706.8,662.4 708.7,662.4 708.7,619.6 '/>
		<polygon fill = 'rgb( 31, 120, 180)' fill-opacity = '0.250000' points = '708.7,619.6 708.7,662.4 710.6,662.4 710.6,619.3 '/>
		<polygon fill = 'rgb( 31, 120, 180)' fill-opacity = '0.250000' points = '710.6,619.3 710.6,662.4 712.4,662.4 712.4,619.0 '/>
		<polygon fill = 'rgb( 31, 120, 180)' fill-opacity = '0.250000' points = '712.4,619.0 712.4,662.4 714.3,662.4 714.3,618.6 '/>
		<polygon fill = 'rgb( 31, 120, 180)' fill-opacity = '0.250000' points = '714.3,618.6 714.3,662.4 716.2,662.4 716.2,618.1 '/>
		<polygon fill = 'rgb( 31, 120, 180)' fill-opacity = '0.250000' points = '716.2,618.1 716.2,662.4 718.1,662.4 718.1,617.7 '/>
		<polygon fill = 'rgb( 31, 120, 180)' fill-opacity = '0.250000' points = '718.1,617.7 718.1,662.4 719.9,662.4 719.9,617.2 '/>
		<polygon fill = 'rgb( 31, 120, 180)' fill-opacity = '0.250000' points = '719.9,617.2 719.9,662.4 721.8,662.4 721.8,616.6 '/>
		<polygon fill = 'rgb( 31, 120, 180)' fill-opacity = '0.250000' points = '721.8,616.6 721.8,662.4 723.7,662.4 723.7,616.1 '/>
		<polygon fill = 'rgb( 31, 120, 180)' fill-opacity = '0.250000' points = '723.7,616.1 723.7,662.4 725.5,662.4 725.5,615.5 '/>
		<polygon fill = 'rgb( 31, 120, 180)' fill-opacity = '0.250000' points = '725.5,615.5 725.5,662.4 727.4,662.4 727.4,615.0 '/>
		<polygon fill = 'rgb( 31, 120, 180)' fill-opacity = '0.250000' points = '727.4,615.0 727.4,662.4 729.3,662.4 729.3,614.5 '/>
		<polygon fill = 'rgb( 31, 120, 180)' fill-opacity = '0.250000' points = '729.3,614.5 729.3,662.4 731.1,662.4 731.1,613.9 '/>
		<polygon fill = 'rgb( 31, 120, 180)' fill-opacity = '0.250000' points = '731.1,613.9 731.1,662.4 733.0,662.4 733.0,613.4 '/>
		<polygon fill = 'rgb( 31, 120, 180)' fill-opacity = '0.250000' points = '733.0,613.4 733.0,662.4 734.9,662.4 734.9,613.0 '/>
		<polygon fill = 'rgb( 31, 120, 180)' fill-opacity = '0.250000' points = '734.9,613.0 734.9,662.4 736.8,662.4 736.8,612.5 '/>
		<polygon fill = 'rgb( 31, 120, 180)' fill-opacity = '0.250000' points = '736.8,612.5 736.8,662.4 738.6,662.4 738.6,612.2 '/>
		<polygon fill = 'rgb( 31, 120, 180)' fill-opacity = '0.250000' points = '738.6,612.2 738.6,662.4 740.5,662.4 740.5,611.8 '/>
		<polygon fill = 'rgb( 31, 120, 180)' fill-opacity = '0.250000' points = '740.5,611.8 740.5,662.4 742.4,662.4 742.4,611.6 '/>
		<polygon fill = 'rgb( 31, 120, 180)' fill-opacity = '0.250000' points = '742.4,611.6 742.4,662.4 744.2,662.4 744.2,611.4 '/>
		<polygon fill = 'rgb( 31, 120, 180)' fill-opacity = '0.250000' points = '744.2,611.4 744.2,662.4 746.1,662.4 746.1,611.2 '/>
		<polygon fill = 'rgb( 31, 120, 180)' fill-opacity = '0.250000' points = '746.1,611.2 746.1,662.4 748.0,662.4 748.0,611.2 '/>
		<polygon fill = 'rgb( 31, 120, 180)' fill-opacity = '0.250000' points = '748.0,611.2 748.0,662.4 749.9,662.4 749.9,611.2 '/>
		<polygon fill = 'rgb( 31, 120, 180)' fill-opacity = '0.250000' points = '749.9,611.2 749.9,662.4 751.7,662.4 751.7,611.3 '/>
		<polygon fill = 'rgb( 31, 120, 180)' fill-opacity = '0.250000' points = '751.7,611.3 751.7,662.4 753.6,662.4 753.6,611.4 '/>
		<polygon fill = 'rgb( 31, 120, 180)' fill-opacity = '0.250000' points = '753.6,611.4 753.6,662.4 755.5,662.4 755.5,611.7 '/>
		<polygon fill = 'rgb( 31, 120, 180)' fill-opacity = '0.250000' points = '755.5,611.7 755.5,662.4 757.3,662.4 757.3,612.0 '/>
		<polygon fill = 'rgb( 31, 120, 180)' fill-opacity = '0.250000' points = '757.3,612.0 757.3,662.4 759.2,662.4 759.2,612.4 '/>
		<polygon fill = 'rgb( 31, 120, 180)' fill-opacity = '0.250000' points = '759.2,612.4 759.2,662.4 761.1,662.4 761.1,612.9 '/>
		<polygon fill = 'rgb( 31, 120, 180)' fill-opacity = '0.250000' points = '761.1,612.9 761.1,662.4 762.9,662.4 762.9,613.4 '/>
		<polygon fill = 'rgb( 31, 120, 180)' fill-opacity = '0.250000' points = '762.9,613.4 762.9,662.4 764.8,662.4 764.8,614.0 '/>
		<polygon fill = 'rgb( 31, 120, 180)' fill-opacity = '0.250000' points = '764.8,614.0 764.8,662.4 766.7,662.4 766.7,614.7 '/>
		<polygon fill = 'rgb( 31, 120, 180)' fill-opacity = '0.250000' points = '766.7,614.7 766.7,662.4 768.6,662.4 768.6,615.4 '/>
		<polygon fill = 'rgb( 31, 120, 180)' fill-opacity = '0.250000' points = '768.6,615.4 768.6,662.4 770.4,662.4 770.4,616.1 '/>
		<polygon fill = 'rgb( 31, 120, 180)' fill-opacity = '0.250000' points = '770.4,616.1 770.4,662.4 772.3,662.4 772.3,616.9 '/>
		<polygon fill = 'rgb( 31, 120, 180)' fill-opacity = '0.250000' points = '772.3,616.9 772.3,662.4 774.2,662.4 774.2,617.7 '/>
		<polygon fill = 'rgb( 31, 120, 180)' fill-opacity = '0.250000' points = '774.2,617.7 774.2,662.4 776.0,662.4 776.0,618.5 '/>
		<polygon fill = 'rgb( 31, 120, 180)' fill-opacity = '0.250000' points = '776.0,618.5 776.0,662.4 777.9,662.4 777.9,619.4 '/>
		<polygon fill = 'rgb( 31, 120, 180)' fill-opacity = '0.250000' points = '777.9,619.4 777.9,662.4 779.8,662.4 779.8,620.2 '/>
		<polygon fill = 'rgb( 31, 120, 180)' fill-opacity = '0.250000' points = '779.8,620.2 779.8,662.4 781.7,662.4 781.7,621.0 '/>
		<polygon fill = 'rgb( 31, 120, 180)' fill-opacity = '0.250000' points = '781.7,621.0 781.7,662.4 783.5,662.4 783.5,621.8 '/>
		<polygon fill = 'rgb( 31, 120, 180)' fill-opacity = '0.250000' points = '783.5,621.8 783.5,662.4 785.4,662.4 785.4,622.6 '/>
		<polygon fill = 'rgb( 31, 120, 180)' fill-opacity = '0.250000' points = '785.4,622.6 785.4,662.4 787.3,662.4 787.3,623.4 '/>
		<polygon fill = 'rgb( 31, 120, 180)' fill-opacity = '0.250000' points = '787.3,623.4 787.3,662.4 789.1,662.4 789.1,624.1 '/>
		<polygon fill = 'rgb( 31, 120, 180)' fill-opacity = '0.250000' points = '789.1,624.1 789.1,662.4 791.0,662.4 791.0,624.8 '/>
		<polygon fill = 'rgb( 31, 120, 180)' fill-opacity = '0.250000' points = '791.0,624.8 791.0,662.4 792.9,662.4 792.9,625.5 '/>
		<polygon fill = 'rgb( 31, 120, 180)' fill-opacity = '0.250000' points = '792.9,625.5 792.9,662.4 794.7,662.4 794.7,626.1 '/>
		<polygon fill = 'rgb( 31, 120, 180)' fill-opacity = '0.250000' points = '794.7,626.1 794.7,662.4 796.6,662.4 796.6,626.6 '/>
		<polygon fill = 'rgb( 31, 120, 180)' fill-opacity = '0.250000' points = '796.6,626.6 796.6,662.4 798.5,662.4 798.5,627.1 '/>
		<polygon fill = 'rgb( 31, 120, 180)' fill-opacity = '0.250000' points = '798.5,627.1 798.5,662.4 800.4,662.4 800.4,627.6 '/>
		<polygon fill = 'rgb( 31, 120, 180)' fill-opacity = '0.250000' points = '800.4,627.6 800.4,662.4 802.2,662.4 802.2,628.0 '/>
		<polygon fill = 'rgb( 31, 120, 180)' fill-opacity = '0.250000' points = '802.2,628.0 802.2,662.4 804.1,662.4 804.1,628.3 '/>
		<polygon fill = 'rgb( 31, 120, 180)' fill-opacity = '0.250000' points = '804.1,628.3 804.1,662.4 806.0,662.4 806.0,628.6 '/>
		<polygon fill = 'rgb( 31, 120, 180)' fill-opacity = '0.250000' points = '806.0,628.6 806.0,662.4 807.8,662.4 807.8,628.8 '/>
		<polygon fill = 'rgb( 31, 120, 180)' fill-opacity = '0.250000' points = '807.8,628.8 807.8,662.4 809.7,662.4 809.7,628.9 '/>
		<polygon fill = 'rgb( 31, 120, 180)' fill-opacity = '0.250000' points = '809.7,628.9 809.7,662.4 811.6,662.4 811.6,629.0 '/>
		<polygon fill = 'rgb( 31, 120, 180)' fill-opacity = '0.250000' points = '811.6,629.0 811.6,662.4 813.5,662.4 813.5,629.0 '/>
		<polygon fill = 'rgb( 31, 120, 180)' fill-opacity = '0.250000' points = '813.5,629.0 813.5,662.4 815.3,662.4 815.3,628.9 '/>
		<polygon fill = 'rgb( 31, 120, 180)' fill-opacity = '0.250000' points = '815.3,628.9 815.3,662.4 817.2,662.4 817.2,628.8 '/>
		<polygon fill = 'rgb( 31, 120, 180)' fill-opacity = '0.250000' points = '817.2,628.8 817.2,662.4 819.1,662.4 819.1,628.6 '/>
		<polygon fill = 'rgb( 31, 120, 180)' fill-opacity = '0.250000' points = '819.1,628.6 819.1,662.4 820.9,662.4 820.9,628.3 '/>
		<polygon fill = 'rgb( 31, 120, 180)' fill-opacity = '0.250000' points = '820.9,628.3 820.9,662.4 822.8,662.4 822.8,628.0 '/>
		<polygon fill = 'rgb( 31, 120, 180)' fill-opacity = '0.250000' points = '822.8,628.0 822.8,662.4 824.7,662.4 824.7,627.6 '/>
		<polygon fill = 'rgb( 31, 120, 180)' fill-opacity = '0.250000' points = '824.7,627.6 824.7,662.4 826.5,662.4 826.5,627.2 '/>
		<polygon fill = 'rgb( 31, 120, 180)' fill-opacity = '0.250000' points = '826.5,627.2 826.5,662.4 828.4,662.4 828.4,626.7 '/>
		<polygon fill = 'rgb( 31, 120, 180)' fill-opacity = '0.250000' points = '828.4,626.7 828.4,662.4 830.3,662.4 830.3,626.2 '/>
		<polygon fill = 'rgb( 31, 120, 180)' fill-opacity = '0.250000' points = '830.3,626.2 830.3,662.4 832.2,662.4 832.2,625.7 '/>
		<polygon fill = 'rgb( 31, 120, 180)' fill-opacity = '0.250000' points = '832.2,625.7 832.2,662.4 834.0,662.4 834.0,625.2 '/>
		<polygon fill = 'rgb( 31, 120, 180)' fill-opacity = '0.250000' points = '834.0,625.2 834.0,662.4 835.9,662.4 835.9,624.7 '/>
		<polygon fill = 'rgb( 31, 120, 180)' fill-opacity = '0.250000' points = '835.9,624.7 835.9,662.4 837.8,662.4 837.8,624.2 '/>
		<polygon fill = 'rgb( 31, 120, 180)' fill-opacity = '0.250000' points = '837.8,624.2 837.8,662.4 839.6,662.4 839.6,623.7 '/>
		<polygon fill = 'rgb( 31, 120, 180)' fill-opacity = '0.250000' points = '839.6,623.7 839.6,662.4 841.5,662.4 841.5,623.3 '/>
		<polygon fill = 'rgb( 31, 120, 180)' fill-opacity = '0.250000' points = '841.5,623.3 841.5,662.4 843.4,662.4 843.4,622.9 '/>
		<polygon fill = 'rgb( 31, 120, 180)' fill-opacity = '0.250000' points = '843.4,622.9 843.4,662.4 845.3,662.4 845.3,622.6 '/>
		<polygon fill = 'rgb( 31, 120, 180)' fill-opacity = '0.250000' points = '845.3,622.6 845.3,662.4 847.1,662.4 847.1,622.3 '/>
		<polygon fill = 'rgb( 31, 120, 180)' fill-opacity = '0.250000' points = '847.1,622.3 847.1,662.4 849.0,662.4 849.0,622.1 '/>
		<polygon fill = 'rgb( 31, 120, 180)' fill-opacity = '0.250000' points = '849.0,622.1 849.0,662.4 850.9,662.4 850.9,622.0 '/>
		<polygon fill = 'rgb( 31, 120, 180)' fill-opacity = '0.250000' points = '850.9,622.0 850.9,662.4 852.7,662.4 852.7,621.9 '/>
		<polygon fill = 'rgb( 31, 120, 180)' fill-opacity = '0.250000' points = '852.7,621.9 852.7,662.4 854.6,662.4 854.6,621.9 '/>
		<polygon fill = 'rgb( 31, 120, 180)' fill-opacity = '0.250000' points = '854.6,621.9 854.6,662.4 856.5,662.4 856.5,622.0 '/>
		<polygon fill = 'rgb( 31, 120, 180)' fill-opacity = '0.250000' points = '856.5,622.0 856.5,662.4 858.3,662.4 858.3,622.1 '/>
		<polygon fill = 'rgb( 31, 120, 180)' fill-opacity = '0.250000' points = '858.3,622.1 858.3,662.4 860.2,662.4 860.2,622.3 '/>
		<polygon fill = 'rgb( 31, 120, 180)' fill-opacity = '0.250000' points = '860.2,622.3 860.2,662.4 862.1,662.4 862.1,622.5 '/>
		<polygon fill = 'rgb( 31, 120, 180)' fill-opacity = '0.250000' points = '862.1,622.5 862.1,662.4 864.0,662.4 864.0,622.8 '/>
		<polygon fill = 'rgb( 31, 120, 180)' fill-opacity = '0.250000' points = '864.0,622.8 864.0,662.4 865.8,662.4 865.8,623.1 '/>
		<polygon fill = 'rgb( 31, 120, 180)' fill-opacity = '0.250000' points = '865.8,623.1 865.8,662.4 867.7,662.4 867.7,623.4 '/>
		<polygon fill = 'rgb( 31, 120, 180)' fill-opacity = '0.250000' points = '867.7,623.4 867.7,662.4 869.6,662.4 869.6,623.7 '/>
		<polygon fill = 'rgb( 31, 120, 180)' fill-opacity = '0.250000' points = '869.6,623.7 869.6,662.4 871.4,662.4 871.4,624.0 '/>
		<polygon fill = 'rgb( 31, 120, 180)' fill-opacity = '0.250000' points = '871.4,624.0 871.4,662.4 873.3,662.4 873.3,624.4 '/>
		<polygon fill = 'rgb( 31, 120, 180)' fill-opacity = '0.250000' points = '873.3,624.4 873.3,662.4 875.2,662.4 875.2,624.8 '/>
		<polygon fill = 'rgb( 31, 120, 180)' fill-opacity = '0.250000' points = '875.2,624.8 875.2,662.4 877.1,662.4 877.1,625.2 '/>
		<polygon fill = 'rgb( 31, 120, 180)' fill-opacity = '0.250000' points = '877.1,625.2 877.1,662.4 878.9,662.4 878.9,625.5 '/>
		<polygon fill = 'rgb( 31, 120, 180)' fill-opacity = '0.250000' points = '878.9,625.5 878.9,662.4 880.8,662.4 880.8,626.0 '/>
		<polygon fill = 'rgb( 31, 120, 180)' fill-opacity = '0.250000' points = '880.8,626.0 880.8,662.4 882.7,662.4 882.7,626.4 '/>
		<polygon fill = 'rgb( 31, 120, 180)' fill-opacity = '0.250000' points = '882.7,626.4 882.7,662.4 884.5,662.4 884.5,626.8 '/>
		<polygon fill = 'rgb( 31, 120, 180)' fill-opacity = '0.250000' points = '884.5,626.8 884.5,662.4 886.4,662.4 886.4,627.2 '/>
		<polygon fill = 'rgb( 31, 120, 180)' fill-opacity = '0.250000' points = '886.4,627.2 886.4,662.4 888.3,662.4 888.3,627.6 '/>
		<polygon fill = 'rgb( 31, 120, 180)' fill-opacity = '0.250000' points = '888.3,627.6 888.3,662.4 890.1,662.4 890.1,628.1 '/>
		<polygon fill = 'rgb( 31, 120, 180)' fill-opacity = '0.250000' points = '890.1,628.1 890.1,662.4 892.0,662.4 892.0,628.5 '/>
		<polygon fill = 'rgb( 31, 120, 180)' fill-opacity = '0.250000' points = '892.0,628.5 892.0,662.4 893.9,662.4 893.9,628.9 '/>
		<polygon fill = 'rgb( 31, 120, 180)' fill-opacity = '0.250000' points = '893.9,628.9 893.9,662.4 895.8,662.4 895.8,629.3 '/>
		<polygon fill = 'rgb( 31, 120, 180)' fill-opacity = '0.250000' points = '895.8,629.3 895.8,662.4 897.6,662.4 897.6,629.7 '/>
		<polygon fill = 'rgb( 31, 120, 180)' fill-opacity = '0.250000' points = '897.6,629.7 897.6,662.4 899.5,662.4 899.5,630.1 '/>
		<polygon fill = 'rgb( 31, 120, 180)' fill-opacity = '0.250000' points = '899.5,630.1 899.5,662.4 901.4,662.4 901.4,630.4 '/>
		<polygon fill = 'rgb( 31, 120, 180)' fill-opacity = '0.250000' points = '901.4,630.4 901.4,662.4 903.2,662.4 903.2,630.7 '/>
		<polygon fill = 'rgb( 31, 120, 180)' fill-opacity = '0.250000' points = '903.2,630.7 903.2,662.4 905.1,662.4 905.1,631.0 '/>
		<polygon fill = 'rgb( 31, 120, 180)' fill-opacity = '0.250000' points = '905.1,631.0 905.1,662.4 907.0,662.4 907.0,631.3 '/>
		<polygon fill = 'rgb( 31, 120, 180)' fill-opacity = '0.250000' points = '907.0,631.3 907.0,662.4 908.8,662.4 908.8,631.5 '/>
		<polygon fill = 'rgb( 31, 120, 180)' fill-opacity = '0.250000' points = '908.8,631.5 908.8,662.4 910.7,662.4 910.7,631.6 '/>
		<polygon fill = 'rgb( 31, 120, 180)' fill-opacity = '0.250000' points = '910.7,631.6 910.7,662.4 912.6,662.4 912.6,631.8 '/>
		<polygon fill = 'rgb( 31, 120, 180)' fill-opacity = '0.250000' points = '912.6,631.8 912.6,662.4 914.5,662.4 914.5,631.9 '/>
		<polygon fill = 'rgb( 31, 120, 180)' fill-opacity = '0.250000' points = '914.5,631.9 914.5,662.4 916.3,662.4 916.3,631.9 '/>
		<polygon fill = 'rgb( 31, 120, 180)' fill-opacity = '0.250000' points = '916.3,631.9 916.3,662.4 918.2,662.4 918.2,632.0 '/>
		<polygon fill = 'rgb( 31, 120, 180)' fill-opacity = '0.250000' points = '918.2,632.0 918.2,662.4 920.1,662.4 920.1,632.0 '/>
		<polygon fill = 'rgb( 31, 120, 180)' fill-opacity = '0.250000' points = '920.1,632.0 920.1,662.4 921.9,662.4 921.9,632.0 '/>
		<polygon fill = 'rgb( 31, 120, 180)' fill-opacity = '0.250000' points = '921.9,632.0 921.9,662.4 923.8,662.4 923.8,631.9 '/>
		<polygon fill = 'rgb( 31, 120, 180)' fill-opacity = '0.250000' points = '923.8,631.9 923.8,662.4 925.7,662.4 925.7,631.9 '/>
	</g>
</g>
	</g>
	<g id="gnuplot_plot_3" ><title>Point estimate</title>
<g fill="none" color="white" stroke="rgb( 31, 120, 180)" stroke-width="2.00" stroke-linecap="butt" stroke-linejoin="miter">
</g>
<g fill="none" color="black" stroke="currentColor" stroke-width="2.00" stroke-linecap="butt" stroke-linejoin="miter">
	<g transform="translate(1089.0,103.0)" stroke="none" fill="black" font-family="Helvetica" font-size="12.00"  text-anchor="start">
		<text><tspan font-family="Helvetica" >Point estimate</tspan></text>
	</g>
</g>
<g fill="none" color="black" stroke="currentColor" stroke-width="2.00" stroke-linecap="butt" stroke-linejoin="miter">
	<path stroke='rgb( 31, 120, 180)'  d='M1038.5,99.1 L1080.7,99.1 M362.5,662.4 L362.5,109.7  '/></g>
	</g>
<g fill="none" color="black" stroke="currentColor" stroke-width="2.00" stroke-linecap="butt" stroke-linejoin="miter">
</g>
<g fill="none" color="black" stroke="black" stroke-width="1.00" stroke-linecap="butt" stroke-linejoin="miter">
</g>
<g fill="none" color="black" stroke="currentColor" stroke-width="1.00" stroke-linecap="butt" stroke-linejoin="miter">
	<path stroke='black'  d='M80.2,54.1 L80.2,662.4 L1013.6,662.4 L1013.6,54.1 L80.2,54.1 Z  '/></g>
<g fill="none" color="black" stroke="currentColor" stroke-width="1.00" stroke-linecap="butt" stroke-linejoin="miter">
</g>
</g>
</svg>

