<?xml version="1.0" encoding="utf-8"  standalone="no"?>
<svg 
 viewBox="0 0 1280 720"
 xmlns="http://www.w3.org/2000/svg"
 xmlns:xlink="http://www.w3.org/1999/xlink"
>

<title>Gnuplot</title>
<desc>Produced by GNUPLOT 5.0 patchlevel 6 </desc>

<g id="gnuplot_canvas">

<rect x="0" y="0" width="1280" height="720" fill="none"/>
<defs>

	<circle id='gpDot' r='0.5' stroke-width='0.5'/>
	<path id='gpPt0' stroke-width='0.222' stroke='currentColor' d='M-1,0 h2 M0,-1 v2'/>
	<path id='gpPt1' stroke-width='0.222' stroke='currentColor' d='M-1,-1 L1,1 M1,-1 L-1,1'/>
	<path id='gpPt2' stroke-width='0.222' stroke='currentColor' d='M-1,0 L1,0 M0,-1 L0,1 M-1,-1 L1,1 M-1,1 L1,-1'/>
	<rect id='gpPt3' stroke-width='0.222' stroke='currentColor' x='-1' y='-1' width='2' height='2'/>
	<rect id='gpPt4' stroke-width='0.222' stroke='currentColor' fill='currentColor' x='-1' y='-1' width='2' height='2'/>
	<circle id='gpPt5' stroke-width='0.222' stroke='currentColor' cx='0' cy='0' r='1'/>
	<use xlink:href='#gpPt5' id='gpPt6' fill='currentColor' stroke='none'/>
	<path id='gpPt7' stroke-width='0.222' stroke='currentColor' d='M0,-1.33 L-1.33,0.67 L1.33,0.67 z'/>
	<use xlink:href='#gpPt7' id='gpPt8' fill='currentColor' stroke='none'/>
	<use xlink:href='#gpPt7' id='gpPt9' stroke='currentColor' transform='rotate(180)'/>
	<use xlink:href='#gpPt9' id='gpPt10' fill='currentColor' stroke='none'/>
	<use xlink:href='#gpPt3' id='gpPt11' stroke='currentColor' transform='rotate(45)'/>
	<use xlink:href='#gpPt11' id='gpPt12' fill='currentColor' stroke='none'/>
	<path id='gpPt13' stroke-width='0.222' stroke='currentColor' d='M0,1.330 L1.265,0.411 L0.782,-1.067 L-0.782,-1.076 L-1.265,0.411 z'/>
	<use xlink:href='#gpPt13' id='gpPt14' fill='currentColor' stroke='none'/>
	<filter id='textbox' filterUnits='objectBoundingBox' x='0' y='0' height='1' width='1'>
	  <feFlood flood-color='white' flood-opacity='1' result='bgnd'/>
	  <feComposite in='SourceGraphic' in2='bgnd' operator='atop'/>
	</filter>
	<filter id='greybox' filterUnits='objectBoundingBox' x='0' y='0' height='1' width='1'>
	  <feFlood flood-color='lightgrey' flood-opacity='1' result='grey'/>
	  <feComposite in='SourceGraphic' in2='grey' operator='atop'/>
	</filter>
</defs>
<g fill="none" color="white" stroke="currentColor" stroke-width="1.00" stroke-linecap="butt" stroke-linejoin="miter">
</g>
<g fill="none" color="black" stroke="currentColor" stroke-width="1.00" stroke-linecap="butt" stroke-linejoin="miter">
	<path stroke='black'  d='M80.2,662.4 L89.2,662.4  '/>	<g transform="translate(71.9,666.3)" stroke="none" fill="black" font-family="Helvetica" font-size="12.00"  text-anchor="end">
		<text><tspan font-family="Helvetica" > 0</tspan></text>
	</g>
</g>
<g fill="none" color="black" stroke="currentColor" stroke-width="1.00" stroke-linecap="butt" stroke-linejoin="miter">
	<path stroke='black'  d='M80.2,540.7 L89.2,540.7  '/>	<g transform="translate(71.9,544.6)" stroke="none" fill="black" font-family="Helvetica" font-size="12.00"  text-anchor="end">
		<text><tspan font-family="Helvetica" > 0.05</tspan></text>
	</g>
</g>
<g fill="none" color="black" stroke="currentColor" stroke-width="1.00" stroke-linecap="butt" stroke-linejoin="miter">
	<path stroke='black'  d='M80.2,419.1 L89.2,419.1  '/>	<g transform="translate(71.9,423.0)" stroke="none" fill="black" font-family="Helvetica" font-size="12.00"  text-anchor="end">
		<text><tspan font-family="Helvetica" > 0.1</tspan></text>
	</g>
</g>
<g fill="none" color="black" stroke="currentColor" stroke-width="1.00" stroke-linecap="butt" stroke-linejoin="miter">
	<path stroke='black'  d='M80.2,297.4 L89.2,297.4  '/>	<g transform="translate(71.9,301.3)" stroke="none" fill="black" font-family="Helvetica" font-size="12.00"  text-anchor="end">
		<text><tspan font-family="Helvetica" > 0.15</tspan></text>
	</g>
</g>
<g fill="none" color="black" stroke="currentColor" stroke-width="1.00" stroke-linecap="butt" stroke-linejoin="miter">
	<path stroke='black'  d='M80.2,175.8 L89.2,175.8  '/>	<g transform="translate(71.9,179.7)" stroke="none" fill="black" font-family="Helvetica" font-size="12.00"  text-anchor="end">
		<text><tspan font-family="Helvetica" > 0.2</tspan></text>
	</g>
</g>
<g fill="none" color="black" stroke="currentColor" stroke-width="1.00" stroke-linecap="butt" stroke-linejoin="miter">
	<path stroke='black'  d='M80.2,54.1 L89.2,54.1  '/>	<g transform="translate(71.9,58.0)" stroke="none" fill="black" font-family="Helvetica" font-size="12.00"  text-anchor="end">
		<text><tspan font-family="Helvetica" > 0.25</tspan></text>
	</g>
</g>
<g fill="none" color="black" stroke="currentColor" stroke-width="1.00" stroke-linecap="butt" stroke-linejoin="miter">
	<path stroke='black'  d='M119.3,662.4 L119.3,653.4  '/>	<g transform="translate(119.3,684.3)" stroke="none" fill="black" font-family="Helvetica" font-size="12.00"  text-anchor="middle">
		<text><tspan font-family="Helvetica" > 944</tspan></text>
	</g>
</g>
<g fill="none" color="black" stroke="currentColor" stroke-width="1.00" stroke-linecap="butt" stroke-linejoin="miter">
	<path stroke='black'  d='M236.0,662.4 L236.0,653.4  '/>	<g transform="translate(236.0,684.3)" stroke="none" fill="black" font-family="Helvetica" font-size="12.00"  text-anchor="middle">
		<text><tspan font-family="Helvetica" > 945</tspan></text>
	</g>
</g>
<g fill="none" color="black" stroke="currentColor" stroke-width="1.00" stroke-linecap="butt" stroke-linejoin="miter">
	<path stroke='black'  d='M352.7,662.4 L352.7,653.4  '/>	<g transform="translate(352.7,684.3)" stroke="none" fill="black" font-family="Helvetica" font-size="12.00"  text-anchor="middle">
		<text><tspan font-family="Helvetica" > 946</tspan></text>
	</g>
</g>
<g fill="none" color="black" stroke="currentColor" stroke-width="1.00" stroke-linecap="butt" stroke-linejoin="miter">
	<path stroke='black'  d='M469.4,662.4 L469.4,653.4  '/>	<g transform="translate(469.4,684.3)" stroke="none" fill="black" font-family="Helvetica" font-size="12.00"  text-anchor="middle">
		<text><tspan font-family="Helvetica" > 947</tspan></text>
	</g>
</g>
<g fill="none" color="black" stroke="currentColor" stroke-width="1.00" stroke-linecap="butt" stroke-linejoin="miter">
	<path stroke='black'  d='M586.1,662.4 L586.1,653.4  '/>	<g transform="translate(586.1,684.3)" stroke="none" fill="black" font-family="Helvetica" font-size="12.00"  text-anchor="middle">
		<text><tspan font-family="Helvetica" > 948</tspan></text>
	</g>
</g>
<g fill="none" color="black" stroke="currentColor" stroke-width="1.00" stroke-linecap="butt" stroke-linejoin="miter">
	<path stroke='black'  d='M702.8,662.4 L702.8,653.4  '/>	<g transform="translate(702.8,684.3)" stroke="none" fill="black" font-family="Helvetica" font-size="12.00"  text-anchor="middle">
		<text><tspan font-family="Helvetica" > 949</tspan></text>
	</g>
</g>
<g fill="none" color="black" stroke="currentColor" stroke-width="1.00" stroke-linecap="butt" stroke-linejoin="miter">
	<path stroke='black'  d='M819.5,662.4 L819.5,653.4  '/>	<g transform="translate(819.5,684.3)" stroke="none" fill="black" font-family="Helvetica" font-size="12.00"  text-anchor="middle">
		<text><tspan font-family="Helvetica" > 950</tspan></text>
	</g>
</g>
<g fill="none" color="black" stroke="currentColor" stroke-width="1.00" stroke-linecap="butt" stroke-linejoin="miter">
	<path stroke='black'  d='M936.2,662.4 L936.2,653.4  '/>	<g transform="translate(936.2,684.3)" stroke="none" fill="black" font-family="Helvetica" font-size="12.00"  text-anchor="middle">
		<text><tspan font-family="Helvetica" > 951</tspan></text>
	</g>
</g>
<g fill="none" color="black" stroke="currentColor" stroke-width="1.00" stroke-linecap="butt" stroke-linejoin="miter">
</g>
<g fill="none" color="black" stroke="currentColor" stroke-width="1.00" stroke-linecap="butt" stroke-linejoin="miter">
	<path stroke='black'  d='M80.2,54.1 L80.2,662.4 L1013.6,662.4 L1013.6,54.1 L80.2,54.1 Z  '/></g>
<g fill="none" color="black" stroke="currentColor" stroke-width="1.00" stroke-linecap="butt" stroke-linejoin="miter">
	<g transform="translate(17.0,358.3) rotate(270)" stroke="none" fill="black" font-family="Helvetica" font-size="12.00"  text-anchor="middle">
		<text><tspan font-family="Helvetica" >Density (a.u.)</tspan></text>
	</g>
</g>
<g fill="none" color="black" stroke="currentColor" stroke-width="1.00" stroke-linecap="butt" stroke-linejoin="miter">
	<g transform="translate(546.9,711.3)" stroke="none" fill="black" font-family="Helvetica" font-size="12.00"  text-anchor="middle">
		<text><tspan font-family="Helvetica" >Average time (us)</tspan></text>
	</g>
</g>
<g fill="none" color="black" stroke="currentColor" stroke-width="1.00" stroke-linecap="butt" stroke-linejoin="miter">
	<g transform="translate(546.9,31.0)" stroke="none" fill="black" font-family="Helvetica" font-size="12.00"  text-anchor="middle">
		<text><tspan font-family="Helvetica" >language: bash/parse normal: bash/examples/install.sh: slope</tspan></text>
	</g>
</g>
	<g id="gnuplot_plot_1" ><title>Bootstrap distribution</title>
<g fill="none" color="white" stroke="black" stroke-width="2.00" stroke-linecap="butt" stroke-linejoin="miter">
</g>
<g fill="none" color="black" stroke="currentColor" stroke-width="2.00" stroke-linecap="butt" stroke-linejoin="miter">
	<g transform="translate(1089.0,67.0)" stroke="none" fill="black" font-family="Helvetica" font-size="12.00"  text-anchor="start">
		<text><tspan font-family="Helvetica" >Bootstrap distribution</tspan></text>
	</g>
</g>
<g fill="none" color="black" stroke="currentColor" stroke-width="2.00" stroke-linecap="butt" stroke-linejoin="miter">
	<path stroke='rgb( 31, 120, 180)'  d='M1038.5,63.1 L1080.7,63.1 M80.2,638.6 L82.1,637.1 L83.9,635.6 L85.8,634.1 L87.7,632.4 L89.6,630.7
		L91.4,628.9 L93.3,627.1 L95.2,625.1 L97.0,623.1 L98.9,621.0 L100.8,618.8 L102.6,616.5 L104.5,614.2
		L106.4,611.7 L108.3,609.2 L110.1,606.6 L112.0,603.9 L113.9,601.1 L115.7,598.1 L117.6,595.1 L119.5,592.0
		L121.4,588.8 L123.2,585.5 L125.1,582.1 L127.0,578.6 L128.8,574.9 L130.7,571.2 L132.6,567.4 L134.4,563.4
		L136.3,559.4 L138.2,555.2 L140.1,550.9 L141.9,546.5 L143.8,542.0 L145.7,537.4 L147.5,532.7 L149.4,527.9
		L151.3,523.0 L153.2,517.9 L155.0,512.8 L156.9,507.6 L158.8,502.2 L160.6,496.8 L162.5,491.3 L164.4,485.7
		L166.2,480.0 L168.1,474.2 L170.0,468.3 L171.9,462.4 L173.7,456.4 L175.6,450.3 L177.5,444.2 L179.3,438.0
		L181.2,431.8 L183.1,425.6 L185.0,419.4 L186.8,413.1 L188.7,406.8 L190.6,400.6 L192.4,394.3 L194.3,388.1
		L196.2,381.9 L198.0,375.8 L199.9,369.7 L201.8,363.6 L203.7,357.6 L205.5,351.7 L207.4,345.8 L209.3,340.0
		L211.1,334.3 L213.0,328.6 L214.9,323.1 L216.7,317.6 L218.6,312.2 L220.5,306.9 L222.4,301.7 L224.2,296.6
		L226.1,291.6 L228.0,286.6 L229.8,281.8 L231.7,277.1 L233.6,272.4 L235.5,267.9 L237.3,263.4 L239.2,259.1
		L241.1,254.8 L242.9,250.7 L244.8,246.7 L246.7,242.8 L248.5,238.9 L250.4,235.2 L252.3,231.6 L254.2,228.1
		L256.0,224.8 L257.9,221.5 L259.8,218.4 L261.6,215.3 L263.5,212.4 L265.4,209.6 L267.3,206.9 L269.1,204.4
		L271.0,202.0 L272.9,199.7 L274.7,197.5 L276.6,195.5 L278.5,193.5 L280.3,191.8 L282.2,190.1 L284.1,188.6
		L286.0,187.1 L287.8,185.8 L289.7,184.6 L291.6,183.6 L293.4,182.6 L295.3,181.7 L297.2,180.9 L299.1,180.2
		L300.9,179.5 L302.8,178.9 L304.7,178.4 L306.5,177.9 L308.4,177.4 L310.3,177.0 L312.1,176.7 L314.0,176.3
		L315.9,176.0 L317.8,175.7 L319.6,175.5 L321.5,175.2 L323.4,175.0 L325.2,174.8 L327.1,174.6 L329.0,174.5
		L330.9,174.3 L332.7,174.2 L334.6,174.1 L336.5,174.0 L338.3,173.8 L340.2,173.7 L342.1,173.6 L343.9,173.5
		L345.8,173.3 L347.7,173.2 L349.6,173.0 L351.4,172.7 L353.3,172.5 L355.2,172.1 L357.0,171.8 L358.9,171.3
		L360.8,170.8 L362.7,170.3 L364.5,169.6 L366.4,168.9 L368.3,168.1 L370.1,167.2 L372.0,166.2 L373.9,165.2
		L375.7,164.1 L377.6,162.9 L379.5,161.6 L381.4,160.3 L383.2,158.9 L385.1,157.5 L387.0,156.0 L388.8,154.5
		L390.7,153.0 L392.6,151.5 L394.5,149.9 L396.3,148.3 L398.2,146.8 L400.1,145.2 L401.9,143.7 L403.8,142.2
		L405.7,140.7 L407.5,139.2 L409.4,137.7 L411.3,136.3 L413.2,134.9 L415.0,133.5 L416.9,132.1 L418.8,130.8
		L420.6,129.4 L422.5,128.2 L424.4,126.9 L426.3,125.7 L428.1,124.5 L430.0,123.3 L431.9,122.2 L433.7,121.1
		L435.6,120.1 L437.5,119.1 L439.3,118.1 L441.2,117.2 L443.1,116.4 L445.0,115.7 L446.8,115.0 L448.7,114.4
		L450.6,113.9 L452.4,113.4 L454.3,113.1 L456.2,112.9 L458.0,112.8 L459.9,112.7 L461.8,112.8 L463.7,113.0
		L465.5,113.3 L467.4,113.7 L469.3,114.3 L471.1,114.9 L473.0,115.7 L474.9,116.5 L476.8,117.4 L478.6,118.5
		L480.5,119.6 L482.4,120.8 L484.2,122.1 L486.1,123.5 L488.0,124.9 L489.8,126.4 L491.7,128.0 L493.6,129.6
		L495.5,131.3 L497.3,133.0 L499.2,134.7 L501.1,136.5 L502.9,138.3 L504.8,140.2 L506.7,142.0 L508.6,143.9
		L510.4,145.9 L512.3,147.8 L514.2,149.8 L516.0,151.8 L517.9,153.8 L519.8,155.9 L521.6,157.9 L523.5,160.0
		L525.4,162.2 L527.3,164.3 L529.1,166.5 L531.0,168.7 L532.9,171.0 L534.7,173.2 L536.6,175.6 L538.5,177.9
		L540.4,180.3 L542.2,182.6 L544.1,185.1 L546.0,187.5 L547.8,189.9 L549.7,192.4 L551.6,194.9 L553.4,197.4
		L555.3,199.9 L557.2,202.4 L559.1,204.9 L560.9,207.4 L562.8,209.9 L564.7,212.4 L566.5,214.9 L568.4,217.3
		L570.3,219.8 L572.2,222.3 L574.0,224.8 L575.9,227.2 L577.8,229.7 L579.6,232.2 L581.5,234.6 L583.4,237.1
		L585.2,239.5 L587.1,242.0 L589.0,244.4 L590.9,246.9 L592.7,249.4 L594.6,251.8 L596.5,254.3 L598.3,256.8
		L600.2,259.2 L602.1,261.7 L604.0,264.2 L605.8,266.6 L607.7,269.1 L609.6,271.6 L611.4,274.1 L613.3,276.6
		L615.2,279.1 L617.0,281.6 L618.9,284.1 L620.8,286.7 L622.7,289.2 L624.5,291.7 L626.4,294.3 L628.3,296.8
		L630.1,299.4 L632.0,301.9 L633.9,304.5 L635.8,307.0 L637.6,309.5 L639.5,312.1 L641.4,314.6 L643.2,317.2
		L645.1,319.7 L647.0,322.2 L648.8,324.7 L650.7,327.1 L652.6,329.6 L654.5,332.0 L656.3,334.4 L658.2,336.8
		L660.1,339.1 L661.9,341.4 L663.8,343.7 L665.7,346.0 L667.5,348.2 L669.4,350.5 L671.3,352.7 L673.2,354.9
		L675.0,357.1 L676.9,359.3 L678.8,361.5 L680.6,363.7 L682.5,365.9 L684.4,368.1 L686.3,370.3 L688.1,372.5
		L690.0,374.8 L691.9,377.1 L693.7,379.4 L695.6,381.7 L697.5,384.1 L699.3,386.4 L701.2,388.8 L703.1,391.2
		L705.0,393.6 L706.8,396.0 L708.7,398.4 L710.6,400.8 L712.4,403.2 L714.3,405.6 L716.2,408.0 L718.1,410.3
		L719.9,412.7 L721.8,415.0 L723.7,417.3 L725.5,419.5 L727.4,421.8 L729.3,424.1 L731.1,426.3 L733.0,428.5
		L734.9,430.7 L736.8,432.9 L738.6,435.1 L740.5,437.3 L742.4,439.5 L744.2,441.7 L746.1,443.9 L748.0,446.1
		L749.9,448.3 L751.7,450.5 L753.6,452.8 L755.5,455.0 L757.3,457.3 L759.2,459.6 L761.1,461.8 L762.9,464.1
		L764.8,466.4 L766.7,468.6 L768.6,470.9 L770.4,473.1 L772.3,475.4 L774.2,477.6 L776.0,479.8 L777.9,481.9
		L779.8,484.0 L781.7,486.1 L783.5,488.1 L785.4,490.0 L787.3,491.9 L789.1,493.8 L791.0,495.6 L792.9,497.3
		L794.7,499.0 L796.6,500.6 L798.5,502.2 L800.4,503.7 L802.2,505.1 L804.1,506.6 L806.0,508.0 L807.8,509.3
		L809.7,510.7 L811.6,512.0 L813.5,513.4 L815.3,514.7 L817.2,516.0 L819.1,517.4 L820.9,518.7 L822.8,520.1
		L824.7,521.5 L826.5,522.9 L828.4,524.4 L830.3,525.9 L832.2,527.4 L834.0,528.9 L835.9,530.5 L837.8,532.1
		L839.6,533.7 L841.5,535.3 L843.4,536.9 L845.3,538.6 L847.1,540.3 L849.0,542.0 L850.9,543.7 L852.7,545.4
		L854.6,547.1 L856.5,548.8 L858.3,550.5 L860.2,552.2 L862.1,553.8 L864.0,555.5 L865.8,557.1 L867.7,558.8
		L869.6,560.3 L871.4,561.9 L873.3,563.5 L875.2,565.0 L877.1,566.4 L878.9,567.8 L880.8,569.2 L882.7,570.6
		L884.5,571.9 L886.4,573.1 L888.3,574.4 L890.1,575.5 L892.0,576.7 L893.9,577.8 L895.8,578.9 L897.6,579.9
		L899.5,580.9 L901.4,581.9 L903.2,582.9 L905.1,583.8 L907.0,584.8 L908.8,585.7 L910.7,586.7 L912.6,587.6
		L914.5,588.5 L916.3,589.4 L918.2,590.4 L920.1,591.3 L921.9,592.2 L923.8,593.1 L925.7,594.1 L927.6,595.0
		L929.4,595.9 L931.3,596.9 L933.2,597.8 L935.0,598.7 L936.9,599.7 L938.8,600.6 L940.6,601.5 L942.5,602.4
		L944.4,603.3 L946.3,604.2 L948.1,605.2 L950.0,606.0 L951.9,606.9 L953.7,607.8 L955.6,608.7 L957.5,609.6
		L959.4,610.4 L961.2,611.3 L963.1,612.2 L965.0,613.0 L966.8,613.8 L968.7,614.6 L970.6,615.4 L972.4,616.2
		L974.3,617.0 L976.2,617.7 L978.1,618.5 L979.9,619.2 L981.8,619.9 L983.7,620.6 L985.5,621.2 L987.4,621.9
		L989.3,622.5 L991.2,623.1 L993.0,623.7 L994.9,624.2 L996.8,624.8 L998.6,625.3 L1000.5,625.8 L1002.4,626.3
		L1004.2,626.8 L1006.1,627.3 L1008.0,627.8 L1009.9,628.3 L1011.7,628.8 L1013.6,629.3  '/></g>
	</g>
	<g id="gnuplot_plot_2" ><title>Confidence interval</title>
<g fill="none" color="white" stroke="rgb( 31, 120, 180)" stroke-width="1.00" stroke-linecap="butt" stroke-linejoin="miter">
</g>
<g fill="none" color="black" stroke="currentColor" stroke-width="1.00" stroke-linecap="butt" stroke-linejoin="miter">
	<g transform="translate(1089.0,85.0)" stroke="none" fill="black" font-family="Helvetica" font-size="12.00"  text-anchor="start">
		<text><tspan font-family="Helvetica" >Confidence interval</tspan></text>
	</g>
</g>
<g fill="none" color="black" stroke="currentColor" stroke-width="1.00" stroke-linecap="butt" stroke-linejoin="miter">
	<g stroke='none' shape-rendering='crispEdges'>
		<polygon fill = 'rgb( 31, 120, 180)' fill-opacity = '0.250000' points = '1038.5,85.6 1080.7,85.6 1080.7,76.6 1038.5,76.6 '/>
		<polygon fill = 'rgb( 31, 120, 180)' fill-opacity = '0.250000' points = '166.2,480.0 166.2,662.4 168.1,662.4 168.1,474.2 '/>
		<polygon fill = 'rgb( 31, 120, 180)' fill-opacity = '0.250000' points = '168.1,474.2 168.1,662.4 170.0,662.4 170.0,468.3 '/>
		<polygon fill = 'rgb( 31, 120, 180)' fill-opacity = '0.250000' points = '170.0,468.3 170.0,662.4 171.9,662.4 171.9,462.4 '/>
		<polygon fill = 'rgb( 31, 120, 180)' fill-opacity = '0.250000' points = '171.9,462.4 171.9,662.4 173.7,662.4 173.7,456.4 '/>
		<polygon fill = 'rgb( 31, 120, 180)' fill-opacity = '0.250000' points = '173.7,456.4 173.7,662.4 175.6,662.4 175.6,450.3 '/>
		<polygon fill = 'rgb( 31, 120, 180)' fill-opacity = '0.250000' points = '175.6,450.3 175.6,662.4 177.5,662.4 177.5,444.2 '/>
		<polygon fill = 'rgb( 31, 120, 180)' fill-opacity = '0.250000' points = '177.5,444.2 177.5,662.4 179.3,662.4 179.3,438.0 '/>
		<polygon fill = 'rgb( 31, 120, 180)' fill-opacity = '0.250000' points = '179.3,438.0 179.3,662.4 181.2,662.4 181.2,431.8 '/>
		<polygon fill = 'rgb( 31, 120, 180)' fill-opacity = '0.250000' points = '181.2,431.8 181.2,662.4 183.1,662.4 183.1,425.6 '/>
		<polygon fill = 'rgb( 31, 120, 180)' fill-opacity = '0.250000' points = '183.1,425.6 183.1,662.4 185.0,662.4 185.0,419.4 '/>
		<polygon fill = 'rgb( 31, 120, 180)' fill-opacity = '0.250000' points = '185.0,419.4 185.0,662.4 186.8,662.4 186.8,413.1 '/>
		<polygon fill = 'rgb( 31, 120, 180)' fill-opacity = '0.250000' points = '186.8,413.1 186.8,662.4 188.7,662.4 188.7,406.8 '/>
		<polygon fill = 'rgb( 31, 120, 180)' fill-opacity = '0.250000' points = '188.7,406.8 188.7,662.4 190.6,662.4 190.6,400.6 '/>
		<polygon fill = 'rgb( 31, 120, 180)' fill-opacity = '0.250000' points = '190.6,400.6 190.6,662.4 192.4,662.4 192.4,394.3 '/>
		<polygon fill = 'rgb( 31, 120, 180)' fill-opacity = '0.250000' points = '192.4,394.3 192.4,662.4 194.3,662.4 194.3,388.1 '/>
		<polygon fill = 'rgb( 31, 120, 180)' fill-opacity = '0.250000' points = '194.3,388.1 194.3,662.4 196.2,662.4 196.2,381.9 '/>
		<polygon fill = 'rgb( 31, 120, 180)' fill-opacity = '0.250000' points = '196.2,381.9 196.2,662.4 198.0,662.4 198.0,375.8 '/>
		<polygon fill = 'rgb( 31, 120, 180)' fill-opacity = '0.250000' points = '198.0,375.8 198.0,662.4 199.9,662.4 199.9,369.7 '/>
		<polygon fill = 'rgb( 31, 120, 180)' fill-opacity = '0.250000' points = '199.9,369.7 199.9,662.4 201.8,662.4 201.8,363.6 '/>
		<polygon fill = 'rgb( 31, 120, 180)' fill-opacity = '0.250000' points = '201.8,363.6 201.8,662.4 203.7,662.4 203.7,357.6 '/>
		<polygon fill = 'rgb( 31, 120, 180)' fill-opacity = '0.250000' points = '203.7,357.6 203.7,662.4 205.5,662.4 205.5,351.7 '/>
		<polygon fill = 'rgb( 31, 120, 180)' fill-opacity = '0.250000' points = '205.5,351.7 205.5,662.4 207.4,662.4 207.4,345.8 '/>
		<polygon fill = 'rgb( 31, 120, 180)' fill-opacity = '0.250000' points = '207.4,345.8 207.4,662.4 209.3,662.4 209.3,340.0 '/>
		<polygon fill = 'rgb( 31, 120, 180)' fill-opacity = '0.250000' points = '209.3,340.0 209.3,662.4 211.1,662.4 211.1,334.3 '/>
		<polygon fill = 'rgb( 31, 120, 180)' fill-opacity = '0.250000' points = '211.1,334.3 211.1,662.4 213.0,662.4 213.0,328.6 '/>
		<polygon fill = 'rgb( 31, 120, 180)' fill-opacity = '0.250000' points = '213.0,328.6 213.0,662.4 214.9,662.4 214.9,323.1 '/>
		<polygon fill = 'rgb( 31, 120, 180)' fill-opacity = '0.250000' points = '214.9,323.1 214.9,662.4 216.7,662.4 216.7,317.6 '/>
		<polygon fill = 'rgb( 31, 120, 180)' fill-opacity = '0.250000' points = '216.7,317.6 216.7,662.4 218.6,662.4 218.6,312.2 '/>
		<polygon fill = 'rgb( 31, 120, 180)' fill-opacity = '0.250000' points = '218.6,312.2 218.6,662.4 220.5,662.4 220.5,306.9 '/>
		<polygon fill = 'rgb( 31, 120, 180)' fill-opacity = '0.250000' points = '220.5,306.9 220.5,662.4 222.4,662.4 222.4,301.7 '/>
		<polygon fill = 'rgb( 31, 120, 180)' fill-opacity = '0.250000' points = '222.4,301.7 222.4,662.4 224.2,662.4 224.2,296.6 '/>
		<polygon fill = 'rgb( 31, 120, 180)' fill-opacity = '0.250000' points = '224.2,296.6 224.2,662.4 226.1,662.4 226.1,291.6 '/>
		<polygon fill = 'rgb( 31, 120, 180)' fill-opacity = '0.250000' points = '226.1,291.6 226.1,662.4 228.0,662.4 228.0,286.6 '/>
		<polygon fill = 'rgb( 31, 120, 180)' fill-opacity = '0.250000' points = '228.0,286.6 228.0,662.4 229.8,662.4 229.8,281.8 '/>
		<polygon fill = 'rgb( 31, 120, 180)' fill-opacity = '0.250000' points = '229.8,281.8 229.8,662.4 231.7,662.4 231.7,277.1 '/>
		<polygon fill = 'rgb( 31, 120, 180)' fill-opacity = '0.250000' points = '231.7,277.1 231.7,662.4 233.6,662.4 233.6,272.4 '/>
		<polygon fill = 'rgb( 31, 120, 180)' fill-opacity = '0.250000' points = '233.6,272.4 233.6,662.4 235.5,662.4 235.5,267.9 '/>
		<polygon fill = 'rgb( 31, 120, 180)' fill-opacity = '0.250000' points = '235.5,267.9 235.5,662.4 237.3,662.4 237.3,263.4 '/>
		<polygon fill = 'rgb( 31, 120, 180)' fill-opacity = '0.250000' points = '237.3,263.4 237.3,662.4 239.2,662.4 239.2,259.1 '/>
		<polygon fill = 'rgb( 31, 120, 180)' fill-opacity = '0.250000' points = '239.2,259.1 239.2,662.4 241.1,662.4 241.1,254.8 '/>
		<polygon fill = 'rgb( 31, 120, 180)' fill-opacity = '0.250000' points = '241.1,254.8 241.1,662.4 242.9,662.4 242.9,250.7 '/>
		<polygon fill = 'rgb( 31, 120, 180)' fill-opacity = '0.250000' points = '242.9,250.7 242.9,662.4 244.8,662.4 244.8,246.7 '/>
		<polygon fill = 'rgb( 31, 120, 180)' fill-opacity = '0.250000' points = '244.8,246.7 244.8,662.4 246.7,662.4 246.7,242.8 '/>
		<polygon fill = 'rgb( 31, 120, 180)' fill-opacity = '0.250000' points = '246.7,242.8 246.7,662.4 248.5,662.4 248.5,238.9 '/>
		<polygon fill = 'rgb( 31, 120, 180)' fill-opacity = '0.250000' points = '248.5,238.9 248.5,662.4 250.4,662.4 250.4,235.2 '/>
		<polygon fill = 'rgb( 31, 120, 180)' fill-opacity = '0.250000' points = '250.4,235.2 250.4,662.4 252.3,662.4 252.3,231.6 '/>
		<polygon fill = 'rgb( 31, 120, 180)' fill-opacity = '0.250000' points = '252.3,231.6 252.3,662.4 254.2,662.4 254.2,228.1 '/>
		<polygon fill = 'rgb( 31, 120, 180)' fill-opacity = '0.250000' points = '254.2,228.1 254.2,662.4 256.0,662.4 256.0,224.8 '/>
		<polygon fill = 'rgb( 31, 120, 180)' fill-opacity = '0.250000' points = '256.0,224.8 256.0,662.4 257.9,662.4 257.9,221.5 '/>
		<polygon fill = 'rgb( 31, 120, 180)' fill-opacity = '0.250000' points = '257.9,221.5 257.9,662.4 259.8,662.4 259.8,218.4 '/>
		<polygon fill = 'rgb( 31, 120, 180)' fill-opacity = '0.250000' points = '259.8,218.4 259.8,662.4 261.6,662.4 261.6,215.3 '/>
		<polygon fill = 'rgb( 31, 120, 180)' fill-opacity = '0.250000' points = '261.6,215.3 261.6,662.4 263.5,662.4 263.5,212.4 '/>
		<polygon fill = 'rgb( 31, 120, 180)' fill-opacity = '0.250000' points = '263.5,212.4 263.5,662.4 265.4,662.4 265.4,209.6 '/>
		<polygon fill = 'rgb( 31, 120, 180)' fill-opacity = '0.250000' points = '265.4,209.6 265.4,662.4 267.3,662.4 267.3,206.9 '/>
		<polygon fill = 'rgb( 31, 120, 180)' fill-opacity = '0.250000' points = '267.3,206.9 267.3,662.4 269.1,662.4 269.1,204.4 '/>
		<polygon fill = 'rgb( 31, 120, 180)' fill-opacity = '0.250000' points = '269.1,204.4 269.1,662.4 271.0,662.4 271.0,202.0 '/>
		<polygon fill = 'rgb( 31, 120, 180)' fill-opacity = '0.250000' points = '271.0,202.0 271.0,662.4 272.9,662.4 272.9,199.7 '/>
		<polygon fill = 'rgb( 31, 120, 180)' fill-opacity = '0.250000' points = '272.9,199.7 272.9,662.4 274.7,662.4 274.7,197.5 '/>
		<polygon fill = 'rgb( 31, 120, 180)' fill-opacity = '0.250000' points = '274.7,197.5 274.7,662.4 276.6,662.4 276.6,195.5 '/>
		<polygon fill = 'rgb( 31, 120, 180)' fill-opacity = '0.250000' points = '276.6,195.5 276.6,662.4 278.5,662.4 278.5,193.5 '/>
		<polygon fill = 'rgb( 31, 120, 180)' fill-opacity = '0.250000' points = '278.5,193.5 278.5,662.4 280.3,662.4 280.3,191.8 '/>
		<polygon fill = 'rgb( 31, 120, 180)' fill-opacity = '0.250000' points = '280.3,191.8 280.3,662.4 282.2,662.4 282.2,190.1 '/>
		<polygon fill = 'rgb( 31, 120, 180)' fill-opacity = '0.250000' points = '282.2,190.1 282.2,662.4 284.1,662.4 284.1,188.6 '/>
		<polygon fill = 'rgb( 31, 120, 180)' fill-opacity = '0.250000' points = '284.1,188.6 284.1,662.4 286.0,662.4 286.0,187.1 '/>
		<polygon fill = 'rgb( 31, 120, 180)' fill-opacity = '0.250000' points = '286.0,187.1 286.0,662.4 287.8,662.4 287.8,185.8 '/>
		<polygon fill = 'rgb( 31, 120, 180)' fill-opacity = '0.250000' points = '287.8,185.8 287.8,662.4 289.7,662.4 289.7,184.6 '/>
		<polygon fill = 'rgb( 31, 120, 180)' fill-opacity = '0.250000' points = '289.7,184.6 289.7,662.4 291.6,662.4 291.6,183.6 '/>
		<polygon fill = 'rgb( 31, 120, 180)' fill-opacity = '0.250000' points = '291.6,183.6 291.6,662.4 293.4,662.4 293.4,182.6 '/>
		<polygon fill = 'rgb( 31, 120, 180)' fill-opacity = '0.250000' points = '293.4,182.6 293.4,662.4 295.3,662.4 295.3,181.7 '/>
		<polygon fill = 'rgb( 31, 120, 180)' fill-opacity = '0.250000' points = '295.3,181.7 295.3,662.4 297.2,662.4 297.2,180.9 '/>
		<polygon fill = 'rgb( 31, 120, 180)' fill-opacity = '0.250000' points = '297.2,180.9 297.2,662.4 299.1,662.4 299.1,180.2 '/>
		<polygon fill = 'rgb( 31, 120, 180)' fill-opacity = '0.250000' points = '299.1,180.2 299.1,662.4 300.9,662.4 300.9,179.5 '/>
		<polygon fill = 'rgb( 31, 120, 180)' fill-opacity = '0.250000' points = '300.9,179.5 300.9,662.4 302.8,662.4 302.8,178.9 '/>
		<polygon fill = 'rgb( 31, 120, 180)' fill-opacity = '0.250000' points = '302.8,178.9 302.8,662.4 304.7,662.4 304.7,178.4 '/>
		<polygon fill = 'rgb( 31, 120, 180)' fill-opacity = '0.250000' points = '304.7,178.4 304.7,662.4 306.5,662.4 306.5,177.9 '/>
		<polygon fill = 'rgb( 31, 120, 180)' fill-opacity = '0.250000' points = '306.5,177.9 306.5,662.4 308.4,662.4 308.4,177.4 '/>
		<polygon fill = 'rgb( 31, 120, 180)' fill-opacity = '0.250000' points = '308.4,177.4 308.4,662.4 310.3,662.4 310.3,177.0 '/>
		<polygon fill = 'rgb( 31, 120, 180)' fill-opacity = '0.250000' points = '310.3,177.0 310.3,662.4 312.1,662.4 312.1,176.7 '/>
		<polygon fill = 'rgb( 31, 120, 180)' fill-opacity = '0.250000' points = '312.1,176.7 312.1,662.4 314.0,662.4 314.0,176.3 '/>
		<polygon fill = 'rgb( 31, 120, 180)' fill-opacity = '0.250000' points = '314.0,176.3 314.0,662.4 315.9,662.4 315.9,176.0 '/>
		<polygon fill = 'rgb( 31, 120, 180)' fill-opacity = '0.250000' points = '315.9,176.0 315.9,662.4 317.8,662.4 317.8,175.7 '/>
		<polygon fill = 'rgb( 31, 120, 180)' fill-opacity = '0.250000' points = '317.8,175.7 317.8,662.4 319.6,662.4 319.6,175.5 '/>
		<polygon fill = 'rgb( 31, 120, 180)' fill-opacity = '0.250000' points = '319.6,175.5 319.6,662.4 321.5,662.4 321.5,175.2 '/>
		<polygon fill = 'rgb( 31, 120, 180)' fill-opacity = '0.250000' points = '321.5,175.2 321.5,662.4 323.4,662.4 323.4,175.0 '/>
		<polygon fill = 'rgb( 31, 120, 180)' fill-opacity = '0.250000' points = '323.4,175.0 323.4,662.4 325.2,662.4 325.2,174.8 '/>
		<polygon fill = 'rgb( 31, 120, 180)' fill-opacity = '0.250000' points = '325.2,174.8 325.2,662.4 327.1,662.4 327.1,174.6 '/>
		<polygon fill = 'rgb( 31, 120, 180)' fill-opacity = '0.250000' points = '327.1,174.6 327.1,662.4 329.0,662.4 329.0,174.5 '/>
		<polygon fill = 'rgb( 31, 120, 180)' fill-opacity = '0.250000' points = '329.0,174.5 329.0,662.4 330.9,662.4 330.9,174.3 '/>
		<polygon fill = 'rgb( 31, 120, 180)' fill-opacity = '0.250000' points = '330.9,174.3 330.9,662.4 332.7,662.4 332.7,174.2 '/>
		<polygon fill = 'rgb( 31, 120, 180)' fill-opacity = '0.250000' points = '332.7,174.2 332.7,662.4 334.6,662.4 334.6,174.1 '/>
		<polygon fill = 'rgb( 31, 120, 180)' fill-opacity = '0.250000' points = '334.6,174.1 334.6,662.4 336.5,662.4 336.5,174.0 '/>
		<polygon fill = 'rgb( 31, 120, 180)' fill-opacity = '0.250000' points = '336.5,174.0 336.5,662.4 338.3,662.4 338.3,173.8 '/>
		<polygon fill = 'rgb( 31, 120, 180)' fill-opacity = '0.250000' points = '338.3,173.8 338.3,662.4 340.2,662.4 340.2,173.7 '/>
		<polygon fill = 'rgb( 31, 120, 180)' fill-opacity = '0.250000' points = '340.2,173.7 340.2,662.4 342.1,662.4 342.1,173.6 '/>
		<polygon fill = 'rgb( 31, 120, 180)' fill-opacity = '0.250000' points = '342.1,173.6 342.1,662.4 343.9,662.4 343.9,173.5 '/>
		<polygon fill = 'rgb( 31, 120, 180)' fill-opacity = '0.250000' points = '343.9,173.5 343.9,662.4 345.8,662.4 345.8,173.3 '/>
		<polygon fill = 'rgb( 31, 120, 180)' fill-opacity = '0.250000' points = '345.8,173.3 345.8,662.4 347.7,662.4 347.7,173.2 '/>
		<polygon fill = 'rgb( 31, 120, 180)' fill-opacity = '0.250000' points = '347.7,173.2 347.7,662.4 349.6,662.4 349.6,173.0 '/>
		<polygon fill = 'rgb( 31, 120, 180)' fill-opacity = '0.250000' points = '349.6,173.0 349.6,662.4 351.4,662.4 351.4,172.7 '/>
		<polygon fill = 'rgb( 31, 120, 180)' fill-opacity = '0.250000' points = '351.4,172.7 351.4,662.4 353.3,662.4 353.3,172.5 '/>
		<polygon fill = 'rgb( 31, 120, 180)' fill-opacity = '0.250000' points = '353.3,172.5 353.3,662.4 355.2,662.4 355.2,172.1 '/>
		<polygon fill = 'rgb( 31, 120, 180)' fill-opacity = '0.250000' points = '355.2,172.1 355.2,662.4 357.0,662.4 357.0,171.8 '/>
		<polygon fill = 'rgb( 31, 120, 180)' fill-opacity = '0.250000' points = '357.0,171.8 357.0,662.4 358.9,662.4 358.9,171.3 '/>
		<polygon fill = 'rgb( 31, 120, 180)' fill-opacity = '0.250000' points = '358.9,171.3 358.9,662.4 360.8,662.4 360.8,170.8 '/>
		<polygon fill = 'rgb( 31, 120, 180)' fill-opacity = '0.250000' points = '360.8,170.8 360.8,662.4 362.7,662.4 362.7,170.3 '/>
		<polygon fill = 'rgb( 31, 120, 180)' fill-opacity = '0.250000' points = '362.7,170.3 362.7,662.4 364.5,662.4 364.5,169.6 '/>
		<polygon fill = 'rgb( 31, 120, 180)' fill-opacity = '0.250000' points = '364.5,169.6 364.5,662.4 366.4,662.4 366.4,168.9 '/>
		<polygon fill = 'rgb( 31, 120, 180)' fill-opacity = '0.250000' points = '366.4,168.9 366.4,662.4 368.3,662.4 368.3,168.1 '/>
		<polygon fill = 'rgb( 31, 120, 180)' fill-opacity = '0.250000' points = '368.3,168.1 368.3,662.4 370.1,662.4 370.1,167.2 '/>
		<polygon fill = 'rgb( 31, 120, 180)' fill-opacity = '0.250000' points = '370.1,167.2 370.1,662.4 372.0,662.4 372.0,166.2 '/>
		<polygon fill = 'rgb( 31, 120, 180)' fill-opacity = '0.250000' points = '372.0,166.2 372.0,662.4 373.9,662.4 373.9,165.2 '/>
		<polygon fill = 'rgb( 31, 120, 180)' fill-opacity = '0.250000' points = '373.9,165.2 373.9,662.4 375.7,662.4 375.7,164.1 '/>
		<polygon fill = 'rgb( 31, 120, 180)' fill-opacity = '0.250000' points = '375.7,164.1 375.7,662.4 377.6,662.4 377.6,162.9 '/>
		<polygon fill = 'rgb( 31, 120, 180)' fill-opacity = '0.250000' points = '377.6,162.9 377.6,662.4 379.5,662.4 379.5,161.6 '/>
		<polygon fill = 'rgb( 31, 120, 180)' fill-opacity = '0.250000' points = '379.5,161.6 379.5,662.4 381.4,662.4 381.4,160.3 '/>
		<polygon fill = 'rgb( 31, 120, 180)' fill-opacity = '0.250000' points = '381.4,160.3 381.4,662.4 383.2,662.4 383.2,158.9 '/>
		<polygon fill = 'rgb( 31, 120, 180)' fill-opacity = '0.250000' points = '383.2,158.9 383.2,662.4 385.1,662.4 385.1,157.5 '/>
		<polygon fill = 'rgb( 31, 120, 180)' fill-opacity = '0.250000' points = '385.1,157.5 385.1,662.4 387.0,662.4 387.0,156.0 '/>
		<polygon fill = 'rgb( 31, 120, 180)' fill-opacity = '0.250000' points = '387.0,156.0 387.0,662.4 388.8,662.4 388.8,154.5 '/>
		<polygon fill = 'rgb( 31, 120, 180)' fill-opacity = '0.250000' points = '388.8,154.5 388.8,662.4 390.7,662.4 390.7,153.0 '/>
		<polygon fill = 'rgb( 31, 120, 180)' fill-opacity = '0.250000' points = '390.7,153.0 390.7,662.4 392.6,662.4 392.6,151.5 '/>
		<polygon fill = 'rgb( 31, 120, 180)' fill-opacity = '0.250000' points = '392.6,151.5 392.6,662.4 394.5,662.4 394.5,149.9 '/>
		<polygon fill = 'rgb( 31, 120, 180)' fill-opacity = '0.250000' points = '394.5,149.9 394.5,662.4 396.3,662.4 396.3,148.3 '/>
		<polygon fill = 'rgb( 31, 120, 180)' fill-opacity = '0.250000' points = '396.3,148.3 396.3,662.4 398.2,662.4 398.2,146.8 '/>
		<polygon fill = 'rgb( 31, 120, 180)' fill-opacity = '0.250000' points = '398.2,146.8 398.2,662.4 400.1,662.4 400.1,145.2 '/>
		<polygon fill = 'rgb( 31, 120, 180)' fill-opacity = '0.250000' points = '400.1,145.2 400.1,662.4 401.9,662.4 401.9,143.7 '/>
		<polygon fill = 'rgb( 31, 120, 180)' fill-opacity = '0.250000' points = '401.9,143.7 401.9,662.4 403.8,662.4 403.8,142.2 '/>
		<polygon fill = 'rgb( 31, 120, 180)' fill-opacity = '0.250000' points = '403.8,142.2 403.8,662.4 405.7,662.4 405.7,140.7 '/>
		<polygon fill = 'rgb( 31, 120, 180)' fill-opacity = '0.250000' points = '405.7,140.7 405.7,662.4 407.5,662.4 407.5,139.2 '/>
		<polygon fill = 'rgb( 31, 120, 180)' fill-opacity = '0.250000' points = '407.5,139.2 407.5,662.4 409.4,662.4 409.4,137.7 '/>
		<polygon fill = 'rgb( 31, 120, 180)' fill-opacity = '0.250000' points = '409.4,137.7 409.4,662.4 411.3,662.4 411.3,136.3 '/>
		<polygon fill = 'rgb( 31, 120, 180)' fill-opacity = '0.250000' points = '411.3,136.3 411.3,662.4 413.2,662.4 413.2,134.9 '/>
		<polygon fill = 'rgb( 31, 120, 180)' fill-opacity = '0.250000' points = '413.2,134.9 413.2,662.4 415.0,662.4 415.0,133.5 '/>
		<polygon fill = 'rgb( 31, 120, 180)' fill-opacity = '0.250000' points = '415.0,133.5 415.0,662.4 416.9,662.4 416.9,132.1 '/>
		<polygon fill = 'rgb( 31, 120, 180)' fill-opacity = '0.250000' points = '416.9,132.1 416.9,662.4 418.8,662.4 418.8,130.8 '/>
		<polygon fill = 'rgb( 31, 120, 180)' fill-opacity = '0.250000' points = '418.8,130.8 418.8,662.4 420.6,662.4 420.6,129.4 '/>
		<polygon fill = 'rgb( 31, 120, 180)' fill-opacity = '0.250000' points = '420.6,129.4 420.6,662.4 422.5,662.4 422.5,128.2 '/>
		<polygon fill = 'rgb( 31, 120, 180)' fill-opacity = '0.250000' points = '422.5,128.2 422.5,662.4 424.4,662.4 424.4,126.9 '/>
		<polygon fill = 'rgb( 31, 120, 180)' fill-opacity = '0.250000' points = '424.4,126.9 424.4,662.4 426.3,662.4 426.3,125.7 '/>
		<polygon fill = 'rgb( 31, 120, 180)' fill-opacity = '0.250000' points = '426.3,125.7 426.3,662.4 428.1,662.4 428.1,124.5 '/>
		<polygon fill = 'rgb( 31, 120, 180)' fill-opacity = '0.250000' points = '428.1,124.5 428.1,662.4 430.0,662.4 430.0,123.3 '/>
		<polygon fill = 'rgb( 31, 120, 180)' fill-opacity = '0.250000' points = '430.0,123.3 430.0,662.4 431.9,662.4 431.9,122.2 '/>
		<polygon fill = 'rgb( 31, 120, 180)' fill-opacity = '0.250000' points = '431.9,122.2 431.9,662.4 433.7,662.4 433.7,121.1 '/>
		<polygon fill = 'rgb( 31, 120, 180)' fill-opacity = '0.250000' points = '433.7,121.1 433.7,662.4 435.6,662.4 435.6,120.1 '/>
		<polygon fill = 'rgb( 31, 120, 180)' fill-opacity = '0.250000' points = '435.6,120.1 435.6,662.4 437.5,662.4 437.5,119.1 '/>
		<polygon fill = 'rgb( 31, 120, 180)' fill-opacity = '0.250000' points = '437.5,119.1 437.5,662.4 439.3,662.4 439.3,118.1 '/>
		<polygon fill = 'rgb( 31, 120, 180)' fill-opacity = '0.250000' points = '439.3,118.1 439.3,662.4 441.2,662.4 441.2,117.2 '/>
		<polygon fill = 'rgb( 31, 120, 180)' fill-opacity = '0.250000' points = '441.2,117.2 441.2,662.4 443.1,662.4 443.1,116.4 '/>
		<polygon fill = 'rgb( 31, 120, 180)' fill-opacity = '0.250000' points = '443.1,116.4 443.1,662.4 445.0,662.4 445.0,115.7 '/>
		<polygon fill = 'rgb( 31, 120, 180)' fill-opacity = '0.250000' points = '445.0,115.7 445.0,662.4 446.8,662.4 446.8,115.0 '/>
		<polygon fill = 'rgb( 31, 120, 180)' fill-opacity = '0.250000' points = '446.8,115.0 446.8,662.4 448.7,662.4 448.7,114.4 '/>
		<polygon fill = 'rgb( 31, 120, 180)' fill-opacity = '0.250000' points = '448.7,114.4 448.7,662.4 450.6,662.4 450.6,113.9 '/>
		<polygon fill = 'rgb( 31, 120, 180)' fill-opacity = '0.250000' points = '450.6,113.9 450.6,662.4 452.4,662.4 452.4,113.4 '/>
		<polygon fill = 'rgb( 31, 120, 180)' fill-opacity = '0.250000' points = '452.4,113.4 452.4,662.4 454.3,662.4 454.3,113.1 '/>
		<polygon fill = 'rgb( 31, 120, 180)' fill-opacity = '0.250000' points = '454.3,113.1 454.3,662.4 456.2,662.4 456.2,112.9 '/>
		<polygon fill = 'rgb( 31, 120, 180)' fill-opacity = '0.250000' points = '456.2,112.9 456.2,662.4 458.0,662.4 458.0,112.8 '/>
		<polygon fill = 'rgb( 31, 120, 180)' fill-opacity = '0.250000' points = '458.0,112.8 458.0,662.4 459.9,662.4 459.9,112.7 '/>
		<polygon fill = 'rgb( 31, 120, 180)' fill-opacity = '0.250000' points = '459.9,112.7 459.9,662.4 461.8,662.4 461.8,112.8 '/>
		<polygon fill = 'rgb( 31, 120, 180)' fill-opacity = '0.250000' points = '461.8,112.8 461.8,662.4 463.7,662.4 463.7,113.0 '/>
		<polygon fill = 'rgb( 31, 120, 180)' fill-opacity = '0.250000' points = '463.7,113.0 463.7,662.4 465.5,662.4 465.5,113.3 '/>
		<polygon fill = 'rgb( 31, 120, 180)' fill-opacity = '0.250000' points = '465.5,113.3 465.5,662.4 467.4,662.4 467.4,113.7 '/>
		<polygon fill = 'rgb( 31, 120, 180)' fill-opacity = '0.250000' points = '467.4,113.7 467.4,662.4 469.3,662.4 469.3,114.3 '/>
		<polygon fill = 'rgb( 31, 120, 180)' fill-opacity = '0.250000' points = '469.3,114.3 469.3,662.4 471.1,662.4 471.1,114.9 '/>
		<polygon fill = 'rgb( 31, 120, 180)' fill-opacity = '0.250000' points = '471.1,114.9 471.1,662.4 473.0,662.4 473.0,115.7 '/>
		<polygon fill = 'rgb( 31, 120, 180)' fill-opacity = '0.250000' points = '473.0,115.7 473.0,662.4 474.9,662.4 474.9,116.5 '/>
		<polygon fill = 'rgb( 31, 120, 180)' fill-opacity = '0.250000' points = '474.9,116.5 474.9,662.4 476.8,662.4 476.8,117.4 '/>
		<polygon fill = 'rgb( 31, 120, 180)' fill-opacity = '0.250000' points = '476.8,117.4 476.8,662.4 478.6,662.4 478.6,118.5 '/>
		<polygon fill = 'rgb( 31, 120, 180)' fill-opacity = '0.250000' points = '478.6,118.5 478.6,662.4 480.5,662.4 480.5,119.6 '/>
		<polygon fill = 'rgb( 31, 120, 180)' fill-opacity = '0.250000' points = '480.5,119.6 480.5,662.4 482.4,662.4 482.4,120.8 '/>
		<polygon fill = 'rgb( 31, 120, 180)' fill-opacity = '0.250000' points = '482.4,120.8 482.4,662.4 484.2,662.4 484.2,122.1 '/>
		<polygon fill = 'rgb( 31, 120, 180)' fill-opacity = '0.250000' points = '484.2,122.1 484.2,662.4 486.1,662.4 486.1,123.5 '/>
		<polygon fill = 'rgb( 31, 120, 180)' fill-opacity = '0.250000' points = '486.1,123.5 486.1,662.4 488.0,662.4 488.0,124.9 '/>
		<polygon fill = 'rgb( 31, 120, 180)' fill-opacity = '0.250000' points = '488.0,124.9 488.0,662.4 489.8,662.4 489.8,126.4 '/>
		<polygon fill = 'rgb( 31, 120, 180)' fill-opacity = '0.250000' points = '489.8,126.4 489.8,662.4 491.7,662.4 491.7,128.0 '/>
		<polygon fill = 'rgb( 31, 120, 180)' fill-opacity = '0.250000' points = '491.7,128.0 491.7,662.4 493.6,662.4 493.6,129.6 '/>
		<polygon fill = 'rgb( 31, 120, 180)' fill-opacity = '0.250000' points = '493.6,129.6 493.6,662.4 495.5,662.4 495.5,131.3 '/>
		<polygon fill = 'rgb( 31, 120, 180)' fill-opacity = '0.250000' points = '495.5,131.3 495.5,662.4 497.3,662.4 497.3,133.0 '/>
		<polygon fill = 'rgb( 31, 120, 180)' fill-opacity = '0.250000' points = '497.3,133.0 497.3,662.4 499.2,662.4 499.2,134.7 '/>
		<polygon fill = 'rgb( 31, 120, 180)' fill-opacity = '0.250000' points = '499.2,134.7 499.2,662.4 501.1,662.4 501.1,136.5 '/>
		<polygon fill = 'rgb( 31, 120, 180)' fill-opacity = '0.250000' points = '501.1,136.5 501.1,662.4 502.9,662.4 502.9,138.3 '/>
		<polygon fill = 'rgb( 31, 120, 180)' fill-opacity = '0.250000' points = '502.9,138.3 502.9,662.4 504.8,662.4 504.8,140.2 '/>
		<polygon fill = 'rgb( 31, 120, 180)' fill-opacity = '0.250000' points = '504.8,140.2 504.8,662.4 506.7,662.4 506.7,142.0 '/>
		<polygon fill = 'rgb( 31, 120, 180)' fill-opacity = '0.250000' points = '506.7,142.0 506.7,662.4 508.6,662.4 508.6,143.9 '/>
		<polygon fill = 'rgb( 31, 120, 180)' fill-opacity = '0.250000' points = '508.6,143.9 508.6,662.4 510.4,662.4 510.4,145.9 '/>
		<polygon fill = 'rgb( 31, 120, 180)' fill-opacity = '0.250000' points = '510.4,145.9 510.4,662.4 512.3,662.4 512.3,147.8 '/>
		<polygon fill = 'rgb( 31, 120, 180)' fill-opacity = '0.250000' points = '512.3,147.8 512.3,662.4 514.2,662.4 514.2,149.8 '/>
		<polygon fill = 'rgb( 31, 120, 180)' fill-opacity = '0.250000' points = '514.2,149.8 514.2,662.4 516.0,662.4 516.0,151.8 '/>
		<polygon fill = 'rgb( 31, 120, 180)' fill-opacity = '0.250000' points = '516.0,151.8 516.0,662.4 517.9,662.4 517.9,153.8 '/>
		<polygon fill = 'rgb( 31, 120, 180)' fill-opacity = '0.250000' points = '517.9,153.8 517.9,662.4 519.8,662.4 519.8,155.9 '/>
		<polygon fill = 'rgb( 31, 120, 180)' fill-opacity = '0.250000' points = '519.8,155.9 519.8,662.4 521.6,662.4 521.6,157.9 '/>
		<polygon fill = 'rgb( 31, 120, 180)' fill-opacity = '0.250000' points = '521.6,157.9 521.6,662.4 523.5,662.4 523.5,160.0 '/>
		<polygon fill = 'rgb( 31, 120, 180)' fill-opacity = '0.250000' points = '523.5,160.0 523.5,662.4 525.4,662.4 525.4,162.2 '/>
		<polygon fill = 'rgb( 31, 120, 180)' fill-opacity = '0.250000' points = '525.4,162.2 525.4,662.4 527.3,662.4 527.3,164.3 '/>
		<polygon fill = 'rgb( 31, 120, 180)' fill-opacity = '0.250000' points = '527.3,164.3 527.3,662.4 529.1,662.4 529.1,166.5 '/>
		<polygon fill = 'rgb( 31, 120, 180)' fill-opacity = '0.250000' points = '529.1,166.5 529.1,662.4 531.0,662.4 531.0,168.7 '/>
		<polygon fill = 'rgb( 31, 120, 180)' fill-opacity = '0.250000' points = '531.0,168.7 531.0,662.4 532.9,662.4 532.9,171.0 '/>
		<polygon fill = 'rgb( 31, 120, 180)' fill-opacity = '0.250000' points = '532.9,171.0 532.9,662.4 534.7,662.4 534.7,173.2 '/>
		<polygon fill = 'rgb( 31, 120, 180)' fill-opacity = '0.250000' points = '534.7,173.2 534.7,662.4 536.6,662.4 536.6,175.6 '/>
		<polygon fill = 'rgb( 31, 120, 180)' fill-opacity = '0.250000' points = '536.6,175.6 536.6,662.4 538.5,662.4 538.5,177.9 '/>
		<polygon fill = 'rgb( 31, 120, 180)' fill-opacity = '0.250000' points = '538.5,177.9 538.5,662.4 540.4,662.4 540.4,180.3 '/>
		<polygon fill = 'rgb( 31, 120, 180)' fill-opacity = '0.250000' points = '540.4,180.3 540.4,662.4 542.2,662.4 542.2,182.6 '/>
		<polygon fill = 'rgb( 31, 120, 180)' fill-opacity = '0.250000' points = '542.2,182.6 542.2,662.4 544.1,662.4 544.1,185.1 '/>
		<polygon fill = 'rgb( 31, 120, 180)' fill-opacity = '0.250000' points = '544.1,185.1 544.1,662.4 546.0,662.4 546.0,187.5 '/>
		<polygon fill = 'rgb( 31, 120, 180)' fill-opacity = '0.250000' points = '546.0,187.5 546.0,662.4 547.8,662.4 547.8,189.9 '/>
		<polygon fill = 'rgb( 31, 120, 180)' fill-opacity = '0.250000' points = '547.8,189.9 547.8,662.4 549.7,662.4 549.7,192.4 '/>
		<polygon fill = 'rgb( 31, 120, 180)' fill-opacity = '0.250000' points = '549.7,192.4 549.7,662.4 551.6,662.4 551.6,194.9 '/>
		<polygon fill = 'rgb( 31, 120, 180)' fill-opacity = '0.250000' points = '551.6,194.9 551.6,662.4 553.4,662.4 553.4,197.4 '/>
		<polygon fill = 'rgb( 31, 120, 180)' fill-opacity = '0.250000' points = '553.4,197.4 553.4,662.4 555.3,662.4 555.3,199.9 '/>
		<polygon fill = 'rgb( 31, 120, 180)' fill-opacity = '0.250000' points = '555.3,199.9 555.3,662.4 557.2,662.4 557.2,202.4 '/>
		<polygon fill = 'rgb( 31, 120, 180)' fill-opacity = '0.250000' points = '557.2,202.4 557.2,662.4 559.1,662.4 559.1,204.9 '/>
		<polygon fill = 'rgb( 31, 120, 180)' fill-opacity = '0.250000' points = '559.1,204.9 559.1,662.4 560.9,662.4 560.9,207.4 '/>
		<polygon fill = 'rgb( 31, 120, 180)' fill-opacity = '0.250000' points = '560.9,207.4 560.9,662.4 562.8,662.4 562.8,209.9 '/>
		<polygon fill = 'rgb( 31, 120, 180)' fill-opacity = '0.250000' points = '562.8,209.9 562.8,662.4 564.7,662.4 564.7,212.4 '/>
		<polygon fill = 'rgb( 31, 120, 180)' fill-opacity = '0.250000' points = '564.7,212.4 564.7,662.4 566.5,662.4 566.5,214.9 '/>
		<polygon fill = 'rgb( 31, 120, 180)' fill-opacity = '0.250000' points = '566.5,214.9 566.5,662.4 568.4,662.4 568.4,217.3 '/>
		<polygon fill = 'rgb( 31, 120, 180)' fill-opacity = '0.250000' points = '568.4,217.3 568.4,662.4 570.3,662.4 570.3,219.8 '/>
		<polygon fill = 'rgb( 31, 120, 180)' fill-opacity = '0.250000' points = '570.3,219.8 570.3,662.4 572.2,662.4 572.2,222.3 '/>
		<polygon fill = 'rgb( 31, 120, 180)' fill-opacity = '0.250000' points = '572.2,222.3 572.2,662.4 574.0,662.4 574.0,224.8 '/>
		<polygon fill = 'rgb( 31, 120, 180)' fill-opacity = '0.250000' points = '574.0,224.8 574.0,662.4 575.9,662.4 575.9,227.2 '/>
		<polygon fill = 'rgb( 31, 120, 180)' fill-opacity = '0.250000' points = '575.9,227.2 575.9,662.4 577.8,662.4 577.8,229.7 '/>
		<polygon fill = 'rgb( 31, 120, 180)' fill-opacity = '0.250000' points = '577.8,229.7 577.8,662.4 579.6,662.4 579.6,232.2 '/>
		<polygon fill = 'rgb( 31, 120, 180)' fill-opacity = '0.250000' points = '579.6,232.2 579.6,662.4 581.5,662.4 581.5,234.6 '/>
		<polygon fill = 'rgb( 31, 120, 180)' fill-opacity = '0.250000' points = '581.5,234.6 581.5,662.4 583.4,662.4 583.4,237.1 '/>
		<polygon fill = 'rgb( 31, 120, 180)' fill-opacity = '0.250000' points = '583.4,237.1 583.4,662.4 585.2,662.4 585.2,239.5 '/>
		<polygon fill = 'rgb( 31, 120, 180)' fill-opacity = '0.250000' points = '585.2,239.5 585.2,662.4 587.1,662.4 587.1,242.0 '/>
		<polygon fill = 'rgb( 31, 120, 180)' fill-opacity = '0.250000' points = '587.1,242.0 587.1,662.4 589.0,662.4 589.0,244.4 '/>
		<polygon fill = 'rgb( 31, 120, 180)' fill-opacity = '0.250000' points = '589.0,244.4 589.0,662.4 590.9,662.4 590.9,246.9 '/>
		<polygon fill = 'rgb( 31, 120, 180)' fill-opacity = '0.250000' points = '590.9,246.9 590.9,662.4 592.7,662.4 592.7,249.4 '/>
		<polygon fill = 'rgb( 31, 120, 180)' fill-opacity = '0.250000' points = '592.7,249.4 592.7,662.4 594.6,662.4 594.6,251.8 '/>
		<polygon fill = 'rgb( 31, 120, 180)' fill-opacity = '0.250000' points = '594.6,251.8 594.6,662.4 596.5,662.4 596.5,254.3 '/>
		<polygon fill = 'rgb( 31, 120, 180)' fill-opacity = '0.250000' points = '596.5,254.3 596.5,662.4 598.3,662.4 598.3,256.8 '/>
		<polygon fill = 'rgb( 31, 120, 180)' fill-opacity = '0.250000' points = '598.3,256.8 598.3,662.4 600.2,662.4 600.2,259.2 '/>
		<polygon fill = 'rgb( 31, 120, 180)' fill-opacity = '0.250000' points = '600.2,259.2 600.2,662.4 602.1,662.4 602.1,261.7 '/>
		<polygon fill = 'rgb( 31, 120, 180)' fill-opacity = '0.250000' points = '602.1,261.7 602.1,662.4 604.0,662.4 604.0,264.2 '/>
		<polygon fill = 'rgb( 31, 120, 180)' fill-opacity = '0.250000' points = '604.0,264.2 604.0,662.4 605.8,662.4 605.8,266.6 '/>
		<polygon fill = 'rgb( 31, 120, 180)' fill-opacity = '0.250000' points = '605.8,266.6 605.8,662.4 607.7,662.4 607.7,269.1 '/>
		<polygon fill = 'rgb( 31, 120, 180)' fill-opacity = '0.250000' points = '607.7,269.1 607.7,662.4 609.6,662.4 609.6,271.6 '/>
		<polygon fill = 'rgb( 31, 120, 180)' fill-opacity = '0.250000' points = '609.6,271.6 609.6,662.4 611.4,662.4 611.4,274.1 '/>
		<polygon fill = 'rgb( 31, 120, 180)' fill-opacity = '0.250000' points = '611.4,274.1 611.4,662.4 613.3,662.4 613.3,276.6 '/>
		<polygon fill = 'rgb( 31, 120, 180)' fill-opacity = '0.250000' points = '613.3,276.6 613.3,662.4 615.2,662.4 615.2,279.1 '/>
		<polygon fill = 'rgb( 31, 120, 180)' fill-opacity = '0.250000' points = '615.2,279.1 615.2,662.4 617.0,662.4 617.0,281.6 '/>
		<polygon fill = 'rgb( 31, 120, 180)' fill-opacity = '0.250000' points = '617.0,281.6 617.0,662.4 618.9,662.4 618.9,284.1 '/>
		<polygon fill = 'rgb( 31, 120, 180)' fill-opacity = '0.250000' points = '618.9,284.1 618.9,662.4 620.8,662.4 620.8,286.7 '/>
		<polygon fill = 'rgb( 31, 120, 180)' fill-opacity = '0.250000' points = '620.8,286.7 620.8,662.4 622.7,662.4 622.7,289.2 '/>
		<polygon fill = 'rgb( 31, 120, 180)' fill-opacity = '0.250000' points = '622.7,289.2 622.7,662.4 624.5,662.4 624.5,291.7 '/>
		<polygon fill = 'rgb( 31, 120, 180)' fill-opacity = '0.250000' points = '624.5,291.7 624.5,662.4 626.4,662.4 626.4,294.3 '/>
		<polygon fill = 'rgb( 31, 120, 180)' fill-opacity = '0.250000' points = '626.4,294.3 626.4,662.4 628.3,662.4 628.3,296.8 '/>
		<polygon fill = 'rgb( 31, 120, 180)' fill-opacity = '0.250000' points = '628.3,296.8 628.3,662.4 630.1,662.4 630.1,299.4 '/>
		<polygon fill = 'rgb( 31, 120, 180)' fill-opacity = '0.250000' points = '630.1,299.4 630.1,662.4 632.0,662.4 632.0,301.9 '/>
		<polygon fill = 'rgb( 31, 120, 180)' fill-opacity = '0.250000' points = '632.0,301.9 632.0,662.4 633.9,662.4 633.9,304.5 '/>
		<polygon fill = 'rgb( 31, 120, 180)' fill-opacity = '0.250000' points = '633.9,304.5 633.9,662.4 635.8,662.4 635.8,307.0 '/>
		<polygon fill = 'rgb( 31, 120, 180)' fill-opacity = '0.250000' points = '635.8,307.0 635.8,662.4 637.6,662.4 637.6,309.5 '/>
		<polygon fill = 'rgb( 31, 120, 180)' fill-opacity = '0.250000' points = '637.6,309.5 637.6,662.4 639.5,662.4 639.5,312.1 '/>
		<polygon fill = 'rgb( 31, 120, 180)' fill-opacity = '0.250000' points = '639.5,312.1 639.5,662.4 641.4,662.4 641.4,314.6 '/>
		<polygon fill = 'rgb( 31, 120, 180)' fill-opacity = '0.250000' points = '641.4,314.6 641.4,662.4 643.2,662.4 643.2,317.2 '/>
		<polygon fill = 'rgb( 31, 120, 180)' fill-opacity = '0.250000' points = '643.2,317.2 643.2,662.4 645.1,662.4 645.1,319.7 '/>
		<polygon fill = 'rgb( 31, 120, 180)' fill-opacity = '0.250000' points = '645.1,319.7 645.1,662.4 647.0,662.4 647.0,322.2 '/>
		<polygon fill = 'rgb( 31, 120, 180)' fill-opacity = '0.250000' points = '647.0,322.2 647.0,662.4 648.8,662.4 648.8,324.7 '/>
		<polygon fill = 'rgb( 31, 120, 180)' fill-opacity = '0.250000' points = '648.8,324.7 648.8,662.4 650.7,662.4 650.7,327.1 '/>
		<polygon fill = 'rgb( 31, 120, 180)' fill-opacity = '0.250000' points = '650.7,327.1 650.7,662.4 652.6,662.4 652.6,329.6 '/>
		<polygon fill = 'rgb( 31, 120, 180)' fill-opacity = '0.250000' points = '652.6,329.6 652.6,662.4 654.5,662.4 654.5,332.0 '/>
		<polygon fill = 'rgb( 31, 120, 180)' fill-opacity = '0.250000' points = '654.5,332.0 654.5,662.4 656.3,662.4 656.3,334.4 '/>
		<polygon fill = 'rgb( 31, 120, 180)' fill-opacity = '0.250000' points = '656.3,334.4 656.3,662.4 658.2,662.4 658.2,336.8 '/>
		<polygon fill = 'rgb( 31, 120, 180)' fill-opacity = '0.250000' points = '658.2,336.8 658.2,662.4 660.1,662.4 660.1,339.1 '/>
		<polygon fill = 'rgb( 31, 120, 180)' fill-opacity = '0.250000' points = '660.1,339.1 660.1,662.4 661.9,662.4 661.9,341.4 '/>
		<polygon fill = 'rgb( 31, 120, 180)' fill-opacity = '0.250000' points = '661.9,341.4 661.9,662.4 663.8,662.4 663.8,343.7 '/>
		<polygon fill = 'rgb( 31, 120, 180)' fill-opacity = '0.250000' points = '663.8,343.7 663.8,662.4 665.7,662.4 665.7,346.0 '/>
		<polygon fill = 'rgb( 31, 120, 180)' fill-opacity = '0.250000' points = '665.7,346.0 665.7,662.4 667.5,662.4 667.5,348.2 '/>
		<polygon fill = 'rgb( 31, 120, 180)' fill-opacity = '0.250000' points = '667.5,348.2 667.5,662.4 669.4,662.4 669.4,350.5 '/>
		<polygon fill = 'rgb( 31, 120, 180)' fill-opacity = '0.250000' points = '669.4,350.5 669.4,662.4 671.3,662.4 671.3,352.7 '/>
		<polygon fill = 'rgb( 31, 120, 180)' fill-opacity = '0.250000' points = '671.3,352.7 671.3,662.4 673.2,662.4 673.2,354.9 '/>
		<polygon fill = 'rgb( 31, 120, 180)' fill-opacity = '0.250000' points = '673.2,354.9 673.2,662.4 675.0,662.4 675.0,357.1 '/>
		<polygon fill = 'rgb( 31, 120, 180)' fill-opacity = '0.250000' points = '675.0,357.1 675.0,662.4 676.9,662.4 676.9,359.3 '/>
		<polygon fill = 'rgb( 31, 120, 180)' fill-opacity = '0.250000' points = '676.9,359.3 676.9,662.4 678.8,662.4 678.8,361.5 '/>
		<polygon fill = 'rgb( 31, 120, 180)' fill-opacity = '0.250000' points = '678.8,361.5 678.8,662.4 680.6,662.4 680.6,363.7 '/>
		<polygon fill = 'rgb( 31, 120, 180)' fill-opacity = '0.250000' points = '680.6,363.7 680.6,662.4 682.5,662.4 682.5,365.9 '/>
		<polygon fill = 'rgb( 31, 120, 180)' fill-opacity = '0.250000' points = '682.5,365.9 682.5,662.4 684.4,662.4 684.4,368.1 '/>
		<polygon fill = 'rgb( 31, 120, 180)' fill-opacity = '0.250000' points = '684.4,368.1 684.4,662.4 686.3,662.4 686.3,370.3 '/>
		<polygon fill = 'rgb( 31, 120, 180)' fill-opacity = '0.250000' points = '686.3,370.3 686.3,662.4 688.1,662.4 688.1,372.5 '/>
		<polygon fill = 'rgb( 31, 120, 180)' fill-opacity = '0.250000' points = '688.1,372.5 688.1,662.4 690.0,662.4 690.0,374.8 '/>
		<polygon fill = 'rgb( 31, 120, 180)' fill-opacity = '0.250000' points = '690.0,374.8 690.0,662.4 691.9,662.4 691.9,377.1 '/>
		<polygon fill = 'rgb( 31, 120, 180)' fill-opacity = '0.250000' points = '691.9,377.1 691.9,662.4 693.7,662.4 693.7,379.4 '/>
		<polygon fill = 'rgb( 31, 120, 180)' fill-opacity = '0.250000' points = '693.7,379.4 693.7,662.4 695.6,662.4 695.6,381.7 '/>
		<polygon fill = 'rgb( 31, 120, 180)' fill-opacity = '0.250000' points = '695.6,381.7 695.6,662.4 697.5,662.4 697.5,384.1 '/>
		<polygon fill = 'rgb( 31, 120, 180)' fill-opacity = '0.250000' points = '697.5,384.1 697.5,662.4 699.3,662.4 699.3,386.4 '/>
		<polygon fill = 'rgb( 31, 120, 180)' fill-opacity = '0.250000' points = '699.3,386.4 699.3,662.4 701.2,662.4 701.2,388.8 '/>
		<polygon fill = 'rgb( 31, 120, 180)' fill-opacity = '0.250000' points = '701.2,388.8 701.2,662.4 703.1,662.4 703.1,391.2 '/>
		<polygon fill = 'rgb( 31, 120, 180)' fill-opacity = '0.250000' points = '703.1,391.2 703.1,662.4 705.0,662.4 705.0,393.6 '/>
		<polygon fill = 'rgb( 31, 120, 180)' fill-opacity = '0.250000' points = '705.0,393.6 705.0,662.4 706.8,662.4 706.8,396.0 '/>
		<polygon fill = 'rgb( 31, 120, 180)' fill-opacity = '0.250000' points = '706.8,396.0 706.8,662.4 708.7,662.4 708.7,398.4 '/>
		<polygon fill = 'rgb( 31, 120, 180)' fill-opacity = '0.250000' points = '708.7,398.4 708.7,662.4 710.6,662.4 710.6,400.8 '/>
		<polygon fill = 'rgb( 31, 120, 180)' fill-opacity = '0.250000' points = '710.6,400.8 710.6,662.4 712.4,662.4 712.4,403.2 '/>
		<polygon fill = 'rgb( 31, 120, 180)' fill-opacity = '0.250000' points = '712.4,403.2 712.4,662.4 714.3,662.4 714.3,405.6 '/>
		<polygon fill = 'rgb( 31, 120, 180)' fill-opacity = '0.250000' points = '714.3,405.6 714.3,662.4 716.2,662.4 716.2,408.0 '/>
		<polygon fill = 'rgb( 31, 120, 180)' fill-opacity = '0.250000' points = '716.2,408.0 716.2,662.4 718.1,662.4 718.1,410.3 '/>
		<polygon fill = 'rgb( 31, 120, 180)' fill-opacity = '0.250000' points = '718.1,410.3 718.1,662.4 719.9,662.4 719.9,412.7 '/>
		<polygon fill = 'rgb( 31, 120, 180)' fill-opacity = '0.250000' points = '719.9,412.7 719.9,662.4 721.8,662.4 721.8,415.0 '/>
		<polygon fill = 'rgb( 31, 120, 180)' fill-opacity = '0.250000' points = '721.8,415.0 721.8,662.4 723.7,662.4 723.7,417.3 '/>
		<polygon fill = 'rgb( 31, 120, 180)' fill-opacity = '0.250000' points = '723.7,417.3 723.7,662.4 725.5,662.4 725.5,419.5 '/>
		<polygon fill = 'rgb( 31, 120, 180)' fill-opacity = '0.250000' points = '725.5,419.5 725.5,662.4 727.4,662.4 727.4,421.8 '/>
		<polygon fill = 'rgb( 31, 120, 180)' fill-opacity = '0.250000' points = '727.4,421.8 727.4,662.4 729.3,662.4 729.3,424.1 '/>
		<polygon fill = 'rgb( 31, 120, 180)' fill-opacity = '0.250000' points = '729.3,424.1 729.3,662.4 731.1,662.4 731.1,426.3 '/>
		<polygon fill = 'rgb( 31, 120, 180)' fill-opacity = '0.250000' points = '731.1,426.3 731.1,662.4 733.0,662.4 733.0,428.5 '/>
		<polygon fill = 'rgb( 31, 120, 180)' fill-opacity = '0.250000' points = '733.0,428.5 733.0,662.4 734.9,662.4 734.9,430.7 '/>
		<polygon fill = 'rgb( 31, 120, 180)' fill-opacity = '0.250000' points = '734.9,430.7 734.9,662.4 736.8,662.4 736.8,432.9 '/>
		<polygon fill = 'rgb( 31, 120, 180)' fill-opacity = '0.250000' points = '736.8,432.9 736.8,662.4 738.6,662.4 738.6,435.1 '/>
		<polygon fill = 'rgb( 31, 120, 180)' fill-opacity = '0.250000' points = '738.6,435.1 738.6,662.4 740.5,662.4 740.5,437.3 '/>
		<polygon fill = 'rgb( 31, 120, 180)' fill-opacity = '0.250000' points = '740.5,437.3 740.5,662.4 742.4,662.4 742.4,439.5 '/>
		<polygon fill = 'rgb( 31, 120, 180)' fill-opacity = '0.250000' points = '742.4,439.5 742.4,662.4 744.2,662.4 744.2,441.7 '/>
		<polygon fill = 'rgb( 31, 120, 180)' fill-opacity = '0.250000' points = '744.2,441.7 744.2,662.4 746.1,662.4 746.1,443.9 '/>
		<polygon fill = 'rgb( 31, 120, 180)' fill-opacity = '0.250000' points = '746.1,443.9 746.1,662.4 748.0,662.4 748.0,446.1 '/>
		<polygon fill = 'rgb( 31, 120, 180)' fill-opacity = '0.250000' points = '748.0,446.1 748.0,662.4 749.9,662.4 749.9,448.3 '/>
		<polygon fill = 'rgb( 31, 120, 180)' fill-opacity = '0.250000' points = '749.9,448.3 749.9,662.4 751.7,662.4 751.7,450.5 '/>
		<polygon fill = 'rgb( 31, 120, 180)' fill-opacity = '0.250000' points = '751.7,450.5 751.7,662.4 753.6,662.4 753.6,452.8 '/>
		<polygon fill = 'rgb( 31, 120, 180)' fill-opacity = '0.250000' points = '753.6,452.8 753.6,662.4 755.5,662.4 755.5,455.0 '/>
		<polygon fill = 'rgb( 31, 120, 180)' fill-opacity = '0.250000' points = '755.5,455.0 755.5,662.4 757.3,662.4 757.3,457.3 '/>
		<polygon fill = 'rgb( 31, 120, 180)' fill-opacity = '0.250000' points = '757.3,457.3 757.3,662.4 759.2,662.4 759.2,459.6 '/>
		<polygon fill = 'rgb( 31, 120, 180)' fill-opacity = '0.250000' points = '759.2,459.6 759.2,662.4 761.1,662.4 761.1,461.8 '/>
		<polygon fill = 'rgb( 31, 120, 180)' fill-opacity = '0.250000' points = '761.1,461.8 761.1,662.4 762.9,662.4 762.9,464.1 '/>
		<polygon fill = 'rgb( 31, 120, 180)' fill-opacity = '0.250000' points = '762.9,464.1 762.9,662.4 764.8,662.4 764.8,466.4 '/>
		<polygon fill = 'rgb( 31, 120, 180)' fill-opacity = '0.250000' points = '764.8,466.4 764.8,662.4 766.7,662.4 766.7,468.6 '/>
		<polygon fill = 'rgb( 31, 120, 180)' fill-opacity = '0.250000' points = '766.7,468.6 766.7,662.4 768.6,662.4 768.6,470.9 '/>
		<polygon fill = 'rgb( 31, 120, 180)' fill-opacity = '0.250000' points = '768.6,470.9 768.6,662.4 770.4,662.4 770.4,473.1 '/>
		<polygon fill = 'rgb( 31, 120, 180)' fill-opacity = '0.250000' points = '770.4,473.1 770.4,662.4 772.3,662.4 772.3,475.4 '/>
		<polygon fill = 'rgb( 31, 120, 180)' fill-opacity = '0.250000' points = '772.3,475.4 772.3,662.4 774.2,662.4 774.2,477.6 '/>
		<polygon fill = 'rgb( 31, 120, 180)' fill-opacity = '0.250000' points = '774.2,477.6 774.2,662.4 776.0,662.4 776.0,479.8 '/>
		<polygon fill = 'rgb( 31, 120, 180)' fill-opacity = '0.250000' points = '776.0,479.8 776.0,662.4 777.9,662.4 777.9,481.9 '/>
		<polygon fill = 'rgb( 31, 120, 180)' fill-opacity = '0.250000' points = '777.9,481.9 777.9,662.4 779.8,662.4 779.8,484.0 '/>
		<polygon fill = 'rgb( 31, 120, 180)' fill-opacity = '0.250000' points = '779.8,484.0 779.8,662.4 781.7,662.4 781.7,486.1 '/>
		<polygon fill = 'rgb( 31, 120, 180)' fill-opacity = '0.250000' points = '781.7,486.1 781.7,662.4 783.5,662.4 783.5,488.1 '/>
		<polygon fill = 'rgb( 31, 120, 180)' fill-opacity = '0.250000' points = '783.5,488.1 783.5,662.4 785.4,662.4 785.4,490.0 '/>
		<polygon fill = 'rgb( 31, 120, 180)' fill-opacity = '0.250000' points = '785.4,490.0 785.4,662.4 787.3,662.4 787.3,491.9 '/>
		<polygon fill = 'rgb( 31, 120, 180)' fill-opacity = '0.250000' points = '787.3,491.9 787.3,662.4 789.1,662.4 789.1,493.8 '/>
		<polygon fill = 'rgb( 31, 120, 180)' fill-opacity = '0.250000' points = '789.1,493.8 789.1,662.4 791.0,662.4 791.0,495.6 '/>
		<polygon fill = 'rgb( 31, 120, 180)' fill-opacity = '0.250000' points = '791.0,495.6 791.0,662.4 792.9,662.4 792.9,497.3 '/>
		<polygon fill = 'rgb( 31, 120, 180)' fill-opacity = '0.250000' points = '792.9,497.3 792.9,662.4 794.7,662.4 794.7,499.0 '/>
		<polygon fill = 'rgb( 31, 120, 180)' fill-opacity = '0.250000' points = '794.7,499.0 794.7,662.4 796.6,662.4 796.6,500.6 '/>
		<polygon fill = 'rgb( 31, 120, 180)' fill-opacity = '0.250000' points = '796.6,500.6 796.6,662.4 798.5,662.4 798.5,502.2 '/>
		<polygon fill = 'rgb( 31, 120, 180)' fill-opacity = '0.250000' points = '798.5,502.2 798.5,662.4 800.4,662.4 800.4,503.7 '/>
		<polygon fill = 'rgb( 31, 120, 180)' fill-opacity = '0.250000' points = '800.4,503.7 800.4,662.4 802.2,662.4 802.2,505.1 '/>
		<polygon fill = 'rgb( 31, 120, 180)' fill-opacity = '0.250000' points = '802.2,505.1 802.2,662.4 804.1,662.4 804.1,506.6 '/>
		<polygon fill = 'rgb( 31, 120, 180)' fill-opacity = '0.250000' points = '804.1,506.6 804.1,662.4 806.0,662.4 806.0,508.0 '/>
		<polygon fill = 'rgb( 31, 120, 180)' fill-opacity = '0.250000' points = '806.0,508.0 806.0,662.4 807.8,662.4 807.8,509.3 '/>
		<polygon fill = 'rgb( 31, 120, 180)' fill-opacity = '0.250000' points = '807.8,509.3 807.8,662.4 809.7,662.4 809.7,510.7 '/>
		<polygon fill = 'rgb( 31, 120, 180)' fill-opacity = '0.250000' points = '809.7,510.7 809.7,662.4 811.6,662.4 811.6,512.0 '/>
		<polygon fill = 'rgb( 31, 120, 180)' fill-opacity = '0.250000' points = '811.6,512.0 811.6,662.4 813.5,662.4 813.5,513.4 '/>
		<polygon fill = 'rgb( 31, 120, 180)' fill-opacity = '0.250000' points = '813.5,513.4 813.5,662.4 815.3,662.4 815.3,514.7 '/>
		<polygon fill = 'rgb( 31, 120, 180)' fill-opacity = '0.250000' points = '815.3,514.7 815.3,662.4 817.2,662.4 817.2,516.0 '/>
		<polygon fill = 'rgb( 31, 120, 180)' fill-opacity = '0.250000' points = '817.2,516.0 817.2,662.4 819.1,662.4 819.1,517.4 '/>
		<polygon fill = 'rgb( 31, 120, 180)' fill-opacity = '0.250000' points = '819.1,517.4 819.1,662.4 820.9,662.4 820.9,518.7 '/>
		<polygon fill = 'rgb( 31, 120, 180)' fill-opacity = '0.250000' points = '820.9,518.7 820.9,662.4 822.8,662.4 822.8,520.1 '/>
		<polygon fill = 'rgb( 31, 120, 180)' fill-opacity = '0.250000' points = '822.8,520.1 822.8,662.4 824.7,662.4 824.7,521.5 '/>
		<polygon fill = 'rgb( 31, 120, 180)' fill-opacity = '0.250000' points = '824.7,521.5 824.7,662.4 826.5,662.4 826.5,522.9 '/>
		<polygon fill = 'rgb( 31, 120, 180)' fill-opacity = '0.250000' points = '826.5,522.9 826.5,662.4 828.4,662.4 828.4,524.4 '/>
		<polygon fill = 'rgb( 31, 120, 180)' fill-opacity = '0.250000' points = '828.4,524.4 828.4,662.4 830.3,662.4 830.3,525.9 '/>
		<polygon fill = 'rgb( 31, 120, 180)' fill-opacity = '0.250000' points = '830.3,525.9 830.3,662.4 832.2,662.4 832.2,527.4 '/>
		<polygon fill = 'rgb( 31, 120, 180)' fill-opacity = '0.250000' points = '832.2,527.4 832.2,662.4 834.0,662.4 834.0,528.9 '/>
		<polygon fill = 'rgb( 31, 120, 180)' fill-opacity = '0.250000' points = '834.0,528.9 834.0,662.4 835.9,662.4 835.9,530.5 '/>
		<polygon fill = 'rgb( 31, 120, 180)' fill-opacity = '0.250000' points = '835.9,530.5 835.9,662.4 837.8,662.4 837.8,532.1 '/>
		<polygon fill = 'rgb( 31, 120, 180)' fill-opacity = '0.250000' points = '837.8,532.1 837.8,662.4 839.6,662.4 839.6,533.7 '/>
		<polygon fill = 'rgb( 31, 120, 180)' fill-opacity = '0.250000' points = '839.6,533.7 839.6,662.4 841.5,662.4 841.5,535.3 '/>
		<polygon fill = 'rgb( 31, 120, 180)' fill-opacity = '0.250000' points = '841.5,535.3 841.5,662.4 843.4,662.4 843.4,536.9 '/>
		<polygon fill = 'rgb( 31, 120, 180)' fill-opacity = '0.250000' points = '843.4,536.9 843.4,662.4 845.3,662.4 845.3,538.6 '/>
		<polygon fill = 'rgb( 31, 120, 180)' fill-opacity = '0.250000' points = '845.3,538.6 845.3,662.4 847.1,662.4 847.1,540.3 '/>
		<polygon fill = 'rgb( 31, 120, 180)' fill-opacity = '0.250000' points = '847.1,540.3 847.1,662.4 849.0,662.4 849.0,542.0 '/>
		<polygon fill = 'rgb( 31, 120, 180)' fill-opacity = '0.250000' points = '849.0,542.0 849.0,662.4 850.9,662.4 850.9,543.7 '/>
		<polygon fill = 'rgb( 31, 120, 180)' fill-opacity = '0.250000' points = '850.9,543.7 850.9,662.4 852.7,662.4 852.7,545.4 '/>
		<polygon fill = 'rgb( 31, 120, 180)' fill-opacity = '0.250000' points = '852.7,545.4 852.7,662.4 854.6,662.4 854.6,547.1 '/>
		<polygon fill = 'rgb( 31, 120, 180)' fill-opacity = '0.250000' points = '854.6,547.1 854.6,662.4 856.5,662.4 856.5,548.8 '/>
		<polygon fill = 'rgb( 31, 120, 180)' fill-opacity = '0.250000' points = '856.5,548.8 856.5,662.4 858.3,662.4 858.3,550.5 '/>
		<polygon fill = 'rgb( 31, 120, 180)' fill-opacity = '0.250000' points = '858.3,550.5 858.3,662.4 860.2,662.4 860.2,552.2 '/>
		<polygon fill = 'rgb( 31, 120, 180)' fill-opacity = '0.250000' points = '860.2,552.2 860.2,662.4 862.1,662.4 862.1,553.8 '/>
		<polygon fill = 'rgb( 31, 120, 180)' fill-opacity = '0.250000' points = '862.1,553.8 862.1,662.4 864.0,662.4 864.0,555.5 '/>
		<polygon fill = 'rgb( 31, 120, 180)' fill-opacity = '0.250000' points = '864.0,555.5 864.0,662.4 865.8,662.4 865.8,557.1 '/>
		<polygon fill = 'rgb( 31, 120, 180)' fill-opacity = '0.250000' points = '865.8,557.1 865.8,662.4 867.7,662.4 867.7,558.8 '/>
		<polygon fill = 'rgb( 31, 120, 180)' fill-opacity = '0.250000' points = '867.7,558.8 867.7,662.4 869.6,662.4 869.6,560.3 '/>
		<polygon fill = 'rgb( 31, 120, 180)' fill-opacity = '0.250000' points = '869.6,560.3 869.6,662.4 871.4,662.4 871.4,561.9 '/>
		<polygon fill = 'rgb( 31, 120, 180)' fill-opacity = '0.250000' points = '871.4,561.9 871.4,662.4 873.3,662.4 873.3,563.5 '/>
		<polygon fill = 'rgb( 31, 120, 180)' fill-opacity = '0.250000' points = '873.3,563.5 873.3,662.4 875.2,662.4 875.2,565.0 '/>
		<polygon fill = 'rgb( 31, 120, 180)' fill-opacity = '0.250000' points = '875.2,565.0 875.2,662.4 877.1,662.4 877.1,566.4 '/>
		<polygon fill = 'rgb( 31, 120, 180)' fill-opacity = '0.250000' points = '877.1,566.4 877.1,662.4 878.9,662.4 878.9,567.8 '/>
		<polygon fill = 'rgb( 31, 120, 180)' fill-opacity = '0.250000' points = '878.9,567.8 878.9,662.4 880.8,662.4 880.8,569.2 '/>
		<polygon fill = 'rgb( 31, 120, 180)' fill-opacity = '0.250000' points = '880.8,569.2 880.8,662.4 882.7,662.4 882.7,570.6 '/>
		<polygon fill = 'rgb( 31, 120, 180)' fill-opacity = '0.250000' points = '882.7,570.6 882.7,662.4 884.5,662.4 884.5,571.9 '/>
		<polygon fill = 'rgb( 31, 120, 180)' fill-opacity = '0.250000' points = '884.5,571.9 884.5,662.4 886.4,662.4 886.4,573.1 '/>
		<polygon fill = 'rgb( 31, 120, 180)' fill-opacity = '0.250000' points = '886.4,573.1 886.4,662.4 888.3,662.4 888.3,574.4 '/>
		<polygon fill = 'rgb( 31, 120, 180)' fill-opacity = '0.250000' points = '888.3,574.4 888.3,662.4 890.1,662.4 890.1,575.5 '/>
		<polygon fill = 'rgb( 31, 120, 180)' fill-opacity = '0.250000' points = '890.1,575.5 890.1,662.4 892.0,662.4 892.0,576.7 '/>
		<polygon fill = 'rgb( 31, 120, 180)' fill-opacity = '0.250000' points = '892.0,576.7 892.0,662.4 893.9,662.4 893.9,577.8 '/>
		<polygon fill = 'rgb( 31, 120, 180)' fill-opacity = '0.250000' points = '893.9,577.8 893.9,662.4 895.8,662.4 895.8,578.9 '/>
		<polygon fill = 'rgb( 31, 120, 180)' fill-opacity = '0.250000' points = '895.8,578.9 895.8,662.4 897.6,662.4 897.6,579.9 '/>
		<polygon fill = 'rgb( 31, 120, 180)' fill-opacity = '0.250000' points = '897.6,579.9 897.6,662.4 899.5,662.4 899.5,580.9 '/>
		<polygon fill = 'rgb( 31, 120, 180)' fill-opacity = '0.250000' points = '899.5,580.9 899.5,662.4 901.4,662.4 901.4,581.9 '/>
		<polygon fill = 'rgb( 31, 120, 180)' fill-opacity = '0.250000' points = '901.4,581.9 901.4,662.4 903.2,662.4 903.2,582.9 '/>
		<polygon fill = 'rgb( 31, 120, 180)' fill-opacity = '0.250000' points = '903.2,582.9 903.2,662.4 905.1,662.4 905.1,583.8 '/>
		<polygon fill = 'rgb( 31, 120, 180)' fill-opacity = '0.250000' points = '905.1,583.8 905.1,662.4 907.0,662.4 907.0,584.8 '/>
		<polygon fill = 'rgb( 31, 120, 180)' fill-opacity = '0.250000' points = '907.0,584.8 907.0,662.4 908.8,662.4 908.8,585.7 '/>
		<polygon fill = 'rgb( 31, 120, 180)' fill-opacity = '0.250000' points = '908.8,585.7 908.8,662.4 910.7,662.4 910.7,586.7 '/>
		<polygon fill = 'rgb( 31, 120, 180)' fill-opacity = '0.250000' points = '910.7,586.7 910.7,662.4 912.6,662.4 912.6,587.6 '/>
		<polygon fill = 'rgb( 31, 120, 180)' fill-opacity = '0.250000' points = '912.6,587.6 912.6,662.4 914.5,662.4 914.5,588.5 '/>
		<polygon fill = 'rgb( 31, 120, 180)' fill-opacity = '0.250000' points = '914.5,588.5 914.5,662.4 916.3,662.4 916.3,589.4 '/>
		<polygon fill = 'rgb( 31, 120, 180)' fill-opacity = '0.250000' points = '916.3,589.4 916.3,662.4 918.2,662.4 918.2,590.4 '/>
		<polygon fill = 'rgb( 31, 120, 180)' fill-opacity = '0.250000' points = '918.2,590.4 918.2,662.4 920.1,662.4 920.1,591.3 '/>
		<polygon fill = 'rgb( 31, 120, 180)' fill-opacity = '0.250000' points = '920.1,591.3 920.1,662.4 921.9,662.4 921.9,592.2 '/>
		<polygon fill = 'rgb( 31, 120, 180)' fill-opacity = '0.250000' points = '921.9,592.2 921.9,662.4 923.8,662.4 923.8,593.1 '/>
		<polygon fill = 'rgb( 31, 120, 180)' fill-opacity = '0.250000' points = '923.8,593.1 923.8,662.4 925.7,662.4 925.7,594.1 '/>
	</g>
</g>
	</g>
	<g id="gnuplot_plot_3" ><title>Point estimate</title>
<g fill="none" color="white" stroke="rgb( 31, 120, 180)" stroke-width="2.00" stroke-linecap="butt" stroke-linejoin="miter">
</g>
<g fill="none" color="black" stroke="currentColor" stroke-width="2.00" stroke-linecap="butt" stroke-linejoin="miter">
	<g transform="translate(1089.0,103.0)" stroke="none" fill="black" font-family="Helvetica" font-size="12.00"  text-anchor="start">
		<text><tspan font-family="Helvetica" >Point estimate</tspan></text>
	</g>
</g>
<g fill="none" color="black" stroke="currentColor" stroke-width="2.00" stroke-linecap="butt" stroke-linejoin="miter">
	<path stroke='rgb( 31, 120, 180)'  d='M1038.5,99.1 L1080.7,99.1 M486.8,662.4 L486.8,124.0  '/></g>
	</g>
<g fill="none" color="black" stroke="currentColor" stroke-width="2.00" stroke-linecap="butt" stroke-linejoin="miter">
</g>
<g fill="none" color="black" stroke="black" stroke-width="1.00" stroke-linecap="butt" stroke-linejoin="miter">
</g>
<g fill="none" color="black" stroke="currentColor" stroke-width="1.00" stroke-linecap="butt" stroke-linejoin="miter">
	<path stroke='black'  d='M80.2,54.1 L80.2,662.4 L1013.6,662.4 L1013.6,54.1 L80.2,54.1 Z  '/></g>
<g fill="none" color="black" stroke="currentColor" stroke-width="1.00" stroke-linecap="butt" stroke-linejoin="miter">
</g>
</g>
</svg>

