<?xml version="1.0" encoding="utf-8"  standalone="no"?>
<svg 
 viewBox="0 0 1280 720"
 xmlns="http://www.w3.org/2000/svg"
 xmlns:xlink="http://www.w3.org/1999/xlink"
>

<title>Gnuplot</title>
<desc>Produced by GNUPLOT 5.0 patchlevel 6 </desc>

<g id="gnuplot_canvas">

<rect x="0" y="0" width="1280" height="720" fill="none"/>
<defs>

	<circle id='gpDot' r='0.5' stroke-width='0.5'/>
	<path id='gpPt0' stroke-width='0.222' stroke='currentColor' d='M-1,0 h2 M0,-1 v2'/>
	<path id='gpPt1' stroke-width='0.222' stroke='currentColor' d='M-1,-1 L1,1 M1,-1 L-1,1'/>
	<path id='gpPt2' stroke-width='0.222' stroke='currentColor' d='M-1,0 L1,0 M0,-1 L0,1 M-1,-1 L1,1 M-1,1 L1,-1'/>
	<rect id='gpPt3' stroke-width='0.222' stroke='currentColor' x='-1' y='-1' width='2' height='2'/>
	<rect id='gpPt4' stroke-width='0.222' stroke='currentColor' fill='currentColor' x='-1' y='-1' width='2' height='2'/>
	<circle id='gpPt5' stroke-width='0.222' stroke='currentColor' cx='0' cy='0' r='1'/>
	<use xlink:href='#gpPt5' id='gpPt6' fill='currentColor' stroke='none'/>
	<path id='gpPt7' stroke-width='0.222' stroke='currentColor' d='M0,-1.33 L-1.33,0.67 L1.33,0.67 z'/>
	<use xlink:href='#gpPt7' id='gpPt8' fill='currentColor' stroke='none'/>
	<use xlink:href='#gpPt7' id='gpPt9' stroke='currentColor' transform='rotate(180)'/>
	<use xlink:href='#gpPt9' id='gpPt10' fill='currentColor' stroke='none'/>
	<use xlink:href='#gpPt3' id='gpPt11' stroke='currentColor' transform='rotate(45)'/>
	<use xlink:href='#gpPt11' id='gpPt12' fill='currentColor' stroke='none'/>
	<path id='gpPt13' stroke-width='0.222' stroke='currentColor' d='M0,1.330 L1.265,0.411 L0.782,-1.067 L-0.782,-1.076 L-1.265,0.411 z'/>
	<use xlink:href='#gpPt13' id='gpPt14' fill='currentColor' stroke='none'/>
	<filter id='textbox' filterUnits='objectBoundingBox' x='0' y='0' height='1' width='1'>
	  <feFlood flood-color='white' flood-opacity='1' result='bgnd'/>
	  <feComposite in='SourceGraphic' in2='bgnd' operator='atop'/>
	</filter>
	<filter id='greybox' filterUnits='objectBoundingBox' x='0' y='0' height='1' width='1'>
	  <feFlood flood-color='lightgrey' flood-opacity='1' result='grey'/>
	  <feComposite in='SourceGraphic' in2='grey' operator='atop'/>
	</filter>
</defs>
<g fill="none" color="white" stroke="currentColor" stroke-width="1.00" stroke-linecap="butt" stroke-linejoin="miter">
</g>
<g fill="none" color="black" stroke="currentColor" stroke-width="1.00" stroke-linecap="butt" stroke-linejoin="miter">
	<path stroke='black'  d='M63.6,662.4 L72.6,662.4  '/>	<g transform="translate(55.3,666.3)" stroke="none" fill="black" font-family="Helvetica" font-size="12.00"  text-anchor="end">
		<text><tspan font-family="Helvetica" > 0</tspan></text>
	</g>
</g>
<g fill="none" color="black" stroke="currentColor" stroke-width="1.00" stroke-linecap="butt" stroke-linejoin="miter">
	<path stroke='black'  d='M63.6,561.0 L72.6,561.0  '/>	<g transform="translate(55.3,564.9)" stroke="none" fill="black" font-family="Helvetica" font-size="12.00"  text-anchor="end">
		<text><tspan font-family="Helvetica" > 5</tspan></text>
	</g>
</g>
<g fill="none" color="black" stroke="currentColor" stroke-width="1.00" stroke-linecap="butt" stroke-linejoin="miter">
	<path stroke='black'  d='M63.6,459.6 L72.6,459.6  '/>	<g transform="translate(55.3,463.5)" stroke="none" fill="black" font-family="Helvetica" font-size="12.00"  text-anchor="end">
		<text><tspan font-family="Helvetica" > 10</tspan></text>
	</g>
</g>
<g fill="none" color="black" stroke="currentColor" stroke-width="1.00" stroke-linecap="butt" stroke-linejoin="miter">
	<path stroke='black'  d='M63.6,358.2 L72.6,358.2  '/>	<g transform="translate(55.3,362.1)" stroke="none" fill="black" font-family="Helvetica" font-size="12.00"  text-anchor="end">
		<text><tspan font-family="Helvetica" > 15</tspan></text>
	</g>
</g>
<g fill="none" color="black" stroke="currentColor" stroke-width="1.00" stroke-linecap="butt" stroke-linejoin="miter">
	<path stroke='black'  d='M63.6,256.9 L72.6,256.9  '/>	<g transform="translate(55.3,260.8)" stroke="none" fill="black" font-family="Helvetica" font-size="12.00"  text-anchor="end">
		<text><tspan font-family="Helvetica" > 20</tspan></text>
	</g>
</g>
<g fill="none" color="black" stroke="currentColor" stroke-width="1.00" stroke-linecap="butt" stroke-linejoin="miter">
	<path stroke='black'  d='M63.6,155.5 L72.6,155.5  '/>	<g transform="translate(55.3,159.4)" stroke="none" fill="black" font-family="Helvetica" font-size="12.00"  text-anchor="end">
		<text><tspan font-family="Helvetica" > 25</tspan></text>
	</g>
</g>
<g fill="none" color="black" stroke="currentColor" stroke-width="1.00" stroke-linecap="butt" stroke-linejoin="miter">
	<path stroke='black'  d='M63.6,54.1 L72.6,54.1  '/>	<g transform="translate(55.3,58.0)" stroke="none" fill="black" font-family="Helvetica" font-size="12.00"  text-anchor="end">
		<text><tspan font-family="Helvetica" > 30</tspan></text>
	</g>
</g>
<g fill="none" color="black" stroke="currentColor" stroke-width="1.00" stroke-linecap="butt" stroke-linejoin="miter">
	<path stroke='black'  d='M182.6,662.4 L182.6,653.4  '/>	<g transform="translate(182.6,684.3)" stroke="none" fill="black" font-family="Helvetica" font-size="12.00"  text-anchor="middle">
		<text><tspan font-family="Helvetica" > 8.14</tspan></text>
	</g>
</g>
<g fill="none" color="black" stroke="currentColor" stroke-width="1.00" stroke-linecap="butt" stroke-linejoin="miter">
	<path stroke='black'  d='M311.6,662.4 L311.6,653.4  '/>	<g transform="translate(311.6,684.3)" stroke="none" fill="black" font-family="Helvetica" font-size="12.00"  text-anchor="middle">
		<text><tspan font-family="Helvetica" > 8.15</tspan></text>
	</g>
</g>
<g fill="none" color="black" stroke="currentColor" stroke-width="1.00" stroke-linecap="butt" stroke-linejoin="miter">
	<path stroke='black'  d='M440.5,662.4 L440.5,653.4  '/>	<g transform="translate(440.5,684.3)" stroke="none" fill="black" font-family="Helvetica" font-size="12.00"  text-anchor="middle">
		<text><tspan font-family="Helvetica" > 8.16</tspan></text>
	</g>
</g>
<g fill="none" color="black" stroke="currentColor" stroke-width="1.00" stroke-linecap="butt" stroke-linejoin="miter">
	<path stroke='black'  d='M569.5,662.4 L569.5,653.4  '/>	<g transform="translate(569.5,684.3)" stroke="none" fill="black" font-family="Helvetica" font-size="12.00"  text-anchor="middle">
		<text><tspan font-family="Helvetica" > 8.17</tspan></text>
	</g>
</g>
<g fill="none" color="black" stroke="currentColor" stroke-width="1.00" stroke-linecap="butt" stroke-linejoin="miter">
	<path stroke='black'  d='M698.4,662.4 L698.4,653.4  '/>	<g transform="translate(698.4,684.3)" stroke="none" fill="black" font-family="Helvetica" font-size="12.00"  text-anchor="middle">
		<text><tspan font-family="Helvetica" > 8.18</tspan></text>
	</g>
</g>
<g fill="none" color="black" stroke="currentColor" stroke-width="1.00" stroke-linecap="butt" stroke-linejoin="miter">
	<path stroke='black'  d='M827.4,662.4 L827.4,653.4  '/>	<g transform="translate(827.4,684.3)" stroke="none" fill="black" font-family="Helvetica" font-size="12.00"  text-anchor="middle">
		<text><tspan font-family="Helvetica" > 8.19</tspan></text>
	</g>
</g>
<g fill="none" color="black" stroke="currentColor" stroke-width="1.00" stroke-linecap="butt" stroke-linejoin="miter">
	<path stroke='black'  d='M956.3,662.4 L956.3,653.4  '/>	<g transform="translate(956.3,684.3)" stroke="none" fill="black" font-family="Helvetica" font-size="12.00"  text-anchor="middle">
		<text><tspan font-family="Helvetica" > 8.2</tspan></text>
	</g>
</g>
<g fill="none" color="black" stroke="currentColor" stroke-width="1.00" stroke-linecap="butt" stroke-linejoin="miter">
</g>
<g fill="none" color="black" stroke="currentColor" stroke-width="1.00" stroke-linecap="butt" stroke-linejoin="miter">
	<path stroke='black'  d='M63.6,54.1 L63.6,662.4 L1013.6,662.4 L1013.6,54.1 L63.6,54.1 Z  '/></g>
<g fill="none" color="black" stroke="currentColor" stroke-width="1.00" stroke-linecap="butt" stroke-linejoin="miter">
	<g transform="translate(17.0,358.3) rotate(270)" stroke="none" fill="black" font-family="Helvetica" font-size="12.00"  text-anchor="middle">
		<text><tspan font-family="Helvetica" >Density (a.u.)</tspan></text>
	</g>
</g>
<g fill="none" color="black" stroke="currentColor" stroke-width="1.00" stroke-linecap="butt" stroke-linejoin="miter">
	<g transform="translate(538.6,711.3)" stroke="none" fill="black" font-family="Helvetica" font-size="12.00"  text-anchor="middle">
		<text><tspan font-family="Helvetica" >Average time (ms)</tspan></text>
	</g>
</g>
<g fill="none" color="black" stroke="currentColor" stroke-width="1.00" stroke-linecap="butt" stroke-linejoin="miter">
	<g transform="translate(538.6,31.0)" stroke="none" fill="black" font-family="Helvetica" font-size="12.00"  text-anchor="middle">
		<text><tspan font-family="Helvetica" >language: bash/parse error: python/examples/python2-grammar.py: mean</tspan></text>
	</g>
</g>
	<g id="gnuplot_plot_1" ><title>Bootstrap distribution</title>
<g fill="none" color="white" stroke="black" stroke-width="2.00" stroke-linecap="butt" stroke-linejoin="miter">
</g>
<g fill="none" color="black" stroke="currentColor" stroke-width="2.00" stroke-linecap="butt" stroke-linejoin="miter">
	<g transform="translate(1089.0,67.0)" stroke="none" fill="black" font-family="Helvetica" font-size="12.00"  text-anchor="start">
		<text><tspan font-family="Helvetica" >Bootstrap distribution</tspan></text>
	</g>
</g>
<g fill="none" color="black" stroke="currentColor" stroke-width="2.00" stroke-linecap="butt" stroke-linejoin="miter">
	<path stroke='rgb( 31, 120, 180)'  d='M1038.5,63.1 L1080.7,63.1 M63.6,635.3 L65.5,634.2 L67.4,633.0 L69.3,631.8 L71.2,630.5 L73.1,629.2
		L75.0,627.9 L76.9,626.5 L78.8,625.1 L80.7,623.6 L82.6,622.1 L84.5,620.5 L86.4,618.9 L88.3,617.2
		L90.3,615.6 L92.2,613.8 L94.1,612.0 L96.0,610.2 L97.9,608.3 L99.8,606.4 L101.7,604.4 L103.6,602.3
		L105.5,600.2 L107.4,598.1 L109.3,595.9 L111.2,593.7 L113.1,591.4 L115.0,589.1 L116.9,586.7 L118.8,584.3
		L120.7,581.9 L122.6,579.4 L124.5,576.8 L126.4,574.2 L128.3,571.6 L130.2,568.9 L132.1,566.2 L134.0,563.5
		L135.9,560.7 L137.8,557.8 L139.8,555.0 L141.7,552.1 L143.6,549.1 L145.5,546.2 L147.4,543.1 L149.3,540.1
		L151.2,537.0 L153.1,533.8 L155.0,530.7 L156.9,527.4 L158.8,524.2 L160.7,520.9 L162.6,517.5 L164.5,514.1
		L166.4,510.7 L168.3,507.2 L170.2,503.7 L172.1,500.1 L174.0,496.5 L175.9,492.9 L177.8,489.2 L179.7,485.5
		L181.6,481.7 L183.5,477.9 L185.4,474.1 L187.3,470.3 L189.3,466.4 L191.2,462.5 L193.1,458.6 L195.0,454.7
		L196.9,450.7 L198.8,446.8 L200.7,442.8 L202.6,438.8 L204.5,434.8 L206.4,430.8 L208.3,426.8 L210.2,422.8
		L212.1,418.8 L214.0,414.8 L215.9,410.8 L217.8,406.7 L219.7,402.7 L221.6,398.7 L223.5,394.7 L225.4,390.7
		L227.3,386.7 L229.2,382.7 L231.1,378.7 L233.0,374.7 L234.9,370.8 L236.8,366.9 L238.8,363.0 L240.7,359.2
		L242.6,355.4 L244.5,351.7 L246.4,348.0 L248.3,344.3 L250.2,340.7 L252.1,337.1 L254.0,333.6 L255.9,330.2
		L257.8,326.8 L259.7,323.4 L261.6,320.0 L263.5,316.7 L265.4,313.5 L267.3,310.2 L269.2,307.0 L271.1,303.8
		L273.0,300.6 L274.9,297.4 L276.8,294.3 L278.7,291.1 L280.6,288.0 L282.5,284.8 L284.4,281.7 L286.3,278.6
		L288.2,275.4 L290.2,272.3 L292.1,269.1 L294.0,266.0 L295.9,262.8 L297.8,259.7 L299.7,256.5 L301.6,253.3
		L303.5,250.2 L305.4,247.0 L307.3,243.9 L309.2,240.7 L311.1,237.6 L313.0,234.4 L314.9,231.3 L316.8,228.3
		L318.7,225.2 L320.6,222.2 L322.5,219.2 L324.4,216.3 L326.3,213.5 L328.2,210.6 L330.1,207.9 L332.0,205.2
		L333.9,202.6 L335.8,200.0 L337.7,197.6 L339.7,195.1 L341.6,192.8 L343.5,190.5 L345.4,188.3 L347.3,186.1
		L349.2,184.1 L351.1,182.0 L353.0,180.1 L354.9,178.1 L356.8,176.3 L358.7,174.5 L360.6,172.7 L362.5,171.0
		L364.4,169.3 L366.3,167.7 L368.2,166.1 L370.1,164.6 L372.0,163.1 L373.9,161.7 L375.8,160.3 L377.7,159.0
		L379.6,157.7 L381.5,156.4 L383.4,155.3 L385.3,154.1 L387.2,153.0 L389.2,152.0 L391.1,151.0 L393.0,150.1
		L394.9,149.2 L396.8,148.3 L398.7,147.5 L400.6,146.7 L402.5,145.9 L404.4,145.2 L406.3,144.5 L408.2,143.8
		L410.1,143.2 L412.0,142.5 L413.9,141.9 L415.8,141.4 L417.7,140.9 L419.6,140.4 L421.5,139.9 L423.4,139.5
		L425.3,139.2 L427.2,138.8 L429.1,138.6 L431.0,138.4 L432.9,138.2 L434.8,138.1 L436.7,138.1 L438.7,138.1
		L440.6,138.1 L442.5,138.2 L444.4,138.4 L446.3,138.6 L448.2,138.9 L450.1,139.2 L452.0,139.6 L453.9,140.0
		L455.8,140.4 L457.7,140.8 L459.6,141.3 L461.5,141.8 L463.4,142.3 L465.3,142.8 L467.2,143.4 L469.1,144.0
		L471.0,144.5 L472.9,145.1 L474.8,145.8 L476.7,146.4 L478.6,147.1 L480.5,147.8 L482.4,148.5 L484.3,149.2
		L486.2,150.1 L488.1,150.9 L490.1,151.8 L492.0,152.8 L493.9,153.8 L495.8,155.0 L497.7,156.2 L499.6,157.4
		L501.5,158.8 L503.4,160.3 L505.3,161.8 L507.2,163.5 L509.1,165.2 L511.0,167.0 L512.9,168.9 L514.8,170.9
		L516.7,173.0 L518.6,175.2 L520.5,177.4 L522.4,179.7 L524.3,182.0 L526.2,184.5 L528.1,186.9 L530.0,189.4
		L531.9,192.0 L533.8,194.6 L535.7,197.2 L537.6,199.8 L539.6,202.5 L541.5,205.1 L543.4,207.8 L545.3,210.5
		L547.2,213.2 L549.1,215.9 L551.0,218.6 L552.9,221.2 L554.8,223.9 L556.7,226.5 L558.6,229.1 L560.5,231.7
		L562.4,234.2 L564.3,236.8 L566.2,239.2 L568.1,241.7 L570.0,244.1 L571.9,246.4 L573.8,248.8 L575.7,251.1
		L577.6,253.3 L579.5,255.5 L581.4,257.7 L583.3,259.9 L585.2,262.0 L587.1,264.2 L589.1,266.3 L591.0,268.4
		L592.9,270.5 L594.8,272.6 L596.7,274.7 L598.6,276.9 L600.5,279.0 L602.4,281.2 L604.3,283.4 L606.2,285.6
		L608.1,287.8 L610.0,290.1 L611.9,292.4 L613.8,294.7 L615.7,297.0 L617.6,299.3 L619.5,301.7 L621.4,304.1
		L623.3,306.5 L625.2,308.8 L627.1,311.2 L629.0,313.6 L630.9,316.0 L632.8,318.4 L634.7,320.8 L636.6,323.1
		L638.5,325.5 L640.5,327.8 L642.4,330.2 L644.3,332.5 L646.2,334.9 L648.1,337.2 L650.0,339.6 L651.9,341.9
		L653.8,344.3 L655.7,346.7 L657.6,349.1 L659.5,351.5 L661.4,353.9 L663.3,356.4 L665.2,358.9 L667.1,361.4
		L669.0,363.9 L670.9,366.4 L672.8,369.0 L674.7,371.6 L676.6,374.2 L678.5,376.9 L680.4,379.5 L682.3,382.2
		L684.2,384.9 L686.1,387.6 L688.0,390.3 L690.0,393.0 L691.9,395.7 L693.8,398.4 L695.7,401.1 L697.6,403.8
		L699.5,406.5 L701.4,409.2 L703.3,411.9 L705.2,414.6 L707.1,417.3 L709.0,420.0 L710.9,422.7 L712.8,425.3
		L714.7,428.0 L716.6,430.6 L718.5,433.3 L720.4,435.9 L722.3,438.5 L724.2,441.1 L726.1,443.6 L728.0,446.1
		L729.9,448.6 L731.8,451.0 L733.7,453.5 L735.6,455.8 L737.5,458.2 L739.5,460.4 L741.4,462.7 L743.3,464.9
		L745.2,467.1 L747.1,469.2 L749.0,471.3 L750.9,473.3 L752.8,475.3 L754.7,477.3 L756.6,479.3 L758.5,481.2
		L760.4,483.1 L762.3,484.9 L764.2,486.7 L766.1,488.5 L768.0,490.3 L769.9,492.0 L771.8,493.7 L773.7,495.4
		L775.6,497.1 L777.5,498.7 L779.4,500.4 L781.3,502.0 L783.2,503.6 L785.1,505.1 L787.0,506.7 L789.0,508.2
		L790.9,509.8 L792.8,511.3 L794.7,512.9 L796.6,514.4 L798.5,515.9 L800.4,517.4 L802.3,519.0 L804.2,520.5
		L806.1,522.0 L808.0,523.6 L809.9,525.1 L811.8,526.7 L813.7,528.2 L815.6,529.8 L817.5,531.3 L819.4,532.9
		L821.3,534.5 L823.2,536.0 L825.1,537.6 L827.0,539.1 L828.9,540.7 L830.8,542.3 L832.7,543.8 L834.6,545.3
		L836.5,546.9 L838.4,548.4 L840.4,549.9 L842.3,551.4 L844.2,552.9 L846.1,554.4 L848.0,555.9 L849.9,557.4
		L851.8,558.8 L853.7,560.3 L855.6,561.7 L857.5,563.2 L859.4,564.6 L861.3,566.0 L863.2,567.4 L865.1,568.7
		L867.0,570.1 L868.9,571.4 L870.8,572.7 L872.7,574.0 L874.6,575.3 L876.5,576.6 L878.4,577.8 L880.3,579.0
		L882.2,580.2 L884.1,581.4 L886.0,582.5 L887.9,583.6 L889.9,584.7 L891.8,585.8 L893.7,586.8 L895.6,587.8
		L897.5,588.8 L899.4,589.8 L901.3,590.8 L903.2,591.8 L905.1,592.8 L907.0,593.7 L908.9,594.7 L910.8,595.6
		L912.7,596.5 L914.6,597.5 L916.5,598.4 L918.4,599.4 L920.3,600.3 L922.2,601.2 L924.1,602.2 L926.0,603.1
		L927.9,604.0 L929.8,604.9 L931.7,605.9 L933.6,606.8 L935.5,607.6 L937.4,608.5 L939.4,609.4 L941.3,610.2
		L943.2,611.1 L945.1,611.9 L947.0,612.7 L948.9,613.5 L950.8,614.3 L952.7,615.0 L954.6,615.8 L956.5,616.5
		L958.4,617.2 L960.3,617.9 L962.2,618.6 L964.1,619.3 L966.0,619.9 L967.9,620.6 L969.8,621.2 L971.7,621.9
		L973.6,622.5 L975.5,623.1 L977.4,623.7 L979.3,624.3 L981.2,624.9 L983.1,625.4 L985.0,626.0 L986.9,626.5
		L988.9,627.0 L990.8,627.5 L992.7,628.0 L994.6,628.5 L996.5,628.9 L998.4,629.4 L1000.3,629.8 L1002.2,630.3
		L1004.1,630.7 L1006.0,631.1 L1007.9,631.5 L1009.8,631.9 L1011.7,632.3 L1013.6,632.7  '/></g>
	</g>
	<g id="gnuplot_plot_2" ><title>Confidence interval</title>
<g fill="none" color="white" stroke="rgb( 31, 120, 180)" stroke-width="1.00" stroke-linecap="butt" stroke-linejoin="miter">
</g>
<g fill="none" color="black" stroke="currentColor" stroke-width="1.00" stroke-linecap="butt" stroke-linejoin="miter">
	<g transform="translate(1089.0,85.0)" stroke="none" fill="black" font-family="Helvetica" font-size="12.00"  text-anchor="start">
		<text><tspan font-family="Helvetica" >Confidence interval</tspan></text>
	</g>
</g>
<g fill="none" color="black" stroke="currentColor" stroke-width="1.00" stroke-linecap="butt" stroke-linejoin="miter">
	<g stroke='none' shape-rendering='crispEdges'>
		<polygon fill = 'rgb( 31, 120, 180)' fill-opacity = '0.250000' points = '1038.5,85.6 1080.7,85.6 1080.7,76.6 1038.5,76.6 '/>
		<polygon fill = 'rgb( 31, 120, 180)' fill-opacity = '0.250000' points = '151.2,537.0 151.2,662.4 153.1,662.4 153.1,533.8 '/>
		<polygon fill = 'rgb( 31, 120, 180)' fill-opacity = '0.250000' points = '153.1,533.8 153.1,662.4 155.0,662.4 155.0,530.7 '/>
		<polygon fill = 'rgb( 31, 120, 180)' fill-opacity = '0.250000' points = '155.0,530.7 155.0,662.4 156.9,662.4 156.9,527.4 '/>
		<polygon fill = 'rgb( 31, 120, 180)' fill-opacity = '0.250000' points = '156.9,527.4 156.9,662.4 158.8,662.4 158.8,524.2 '/>
		<polygon fill = 'rgb( 31, 120, 180)' fill-opacity = '0.250000' points = '158.8,524.2 158.8,662.4 160.7,662.4 160.7,520.9 '/>
		<polygon fill = 'rgb( 31, 120, 180)' fill-opacity = '0.250000' points = '160.7,520.9 160.7,662.4 162.6,662.4 162.6,517.5 '/>
		<polygon fill = 'rgb( 31, 120, 180)' fill-opacity = '0.250000' points = '162.6,517.5 162.6,662.4 164.5,662.4 164.5,514.1 '/>
		<polygon fill = 'rgb( 31, 120, 180)' fill-opacity = '0.250000' points = '164.5,514.1 164.5,662.4 166.4,662.4 166.4,510.7 '/>
		<polygon fill = 'rgb( 31, 120, 180)' fill-opacity = '0.250000' points = '166.4,510.7 166.4,662.4 168.3,662.4 168.3,507.2 '/>
		<polygon fill = 'rgb( 31, 120, 180)' fill-opacity = '0.250000' points = '168.3,507.2 168.3,662.4 170.2,662.4 170.2,503.7 '/>
		<polygon fill = 'rgb( 31, 120, 180)' fill-opacity = '0.250000' points = '170.2,503.7 170.2,662.4 172.1,662.4 172.1,500.1 '/>
		<polygon fill = 'rgb( 31, 120, 180)' fill-opacity = '0.250000' points = '172.1,500.1 172.1,662.4 174.0,662.4 174.0,496.5 '/>
		<polygon fill = 'rgb( 31, 120, 180)' fill-opacity = '0.250000' points = '174.0,496.5 174.0,662.4 175.9,662.4 175.9,492.9 '/>
		<polygon fill = 'rgb( 31, 120, 180)' fill-opacity = '0.250000' points = '175.9,492.9 175.9,662.4 177.8,662.4 177.8,489.2 '/>
		<polygon fill = 'rgb( 31, 120, 180)' fill-opacity = '0.250000' points = '177.8,489.2 177.8,662.4 179.7,662.4 179.7,485.5 '/>
		<polygon fill = 'rgb( 31, 120, 180)' fill-opacity = '0.250000' points = '179.7,485.5 179.7,662.4 181.6,662.4 181.6,481.7 '/>
		<polygon fill = 'rgb( 31, 120, 180)' fill-opacity = '0.250000' points = '181.6,481.7 181.6,662.4 183.5,662.4 183.5,477.9 '/>
		<polygon fill = 'rgb( 31, 120, 180)' fill-opacity = '0.250000' points = '183.5,477.9 183.5,662.4 185.4,662.4 185.4,474.1 '/>
		<polygon fill = 'rgb( 31, 120, 180)' fill-opacity = '0.250000' points = '185.4,474.1 185.4,662.4 187.3,662.4 187.3,470.3 '/>
		<polygon fill = 'rgb( 31, 120, 180)' fill-opacity = '0.250000' points = '187.3,470.3 187.3,662.4 189.3,662.4 189.3,466.4 '/>
		<polygon fill = 'rgb( 31, 120, 180)' fill-opacity = '0.250000' points = '189.3,466.4 189.3,662.4 191.2,662.4 191.2,462.5 '/>
		<polygon fill = 'rgb( 31, 120, 180)' fill-opacity = '0.250000' points = '191.2,462.5 191.2,662.4 193.1,662.4 193.1,458.6 '/>
		<polygon fill = 'rgb( 31, 120, 180)' fill-opacity = '0.250000' points = '193.1,458.6 193.1,662.4 195.0,662.4 195.0,454.7 '/>
		<polygon fill = 'rgb( 31, 120, 180)' fill-opacity = '0.250000' points = '195.0,454.7 195.0,662.4 196.9,662.4 196.9,450.7 '/>
		<polygon fill = 'rgb( 31, 120, 180)' fill-opacity = '0.250000' points = '196.9,450.7 196.9,662.4 198.8,662.4 198.8,446.8 '/>
		<polygon fill = 'rgb( 31, 120, 180)' fill-opacity = '0.250000' points = '198.8,446.8 198.8,662.4 200.7,662.4 200.7,442.8 '/>
		<polygon fill = 'rgb( 31, 120, 180)' fill-opacity = '0.250000' points = '200.7,442.8 200.7,662.4 202.6,662.4 202.6,438.8 '/>
		<polygon fill = 'rgb( 31, 120, 180)' fill-opacity = '0.250000' points = '202.6,438.8 202.6,662.4 204.5,662.4 204.5,434.8 '/>
		<polygon fill = 'rgb( 31, 120, 180)' fill-opacity = '0.250000' points = '204.5,434.8 204.5,662.4 206.4,662.4 206.4,430.8 '/>
		<polygon fill = 'rgb( 31, 120, 180)' fill-opacity = '0.250000' points = '206.4,430.8 206.4,662.4 208.3,662.4 208.3,426.8 '/>
		<polygon fill = 'rgb( 31, 120, 180)' fill-opacity = '0.250000' points = '208.3,426.8 208.3,662.4 210.2,662.4 210.2,422.8 '/>
		<polygon fill = 'rgb( 31, 120, 180)' fill-opacity = '0.250000' points = '210.2,422.8 210.2,662.4 212.1,662.4 212.1,418.8 '/>
		<polygon fill = 'rgb( 31, 120, 180)' fill-opacity = '0.250000' points = '212.1,418.8 212.1,662.4 214.0,662.4 214.0,414.8 '/>
		<polygon fill = 'rgb( 31, 120, 180)' fill-opacity = '0.250000' points = '214.0,414.8 214.0,662.4 215.9,662.4 215.9,410.8 '/>
		<polygon fill = 'rgb( 31, 120, 180)' fill-opacity = '0.250000' points = '215.9,410.8 215.9,662.4 217.8,662.4 217.8,406.7 '/>
		<polygon fill = 'rgb( 31, 120, 180)' fill-opacity = '0.250000' points = '217.8,406.7 217.8,662.4 219.7,662.4 219.7,402.7 '/>
		<polygon fill = 'rgb( 31, 120, 180)' fill-opacity = '0.250000' points = '219.7,402.7 219.7,662.4 221.6,662.4 221.6,398.7 '/>
		<polygon fill = 'rgb( 31, 120, 180)' fill-opacity = '0.250000' points = '221.6,398.7 221.6,662.4 223.5,662.4 223.5,394.7 '/>
		<polygon fill = 'rgb( 31, 120, 180)' fill-opacity = '0.250000' points = '223.5,394.7 223.5,662.4 225.4,662.4 225.4,390.7 '/>
		<polygon fill = 'rgb( 31, 120, 180)' fill-opacity = '0.250000' points = '225.4,390.7 225.4,662.4 227.3,662.4 227.3,386.7 '/>
		<polygon fill = 'rgb( 31, 120, 180)' fill-opacity = '0.250000' points = '227.3,386.7 227.3,662.4 229.2,662.4 229.2,382.7 '/>
		<polygon fill = 'rgb( 31, 120, 180)' fill-opacity = '0.250000' points = '229.2,382.7 229.2,662.4 231.1,662.4 231.1,378.7 '/>
		<polygon fill = 'rgb( 31, 120, 180)' fill-opacity = '0.250000' points = '231.1,378.7 231.1,662.4 233.0,662.4 233.0,374.7 '/>
		<polygon fill = 'rgb( 31, 120, 180)' fill-opacity = '0.250000' points = '233.0,374.7 233.0,662.4 234.9,662.4 234.9,370.8 '/>
		<polygon fill = 'rgb( 31, 120, 180)' fill-opacity = '0.250000' points = '234.9,370.8 234.9,662.4 236.8,662.4 236.8,366.9 '/>
		<polygon fill = 'rgb( 31, 120, 180)' fill-opacity = '0.250000' points = '236.8,366.9 236.8,662.4 238.8,662.4 238.8,363.0 '/>
		<polygon fill = 'rgb( 31, 120, 180)' fill-opacity = '0.250000' points = '238.8,363.0 238.8,662.4 240.7,662.4 240.7,359.2 '/>
		<polygon fill = 'rgb( 31, 120, 180)' fill-opacity = '0.250000' points = '240.7,359.2 240.7,662.4 242.6,662.4 242.6,355.4 '/>
		<polygon fill = 'rgb( 31, 120, 180)' fill-opacity = '0.250000' points = '242.6,355.4 242.6,662.4 244.5,662.4 244.5,351.7 '/>
		<polygon fill = 'rgb( 31, 120, 180)' fill-opacity = '0.250000' points = '244.5,351.7 244.5,662.4 246.4,662.4 246.4,348.0 '/>
		<polygon fill = 'rgb( 31, 120, 180)' fill-opacity = '0.250000' points = '246.4,348.0 246.4,662.4 248.3,662.4 248.3,344.3 '/>
		<polygon fill = 'rgb( 31, 120, 180)' fill-opacity = '0.250000' points = '248.3,344.3 248.3,662.4 250.2,662.4 250.2,340.7 '/>
		<polygon fill = 'rgb( 31, 120, 180)' fill-opacity = '0.250000' points = '250.2,340.7 250.2,662.4 252.1,662.4 252.1,337.1 '/>
		<polygon fill = 'rgb( 31, 120, 180)' fill-opacity = '0.250000' points = '252.1,337.1 252.1,662.4 254.0,662.4 254.0,333.6 '/>
		<polygon fill = 'rgb( 31, 120, 180)' fill-opacity = '0.250000' points = '254.0,333.6 254.0,662.4 255.9,662.4 255.9,330.2 '/>
		<polygon fill = 'rgb( 31, 120, 180)' fill-opacity = '0.250000' points = '255.9,330.2 255.9,662.4 257.8,662.4 257.8,326.8 '/>
		<polygon fill = 'rgb( 31, 120, 180)' fill-opacity = '0.250000' points = '257.8,326.8 257.8,662.4 259.7,662.4 259.7,323.4 '/>
		<polygon fill = 'rgb( 31, 120, 180)' fill-opacity = '0.250000' points = '259.7,323.4 259.7,662.4 261.6,662.4 261.6,320.0 '/>
		<polygon fill = 'rgb( 31, 120, 180)' fill-opacity = '0.250000' points = '261.6,320.0 261.6,662.4 263.5,662.4 263.5,316.7 '/>
		<polygon fill = 'rgb( 31, 120, 180)' fill-opacity = '0.250000' points = '263.5,316.7 263.5,662.4 265.4,662.4 265.4,313.5 '/>
		<polygon fill = 'rgb( 31, 120, 180)' fill-opacity = '0.250000' points = '265.4,313.5 265.4,662.4 267.3,662.4 267.3,310.2 '/>
		<polygon fill = 'rgb( 31, 120, 180)' fill-opacity = '0.250000' points = '267.3,310.2 267.3,662.4 269.2,662.4 269.2,307.0 '/>
		<polygon fill = 'rgb( 31, 120, 180)' fill-opacity = '0.250000' points = '269.2,307.0 269.2,662.4 271.1,662.4 271.1,303.8 '/>
		<polygon fill = 'rgb( 31, 120, 180)' fill-opacity = '0.250000' points = '271.1,303.8 271.1,662.4 273.0,662.4 273.0,300.6 '/>
		<polygon fill = 'rgb( 31, 120, 180)' fill-opacity = '0.250000' points = '273.0,300.6 273.0,662.4 274.9,662.4 274.9,297.4 '/>
		<polygon fill = 'rgb( 31, 120, 180)' fill-opacity = '0.250000' points = '274.9,297.4 274.9,662.4 276.8,662.4 276.8,294.3 '/>
		<polygon fill = 'rgb( 31, 120, 180)' fill-opacity = '0.250000' points = '276.8,294.3 276.8,662.4 278.7,662.4 278.7,291.1 '/>
		<polygon fill = 'rgb( 31, 120, 180)' fill-opacity = '0.250000' points = '278.7,291.1 278.7,662.4 280.6,662.4 280.6,288.0 '/>
		<polygon fill = 'rgb( 31, 120, 180)' fill-opacity = '0.250000' points = '280.6,288.0 280.6,662.4 282.5,662.4 282.5,284.8 '/>
		<polygon fill = 'rgb( 31, 120, 180)' fill-opacity = '0.250000' points = '282.5,284.8 282.5,662.4 284.4,662.4 284.4,281.7 '/>
		<polygon fill = 'rgb( 31, 120, 180)' fill-opacity = '0.250000' points = '284.4,281.7 284.4,662.4 286.3,662.4 286.3,278.6 '/>
		<polygon fill = 'rgb( 31, 120, 180)' fill-opacity = '0.250000' points = '286.3,278.6 286.3,662.4 288.2,662.4 288.2,275.4 '/>
		<polygon fill = 'rgb( 31, 120, 180)' fill-opacity = '0.250000' points = '288.2,275.4 288.2,662.4 290.2,662.4 290.2,272.3 '/>
		<polygon fill = 'rgb( 31, 120, 180)' fill-opacity = '0.250000' points = '290.2,272.3 290.2,662.4 292.1,662.4 292.1,269.1 '/>
		<polygon fill = 'rgb( 31, 120, 180)' fill-opacity = '0.250000' points = '292.1,269.1 292.1,662.4 294.0,662.4 294.0,266.0 '/>
		<polygon fill = 'rgb( 31, 120, 180)' fill-opacity = '0.250000' points = '294.0,266.0 294.0,662.4 295.9,662.4 295.9,262.8 '/>
		<polygon fill = 'rgb( 31, 120, 180)' fill-opacity = '0.250000' points = '295.9,262.8 295.9,662.4 297.8,662.4 297.8,259.7 '/>
		<polygon fill = 'rgb( 31, 120, 180)' fill-opacity = '0.250000' points = '297.8,259.7 297.8,662.4 299.7,662.4 299.7,256.5 '/>
		<polygon fill = 'rgb( 31, 120, 180)' fill-opacity = '0.250000' points = '299.7,256.5 299.7,662.4 301.6,662.4 301.6,253.3 '/>
		<polygon fill = 'rgb( 31, 120, 180)' fill-opacity = '0.250000' points = '301.6,253.3 301.6,662.4 303.5,662.4 303.5,250.2 '/>
		<polygon fill = 'rgb( 31, 120, 180)' fill-opacity = '0.250000' points = '303.5,250.2 303.5,662.4 305.4,662.4 305.4,247.0 '/>
		<polygon fill = 'rgb( 31, 120, 180)' fill-opacity = '0.250000' points = '305.4,247.0 305.4,662.4 307.3,662.4 307.3,243.9 '/>
		<polygon fill = 'rgb( 31, 120, 180)' fill-opacity = '0.250000' points = '307.3,243.9 307.3,662.4 309.2,662.4 309.2,240.7 '/>
		<polygon fill = 'rgb( 31, 120, 180)' fill-opacity = '0.250000' points = '309.2,240.7 309.2,662.4 311.1,662.4 311.1,237.6 '/>
		<polygon fill = 'rgb( 31, 120, 180)' fill-opacity = '0.250000' points = '311.1,237.6 311.1,662.4 313.0,662.4 313.0,234.4 '/>
		<polygon fill = 'rgb( 31, 120, 180)' fill-opacity = '0.250000' points = '313.0,234.4 313.0,662.4 314.9,662.4 314.9,231.3 '/>
		<polygon fill = 'rgb( 31, 120, 180)' fill-opacity = '0.250000' points = '314.9,231.3 314.9,662.4 316.8,662.4 316.8,228.3 '/>
		<polygon fill = 'rgb( 31, 120, 180)' fill-opacity = '0.250000' points = '316.8,228.3 316.8,662.4 318.7,662.4 318.7,225.2 '/>
		<polygon fill = 'rgb( 31, 120, 180)' fill-opacity = '0.250000' points = '318.7,225.2 318.7,662.4 320.6,662.4 320.6,222.2 '/>
		<polygon fill = 'rgb( 31, 120, 180)' fill-opacity = '0.250000' points = '320.6,222.2 320.6,662.4 322.5,662.4 322.5,219.2 '/>
		<polygon fill = 'rgb( 31, 120, 180)' fill-opacity = '0.250000' points = '322.5,219.2 322.5,662.4 324.4,662.4 324.4,216.3 '/>
		<polygon fill = 'rgb( 31, 120, 180)' fill-opacity = '0.250000' points = '324.4,216.3 324.4,662.4 326.3,662.4 326.3,213.5 '/>
		<polygon fill = 'rgb( 31, 120, 180)' fill-opacity = '0.250000' points = '326.3,213.5 326.3,662.4 328.2,662.4 328.2,210.6 '/>
		<polygon fill = 'rgb( 31, 120, 180)' fill-opacity = '0.250000' points = '328.2,210.6 328.2,662.4 330.1,662.4 330.1,207.9 '/>
		<polygon fill = 'rgb( 31, 120, 180)' fill-opacity = '0.250000' points = '330.1,207.9 330.1,662.4 332.0,662.4 332.0,205.2 '/>
		<polygon fill = 'rgb( 31, 120, 180)' fill-opacity = '0.250000' points = '332.0,205.2 332.0,662.4 333.9,662.4 333.9,202.6 '/>
		<polygon fill = 'rgb( 31, 120, 180)' fill-opacity = '0.250000' points = '333.9,202.6 333.9,662.4 335.8,662.4 335.8,200.0 '/>
		<polygon fill = 'rgb( 31, 120, 180)' fill-opacity = '0.250000' points = '335.8,200.0 335.8,662.4 337.7,662.4 337.7,197.6 '/>
		<polygon fill = 'rgb( 31, 120, 180)' fill-opacity = '0.250000' points = '337.7,197.6 337.7,662.4 339.7,662.4 339.7,195.1 '/>
		<polygon fill = 'rgb( 31, 120, 180)' fill-opacity = '0.250000' points = '339.7,195.1 339.7,662.4 341.6,662.4 341.6,192.8 '/>
		<polygon fill = 'rgb( 31, 120, 180)' fill-opacity = '0.250000' points = '341.6,192.8 341.6,662.4 343.5,662.4 343.5,190.5 '/>
		<polygon fill = 'rgb( 31, 120, 180)' fill-opacity = '0.250000' points = '343.5,190.5 343.5,662.4 345.4,662.4 345.4,188.3 '/>
		<polygon fill = 'rgb( 31, 120, 180)' fill-opacity = '0.250000' points = '345.4,188.3 345.4,662.4 347.3,662.4 347.3,186.1 '/>
		<polygon fill = 'rgb( 31, 120, 180)' fill-opacity = '0.250000' points = '347.3,186.1 347.3,662.4 349.2,662.4 349.2,184.1 '/>
		<polygon fill = 'rgb( 31, 120, 180)' fill-opacity = '0.250000' points = '349.2,184.1 349.2,662.4 351.1,662.4 351.1,182.0 '/>
		<polygon fill = 'rgb( 31, 120, 180)' fill-opacity = '0.250000' points = '351.1,182.0 351.1,662.4 353.0,662.4 353.0,180.1 '/>
		<polygon fill = 'rgb( 31, 120, 180)' fill-opacity = '0.250000' points = '353.0,180.1 353.0,662.4 354.9,662.4 354.9,178.1 '/>
		<polygon fill = 'rgb( 31, 120, 180)' fill-opacity = '0.250000' points = '354.9,178.1 354.9,662.4 356.8,662.4 356.8,176.3 '/>
		<polygon fill = 'rgb( 31, 120, 180)' fill-opacity = '0.250000' points = '356.8,176.3 356.8,662.4 358.7,662.4 358.7,174.5 '/>
		<polygon fill = 'rgb( 31, 120, 180)' fill-opacity = '0.250000' points = '358.7,174.5 358.7,662.4 360.6,662.4 360.6,172.7 '/>
		<polygon fill = 'rgb( 31, 120, 180)' fill-opacity = '0.250000' points = '360.6,172.7 360.6,662.4 362.5,662.4 362.5,171.0 '/>
		<polygon fill = 'rgb( 31, 120, 180)' fill-opacity = '0.250000' points = '362.5,171.0 362.5,662.4 364.4,662.4 364.4,169.3 '/>
		<polygon fill = 'rgb( 31, 120, 180)' fill-opacity = '0.250000' points = '364.4,169.3 364.4,662.4 366.3,662.4 366.3,167.7 '/>
		<polygon fill = 'rgb( 31, 120, 180)' fill-opacity = '0.250000' points = '366.3,167.7 366.3,662.4 368.2,662.4 368.2,166.1 '/>
		<polygon fill = 'rgb( 31, 120, 180)' fill-opacity = '0.250000' points = '368.2,166.1 368.2,662.4 370.1,662.4 370.1,164.6 '/>
		<polygon fill = 'rgb( 31, 120, 180)' fill-opacity = '0.250000' points = '370.1,164.6 370.1,662.4 372.0,662.4 372.0,163.1 '/>
		<polygon fill = 'rgb( 31, 120, 180)' fill-opacity = '0.250000' points = '372.0,163.1 372.0,662.4 373.9,662.4 373.9,161.7 '/>
		<polygon fill = 'rgb( 31, 120, 180)' fill-opacity = '0.250000' points = '373.9,161.7 373.9,662.4 375.8,662.4 375.8,160.3 '/>
		<polygon fill = 'rgb( 31, 120, 180)' fill-opacity = '0.250000' points = '375.8,160.3 375.8,662.4 377.7,662.4 377.7,159.0 '/>
		<polygon fill = 'rgb( 31, 120, 180)' fill-opacity = '0.250000' points = '377.7,159.0 377.7,662.4 379.6,662.4 379.6,157.7 '/>
		<polygon fill = 'rgb( 31, 120, 180)' fill-opacity = '0.250000' points = '379.6,157.7 379.6,662.4 381.5,662.4 381.5,156.4 '/>
		<polygon fill = 'rgb( 31, 120, 180)' fill-opacity = '0.250000' points = '381.5,156.4 381.5,662.4 383.4,662.4 383.4,155.3 '/>
		<polygon fill = 'rgb( 31, 120, 180)' fill-opacity = '0.250000' points = '383.4,155.3 383.4,662.4 385.3,662.4 385.3,154.1 '/>
		<polygon fill = 'rgb( 31, 120, 180)' fill-opacity = '0.250000' points = '385.3,154.1 385.3,662.4 387.2,662.4 387.2,153.0 '/>
		<polygon fill = 'rgb( 31, 120, 180)' fill-opacity = '0.250000' points = '387.2,153.0 387.2,662.4 389.2,662.4 389.2,152.0 '/>
		<polygon fill = 'rgb( 31, 120, 180)' fill-opacity = '0.250000' points = '389.2,152.0 389.2,662.4 391.1,662.4 391.1,151.0 '/>
		<polygon fill = 'rgb( 31, 120, 180)' fill-opacity = '0.250000' points = '391.1,151.0 391.1,662.4 393.0,662.4 393.0,150.1 '/>
		<polygon fill = 'rgb( 31, 120, 180)' fill-opacity = '0.250000' points = '393.0,150.1 393.0,662.4 394.9,662.4 394.9,149.2 '/>
		<polygon fill = 'rgb( 31, 120, 180)' fill-opacity = '0.250000' points = '394.9,149.2 394.9,662.4 396.8,662.4 396.8,148.3 '/>
		<polygon fill = 'rgb( 31, 120, 180)' fill-opacity = '0.250000' points = '396.8,148.3 396.8,662.4 398.7,662.4 398.7,147.5 '/>
		<polygon fill = 'rgb( 31, 120, 180)' fill-opacity = '0.250000' points = '398.7,147.5 398.7,662.4 400.6,662.4 400.6,146.7 '/>
		<polygon fill = 'rgb( 31, 120, 180)' fill-opacity = '0.250000' points = '400.6,146.7 400.6,662.4 402.5,662.4 402.5,145.9 '/>
		<polygon fill = 'rgb( 31, 120, 180)' fill-opacity = '0.250000' points = '402.5,145.9 402.5,662.4 404.4,662.4 404.4,145.2 '/>
		<polygon fill = 'rgb( 31, 120, 180)' fill-opacity = '0.250000' points = '404.4,145.2 404.4,662.4 406.3,662.4 406.3,144.5 '/>
		<polygon fill = 'rgb( 31, 120, 180)' fill-opacity = '0.250000' points = '406.3,144.5 406.3,662.4 408.2,662.4 408.2,143.8 '/>
		<polygon fill = 'rgb( 31, 120, 180)' fill-opacity = '0.250000' points = '408.2,143.8 408.2,662.4 410.1,662.4 410.1,143.2 '/>
		<polygon fill = 'rgb( 31, 120, 180)' fill-opacity = '0.250000' points = '410.1,143.2 410.1,662.4 412.0,662.4 412.0,142.5 '/>
		<polygon fill = 'rgb( 31, 120, 180)' fill-opacity = '0.250000' points = '412.0,142.5 412.0,662.4 413.9,662.4 413.9,141.9 '/>
		<polygon fill = 'rgb( 31, 120, 180)' fill-opacity = '0.250000' points = '413.9,141.9 413.9,662.4 415.8,662.4 415.8,141.4 '/>
		<polygon fill = 'rgb( 31, 120, 180)' fill-opacity = '0.250000' points = '415.8,141.4 415.8,662.4 417.7,662.4 417.7,140.9 '/>
		<polygon fill = 'rgb( 31, 120, 180)' fill-opacity = '0.250000' points = '417.7,140.9 417.7,662.4 419.6,662.4 419.6,140.4 '/>
		<polygon fill = 'rgb( 31, 120, 180)' fill-opacity = '0.250000' points = '419.6,140.4 419.6,662.4 421.5,662.4 421.5,139.9 '/>
		<polygon fill = 'rgb( 31, 120, 180)' fill-opacity = '0.250000' points = '421.5,139.9 421.5,662.4 423.4,662.4 423.4,139.5 '/>
		<polygon fill = 'rgb( 31, 120, 180)' fill-opacity = '0.250000' points = '423.4,139.5 423.4,662.4 425.3,662.4 425.3,139.2 '/>
		<polygon fill = 'rgb( 31, 120, 180)' fill-opacity = '0.250000' points = '425.3,139.2 425.3,662.4 427.2,662.4 427.2,138.8 '/>
		<polygon fill = 'rgb( 31, 120, 180)' fill-opacity = '0.250000' points = '427.2,138.8 427.2,662.4 429.1,662.4 429.1,138.6 '/>
		<polygon fill = 'rgb( 31, 120, 180)' fill-opacity = '0.250000' points = '429.1,138.6 429.1,662.4 431.0,662.4 431.0,138.4 '/>
		<polygon fill = 'rgb( 31, 120, 180)' fill-opacity = '0.250000' points = '431.0,138.4 431.0,662.4 432.9,662.4 432.9,138.2 '/>
		<polygon fill = 'rgb( 31, 120, 180)' fill-opacity = '0.250000' points = '432.9,138.2 432.9,662.4 434.8,662.4 434.8,138.1 '/>
		<polygon fill = 'rgb( 31, 120, 180)' fill-opacity = '0.250000' points = '434.8,138.1 434.8,662.4 436.7,662.4 436.7,138.1 '/>
		<polygon fill = 'rgb( 31, 120, 180)' fill-opacity = '0.250000' points = '436.7,138.1 436.7,662.4 438.7,662.4 438.7,138.1 '/>
		<polygon fill = 'rgb( 31, 120, 180)' fill-opacity = '0.250000' points = '438.7,138.1 438.7,662.4 440.6,662.4 440.6,138.1 '/>
		<polygon fill = 'rgb( 31, 120, 180)' fill-opacity = '0.250000' points = '440.6,138.1 440.6,662.4 442.5,662.4 442.5,138.2 '/>
		<polygon fill = 'rgb( 31, 120, 180)' fill-opacity = '0.250000' points = '442.5,138.2 442.5,662.4 444.4,662.4 444.4,138.4 '/>
		<polygon fill = 'rgb( 31, 120, 180)' fill-opacity = '0.250000' points = '444.4,138.4 444.4,662.4 446.3,662.4 446.3,138.6 '/>
		<polygon fill = 'rgb( 31, 120, 180)' fill-opacity = '0.250000' points = '446.3,138.6 446.3,662.4 448.2,662.4 448.2,138.9 '/>
		<polygon fill = 'rgb( 31, 120, 180)' fill-opacity = '0.250000' points = '448.2,138.9 448.2,662.4 450.1,662.4 450.1,139.2 '/>
		<polygon fill = 'rgb( 31, 120, 180)' fill-opacity = '0.250000' points = '450.1,139.2 450.1,662.4 452.0,662.4 452.0,139.6 '/>
		<polygon fill = 'rgb( 31, 120, 180)' fill-opacity = '0.250000' points = '452.0,139.6 452.0,662.4 453.9,662.4 453.9,140.0 '/>
		<polygon fill = 'rgb( 31, 120, 180)' fill-opacity = '0.250000' points = '453.9,140.0 453.9,662.4 455.8,662.4 455.8,140.4 '/>
		<polygon fill = 'rgb( 31, 120, 180)' fill-opacity = '0.250000' points = '455.8,140.4 455.8,662.4 457.7,662.4 457.7,140.8 '/>
		<polygon fill = 'rgb( 31, 120, 180)' fill-opacity = '0.250000' points = '457.7,140.8 457.7,662.4 459.6,662.4 459.6,141.3 '/>
		<polygon fill = 'rgb( 31, 120, 180)' fill-opacity = '0.250000' points = '459.6,141.3 459.6,662.4 461.5,662.4 461.5,141.8 '/>
		<polygon fill = 'rgb( 31, 120, 180)' fill-opacity = '0.250000' points = '461.5,141.8 461.5,662.4 463.4,662.4 463.4,142.3 '/>
		<polygon fill = 'rgb( 31, 120, 180)' fill-opacity = '0.250000' points = '463.4,142.3 463.4,662.4 465.3,662.4 465.3,142.8 '/>
		<polygon fill = 'rgb( 31, 120, 180)' fill-opacity = '0.250000' points = '465.3,142.8 465.3,662.4 467.2,662.4 467.2,143.4 '/>
		<polygon fill = 'rgb( 31, 120, 180)' fill-opacity = '0.250000' points = '467.2,143.4 467.2,662.4 469.1,662.4 469.1,144.0 '/>
		<polygon fill = 'rgb( 31, 120, 180)' fill-opacity = '0.250000' points = '469.1,144.0 469.1,662.4 471.0,662.4 471.0,144.5 '/>
		<polygon fill = 'rgb( 31, 120, 180)' fill-opacity = '0.250000' points = '471.0,144.5 471.0,662.4 472.9,662.4 472.9,145.1 '/>
		<polygon fill = 'rgb( 31, 120, 180)' fill-opacity = '0.250000' points = '472.9,145.1 472.9,662.4 474.8,662.4 474.8,145.8 '/>
		<polygon fill = 'rgb( 31, 120, 180)' fill-opacity = '0.250000' points = '474.8,145.8 474.8,662.4 476.7,662.4 476.7,146.4 '/>
		<polygon fill = 'rgb( 31, 120, 180)' fill-opacity = '0.250000' points = '476.7,146.4 476.7,662.4 478.6,662.4 478.6,147.1 '/>
		<polygon fill = 'rgb( 31, 120, 180)' fill-opacity = '0.250000' points = '478.6,147.1 478.6,662.4 480.5,662.4 480.5,147.8 '/>
		<polygon fill = 'rgb( 31, 120, 180)' fill-opacity = '0.250000' points = '480.5,147.8 480.5,662.4 482.4,662.4 482.4,148.5 '/>
		<polygon fill = 'rgb( 31, 120, 180)' fill-opacity = '0.250000' points = '482.4,148.5 482.4,662.4 484.3,662.4 484.3,149.2 '/>
		<polygon fill = 'rgb( 31, 120, 180)' fill-opacity = '0.250000' points = '484.3,149.2 484.3,662.4 486.2,662.4 486.2,150.1 '/>
		<polygon fill = 'rgb( 31, 120, 180)' fill-opacity = '0.250000' points = '486.2,150.1 486.2,662.4 488.1,662.4 488.1,150.9 '/>
		<polygon fill = 'rgb( 31, 120, 180)' fill-opacity = '0.250000' points = '488.1,150.9 488.1,662.4 490.1,662.4 490.1,151.8 '/>
		<polygon fill = 'rgb( 31, 120, 180)' fill-opacity = '0.250000' points = '490.1,151.8 490.1,662.4 492.0,662.4 492.0,152.8 '/>
		<polygon fill = 'rgb( 31, 120, 180)' fill-opacity = '0.250000' points = '492.0,152.8 492.0,662.4 493.9,662.4 493.9,153.8 '/>
		<polygon fill = 'rgb( 31, 120, 180)' fill-opacity = '0.250000' points = '493.9,153.8 493.9,662.4 495.8,662.4 495.8,155.0 '/>
		<polygon fill = 'rgb( 31, 120, 180)' fill-opacity = '0.250000' points = '495.8,155.0 495.8,662.4 497.7,662.4 497.7,156.2 '/>
		<polygon fill = 'rgb( 31, 120, 180)' fill-opacity = '0.250000' points = '497.7,156.2 497.7,662.4 499.6,662.4 499.6,157.4 '/>
		<polygon fill = 'rgb( 31, 120, 180)' fill-opacity = '0.250000' points = '499.6,157.4 499.6,662.4 501.5,662.4 501.5,158.8 '/>
		<polygon fill = 'rgb( 31, 120, 180)' fill-opacity = '0.250000' points = '501.5,158.8 501.5,662.4 503.4,662.4 503.4,160.3 '/>
		<polygon fill = 'rgb( 31, 120, 180)' fill-opacity = '0.250000' points = '503.4,160.3 503.4,662.4 505.3,662.4 505.3,161.8 '/>
		<polygon fill = 'rgb( 31, 120, 180)' fill-opacity = '0.250000' points = '505.3,161.8 505.3,662.4 507.2,662.4 507.2,163.5 '/>
		<polygon fill = 'rgb( 31, 120, 180)' fill-opacity = '0.250000' points = '507.2,163.5 507.2,662.4 509.1,662.4 509.1,165.2 '/>
		<polygon fill = 'rgb( 31, 120, 180)' fill-opacity = '0.250000' points = '509.1,165.2 509.1,662.4 511.0,662.4 511.0,167.0 '/>
		<polygon fill = 'rgb( 31, 120, 180)' fill-opacity = '0.250000' points = '511.0,167.0 511.0,662.4 512.9,662.4 512.9,168.9 '/>
		<polygon fill = 'rgb( 31, 120, 180)' fill-opacity = '0.250000' points = '512.9,168.9 512.9,662.4 514.8,662.4 514.8,170.9 '/>
		<polygon fill = 'rgb( 31, 120, 180)' fill-opacity = '0.250000' points = '514.8,170.9 514.8,662.4 516.7,662.4 516.7,173.0 '/>
		<polygon fill = 'rgb( 31, 120, 180)' fill-opacity = '0.250000' points = '516.7,173.0 516.7,662.4 518.6,662.4 518.6,175.2 '/>
		<polygon fill = 'rgb( 31, 120, 180)' fill-opacity = '0.250000' points = '518.6,175.2 518.6,662.4 520.5,662.4 520.5,177.4 '/>
		<polygon fill = 'rgb( 31, 120, 180)' fill-opacity = '0.250000' points = '520.5,177.4 520.5,662.4 522.4,662.4 522.4,179.7 '/>
		<polygon fill = 'rgb( 31, 120, 180)' fill-opacity = '0.250000' points = '522.4,179.7 522.4,662.4 524.3,662.4 524.3,182.0 '/>
		<polygon fill = 'rgb( 31, 120, 180)' fill-opacity = '0.250000' points = '524.3,182.0 524.3,662.4 526.2,662.4 526.2,184.5 '/>
		<polygon fill = 'rgb( 31, 120, 180)' fill-opacity = '0.250000' points = '526.2,184.5 526.2,662.4 528.1,662.4 528.1,186.9 '/>
		<polygon fill = 'rgb( 31, 120, 180)' fill-opacity = '0.250000' points = '528.1,186.9 528.1,662.4 530.0,662.4 530.0,189.4 '/>
		<polygon fill = 'rgb( 31, 120, 180)' fill-opacity = '0.250000' points = '530.0,189.4 530.0,662.4 531.9,662.4 531.9,192.0 '/>
		<polygon fill = 'rgb( 31, 120, 180)' fill-opacity = '0.250000' points = '531.9,192.0 531.9,662.4 533.8,662.4 533.8,194.6 '/>
		<polygon fill = 'rgb( 31, 120, 180)' fill-opacity = '0.250000' points = '533.8,194.6 533.8,662.4 535.7,662.4 535.7,197.2 '/>
		<polygon fill = 'rgb( 31, 120, 180)' fill-opacity = '0.250000' points = '535.7,197.2 535.7,662.4 537.6,662.4 537.6,199.8 '/>
		<polygon fill = 'rgb( 31, 120, 180)' fill-opacity = '0.250000' points = '537.6,199.8 537.6,662.4 539.6,662.4 539.6,202.5 '/>
		<polygon fill = 'rgb( 31, 120, 180)' fill-opacity = '0.250000' points = '539.6,202.5 539.6,662.4 541.5,662.4 541.5,205.1 '/>
		<polygon fill = 'rgb( 31, 120, 180)' fill-opacity = '0.250000' points = '541.5,205.1 541.5,662.4 543.4,662.4 543.4,207.8 '/>
		<polygon fill = 'rgb( 31, 120, 180)' fill-opacity = '0.250000' points = '543.4,207.8 543.4,662.4 545.3,662.4 545.3,210.5 '/>
		<polygon fill = 'rgb( 31, 120, 180)' fill-opacity = '0.250000' points = '545.3,210.5 545.3,662.4 547.2,662.4 547.2,213.2 '/>
		<polygon fill = 'rgb( 31, 120, 180)' fill-opacity = '0.250000' points = '547.2,213.2 547.2,662.4 549.1,662.4 549.1,215.9 '/>
		<polygon fill = 'rgb( 31, 120, 180)' fill-opacity = '0.250000' points = '549.1,215.9 549.1,662.4 551.0,662.4 551.0,218.6 '/>
		<polygon fill = 'rgb( 31, 120, 180)' fill-opacity = '0.250000' points = '551.0,218.6 551.0,662.4 552.9,662.4 552.9,221.2 '/>
		<polygon fill = 'rgb( 31, 120, 180)' fill-opacity = '0.250000' points = '552.9,221.2 552.9,662.4 554.8,662.4 554.8,223.9 '/>
		<polygon fill = 'rgb( 31, 120, 180)' fill-opacity = '0.250000' points = '554.8,223.9 554.8,662.4 556.7,662.4 556.7,226.5 '/>
		<polygon fill = 'rgb( 31, 120, 180)' fill-opacity = '0.250000' points = '556.7,226.5 556.7,662.4 558.6,662.4 558.6,229.1 '/>
		<polygon fill = 'rgb( 31, 120, 180)' fill-opacity = '0.250000' points = '558.6,229.1 558.6,662.4 560.5,662.4 560.5,231.7 '/>
		<polygon fill = 'rgb( 31, 120, 180)' fill-opacity = '0.250000' points = '560.5,231.7 560.5,662.4 562.4,662.4 562.4,234.2 '/>
		<polygon fill = 'rgb( 31, 120, 180)' fill-opacity = '0.250000' points = '562.4,234.2 562.4,662.4 564.3,662.4 564.3,236.8 '/>
		<polygon fill = 'rgb( 31, 120, 180)' fill-opacity = '0.250000' points = '564.3,236.8 564.3,662.4 566.2,662.4 566.2,239.2 '/>
		<polygon fill = 'rgb( 31, 120, 180)' fill-opacity = '0.250000' points = '566.2,239.2 566.2,662.4 568.1,662.4 568.1,241.7 '/>
		<polygon fill = 'rgb( 31, 120, 180)' fill-opacity = '0.250000' points = '568.1,241.7 568.1,662.4 570.0,662.4 570.0,244.1 '/>
		<polygon fill = 'rgb( 31, 120, 180)' fill-opacity = '0.250000' points = '570.0,244.1 570.0,662.4 571.9,662.4 571.9,246.4 '/>
		<polygon fill = 'rgb( 31, 120, 180)' fill-opacity = '0.250000' points = '571.9,246.4 571.9,662.4 573.8,662.4 573.8,248.8 '/>
		<polygon fill = 'rgb( 31, 120, 180)' fill-opacity = '0.250000' points = '573.8,248.8 573.8,662.4 575.7,662.4 575.7,251.1 '/>
		<polygon fill = 'rgb( 31, 120, 180)' fill-opacity = '0.250000' points = '575.7,251.1 575.7,662.4 577.6,662.4 577.6,253.3 '/>
		<polygon fill = 'rgb( 31, 120, 180)' fill-opacity = '0.250000' points = '577.6,253.3 577.6,662.4 579.5,662.4 579.5,255.5 '/>
		<polygon fill = 'rgb( 31, 120, 180)' fill-opacity = '0.250000' points = '579.5,255.5 579.5,662.4 581.4,662.4 581.4,257.7 '/>
		<polygon fill = 'rgb( 31, 120, 180)' fill-opacity = '0.250000' points = '581.4,257.7 581.4,662.4 583.3,662.4 583.3,259.9 '/>
		<polygon fill = 'rgb( 31, 120, 180)' fill-opacity = '0.250000' points = '583.3,259.9 583.3,662.4 585.2,662.4 585.2,262.0 '/>
		<polygon fill = 'rgb( 31, 120, 180)' fill-opacity = '0.250000' points = '585.2,262.0 585.2,662.4 587.1,662.4 587.1,264.2 '/>
		<polygon fill = 'rgb( 31, 120, 180)' fill-opacity = '0.250000' points = '587.1,264.2 587.1,662.4 589.1,662.4 589.1,266.3 '/>
		<polygon fill = 'rgb( 31, 120, 180)' fill-opacity = '0.250000' points = '589.1,266.3 589.1,662.4 591.0,662.4 591.0,268.4 '/>
		<polygon fill = 'rgb( 31, 120, 180)' fill-opacity = '0.250000' points = '591.0,268.4 591.0,662.4 592.9,662.4 592.9,270.5 '/>
		<polygon fill = 'rgb( 31, 120, 180)' fill-opacity = '0.250000' points = '592.9,270.5 592.9,662.4 594.8,662.4 594.8,272.6 '/>
		<polygon fill = 'rgb( 31, 120, 180)' fill-opacity = '0.250000' points = '594.8,272.6 594.8,662.4 596.7,662.4 596.7,274.7 '/>
		<polygon fill = 'rgb( 31, 120, 180)' fill-opacity = '0.250000' points = '596.7,274.7 596.7,662.4 598.6,662.4 598.6,276.9 '/>
		<polygon fill = 'rgb( 31, 120, 180)' fill-opacity = '0.250000' points = '598.6,276.9 598.6,662.4 600.5,662.4 600.5,279.0 '/>
		<polygon fill = 'rgb( 31, 120, 180)' fill-opacity = '0.250000' points = '600.5,279.0 600.5,662.4 602.4,662.4 602.4,281.2 '/>
		<polygon fill = 'rgb( 31, 120, 180)' fill-opacity = '0.250000' points = '602.4,281.2 602.4,662.4 604.3,662.4 604.3,283.4 '/>
		<polygon fill = 'rgb( 31, 120, 180)' fill-opacity = '0.250000' points = '604.3,283.4 604.3,662.4 606.2,662.4 606.2,285.6 '/>
		<polygon fill = 'rgb( 31, 120, 180)' fill-opacity = '0.250000' points = '606.2,285.6 606.2,662.4 608.1,662.4 608.1,287.8 '/>
		<polygon fill = 'rgb( 31, 120, 180)' fill-opacity = '0.250000' points = '608.1,287.8 608.1,662.4 610.0,662.4 610.0,290.1 '/>
		<polygon fill = 'rgb( 31, 120, 180)' fill-opacity = '0.250000' points = '610.0,290.1 610.0,662.4 611.9,662.4 611.9,292.4 '/>
		<polygon fill = 'rgb( 31, 120, 180)' fill-opacity = '0.250000' points = '611.9,292.4 611.9,662.4 613.8,662.4 613.8,294.7 '/>
		<polygon fill = 'rgb( 31, 120, 180)' fill-opacity = '0.250000' points = '613.8,294.7 613.8,662.4 615.7,662.4 615.7,297.0 '/>
		<polygon fill = 'rgb( 31, 120, 180)' fill-opacity = '0.250000' points = '615.7,297.0 615.7,662.4 617.6,662.4 617.6,299.3 '/>
		<polygon fill = 'rgb( 31, 120, 180)' fill-opacity = '0.250000' points = '617.6,299.3 617.6,662.4 619.5,662.4 619.5,301.7 '/>
		<polygon fill = 'rgb( 31, 120, 180)' fill-opacity = '0.250000' points = '619.5,301.7 619.5,662.4 621.4,662.4 621.4,304.1 '/>
		<polygon fill = 'rgb( 31, 120, 180)' fill-opacity = '0.250000' points = '621.4,304.1 621.4,662.4 623.3,662.4 623.3,306.5 '/>
		<polygon fill = 'rgb( 31, 120, 180)' fill-opacity = '0.250000' points = '623.3,306.5 623.3,662.4 625.2,662.4 625.2,308.8 '/>
		<polygon fill = 'rgb( 31, 120, 180)' fill-opacity = '0.250000' points = '625.2,308.8 625.2,662.4 627.1,662.4 627.1,311.2 '/>
		<polygon fill = 'rgb( 31, 120, 180)' fill-opacity = '0.250000' points = '627.1,311.2 627.1,662.4 629.0,662.4 629.0,313.6 '/>
		<polygon fill = 'rgb( 31, 120, 180)' fill-opacity = '0.250000' points = '629.0,313.6 629.0,662.4 630.9,662.4 630.9,316.0 '/>
		<polygon fill = 'rgb( 31, 120, 180)' fill-opacity = '0.250000' points = '630.9,316.0 630.9,662.4 632.8,662.4 632.8,318.4 '/>
		<polygon fill = 'rgb( 31, 120, 180)' fill-opacity = '0.250000' points = '632.8,318.4 632.8,662.4 634.7,662.4 634.7,320.8 '/>
		<polygon fill = 'rgb( 31, 120, 180)' fill-opacity = '0.250000' points = '634.7,320.8 634.7,662.4 636.6,662.4 636.6,323.1 '/>
		<polygon fill = 'rgb( 31, 120, 180)' fill-opacity = '0.250000' points = '636.6,323.1 636.6,662.4 638.5,662.4 638.5,325.5 '/>
		<polygon fill = 'rgb( 31, 120, 180)' fill-opacity = '0.250000' points = '638.5,325.5 638.5,662.4 640.5,662.4 640.5,327.8 '/>
		<polygon fill = 'rgb( 31, 120, 180)' fill-opacity = '0.250000' points = '640.5,327.8 640.5,662.4 642.4,662.4 642.4,330.2 '/>
		<polygon fill = 'rgb( 31, 120, 180)' fill-opacity = '0.250000' points = '642.4,330.2 642.4,662.4 644.3,662.4 644.3,332.5 '/>
		<polygon fill = 'rgb( 31, 120, 180)' fill-opacity = '0.250000' points = '644.3,332.5 644.3,662.4 646.2,662.4 646.2,334.9 '/>
		<polygon fill = 'rgb( 31, 120, 180)' fill-opacity = '0.250000' points = '646.2,334.9 646.2,662.4 648.1,662.4 648.1,337.2 '/>
		<polygon fill = 'rgb( 31, 120, 180)' fill-opacity = '0.250000' points = '648.1,337.2 648.1,662.4 650.0,662.4 650.0,339.6 '/>
		<polygon fill = 'rgb( 31, 120, 180)' fill-opacity = '0.250000' points = '650.0,339.6 650.0,662.4 651.9,662.4 651.9,341.9 '/>
		<polygon fill = 'rgb( 31, 120, 180)' fill-opacity = '0.250000' points = '651.9,341.9 651.9,662.4 653.8,662.4 653.8,344.3 '/>
		<polygon fill = 'rgb( 31, 120, 180)' fill-opacity = '0.250000' points = '653.8,344.3 653.8,662.4 655.7,662.4 655.7,346.7 '/>
		<polygon fill = 'rgb( 31, 120, 180)' fill-opacity = '0.250000' points = '655.7,346.7 655.7,662.4 657.6,662.4 657.6,349.1 '/>
		<polygon fill = 'rgb( 31, 120, 180)' fill-opacity = '0.250000' points = '657.6,349.1 657.6,662.4 659.5,662.4 659.5,351.5 '/>
		<polygon fill = 'rgb( 31, 120, 180)' fill-opacity = '0.250000' points = '659.5,351.5 659.5,662.4 661.4,662.4 661.4,353.9 '/>
		<polygon fill = 'rgb( 31, 120, 180)' fill-opacity = '0.250000' points = '661.4,353.9 661.4,662.4 663.3,662.4 663.3,356.4 '/>
		<polygon fill = 'rgb( 31, 120, 180)' fill-opacity = '0.250000' points = '663.3,356.4 663.3,662.4 665.2,662.4 665.2,358.9 '/>
		<polygon fill = 'rgb( 31, 120, 180)' fill-opacity = '0.250000' points = '665.2,358.9 665.2,662.4 667.1,662.4 667.1,361.4 '/>
		<polygon fill = 'rgb( 31, 120, 180)' fill-opacity = '0.250000' points = '667.1,361.4 667.1,662.4 669.0,662.4 669.0,363.9 '/>
		<polygon fill = 'rgb( 31, 120, 180)' fill-opacity = '0.250000' points = '669.0,363.9 669.0,662.4 670.9,662.4 670.9,366.4 '/>
		<polygon fill = 'rgb( 31, 120, 180)' fill-opacity = '0.250000' points = '670.9,366.4 670.9,662.4 672.8,662.4 672.8,369.0 '/>
		<polygon fill = 'rgb( 31, 120, 180)' fill-opacity = '0.250000' points = '672.8,369.0 672.8,662.4 674.7,662.4 674.7,371.6 '/>
		<polygon fill = 'rgb( 31, 120, 180)' fill-opacity = '0.250000' points = '674.7,371.6 674.7,662.4 676.6,662.4 676.6,374.2 '/>
		<polygon fill = 'rgb( 31, 120, 180)' fill-opacity = '0.250000' points = '676.6,374.2 676.6,662.4 678.5,662.4 678.5,376.9 '/>
		<polygon fill = 'rgb( 31, 120, 180)' fill-opacity = '0.250000' points = '678.5,376.9 678.5,662.4 680.4,662.4 680.4,379.5 '/>
		<polygon fill = 'rgb( 31, 120, 180)' fill-opacity = '0.250000' points = '680.4,379.5 680.4,662.4 682.3,662.4 682.3,382.2 '/>
		<polygon fill = 'rgb( 31, 120, 180)' fill-opacity = '0.250000' points = '682.3,382.2 682.3,662.4 684.2,662.4 684.2,384.9 '/>
		<polygon fill = 'rgb( 31, 120, 180)' fill-opacity = '0.250000' points = '684.2,384.9 684.2,662.4 686.1,662.4 686.1,387.6 '/>
		<polygon fill = 'rgb( 31, 120, 180)' fill-opacity = '0.250000' points = '686.1,387.6 686.1,662.4 688.0,662.4 688.0,390.3 '/>
		<polygon fill = 'rgb( 31, 120, 180)' fill-opacity = '0.250000' points = '688.0,390.3 688.0,662.4 690.0,662.4 690.0,393.0 '/>
		<polygon fill = 'rgb( 31, 120, 180)' fill-opacity = '0.250000' points = '690.0,393.0 690.0,662.4 691.9,662.4 691.9,395.7 '/>
		<polygon fill = 'rgb( 31, 120, 180)' fill-opacity = '0.250000' points = '691.9,395.7 691.9,662.4 693.8,662.4 693.8,398.4 '/>
		<polygon fill = 'rgb( 31, 120, 180)' fill-opacity = '0.250000' points = '693.8,398.4 693.8,662.4 695.7,662.4 695.7,401.1 '/>
		<polygon fill = 'rgb( 31, 120, 180)' fill-opacity = '0.250000' points = '695.7,401.1 695.7,662.4 697.6,662.4 697.6,403.8 '/>
		<polygon fill = 'rgb( 31, 120, 180)' fill-opacity = '0.250000' points = '697.6,403.8 697.6,662.4 699.5,662.4 699.5,406.5 '/>
		<polygon fill = 'rgb( 31, 120, 180)' fill-opacity = '0.250000' points = '699.5,406.5 699.5,662.4 701.4,662.4 701.4,409.2 '/>
		<polygon fill = 'rgb( 31, 120, 180)' fill-opacity = '0.250000' points = '701.4,409.2 701.4,662.4 703.3,662.4 703.3,411.9 '/>
		<polygon fill = 'rgb( 31, 120, 180)' fill-opacity = '0.250000' points = '703.3,411.9 703.3,662.4 705.2,662.4 705.2,414.6 '/>
		<polygon fill = 'rgb( 31, 120, 180)' fill-opacity = '0.250000' points = '705.2,414.6 705.2,662.4 707.1,662.4 707.1,417.3 '/>
		<polygon fill = 'rgb( 31, 120, 180)' fill-opacity = '0.250000' points = '707.1,417.3 707.1,662.4 709.0,662.4 709.0,420.0 '/>
		<polygon fill = 'rgb( 31, 120, 180)' fill-opacity = '0.250000' points = '709.0,420.0 709.0,662.4 710.9,662.4 710.9,422.7 '/>
		<polygon fill = 'rgb( 31, 120, 180)' fill-opacity = '0.250000' points = '710.9,422.7 710.9,662.4 712.8,662.4 712.8,425.3 '/>
		<polygon fill = 'rgb( 31, 120, 180)' fill-opacity = '0.250000' points = '712.8,425.3 712.8,662.4 714.7,662.4 714.7,428.0 '/>
		<polygon fill = 'rgb( 31, 120, 180)' fill-opacity = '0.250000' points = '714.7,428.0 714.7,662.4 716.6,662.4 716.6,430.6 '/>
		<polygon fill = 'rgb( 31, 120, 180)' fill-opacity = '0.250000' points = '716.6,430.6 716.6,662.4 718.5,662.4 718.5,433.3 '/>
		<polygon fill = 'rgb( 31, 120, 180)' fill-opacity = '0.250000' points = '718.5,433.3 718.5,662.4 720.4,662.4 720.4,435.9 '/>
		<polygon fill = 'rgb( 31, 120, 180)' fill-opacity = '0.250000' points = '720.4,435.9 720.4,662.4 722.3,662.4 722.3,438.5 '/>
		<polygon fill = 'rgb( 31, 120, 180)' fill-opacity = '0.250000' points = '722.3,438.5 722.3,662.4 724.2,662.4 724.2,441.1 '/>
		<polygon fill = 'rgb( 31, 120, 180)' fill-opacity = '0.250000' points = '724.2,441.1 724.2,662.4 726.1,662.4 726.1,443.6 '/>
		<polygon fill = 'rgb( 31, 120, 180)' fill-opacity = '0.250000' points = '726.1,443.6 726.1,662.4 728.0,662.4 728.0,446.1 '/>
		<polygon fill = 'rgb( 31, 120, 180)' fill-opacity = '0.250000' points = '728.0,446.1 728.0,662.4 729.9,662.4 729.9,448.6 '/>
		<polygon fill = 'rgb( 31, 120, 180)' fill-opacity = '0.250000' points = '729.9,448.6 729.9,662.4 731.8,662.4 731.8,451.0 '/>
		<polygon fill = 'rgb( 31, 120, 180)' fill-opacity = '0.250000' points = '731.8,451.0 731.8,662.4 733.7,662.4 733.7,453.5 '/>
		<polygon fill = 'rgb( 31, 120, 180)' fill-opacity = '0.250000' points = '733.7,453.5 733.7,662.4 735.6,662.4 735.6,455.8 '/>
		<polygon fill = 'rgb( 31, 120, 180)' fill-opacity = '0.250000' points = '735.6,455.8 735.6,662.4 737.5,662.4 737.5,458.2 '/>
		<polygon fill = 'rgb( 31, 120, 180)' fill-opacity = '0.250000' points = '737.5,458.2 737.5,662.4 739.5,662.4 739.5,460.4 '/>
		<polygon fill = 'rgb( 31, 120, 180)' fill-opacity = '0.250000' points = '739.5,460.4 739.5,662.4 741.4,662.4 741.4,462.7 '/>
		<polygon fill = 'rgb( 31, 120, 180)' fill-opacity = '0.250000' points = '741.4,462.7 741.4,662.4 743.3,662.4 743.3,464.9 '/>
		<polygon fill = 'rgb( 31, 120, 180)' fill-opacity = '0.250000' points = '743.3,464.9 743.3,662.4 745.2,662.4 745.2,467.1 '/>
		<polygon fill = 'rgb( 31, 120, 180)' fill-opacity = '0.250000' points = '745.2,467.1 745.2,662.4 747.1,662.4 747.1,469.2 '/>
		<polygon fill = 'rgb( 31, 120, 180)' fill-opacity = '0.250000' points = '747.1,469.2 747.1,662.4 749.0,662.4 749.0,471.3 '/>
		<polygon fill = 'rgb( 31, 120, 180)' fill-opacity = '0.250000' points = '749.0,471.3 749.0,662.4 750.9,662.4 750.9,473.3 '/>
		<polygon fill = 'rgb( 31, 120, 180)' fill-opacity = '0.250000' points = '750.9,473.3 750.9,662.4 752.8,662.4 752.8,475.3 '/>
		<polygon fill = 'rgb( 31, 120, 180)' fill-opacity = '0.250000' points = '752.8,475.3 752.8,662.4 754.7,662.4 754.7,477.3 '/>
		<polygon fill = 'rgb( 31, 120, 180)' fill-opacity = '0.250000' points = '754.7,477.3 754.7,662.4 756.6,662.4 756.6,479.3 '/>
		<polygon fill = 'rgb( 31, 120, 180)' fill-opacity = '0.250000' points = '756.6,479.3 756.6,662.4 758.5,662.4 758.5,481.2 '/>
		<polygon fill = 'rgb( 31, 120, 180)' fill-opacity = '0.250000' points = '758.5,481.2 758.5,662.4 760.4,662.4 760.4,483.1 '/>
		<polygon fill = 'rgb( 31, 120, 180)' fill-opacity = '0.250000' points = '760.4,483.1 760.4,662.4 762.3,662.4 762.3,484.9 '/>
		<polygon fill = 'rgb( 31, 120, 180)' fill-opacity = '0.250000' points = '762.3,484.9 762.3,662.4 764.2,662.4 764.2,486.7 '/>
		<polygon fill = 'rgb( 31, 120, 180)' fill-opacity = '0.250000' points = '764.2,486.7 764.2,662.4 766.1,662.4 766.1,488.5 '/>
		<polygon fill = 'rgb( 31, 120, 180)' fill-opacity = '0.250000' points = '766.1,488.5 766.1,662.4 768.0,662.4 768.0,490.3 '/>
		<polygon fill = 'rgb( 31, 120, 180)' fill-opacity = '0.250000' points = '768.0,490.3 768.0,662.4 769.9,662.4 769.9,492.0 '/>
		<polygon fill = 'rgb( 31, 120, 180)' fill-opacity = '0.250000' points = '769.9,492.0 769.9,662.4 771.8,662.4 771.8,493.7 '/>
		<polygon fill = 'rgb( 31, 120, 180)' fill-opacity = '0.250000' points = '771.8,493.7 771.8,662.4 773.7,662.4 773.7,495.4 '/>
		<polygon fill = 'rgb( 31, 120, 180)' fill-opacity = '0.250000' points = '773.7,495.4 773.7,662.4 775.6,662.4 775.6,497.1 '/>
		<polygon fill = 'rgb( 31, 120, 180)' fill-opacity = '0.250000' points = '775.6,497.1 775.6,662.4 777.5,662.4 777.5,498.7 '/>
		<polygon fill = 'rgb( 31, 120, 180)' fill-opacity = '0.250000' points = '777.5,498.7 777.5,662.4 779.4,662.4 779.4,500.4 '/>
		<polygon fill = 'rgb( 31, 120, 180)' fill-opacity = '0.250000' points = '779.4,500.4 779.4,662.4 781.3,662.4 781.3,502.0 '/>
		<polygon fill = 'rgb( 31, 120, 180)' fill-opacity = '0.250000' points = '781.3,502.0 781.3,662.4 783.2,662.4 783.2,503.6 '/>
		<polygon fill = 'rgb( 31, 120, 180)' fill-opacity = '0.250000' points = '783.2,503.6 783.2,662.4 785.1,662.4 785.1,505.1 '/>
		<polygon fill = 'rgb( 31, 120, 180)' fill-opacity = '0.250000' points = '785.1,505.1 785.1,662.4 787.0,662.4 787.0,506.7 '/>
		<polygon fill = 'rgb( 31, 120, 180)' fill-opacity = '0.250000' points = '787.0,506.7 787.0,662.4 789.0,662.4 789.0,508.2 '/>
		<polygon fill = 'rgb( 31, 120, 180)' fill-opacity = '0.250000' points = '789.0,508.2 789.0,662.4 790.9,662.4 790.9,509.8 '/>
		<polygon fill = 'rgb( 31, 120, 180)' fill-opacity = '0.250000' points = '790.9,509.8 790.9,662.4 792.8,662.4 792.8,511.3 '/>
		<polygon fill = 'rgb( 31, 120, 180)' fill-opacity = '0.250000' points = '792.8,511.3 792.8,662.4 794.7,662.4 794.7,512.9 '/>
		<polygon fill = 'rgb( 31, 120, 180)' fill-opacity = '0.250000' points = '794.7,512.9 794.7,662.4 796.6,662.4 796.6,514.4 '/>
		<polygon fill = 'rgb( 31, 120, 180)' fill-opacity = '0.250000' points = '796.6,514.4 796.6,662.4 798.5,662.4 798.5,515.9 '/>
		<polygon fill = 'rgb( 31, 120, 180)' fill-opacity = '0.250000' points = '798.5,515.9 798.5,662.4 800.4,662.4 800.4,517.4 '/>
		<polygon fill = 'rgb( 31, 120, 180)' fill-opacity = '0.250000' points = '800.4,517.4 800.4,662.4 802.3,662.4 802.3,519.0 '/>
		<polygon fill = 'rgb( 31, 120, 180)' fill-opacity = '0.250000' points = '802.3,519.0 802.3,662.4 804.2,662.4 804.2,520.5 '/>
		<polygon fill = 'rgb( 31, 120, 180)' fill-opacity = '0.250000' points = '804.2,520.5 804.2,662.4 806.1,662.4 806.1,522.0 '/>
		<polygon fill = 'rgb( 31, 120, 180)' fill-opacity = '0.250000' points = '806.1,522.0 806.1,662.4 808.0,662.4 808.0,523.6 '/>
		<polygon fill = 'rgb( 31, 120, 180)' fill-opacity = '0.250000' points = '808.0,523.6 808.0,662.4 809.9,662.4 809.9,525.1 '/>
		<polygon fill = 'rgb( 31, 120, 180)' fill-opacity = '0.250000' points = '809.9,525.1 809.9,662.4 811.8,662.4 811.8,526.7 '/>
		<polygon fill = 'rgb( 31, 120, 180)' fill-opacity = '0.250000' points = '811.8,526.7 811.8,662.4 813.7,662.4 813.7,528.2 '/>
		<polygon fill = 'rgb( 31, 120, 180)' fill-opacity = '0.250000' points = '813.7,528.2 813.7,662.4 815.6,662.4 815.6,529.8 '/>
		<polygon fill = 'rgb( 31, 120, 180)' fill-opacity = '0.250000' points = '815.6,529.8 815.6,662.4 817.5,662.4 817.5,531.3 '/>
		<polygon fill = 'rgb( 31, 120, 180)' fill-opacity = '0.250000' points = '817.5,531.3 817.5,662.4 819.4,662.4 819.4,532.9 '/>
		<polygon fill = 'rgb( 31, 120, 180)' fill-opacity = '0.250000' points = '819.4,532.9 819.4,662.4 821.3,662.4 821.3,534.5 '/>
		<polygon fill = 'rgb( 31, 120, 180)' fill-opacity = '0.250000' points = '821.3,534.5 821.3,662.4 823.2,662.4 823.2,536.0 '/>
		<polygon fill = 'rgb( 31, 120, 180)' fill-opacity = '0.250000' points = '823.2,536.0 823.2,662.4 825.1,662.4 825.1,537.6 '/>
		<polygon fill = 'rgb( 31, 120, 180)' fill-opacity = '0.250000' points = '825.1,537.6 825.1,662.4 827.0,662.4 827.0,539.1 '/>
		<polygon fill = 'rgb( 31, 120, 180)' fill-opacity = '0.250000' points = '827.0,539.1 827.0,662.4 828.9,662.4 828.9,540.7 '/>
		<polygon fill = 'rgb( 31, 120, 180)' fill-opacity = '0.250000' points = '828.9,540.7 828.9,662.4 830.8,662.4 830.8,542.3 '/>
		<polygon fill = 'rgb( 31, 120, 180)' fill-opacity = '0.250000' points = '830.8,542.3 830.8,662.4 832.7,662.4 832.7,543.8 '/>
		<polygon fill = 'rgb( 31, 120, 180)' fill-opacity = '0.250000' points = '832.7,543.8 832.7,662.4 834.6,662.4 834.6,545.3 '/>
		<polygon fill = 'rgb( 31, 120, 180)' fill-opacity = '0.250000' points = '834.6,545.3 834.6,662.4 836.5,662.4 836.5,546.9 '/>
		<polygon fill = 'rgb( 31, 120, 180)' fill-opacity = '0.250000' points = '836.5,546.9 836.5,662.4 838.4,662.4 838.4,548.4 '/>
		<polygon fill = 'rgb( 31, 120, 180)' fill-opacity = '0.250000' points = '838.4,548.4 838.4,662.4 840.4,662.4 840.4,549.9 '/>
		<polygon fill = 'rgb( 31, 120, 180)' fill-opacity = '0.250000' points = '840.4,549.9 840.4,662.4 842.3,662.4 842.3,551.4 '/>
		<polygon fill = 'rgb( 31, 120, 180)' fill-opacity = '0.250000' points = '842.3,551.4 842.3,662.4 844.2,662.4 844.2,552.9 '/>
		<polygon fill = 'rgb( 31, 120, 180)' fill-opacity = '0.250000' points = '844.2,552.9 844.2,662.4 846.1,662.4 846.1,554.4 '/>
		<polygon fill = 'rgb( 31, 120, 180)' fill-opacity = '0.250000' points = '846.1,554.4 846.1,662.4 848.0,662.4 848.0,555.9 '/>
		<polygon fill = 'rgb( 31, 120, 180)' fill-opacity = '0.250000' points = '848.0,555.9 848.0,662.4 849.9,662.4 849.9,557.4 '/>
		<polygon fill = 'rgb( 31, 120, 180)' fill-opacity = '0.250000' points = '849.9,557.4 849.9,662.4 851.8,662.4 851.8,558.8 '/>
		<polygon fill = 'rgb( 31, 120, 180)' fill-opacity = '0.250000' points = '851.8,558.8 851.8,662.4 853.7,662.4 853.7,560.3 '/>
		<polygon fill = 'rgb( 31, 120, 180)' fill-opacity = '0.250000' points = '853.7,560.3 853.7,662.4 855.6,662.4 855.6,561.7 '/>
		<polygon fill = 'rgb( 31, 120, 180)' fill-opacity = '0.250000' points = '855.6,561.7 855.6,662.4 857.5,662.4 857.5,563.2 '/>
		<polygon fill = 'rgb( 31, 120, 180)' fill-opacity = '0.250000' points = '857.5,563.2 857.5,662.4 859.4,662.4 859.4,564.6 '/>
		<polygon fill = 'rgb( 31, 120, 180)' fill-opacity = '0.250000' points = '859.4,564.6 859.4,662.4 861.3,662.4 861.3,566.0 '/>
		<polygon fill = 'rgb( 31, 120, 180)' fill-opacity = '0.250000' points = '861.3,566.0 861.3,662.4 863.2,662.4 863.2,567.4 '/>
		<polygon fill = 'rgb( 31, 120, 180)' fill-opacity = '0.250000' points = '863.2,567.4 863.2,662.4 865.1,662.4 865.1,568.7 '/>
		<polygon fill = 'rgb( 31, 120, 180)' fill-opacity = '0.250000' points = '865.1,568.7 865.1,662.4 867.0,662.4 867.0,570.1 '/>
		<polygon fill = 'rgb( 31, 120, 180)' fill-opacity = '0.250000' points = '867.0,570.1 867.0,662.4 868.9,662.4 868.9,571.4 '/>
		<polygon fill = 'rgb( 31, 120, 180)' fill-opacity = '0.250000' points = '868.9,571.4 868.9,662.4 870.8,662.4 870.8,572.7 '/>
		<polygon fill = 'rgb( 31, 120, 180)' fill-opacity = '0.250000' points = '870.8,572.7 870.8,662.4 872.7,662.4 872.7,574.0 '/>
		<polygon fill = 'rgb( 31, 120, 180)' fill-opacity = '0.250000' points = '872.7,574.0 872.7,662.4 874.6,662.4 874.6,575.3 '/>
		<polygon fill = 'rgb( 31, 120, 180)' fill-opacity = '0.250000' points = '874.6,575.3 874.6,662.4 876.5,662.4 876.5,576.6 '/>
		<polygon fill = 'rgb( 31, 120, 180)' fill-opacity = '0.250000' points = '876.5,576.6 876.5,662.4 878.4,662.4 878.4,577.8 '/>
		<polygon fill = 'rgb( 31, 120, 180)' fill-opacity = '0.250000' points = '878.4,577.8 878.4,662.4 880.3,662.4 880.3,579.0 '/>
		<polygon fill = 'rgb( 31, 120, 180)' fill-opacity = '0.250000' points = '880.3,579.0 880.3,662.4 882.2,662.4 882.2,580.2 '/>
		<polygon fill = 'rgb( 31, 120, 180)' fill-opacity = '0.250000' points = '882.2,580.2 882.2,662.4 884.1,662.4 884.1,581.4 '/>
		<polygon fill = 'rgb( 31, 120, 180)' fill-opacity = '0.250000' points = '884.1,581.4 884.1,662.4 886.0,662.4 886.0,582.5 '/>
		<polygon fill = 'rgb( 31, 120, 180)' fill-opacity = '0.250000' points = '886.0,582.5 886.0,662.4 887.9,662.4 887.9,583.6 '/>
		<polygon fill = 'rgb( 31, 120, 180)' fill-opacity = '0.250000' points = '887.9,583.6 887.9,662.4 889.9,662.4 889.9,584.7 '/>
		<polygon fill = 'rgb( 31, 120, 180)' fill-opacity = '0.250000' points = '889.9,584.7 889.9,662.4 891.8,662.4 891.8,585.8 '/>
		<polygon fill = 'rgb( 31, 120, 180)' fill-opacity = '0.250000' points = '891.8,585.8 891.8,662.4 893.7,662.4 893.7,586.8 '/>
		<polygon fill = 'rgb( 31, 120, 180)' fill-opacity = '0.250000' points = '893.7,586.8 893.7,662.4 895.6,662.4 895.6,587.8 '/>
		<polygon fill = 'rgb( 31, 120, 180)' fill-opacity = '0.250000' points = '895.6,587.8 895.6,662.4 897.5,662.4 897.5,588.8 '/>
		<polygon fill = 'rgb( 31, 120, 180)' fill-opacity = '0.250000' points = '897.5,588.8 897.5,662.4 899.4,662.4 899.4,589.8 '/>
		<polygon fill = 'rgb( 31, 120, 180)' fill-opacity = '0.250000' points = '899.4,589.8 899.4,662.4 901.3,662.4 901.3,590.8 '/>
		<polygon fill = 'rgb( 31, 120, 180)' fill-opacity = '0.250000' points = '901.3,590.8 901.3,662.4 903.2,662.4 903.2,591.8 '/>
		<polygon fill = 'rgb( 31, 120, 180)' fill-opacity = '0.250000' points = '903.2,591.8 903.2,662.4 905.1,662.4 905.1,592.8 '/>
		<polygon fill = 'rgb( 31, 120, 180)' fill-opacity = '0.250000' points = '905.1,592.8 905.1,662.4 907.0,662.4 907.0,593.7 '/>
		<polygon fill = 'rgb( 31, 120, 180)' fill-opacity = '0.250000' points = '907.0,593.7 907.0,662.4 908.9,662.4 908.9,594.7 '/>
		<polygon fill = 'rgb( 31, 120, 180)' fill-opacity = '0.250000' points = '908.9,594.7 908.9,662.4 910.8,662.4 910.8,595.6 '/>
		<polygon fill = 'rgb( 31, 120, 180)' fill-opacity = '0.250000' points = '910.8,595.6 910.8,662.4 912.7,662.4 912.7,596.5 '/>
		<polygon fill = 'rgb( 31, 120, 180)' fill-opacity = '0.250000' points = '912.7,596.5 912.7,662.4 914.6,662.4 914.6,597.5 '/>
		<polygon fill = 'rgb( 31, 120, 180)' fill-opacity = '0.250000' points = '914.6,597.5 914.6,662.4 916.5,662.4 916.5,598.4 '/>
		<polygon fill = 'rgb( 31, 120, 180)' fill-opacity = '0.250000' points = '916.5,598.4 916.5,662.4 918.4,662.4 918.4,599.4 '/>
		<polygon fill = 'rgb( 31, 120, 180)' fill-opacity = '0.250000' points = '918.4,599.4 918.4,662.4 920.3,662.4 920.3,600.3 '/>
		<polygon fill = 'rgb( 31, 120, 180)' fill-opacity = '0.250000' points = '920.3,600.3 920.3,662.4 922.2,662.4 922.2,601.2 '/>
		<polygon fill = 'rgb( 31, 120, 180)' fill-opacity = '0.250000' points = '922.2,601.2 922.2,662.4 924.1,662.4 924.1,602.2 '/>
	</g>
</g>
	</g>
	<g id="gnuplot_plot_3" ><title>Point estimate</title>
<g fill="none" color="white" stroke="rgb( 31, 120, 180)" stroke-width="2.00" stroke-linecap="butt" stroke-linejoin="miter">
</g>
<g fill="none" color="black" stroke="currentColor" stroke-width="2.00" stroke-linecap="butt" stroke-linejoin="miter">
	<g transform="translate(1089.0,103.0)" stroke="none" fill="black" font-family="Helvetica" font-size="12.00"  text-anchor="start">
		<text><tspan font-family="Helvetica" >Point estimate</tspan></text>
	</g>
</g>
<g fill="none" color="black" stroke="currentColor" stroke-width="2.00" stroke-linecap="butt" stroke-linejoin="miter">
	<path stroke='rgb( 31, 120, 180)'  d='M1038.5,99.1 L1080.7,99.1 M488.0,662.4 L488.0,150.8  '/></g>
	</g>
<g fill="none" color="black" stroke="currentColor" stroke-width="2.00" stroke-linecap="butt" stroke-linejoin="miter">
</g>
<g fill="none" color="black" stroke="black" stroke-width="1.00" stroke-linecap="butt" stroke-linejoin="miter">
</g>
<g fill="none" color="black" stroke="currentColor" stroke-width="1.00" stroke-linecap="butt" stroke-linejoin="miter">
	<path stroke='black'  d='M63.6,54.1 L63.6,662.4 L1013.6,662.4 L1013.6,54.1 L63.6,54.1 Z  '/></g>
<g fill="none" color="black" stroke="currentColor" stroke-width="1.00" stroke-linecap="butt" stroke-linejoin="miter">
</g>
</g>
</svg>

