<?xml version="1.0" encoding="utf-8"  standalone="no"?>
<svg 
 viewBox="0 0 1280 720"
 xmlns="http://www.w3.org/2000/svg"
 xmlns:xlink="http://www.w3.org/1999/xlink"
>

<title>Gnuplot</title>
<desc>Produced by GNUPLOT 5.0 patchlevel 6 </desc>

<g id="gnuplot_canvas">

<rect x="0" y="0" width="1280" height="720" fill="none"/>
<defs>

	<circle id='gpDot' r='0.5' stroke-width='0.5'/>
	<path id='gpPt0' stroke-width='0.222' stroke='currentColor' d='M-1,0 h2 M0,-1 v2'/>
	<path id='gpPt1' stroke-width='0.222' stroke='currentColor' d='M-1,-1 L1,1 M1,-1 L-1,1'/>
	<path id='gpPt2' stroke-width='0.222' stroke='currentColor' d='M-1,0 L1,0 M0,-1 L0,1 M-1,-1 L1,1 M-1,1 L1,-1'/>
	<rect id='gpPt3' stroke-width='0.222' stroke='currentColor' x='-1' y='-1' width='2' height='2'/>
	<rect id='gpPt4' stroke-width='0.222' stroke='currentColor' fill='currentColor' x='-1' y='-1' width='2' height='2'/>
	<circle id='gpPt5' stroke-width='0.222' stroke='currentColor' cx='0' cy='0' r='1'/>
	<use xlink:href='#gpPt5' id='gpPt6' fill='currentColor' stroke='none'/>
	<path id='gpPt7' stroke-width='0.222' stroke='currentColor' d='M0,-1.33 L-1.33,0.67 L1.33,0.67 z'/>
	<use xlink:href='#gpPt7' id='gpPt8' fill='currentColor' stroke='none'/>
	<use xlink:href='#gpPt7' id='gpPt9' stroke='currentColor' transform='rotate(180)'/>
	<use xlink:href='#gpPt9' id='gpPt10' fill='currentColor' stroke='none'/>
	<use xlink:href='#gpPt3' id='gpPt11' stroke='currentColor' transform='rotate(45)'/>
	<use xlink:href='#gpPt11' id='gpPt12' fill='currentColor' stroke='none'/>
	<path id='gpPt13' stroke-width='0.222' stroke='currentColor' d='M0,1.330 L1.265,0.411 L0.782,-1.067 L-0.782,-1.076 L-1.265,0.411 z'/>
	<use xlink:href='#gpPt13' id='gpPt14' fill='currentColor' stroke='none'/>
	<filter id='textbox' filterUnits='objectBoundingBox' x='0' y='0' height='1' width='1'>
	  <feFlood flood-color='white' flood-opacity='1' result='bgnd'/>
	  <feComposite in='SourceGraphic' in2='bgnd' operator='atop'/>
	</filter>
	<filter id='greybox' filterUnits='objectBoundingBox' x='0' y='0' height='1' width='1'>
	  <feFlood flood-color='lightgrey' flood-opacity='1' result='grey'/>
	  <feComposite in='SourceGraphic' in2='grey' operator='atop'/>
	</filter>
</defs>
<g fill="none" color="white" stroke="currentColor" stroke-width="1.00" stroke-linecap="butt" stroke-linejoin="miter">
</g>
<g fill="none" color="black" stroke="currentColor" stroke-width="1.00" stroke-linecap="butt" stroke-linejoin="miter">
	<path stroke='black'  d='M71.9,662.4 L80.9,662.4  '/>	<g transform="translate(63.6,666.3)" stroke="none" fill="black" font-family="Helvetica" font-size="12.00"  text-anchor="end">
		<text><tspan font-family="Helvetica" > 0</tspan></text>
	</g>
</g>
<g fill="none" color="black" stroke="currentColor" stroke-width="1.00" stroke-linecap="butt" stroke-linejoin="miter">
	<path stroke='black'  d='M71.9,561.0 L80.9,561.0  '/>	<g transform="translate(63.6,564.9)" stroke="none" fill="black" font-family="Helvetica" font-size="12.00"  text-anchor="end">
		<text><tspan font-family="Helvetica" > 50</tspan></text>
	</g>
</g>
<g fill="none" color="black" stroke="currentColor" stroke-width="1.00" stroke-linecap="butt" stroke-linejoin="miter">
	<path stroke='black'  d='M71.9,459.6 L80.9,459.6  '/>	<g transform="translate(63.6,463.5)" stroke="none" fill="black" font-family="Helvetica" font-size="12.00"  text-anchor="end">
		<text><tspan font-family="Helvetica" > 100</tspan></text>
	</g>
</g>
<g fill="none" color="black" stroke="currentColor" stroke-width="1.00" stroke-linecap="butt" stroke-linejoin="miter">
	<path stroke='black'  d='M71.9,358.2 L80.9,358.2  '/>	<g transform="translate(63.6,362.1)" stroke="none" fill="black" font-family="Helvetica" font-size="12.00"  text-anchor="end">
		<text><tspan font-family="Helvetica" > 150</tspan></text>
	</g>
</g>
<g fill="none" color="black" stroke="currentColor" stroke-width="1.00" stroke-linecap="butt" stroke-linejoin="miter">
	<path stroke='black'  d='M71.9,256.9 L80.9,256.9  '/>	<g transform="translate(63.6,260.8)" stroke="none" fill="black" font-family="Helvetica" font-size="12.00"  text-anchor="end">
		<text><tspan font-family="Helvetica" > 200</tspan></text>
	</g>
</g>
<g fill="none" color="black" stroke="currentColor" stroke-width="1.00" stroke-linecap="butt" stroke-linejoin="miter">
	<path stroke='black'  d='M71.9,155.5 L80.9,155.5  '/>	<g transform="translate(63.6,159.4)" stroke="none" fill="black" font-family="Helvetica" font-size="12.00"  text-anchor="end">
		<text><tspan font-family="Helvetica" > 250</tspan></text>
	</g>
</g>
<g fill="none" color="black" stroke="currentColor" stroke-width="1.00" stroke-linecap="butt" stroke-linejoin="miter">
	<path stroke='black'  d='M71.9,54.1 L80.9,54.1  '/>	<g transform="translate(63.6,58.0)" stroke="none" fill="black" font-family="Helvetica" font-size="12.00"  text-anchor="end">
		<text><tspan font-family="Helvetica" > 300</tspan></text>
	</g>
</g>
<g fill="none" color="black" stroke="currentColor" stroke-width="1.00" stroke-linecap="butt" stroke-linejoin="miter">
	<path stroke='black'  d='M192.9,662.4 L192.9,653.4  '/>	<g transform="translate(192.9,684.3)" stroke="none" fill="black" font-family="Helvetica" font-size="12.00"  text-anchor="middle">
		<text><tspan font-family="Helvetica" >-1.6</tspan></text>
	</g>
</g>
<g fill="none" color="black" stroke="currentColor" stroke-width="1.00" stroke-linecap="butt" stroke-linejoin="miter">
	<path stroke='black'  d='M318.3,662.4 L318.3,653.4  '/>	<g transform="translate(318.3,684.3)" stroke="none" fill="black" font-family="Helvetica" font-size="12.00"  text-anchor="middle">
		<text><tspan font-family="Helvetica" >-1.5</tspan></text>
	</g>
</g>
<g fill="none" color="black" stroke="currentColor" stroke-width="1.00" stroke-linecap="butt" stroke-linejoin="miter">
	<path stroke='black'  d='M443.7,662.4 L443.7,653.4  '/>	<g transform="translate(443.7,684.3)" stroke="none" fill="black" font-family="Helvetica" font-size="12.00"  text-anchor="middle">
		<text><tspan font-family="Helvetica" >-1.4</tspan></text>
	</g>
</g>
<g fill="none" color="black" stroke="currentColor" stroke-width="1.00" stroke-linecap="butt" stroke-linejoin="miter">
	<path stroke='black'  d='M569.1,662.4 L569.1,653.4  '/>	<g transform="translate(569.1,684.3)" stroke="none" fill="black" font-family="Helvetica" font-size="12.00"  text-anchor="middle">
		<text><tspan font-family="Helvetica" >-1.3</tspan></text>
	</g>
</g>
<g fill="none" color="black" stroke="currentColor" stroke-width="1.00" stroke-linecap="butt" stroke-linejoin="miter">
	<path stroke='black'  d='M694.6,662.4 L694.6,653.4  '/>	<g transform="translate(694.6,684.3)" stroke="none" fill="black" font-family="Helvetica" font-size="12.00"  text-anchor="middle">
		<text><tspan font-family="Helvetica" >-1.2</tspan></text>
	</g>
</g>
<g fill="none" color="black" stroke="currentColor" stroke-width="1.00" stroke-linecap="butt" stroke-linejoin="miter">
	<path stroke='black'  d='M820.0,662.4 L820.0,653.4  '/>	<g transform="translate(820.0,684.3)" stroke="none" fill="black" font-family="Helvetica" font-size="12.00"  text-anchor="middle">
		<text><tspan font-family="Helvetica" >-1.1</tspan></text>
	</g>
</g>
<g fill="none" color="black" stroke="currentColor" stroke-width="1.00" stroke-linecap="butt" stroke-linejoin="miter">
	<path stroke='black'  d='M945.4,662.4 L945.4,653.4  '/>	<g transform="translate(945.4,684.3)" stroke="none" fill="black" font-family="Helvetica" font-size="12.00"  text-anchor="middle">
		<text><tspan font-family="Helvetica" >-1</tspan></text>
	</g>
</g>
<g fill="none" color="black" stroke="currentColor" stroke-width="1.00" stroke-linecap="butt" stroke-linejoin="miter">
</g>
<g fill="none" color="black" stroke="currentColor" stroke-width="1.00" stroke-linecap="butt" stroke-linejoin="miter">
	<path stroke='black'  d='M71.9,54.1 L71.9,662.4 L1013.6,662.4 L1013.6,54.1 L71.9,54.1 Z  '/></g>
<g fill="none" color="black" stroke="currentColor" stroke-width="1.00" stroke-linecap="butt" stroke-linejoin="miter">
	<g transform="translate(17.0,358.3) rotate(270)" stroke="none" fill="black" font-family="Helvetica" font-size="12.00"  text-anchor="middle">
		<text><tspan font-family="Helvetica" >Density (a.u.)</tspan></text>
	</g>
</g>
<g fill="none" color="black" stroke="currentColor" stroke-width="1.00" stroke-linecap="butt" stroke-linejoin="miter">
	<g transform="translate(542.7,711.3)" stroke="none" fill="black" font-family="Helvetica" font-size="12.00"  text-anchor="middle">
		<text><tspan font-family="Helvetica" >Relative change (%)</tspan></text>
	</g>
</g>
<g fill="none" color="black" stroke="currentColor" stroke-width="1.00" stroke-linecap="butt" stroke-linejoin="miter">
	<g transform="translate(542.7,31.0)" stroke="none" fill="black" font-family="Helvetica" font-size="12.00"  text-anchor="middle">
		<text><tspan font-family="Helvetica" >language: cpp/parse error: python/examples/python3-grammar.py: mean</tspan></text>
	</g>
</g>
	<g id="gnuplot_plot_1" ><title>Bootstrap distribution</title>
<g fill="none" color="white" stroke="black" stroke-width="2.00" stroke-linecap="butt" stroke-linejoin="miter">
</g>
<g fill="none" color="black" stroke="currentColor" stroke-width="2.00" stroke-linecap="butt" stroke-linejoin="miter">
	<g transform="translate(1089.0,67.0)" stroke="none" fill="black" font-family="Helvetica" font-size="12.00"  text-anchor="start">
		<text><tspan font-family="Helvetica" >Bootstrap distribution</tspan></text>
	</g>
</g>
<g fill="none" color="black" stroke="currentColor" stroke-width="2.00" stroke-linecap="butt" stroke-linejoin="miter">
	<path stroke='rgb( 31, 120, 180)'  d='M1038.5,63.1 L1080.7,63.1 M71.9,631.0 L73.8,630.3 L75.7,629.6 L77.6,628.8 L79.4,628.1 L81.3,627.3
		L83.2,626.5 L85.1,625.7 L87.0,624.9 L88.9,624.1 L90.8,623.2 L92.7,622.4 L94.5,621.5 L96.4,620.7
		L98.3,619.8 L100.2,618.9 L102.1,618.0 L104.0,617.1 L105.9,616.2 L107.8,615.3 L109.6,614.4 L111.5,613.4
		L113.4,612.5 L115.3,611.6 L117.2,610.6 L119.1,609.7 L121.0,608.7 L122.9,607.7 L124.7,606.7 L126.6,605.7
		L128.5,604.7 L130.4,603.6 L132.3,602.5 L134.2,601.4 L136.1,600.3 L138.0,599.1 L139.8,597.8 L141.7,596.6
		L143.6,595.3 L145.5,593.9 L147.4,592.5 L149.3,591.1 L151.2,589.7 L153.0,588.2 L154.9,586.6 L156.8,585.1
		L158.7,583.5 L160.6,581.8 L162.5,580.2 L164.4,578.5 L166.3,576.8 L168.1,575.0 L170.0,573.3 L171.9,571.5
		L173.8,569.7 L175.7,567.8 L177.6,566.0 L179.5,564.1 L181.4,562.1 L183.2,560.2 L185.1,558.2 L187.0,556.2
		L188.9,554.2 L190.8,552.1 L192.7,550.0 L194.6,547.8 L196.5,545.6 L198.3,543.4 L200.2,541.2 L202.1,538.9
		L204.0,536.6 L205.9,534.3 L207.8,532.0 L209.7,529.6 L211.6,527.2 L213.4,524.8 L215.3,522.4 L217.2,520.0
		L219.1,517.6 L221.0,515.1 L222.9,512.7 L224.8,510.2 L226.6,507.7 L228.5,505.2 L230.4,502.7 L232.3,500.2
		L234.2,497.6 L236.1,495.0 L238.0,492.4 L239.9,489.8 L241.7,487.1 L243.6,484.4 L245.5,481.7 L247.4,478.9
		L249.3,476.1 L251.2,473.3 L253.1,470.5 L255.0,467.6 L256.8,464.8 L258.7,461.9 L260.6,458.9 L262.5,456.0
		L264.4,453.1 L266.3,450.1 L268.2,447.1 L270.1,444.1 L271.9,441.1 L273.8,438.1 L275.7,435.0 L277.6,431.9
		L279.5,428.8 L281.4,425.7 L283.3,422.6 L285.2,419.5 L287.0,416.3 L288.9,413.1 L290.8,409.9 L292.7,406.7
		L294.6,403.4 L296.5,400.1 L298.4,396.9 L300.2,393.6 L302.1,390.3 L304.0,387.0 L305.9,383.7 L307.8,380.3
		L309.7,377.0 L311.6,373.7 L313.5,370.3 L315.3,367.0 L317.2,363.6 L319.1,360.3 L321.0,356.9 L322.9,353.6
		L324.8,350.2 L326.7,346.9 L328.6,343.5 L330.4,340.2 L332.3,336.8 L334.2,333.4 L336.1,330.0 L338.0,326.6
		L339.9,323.2 L341.8,319.8 L343.7,316.4 L345.5,312.9 L347.4,309.5 L349.3,306.0 L351.2,302.5 L353.1,299.0
		L355.0,295.5 L356.9,291.9 L358.8,288.4 L360.6,284.8 L362.5,281.2 L364.4,277.7 L366.3,274.1 L368.2,270.5
		L370.1,266.9 L372.0,263.3 L373.8,259.7 L375.7,256.2 L377.6,252.7 L379.5,249.2 L381.4,245.8 L383.3,242.4
		L385.2,239.1 L387.1,235.8 L388.9,232.6 L390.8,229.4 L392.7,226.3 L394.6,223.3 L396.5,220.4 L398.4,217.5
		L400.3,214.6 L402.2,211.9 L404.0,209.1 L405.9,206.4 L407.8,203.8 L409.7,201.2 L411.6,198.6 L413.5,196.0
		L415.4,193.4 L417.3,190.9 L419.1,188.3 L421.0,185.7 L422.9,183.2 L424.8,180.6 L426.7,178.1 L428.6,175.5
		L430.5,172.9 L432.4,170.4 L434.2,167.9 L436.1,165.3 L438.0,162.9 L439.9,160.4 L441.8,158.0 L443.7,155.7
		L445.6,153.4 L447.4,151.1 L449.3,149.0 L451.2,146.9 L453.1,144.9 L455.0,142.9 L456.9,141.1 L458.8,139.4
		L460.7,137.7 L462.5,136.2 L464.4,134.7 L466.3,133.3 L468.2,132.1 L470.1,130.9 L472.0,129.8 L473.9,128.8
		L475.8,127.8 L477.6,127.0 L479.5,126.2 L481.4,125.5 L483.3,124.8 L485.2,124.2 L487.1,123.7 L489.0,123.2
		L490.9,122.7 L492.7,122.3 L494.6,121.9 L496.5,121.6 L498.4,121.3 L500.3,121.0 L502.2,120.8 L504.1,120.7
		L506.0,120.5 L507.8,120.5 L509.7,120.4 L511.6,120.5 L513.5,120.5 L515.4,120.7 L517.3,120.9 L519.2,121.1
		L521.0,121.4 L522.9,121.8 L524.8,122.2 L526.7,122.7 L528.6,123.3 L530.5,123.9 L532.4,124.5 L534.3,125.2
		L536.1,126.0 L538.0,126.8 L539.9,127.7 L541.8,128.5 L543.7,129.5 L545.6,130.4 L547.5,131.4 L549.4,132.4
		L551.2,133.5 L553.1,134.5 L555.0,135.6 L556.9,136.7 L558.8,137.7 L560.7,138.8 L562.6,139.9 L564.5,140.9
		L566.3,142.0 L568.2,143.0 L570.1,144.0 L572.0,145.0 L573.9,146.1 L575.8,147.1 L577.7,148.1 L579.5,149.2
		L581.4,150.3 L583.3,151.5 L585.2,152.7 L587.1,154.0 L589.0,155.4 L590.9,156.9 L592.8,158.5 L594.6,160.2
		L596.5,162.0 L598.4,164.0 L600.3,166.1 L602.2,168.4 L604.1,170.8 L606.0,173.4 L607.9,176.1 L609.7,179.0
		L611.6,181.9 L613.5,185.0 L615.4,188.2 L617.3,191.5 L619.2,194.9 L621.1,198.4 L623.0,202.0 L624.8,205.6
		L626.7,209.2 L628.6,212.9 L630.5,216.6 L632.4,220.3 L634.3,224.0 L636.2,227.7 L638.1,231.4 L639.9,235.1
		L641.8,238.8 L643.7,242.4 L645.6,246.1 L647.5,249.7 L649.4,253.2 L651.3,256.8 L653.1,260.3 L655.0,263.8
		L656.9,267.3 L658.8,270.8 L660.7,274.3 L662.6,277.7 L664.5,281.2 L666.4,284.6 L668.2,288.1 L670.1,291.5
		L672.0,295.0 L673.9,298.4 L675.8,301.9 L677.7,305.4 L679.6,308.9 L681.5,312.4 L683.3,315.9 L685.2,319.5
		L687.1,323.0 L689.0,326.6 L690.9,330.2 L692.8,333.8 L694.7,337.4 L696.6,341.0 L698.4,344.6 L700.3,348.1
		L702.2,351.7 L704.1,355.2 L706.0,358.7 L707.9,362.2 L709.8,365.6 L711.7,369.0 L713.5,372.3 L715.4,375.5
		L717.3,378.7 L719.2,381.9 L721.1,384.9 L723.0,387.9 L724.9,390.9 L726.7,393.7 L728.6,396.6 L730.5,399.4
		L732.4,402.2 L734.3,404.9 L736.2,407.6 L738.1,410.4 L740.0,413.1 L741.8,415.8 L743.7,418.6 L745.6,421.4
		L747.5,424.2 L749.4,427.0 L751.3,429.8 L753.2,432.7 L755.1,435.6 L756.9,438.5 L758.8,441.4 L760.7,444.3
		L762.6,447.2 L764.5,450.1 L766.4,453.0 L768.3,455.8 L770.2,458.6 L772.0,461.4 L773.9,464.1 L775.8,466.7
		L777.7,469.3 L779.6,471.8 L781.5,474.3 L783.4,476.7 L785.3,479.0 L787.1,481.3 L789.0,483.5 L790.9,485.7
		L792.8,487.8 L794.7,489.8 L796.6,491.9 L798.5,493.9 L800.3,495.8 L802.2,497.8 L804.1,499.7 L806.0,501.6
		L807.9,503.4 L809.8,505.3 L811.7,507.1 L813.6,509.0 L815.4,510.8 L817.3,512.6 L819.2,514.4 L821.1,516.1
		L823.0,517.9 L824.9,519.6 L826.8,521.4 L828.7,523.1 L830.5,524.8 L832.4,526.5 L834.3,528.2 L836.2,529.8
		L838.1,531.4 L840.0,533.1 L841.9,534.6 L843.8,536.2 L845.6,537.8 L847.5,539.3 L849.4,540.8 L851.3,542.3
		L853.2,543.8 L855.1,545.3 L857.0,546.7 L858.9,548.1 L860.7,549.5 L862.6,550.9 L864.5,552.3 L866.4,553.6
		L868.3,554.9 L870.2,556.3 L872.1,557.5 L873.9,558.8 L875.8,560.1 L877.7,561.3 L879.6,562.5 L881.5,563.7
		L883.4,564.9 L885.3,566.1 L887.2,567.2 L889.0,568.4 L890.9,569.5 L892.8,570.7 L894.7,571.8 L896.6,573.0
		L898.5,574.1 L900.4,575.3 L902.3,576.4 L904.1,577.6 L906.0,578.8 L907.9,580.0 L909.8,581.2 L911.7,582.4
		L913.6,583.6 L915.5,584.9 L917.4,586.1 L919.2,587.3 L921.1,588.5 L923.0,589.7 L924.9,591.0 L926.8,592.2
		L928.7,593.3 L930.6,594.5 L932.5,595.7 L934.3,596.8 L936.2,597.9 L938.1,599.0 L940.0,600.1 L941.9,601.2
		L943.8,602.2 L945.7,603.2 L947.5,604.2 L949.4,605.1 L951.3,606.0 L953.2,606.9 L955.1,607.8 L957.0,608.6
		L958.9,609.4 L960.8,610.2 L962.6,611.0 L964.5,611.7 L966.4,612.4 L968.3,613.1 L970.2,613.8 L972.1,614.5
		L974.0,615.2 L975.9,615.9 L977.7,616.5 L979.6,617.2 L981.5,617.9 L983.4,618.5 L985.3,619.2 L987.2,619.9
		L989.1,620.5 L991.0,621.2 L992.8,621.9 L994.7,622.5 L996.6,623.2 L998.5,623.9 L1000.4,624.6 L1002.3,625.3
		L1004.2,625.9 L1006.1,626.6 L1007.9,627.3 L1009.8,628.0 L1011.7,628.7 L1013.6,629.3  '/></g>
	</g>
	<g id="gnuplot_plot_2" ><title>Confidence interval</title>
<g fill="none" color="white" stroke="rgb( 31, 120, 180)" stroke-width="1.00" stroke-linecap="butt" stroke-linejoin="miter">
</g>
<g fill="none" color="black" stroke="currentColor" stroke-width="1.00" stroke-linecap="butt" stroke-linejoin="miter">
	<g transform="translate(1089.0,85.0)" stroke="none" fill="black" font-family="Helvetica" font-size="12.00"  text-anchor="start">
		<text><tspan font-family="Helvetica" >Confidence interval</tspan></text>
	</g>
</g>
<g fill="none" color="black" stroke="currentColor" stroke-width="1.00" stroke-linecap="butt" stroke-linejoin="miter">
	<g stroke='none' shape-rendering='crispEdges'>
		<polygon fill = 'rgb( 31, 120, 180)' fill-opacity = '0.250000' points = '1038.5,85.6 1080.7,85.6 1080.7,76.6 1038.5,76.6 '/>
		<polygon fill = 'rgb( 31, 120, 180)' fill-opacity = '0.250000' points = '158.7,583.5 158.7,662.4 160.6,662.4 160.6,581.8 '/>
		<polygon fill = 'rgb( 31, 120, 180)' fill-opacity = '0.250000' points = '160.6,581.8 160.6,662.4 162.5,662.4 162.5,580.2 '/>
		<polygon fill = 'rgb( 31, 120, 180)' fill-opacity = '0.250000' points = '162.5,580.2 162.5,662.4 164.4,662.4 164.4,578.5 '/>
		<polygon fill = 'rgb( 31, 120, 180)' fill-opacity = '0.250000' points = '164.4,578.5 164.4,662.4 166.3,662.4 166.3,576.8 '/>
		<polygon fill = 'rgb( 31, 120, 180)' fill-opacity = '0.250000' points = '166.3,576.8 166.3,662.4 168.1,662.4 168.1,575.0 '/>
		<polygon fill = 'rgb( 31, 120, 180)' fill-opacity = '0.250000' points = '168.1,575.0 168.1,662.4 170.0,662.4 170.0,573.3 '/>
		<polygon fill = 'rgb( 31, 120, 180)' fill-opacity = '0.250000' points = '170.0,573.3 170.0,662.4 171.9,662.4 171.9,571.5 '/>
		<polygon fill = 'rgb( 31, 120, 180)' fill-opacity = '0.250000' points = '171.9,571.5 171.9,662.4 173.8,662.4 173.8,569.7 '/>
		<polygon fill = 'rgb( 31, 120, 180)' fill-opacity = '0.250000' points = '173.8,569.7 173.8,662.4 175.7,662.4 175.7,567.8 '/>
		<polygon fill = 'rgb( 31, 120, 180)' fill-opacity = '0.250000' points = '175.7,567.8 175.7,662.4 177.6,662.4 177.6,566.0 '/>
		<polygon fill = 'rgb( 31, 120, 180)' fill-opacity = '0.250000' points = '177.6,566.0 177.6,662.4 179.5,662.4 179.5,564.1 '/>
		<polygon fill = 'rgb( 31, 120, 180)' fill-opacity = '0.250000' points = '179.5,564.1 179.5,662.4 181.4,662.4 181.4,562.1 '/>
		<polygon fill = 'rgb( 31, 120, 180)' fill-opacity = '0.250000' points = '181.4,562.1 181.4,662.4 183.2,662.4 183.2,560.2 '/>
		<polygon fill = 'rgb( 31, 120, 180)' fill-opacity = '0.250000' points = '183.2,560.2 183.2,662.4 185.1,662.4 185.1,558.2 '/>
		<polygon fill = 'rgb( 31, 120, 180)' fill-opacity = '0.250000' points = '185.1,558.2 185.1,662.4 187.0,662.4 187.0,556.2 '/>
		<polygon fill = 'rgb( 31, 120, 180)' fill-opacity = '0.250000' points = '187.0,556.2 187.0,662.4 188.9,662.4 188.9,554.2 '/>
		<polygon fill = 'rgb( 31, 120, 180)' fill-opacity = '0.250000' points = '188.9,554.2 188.9,662.4 190.8,662.4 190.8,552.1 '/>
		<polygon fill = 'rgb( 31, 120, 180)' fill-opacity = '0.250000' points = '190.8,552.1 190.8,662.4 192.7,662.4 192.7,550.0 '/>
		<polygon fill = 'rgb( 31, 120, 180)' fill-opacity = '0.250000' points = '192.7,550.0 192.7,662.4 194.6,662.4 194.6,547.8 '/>
		<polygon fill = 'rgb( 31, 120, 180)' fill-opacity = '0.250000' points = '194.6,547.8 194.6,662.4 196.5,662.4 196.5,545.6 '/>
		<polygon fill = 'rgb( 31, 120, 180)' fill-opacity = '0.250000' points = '196.5,545.6 196.5,662.4 198.3,662.4 198.3,543.4 '/>
		<polygon fill = 'rgb( 31, 120, 180)' fill-opacity = '0.250000' points = '198.3,543.4 198.3,662.4 200.2,662.4 200.2,541.2 '/>
		<polygon fill = 'rgb( 31, 120, 180)' fill-opacity = '0.250000' points = '200.2,541.2 200.2,662.4 202.1,662.4 202.1,538.9 '/>
		<polygon fill = 'rgb( 31, 120, 180)' fill-opacity = '0.250000' points = '202.1,538.9 202.1,662.4 204.0,662.4 204.0,536.6 '/>
		<polygon fill = 'rgb( 31, 120, 180)' fill-opacity = '0.250000' points = '204.0,536.6 204.0,662.4 205.9,662.4 205.9,534.3 '/>
		<polygon fill = 'rgb( 31, 120, 180)' fill-opacity = '0.250000' points = '205.9,534.3 205.9,662.4 207.8,662.4 207.8,532.0 '/>
		<polygon fill = 'rgb( 31, 120, 180)' fill-opacity = '0.250000' points = '207.8,532.0 207.8,662.4 209.7,662.4 209.7,529.6 '/>
		<polygon fill = 'rgb( 31, 120, 180)' fill-opacity = '0.250000' points = '209.7,529.6 209.7,662.4 211.6,662.4 211.6,527.2 '/>
		<polygon fill = 'rgb( 31, 120, 180)' fill-opacity = '0.250000' points = '211.6,527.2 211.6,662.4 213.4,662.4 213.4,524.8 '/>
		<polygon fill = 'rgb( 31, 120, 180)' fill-opacity = '0.250000' points = '213.4,524.8 213.4,662.4 215.3,662.4 215.3,522.4 '/>
		<polygon fill = 'rgb( 31, 120, 180)' fill-opacity = '0.250000' points = '215.3,522.4 215.3,662.4 217.2,662.4 217.2,520.0 '/>
		<polygon fill = 'rgb( 31, 120, 180)' fill-opacity = '0.250000' points = '217.2,520.0 217.2,662.4 219.1,662.4 219.1,517.6 '/>
		<polygon fill = 'rgb( 31, 120, 180)' fill-opacity = '0.250000' points = '219.1,517.6 219.1,662.4 221.0,662.4 221.0,515.1 '/>
		<polygon fill = 'rgb( 31, 120, 180)' fill-opacity = '0.250000' points = '221.0,515.1 221.0,662.4 222.9,662.4 222.9,512.7 '/>
		<polygon fill = 'rgb( 31, 120, 180)' fill-opacity = '0.250000' points = '222.9,512.7 222.9,662.4 224.8,662.4 224.8,510.2 '/>
		<polygon fill = 'rgb( 31, 120, 180)' fill-opacity = '0.250000' points = '224.8,510.2 224.8,662.4 226.6,662.4 226.6,507.7 '/>
		<polygon fill = 'rgb( 31, 120, 180)' fill-opacity = '0.250000' points = '226.6,507.7 226.6,662.4 228.5,662.4 228.5,505.2 '/>
		<polygon fill = 'rgb( 31, 120, 180)' fill-opacity = '0.250000' points = '228.5,505.2 228.5,662.4 230.4,662.4 230.4,502.7 '/>
		<polygon fill = 'rgb( 31, 120, 180)' fill-opacity = '0.250000' points = '230.4,502.7 230.4,662.4 232.3,662.4 232.3,500.2 '/>
		<polygon fill = 'rgb( 31, 120, 180)' fill-opacity = '0.250000' points = '232.3,500.2 232.3,662.4 234.2,662.4 234.2,497.6 '/>
		<polygon fill = 'rgb( 31, 120, 180)' fill-opacity = '0.250000' points = '234.2,497.6 234.2,662.4 236.1,662.4 236.1,495.0 '/>
		<polygon fill = 'rgb( 31, 120, 180)' fill-opacity = '0.250000' points = '236.1,495.0 236.1,662.4 238.0,662.4 238.0,492.4 '/>
		<polygon fill = 'rgb( 31, 120, 180)' fill-opacity = '0.250000' points = '238.0,492.4 238.0,662.4 239.9,662.4 239.9,489.8 '/>
		<polygon fill = 'rgb( 31, 120, 180)' fill-opacity = '0.250000' points = '239.9,489.8 239.9,662.4 241.7,662.4 241.7,487.1 '/>
		<polygon fill = 'rgb( 31, 120, 180)' fill-opacity = '0.250000' points = '241.7,487.1 241.7,662.4 243.6,662.4 243.6,484.4 '/>
		<polygon fill = 'rgb( 31, 120, 180)' fill-opacity = '0.250000' points = '243.6,484.4 243.6,662.4 245.5,662.4 245.5,481.7 '/>
		<polygon fill = 'rgb( 31, 120, 180)' fill-opacity = '0.250000' points = '245.5,481.7 245.5,662.4 247.4,662.4 247.4,478.9 '/>
		<polygon fill = 'rgb( 31, 120, 180)' fill-opacity = '0.250000' points = '247.4,478.9 247.4,662.4 249.3,662.4 249.3,476.1 '/>
		<polygon fill = 'rgb( 31, 120, 180)' fill-opacity = '0.250000' points = '249.3,476.1 249.3,662.4 251.2,662.4 251.2,473.3 '/>
		<polygon fill = 'rgb( 31, 120, 180)' fill-opacity = '0.250000' points = '251.2,473.3 251.2,662.4 253.1,662.4 253.1,470.5 '/>
		<polygon fill = 'rgb( 31, 120, 180)' fill-opacity = '0.250000' points = '253.1,470.5 253.1,662.4 255.0,662.4 255.0,467.6 '/>
		<polygon fill = 'rgb( 31, 120, 180)' fill-opacity = '0.250000' points = '255.0,467.6 255.0,662.4 256.8,662.4 256.8,464.8 '/>
		<polygon fill = 'rgb( 31, 120, 180)' fill-opacity = '0.250000' points = '256.8,464.8 256.8,662.4 258.7,662.4 258.7,461.9 '/>
		<polygon fill = 'rgb( 31, 120, 180)' fill-opacity = '0.250000' points = '258.7,461.9 258.7,662.4 260.6,662.4 260.6,458.9 '/>
		<polygon fill = 'rgb( 31, 120, 180)' fill-opacity = '0.250000' points = '260.6,458.9 260.6,662.4 262.5,662.4 262.5,456.0 '/>
		<polygon fill = 'rgb( 31, 120, 180)' fill-opacity = '0.250000' points = '262.5,456.0 262.5,662.4 264.4,662.4 264.4,453.1 '/>
		<polygon fill = 'rgb( 31, 120, 180)' fill-opacity = '0.250000' points = '264.4,453.1 264.4,662.4 266.3,662.4 266.3,450.1 '/>
		<polygon fill = 'rgb( 31, 120, 180)' fill-opacity = '0.250000' points = '266.3,450.1 266.3,662.4 268.2,662.4 268.2,447.1 '/>
		<polygon fill = 'rgb( 31, 120, 180)' fill-opacity = '0.250000' points = '268.2,447.1 268.2,662.4 270.1,662.4 270.1,444.1 '/>
		<polygon fill = 'rgb( 31, 120, 180)' fill-opacity = '0.250000' points = '270.1,444.1 270.1,662.4 271.9,662.4 271.9,441.1 '/>
		<polygon fill = 'rgb( 31, 120, 180)' fill-opacity = '0.250000' points = '271.9,441.1 271.9,662.4 273.8,662.4 273.8,438.1 '/>
		<polygon fill = 'rgb( 31, 120, 180)' fill-opacity = '0.250000' points = '273.8,438.1 273.8,662.4 275.7,662.4 275.7,435.0 '/>
		<polygon fill = 'rgb( 31, 120, 180)' fill-opacity = '0.250000' points = '275.7,435.0 275.7,662.4 277.6,662.4 277.6,431.9 '/>
		<polygon fill = 'rgb( 31, 120, 180)' fill-opacity = '0.250000' points = '277.6,431.9 277.6,662.4 279.5,662.4 279.5,428.8 '/>
		<polygon fill = 'rgb( 31, 120, 180)' fill-opacity = '0.250000' points = '279.5,428.8 279.5,662.4 281.4,662.4 281.4,425.7 '/>
		<polygon fill = 'rgb( 31, 120, 180)' fill-opacity = '0.250000' points = '281.4,425.7 281.4,662.4 283.3,662.4 283.3,422.6 '/>
		<polygon fill = 'rgb( 31, 120, 180)' fill-opacity = '0.250000' points = '283.3,422.6 283.3,662.4 285.2,662.4 285.2,419.5 '/>
		<polygon fill = 'rgb( 31, 120, 180)' fill-opacity = '0.250000' points = '285.2,419.5 285.2,662.4 287.0,662.4 287.0,416.3 '/>
		<polygon fill = 'rgb( 31, 120, 180)' fill-opacity = '0.250000' points = '287.0,416.3 287.0,662.4 288.9,662.4 288.9,413.1 '/>
		<polygon fill = 'rgb( 31, 120, 180)' fill-opacity = '0.250000' points = '288.9,413.1 288.9,662.4 290.8,662.4 290.8,409.9 '/>
		<polygon fill = 'rgb( 31, 120, 180)' fill-opacity = '0.250000' points = '290.8,409.9 290.8,662.4 292.7,662.4 292.7,406.7 '/>
		<polygon fill = 'rgb( 31, 120, 180)' fill-opacity = '0.250000' points = '292.7,406.7 292.7,662.4 294.6,662.4 294.6,403.4 '/>
		<polygon fill = 'rgb( 31, 120, 180)' fill-opacity = '0.250000' points = '294.6,403.4 294.6,662.4 296.5,662.4 296.5,400.1 '/>
		<polygon fill = 'rgb( 31, 120, 180)' fill-opacity = '0.250000' points = '296.5,400.1 296.5,662.4 298.4,662.4 298.4,396.9 '/>
		<polygon fill = 'rgb( 31, 120, 180)' fill-opacity = '0.250000' points = '298.4,396.9 298.4,662.4 300.2,662.4 300.2,393.6 '/>
		<polygon fill = 'rgb( 31, 120, 180)' fill-opacity = '0.250000' points = '300.2,393.6 300.2,662.4 302.1,662.4 302.1,390.3 '/>
		<polygon fill = 'rgb( 31, 120, 180)' fill-opacity = '0.250000' points = '302.1,390.3 302.1,662.4 304.0,662.4 304.0,387.0 '/>
		<polygon fill = 'rgb( 31, 120, 180)' fill-opacity = '0.250000' points = '304.0,387.0 304.0,662.4 305.9,662.4 305.9,383.7 '/>
		<polygon fill = 'rgb( 31, 120, 180)' fill-opacity = '0.250000' points = '305.9,383.7 305.9,662.4 307.8,662.4 307.8,380.3 '/>
		<polygon fill = 'rgb( 31, 120, 180)' fill-opacity = '0.250000' points = '307.8,380.3 307.8,662.4 309.7,662.4 309.7,377.0 '/>
		<polygon fill = 'rgb( 31, 120, 180)' fill-opacity = '0.250000' points = '309.7,377.0 309.7,662.4 311.6,662.4 311.6,373.7 '/>
		<polygon fill = 'rgb( 31, 120, 180)' fill-opacity = '0.250000' points = '311.6,373.7 311.6,662.4 313.5,662.4 313.5,370.3 '/>
		<polygon fill = 'rgb( 31, 120, 180)' fill-opacity = '0.250000' points = '313.5,370.3 313.5,662.4 315.3,662.4 315.3,367.0 '/>
		<polygon fill = 'rgb( 31, 120, 180)' fill-opacity = '0.250000' points = '315.3,367.0 315.3,662.4 317.2,662.4 317.2,363.6 '/>
		<polygon fill = 'rgb( 31, 120, 180)' fill-opacity = '0.250000' points = '317.2,363.6 317.2,662.4 319.1,662.4 319.1,360.3 '/>
		<polygon fill = 'rgb( 31, 120, 180)' fill-opacity = '0.250000' points = '319.1,360.3 319.1,662.4 321.0,662.4 321.0,356.9 '/>
		<polygon fill = 'rgb( 31, 120, 180)' fill-opacity = '0.250000' points = '321.0,356.9 321.0,662.4 322.9,662.4 322.9,353.6 '/>
		<polygon fill = 'rgb( 31, 120, 180)' fill-opacity = '0.250000' points = '322.9,353.6 322.9,662.4 324.8,662.4 324.8,350.2 '/>
		<polygon fill = 'rgb( 31, 120, 180)' fill-opacity = '0.250000' points = '324.8,350.2 324.8,662.4 326.7,662.4 326.7,346.9 '/>
		<polygon fill = 'rgb( 31, 120, 180)' fill-opacity = '0.250000' points = '326.7,346.9 326.7,662.4 328.6,662.4 328.6,343.5 '/>
		<polygon fill = 'rgb( 31, 120, 180)' fill-opacity = '0.250000' points = '328.6,343.5 328.6,662.4 330.4,662.4 330.4,340.2 '/>
		<polygon fill = 'rgb( 31, 120, 180)' fill-opacity = '0.250000' points = '330.4,340.2 330.4,662.4 332.3,662.4 332.3,336.8 '/>
		<polygon fill = 'rgb( 31, 120, 180)' fill-opacity = '0.250000' points = '332.3,336.8 332.3,662.4 334.2,662.4 334.2,333.4 '/>
		<polygon fill = 'rgb( 31, 120, 180)' fill-opacity = '0.250000' points = '334.2,333.4 334.2,662.4 336.1,662.4 336.1,330.0 '/>
		<polygon fill = 'rgb( 31, 120, 180)' fill-opacity = '0.250000' points = '336.1,330.0 336.1,662.4 338.0,662.4 338.0,326.6 '/>
		<polygon fill = 'rgb( 31, 120, 180)' fill-opacity = '0.250000' points = '338.0,326.6 338.0,662.4 339.9,662.4 339.9,323.2 '/>
		<polygon fill = 'rgb( 31, 120, 180)' fill-opacity = '0.250000' points = '339.9,323.2 339.9,662.4 341.8,662.4 341.8,319.8 '/>
		<polygon fill = 'rgb( 31, 120, 180)' fill-opacity = '0.250000' points = '341.8,319.8 341.8,662.4 343.7,662.4 343.7,316.4 '/>
		<polygon fill = 'rgb( 31, 120, 180)' fill-opacity = '0.250000' points = '343.7,316.4 343.7,662.4 345.5,662.4 345.5,312.9 '/>
		<polygon fill = 'rgb( 31, 120, 180)' fill-opacity = '0.250000' points = '345.5,312.9 345.5,662.4 347.4,662.4 347.4,309.5 '/>
		<polygon fill = 'rgb( 31, 120, 180)' fill-opacity = '0.250000' points = '347.4,309.5 347.4,662.4 349.3,662.4 349.3,306.0 '/>
		<polygon fill = 'rgb( 31, 120, 180)' fill-opacity = '0.250000' points = '349.3,306.0 349.3,662.4 351.2,662.4 351.2,302.5 '/>
		<polygon fill = 'rgb( 31, 120, 180)' fill-opacity = '0.250000' points = '351.2,302.5 351.2,662.4 353.1,662.4 353.1,299.0 '/>
		<polygon fill = 'rgb( 31, 120, 180)' fill-opacity = '0.250000' points = '353.1,299.0 353.1,662.4 355.0,662.4 355.0,295.5 '/>
		<polygon fill = 'rgb( 31, 120, 180)' fill-opacity = '0.250000' points = '355.0,295.5 355.0,662.4 356.9,662.4 356.9,291.9 '/>
		<polygon fill = 'rgb( 31, 120, 180)' fill-opacity = '0.250000' points = '356.9,291.9 356.9,662.4 358.8,662.4 358.8,288.4 '/>
		<polygon fill = 'rgb( 31, 120, 180)' fill-opacity = '0.250000' points = '358.8,288.4 358.8,662.4 360.6,662.4 360.6,284.8 '/>
		<polygon fill = 'rgb( 31, 120, 180)' fill-opacity = '0.250000' points = '360.6,284.8 360.6,662.4 362.5,662.4 362.5,281.2 '/>
		<polygon fill = 'rgb( 31, 120, 180)' fill-opacity = '0.250000' points = '362.5,281.2 362.5,662.4 364.4,662.4 364.4,277.7 '/>
		<polygon fill = 'rgb( 31, 120, 180)' fill-opacity = '0.250000' points = '364.4,277.7 364.4,662.4 366.3,662.4 366.3,274.1 '/>
		<polygon fill = 'rgb( 31, 120, 180)' fill-opacity = '0.250000' points = '366.3,274.1 366.3,662.4 368.2,662.4 368.2,270.5 '/>
		<polygon fill = 'rgb( 31, 120, 180)' fill-opacity = '0.250000' points = '368.2,270.5 368.2,662.4 370.1,662.4 370.1,266.9 '/>
		<polygon fill = 'rgb( 31, 120, 180)' fill-opacity = '0.250000' points = '370.1,266.9 370.1,662.4 372.0,662.4 372.0,263.3 '/>
		<polygon fill = 'rgb( 31, 120, 180)' fill-opacity = '0.250000' points = '372.0,263.3 372.0,662.4 373.8,662.4 373.8,259.7 '/>
		<polygon fill = 'rgb( 31, 120, 180)' fill-opacity = '0.250000' points = '373.8,259.7 373.8,662.4 375.7,662.4 375.7,256.2 '/>
		<polygon fill = 'rgb( 31, 120, 180)' fill-opacity = '0.250000' points = '375.7,256.2 375.7,662.4 377.6,662.4 377.6,252.7 '/>
		<polygon fill = 'rgb( 31, 120, 180)' fill-opacity = '0.250000' points = '377.6,252.7 377.6,662.4 379.5,662.4 379.5,249.2 '/>
		<polygon fill = 'rgb( 31, 120, 180)' fill-opacity = '0.250000' points = '379.5,249.2 379.5,662.4 381.4,662.4 381.4,245.8 '/>
		<polygon fill = 'rgb( 31, 120, 180)' fill-opacity = '0.250000' points = '381.4,245.8 381.4,662.4 383.3,662.4 383.3,242.4 '/>
		<polygon fill = 'rgb( 31, 120, 180)' fill-opacity = '0.250000' points = '383.3,242.4 383.3,662.4 385.2,662.4 385.2,239.1 '/>
		<polygon fill = 'rgb( 31, 120, 180)' fill-opacity = '0.250000' points = '385.2,239.1 385.2,662.4 387.1,662.4 387.1,235.8 '/>
		<polygon fill = 'rgb( 31, 120, 180)' fill-opacity = '0.250000' points = '387.1,235.8 387.1,662.4 388.9,662.4 388.9,232.6 '/>
		<polygon fill = 'rgb( 31, 120, 180)' fill-opacity = '0.250000' points = '388.9,232.6 388.9,662.4 390.8,662.4 390.8,229.4 '/>
		<polygon fill = 'rgb( 31, 120, 180)' fill-opacity = '0.250000' points = '390.8,229.4 390.8,662.4 392.7,662.4 392.7,226.3 '/>
		<polygon fill = 'rgb( 31, 120, 180)' fill-opacity = '0.250000' points = '392.7,226.3 392.7,662.4 394.6,662.4 394.6,223.3 '/>
		<polygon fill = 'rgb( 31, 120, 180)' fill-opacity = '0.250000' points = '394.6,223.3 394.6,662.4 396.5,662.4 396.5,220.4 '/>
		<polygon fill = 'rgb( 31, 120, 180)' fill-opacity = '0.250000' points = '396.5,220.4 396.5,662.4 398.4,662.4 398.4,217.5 '/>
		<polygon fill = 'rgb( 31, 120, 180)' fill-opacity = '0.250000' points = '398.4,217.5 398.4,662.4 400.3,662.4 400.3,214.6 '/>
		<polygon fill = 'rgb( 31, 120, 180)' fill-opacity = '0.250000' points = '400.3,214.6 400.3,662.4 402.2,662.4 402.2,211.9 '/>
		<polygon fill = 'rgb( 31, 120, 180)' fill-opacity = '0.250000' points = '402.2,211.9 402.2,662.4 404.0,662.4 404.0,209.1 '/>
		<polygon fill = 'rgb( 31, 120, 180)' fill-opacity = '0.250000' points = '404.0,209.1 404.0,662.4 405.9,662.4 405.9,206.4 '/>
		<polygon fill = 'rgb( 31, 120, 180)' fill-opacity = '0.250000' points = '405.9,206.4 405.9,662.4 407.8,662.4 407.8,203.8 '/>
		<polygon fill = 'rgb( 31, 120, 180)' fill-opacity = '0.250000' points = '407.8,203.8 407.8,662.4 409.7,662.4 409.7,201.2 '/>
		<polygon fill = 'rgb( 31, 120, 180)' fill-opacity = '0.250000' points = '409.7,201.2 409.7,662.4 411.6,662.4 411.6,198.6 '/>
		<polygon fill = 'rgb( 31, 120, 180)' fill-opacity = '0.250000' points = '411.6,198.6 411.6,662.4 413.5,662.4 413.5,196.0 '/>
		<polygon fill = 'rgb( 31, 120, 180)' fill-opacity = '0.250000' points = '413.5,196.0 413.5,662.4 415.4,662.4 415.4,193.4 '/>
		<polygon fill = 'rgb( 31, 120, 180)' fill-opacity = '0.250000' points = '415.4,193.4 415.4,662.4 417.3,662.4 417.3,190.9 '/>
		<polygon fill = 'rgb( 31, 120, 180)' fill-opacity = '0.250000' points = '417.3,190.9 417.3,662.4 419.1,662.4 419.1,188.3 '/>
		<polygon fill = 'rgb( 31, 120, 180)' fill-opacity = '0.250000' points = '419.1,188.3 419.1,662.4 421.0,662.4 421.0,185.7 '/>
		<polygon fill = 'rgb( 31, 120, 180)' fill-opacity = '0.250000' points = '421.0,185.7 421.0,662.4 422.9,662.4 422.9,183.2 '/>
		<polygon fill = 'rgb( 31, 120, 180)' fill-opacity = '0.250000' points = '422.9,183.2 422.9,662.4 424.8,662.4 424.8,180.6 '/>
		<polygon fill = 'rgb( 31, 120, 180)' fill-opacity = '0.250000' points = '424.8,180.6 424.8,662.4 426.7,662.4 426.7,178.1 '/>
		<polygon fill = 'rgb( 31, 120, 180)' fill-opacity = '0.250000' points = '426.7,178.1 426.7,662.4 428.6,662.4 428.6,175.5 '/>
		<polygon fill = 'rgb( 31, 120, 180)' fill-opacity = '0.250000' points = '428.6,175.5 428.6,662.4 430.5,662.4 430.5,172.9 '/>
		<polygon fill = 'rgb( 31, 120, 180)' fill-opacity = '0.250000' points = '430.5,172.9 430.5,662.4 432.4,662.4 432.4,170.4 '/>
		<polygon fill = 'rgb( 31, 120, 180)' fill-opacity = '0.250000' points = '432.4,170.4 432.4,662.4 434.2,662.4 434.2,167.9 '/>
		<polygon fill = 'rgb( 31, 120, 180)' fill-opacity = '0.250000' points = '434.2,167.9 434.2,662.4 436.1,662.4 436.1,165.3 '/>
		<polygon fill = 'rgb( 31, 120, 180)' fill-opacity = '0.250000' points = '436.1,165.3 436.1,662.4 438.0,662.4 438.0,162.9 '/>
		<polygon fill = 'rgb( 31, 120, 180)' fill-opacity = '0.250000' points = '438.0,162.9 438.0,662.4 439.9,662.4 439.9,160.4 '/>
		<polygon fill = 'rgb( 31, 120, 180)' fill-opacity = '0.250000' points = '439.9,160.4 439.9,662.4 441.8,662.4 441.8,158.0 '/>
		<polygon fill = 'rgb( 31, 120, 180)' fill-opacity = '0.250000' points = '441.8,158.0 441.8,662.4 443.7,662.4 443.7,155.7 '/>
		<polygon fill = 'rgb( 31, 120, 180)' fill-opacity = '0.250000' points = '443.7,155.7 443.7,662.4 445.6,662.4 445.6,153.4 '/>
		<polygon fill = 'rgb( 31, 120, 180)' fill-opacity = '0.250000' points = '445.6,153.4 445.6,662.4 447.4,662.4 447.4,151.1 '/>
		<polygon fill = 'rgb( 31, 120, 180)' fill-opacity = '0.250000' points = '447.4,151.1 447.4,662.4 449.3,662.4 449.3,149.0 '/>
		<polygon fill = 'rgb( 31, 120, 180)' fill-opacity = '0.250000' points = '449.3,149.0 449.3,662.4 451.2,662.4 451.2,146.9 '/>
		<polygon fill = 'rgb( 31, 120, 180)' fill-opacity = '0.250000' points = '451.2,146.9 451.2,662.4 453.1,662.4 453.1,144.9 '/>
		<polygon fill = 'rgb( 31, 120, 180)' fill-opacity = '0.250000' points = '453.1,144.9 453.1,662.4 455.0,662.4 455.0,142.9 '/>
		<polygon fill = 'rgb( 31, 120, 180)' fill-opacity = '0.250000' points = '455.0,142.9 455.0,662.4 456.9,662.4 456.9,141.1 '/>
		<polygon fill = 'rgb( 31, 120, 180)' fill-opacity = '0.250000' points = '456.9,141.1 456.9,662.4 458.8,662.4 458.8,139.4 '/>
		<polygon fill = 'rgb( 31, 120, 180)' fill-opacity = '0.250000' points = '458.8,139.4 458.8,662.4 460.7,662.4 460.7,137.7 '/>
		<polygon fill = 'rgb( 31, 120, 180)' fill-opacity = '0.250000' points = '460.7,137.7 460.7,662.4 462.5,662.4 462.5,136.2 '/>
		<polygon fill = 'rgb( 31, 120, 180)' fill-opacity = '0.250000' points = '462.5,136.2 462.5,662.4 464.4,662.4 464.4,134.7 '/>
		<polygon fill = 'rgb( 31, 120, 180)' fill-opacity = '0.250000' points = '464.4,134.7 464.4,662.4 466.3,662.4 466.3,133.3 '/>
		<polygon fill = 'rgb( 31, 120, 180)' fill-opacity = '0.250000' points = '466.3,133.3 466.3,662.4 468.2,662.4 468.2,132.1 '/>
		<polygon fill = 'rgb( 31, 120, 180)' fill-opacity = '0.250000' points = '468.2,132.1 468.2,662.4 470.1,662.4 470.1,130.9 '/>
		<polygon fill = 'rgb( 31, 120, 180)' fill-opacity = '0.250000' points = '470.1,130.9 470.1,662.4 472.0,662.4 472.0,129.8 '/>
		<polygon fill = 'rgb( 31, 120, 180)' fill-opacity = '0.250000' points = '472.0,129.8 472.0,662.4 473.9,662.4 473.9,128.8 '/>
		<polygon fill = 'rgb( 31, 120, 180)' fill-opacity = '0.250000' points = '473.9,128.8 473.9,662.4 475.8,662.4 475.8,127.8 '/>
		<polygon fill = 'rgb( 31, 120, 180)' fill-opacity = '0.250000' points = '475.8,127.8 475.8,662.4 477.6,662.4 477.6,127.0 '/>
		<polygon fill = 'rgb( 31, 120, 180)' fill-opacity = '0.250000' points = '477.6,127.0 477.6,662.4 479.5,662.4 479.5,126.2 '/>
		<polygon fill = 'rgb( 31, 120, 180)' fill-opacity = '0.250000' points = '479.5,126.2 479.5,662.4 481.4,662.4 481.4,125.5 '/>
		<polygon fill = 'rgb( 31, 120, 180)' fill-opacity = '0.250000' points = '481.4,125.5 481.4,662.4 483.3,662.4 483.3,124.8 '/>
		<polygon fill = 'rgb( 31, 120, 180)' fill-opacity = '0.250000' points = '483.3,124.8 483.3,662.4 485.2,662.4 485.2,124.2 '/>
		<polygon fill = 'rgb( 31, 120, 180)' fill-opacity = '0.250000' points = '485.2,124.2 485.2,662.4 487.1,662.4 487.1,123.7 '/>
		<polygon fill = 'rgb( 31, 120, 180)' fill-opacity = '0.250000' points = '487.1,123.7 487.1,662.4 489.0,662.4 489.0,123.2 '/>
		<polygon fill = 'rgb( 31, 120, 180)' fill-opacity = '0.250000' points = '489.0,123.2 489.0,662.4 490.9,662.4 490.9,122.7 '/>
		<polygon fill = 'rgb( 31, 120, 180)' fill-opacity = '0.250000' points = '490.9,122.7 490.9,662.4 492.7,662.4 492.7,122.3 '/>
		<polygon fill = 'rgb( 31, 120, 180)' fill-opacity = '0.250000' points = '492.7,122.3 492.7,662.4 494.6,662.4 494.6,121.9 '/>
		<polygon fill = 'rgb( 31, 120, 180)' fill-opacity = '0.250000' points = '494.6,121.9 494.6,662.4 496.5,662.4 496.5,121.6 '/>
		<polygon fill = 'rgb( 31, 120, 180)' fill-opacity = '0.250000' points = '496.5,121.6 496.5,662.4 498.4,662.4 498.4,121.3 '/>
		<polygon fill = 'rgb( 31, 120, 180)' fill-opacity = '0.250000' points = '498.4,121.3 498.4,662.4 500.3,662.4 500.3,121.0 '/>
		<polygon fill = 'rgb( 31, 120, 180)' fill-opacity = '0.250000' points = '500.3,121.0 500.3,662.4 502.2,662.4 502.2,120.8 '/>
		<polygon fill = 'rgb( 31, 120, 180)' fill-opacity = '0.250000' points = '502.2,120.8 502.2,662.4 504.1,662.4 504.1,120.7 '/>
		<polygon fill = 'rgb( 31, 120, 180)' fill-opacity = '0.250000' points = '504.1,120.7 504.1,662.4 506.0,662.4 506.0,120.5 '/>
		<polygon fill = 'rgb( 31, 120, 180)' fill-opacity = '0.250000' points = '506.0,120.5 506.0,662.4 507.8,662.4 507.8,120.5 '/>
		<polygon fill = 'rgb( 31, 120, 180)' fill-opacity = '0.250000' points = '507.8,120.5 507.8,662.4 509.7,662.4 509.7,120.4 '/>
		<polygon fill = 'rgb( 31, 120, 180)' fill-opacity = '0.250000' points = '509.7,120.4 509.7,662.4 511.6,662.4 511.6,120.5 '/>
		<polygon fill = 'rgb( 31, 120, 180)' fill-opacity = '0.250000' points = '511.6,120.5 511.6,662.4 513.5,662.4 513.5,120.5 '/>
		<polygon fill = 'rgb( 31, 120, 180)' fill-opacity = '0.250000' points = '513.5,120.5 513.5,662.4 515.4,662.4 515.4,120.7 '/>
		<polygon fill = 'rgb( 31, 120, 180)' fill-opacity = '0.250000' points = '515.4,120.7 515.4,662.4 517.3,662.4 517.3,120.9 '/>
		<polygon fill = 'rgb( 31, 120, 180)' fill-opacity = '0.250000' points = '517.3,120.9 517.3,662.4 519.2,662.4 519.2,121.1 '/>
		<polygon fill = 'rgb( 31, 120, 180)' fill-opacity = '0.250000' points = '519.2,121.1 519.2,662.4 521.0,662.4 521.0,121.4 '/>
		<polygon fill = 'rgb( 31, 120, 180)' fill-opacity = '0.250000' points = '521.0,121.4 521.0,662.4 522.9,662.4 522.9,121.8 '/>
		<polygon fill = 'rgb( 31, 120, 180)' fill-opacity = '0.250000' points = '522.9,121.8 522.9,662.4 524.8,662.4 524.8,122.2 '/>
		<polygon fill = 'rgb( 31, 120, 180)' fill-opacity = '0.250000' points = '524.8,122.2 524.8,662.4 526.7,662.4 526.7,122.7 '/>
		<polygon fill = 'rgb( 31, 120, 180)' fill-opacity = '0.250000' points = '526.7,122.7 526.7,662.4 528.6,662.4 528.6,123.3 '/>
		<polygon fill = 'rgb( 31, 120, 180)' fill-opacity = '0.250000' points = '528.6,123.3 528.6,662.4 530.5,662.4 530.5,123.9 '/>
		<polygon fill = 'rgb( 31, 120, 180)' fill-opacity = '0.250000' points = '530.5,123.9 530.5,662.4 532.4,662.4 532.4,124.5 '/>
		<polygon fill = 'rgb( 31, 120, 180)' fill-opacity = '0.250000' points = '532.4,124.5 532.4,662.4 534.3,662.4 534.3,125.2 '/>
		<polygon fill = 'rgb( 31, 120, 180)' fill-opacity = '0.250000' points = '534.3,125.2 534.3,662.4 536.1,662.4 536.1,126.0 '/>
		<polygon fill = 'rgb( 31, 120, 180)' fill-opacity = '0.250000' points = '536.1,126.0 536.1,662.4 538.0,662.4 538.0,126.8 '/>
		<polygon fill = 'rgb( 31, 120, 180)' fill-opacity = '0.250000' points = '538.0,126.8 538.0,662.4 539.9,662.4 539.9,127.7 '/>
		<polygon fill = 'rgb( 31, 120, 180)' fill-opacity = '0.250000' points = '539.9,127.7 539.9,662.4 541.8,662.4 541.8,128.5 '/>
		<polygon fill = 'rgb( 31, 120, 180)' fill-opacity = '0.250000' points = '541.8,128.5 541.8,662.4 543.7,662.4 543.7,129.5 '/>
		<polygon fill = 'rgb( 31, 120, 180)' fill-opacity = '0.250000' points = '543.7,129.5 543.7,662.4 545.6,662.4 545.6,130.4 '/>
		<polygon fill = 'rgb( 31, 120, 180)' fill-opacity = '0.250000' points = '545.6,130.4 545.6,662.4 547.5,662.4 547.5,131.4 '/>
		<polygon fill = 'rgb( 31, 120, 180)' fill-opacity = '0.250000' points = '547.5,131.4 547.5,662.4 549.4,662.4 549.4,132.4 '/>
		<polygon fill = 'rgb( 31, 120, 180)' fill-opacity = '0.250000' points = '549.4,132.4 549.4,662.4 551.2,662.4 551.2,133.5 '/>
		<polygon fill = 'rgb( 31, 120, 180)' fill-opacity = '0.250000' points = '551.2,133.5 551.2,662.4 553.1,662.4 553.1,134.5 '/>
		<polygon fill = 'rgb( 31, 120, 180)' fill-opacity = '0.250000' points = '553.1,134.5 553.1,662.4 555.0,662.4 555.0,135.6 '/>
		<polygon fill = 'rgb( 31, 120, 180)' fill-opacity = '0.250000' points = '555.0,135.6 555.0,662.4 556.9,662.4 556.9,136.7 '/>
		<polygon fill = 'rgb( 31, 120, 180)' fill-opacity = '0.250000' points = '556.9,136.7 556.9,662.4 558.8,662.4 558.8,137.7 '/>
		<polygon fill = 'rgb( 31, 120, 180)' fill-opacity = '0.250000' points = '558.8,137.7 558.8,662.4 560.7,662.4 560.7,138.8 '/>
		<polygon fill = 'rgb( 31, 120, 180)' fill-opacity = '0.250000' points = '560.7,138.8 560.7,662.4 562.6,662.4 562.6,139.9 '/>
		<polygon fill = 'rgb( 31, 120, 180)' fill-opacity = '0.250000' points = '562.6,139.9 562.6,662.4 564.5,662.4 564.5,140.9 '/>
		<polygon fill = 'rgb( 31, 120, 180)' fill-opacity = '0.250000' points = '564.5,140.9 564.5,662.4 566.3,662.4 566.3,142.0 '/>
		<polygon fill = 'rgb( 31, 120, 180)' fill-opacity = '0.250000' points = '566.3,142.0 566.3,662.4 568.2,662.4 568.2,143.0 '/>
		<polygon fill = 'rgb( 31, 120, 180)' fill-opacity = '0.250000' points = '568.2,143.0 568.2,662.4 570.1,662.4 570.1,144.0 '/>
		<polygon fill = 'rgb( 31, 120, 180)' fill-opacity = '0.250000' points = '570.1,144.0 570.1,662.4 572.0,662.4 572.0,145.0 '/>
		<polygon fill = 'rgb( 31, 120, 180)' fill-opacity = '0.250000' points = '572.0,145.0 572.0,662.4 573.9,662.4 573.9,146.1 '/>
		<polygon fill = 'rgb( 31, 120, 180)' fill-opacity = '0.250000' points = '573.9,146.1 573.9,662.4 575.8,662.4 575.8,147.1 '/>
		<polygon fill = 'rgb( 31, 120, 180)' fill-opacity = '0.250000' points = '575.8,147.1 575.8,662.4 577.7,662.4 577.7,148.1 '/>
		<polygon fill = 'rgb( 31, 120, 180)' fill-opacity = '0.250000' points = '577.7,148.1 577.7,662.4 579.5,662.4 579.5,149.2 '/>
		<polygon fill = 'rgb( 31, 120, 180)' fill-opacity = '0.250000' points = '579.5,149.2 579.5,662.4 581.4,662.4 581.4,150.3 '/>
		<polygon fill = 'rgb( 31, 120, 180)' fill-opacity = '0.250000' points = '581.4,150.3 581.4,662.4 583.3,662.4 583.3,151.5 '/>
		<polygon fill = 'rgb( 31, 120, 180)' fill-opacity = '0.250000' points = '583.3,151.5 583.3,662.4 585.2,662.4 585.2,152.7 '/>
		<polygon fill = 'rgb( 31, 120, 180)' fill-opacity = '0.250000' points = '585.2,152.7 585.2,662.4 587.1,662.4 587.1,154.0 '/>
		<polygon fill = 'rgb( 31, 120, 180)' fill-opacity = '0.250000' points = '587.1,154.0 587.1,662.4 589.0,662.4 589.0,155.4 '/>
		<polygon fill = 'rgb( 31, 120, 180)' fill-opacity = '0.250000' points = '589.0,155.4 589.0,662.4 590.9,662.4 590.9,156.9 '/>
		<polygon fill = 'rgb( 31, 120, 180)' fill-opacity = '0.250000' points = '590.9,156.9 590.9,662.4 592.8,662.4 592.8,158.5 '/>
		<polygon fill = 'rgb( 31, 120, 180)' fill-opacity = '0.250000' points = '592.8,158.5 592.8,662.4 594.6,662.4 594.6,160.2 '/>
		<polygon fill = 'rgb( 31, 120, 180)' fill-opacity = '0.250000' points = '594.6,160.2 594.6,662.4 596.5,662.4 596.5,162.0 '/>
		<polygon fill = 'rgb( 31, 120, 180)' fill-opacity = '0.250000' points = '596.5,162.0 596.5,662.4 598.4,662.4 598.4,164.0 '/>
		<polygon fill = 'rgb( 31, 120, 180)' fill-opacity = '0.250000' points = '598.4,164.0 598.4,662.4 600.3,662.4 600.3,166.1 '/>
		<polygon fill = 'rgb( 31, 120, 180)' fill-opacity = '0.250000' points = '600.3,166.1 600.3,662.4 602.2,662.4 602.2,168.4 '/>
		<polygon fill = 'rgb( 31, 120, 180)' fill-opacity = '0.250000' points = '602.2,168.4 602.2,662.4 604.1,662.4 604.1,170.8 '/>
		<polygon fill = 'rgb( 31, 120, 180)' fill-opacity = '0.250000' points = '604.1,170.8 604.1,662.4 606.0,662.4 606.0,173.4 '/>
		<polygon fill = 'rgb( 31, 120, 180)' fill-opacity = '0.250000' points = '606.0,173.4 606.0,662.4 607.9,662.4 607.9,176.1 '/>
		<polygon fill = 'rgb( 31, 120, 180)' fill-opacity = '0.250000' points = '607.9,176.1 607.9,662.4 609.7,662.4 609.7,179.0 '/>
		<polygon fill = 'rgb( 31, 120, 180)' fill-opacity = '0.250000' points = '609.7,179.0 609.7,662.4 611.6,662.4 611.6,181.9 '/>
		<polygon fill = 'rgb( 31, 120, 180)' fill-opacity = '0.250000' points = '611.6,181.9 611.6,662.4 613.5,662.4 613.5,185.0 '/>
		<polygon fill = 'rgb( 31, 120, 180)' fill-opacity = '0.250000' points = '613.5,185.0 613.5,662.4 615.4,662.4 615.4,188.2 '/>
		<polygon fill = 'rgb( 31, 120, 180)' fill-opacity = '0.250000' points = '615.4,188.2 615.4,662.4 617.3,662.4 617.3,191.5 '/>
		<polygon fill = 'rgb( 31, 120, 180)' fill-opacity = '0.250000' points = '617.3,191.5 617.3,662.4 619.2,662.4 619.2,194.9 '/>
		<polygon fill = 'rgb( 31, 120, 180)' fill-opacity = '0.250000' points = '619.2,194.9 619.2,662.4 621.1,662.4 621.1,198.4 '/>
		<polygon fill = 'rgb( 31, 120, 180)' fill-opacity = '0.250000' points = '621.1,198.4 621.1,662.4 623.0,662.4 623.0,202.0 '/>
		<polygon fill = 'rgb( 31, 120, 180)' fill-opacity = '0.250000' points = '623.0,202.0 623.0,662.4 624.8,662.4 624.8,205.6 '/>
		<polygon fill = 'rgb( 31, 120, 180)' fill-opacity = '0.250000' points = '624.8,205.6 624.8,662.4 626.7,662.4 626.7,209.2 '/>
		<polygon fill = 'rgb( 31, 120, 180)' fill-opacity = '0.250000' points = '626.7,209.2 626.7,662.4 628.6,662.4 628.6,212.9 '/>
		<polygon fill = 'rgb( 31, 120, 180)' fill-opacity = '0.250000' points = '628.6,212.9 628.6,662.4 630.5,662.4 630.5,216.6 '/>
		<polygon fill = 'rgb( 31, 120, 180)' fill-opacity = '0.250000' points = '630.5,216.6 630.5,662.4 632.4,662.4 632.4,220.3 '/>
		<polygon fill = 'rgb( 31, 120, 180)' fill-opacity = '0.250000' points = '632.4,220.3 632.4,662.4 634.3,662.4 634.3,224.0 '/>
		<polygon fill = 'rgb( 31, 120, 180)' fill-opacity = '0.250000' points = '634.3,224.0 634.3,662.4 636.2,662.4 636.2,227.7 '/>
		<polygon fill = 'rgb( 31, 120, 180)' fill-opacity = '0.250000' points = '636.2,227.7 636.2,662.4 638.1,662.4 638.1,231.4 '/>
		<polygon fill = 'rgb( 31, 120, 180)' fill-opacity = '0.250000' points = '638.1,231.4 638.1,662.4 639.9,662.4 639.9,235.1 '/>
		<polygon fill = 'rgb( 31, 120, 180)' fill-opacity = '0.250000' points = '639.9,235.1 639.9,662.4 641.8,662.4 641.8,238.8 '/>
		<polygon fill = 'rgb( 31, 120, 180)' fill-opacity = '0.250000' points = '641.8,238.8 641.8,662.4 643.7,662.4 643.7,242.4 '/>
		<polygon fill = 'rgb( 31, 120, 180)' fill-opacity = '0.250000' points = '643.7,242.4 643.7,662.4 645.6,662.4 645.6,246.1 '/>
		<polygon fill = 'rgb( 31, 120, 180)' fill-opacity = '0.250000' points = '645.6,246.1 645.6,662.4 647.5,662.4 647.5,249.7 '/>
		<polygon fill = 'rgb( 31, 120, 180)' fill-opacity = '0.250000' points = '647.5,249.7 647.5,662.4 649.4,662.4 649.4,253.2 '/>
		<polygon fill = 'rgb( 31, 120, 180)' fill-opacity = '0.250000' points = '649.4,253.2 649.4,662.4 651.3,662.4 651.3,256.8 '/>
		<polygon fill = 'rgb( 31, 120, 180)' fill-opacity = '0.250000' points = '651.3,256.8 651.3,662.4 653.1,662.4 653.1,260.3 '/>
		<polygon fill = 'rgb( 31, 120, 180)' fill-opacity = '0.250000' points = '653.1,260.3 653.1,662.4 655.0,662.4 655.0,263.8 '/>
		<polygon fill = 'rgb( 31, 120, 180)' fill-opacity = '0.250000' points = '655.0,263.8 655.0,662.4 656.9,662.4 656.9,267.3 '/>
		<polygon fill = 'rgb( 31, 120, 180)' fill-opacity = '0.250000' points = '656.9,267.3 656.9,662.4 658.8,662.4 658.8,270.8 '/>
		<polygon fill = 'rgb( 31, 120, 180)' fill-opacity = '0.250000' points = '658.8,270.8 658.8,662.4 660.7,662.4 660.7,274.3 '/>
		<polygon fill = 'rgb( 31, 120, 180)' fill-opacity = '0.250000' points = '660.7,274.3 660.7,662.4 662.6,662.4 662.6,277.7 '/>
		<polygon fill = 'rgb( 31, 120, 180)' fill-opacity = '0.250000' points = '662.6,277.7 662.6,662.4 664.5,662.4 664.5,281.2 '/>
		<polygon fill = 'rgb( 31, 120, 180)' fill-opacity = '0.250000' points = '664.5,281.2 664.5,662.4 666.4,662.4 666.4,284.6 '/>
		<polygon fill = 'rgb( 31, 120, 180)' fill-opacity = '0.250000' points = '666.4,284.6 666.4,662.4 668.2,662.4 668.2,288.1 '/>
		<polygon fill = 'rgb( 31, 120, 180)' fill-opacity = '0.250000' points = '668.2,288.1 668.2,662.4 670.1,662.4 670.1,291.5 '/>
		<polygon fill = 'rgb( 31, 120, 180)' fill-opacity = '0.250000' points = '670.1,291.5 670.1,662.4 672.0,662.4 672.0,295.0 '/>
		<polygon fill = 'rgb( 31, 120, 180)' fill-opacity = '0.250000' points = '672.0,295.0 672.0,662.4 673.9,662.4 673.9,298.4 '/>
		<polygon fill = 'rgb( 31, 120, 180)' fill-opacity = '0.250000' points = '673.9,298.4 673.9,662.4 675.8,662.4 675.8,301.9 '/>
		<polygon fill = 'rgb( 31, 120, 180)' fill-opacity = '0.250000' points = '675.8,301.9 675.8,662.4 677.7,662.4 677.7,305.4 '/>
		<polygon fill = 'rgb( 31, 120, 180)' fill-opacity = '0.250000' points = '677.7,305.4 677.7,662.4 679.6,662.4 679.6,308.9 '/>
		<polygon fill = 'rgb( 31, 120, 180)' fill-opacity = '0.250000' points = '679.6,308.9 679.6,662.4 681.5,662.4 681.5,312.4 '/>
		<polygon fill = 'rgb( 31, 120, 180)' fill-opacity = '0.250000' points = '681.5,312.4 681.5,662.4 683.3,662.4 683.3,315.9 '/>
		<polygon fill = 'rgb( 31, 120, 180)' fill-opacity = '0.250000' points = '683.3,315.9 683.3,662.4 685.2,662.4 685.2,319.5 '/>
		<polygon fill = 'rgb( 31, 120, 180)' fill-opacity = '0.250000' points = '685.2,319.5 685.2,662.4 687.1,662.4 687.1,323.0 '/>
		<polygon fill = 'rgb( 31, 120, 180)' fill-opacity = '0.250000' points = '687.1,323.0 687.1,662.4 689.0,662.4 689.0,326.6 '/>
		<polygon fill = 'rgb( 31, 120, 180)' fill-opacity = '0.250000' points = '689.0,326.6 689.0,662.4 690.9,662.4 690.9,330.2 '/>
		<polygon fill = 'rgb( 31, 120, 180)' fill-opacity = '0.250000' points = '690.9,330.2 690.9,662.4 692.8,662.4 692.8,333.8 '/>
		<polygon fill = 'rgb( 31, 120, 180)' fill-opacity = '0.250000' points = '692.8,333.8 692.8,662.4 694.7,662.4 694.7,337.4 '/>
		<polygon fill = 'rgb( 31, 120, 180)' fill-opacity = '0.250000' points = '694.7,337.4 694.7,662.4 696.6,662.4 696.6,341.0 '/>
		<polygon fill = 'rgb( 31, 120, 180)' fill-opacity = '0.250000' points = '696.6,341.0 696.6,662.4 698.4,662.4 698.4,344.6 '/>
		<polygon fill = 'rgb( 31, 120, 180)' fill-opacity = '0.250000' points = '698.4,344.6 698.4,662.4 700.3,662.4 700.3,348.1 '/>
		<polygon fill = 'rgb( 31, 120, 180)' fill-opacity = '0.250000' points = '700.3,348.1 700.3,662.4 702.2,662.4 702.2,351.7 '/>
		<polygon fill = 'rgb( 31, 120, 180)' fill-opacity = '0.250000' points = '702.2,351.7 702.2,662.4 704.1,662.4 704.1,355.2 '/>
		<polygon fill = 'rgb( 31, 120, 180)' fill-opacity = '0.250000' points = '704.1,355.2 704.1,662.4 706.0,662.4 706.0,358.7 '/>
		<polygon fill = 'rgb( 31, 120, 180)' fill-opacity = '0.250000' points = '706.0,358.7 706.0,662.4 707.9,662.4 707.9,362.2 '/>
		<polygon fill = 'rgb( 31, 120, 180)' fill-opacity = '0.250000' points = '707.9,362.2 707.9,662.4 709.8,662.4 709.8,365.6 '/>
		<polygon fill = 'rgb( 31, 120, 180)' fill-opacity = '0.250000' points = '709.8,365.6 709.8,662.4 711.7,662.4 711.7,369.0 '/>
		<polygon fill = 'rgb( 31, 120, 180)' fill-opacity = '0.250000' points = '711.7,369.0 711.7,662.4 713.5,662.4 713.5,372.3 '/>
		<polygon fill = 'rgb( 31, 120, 180)' fill-opacity = '0.250000' points = '713.5,372.3 713.5,662.4 715.4,662.4 715.4,375.5 '/>
		<polygon fill = 'rgb( 31, 120, 180)' fill-opacity = '0.250000' points = '715.4,375.5 715.4,662.4 717.3,662.4 717.3,378.7 '/>
		<polygon fill = 'rgb( 31, 120, 180)' fill-opacity = '0.250000' points = '717.3,378.7 717.3,662.4 719.2,662.4 719.2,381.9 '/>
		<polygon fill = 'rgb( 31, 120, 180)' fill-opacity = '0.250000' points = '719.2,381.9 719.2,662.4 721.1,662.4 721.1,384.9 '/>
		<polygon fill = 'rgb( 31, 120, 180)' fill-opacity = '0.250000' points = '721.1,384.9 721.1,662.4 723.0,662.4 723.0,387.9 '/>
		<polygon fill = 'rgb( 31, 120, 180)' fill-opacity = '0.250000' points = '723.0,387.9 723.0,662.4 724.9,662.4 724.9,390.9 '/>
		<polygon fill = 'rgb( 31, 120, 180)' fill-opacity = '0.250000' points = '724.9,390.9 724.9,662.4 726.7,662.4 726.7,393.7 '/>
		<polygon fill = 'rgb( 31, 120, 180)' fill-opacity = '0.250000' points = '726.7,393.7 726.7,662.4 728.6,662.4 728.6,396.6 '/>
		<polygon fill = 'rgb( 31, 120, 180)' fill-opacity = '0.250000' points = '728.6,396.6 728.6,662.4 730.5,662.4 730.5,399.4 '/>
		<polygon fill = 'rgb( 31, 120, 180)' fill-opacity = '0.250000' points = '730.5,399.4 730.5,662.4 732.4,662.4 732.4,402.2 '/>
		<polygon fill = 'rgb( 31, 120, 180)' fill-opacity = '0.250000' points = '732.4,402.2 732.4,662.4 734.3,662.4 734.3,404.9 '/>
		<polygon fill = 'rgb( 31, 120, 180)' fill-opacity = '0.250000' points = '734.3,404.9 734.3,662.4 736.2,662.4 736.2,407.6 '/>
		<polygon fill = 'rgb( 31, 120, 180)' fill-opacity = '0.250000' points = '736.2,407.6 736.2,662.4 738.1,662.4 738.1,410.4 '/>
		<polygon fill = 'rgb( 31, 120, 180)' fill-opacity = '0.250000' points = '738.1,410.4 738.1,662.4 740.0,662.4 740.0,413.1 '/>
		<polygon fill = 'rgb( 31, 120, 180)' fill-opacity = '0.250000' points = '740.0,413.1 740.0,662.4 741.8,662.4 741.8,415.8 '/>
		<polygon fill = 'rgb( 31, 120, 180)' fill-opacity = '0.250000' points = '741.8,415.8 741.8,662.4 743.7,662.4 743.7,418.6 '/>
		<polygon fill = 'rgb( 31, 120, 180)' fill-opacity = '0.250000' points = '743.7,418.6 743.7,662.4 745.6,662.4 745.6,421.4 '/>
		<polygon fill = 'rgb( 31, 120, 180)' fill-opacity = '0.250000' points = '745.6,421.4 745.6,662.4 747.5,662.4 747.5,424.2 '/>
		<polygon fill = 'rgb( 31, 120, 180)' fill-opacity = '0.250000' points = '747.5,424.2 747.5,662.4 749.4,662.4 749.4,427.0 '/>
		<polygon fill = 'rgb( 31, 120, 180)' fill-opacity = '0.250000' points = '749.4,427.0 749.4,662.4 751.3,662.4 751.3,429.8 '/>
		<polygon fill = 'rgb( 31, 120, 180)' fill-opacity = '0.250000' points = '751.3,429.8 751.3,662.4 753.2,662.4 753.2,432.7 '/>
		<polygon fill = 'rgb( 31, 120, 180)' fill-opacity = '0.250000' points = '753.2,432.7 753.2,662.4 755.1,662.4 755.1,435.6 '/>
		<polygon fill = 'rgb( 31, 120, 180)' fill-opacity = '0.250000' points = '755.1,435.6 755.1,662.4 756.9,662.4 756.9,438.5 '/>
		<polygon fill = 'rgb( 31, 120, 180)' fill-opacity = '0.250000' points = '756.9,438.5 756.9,662.4 758.8,662.4 758.8,441.4 '/>
		<polygon fill = 'rgb( 31, 120, 180)' fill-opacity = '0.250000' points = '758.8,441.4 758.8,662.4 760.7,662.4 760.7,444.3 '/>
		<polygon fill = 'rgb( 31, 120, 180)' fill-opacity = '0.250000' points = '760.7,444.3 760.7,662.4 762.6,662.4 762.6,447.2 '/>
		<polygon fill = 'rgb( 31, 120, 180)' fill-opacity = '0.250000' points = '762.6,447.2 762.6,662.4 764.5,662.4 764.5,450.1 '/>
		<polygon fill = 'rgb( 31, 120, 180)' fill-opacity = '0.250000' points = '764.5,450.1 764.5,662.4 766.4,662.4 766.4,453.0 '/>
		<polygon fill = 'rgb( 31, 120, 180)' fill-opacity = '0.250000' points = '766.4,453.0 766.4,662.4 768.3,662.4 768.3,455.8 '/>
		<polygon fill = 'rgb( 31, 120, 180)' fill-opacity = '0.250000' points = '768.3,455.8 768.3,662.4 770.2,662.4 770.2,458.6 '/>
		<polygon fill = 'rgb( 31, 120, 180)' fill-opacity = '0.250000' points = '770.2,458.6 770.2,662.4 772.0,662.4 772.0,461.4 '/>
		<polygon fill = 'rgb( 31, 120, 180)' fill-opacity = '0.250000' points = '772.0,461.4 772.0,662.4 773.9,662.4 773.9,464.1 '/>
		<polygon fill = 'rgb( 31, 120, 180)' fill-opacity = '0.250000' points = '773.9,464.1 773.9,662.4 775.8,662.4 775.8,466.7 '/>
		<polygon fill = 'rgb( 31, 120, 180)' fill-opacity = '0.250000' points = '775.8,466.7 775.8,662.4 777.7,662.4 777.7,469.3 '/>
		<polygon fill = 'rgb( 31, 120, 180)' fill-opacity = '0.250000' points = '777.7,469.3 777.7,662.4 779.6,662.4 779.6,471.8 '/>
		<polygon fill = 'rgb( 31, 120, 180)' fill-opacity = '0.250000' points = '779.6,471.8 779.6,662.4 781.5,662.4 781.5,474.3 '/>
		<polygon fill = 'rgb( 31, 120, 180)' fill-opacity = '0.250000' points = '781.5,474.3 781.5,662.4 783.4,662.4 783.4,476.7 '/>
		<polygon fill = 'rgb( 31, 120, 180)' fill-opacity = '0.250000' points = '783.4,476.7 783.4,662.4 785.3,662.4 785.3,479.0 '/>
		<polygon fill = 'rgb( 31, 120, 180)' fill-opacity = '0.250000' points = '785.3,479.0 785.3,662.4 787.1,662.4 787.1,481.3 '/>
		<polygon fill = 'rgb( 31, 120, 180)' fill-opacity = '0.250000' points = '787.1,481.3 787.1,662.4 789.0,662.4 789.0,483.5 '/>
		<polygon fill = 'rgb( 31, 120, 180)' fill-opacity = '0.250000' points = '789.0,483.5 789.0,662.4 790.9,662.4 790.9,485.7 '/>
		<polygon fill = 'rgb( 31, 120, 180)' fill-opacity = '0.250000' points = '790.9,485.7 790.9,662.4 792.8,662.4 792.8,487.8 '/>
		<polygon fill = 'rgb( 31, 120, 180)' fill-opacity = '0.250000' points = '792.8,487.8 792.8,662.4 794.7,662.4 794.7,489.8 '/>
		<polygon fill = 'rgb( 31, 120, 180)' fill-opacity = '0.250000' points = '794.7,489.8 794.7,662.4 796.6,662.4 796.6,491.9 '/>
		<polygon fill = 'rgb( 31, 120, 180)' fill-opacity = '0.250000' points = '796.6,491.9 796.6,662.4 798.5,662.4 798.5,493.9 '/>
		<polygon fill = 'rgb( 31, 120, 180)' fill-opacity = '0.250000' points = '798.5,493.9 798.5,662.4 800.3,662.4 800.3,495.8 '/>
		<polygon fill = 'rgb( 31, 120, 180)' fill-opacity = '0.250000' points = '800.3,495.8 800.3,662.4 802.2,662.4 802.2,497.8 '/>
		<polygon fill = 'rgb( 31, 120, 180)' fill-opacity = '0.250000' points = '802.2,497.8 802.2,662.4 804.1,662.4 804.1,499.7 '/>
		<polygon fill = 'rgb( 31, 120, 180)' fill-opacity = '0.250000' points = '804.1,499.7 804.1,662.4 806.0,662.4 806.0,501.6 '/>
		<polygon fill = 'rgb( 31, 120, 180)' fill-opacity = '0.250000' points = '806.0,501.6 806.0,662.4 807.9,662.4 807.9,503.4 '/>
		<polygon fill = 'rgb( 31, 120, 180)' fill-opacity = '0.250000' points = '807.9,503.4 807.9,662.4 809.8,662.4 809.8,505.3 '/>
		<polygon fill = 'rgb( 31, 120, 180)' fill-opacity = '0.250000' points = '809.8,505.3 809.8,662.4 811.7,662.4 811.7,507.1 '/>
		<polygon fill = 'rgb( 31, 120, 180)' fill-opacity = '0.250000' points = '811.7,507.1 811.7,662.4 813.6,662.4 813.6,509.0 '/>
		<polygon fill = 'rgb( 31, 120, 180)' fill-opacity = '0.250000' points = '813.6,509.0 813.6,662.4 815.4,662.4 815.4,510.8 '/>
		<polygon fill = 'rgb( 31, 120, 180)' fill-opacity = '0.250000' points = '815.4,510.8 815.4,662.4 817.3,662.4 817.3,512.6 '/>
		<polygon fill = 'rgb( 31, 120, 180)' fill-opacity = '0.250000' points = '817.3,512.6 817.3,662.4 819.2,662.4 819.2,514.4 '/>
		<polygon fill = 'rgb( 31, 120, 180)' fill-opacity = '0.250000' points = '819.2,514.4 819.2,662.4 821.1,662.4 821.1,516.1 '/>
		<polygon fill = 'rgb( 31, 120, 180)' fill-opacity = '0.250000' points = '821.1,516.1 821.1,662.4 823.0,662.4 823.0,517.9 '/>
		<polygon fill = 'rgb( 31, 120, 180)' fill-opacity = '0.250000' points = '823.0,517.9 823.0,662.4 824.9,662.4 824.9,519.6 '/>
		<polygon fill = 'rgb( 31, 120, 180)' fill-opacity = '0.250000' points = '824.9,519.6 824.9,662.4 826.8,662.4 826.8,521.4 '/>
		<polygon fill = 'rgb( 31, 120, 180)' fill-opacity = '0.250000' points = '826.8,521.4 826.8,662.4 828.7,662.4 828.7,523.1 '/>
		<polygon fill = 'rgb( 31, 120, 180)' fill-opacity = '0.250000' points = '828.7,523.1 828.7,662.4 830.5,662.4 830.5,524.8 '/>
		<polygon fill = 'rgb( 31, 120, 180)' fill-opacity = '0.250000' points = '830.5,524.8 830.5,662.4 832.4,662.4 832.4,526.5 '/>
		<polygon fill = 'rgb( 31, 120, 180)' fill-opacity = '0.250000' points = '832.4,526.5 832.4,662.4 834.3,662.4 834.3,528.2 '/>
		<polygon fill = 'rgb( 31, 120, 180)' fill-opacity = '0.250000' points = '834.3,528.2 834.3,662.4 836.2,662.4 836.2,529.8 '/>
		<polygon fill = 'rgb( 31, 120, 180)' fill-opacity = '0.250000' points = '836.2,529.8 836.2,662.4 838.1,662.4 838.1,531.4 '/>
		<polygon fill = 'rgb( 31, 120, 180)' fill-opacity = '0.250000' points = '838.1,531.4 838.1,662.4 840.0,662.4 840.0,533.1 '/>
		<polygon fill = 'rgb( 31, 120, 180)' fill-opacity = '0.250000' points = '840.0,533.1 840.0,662.4 841.9,662.4 841.9,534.6 '/>
		<polygon fill = 'rgb( 31, 120, 180)' fill-opacity = '0.250000' points = '841.9,534.6 841.9,662.4 843.8,662.4 843.8,536.2 '/>
		<polygon fill = 'rgb( 31, 120, 180)' fill-opacity = '0.250000' points = '843.8,536.2 843.8,662.4 845.6,662.4 845.6,537.8 '/>
		<polygon fill = 'rgb( 31, 120, 180)' fill-opacity = '0.250000' points = '845.6,537.8 845.6,662.4 847.5,662.4 847.5,539.3 '/>
		<polygon fill = 'rgb( 31, 120, 180)' fill-opacity = '0.250000' points = '847.5,539.3 847.5,662.4 849.4,662.4 849.4,540.8 '/>
		<polygon fill = 'rgb( 31, 120, 180)' fill-opacity = '0.250000' points = '849.4,540.8 849.4,662.4 851.3,662.4 851.3,542.3 '/>
		<polygon fill = 'rgb( 31, 120, 180)' fill-opacity = '0.250000' points = '851.3,542.3 851.3,662.4 853.2,662.4 853.2,543.8 '/>
		<polygon fill = 'rgb( 31, 120, 180)' fill-opacity = '0.250000' points = '853.2,543.8 853.2,662.4 855.1,662.4 855.1,545.3 '/>
		<polygon fill = 'rgb( 31, 120, 180)' fill-opacity = '0.250000' points = '855.1,545.3 855.1,662.4 857.0,662.4 857.0,546.7 '/>
		<polygon fill = 'rgb( 31, 120, 180)' fill-opacity = '0.250000' points = '857.0,546.7 857.0,662.4 858.9,662.4 858.9,548.1 '/>
		<polygon fill = 'rgb( 31, 120, 180)' fill-opacity = '0.250000' points = '858.9,548.1 858.9,662.4 860.7,662.4 860.7,549.5 '/>
		<polygon fill = 'rgb( 31, 120, 180)' fill-opacity = '0.250000' points = '860.7,549.5 860.7,662.4 862.6,662.4 862.6,550.9 '/>
		<polygon fill = 'rgb( 31, 120, 180)' fill-opacity = '0.250000' points = '862.6,550.9 862.6,662.4 864.5,662.4 864.5,552.3 '/>
		<polygon fill = 'rgb( 31, 120, 180)' fill-opacity = '0.250000' points = '864.5,552.3 864.5,662.4 866.4,662.4 866.4,553.6 '/>
		<polygon fill = 'rgb( 31, 120, 180)' fill-opacity = '0.250000' points = '866.4,553.6 866.4,662.4 868.3,662.4 868.3,554.9 '/>
		<polygon fill = 'rgb( 31, 120, 180)' fill-opacity = '0.250000' points = '868.3,554.9 868.3,662.4 870.2,662.4 870.2,556.3 '/>
		<polygon fill = 'rgb( 31, 120, 180)' fill-opacity = '0.250000' points = '870.2,556.3 870.2,662.4 872.1,662.4 872.1,557.5 '/>
		<polygon fill = 'rgb( 31, 120, 180)' fill-opacity = '0.250000' points = '872.1,557.5 872.1,662.4 873.9,662.4 873.9,558.8 '/>
		<polygon fill = 'rgb( 31, 120, 180)' fill-opacity = '0.250000' points = '873.9,558.8 873.9,662.4 875.8,662.4 875.8,560.1 '/>
		<polygon fill = 'rgb( 31, 120, 180)' fill-opacity = '0.250000' points = '875.8,560.1 875.8,662.4 877.7,662.4 877.7,561.3 '/>
		<polygon fill = 'rgb( 31, 120, 180)' fill-opacity = '0.250000' points = '877.7,561.3 877.7,662.4 879.6,662.4 879.6,562.5 '/>
		<polygon fill = 'rgb( 31, 120, 180)' fill-opacity = '0.250000' points = '879.6,562.5 879.6,662.4 881.5,662.4 881.5,563.7 '/>
		<polygon fill = 'rgb( 31, 120, 180)' fill-opacity = '0.250000' points = '881.5,563.7 881.5,662.4 883.4,662.4 883.4,564.9 '/>
		<polygon fill = 'rgb( 31, 120, 180)' fill-opacity = '0.250000' points = '883.4,564.9 883.4,662.4 885.3,662.4 885.3,566.1 '/>
		<polygon fill = 'rgb( 31, 120, 180)' fill-opacity = '0.250000' points = '885.3,566.1 885.3,662.4 887.2,662.4 887.2,567.2 '/>
		<polygon fill = 'rgb( 31, 120, 180)' fill-opacity = '0.250000' points = '887.2,567.2 887.2,662.4 889.0,662.4 889.0,568.4 '/>
		<polygon fill = 'rgb( 31, 120, 180)' fill-opacity = '0.250000' points = '889.0,568.4 889.0,662.4 890.9,662.4 890.9,569.5 '/>
		<polygon fill = 'rgb( 31, 120, 180)' fill-opacity = '0.250000' points = '890.9,569.5 890.9,662.4 892.8,662.4 892.8,570.7 '/>
		<polygon fill = 'rgb( 31, 120, 180)' fill-opacity = '0.250000' points = '892.8,570.7 892.8,662.4 894.7,662.4 894.7,571.8 '/>
		<polygon fill = 'rgb( 31, 120, 180)' fill-opacity = '0.250000' points = '894.7,571.8 894.7,662.4 896.6,662.4 896.6,573.0 '/>
		<polygon fill = 'rgb( 31, 120, 180)' fill-opacity = '0.250000' points = '896.6,573.0 896.6,662.4 898.5,662.4 898.5,574.1 '/>
		<polygon fill = 'rgb( 31, 120, 180)' fill-opacity = '0.250000' points = '898.5,574.1 898.5,662.4 900.4,662.4 900.4,575.3 '/>
		<polygon fill = 'rgb( 31, 120, 180)' fill-opacity = '0.250000' points = '900.4,575.3 900.4,662.4 902.3,662.4 902.3,576.4 '/>
		<polygon fill = 'rgb( 31, 120, 180)' fill-opacity = '0.250000' points = '902.3,576.4 902.3,662.4 904.1,662.4 904.1,577.6 '/>
		<polygon fill = 'rgb( 31, 120, 180)' fill-opacity = '0.250000' points = '904.1,577.6 904.1,662.4 906.0,662.4 906.0,578.8 '/>
		<polygon fill = 'rgb( 31, 120, 180)' fill-opacity = '0.250000' points = '906.0,578.8 906.0,662.4 907.9,662.4 907.9,580.0 '/>
		<polygon fill = 'rgb( 31, 120, 180)' fill-opacity = '0.250000' points = '907.9,580.0 907.9,662.4 909.8,662.4 909.8,581.2 '/>
		<polygon fill = 'rgb( 31, 120, 180)' fill-opacity = '0.250000' points = '909.8,581.2 909.8,662.4 911.7,662.4 911.7,582.4 '/>
		<polygon fill = 'rgb( 31, 120, 180)' fill-opacity = '0.250000' points = '911.7,582.4 911.7,662.4 913.6,662.4 913.6,583.6 '/>
		<polygon fill = 'rgb( 31, 120, 180)' fill-opacity = '0.250000' points = '913.6,583.6 913.6,662.4 915.5,662.4 915.5,584.9 '/>
		<polygon fill = 'rgb( 31, 120, 180)' fill-opacity = '0.250000' points = '915.5,584.9 915.5,662.4 917.4,662.4 917.4,586.1 '/>
		<polygon fill = 'rgb( 31, 120, 180)' fill-opacity = '0.250000' points = '917.4,586.1 917.4,662.4 919.2,662.4 919.2,587.3 '/>
		<polygon fill = 'rgb( 31, 120, 180)' fill-opacity = '0.250000' points = '919.2,587.3 919.2,662.4 921.1,662.4 921.1,588.5 '/>
		<polygon fill = 'rgb( 31, 120, 180)' fill-opacity = '0.250000' points = '921.1,588.5 921.1,662.4 923.0,662.4 923.0,589.7 '/>
		<polygon fill = 'rgb( 31, 120, 180)' fill-opacity = '0.250000' points = '923.0,589.7 923.0,662.4 924.9,662.4 924.9,591.0 '/>
	</g>
</g>
	</g>
	<g id="gnuplot_plot_3" ><title>Point estimate</title>
<g fill="none" color="white" stroke="rgb( 31, 120, 180)" stroke-width="2.00" stroke-linecap="butt" stroke-linejoin="miter">
</g>
<g fill="none" color="black" stroke="currentColor" stroke-width="2.00" stroke-linecap="butt" stroke-linejoin="miter">
	<g transform="translate(1089.0,103.0)" stroke="none" fill="black" font-family="Helvetica" font-size="12.00"  text-anchor="start">
		<text><tspan font-family="Helvetica" >Point estimate</tspan></text>
	</g>
</g>
<g fill="none" color="black" stroke="currentColor" stroke-width="2.00" stroke-linecap="butt" stroke-linejoin="miter">
	<path stroke='rgb( 31, 120, 180)'  d='M1038.5,99.1 L1080.7,99.1 M518.3,662.4 L518.3,121.0  '/></g>
	</g>
	<g id="gnuplot_plot_4" ><title>Noise threshold</title>
<g fill="none" color="white" stroke="rgb( 31, 120, 180)" stroke-width="1.00" stroke-linecap="butt" stroke-linejoin="miter">
</g>
<g fill="none" color="black" stroke="currentColor" stroke-width="1.00" stroke-linecap="butt" stroke-linejoin="miter">
	<g transform="translate(1089.0,121.0)" stroke="none" fill="black" font-family="Helvetica" font-size="12.00"  text-anchor="start">
		<text><tspan font-family="Helvetica" >Noise threshold</tspan></text>
	</g>
</g>
<g fill="none" color="black" stroke="currentColor" stroke-width="1.00" stroke-linecap="butt" stroke-linejoin="miter">
	<g stroke='none' shape-rendering='crispEdges'>
		<polygon fill = 'rgb(227,  26,  28)' fill-opacity = '0.100000' points = '1038.5,121.6 1080.7,121.6 1080.7,112.6 1038.5,112.6 '/>
		<polygon fill = 'rgb(227,  26,  28)' fill-opacity = '0.100000' points = '945.4,54.1 945.4,662.4 1013.6,662.4 1013.6,54.1 '/>
	</g>
</g>
	</g>
<g fill="none" color="white" stroke="rgb(227,  26,  28)" stroke-width="2.00" stroke-linecap="butt" stroke-linejoin="miter">
</g>
<g fill="none" color="black" stroke="currentColor" stroke-width="2.00" stroke-linecap="butt" stroke-linejoin="miter">
</g>
<g fill="none" color="black" stroke="black" stroke-width="1.00" stroke-linecap="butt" stroke-linejoin="miter">
</g>
<g fill="none" color="black" stroke="currentColor" stroke-width="1.00" stroke-linecap="butt" stroke-linejoin="miter">
	<path stroke='black'  d='M71.9,54.1 L71.9,662.4 L1013.6,662.4 L1013.6,54.1 L71.9,54.1 Z  '/></g>
<g fill="none" color="black" stroke="currentColor" stroke-width="1.00" stroke-linecap="butt" stroke-linejoin="miter">
</g>
</g>
</svg>

