<?xml version="1.0" encoding="utf-8"  standalone="no"?>
<svg 
 viewBox="0 0 1280 720"
 xmlns="http://www.w3.org/2000/svg"
 xmlns:xlink="http://www.w3.org/1999/xlink"
>

<title>Gnuplot</title>
<desc>Produced by GNUPLOT 5.0 patchlevel 6 </desc>

<g id="gnuplot_canvas">

<rect x="0" y="0" width="1280" height="720" fill="none"/>
<defs>

	<circle id='gpDot' r='0.5' stroke-width='0.5'/>
	<path id='gpPt0' stroke-width='0.222' stroke='currentColor' d='M-1,0 h2 M0,-1 v2'/>
	<path id='gpPt1' stroke-width='0.222' stroke='currentColor' d='M-1,-1 L1,1 M1,-1 L-1,1'/>
	<path id='gpPt2' stroke-width='0.222' stroke='currentColor' d='M-1,0 L1,0 M0,-1 L0,1 M-1,-1 L1,1 M-1,1 L1,-1'/>
	<rect id='gpPt3' stroke-width='0.222' stroke='currentColor' x='-1' y='-1' width='2' height='2'/>
	<rect id='gpPt4' stroke-width='0.222' stroke='currentColor' fill='currentColor' x='-1' y='-1' width='2' height='2'/>
	<circle id='gpPt5' stroke-width='0.222' stroke='currentColor' cx='0' cy='0' r='1'/>
	<use xlink:href='#gpPt5' id='gpPt6' fill='currentColor' stroke='none'/>
	<path id='gpPt7' stroke-width='0.222' stroke='currentColor' d='M0,-1.33 L-1.33,0.67 L1.33,0.67 z'/>
	<use xlink:href='#gpPt7' id='gpPt8' fill='currentColor' stroke='none'/>
	<use xlink:href='#gpPt7' id='gpPt9' stroke='currentColor' transform='rotate(180)'/>
	<use xlink:href='#gpPt9' id='gpPt10' fill='currentColor' stroke='none'/>
	<use xlink:href='#gpPt3' id='gpPt11' stroke='currentColor' transform='rotate(45)'/>
	<use xlink:href='#gpPt11' id='gpPt12' fill='currentColor' stroke='none'/>
	<path id='gpPt13' stroke-width='0.222' stroke='currentColor' d='M0,1.330 L1.265,0.411 L0.782,-1.067 L-0.782,-1.076 L-1.265,0.411 z'/>
	<use xlink:href='#gpPt13' id='gpPt14' fill='currentColor' stroke='none'/>
	<filter id='textbox' filterUnits='objectBoundingBox' x='0' y='0' height='1' width='1'>
	  <feFlood flood-color='white' flood-opacity='1' result='bgnd'/>
	  <feComposite in='SourceGraphic' in2='bgnd' operator='atop'/>
	</filter>
	<filter id='greybox' filterUnits='objectBoundingBox' x='0' y='0' height='1' width='1'>
	  <feFlood flood-color='lightgrey' flood-opacity='1' result='grey'/>
	  <feComposite in='SourceGraphic' in2='grey' operator='atop'/>
	</filter>
</defs>
<g fill="none" color="white" stroke="currentColor" stroke-width="1.00" stroke-linecap="butt" stroke-linejoin="miter">
</g>
<g fill="none" color="black" stroke="currentColor" stroke-width="1.00" stroke-linecap="butt" stroke-linejoin="miter">
	<path stroke='black'  d='M71.9,662.4 L80.9,662.4  '/>	<g transform="translate(63.6,666.3)" stroke="none" fill="black" font-family="Helvetica" font-size="12.00"  text-anchor="end">
		<text><tspan font-family="Helvetica" > 0</tspan></text>
	</g>
</g>
<g fill="none" color="black" stroke="currentColor" stroke-width="1.00" stroke-linecap="butt" stroke-linejoin="miter">
	<path stroke='black'  d='M71.9,575.5 L80.9,575.5  '/>	<g transform="translate(63.6,579.4)" stroke="none" fill="black" font-family="Helvetica" font-size="12.00"  text-anchor="end">
		<text><tspan font-family="Helvetica" > 100</tspan></text>
	</g>
</g>
<g fill="none" color="black" stroke="currentColor" stroke-width="1.00" stroke-linecap="butt" stroke-linejoin="miter">
	<path stroke='black'  d='M71.9,488.6 L80.9,488.6  '/>	<g transform="translate(63.6,492.5)" stroke="none" fill="black" font-family="Helvetica" font-size="12.00"  text-anchor="end">
		<text><tspan font-family="Helvetica" > 200</tspan></text>
	</g>
</g>
<g fill="none" color="black" stroke="currentColor" stroke-width="1.00" stroke-linecap="butt" stroke-linejoin="miter">
	<path stroke='black'  d='M71.9,401.7 L80.9,401.7  '/>	<g transform="translate(63.6,405.6)" stroke="none" fill="black" font-family="Helvetica" font-size="12.00"  text-anchor="end">
		<text><tspan font-family="Helvetica" > 300</tspan></text>
	</g>
</g>
<g fill="none" color="black" stroke="currentColor" stroke-width="1.00" stroke-linecap="butt" stroke-linejoin="miter">
	<path stroke='black'  d='M71.9,314.8 L80.9,314.8  '/>	<g transform="translate(63.6,318.7)" stroke="none" fill="black" font-family="Helvetica" font-size="12.00"  text-anchor="end">
		<text><tspan font-family="Helvetica" > 400</tspan></text>
	</g>
</g>
<g fill="none" color="black" stroke="currentColor" stroke-width="1.00" stroke-linecap="butt" stroke-linejoin="miter">
	<path stroke='black'  d='M71.9,227.9 L80.9,227.9  '/>	<g transform="translate(63.6,231.8)" stroke="none" fill="black" font-family="Helvetica" font-size="12.00"  text-anchor="end">
		<text><tspan font-family="Helvetica" > 500</tspan></text>
	</g>
</g>
<g fill="none" color="black" stroke="currentColor" stroke-width="1.00" stroke-linecap="butt" stroke-linejoin="miter">
	<path stroke='black'  d='M71.9,141.0 L80.9,141.0  '/>	<g transform="translate(63.6,144.9)" stroke="none" fill="black" font-family="Helvetica" font-size="12.00"  text-anchor="end">
		<text><tspan font-family="Helvetica" > 600</tspan></text>
	</g>
</g>
<g fill="none" color="black" stroke="currentColor" stroke-width="1.00" stroke-linecap="butt" stroke-linejoin="miter">
	<path stroke='black'  d='M71.9,54.1 L80.9,54.1  '/>	<g transform="translate(63.6,58.0)" stroke="none" fill="black" font-family="Helvetica" font-size="12.00"  text-anchor="end">
		<text><tspan font-family="Helvetica" > 700</tspan></text>
	</g>
</g>
<g fill="none" color="black" stroke="currentColor" stroke-width="1.00" stroke-linecap="butt" stroke-linejoin="miter">
	<path stroke='black'  d='M183.0,662.4 L183.0,653.4  '/>	<g transform="translate(183.0,684.3)" stroke="none" fill="black" font-family="Helvetica" font-size="12.00"  text-anchor="middle">
		<text><tspan font-family="Helvetica" >-1.25</tspan></text>
	</g>
</g>
<g fill="none" color="black" stroke="currentColor" stroke-width="1.00" stroke-linecap="butt" stroke-linejoin="miter">
	<path stroke='black'  d='M352.4,662.4 L352.4,653.4  '/>	<g transform="translate(352.4,684.3)" stroke="none" fill="black" font-family="Helvetica" font-size="12.00"  text-anchor="middle">
		<text><tspan font-family="Helvetica" >-1.2</tspan></text>
	</g>
</g>
<g fill="none" color="black" stroke="currentColor" stroke-width="1.00" stroke-linecap="butt" stroke-linejoin="miter">
	<path stroke='black'  d='M521.8,662.4 L521.8,653.4  '/>	<g transform="translate(521.8,684.3)" stroke="none" fill="black" font-family="Helvetica" font-size="12.00"  text-anchor="middle">
		<text><tspan font-family="Helvetica" >-1.15</tspan></text>
	</g>
</g>
<g fill="none" color="black" stroke="currentColor" stroke-width="1.00" stroke-linecap="butt" stroke-linejoin="miter">
	<path stroke='black'  d='M691.1,662.4 L691.1,653.4  '/>	<g transform="translate(691.1,684.3)" stroke="none" fill="black" font-family="Helvetica" font-size="12.00"  text-anchor="middle">
		<text><tspan font-family="Helvetica" >-1.1</tspan></text>
	</g>
</g>
<g fill="none" color="black" stroke="currentColor" stroke-width="1.00" stroke-linecap="butt" stroke-linejoin="miter">
	<path stroke='black'  d='M860.5,662.4 L860.5,653.4  '/>	<g transform="translate(860.5,684.3)" stroke="none" fill="black" font-family="Helvetica" font-size="12.00"  text-anchor="middle">
		<text><tspan font-family="Helvetica" >-1.05</tspan></text>
	</g>
</g>
<g fill="none" color="black" stroke="currentColor" stroke-width="1.00" stroke-linecap="butt" stroke-linejoin="miter">
</g>
<g fill="none" color="black" stroke="currentColor" stroke-width="1.00" stroke-linecap="butt" stroke-linejoin="miter">
	<path stroke='black'  d='M71.9,54.1 L71.9,662.4 L1013.6,662.4 L1013.6,54.1 L71.9,54.1 Z  '/></g>
<g fill="none" color="black" stroke="currentColor" stroke-width="1.00" stroke-linecap="butt" stroke-linejoin="miter">
	<g transform="translate(17.0,358.3) rotate(270)" stroke="none" fill="black" font-family="Helvetica" font-size="12.00"  text-anchor="middle">
		<text><tspan font-family="Helvetica" >Density (a.u.)</tspan></text>
	</g>
</g>
<g fill="none" color="black" stroke="currentColor" stroke-width="1.00" stroke-linecap="butt" stroke-linejoin="miter">
	<g transform="translate(542.7,711.3)" stroke="none" fill="black" font-family="Helvetica" font-size="12.00"  text-anchor="middle">
		<text><tspan font-family="Helvetica" >Relative change (%)</tspan></text>
	</g>
</g>
<g fill="none" color="black" stroke="currentColor" stroke-width="1.00" stroke-linecap="butt" stroke-linejoin="miter">
	<g transform="translate(542.7,31.0)" stroke="none" fill="black" font-family="Helvetica" font-size="12.00"  text-anchor="middle">
		<text><tspan font-family="Helvetica" >language: ruby/parse error: c/examples/cluster.c: mean</tspan></text>
	</g>
</g>
	<g id="gnuplot_plot_1" ><title>Bootstrap distribution</title>
<g fill="none" color="white" stroke="black" stroke-width="2.00" stroke-linecap="butt" stroke-linejoin="miter">
</g>
<g fill="none" color="black" stroke="currentColor" stroke-width="2.00" stroke-linecap="butt" stroke-linejoin="miter">
	<g transform="translate(1089.0,67.0)" stroke="none" fill="black" font-family="Helvetica" font-size="12.00"  text-anchor="start">
		<text><tspan font-family="Helvetica" >Bootstrap distribution</tspan></text>
	</g>
</g>
<g fill="none" color="black" stroke="currentColor" stroke-width="2.00" stroke-linecap="butt" stroke-linejoin="miter">
	<path stroke='rgb( 31, 120, 180)'  d='M1038.5,63.1 L1080.7,63.1 M71.9,627.8 L73.8,626.9 L75.7,626.0 L77.6,625.2 L79.4,624.3 L81.3,623.3
		L83.2,622.4 L85.1,621.4 L87.0,620.4 L88.9,619.4 L90.8,618.4 L92.7,617.3 L94.5,616.2 L96.4,615.1
		L98.3,614.0 L100.2,612.9 L102.1,611.7 L104.0,610.5 L105.9,609.3 L107.8,608.0 L109.6,606.8 L111.5,605.5
		L113.4,604.2 L115.3,602.9 L117.2,601.6 L119.1,600.2 L121.0,598.9 L122.9,597.5 L124.7,596.1 L126.6,594.7
		L128.5,593.2 L130.4,591.8 L132.3,590.3 L134.2,588.8 L136.1,587.3 L138.0,585.7 L139.8,584.2 L141.7,582.6
		L143.6,580.9 L145.5,579.3 L147.4,577.5 L149.3,575.8 L151.2,574.0 L153.0,572.1 L154.9,570.3 L156.8,568.3
		L158.7,566.3 L160.6,564.3 L162.5,562.3 L164.4,560.2 L166.3,558.0 L168.1,555.9 L170.0,553.7 L171.9,551.4
		L173.8,549.2 L175.7,546.9 L177.6,544.6 L179.5,542.3 L181.4,540.1 L183.2,537.7 L185.1,535.4 L187.0,533.1
		L188.9,530.8 L190.8,528.5 L192.7,526.2 L194.6,523.9 L196.5,521.6 L198.3,519.3 L200.2,516.9 L202.1,514.6
		L204.0,512.2 L205.9,509.9 L207.8,507.4 L209.7,505.0 L211.6,502.5 L213.4,500.0 L215.3,497.5 L217.2,494.9
		L219.1,492.3 L221.0,489.7 L222.9,487.0 L224.8,484.2 L226.6,481.5 L228.5,478.7 L230.4,475.8 L232.3,472.9
		L234.2,470.0 L236.1,467.1 L238.0,464.1 L239.9,461.1 L241.7,458.1 L243.6,455.0 L245.5,451.9 L247.4,448.8
		L249.3,445.7 L251.2,442.5 L253.1,439.3 L255.0,436.1 L256.8,432.8 L258.7,429.6 L260.6,426.2 L262.5,422.9
		L264.4,419.4 L266.3,416.0 L268.2,412.5 L270.1,409.0 L271.9,405.5 L273.8,401.9 L275.7,398.3 L277.6,394.7
		L279.5,391.1 L281.4,387.5 L283.3,383.8 L285.2,380.1 L287.0,376.5 L288.9,372.8 L290.8,369.1 L292.7,365.5
		L294.6,361.8 L296.5,358.1 L298.4,354.5 L300.2,350.8 L302.1,347.2 L304.0,343.5 L305.9,339.9 L307.8,336.2
		L309.7,332.6 L311.6,328.9 L313.5,325.3 L315.3,321.6 L317.2,317.9 L319.1,314.3 L321.0,310.6 L322.9,306.9
		L324.8,303.3 L326.7,299.6 L328.6,295.9 L330.4,292.2 L332.3,288.5 L334.2,284.8 L336.1,281.0 L338.0,277.3
		L339.9,273.5 L341.8,269.8 L343.7,266.0 L345.5,262.3 L347.4,258.5 L349.3,254.8 L351.2,251.0 L353.1,247.3
		L355.0,243.5 L356.9,239.8 L358.8,236.1 L360.6,232.4 L362.5,228.8 L364.4,225.1 L366.3,221.5 L368.2,217.9
		L370.1,214.4 L372.0,210.9 L373.8,207.4 L375.7,204.0 L377.6,200.6 L379.5,197.3 L381.4,194.0 L383.3,190.8
		L385.2,187.7 L387.1,184.6 L388.9,181.5 L390.8,178.5 L392.7,175.6 L394.6,172.7 L396.5,169.8 L398.4,166.9
		L400.3,164.1 L402.2,161.3 L404.0,158.5 L405.9,155.8 L407.8,153.0 L409.7,150.2 L411.6,147.4 L413.5,144.5
		L415.4,141.7 L417.3,138.8 L419.1,135.9 L421.0,132.9 L422.9,130.0 L424.8,127.0 L426.7,124.0 L428.6,121.0
		L430.5,118.1 L432.4,115.1 L434.2,112.2 L436.1,109.3 L438.0,106.4 L439.9,103.7 L441.8,101.0 L443.7,98.4
		L445.6,95.8 L447.4,93.4 L449.3,91.2 L451.2,89.0 L453.1,87.0 L455.0,85.1 L456.9,83.3 L458.8,81.7
		L460.7,80.2 L462.5,78.8 L464.4,77.5 L466.3,76.4 L468.2,75.4 L470.1,74.5 L472.0,73.7 L473.9,73.0
		L475.8,72.4 L477.6,71.9 L479.5,71.5 L481.4,71.1 L483.3,70.7 L485.2,70.4 L487.1,70.2 L489.0,70.0
		L490.9,69.8 L492.7,69.7 L494.6,69.5 L496.5,69.4 L498.4,69.3 L500.3,69.3 L502.2,69.2 L504.1,69.1
		L506.0,69.1 L507.8,69.0 L509.7,69.0 L511.6,69.0 L513.5,69.0 L515.4,68.9 L517.3,69.0 L519.2,69.0
		L521.0,69.0 L522.9,69.1 L524.8,69.2 L526.7,69.4 L528.6,69.5 L530.5,69.7 L532.4,70.0 L534.3,70.3
		L536.1,70.6 L538.0,71.1 L539.9,71.5 L541.8,72.1 L543.7,72.7 L545.6,73.4 L547.5,74.2 L549.4,75.0
		L551.2,76.0 L553.1,77.0 L555.0,78.1 L556.9,79.3 L558.8,80.5 L560.7,81.8 L562.6,83.2 L564.5,84.7
		L566.3,86.2 L568.2,87.7 L570.1,89.3 L572.0,90.8 L573.9,92.4 L575.8,94.0 L577.7,95.6 L579.5,97.1
		L581.4,98.7 L583.3,100.2 L585.2,101.8 L587.1,103.3 L589.0,104.8 L590.9,106.3 L592.8,107.9 L594.6,109.4
		L596.5,111.0 L598.4,112.7 L600.3,114.3 L602.2,116.1 L604.1,117.9 L606.0,119.8 L607.9,121.8 L609.7,123.9
		L611.6,126.1 L613.5,128.4 L615.4,130.8 L617.3,133.3 L619.2,135.9 L621.1,138.5 L623.0,141.3 L624.8,144.1
		L626.7,146.9 L628.6,149.8 L630.5,152.8 L632.4,155.7 L634.3,158.7 L636.2,161.7 L638.1,164.7 L639.9,167.6
		L641.8,170.6 L643.7,173.5 L645.6,176.4 L647.5,179.3 L649.4,182.2 L651.3,185.0 L653.1,187.8 L655.0,190.7
		L656.9,193.5 L658.8,196.3 L660.7,199.1 L662.6,202.0 L664.5,204.8 L666.4,207.7 L668.2,210.7 L670.1,213.6
		L672.0,216.6 L673.9,219.7 L675.8,222.8 L677.7,225.9 L679.6,229.1 L681.5,232.3 L683.3,235.6 L685.2,238.9
		L687.1,242.2 L689.0,245.6 L690.9,249.0 L692.8,252.4 L694.7,255.8 L696.6,259.2 L698.4,262.6 L700.3,266.1
		L702.2,269.5 L704.1,272.9 L706.0,276.3 L707.9,279.7 L709.8,283.1 L711.7,286.5 L713.5,289.8 L715.4,293.1
		L717.3,296.4 L719.2,299.7 L721.1,302.9 L723.0,306.2 L724.9,309.4 L726.7,312.6 L728.6,315.7 L730.5,318.9
		L732.4,322.1 L734.3,325.3 L736.2,328.4 L738.1,331.6 L740.0,334.9 L741.8,338.1 L743.7,341.3 L745.6,344.6
		L747.5,347.9 L749.4,351.3 L751.3,354.6 L753.2,358.0 L755.1,361.4 L756.9,364.9 L758.8,368.3 L760.7,371.8
		L762.6,375.3 L764.5,378.8 L766.4,382.3 L768.3,385.7 L770.2,389.2 L772.0,392.7 L773.9,396.1 L775.8,399.6
		L777.7,403.0 L779.6,406.4 L781.5,409.7 L783.4,413.1 L785.3,416.3 L787.1,419.6 L789.0,422.8 L790.9,426.0
		L792.8,429.1 L794.7,432.2 L796.6,435.3 L798.5,438.3 L800.3,441.2 L802.2,444.1 L804.1,447.0 L806.0,449.8
		L807.9,452.6 L809.8,455.3 L811.7,458.0 L813.6,460.6 L815.4,463.2 L817.3,465.8 L819.2,468.3 L821.1,470.8
		L823.0,473.3 L824.9,475.8 L826.8,478.2 L828.7,480.6 L830.5,483.0 L832.4,485.3 L834.3,487.7 L836.2,490.0
		L838.1,492.3 L840.0,494.6 L841.9,496.9 L843.8,499.2 L845.6,501.4 L847.5,503.6 L849.4,505.9 L851.3,508.1
		L853.2,510.3 L855.1,512.4 L857.0,514.6 L858.9,516.8 L860.7,518.9 L862.6,521.0 L864.5,523.1 L866.4,525.2
		L868.3,527.3 L870.2,529.4 L872.1,531.4 L873.9,533.4 L875.8,535.4 L877.7,537.3 L879.6,539.2 L881.5,541.1
		L883.4,543.0 L885.3,544.8 L887.2,546.7 L889.0,548.4 L890.9,550.2 L892.8,551.9 L894.7,553.6 L896.6,555.3
		L898.5,557.0 L900.4,558.6 L902.3,560.2 L904.1,561.7 L906.0,563.3 L907.9,564.8 L909.8,566.3 L911.7,567.8
		L913.6,569.3 L915.5,570.7 L917.4,572.1 L919.2,573.5 L921.1,574.9 L923.0,576.3 L924.9,577.6 L926.8,578.9
		L928.7,580.3 L930.6,581.6 L932.5,582.9 L934.3,584.2 L936.2,585.5 L938.1,586.7 L940.0,588.0 L941.9,589.3
		L943.8,590.5 L945.7,591.8 L947.5,593.0 L949.4,594.2 L951.3,595.4 L953.2,596.6 L955.1,597.8 L957.0,599.0
		L958.9,600.2 L960.8,601.3 L962.6,602.4 L964.5,603.5 L966.4,604.6 L968.3,605.7 L970.2,606.7 L972.1,607.8
		L974.0,608.8 L975.9,609.8 L977.7,610.8 L979.6,611.7 L981.5,612.7 L983.4,613.6 L985.3,614.5 L987.2,615.4
		L989.1,616.3 L991.0,617.2 L992.8,618.1 L994.7,618.9 L996.6,619.7 L998.5,620.6 L1000.4,621.4 L1002.3,622.2
		L1004.2,623.0 L1006.1,623.8 L1007.9,624.5 L1009.8,625.3 L1011.7,626.0 L1013.6,626.8  '/></g>
	</g>
	<g id="gnuplot_plot_2" ><title>Confidence interval</title>
<g fill="none" color="white" stroke="rgb( 31, 120, 180)" stroke-width="1.00" stroke-linecap="butt" stroke-linejoin="miter">
</g>
<g fill="none" color="black" stroke="currentColor" stroke-width="1.00" stroke-linecap="butt" stroke-linejoin="miter">
	<g transform="translate(1089.0,85.0)" stroke="none" fill="black" font-family="Helvetica" font-size="12.00"  text-anchor="start">
		<text><tspan font-family="Helvetica" >Confidence interval</tspan></text>
	</g>
</g>
<g fill="none" color="black" stroke="currentColor" stroke-width="1.00" stroke-linecap="butt" stroke-linejoin="miter">
	<g stroke='none' shape-rendering='crispEdges'>
		<polygon fill = 'rgb( 31, 120, 180)' fill-opacity = '0.250000' points = '1038.5,85.6 1080.7,85.6 1080.7,76.6 1038.5,76.6 '/>
		<polygon fill = 'rgb( 31, 120, 180)' fill-opacity = '0.250000' points = '158.7,566.3 158.7,662.4 160.6,662.4 160.6,564.3 '/>
		<polygon fill = 'rgb( 31, 120, 180)' fill-opacity = '0.250000' points = '160.6,564.3 160.6,662.4 162.5,662.4 162.5,562.3 '/>
		<polygon fill = 'rgb( 31, 120, 180)' fill-opacity = '0.250000' points = '162.5,562.3 162.5,662.4 164.4,662.4 164.4,560.2 '/>
		<polygon fill = 'rgb( 31, 120, 180)' fill-opacity = '0.250000' points = '164.4,560.2 164.4,662.4 166.3,662.4 166.3,558.0 '/>
		<polygon fill = 'rgb( 31, 120, 180)' fill-opacity = '0.250000' points = '166.3,558.0 166.3,662.4 168.1,662.4 168.1,555.9 '/>
		<polygon fill = 'rgb( 31, 120, 180)' fill-opacity = '0.250000' points = '168.1,555.9 168.1,662.4 170.0,662.4 170.0,553.7 '/>
		<polygon fill = 'rgb( 31, 120, 180)' fill-opacity = '0.250000' points = '170.0,553.7 170.0,662.4 171.9,662.4 171.9,551.4 '/>
		<polygon fill = 'rgb( 31, 120, 180)' fill-opacity = '0.250000' points = '171.9,551.4 171.9,662.4 173.8,662.4 173.8,549.2 '/>
		<polygon fill = 'rgb( 31, 120, 180)' fill-opacity = '0.250000' points = '173.8,549.2 173.8,662.4 175.7,662.4 175.7,546.9 '/>
		<polygon fill = 'rgb( 31, 120, 180)' fill-opacity = '0.250000' points = '175.7,546.9 175.7,662.4 177.6,662.4 177.6,544.6 '/>
		<polygon fill = 'rgb( 31, 120, 180)' fill-opacity = '0.250000' points = '177.6,544.6 177.6,662.4 179.5,662.4 179.5,542.3 '/>
		<polygon fill = 'rgb( 31, 120, 180)' fill-opacity = '0.250000' points = '179.5,542.3 179.5,662.4 181.4,662.4 181.4,540.1 '/>
		<polygon fill = 'rgb( 31, 120, 180)' fill-opacity = '0.250000' points = '181.4,540.1 181.4,662.4 183.2,662.4 183.2,537.7 '/>
		<polygon fill = 'rgb( 31, 120, 180)' fill-opacity = '0.250000' points = '183.2,537.7 183.2,662.4 185.1,662.4 185.1,535.4 '/>
		<polygon fill = 'rgb( 31, 120, 180)' fill-opacity = '0.250000' points = '185.1,535.4 185.1,662.4 187.0,662.4 187.0,533.1 '/>
		<polygon fill = 'rgb( 31, 120, 180)' fill-opacity = '0.250000' points = '187.0,533.1 187.0,662.4 188.9,662.4 188.9,530.8 '/>
		<polygon fill = 'rgb( 31, 120, 180)' fill-opacity = '0.250000' points = '188.9,530.8 188.9,662.4 190.8,662.4 190.8,528.5 '/>
		<polygon fill = 'rgb( 31, 120, 180)' fill-opacity = '0.250000' points = '190.8,528.5 190.8,662.4 192.7,662.4 192.7,526.2 '/>
		<polygon fill = 'rgb( 31, 120, 180)' fill-opacity = '0.250000' points = '192.7,526.2 192.7,662.4 194.6,662.4 194.6,523.9 '/>
		<polygon fill = 'rgb( 31, 120, 180)' fill-opacity = '0.250000' points = '194.6,523.9 194.6,662.4 196.5,662.4 196.5,521.6 '/>
		<polygon fill = 'rgb( 31, 120, 180)' fill-opacity = '0.250000' points = '196.5,521.6 196.5,662.4 198.3,662.4 198.3,519.3 '/>
		<polygon fill = 'rgb( 31, 120, 180)' fill-opacity = '0.250000' points = '198.3,519.3 198.3,662.4 200.2,662.4 200.2,516.9 '/>
		<polygon fill = 'rgb( 31, 120, 180)' fill-opacity = '0.250000' points = '200.2,516.9 200.2,662.4 202.1,662.4 202.1,514.6 '/>
		<polygon fill = 'rgb( 31, 120, 180)' fill-opacity = '0.250000' points = '202.1,514.6 202.1,662.4 204.0,662.4 204.0,512.2 '/>
		<polygon fill = 'rgb( 31, 120, 180)' fill-opacity = '0.250000' points = '204.0,512.2 204.0,662.4 205.9,662.4 205.9,509.9 '/>
		<polygon fill = 'rgb( 31, 120, 180)' fill-opacity = '0.250000' points = '205.9,509.9 205.9,662.4 207.8,662.4 207.8,507.4 '/>
		<polygon fill = 'rgb( 31, 120, 180)' fill-opacity = '0.250000' points = '207.8,507.4 207.8,662.4 209.7,662.4 209.7,505.0 '/>
		<polygon fill = 'rgb( 31, 120, 180)' fill-opacity = '0.250000' points = '209.7,505.0 209.7,662.4 211.6,662.4 211.6,502.5 '/>
		<polygon fill = 'rgb( 31, 120, 180)' fill-opacity = '0.250000' points = '211.6,502.5 211.6,662.4 213.4,662.4 213.4,500.0 '/>
		<polygon fill = 'rgb( 31, 120, 180)' fill-opacity = '0.250000' points = '213.4,500.0 213.4,662.4 215.3,662.4 215.3,497.5 '/>
		<polygon fill = 'rgb( 31, 120, 180)' fill-opacity = '0.250000' points = '215.3,497.5 215.3,662.4 217.2,662.4 217.2,494.9 '/>
		<polygon fill = 'rgb( 31, 120, 180)' fill-opacity = '0.250000' points = '217.2,494.9 217.2,662.4 219.1,662.4 219.1,492.3 '/>
		<polygon fill = 'rgb( 31, 120, 180)' fill-opacity = '0.250000' points = '219.1,492.3 219.1,662.4 221.0,662.4 221.0,489.7 '/>
		<polygon fill = 'rgb( 31, 120, 180)' fill-opacity = '0.250000' points = '221.0,489.7 221.0,662.4 222.9,662.4 222.9,487.0 '/>
		<polygon fill = 'rgb( 31, 120, 180)' fill-opacity = '0.250000' points = '222.9,487.0 222.9,662.4 224.8,662.4 224.8,484.2 '/>
		<polygon fill = 'rgb( 31, 120, 180)' fill-opacity = '0.250000' points = '224.8,484.2 224.8,662.4 226.6,662.4 226.6,481.5 '/>
		<polygon fill = 'rgb( 31, 120, 180)' fill-opacity = '0.250000' points = '226.6,481.5 226.6,662.4 228.5,662.4 228.5,478.7 '/>
		<polygon fill = 'rgb( 31, 120, 180)' fill-opacity = '0.250000' points = '228.5,478.7 228.5,662.4 230.4,662.4 230.4,475.8 '/>
		<polygon fill = 'rgb( 31, 120, 180)' fill-opacity = '0.250000' points = '230.4,475.8 230.4,662.4 232.3,662.4 232.3,472.9 '/>
		<polygon fill = 'rgb( 31, 120, 180)' fill-opacity = '0.250000' points = '232.3,472.9 232.3,662.4 234.2,662.4 234.2,470.0 '/>
		<polygon fill = 'rgb( 31, 120, 180)' fill-opacity = '0.250000' points = '234.2,470.0 234.2,662.4 236.1,662.4 236.1,467.1 '/>
		<polygon fill = 'rgb( 31, 120, 180)' fill-opacity = '0.250000' points = '236.1,467.1 236.1,662.4 238.0,662.4 238.0,464.1 '/>
		<polygon fill = 'rgb( 31, 120, 180)' fill-opacity = '0.250000' points = '238.0,464.1 238.0,662.4 239.9,662.4 239.9,461.1 '/>
		<polygon fill = 'rgb( 31, 120, 180)' fill-opacity = '0.250000' points = '239.9,461.1 239.9,662.4 241.7,662.4 241.7,458.1 '/>
		<polygon fill = 'rgb( 31, 120, 180)' fill-opacity = '0.250000' points = '241.7,458.1 241.7,662.4 243.6,662.4 243.6,455.0 '/>
		<polygon fill = 'rgb( 31, 120, 180)' fill-opacity = '0.250000' points = '243.6,455.0 243.6,662.4 245.5,662.4 245.5,451.9 '/>
		<polygon fill = 'rgb( 31, 120, 180)' fill-opacity = '0.250000' points = '245.5,451.9 245.5,662.4 247.4,662.4 247.4,448.8 '/>
		<polygon fill = 'rgb( 31, 120, 180)' fill-opacity = '0.250000' points = '247.4,448.8 247.4,662.4 249.3,662.4 249.3,445.7 '/>
		<polygon fill = 'rgb( 31, 120, 180)' fill-opacity = '0.250000' points = '249.3,445.7 249.3,662.4 251.2,662.4 251.2,442.5 '/>
		<polygon fill = 'rgb( 31, 120, 180)' fill-opacity = '0.250000' points = '251.2,442.5 251.2,662.4 253.1,662.4 253.1,439.3 '/>
		<polygon fill = 'rgb( 31, 120, 180)' fill-opacity = '0.250000' points = '253.1,439.3 253.1,662.4 255.0,662.4 255.0,436.1 '/>
		<polygon fill = 'rgb( 31, 120, 180)' fill-opacity = '0.250000' points = '255.0,436.1 255.0,662.4 256.8,662.4 256.8,432.8 '/>
		<polygon fill = 'rgb( 31, 120, 180)' fill-opacity = '0.250000' points = '256.8,432.8 256.8,662.4 258.7,662.4 258.7,429.6 '/>
		<polygon fill = 'rgb( 31, 120, 180)' fill-opacity = '0.250000' points = '258.7,429.6 258.7,662.4 260.6,662.4 260.6,426.2 '/>
		<polygon fill = 'rgb( 31, 120, 180)' fill-opacity = '0.250000' points = '260.6,426.2 260.6,662.4 262.5,662.4 262.5,422.9 '/>
		<polygon fill = 'rgb( 31, 120, 180)' fill-opacity = '0.250000' points = '262.5,422.9 262.5,662.4 264.4,662.4 264.4,419.4 '/>
		<polygon fill = 'rgb( 31, 120, 180)' fill-opacity = '0.250000' points = '264.4,419.4 264.4,662.4 266.3,662.4 266.3,416.0 '/>
		<polygon fill = 'rgb( 31, 120, 180)' fill-opacity = '0.250000' points = '266.3,416.0 266.3,662.4 268.2,662.4 268.2,412.5 '/>
		<polygon fill = 'rgb( 31, 120, 180)' fill-opacity = '0.250000' points = '268.2,412.5 268.2,662.4 270.1,662.4 270.1,409.0 '/>
		<polygon fill = 'rgb( 31, 120, 180)' fill-opacity = '0.250000' points = '270.1,409.0 270.1,662.4 271.9,662.4 271.9,405.5 '/>
		<polygon fill = 'rgb( 31, 120, 180)' fill-opacity = '0.250000' points = '271.9,405.5 271.9,662.4 273.8,662.4 273.8,401.9 '/>
		<polygon fill = 'rgb( 31, 120, 180)' fill-opacity = '0.250000' points = '273.8,401.9 273.8,662.4 275.7,662.4 275.7,398.3 '/>
		<polygon fill = 'rgb( 31, 120, 180)' fill-opacity = '0.250000' points = '275.7,398.3 275.7,662.4 277.6,662.4 277.6,394.7 '/>
		<polygon fill = 'rgb( 31, 120, 180)' fill-opacity = '0.250000' points = '277.6,394.7 277.6,662.4 279.5,662.4 279.5,391.1 '/>
		<polygon fill = 'rgb( 31, 120, 180)' fill-opacity = '0.250000' points = '279.5,391.1 279.5,662.4 281.4,662.4 281.4,387.5 '/>
		<polygon fill = 'rgb( 31, 120, 180)' fill-opacity = '0.250000' points = '281.4,387.5 281.4,662.4 283.3,662.4 283.3,383.8 '/>
		<polygon fill = 'rgb( 31, 120, 180)' fill-opacity = '0.250000' points = '283.3,383.8 283.3,662.4 285.2,662.4 285.2,380.1 '/>
		<polygon fill = 'rgb( 31, 120, 180)' fill-opacity = '0.250000' points = '285.2,380.1 285.2,662.4 287.0,662.4 287.0,376.5 '/>
		<polygon fill = 'rgb( 31, 120, 180)' fill-opacity = '0.250000' points = '287.0,376.5 287.0,662.4 288.9,662.4 288.9,372.8 '/>
		<polygon fill = 'rgb( 31, 120, 180)' fill-opacity = '0.250000' points = '288.9,372.8 288.9,662.4 290.8,662.4 290.8,369.1 '/>
		<polygon fill = 'rgb( 31, 120, 180)' fill-opacity = '0.250000' points = '290.8,369.1 290.8,662.4 292.7,662.4 292.7,365.5 '/>
		<polygon fill = 'rgb( 31, 120, 180)' fill-opacity = '0.250000' points = '292.7,365.5 292.7,662.4 294.6,662.4 294.6,361.8 '/>
		<polygon fill = 'rgb( 31, 120, 180)' fill-opacity = '0.250000' points = '294.6,361.8 294.6,662.4 296.5,662.4 296.5,358.1 '/>
		<polygon fill = 'rgb( 31, 120, 180)' fill-opacity = '0.250000' points = '296.5,358.1 296.5,662.4 298.4,662.4 298.4,354.5 '/>
		<polygon fill = 'rgb( 31, 120, 180)' fill-opacity = '0.250000' points = '298.4,354.5 298.4,662.4 300.2,662.4 300.2,350.8 '/>
		<polygon fill = 'rgb( 31, 120, 180)' fill-opacity = '0.250000' points = '300.2,350.8 300.2,662.4 302.1,662.4 302.1,347.2 '/>
		<polygon fill = 'rgb( 31, 120, 180)' fill-opacity = '0.250000' points = '302.1,347.2 302.1,662.4 304.0,662.4 304.0,343.5 '/>
		<polygon fill = 'rgb( 31, 120, 180)' fill-opacity = '0.250000' points = '304.0,343.5 304.0,662.4 305.9,662.4 305.9,339.9 '/>
		<polygon fill = 'rgb( 31, 120, 180)' fill-opacity = '0.250000' points = '305.9,339.9 305.9,662.4 307.8,662.4 307.8,336.2 '/>
		<polygon fill = 'rgb( 31, 120, 180)' fill-opacity = '0.250000' points = '307.8,336.2 307.8,662.4 309.7,662.4 309.7,332.6 '/>
		<polygon fill = 'rgb( 31, 120, 180)' fill-opacity = '0.250000' points = '309.7,332.6 309.7,662.4 311.6,662.4 311.6,328.9 '/>
		<polygon fill = 'rgb( 31, 120, 180)' fill-opacity = '0.250000' points = '311.6,328.9 311.6,662.4 313.5,662.4 313.5,325.3 '/>
		<polygon fill = 'rgb( 31, 120, 180)' fill-opacity = '0.250000' points = '313.5,325.3 313.5,662.4 315.3,662.4 315.3,321.6 '/>
		<polygon fill = 'rgb( 31, 120, 180)' fill-opacity = '0.250000' points = '315.3,321.6 315.3,662.4 317.2,662.4 317.2,317.9 '/>
		<polygon fill = 'rgb( 31, 120, 180)' fill-opacity = '0.250000' points = '317.2,317.9 317.2,662.4 319.1,662.4 319.1,314.3 '/>
		<polygon fill = 'rgb( 31, 120, 180)' fill-opacity = '0.250000' points = '319.1,314.3 319.1,662.4 321.0,662.4 321.0,310.6 '/>
		<polygon fill = 'rgb( 31, 120, 180)' fill-opacity = '0.250000' points = '321.0,310.6 321.0,662.4 322.9,662.4 322.9,306.9 '/>
		<polygon fill = 'rgb( 31, 120, 180)' fill-opacity = '0.250000' points = '322.9,306.9 322.9,662.4 324.8,662.4 324.8,303.3 '/>
		<polygon fill = 'rgb( 31, 120, 180)' fill-opacity = '0.250000' points = '324.8,303.3 324.8,662.4 326.7,662.4 326.7,299.6 '/>
		<polygon fill = 'rgb( 31, 120, 180)' fill-opacity = '0.250000' points = '326.7,299.6 326.7,662.4 328.6,662.4 328.6,295.9 '/>
		<polygon fill = 'rgb( 31, 120, 180)' fill-opacity = '0.250000' points = '328.6,295.9 328.6,662.4 330.4,662.4 330.4,292.2 '/>
		<polygon fill = 'rgb( 31, 120, 180)' fill-opacity = '0.250000' points = '330.4,292.2 330.4,662.4 332.3,662.4 332.3,288.5 '/>
		<polygon fill = 'rgb( 31, 120, 180)' fill-opacity = '0.250000' points = '332.3,288.5 332.3,662.4 334.2,662.4 334.2,284.8 '/>
		<polygon fill = 'rgb( 31, 120, 180)' fill-opacity = '0.250000' points = '334.2,284.8 334.2,662.4 336.1,662.4 336.1,281.0 '/>
		<polygon fill = 'rgb( 31, 120, 180)' fill-opacity = '0.250000' points = '336.1,281.0 336.1,662.4 338.0,662.4 338.0,277.3 '/>
		<polygon fill = 'rgb( 31, 120, 180)' fill-opacity = '0.250000' points = '338.0,277.3 338.0,662.4 339.9,662.4 339.9,273.5 '/>
		<polygon fill = 'rgb( 31, 120, 180)' fill-opacity = '0.250000' points = '339.9,273.5 339.9,662.4 341.8,662.4 341.8,269.8 '/>
		<polygon fill = 'rgb( 31, 120, 180)' fill-opacity = '0.250000' points = '341.8,269.8 341.8,662.4 343.7,662.4 343.7,266.0 '/>
		<polygon fill = 'rgb( 31, 120, 180)' fill-opacity = '0.250000' points = '343.7,266.0 343.7,662.4 345.5,662.4 345.5,262.3 '/>
		<polygon fill = 'rgb( 31, 120, 180)' fill-opacity = '0.250000' points = '345.5,262.3 345.5,662.4 347.4,662.4 347.4,258.5 '/>
		<polygon fill = 'rgb( 31, 120, 180)' fill-opacity = '0.250000' points = '347.4,258.5 347.4,662.4 349.3,662.4 349.3,254.8 '/>
		<polygon fill = 'rgb( 31, 120, 180)' fill-opacity = '0.250000' points = '349.3,254.8 349.3,662.4 351.2,662.4 351.2,251.0 '/>
		<polygon fill = 'rgb( 31, 120, 180)' fill-opacity = '0.250000' points = '351.2,251.0 351.2,662.4 353.1,662.4 353.1,247.3 '/>
		<polygon fill = 'rgb( 31, 120, 180)' fill-opacity = '0.250000' points = '353.1,247.3 353.1,662.4 355.0,662.4 355.0,243.5 '/>
		<polygon fill = 'rgb( 31, 120, 180)' fill-opacity = '0.250000' points = '355.0,243.5 355.0,662.4 356.9,662.4 356.9,239.8 '/>
		<polygon fill = 'rgb( 31, 120, 180)' fill-opacity = '0.250000' points = '356.9,239.8 356.9,662.4 358.8,662.4 358.8,236.1 '/>
		<polygon fill = 'rgb( 31, 120, 180)' fill-opacity = '0.250000' points = '358.8,236.1 358.8,662.4 360.6,662.4 360.6,232.4 '/>
		<polygon fill = 'rgb( 31, 120, 180)' fill-opacity = '0.250000' points = '360.6,232.4 360.6,662.4 362.5,662.4 362.5,228.8 '/>
		<polygon fill = 'rgb( 31, 120, 180)' fill-opacity = '0.250000' points = '362.5,228.8 362.5,662.4 364.4,662.4 364.4,225.1 '/>
		<polygon fill = 'rgb( 31, 120, 180)' fill-opacity = '0.250000' points = '364.4,225.1 364.4,662.4 366.3,662.4 366.3,221.5 '/>
		<polygon fill = 'rgb( 31, 120, 180)' fill-opacity = '0.250000' points = '366.3,221.5 366.3,662.4 368.2,662.4 368.2,217.9 '/>
		<polygon fill = 'rgb( 31, 120, 180)' fill-opacity = '0.250000' points = '368.2,217.9 368.2,662.4 370.1,662.4 370.1,214.4 '/>
		<polygon fill = 'rgb( 31, 120, 180)' fill-opacity = '0.250000' points = '370.1,214.4 370.1,662.4 372.0,662.4 372.0,210.9 '/>
		<polygon fill = 'rgb( 31, 120, 180)' fill-opacity = '0.250000' points = '372.0,210.9 372.0,662.4 373.8,662.4 373.8,207.4 '/>
		<polygon fill = 'rgb( 31, 120, 180)' fill-opacity = '0.250000' points = '373.8,207.4 373.8,662.4 375.7,662.4 375.7,204.0 '/>
		<polygon fill = 'rgb( 31, 120, 180)' fill-opacity = '0.250000' points = '375.7,204.0 375.7,662.4 377.6,662.4 377.6,200.6 '/>
		<polygon fill = 'rgb( 31, 120, 180)' fill-opacity = '0.250000' points = '377.6,200.6 377.6,662.4 379.5,662.4 379.5,197.3 '/>
		<polygon fill = 'rgb( 31, 120, 180)' fill-opacity = '0.250000' points = '379.5,197.3 379.5,662.4 381.4,662.4 381.4,194.0 '/>
		<polygon fill = 'rgb( 31, 120, 180)' fill-opacity = '0.250000' points = '381.4,194.0 381.4,662.4 383.3,662.4 383.3,190.8 '/>
		<polygon fill = 'rgb( 31, 120, 180)' fill-opacity = '0.250000' points = '383.3,190.8 383.3,662.4 385.2,662.4 385.2,187.7 '/>
		<polygon fill = 'rgb( 31, 120, 180)' fill-opacity = '0.250000' points = '385.2,187.7 385.2,662.4 387.1,662.4 387.1,184.6 '/>
		<polygon fill = 'rgb( 31, 120, 180)' fill-opacity = '0.250000' points = '387.1,184.6 387.1,662.4 388.9,662.4 388.9,181.5 '/>
		<polygon fill = 'rgb( 31, 120, 180)' fill-opacity = '0.250000' points = '388.9,181.5 388.9,662.4 390.8,662.4 390.8,178.5 '/>
		<polygon fill = 'rgb( 31, 120, 180)' fill-opacity = '0.250000' points = '390.8,178.5 390.8,662.4 392.7,662.4 392.7,175.6 '/>
		<polygon fill = 'rgb( 31, 120, 180)' fill-opacity = '0.250000' points = '392.7,175.6 392.7,662.4 394.6,662.4 394.6,172.7 '/>
		<polygon fill = 'rgb( 31, 120, 180)' fill-opacity = '0.250000' points = '394.6,172.7 394.6,662.4 396.5,662.4 396.5,169.8 '/>
		<polygon fill = 'rgb( 31, 120, 180)' fill-opacity = '0.250000' points = '396.5,169.8 396.5,662.4 398.4,662.4 398.4,166.9 '/>
		<polygon fill = 'rgb( 31, 120, 180)' fill-opacity = '0.250000' points = '398.4,166.9 398.4,662.4 400.3,662.4 400.3,164.1 '/>
		<polygon fill = 'rgb( 31, 120, 180)' fill-opacity = '0.250000' points = '400.3,164.1 400.3,662.4 402.2,662.4 402.2,161.3 '/>
		<polygon fill = 'rgb( 31, 120, 180)' fill-opacity = '0.250000' points = '402.2,161.3 402.2,662.4 404.0,662.4 404.0,158.5 '/>
		<polygon fill = 'rgb( 31, 120, 180)' fill-opacity = '0.250000' points = '404.0,158.5 404.0,662.4 405.9,662.4 405.9,155.8 '/>
		<polygon fill = 'rgb( 31, 120, 180)' fill-opacity = '0.250000' points = '405.9,155.8 405.9,662.4 407.8,662.4 407.8,153.0 '/>
		<polygon fill = 'rgb( 31, 120, 180)' fill-opacity = '0.250000' points = '407.8,153.0 407.8,662.4 409.7,662.4 409.7,150.2 '/>
		<polygon fill = 'rgb( 31, 120, 180)' fill-opacity = '0.250000' points = '409.7,150.2 409.7,662.4 411.6,662.4 411.6,147.4 '/>
		<polygon fill = 'rgb( 31, 120, 180)' fill-opacity = '0.250000' points = '411.6,147.4 411.6,662.4 413.5,662.4 413.5,144.5 '/>
		<polygon fill = 'rgb( 31, 120, 180)' fill-opacity = '0.250000' points = '413.5,144.5 413.5,662.4 415.4,662.4 415.4,141.7 '/>
		<polygon fill = 'rgb( 31, 120, 180)' fill-opacity = '0.250000' points = '415.4,141.7 415.4,662.4 417.3,662.4 417.3,138.8 '/>
		<polygon fill = 'rgb( 31, 120, 180)' fill-opacity = '0.250000' points = '417.3,138.8 417.3,662.4 419.1,662.4 419.1,135.9 '/>
		<polygon fill = 'rgb( 31, 120, 180)' fill-opacity = '0.250000' points = '419.1,135.9 419.1,662.4 421.0,662.4 421.0,132.9 '/>
		<polygon fill = 'rgb( 31, 120, 180)' fill-opacity = '0.250000' points = '421.0,132.9 421.0,662.4 422.9,662.4 422.9,130.0 '/>
		<polygon fill = 'rgb( 31, 120, 180)' fill-opacity = '0.250000' points = '422.9,130.0 422.9,662.4 424.8,662.4 424.8,127.0 '/>
		<polygon fill = 'rgb( 31, 120, 180)' fill-opacity = '0.250000' points = '424.8,127.0 424.8,662.4 426.7,662.4 426.7,124.0 '/>
		<polygon fill = 'rgb( 31, 120, 180)' fill-opacity = '0.250000' points = '426.7,124.0 426.7,662.4 428.6,662.4 428.6,121.0 '/>
		<polygon fill = 'rgb( 31, 120, 180)' fill-opacity = '0.250000' points = '428.6,121.0 428.6,662.4 430.5,662.4 430.5,118.1 '/>
		<polygon fill = 'rgb( 31, 120, 180)' fill-opacity = '0.250000' points = '430.5,118.1 430.5,662.4 432.4,662.4 432.4,115.1 '/>
		<polygon fill = 'rgb( 31, 120, 180)' fill-opacity = '0.250000' points = '432.4,115.1 432.4,662.4 434.2,662.4 434.2,112.2 '/>
		<polygon fill = 'rgb( 31, 120, 180)' fill-opacity = '0.250000' points = '434.2,112.2 434.2,662.4 436.1,662.4 436.1,109.3 '/>
		<polygon fill = 'rgb( 31, 120, 180)' fill-opacity = '0.250000' points = '436.1,109.3 436.1,662.4 438.0,662.4 438.0,106.4 '/>
		<polygon fill = 'rgb( 31, 120, 180)' fill-opacity = '0.250000' points = '438.0,106.4 438.0,662.4 439.9,662.4 439.9,103.7 '/>
		<polygon fill = 'rgb( 31, 120, 180)' fill-opacity = '0.250000' points = '439.9,103.7 439.9,662.4 441.8,662.4 441.8,101.0 '/>
		<polygon fill = 'rgb( 31, 120, 180)' fill-opacity = '0.250000' points = '441.8,101.0 441.8,662.4 443.7,662.4 443.7,98.4 '/>
		<polygon fill = 'rgb( 31, 120, 180)' fill-opacity = '0.250000' points = '443.7,98.4 443.7,662.4 445.6,662.4 445.6,95.8 '/>
		<polygon fill = 'rgb( 31, 120, 180)' fill-opacity = '0.250000' points = '445.6,95.8 445.6,662.4 447.4,662.4 447.4,93.4 '/>
		<polygon fill = 'rgb( 31, 120, 180)' fill-opacity = '0.250000' points = '447.4,93.4 447.4,662.4 449.3,662.4 449.3,91.2 '/>
		<polygon fill = 'rgb( 31, 120, 180)' fill-opacity = '0.250000' points = '449.3,91.2 449.3,662.4 451.2,662.4 451.2,89.0 '/>
		<polygon fill = 'rgb( 31, 120, 180)' fill-opacity = '0.250000' points = '451.2,89.0 451.2,662.4 453.1,662.4 453.1,87.0 '/>
		<polygon fill = 'rgb( 31, 120, 180)' fill-opacity = '0.250000' points = '453.1,87.0 453.1,662.4 455.0,662.4 455.0,85.1 '/>
		<polygon fill = 'rgb( 31, 120, 180)' fill-opacity = '0.250000' points = '455.0,85.1 455.0,662.4 456.9,662.4 456.9,83.3 '/>
		<polygon fill = 'rgb( 31, 120, 180)' fill-opacity = '0.250000' points = '456.9,83.3 456.9,662.4 458.8,662.4 458.8,81.7 '/>
		<polygon fill = 'rgb( 31, 120, 180)' fill-opacity = '0.250000' points = '458.8,81.7 458.8,662.4 460.7,662.4 460.7,80.2 '/>
		<polygon fill = 'rgb( 31, 120, 180)' fill-opacity = '0.250000' points = '460.7,80.2 460.7,662.4 462.5,662.4 462.5,78.8 '/>
		<polygon fill = 'rgb( 31, 120, 180)' fill-opacity = '0.250000' points = '462.5,78.8 462.5,662.4 464.4,662.4 464.4,77.5 '/>
		<polygon fill = 'rgb( 31, 120, 180)' fill-opacity = '0.250000' points = '464.4,77.5 464.4,662.4 466.3,662.4 466.3,76.4 '/>
		<polygon fill = 'rgb( 31, 120, 180)' fill-opacity = '0.250000' points = '466.3,76.4 466.3,662.4 468.2,662.4 468.2,75.4 '/>
		<polygon fill = 'rgb( 31, 120, 180)' fill-opacity = '0.250000' points = '468.2,75.4 468.2,662.4 470.1,662.4 470.1,74.5 '/>
		<polygon fill = 'rgb( 31, 120, 180)' fill-opacity = '0.250000' points = '470.1,74.5 470.1,662.4 472.0,662.4 472.0,73.7 '/>
		<polygon fill = 'rgb( 31, 120, 180)' fill-opacity = '0.250000' points = '472.0,73.7 472.0,662.4 473.9,662.4 473.9,73.0 '/>
		<polygon fill = 'rgb( 31, 120, 180)' fill-opacity = '0.250000' points = '473.9,73.0 473.9,662.4 475.8,662.4 475.8,72.4 '/>
		<polygon fill = 'rgb( 31, 120, 180)' fill-opacity = '0.250000' points = '475.8,72.4 475.8,662.4 477.6,662.4 477.6,71.9 '/>
		<polygon fill = 'rgb( 31, 120, 180)' fill-opacity = '0.250000' points = '477.6,71.9 477.6,662.4 479.5,662.4 479.5,71.5 '/>
		<polygon fill = 'rgb( 31, 120, 180)' fill-opacity = '0.250000' points = '479.5,71.5 479.5,662.4 481.4,662.4 481.4,71.1 '/>
		<polygon fill = 'rgb( 31, 120, 180)' fill-opacity = '0.250000' points = '481.4,71.1 481.4,662.4 483.3,662.4 483.3,70.7 '/>
		<polygon fill = 'rgb( 31, 120, 180)' fill-opacity = '0.250000' points = '483.3,70.7 483.3,662.4 485.2,662.4 485.2,70.4 '/>
		<polygon fill = 'rgb( 31, 120, 180)' fill-opacity = '0.250000' points = '485.2,70.4 485.2,662.4 487.1,662.4 487.1,70.2 '/>
		<polygon fill = 'rgb( 31, 120, 180)' fill-opacity = '0.250000' points = '487.1,70.2 487.1,662.4 489.0,662.4 489.0,70.0 '/>
		<polygon fill = 'rgb( 31, 120, 180)' fill-opacity = '0.250000' points = '489.0,70.0 489.0,662.4 490.9,662.4 490.9,69.8 '/>
		<polygon fill = 'rgb( 31, 120, 180)' fill-opacity = '0.250000' points = '490.9,69.8 490.9,662.4 492.7,662.4 492.7,69.7 '/>
		<polygon fill = 'rgb( 31, 120, 180)' fill-opacity = '0.250000' points = '492.7,69.7 492.7,662.4 494.6,662.4 494.6,69.5 '/>
		<polygon fill = 'rgb( 31, 120, 180)' fill-opacity = '0.250000' points = '494.6,69.5 494.6,662.4 496.5,662.4 496.5,69.4 '/>
		<polygon fill = 'rgb( 31, 120, 180)' fill-opacity = '0.250000' points = '496.5,69.4 496.5,662.4 498.4,662.4 498.4,69.3 '/>
		<polygon fill = 'rgb( 31, 120, 180)' fill-opacity = '0.250000' points = '498.4,69.3 498.4,662.4 500.3,662.4 500.3,69.3 '/>
		<polygon fill = 'rgb( 31, 120, 180)' fill-opacity = '0.250000' points = '500.3,69.3 500.3,662.4 502.2,662.4 502.2,69.2 '/>
		<polygon fill = 'rgb( 31, 120, 180)' fill-opacity = '0.250000' points = '502.2,69.2 502.2,662.4 504.1,662.4 504.1,69.1 '/>
		<polygon fill = 'rgb( 31, 120, 180)' fill-opacity = '0.250000' points = '504.1,69.1 504.1,662.4 506.0,662.4 506.0,69.1 '/>
		<polygon fill = 'rgb( 31, 120, 180)' fill-opacity = '0.250000' points = '506.0,69.1 506.0,662.4 507.8,662.4 507.8,69.0 '/>
		<polygon fill = 'rgb( 31, 120, 180)' fill-opacity = '0.250000' points = '507.8,69.0 507.8,662.4 509.7,662.4 509.7,69.0 '/>
		<polygon fill = 'rgb( 31, 120, 180)' fill-opacity = '0.250000' points = '509.7,69.0 509.7,662.4 511.6,662.4 511.6,69.0 '/>
		<polygon fill = 'rgb( 31, 120, 180)' fill-opacity = '0.250000' points = '511.6,69.0 511.6,662.4 513.5,662.4 513.5,69.0 '/>
		<polygon fill = 'rgb( 31, 120, 180)' fill-opacity = '0.250000' points = '513.5,69.0 513.5,662.4 515.4,662.4 515.4,68.9 '/>
		<polygon fill = 'rgb( 31, 120, 180)' fill-opacity = '0.250000' points = '515.4,68.9 515.4,662.4 517.3,662.4 517.3,69.0 '/>
		<polygon fill = 'rgb( 31, 120, 180)' fill-opacity = '0.250000' points = '517.3,69.0 517.3,662.4 519.2,662.4 519.2,69.0 '/>
		<polygon fill = 'rgb( 31, 120, 180)' fill-opacity = '0.250000' points = '519.2,69.0 519.2,662.4 521.0,662.4 521.0,69.0 '/>
		<polygon fill = 'rgb( 31, 120, 180)' fill-opacity = '0.250000' points = '521.0,69.0 521.0,662.4 522.9,662.4 522.9,69.1 '/>
		<polygon fill = 'rgb( 31, 120, 180)' fill-opacity = '0.250000' points = '522.9,69.1 522.9,662.4 524.8,662.4 524.8,69.2 '/>
		<polygon fill = 'rgb( 31, 120, 180)' fill-opacity = '0.250000' points = '524.8,69.2 524.8,662.4 526.7,662.4 526.7,69.4 '/>
		<polygon fill = 'rgb( 31, 120, 180)' fill-opacity = '0.250000' points = '526.7,69.4 526.7,662.4 528.6,662.4 528.6,69.5 '/>
		<polygon fill = 'rgb( 31, 120, 180)' fill-opacity = '0.250000' points = '528.6,69.5 528.6,662.4 530.5,662.4 530.5,69.7 '/>
		<polygon fill = 'rgb( 31, 120, 180)' fill-opacity = '0.250000' points = '530.5,69.7 530.5,662.4 532.4,662.4 532.4,70.0 '/>
		<polygon fill = 'rgb( 31, 120, 180)' fill-opacity = '0.250000' points = '532.4,70.0 532.4,662.4 534.3,662.4 534.3,70.3 '/>
		<polygon fill = 'rgb( 31, 120, 180)' fill-opacity = '0.250000' points = '534.3,70.3 534.3,662.4 536.1,662.4 536.1,70.6 '/>
		<polygon fill = 'rgb( 31, 120, 180)' fill-opacity = '0.250000' points = '536.1,70.6 536.1,662.4 538.0,662.4 538.0,71.1 '/>
		<polygon fill = 'rgb( 31, 120, 180)' fill-opacity = '0.250000' points = '538.0,71.1 538.0,662.4 539.9,662.4 539.9,71.5 '/>
		<polygon fill = 'rgb( 31, 120, 180)' fill-opacity = '0.250000' points = '539.9,71.5 539.9,662.4 541.8,662.4 541.8,72.1 '/>
		<polygon fill = 'rgb( 31, 120, 180)' fill-opacity = '0.250000' points = '541.8,72.1 541.8,662.4 543.7,662.4 543.7,72.7 '/>
		<polygon fill = 'rgb( 31, 120, 180)' fill-opacity = '0.250000' points = '543.7,72.7 543.7,662.4 545.6,662.4 545.6,73.4 '/>
		<polygon fill = 'rgb( 31, 120, 180)' fill-opacity = '0.250000' points = '545.6,73.4 545.6,662.4 547.5,662.4 547.5,74.2 '/>
		<polygon fill = 'rgb( 31, 120, 180)' fill-opacity = '0.250000' points = '547.5,74.2 547.5,662.4 549.4,662.4 549.4,75.0 '/>
		<polygon fill = 'rgb( 31, 120, 180)' fill-opacity = '0.250000' points = '549.4,75.0 549.4,662.4 551.2,662.4 551.2,76.0 '/>
		<polygon fill = 'rgb( 31, 120, 180)' fill-opacity = '0.250000' points = '551.2,76.0 551.2,662.4 553.1,662.4 553.1,77.0 '/>
		<polygon fill = 'rgb( 31, 120, 180)' fill-opacity = '0.250000' points = '553.1,77.0 553.1,662.4 555.0,662.4 555.0,78.1 '/>
		<polygon fill = 'rgb( 31, 120, 180)' fill-opacity = '0.250000' points = '555.0,78.1 555.0,662.4 556.9,662.4 556.9,79.3 '/>
		<polygon fill = 'rgb( 31, 120, 180)' fill-opacity = '0.250000' points = '556.9,79.3 556.9,662.4 558.8,662.4 558.8,80.5 '/>
		<polygon fill = 'rgb( 31, 120, 180)' fill-opacity = '0.250000' points = '558.8,80.5 558.8,662.4 560.7,662.4 560.7,81.8 '/>
		<polygon fill = 'rgb( 31, 120, 180)' fill-opacity = '0.250000' points = '560.7,81.8 560.7,662.4 562.6,662.4 562.6,83.2 '/>
		<polygon fill = 'rgb( 31, 120, 180)' fill-opacity = '0.250000' points = '562.6,83.2 562.6,662.4 564.5,662.4 564.5,84.7 '/>
		<polygon fill = 'rgb( 31, 120, 180)' fill-opacity = '0.250000' points = '564.5,84.7 564.5,662.4 566.3,662.4 566.3,86.2 '/>
		<polygon fill = 'rgb( 31, 120, 180)' fill-opacity = '0.250000' points = '566.3,86.2 566.3,662.4 568.2,662.4 568.2,87.7 '/>
		<polygon fill = 'rgb( 31, 120, 180)' fill-opacity = '0.250000' points = '568.2,87.7 568.2,662.4 570.1,662.4 570.1,89.3 '/>
		<polygon fill = 'rgb( 31, 120, 180)' fill-opacity = '0.250000' points = '570.1,89.3 570.1,662.4 572.0,662.4 572.0,90.8 '/>
		<polygon fill = 'rgb( 31, 120, 180)' fill-opacity = '0.250000' points = '572.0,90.8 572.0,662.4 573.9,662.4 573.9,92.4 '/>
		<polygon fill = 'rgb( 31, 120, 180)' fill-opacity = '0.250000' points = '573.9,92.4 573.9,662.4 575.8,662.4 575.8,94.0 '/>
		<polygon fill = 'rgb( 31, 120, 180)' fill-opacity = '0.250000' points = '575.8,94.0 575.8,662.4 577.7,662.4 577.7,95.6 '/>
		<polygon fill = 'rgb( 31, 120, 180)' fill-opacity = '0.250000' points = '577.7,95.6 577.7,662.4 579.5,662.4 579.5,97.1 '/>
		<polygon fill = 'rgb( 31, 120, 180)' fill-opacity = '0.250000' points = '579.5,97.1 579.5,662.4 581.4,662.4 581.4,98.7 '/>
		<polygon fill = 'rgb( 31, 120, 180)' fill-opacity = '0.250000' points = '581.4,98.7 581.4,662.4 583.3,662.4 583.3,100.2 '/>
		<polygon fill = 'rgb( 31, 120, 180)' fill-opacity = '0.250000' points = '583.3,100.2 583.3,662.4 585.2,662.4 585.2,101.8 '/>
		<polygon fill = 'rgb( 31, 120, 180)' fill-opacity = '0.250000' points = '585.2,101.8 585.2,662.4 587.1,662.4 587.1,103.3 '/>
		<polygon fill = 'rgb( 31, 120, 180)' fill-opacity = '0.250000' points = '587.1,103.3 587.1,662.4 589.0,662.4 589.0,104.8 '/>
		<polygon fill = 'rgb( 31, 120, 180)' fill-opacity = '0.250000' points = '589.0,104.8 589.0,662.4 590.9,662.4 590.9,106.3 '/>
		<polygon fill = 'rgb( 31, 120, 180)' fill-opacity = '0.250000' points = '590.9,106.3 590.9,662.4 592.8,662.4 592.8,107.9 '/>
		<polygon fill = 'rgb( 31, 120, 180)' fill-opacity = '0.250000' points = '592.8,107.9 592.8,662.4 594.6,662.4 594.6,109.4 '/>
		<polygon fill = 'rgb( 31, 120, 180)' fill-opacity = '0.250000' points = '594.6,109.4 594.6,662.4 596.5,662.4 596.5,111.0 '/>
		<polygon fill = 'rgb( 31, 120, 180)' fill-opacity = '0.250000' points = '596.5,111.0 596.5,662.4 598.4,662.4 598.4,112.7 '/>
		<polygon fill = 'rgb( 31, 120, 180)' fill-opacity = '0.250000' points = '598.4,112.7 598.4,662.4 600.3,662.4 600.3,114.3 '/>
		<polygon fill = 'rgb( 31, 120, 180)' fill-opacity = '0.250000' points = '600.3,114.3 600.3,662.4 602.2,662.4 602.2,116.1 '/>
		<polygon fill = 'rgb( 31, 120, 180)' fill-opacity = '0.250000' points = '602.2,116.1 602.2,662.4 604.1,662.4 604.1,117.9 '/>
		<polygon fill = 'rgb( 31, 120, 180)' fill-opacity = '0.250000' points = '604.1,117.9 604.1,662.4 606.0,662.4 606.0,119.8 '/>
		<polygon fill = 'rgb( 31, 120, 180)' fill-opacity = '0.250000' points = '606.0,119.8 606.0,662.4 607.9,662.4 607.9,121.8 '/>
		<polygon fill = 'rgb( 31, 120, 180)' fill-opacity = '0.250000' points = '607.9,121.8 607.9,662.4 609.7,662.4 609.7,123.9 '/>
		<polygon fill = 'rgb( 31, 120, 180)' fill-opacity = '0.250000' points = '609.7,123.9 609.7,662.4 611.6,662.4 611.6,126.1 '/>
		<polygon fill = 'rgb( 31, 120, 180)' fill-opacity = '0.250000' points = '611.6,126.1 611.6,662.4 613.5,662.4 613.5,128.4 '/>
		<polygon fill = 'rgb( 31, 120, 180)' fill-opacity = '0.250000' points = '613.5,128.4 613.5,662.4 615.4,662.4 615.4,130.8 '/>
		<polygon fill = 'rgb( 31, 120, 180)' fill-opacity = '0.250000' points = '615.4,130.8 615.4,662.4 617.3,662.4 617.3,133.3 '/>
		<polygon fill = 'rgb( 31, 120, 180)' fill-opacity = '0.250000' points = '617.3,133.3 617.3,662.4 619.2,662.4 619.2,135.9 '/>
		<polygon fill = 'rgb( 31, 120, 180)' fill-opacity = '0.250000' points = '619.2,135.9 619.2,662.4 621.1,662.4 621.1,138.5 '/>
		<polygon fill = 'rgb( 31, 120, 180)' fill-opacity = '0.250000' points = '621.1,138.5 621.1,662.4 623.0,662.4 623.0,141.3 '/>
		<polygon fill = 'rgb( 31, 120, 180)' fill-opacity = '0.250000' points = '623.0,141.3 623.0,662.4 624.8,662.4 624.8,144.1 '/>
		<polygon fill = 'rgb( 31, 120, 180)' fill-opacity = '0.250000' points = '624.8,144.1 624.8,662.4 626.7,662.4 626.7,146.9 '/>
		<polygon fill = 'rgb( 31, 120, 180)' fill-opacity = '0.250000' points = '626.7,146.9 626.7,662.4 628.6,662.4 628.6,149.8 '/>
		<polygon fill = 'rgb( 31, 120, 180)' fill-opacity = '0.250000' points = '628.6,149.8 628.6,662.4 630.5,662.4 630.5,152.8 '/>
		<polygon fill = 'rgb( 31, 120, 180)' fill-opacity = '0.250000' points = '630.5,152.8 630.5,662.4 632.4,662.4 632.4,155.7 '/>
		<polygon fill = 'rgb( 31, 120, 180)' fill-opacity = '0.250000' points = '632.4,155.7 632.4,662.4 634.3,662.4 634.3,158.7 '/>
		<polygon fill = 'rgb( 31, 120, 180)' fill-opacity = '0.250000' points = '634.3,158.7 634.3,662.4 636.2,662.4 636.2,161.7 '/>
		<polygon fill = 'rgb( 31, 120, 180)' fill-opacity = '0.250000' points = '636.2,161.7 636.2,662.4 638.1,662.4 638.1,164.7 '/>
		<polygon fill = 'rgb( 31, 120, 180)' fill-opacity = '0.250000' points = '638.1,164.7 638.1,662.4 639.9,662.4 639.9,167.6 '/>
		<polygon fill = 'rgb( 31, 120, 180)' fill-opacity = '0.250000' points = '639.9,167.6 639.9,662.4 641.8,662.4 641.8,170.6 '/>
		<polygon fill = 'rgb( 31, 120, 180)' fill-opacity = '0.250000' points = '641.8,170.6 641.8,662.4 643.7,662.4 643.7,173.5 '/>
		<polygon fill = 'rgb( 31, 120, 180)' fill-opacity = '0.250000' points = '643.7,173.5 643.7,662.4 645.6,662.4 645.6,176.4 '/>
		<polygon fill = 'rgb( 31, 120, 180)' fill-opacity = '0.250000' points = '645.6,176.4 645.6,662.4 647.5,662.4 647.5,179.3 '/>
		<polygon fill = 'rgb( 31, 120, 180)' fill-opacity = '0.250000' points = '647.5,179.3 647.5,662.4 649.4,662.4 649.4,182.2 '/>
		<polygon fill = 'rgb( 31, 120, 180)' fill-opacity = '0.250000' points = '649.4,182.2 649.4,662.4 651.3,662.4 651.3,185.0 '/>
		<polygon fill = 'rgb( 31, 120, 180)' fill-opacity = '0.250000' points = '651.3,185.0 651.3,662.4 653.1,662.4 653.1,187.8 '/>
		<polygon fill = 'rgb( 31, 120, 180)' fill-opacity = '0.250000' points = '653.1,187.8 653.1,662.4 655.0,662.4 655.0,190.7 '/>
		<polygon fill = 'rgb( 31, 120, 180)' fill-opacity = '0.250000' points = '655.0,190.7 655.0,662.4 656.9,662.4 656.9,193.5 '/>
		<polygon fill = 'rgb( 31, 120, 180)' fill-opacity = '0.250000' points = '656.9,193.5 656.9,662.4 658.8,662.4 658.8,196.3 '/>
		<polygon fill = 'rgb( 31, 120, 180)' fill-opacity = '0.250000' points = '658.8,196.3 658.8,662.4 660.7,662.4 660.7,199.1 '/>
		<polygon fill = 'rgb( 31, 120, 180)' fill-opacity = '0.250000' points = '660.7,199.1 660.7,662.4 662.6,662.4 662.6,202.0 '/>
		<polygon fill = 'rgb( 31, 120, 180)' fill-opacity = '0.250000' points = '662.6,202.0 662.6,662.4 664.5,662.4 664.5,204.8 '/>
		<polygon fill = 'rgb( 31, 120, 180)' fill-opacity = '0.250000' points = '664.5,204.8 664.5,662.4 666.4,662.4 666.4,207.7 '/>
		<polygon fill = 'rgb( 31, 120, 180)' fill-opacity = '0.250000' points = '666.4,207.7 666.4,662.4 668.2,662.4 668.2,210.7 '/>
		<polygon fill = 'rgb( 31, 120, 180)' fill-opacity = '0.250000' points = '668.2,210.7 668.2,662.4 670.1,662.4 670.1,213.6 '/>
		<polygon fill = 'rgb( 31, 120, 180)' fill-opacity = '0.250000' points = '670.1,213.6 670.1,662.4 672.0,662.4 672.0,216.6 '/>
		<polygon fill = 'rgb( 31, 120, 180)' fill-opacity = '0.250000' points = '672.0,216.6 672.0,662.4 673.9,662.4 673.9,219.7 '/>
		<polygon fill = 'rgb( 31, 120, 180)' fill-opacity = '0.250000' points = '673.9,219.7 673.9,662.4 675.8,662.4 675.8,222.8 '/>
		<polygon fill = 'rgb( 31, 120, 180)' fill-opacity = '0.250000' points = '675.8,222.8 675.8,662.4 677.7,662.4 677.7,225.9 '/>
		<polygon fill = 'rgb( 31, 120, 180)' fill-opacity = '0.250000' points = '677.7,225.9 677.7,662.4 679.6,662.4 679.6,229.1 '/>
		<polygon fill = 'rgb( 31, 120, 180)' fill-opacity = '0.250000' points = '679.6,229.1 679.6,662.4 681.5,662.4 681.5,232.3 '/>
		<polygon fill = 'rgb( 31, 120, 180)' fill-opacity = '0.250000' points = '681.5,232.3 681.5,662.4 683.3,662.4 683.3,235.6 '/>
		<polygon fill = 'rgb( 31, 120, 180)' fill-opacity = '0.250000' points = '683.3,235.6 683.3,662.4 685.2,662.4 685.2,238.9 '/>
		<polygon fill = 'rgb( 31, 120, 180)' fill-opacity = '0.250000' points = '685.2,238.9 685.2,662.4 687.1,662.4 687.1,242.2 '/>
		<polygon fill = 'rgb( 31, 120, 180)' fill-opacity = '0.250000' points = '687.1,242.2 687.1,662.4 689.0,662.4 689.0,245.6 '/>
		<polygon fill = 'rgb( 31, 120, 180)' fill-opacity = '0.250000' points = '689.0,245.6 689.0,662.4 690.9,662.4 690.9,249.0 '/>
		<polygon fill = 'rgb( 31, 120, 180)' fill-opacity = '0.250000' points = '690.9,249.0 690.9,662.4 692.8,662.4 692.8,252.4 '/>
		<polygon fill = 'rgb( 31, 120, 180)' fill-opacity = '0.250000' points = '692.8,252.4 692.8,662.4 694.7,662.4 694.7,255.8 '/>
		<polygon fill = 'rgb( 31, 120, 180)' fill-opacity = '0.250000' points = '694.7,255.8 694.7,662.4 696.6,662.4 696.6,259.2 '/>
		<polygon fill = 'rgb( 31, 120, 180)' fill-opacity = '0.250000' points = '696.6,259.2 696.6,662.4 698.4,662.4 698.4,262.6 '/>
		<polygon fill = 'rgb( 31, 120, 180)' fill-opacity = '0.250000' points = '698.4,262.6 698.4,662.4 700.3,662.4 700.3,266.1 '/>
		<polygon fill = 'rgb( 31, 120, 180)' fill-opacity = '0.250000' points = '700.3,266.1 700.3,662.4 702.2,662.4 702.2,269.5 '/>
		<polygon fill = 'rgb( 31, 120, 180)' fill-opacity = '0.250000' points = '702.2,269.5 702.2,662.4 704.1,662.4 704.1,272.9 '/>
		<polygon fill = 'rgb( 31, 120, 180)' fill-opacity = '0.250000' points = '704.1,272.9 704.1,662.4 706.0,662.4 706.0,276.3 '/>
		<polygon fill = 'rgb( 31, 120, 180)' fill-opacity = '0.250000' points = '706.0,276.3 706.0,662.4 707.9,662.4 707.9,279.7 '/>
		<polygon fill = 'rgb( 31, 120, 180)' fill-opacity = '0.250000' points = '707.9,279.7 707.9,662.4 709.8,662.4 709.8,283.1 '/>
		<polygon fill = 'rgb( 31, 120, 180)' fill-opacity = '0.250000' points = '709.8,283.1 709.8,662.4 711.7,662.4 711.7,286.5 '/>
		<polygon fill = 'rgb( 31, 120, 180)' fill-opacity = '0.250000' points = '711.7,286.5 711.7,662.4 713.5,662.4 713.5,289.8 '/>
		<polygon fill = 'rgb( 31, 120, 180)' fill-opacity = '0.250000' points = '713.5,289.8 713.5,662.4 715.4,662.4 715.4,293.1 '/>
		<polygon fill = 'rgb( 31, 120, 180)' fill-opacity = '0.250000' points = '715.4,293.1 715.4,662.4 717.3,662.4 717.3,296.4 '/>
		<polygon fill = 'rgb( 31, 120, 180)' fill-opacity = '0.250000' points = '717.3,296.4 717.3,662.4 719.2,662.4 719.2,299.7 '/>
		<polygon fill = 'rgb( 31, 120, 180)' fill-opacity = '0.250000' points = '719.2,299.7 719.2,662.4 721.1,662.4 721.1,302.9 '/>
		<polygon fill = 'rgb( 31, 120, 180)' fill-opacity = '0.250000' points = '721.1,302.9 721.1,662.4 723.0,662.4 723.0,306.2 '/>
		<polygon fill = 'rgb( 31, 120, 180)' fill-opacity = '0.250000' points = '723.0,306.2 723.0,662.4 724.9,662.4 724.9,309.4 '/>
		<polygon fill = 'rgb( 31, 120, 180)' fill-opacity = '0.250000' points = '724.9,309.4 724.9,662.4 726.7,662.4 726.7,312.6 '/>
		<polygon fill = 'rgb( 31, 120, 180)' fill-opacity = '0.250000' points = '726.7,312.6 726.7,662.4 728.6,662.4 728.6,315.7 '/>
		<polygon fill = 'rgb( 31, 120, 180)' fill-opacity = '0.250000' points = '728.6,315.7 728.6,662.4 730.5,662.4 730.5,318.9 '/>
		<polygon fill = 'rgb( 31, 120, 180)' fill-opacity = '0.250000' points = '730.5,318.9 730.5,662.4 732.4,662.4 732.4,322.1 '/>
		<polygon fill = 'rgb( 31, 120, 180)' fill-opacity = '0.250000' points = '732.4,322.1 732.4,662.4 734.3,662.4 734.3,325.3 '/>
		<polygon fill = 'rgb( 31, 120, 180)' fill-opacity = '0.250000' points = '734.3,325.3 734.3,662.4 736.2,662.4 736.2,328.4 '/>
		<polygon fill = 'rgb( 31, 120, 180)' fill-opacity = '0.250000' points = '736.2,328.4 736.2,662.4 738.1,662.4 738.1,331.6 '/>
		<polygon fill = 'rgb( 31, 120, 180)' fill-opacity = '0.250000' points = '738.1,331.6 738.1,662.4 740.0,662.4 740.0,334.9 '/>
		<polygon fill = 'rgb( 31, 120, 180)' fill-opacity = '0.250000' points = '740.0,334.9 740.0,662.4 741.8,662.4 741.8,338.1 '/>
		<polygon fill = 'rgb( 31, 120, 180)' fill-opacity = '0.250000' points = '741.8,338.1 741.8,662.4 743.7,662.4 743.7,341.3 '/>
		<polygon fill = 'rgb( 31, 120, 180)' fill-opacity = '0.250000' points = '743.7,341.3 743.7,662.4 745.6,662.4 745.6,344.6 '/>
		<polygon fill = 'rgb( 31, 120, 180)' fill-opacity = '0.250000' points = '745.6,344.6 745.6,662.4 747.5,662.4 747.5,347.9 '/>
		<polygon fill = 'rgb( 31, 120, 180)' fill-opacity = '0.250000' points = '747.5,347.9 747.5,662.4 749.4,662.4 749.4,351.3 '/>
		<polygon fill = 'rgb( 31, 120, 180)' fill-opacity = '0.250000' points = '749.4,351.3 749.4,662.4 751.3,662.4 751.3,354.6 '/>
		<polygon fill = 'rgb( 31, 120, 180)' fill-opacity = '0.250000' points = '751.3,354.6 751.3,662.4 753.2,662.4 753.2,358.0 '/>
		<polygon fill = 'rgb( 31, 120, 180)' fill-opacity = '0.250000' points = '753.2,358.0 753.2,662.4 755.1,662.4 755.1,361.4 '/>
		<polygon fill = 'rgb( 31, 120, 180)' fill-opacity = '0.250000' points = '755.1,361.4 755.1,662.4 756.9,662.4 756.9,364.9 '/>
		<polygon fill = 'rgb( 31, 120, 180)' fill-opacity = '0.250000' points = '756.9,364.9 756.9,662.4 758.8,662.4 758.8,368.3 '/>
		<polygon fill = 'rgb( 31, 120, 180)' fill-opacity = '0.250000' points = '758.8,368.3 758.8,662.4 760.7,662.4 760.7,371.8 '/>
		<polygon fill = 'rgb( 31, 120, 180)' fill-opacity = '0.250000' points = '760.7,371.8 760.7,662.4 762.6,662.4 762.6,375.3 '/>
		<polygon fill = 'rgb( 31, 120, 180)' fill-opacity = '0.250000' points = '762.6,375.3 762.6,662.4 764.5,662.4 764.5,378.8 '/>
		<polygon fill = 'rgb( 31, 120, 180)' fill-opacity = '0.250000' points = '764.5,378.8 764.5,662.4 766.4,662.4 766.4,382.3 '/>
		<polygon fill = 'rgb( 31, 120, 180)' fill-opacity = '0.250000' points = '766.4,382.3 766.4,662.4 768.3,662.4 768.3,385.7 '/>
		<polygon fill = 'rgb( 31, 120, 180)' fill-opacity = '0.250000' points = '768.3,385.7 768.3,662.4 770.2,662.4 770.2,389.2 '/>
		<polygon fill = 'rgb( 31, 120, 180)' fill-opacity = '0.250000' points = '770.2,389.2 770.2,662.4 772.0,662.4 772.0,392.7 '/>
		<polygon fill = 'rgb( 31, 120, 180)' fill-opacity = '0.250000' points = '772.0,392.7 772.0,662.4 773.9,662.4 773.9,396.1 '/>
		<polygon fill = 'rgb( 31, 120, 180)' fill-opacity = '0.250000' points = '773.9,396.1 773.9,662.4 775.8,662.4 775.8,399.6 '/>
		<polygon fill = 'rgb( 31, 120, 180)' fill-opacity = '0.250000' points = '775.8,399.6 775.8,662.4 777.7,662.4 777.7,403.0 '/>
		<polygon fill = 'rgb( 31, 120, 180)' fill-opacity = '0.250000' points = '777.7,403.0 777.7,662.4 779.6,662.4 779.6,406.4 '/>
		<polygon fill = 'rgb( 31, 120, 180)' fill-opacity = '0.250000' points = '779.6,406.4 779.6,662.4 781.5,662.4 781.5,409.7 '/>
		<polygon fill = 'rgb( 31, 120, 180)' fill-opacity = '0.250000' points = '781.5,409.7 781.5,662.4 783.4,662.4 783.4,413.1 '/>
		<polygon fill = 'rgb( 31, 120, 180)' fill-opacity = '0.250000' points = '783.4,413.1 783.4,662.4 785.3,662.4 785.3,416.3 '/>
		<polygon fill = 'rgb( 31, 120, 180)' fill-opacity = '0.250000' points = '785.3,416.3 785.3,662.4 787.1,662.4 787.1,419.6 '/>
		<polygon fill = 'rgb( 31, 120, 180)' fill-opacity = '0.250000' points = '787.1,419.6 787.1,662.4 789.0,662.4 789.0,422.8 '/>
		<polygon fill = 'rgb( 31, 120, 180)' fill-opacity = '0.250000' points = '789.0,422.8 789.0,662.4 790.9,662.4 790.9,426.0 '/>
		<polygon fill = 'rgb( 31, 120, 180)' fill-opacity = '0.250000' points = '790.9,426.0 790.9,662.4 792.8,662.4 792.8,429.1 '/>
		<polygon fill = 'rgb( 31, 120, 180)' fill-opacity = '0.250000' points = '792.8,429.1 792.8,662.4 794.7,662.4 794.7,432.2 '/>
		<polygon fill = 'rgb( 31, 120, 180)' fill-opacity = '0.250000' points = '794.7,432.2 794.7,662.4 796.6,662.4 796.6,435.3 '/>
		<polygon fill = 'rgb( 31, 120, 180)' fill-opacity = '0.250000' points = '796.6,435.3 796.6,662.4 798.5,662.4 798.5,438.3 '/>
		<polygon fill = 'rgb( 31, 120, 180)' fill-opacity = '0.250000' points = '798.5,438.3 798.5,662.4 800.3,662.4 800.3,441.2 '/>
		<polygon fill = 'rgb( 31, 120, 180)' fill-opacity = '0.250000' points = '800.3,441.2 800.3,662.4 802.2,662.4 802.2,444.1 '/>
		<polygon fill = 'rgb( 31, 120, 180)' fill-opacity = '0.250000' points = '802.2,444.1 802.2,662.4 804.1,662.4 804.1,447.0 '/>
		<polygon fill = 'rgb( 31, 120, 180)' fill-opacity = '0.250000' points = '804.1,447.0 804.1,662.4 806.0,662.4 806.0,449.8 '/>
		<polygon fill = 'rgb( 31, 120, 180)' fill-opacity = '0.250000' points = '806.0,449.8 806.0,662.4 807.9,662.4 807.9,452.6 '/>
		<polygon fill = 'rgb( 31, 120, 180)' fill-opacity = '0.250000' points = '807.9,452.6 807.9,662.4 809.8,662.4 809.8,455.3 '/>
		<polygon fill = 'rgb( 31, 120, 180)' fill-opacity = '0.250000' points = '809.8,455.3 809.8,662.4 811.7,662.4 811.7,458.0 '/>
		<polygon fill = 'rgb( 31, 120, 180)' fill-opacity = '0.250000' points = '811.7,458.0 811.7,662.4 813.6,662.4 813.6,460.6 '/>
		<polygon fill = 'rgb( 31, 120, 180)' fill-opacity = '0.250000' points = '813.6,460.6 813.6,662.4 815.4,662.4 815.4,463.2 '/>
		<polygon fill = 'rgb( 31, 120, 180)' fill-opacity = '0.250000' points = '815.4,463.2 815.4,662.4 817.3,662.4 817.3,465.8 '/>
		<polygon fill = 'rgb( 31, 120, 180)' fill-opacity = '0.250000' points = '817.3,465.8 817.3,662.4 819.2,662.4 819.2,468.3 '/>
		<polygon fill = 'rgb( 31, 120, 180)' fill-opacity = '0.250000' points = '819.2,468.3 819.2,662.4 821.1,662.4 821.1,470.8 '/>
		<polygon fill = 'rgb( 31, 120, 180)' fill-opacity = '0.250000' points = '821.1,470.8 821.1,662.4 823.0,662.4 823.0,473.3 '/>
		<polygon fill = 'rgb( 31, 120, 180)' fill-opacity = '0.250000' points = '823.0,473.3 823.0,662.4 824.9,662.4 824.9,475.8 '/>
		<polygon fill = 'rgb( 31, 120, 180)' fill-opacity = '0.250000' points = '824.9,475.8 824.9,662.4 826.8,662.4 826.8,478.2 '/>
		<polygon fill = 'rgb( 31, 120, 180)' fill-opacity = '0.250000' points = '826.8,478.2 826.8,662.4 828.7,662.4 828.7,480.6 '/>
		<polygon fill = 'rgb( 31, 120, 180)' fill-opacity = '0.250000' points = '828.7,480.6 828.7,662.4 830.5,662.4 830.5,483.0 '/>
		<polygon fill = 'rgb( 31, 120, 180)' fill-opacity = '0.250000' points = '830.5,483.0 830.5,662.4 832.4,662.4 832.4,485.3 '/>
		<polygon fill = 'rgb( 31, 120, 180)' fill-opacity = '0.250000' points = '832.4,485.3 832.4,662.4 834.3,662.4 834.3,487.7 '/>
		<polygon fill = 'rgb( 31, 120, 180)' fill-opacity = '0.250000' points = '834.3,487.7 834.3,662.4 836.2,662.4 836.2,490.0 '/>
		<polygon fill = 'rgb( 31, 120, 180)' fill-opacity = '0.250000' points = '836.2,490.0 836.2,662.4 838.1,662.4 838.1,492.3 '/>
		<polygon fill = 'rgb( 31, 120, 180)' fill-opacity = '0.250000' points = '838.1,492.3 838.1,662.4 840.0,662.4 840.0,494.6 '/>
		<polygon fill = 'rgb( 31, 120, 180)' fill-opacity = '0.250000' points = '840.0,494.6 840.0,662.4 841.9,662.4 841.9,496.9 '/>
		<polygon fill = 'rgb( 31, 120, 180)' fill-opacity = '0.250000' points = '841.9,496.9 841.9,662.4 843.8,662.4 843.8,499.2 '/>
		<polygon fill = 'rgb( 31, 120, 180)' fill-opacity = '0.250000' points = '843.8,499.2 843.8,662.4 845.6,662.4 845.6,501.4 '/>
		<polygon fill = 'rgb( 31, 120, 180)' fill-opacity = '0.250000' points = '845.6,501.4 845.6,662.4 847.5,662.4 847.5,503.6 '/>
		<polygon fill = 'rgb( 31, 120, 180)' fill-opacity = '0.250000' points = '847.5,503.6 847.5,662.4 849.4,662.4 849.4,505.9 '/>
		<polygon fill = 'rgb( 31, 120, 180)' fill-opacity = '0.250000' points = '849.4,505.9 849.4,662.4 851.3,662.4 851.3,508.1 '/>
		<polygon fill = 'rgb( 31, 120, 180)' fill-opacity = '0.250000' points = '851.3,508.1 851.3,662.4 853.2,662.4 853.2,510.3 '/>
		<polygon fill = 'rgb( 31, 120, 180)' fill-opacity = '0.250000' points = '853.2,510.3 853.2,662.4 855.1,662.4 855.1,512.4 '/>
		<polygon fill = 'rgb( 31, 120, 180)' fill-opacity = '0.250000' points = '855.1,512.4 855.1,662.4 857.0,662.4 857.0,514.6 '/>
		<polygon fill = 'rgb( 31, 120, 180)' fill-opacity = '0.250000' points = '857.0,514.6 857.0,662.4 858.9,662.4 858.9,516.8 '/>
		<polygon fill = 'rgb( 31, 120, 180)' fill-opacity = '0.250000' points = '858.9,516.8 858.9,662.4 860.7,662.4 860.7,518.9 '/>
		<polygon fill = 'rgb( 31, 120, 180)' fill-opacity = '0.250000' points = '860.7,518.9 860.7,662.4 862.6,662.4 862.6,521.0 '/>
		<polygon fill = 'rgb( 31, 120, 180)' fill-opacity = '0.250000' points = '862.6,521.0 862.6,662.4 864.5,662.4 864.5,523.1 '/>
		<polygon fill = 'rgb( 31, 120, 180)' fill-opacity = '0.250000' points = '864.5,523.1 864.5,662.4 866.4,662.4 866.4,525.2 '/>
		<polygon fill = 'rgb( 31, 120, 180)' fill-opacity = '0.250000' points = '866.4,525.2 866.4,662.4 868.3,662.4 868.3,527.3 '/>
		<polygon fill = 'rgb( 31, 120, 180)' fill-opacity = '0.250000' points = '868.3,527.3 868.3,662.4 870.2,662.4 870.2,529.4 '/>
		<polygon fill = 'rgb( 31, 120, 180)' fill-opacity = '0.250000' points = '870.2,529.4 870.2,662.4 872.1,662.4 872.1,531.4 '/>
		<polygon fill = 'rgb( 31, 120, 180)' fill-opacity = '0.250000' points = '872.1,531.4 872.1,662.4 873.9,662.4 873.9,533.4 '/>
		<polygon fill = 'rgb( 31, 120, 180)' fill-opacity = '0.250000' points = '873.9,533.4 873.9,662.4 875.8,662.4 875.8,535.4 '/>
		<polygon fill = 'rgb( 31, 120, 180)' fill-opacity = '0.250000' points = '875.8,535.4 875.8,662.4 877.7,662.4 877.7,537.3 '/>
		<polygon fill = 'rgb( 31, 120, 180)' fill-opacity = '0.250000' points = '877.7,537.3 877.7,662.4 879.6,662.4 879.6,539.2 '/>
		<polygon fill = 'rgb( 31, 120, 180)' fill-opacity = '0.250000' points = '879.6,539.2 879.6,662.4 881.5,662.4 881.5,541.1 '/>
		<polygon fill = 'rgb( 31, 120, 180)' fill-opacity = '0.250000' points = '881.5,541.1 881.5,662.4 883.4,662.4 883.4,543.0 '/>
		<polygon fill = 'rgb( 31, 120, 180)' fill-opacity = '0.250000' points = '883.4,543.0 883.4,662.4 885.3,662.4 885.3,544.8 '/>
		<polygon fill = 'rgb( 31, 120, 180)' fill-opacity = '0.250000' points = '885.3,544.8 885.3,662.4 887.2,662.4 887.2,546.7 '/>
		<polygon fill = 'rgb( 31, 120, 180)' fill-opacity = '0.250000' points = '887.2,546.7 887.2,662.4 889.0,662.4 889.0,548.4 '/>
		<polygon fill = 'rgb( 31, 120, 180)' fill-opacity = '0.250000' points = '889.0,548.4 889.0,662.4 890.9,662.4 890.9,550.2 '/>
		<polygon fill = 'rgb( 31, 120, 180)' fill-opacity = '0.250000' points = '890.9,550.2 890.9,662.4 892.8,662.4 892.8,551.9 '/>
		<polygon fill = 'rgb( 31, 120, 180)' fill-opacity = '0.250000' points = '892.8,551.9 892.8,662.4 894.7,662.4 894.7,553.6 '/>
		<polygon fill = 'rgb( 31, 120, 180)' fill-opacity = '0.250000' points = '894.7,553.6 894.7,662.4 896.6,662.4 896.6,555.3 '/>
		<polygon fill = 'rgb( 31, 120, 180)' fill-opacity = '0.250000' points = '896.6,555.3 896.6,662.4 898.5,662.4 898.5,557.0 '/>
		<polygon fill = 'rgb( 31, 120, 180)' fill-opacity = '0.250000' points = '898.5,557.0 898.5,662.4 900.4,662.4 900.4,558.6 '/>
		<polygon fill = 'rgb( 31, 120, 180)' fill-opacity = '0.250000' points = '900.4,558.6 900.4,662.4 902.3,662.4 902.3,560.2 '/>
		<polygon fill = 'rgb( 31, 120, 180)' fill-opacity = '0.250000' points = '902.3,560.2 902.3,662.4 904.1,662.4 904.1,561.7 '/>
		<polygon fill = 'rgb( 31, 120, 180)' fill-opacity = '0.250000' points = '904.1,561.7 904.1,662.4 906.0,662.4 906.0,563.3 '/>
		<polygon fill = 'rgb( 31, 120, 180)' fill-opacity = '0.250000' points = '906.0,563.3 906.0,662.4 907.9,662.4 907.9,564.8 '/>
		<polygon fill = 'rgb( 31, 120, 180)' fill-opacity = '0.250000' points = '907.9,564.8 907.9,662.4 909.8,662.4 909.8,566.3 '/>
		<polygon fill = 'rgb( 31, 120, 180)' fill-opacity = '0.250000' points = '909.8,566.3 909.8,662.4 911.7,662.4 911.7,567.8 '/>
		<polygon fill = 'rgb( 31, 120, 180)' fill-opacity = '0.250000' points = '911.7,567.8 911.7,662.4 913.6,662.4 913.6,569.3 '/>
		<polygon fill = 'rgb( 31, 120, 180)' fill-opacity = '0.250000' points = '913.6,569.3 913.6,662.4 915.5,662.4 915.5,570.7 '/>
		<polygon fill = 'rgb( 31, 120, 180)' fill-opacity = '0.250000' points = '915.5,570.7 915.5,662.4 917.4,662.4 917.4,572.1 '/>
		<polygon fill = 'rgb( 31, 120, 180)' fill-opacity = '0.250000' points = '917.4,572.1 917.4,662.4 919.2,662.4 919.2,573.5 '/>
		<polygon fill = 'rgb( 31, 120, 180)' fill-opacity = '0.250000' points = '919.2,573.5 919.2,662.4 921.1,662.4 921.1,574.9 '/>
		<polygon fill = 'rgb( 31, 120, 180)' fill-opacity = '0.250000' points = '921.1,574.9 921.1,662.4 923.0,662.4 923.0,576.3 '/>
		<polygon fill = 'rgb( 31, 120, 180)' fill-opacity = '0.250000' points = '923.0,576.3 923.0,662.4 924.9,662.4 924.9,577.6 '/>
	</g>
</g>
	</g>
	<g id="gnuplot_plot_3" ><title>Point estimate</title>
<g fill="none" color="white" stroke="rgb( 31, 120, 180)" stroke-width="2.00" stroke-linecap="butt" stroke-linejoin="miter">
</g>
<g fill="none" color="black" stroke="currentColor" stroke-width="2.00" stroke-linecap="butt" stroke-linejoin="miter">
	<g transform="translate(1089.0,103.0)" stroke="none" fill="black" font-family="Helvetica" font-size="12.00"  text-anchor="start">
		<text><tspan font-family="Helvetica" >Point estimate</tspan></text>
	</g>
</g>
<g fill="none" color="black" stroke="currentColor" stroke-width="2.00" stroke-linecap="butt" stroke-linejoin="miter">
	<path stroke='rgb( 31, 120, 180)'  d='M1038.5,99.1 L1080.7,99.1 M518.7,662.4 L518.7,69.0  '/></g>
	</g>
	<g id="gnuplot_plot_4" ><title>Noise threshold</title>
<g fill="none" color="white" stroke="rgb( 31, 120, 180)" stroke-width="1.00" stroke-linecap="butt" stroke-linejoin="miter">
</g>
<g fill="none" color="black" stroke="currentColor" stroke-width="1.00" stroke-linecap="butt" stroke-linejoin="miter">
	<g transform="translate(1089.0,121.0)" stroke="none" fill="black" font-family="Helvetica" font-size="12.00"  text-anchor="start">
		<text><tspan font-family="Helvetica" >Noise threshold</tspan></text>
	</g>
</g>
<g fill="none" color="black" stroke="currentColor" stroke-width="1.00" stroke-linecap="butt" stroke-linejoin="miter">
	<g stroke='none' shape-rendering='crispEdges'>
		<polygon fill = 'rgb(227,  26,  28)' fill-opacity = '0.100000' points = '1038.5,121.6 1080.7,121.6 1080.7,112.6 1038.5,112.6 '/>
		<polygon fill = 'rgb(227,  26,  28)' fill-opacity = '0.100000' points = '542.8,54.1 542.8,662.4 542.8,662.4 542.8,54.1 '/>
	</g>
</g>
	</g>
<g fill="none" color="white" stroke="rgb(227,  26,  28)" stroke-width="2.00" stroke-linecap="butt" stroke-linejoin="miter">
</g>
<g fill="none" color="black" stroke="currentColor" stroke-width="2.00" stroke-linecap="butt" stroke-linejoin="miter">
</g>
<g fill="none" color="black" stroke="black" stroke-width="1.00" stroke-linecap="butt" stroke-linejoin="miter">
</g>
<g fill="none" color="black" stroke="currentColor" stroke-width="1.00" stroke-linecap="butt" stroke-linejoin="miter">
	<path stroke='black'  d='M71.9,54.1 L71.9,662.4 L1013.6,662.4 L1013.6,54.1 L71.9,54.1 Z  '/></g>
<g fill="none" color="black" stroke="currentColor" stroke-width="1.00" stroke-linecap="butt" stroke-linejoin="miter">
</g>
</g>
</svg>

