<?xml version="1.0" encoding="utf-8"  standalone="no"?>
<svg 
 viewBox="0 0 1280 720"
 xmlns="http://www.w3.org/2000/svg"
 xmlns:xlink="http://www.w3.org/1999/xlink"
>

<title>Gnuplot</title>
<desc>Produced by GNUPLOT 5.0 patchlevel 6 </desc>

<g id="gnuplot_canvas">

<rect x="0" y="0" width="1280" height="720" fill="none"/>
<defs>

	<circle id='gpDot' r='0.5' stroke-width='0.5'/>
	<path id='gpPt0' stroke-width='0.222' stroke='currentColor' d='M-1,0 h2 M0,-1 v2'/>
	<path id='gpPt1' stroke-width='0.222' stroke='currentColor' d='M-1,-1 L1,1 M1,-1 L-1,1'/>
	<path id='gpPt2' stroke-width='0.222' stroke='currentColor' d='M-1,0 L1,0 M0,-1 L0,1 M-1,-1 L1,1 M-1,1 L1,-1'/>
	<rect id='gpPt3' stroke-width='0.222' stroke='currentColor' x='-1' y='-1' width='2' height='2'/>
	<rect id='gpPt4' stroke-width='0.222' stroke='currentColor' fill='currentColor' x='-1' y='-1' width='2' height='2'/>
	<circle id='gpPt5' stroke-width='0.222' stroke='currentColor' cx='0' cy='0' r='1'/>
	<use xlink:href='#gpPt5' id='gpPt6' fill='currentColor' stroke='none'/>
	<path id='gpPt7' stroke-width='0.222' stroke='currentColor' d='M0,-1.33 L-1.33,0.67 L1.33,0.67 z'/>
	<use xlink:href='#gpPt7' id='gpPt8' fill='currentColor' stroke='none'/>
	<use xlink:href='#gpPt7' id='gpPt9' stroke='currentColor' transform='rotate(180)'/>
	<use xlink:href='#gpPt9' id='gpPt10' fill='currentColor' stroke='none'/>
	<use xlink:href='#gpPt3' id='gpPt11' stroke='currentColor' transform='rotate(45)'/>
	<use xlink:href='#gpPt11' id='gpPt12' fill='currentColor' stroke='none'/>
	<path id='gpPt13' stroke-width='0.222' stroke='currentColor' d='M0,1.330 L1.265,0.411 L0.782,-1.067 L-0.782,-1.076 L-1.265,0.411 z'/>
	<use xlink:href='#gpPt13' id='gpPt14' fill='currentColor' stroke='none'/>
	<filter id='textbox' filterUnits='objectBoundingBox' x='0' y='0' height='1' width='1'>
	  <feFlood flood-color='white' flood-opacity='1' result='bgnd'/>
	  <feComposite in='SourceGraphic' in2='bgnd' operator='atop'/>
	</filter>
	<filter id='greybox' filterUnits='objectBoundingBox' x='0' y='0' height='1' width='1'>
	  <feFlood flood-color='lightgrey' flood-opacity='1' result='grey'/>
	  <feComposite in='SourceGraphic' in2='grey' operator='atop'/>
	</filter>
</defs>
<g fill="none" color="white" stroke="currentColor" stroke-width="1.00" stroke-linecap="butt" stroke-linejoin="miter">
</g>
<g fill="none" color="black" stroke="currentColor" stroke-width="1.00" stroke-linecap="butt" stroke-linejoin="miter">
	<path stroke='black'  d='M88.5,662.4 L97.5,662.4  '/>	<g transform="translate(80.2,666.3)" stroke="none" fill="black" font-family="Helvetica" font-size="12.00"  text-anchor="end">
		<text><tspan font-family="Helvetica" > 0</tspan></text>
	</g>
</g>
<g fill="none" color="black" stroke="currentColor" stroke-width="1.00" stroke-linecap="butt" stroke-linejoin="miter">
	<path stroke='black'  d='M88.5,561.0 L97.5,561.0  '/>	<g transform="translate(80.2,564.9)" stroke="none" fill="black" font-family="Helvetica" font-size="12.00"  text-anchor="end">
		<text><tspan font-family="Helvetica" > 0.005</tspan></text>
	</g>
</g>
<g fill="none" color="black" stroke="currentColor" stroke-width="1.00" stroke-linecap="butt" stroke-linejoin="miter">
	<path stroke='black'  d='M88.5,459.6 L97.5,459.6  '/>	<g transform="translate(80.2,463.5)" stroke="none" fill="black" font-family="Helvetica" font-size="12.00"  text-anchor="end">
		<text><tspan font-family="Helvetica" > 0.01</tspan></text>
	</g>
</g>
<g fill="none" color="black" stroke="currentColor" stroke-width="1.00" stroke-linecap="butt" stroke-linejoin="miter">
	<path stroke='black'  d='M88.5,358.2 L97.5,358.2  '/>	<g transform="translate(80.2,362.1)" stroke="none" fill="black" font-family="Helvetica" font-size="12.00"  text-anchor="end">
		<text><tspan font-family="Helvetica" > 0.015</tspan></text>
	</g>
</g>
<g fill="none" color="black" stroke="currentColor" stroke-width="1.00" stroke-linecap="butt" stroke-linejoin="miter">
	<path stroke='black'  d='M88.5,256.9 L97.5,256.9  '/>	<g transform="translate(80.2,260.8)" stroke="none" fill="black" font-family="Helvetica" font-size="12.00"  text-anchor="end">
		<text><tspan font-family="Helvetica" > 0.02</tspan></text>
	</g>
</g>
<g fill="none" color="black" stroke="currentColor" stroke-width="1.00" stroke-linecap="butt" stroke-linejoin="miter">
	<path stroke='black'  d='M88.5,155.5 L97.5,155.5  '/>	<g transform="translate(80.2,159.4)" stroke="none" fill="black" font-family="Helvetica" font-size="12.00"  text-anchor="end">
		<text><tspan font-family="Helvetica" > 0.025</tspan></text>
	</g>
</g>
<g fill="none" color="black" stroke="currentColor" stroke-width="1.00" stroke-linecap="butt" stroke-linejoin="miter">
	<path stroke='black'  d='M88.5,54.1 L97.5,54.1  '/>	<g transform="translate(80.2,58.0)" stroke="none" fill="black" font-family="Helvetica" font-size="12.00"  text-anchor="end">
		<text><tspan font-family="Helvetica" > 0.03</tspan></text>
	</g>
</g>
<g fill="none" color="black" stroke="currentColor" stroke-width="1.00" stroke-linecap="butt" stroke-linejoin="miter">
	<path stroke='black'  d='M102.3,662.4 L102.3,653.4  '/>	<g transform="translate(102.3,684.3)" stroke="none" fill="black" font-family="Helvetica" font-size="12.00"  text-anchor="middle">
		<text><tspan font-family="Helvetica" > 10</tspan></text>
	</g>
</g>
<g fill="none" color="black" stroke="currentColor" stroke-width="1.00" stroke-linecap="butt" stroke-linejoin="miter">
	<path stroke='black'  d='M217.2,662.4 L217.2,653.4  '/>	<g transform="translate(217.2,684.3)" stroke="none" fill="black" font-family="Helvetica" font-size="12.00"  text-anchor="middle">
		<text><tspan font-family="Helvetica" > 20</tspan></text>
	</g>
</g>
<g fill="none" color="black" stroke="currentColor" stroke-width="1.00" stroke-linecap="butt" stroke-linejoin="miter">
	<path stroke='black'  d='M332.2,662.4 L332.2,653.4  '/>	<g transform="translate(332.2,684.3)" stroke="none" fill="black" font-family="Helvetica" font-size="12.00"  text-anchor="middle">
		<text><tspan font-family="Helvetica" > 30</tspan></text>
	</g>
</g>
<g fill="none" color="black" stroke="currentColor" stroke-width="1.00" stroke-linecap="butt" stroke-linejoin="miter">
	<path stroke='black'  d='M447.1,662.4 L447.1,653.4  '/>	<g transform="translate(447.1,684.3)" stroke="none" fill="black" font-family="Helvetica" font-size="12.00"  text-anchor="middle">
		<text><tspan font-family="Helvetica" > 40</tspan></text>
	</g>
</g>
<g fill="none" color="black" stroke="currentColor" stroke-width="1.00" stroke-linecap="butt" stroke-linejoin="miter">
	<path stroke='black'  d='M562.0,662.4 L562.0,653.4  '/>	<g transform="translate(562.0,684.3)" stroke="none" fill="black" font-family="Helvetica" font-size="12.00"  text-anchor="middle">
		<text><tspan font-family="Helvetica" > 50</tspan></text>
	</g>
</g>
<g fill="none" color="black" stroke="currentColor" stroke-width="1.00" stroke-linecap="butt" stroke-linejoin="miter">
	<path stroke='black'  d='M676.9,662.4 L676.9,653.4  '/>	<g transform="translate(676.9,684.3)" stroke="none" fill="black" font-family="Helvetica" font-size="12.00"  text-anchor="middle">
		<text><tspan font-family="Helvetica" > 60</tspan></text>
	</g>
</g>
<g fill="none" color="black" stroke="currentColor" stroke-width="1.00" stroke-linecap="butt" stroke-linejoin="miter">
	<path stroke='black'  d='M791.9,662.4 L791.9,653.4  '/>	<g transform="translate(791.9,684.3)" stroke="none" fill="black" font-family="Helvetica" font-size="12.00"  text-anchor="middle">
		<text><tspan font-family="Helvetica" > 70</tspan></text>
	</g>
</g>
<g fill="none" color="black" stroke="currentColor" stroke-width="1.00" stroke-linecap="butt" stroke-linejoin="miter">
	<path stroke='black'  d='M906.8,662.4 L906.8,653.4  '/>	<g transform="translate(906.8,684.3)" stroke="none" fill="black" font-family="Helvetica" font-size="12.00"  text-anchor="middle">
		<text><tspan font-family="Helvetica" > 80</tspan></text>
	</g>
</g>
<g fill="none" color="black" stroke="currentColor" stroke-width="1.00" stroke-linecap="butt" stroke-linejoin="miter">
</g>
<g fill="none" color="black" stroke="currentColor" stroke-width="1.00" stroke-linecap="butt" stroke-linejoin="miter">
	<path stroke='black'  d='M88.5,54.1 L88.5,662.4 L1013.6,662.4 L1013.6,54.1 L88.5,54.1 Z  '/></g>
<g fill="none" color="black" stroke="currentColor" stroke-width="1.00" stroke-linecap="butt" stroke-linejoin="miter">
	<g transform="translate(17.0,358.3) rotate(270)" stroke="none" fill="black" font-family="Helvetica" font-size="12.00"  text-anchor="middle">
		<text><tspan font-family="Helvetica" >Density (a.u.)</tspan></text>
	</g>
</g>
<g fill="none" color="black" stroke="currentColor" stroke-width="1.00" stroke-linecap="butt" stroke-linejoin="miter">
	<g transform="translate(551.0,711.3)" stroke="none" fill="black" font-family="Helvetica" font-size="12.00"  text-anchor="middle">
		<text><tspan font-family="Helvetica" >Average time (us)</tspan></text>
	</g>
</g>
<g fill="none" color="black" stroke="currentColor" stroke-width="1.00" stroke-linecap="butt" stroke-linejoin="miter">
	<g transform="translate(551.0,31.0)" stroke="none" fill="black" font-family="Helvetica" font-size="12.00"  text-anchor="middle">
		<text><tspan font-family="Helvetica" >language: bash/parse error: python/examples/python3.8_grammar.py: SD</tspan></text>
	</g>
</g>
	<g id="gnuplot_plot_1" ><title>Bootstrap distribution</title>
<g fill="none" color="white" stroke="black" stroke-width="2.00" stroke-linecap="butt" stroke-linejoin="miter">
</g>
<g fill="none" color="black" stroke="currentColor" stroke-width="2.00" stroke-linecap="butt" stroke-linejoin="miter">
	<g transform="translate(1089.0,67.0)" stroke="none" fill="black" font-family="Helvetica" font-size="12.00"  text-anchor="start">
		<text><tspan font-family="Helvetica" >Bootstrap distribution</tspan></text>
	</g>
</g>
<g fill="none" color="black" stroke="currentColor" stroke-width="2.00" stroke-linecap="butt" stroke-linejoin="miter">
	<path stroke='rgb( 31, 120, 180)'  d='M1038.5,63.1 L1080.7,63.1 M88.5,650.6 L90.4,649.2 L92.2,647.7 L94.1,646.1 L95.9,644.4 L97.8,642.5
		L99.6,640.6 L101.5,638.5 L103.3,636.2 L105.2,633.9 L107.0,631.4 L108.9,628.9 L110.7,626.2 L112.6,623.5
		L114.5,620.6 L116.3,617.7 L118.2,614.7 L120.0,611.6 L121.9,608.5 L123.7,605.4 L125.6,602.2 L127.4,599.0
		L129.3,595.9 L131.1,592.7 L133.0,589.6 L134.8,586.5 L136.7,583.5 L138.6,580.6 L140.4,577.8 L142.3,575.1
		L144.1,572.6 L146.0,570.2 L147.8,568.0 L149.7,566.0 L151.5,564.2 L153.4,562.6 L155.2,561.3 L157.1,560.3
		L158.9,559.5 L160.8,559.0 L162.7,558.8 L164.5,558.9 L166.4,559.3 L168.2,560.0 L170.1,561.0 L171.9,562.4
		L173.8,564.0 L175.6,565.8 L177.5,568.0 L179.3,570.4 L181.2,573.0 L183.0,575.8 L184.9,578.8 L186.8,582.0
		L188.6,585.3 L190.5,588.7 L192.3,592.2 L194.2,595.8 L196.0,599.4 L197.9,603.0 L199.7,606.6 L201.6,610.2
		L203.4,613.7 L205.3,617.1 L207.2,620.4 L209.0,623.6 L210.9,626.7 L212.7,629.6 L214.6,632.4 L216.4,635.0
		L218.3,637.3 L220.1,639.5 L222.0,641.5 L223.8,643.3 L225.7,644.9 L227.5,646.2 L229.4,647.3 L231.3,648.1
		L233.1,648.7 L235.0,649.1 L236.8,649.2 L238.7,649.0 L240.5,648.5 L242.4,647.7 L244.2,646.6 L246.1,645.2
		L247.9,643.5 L249.8,641.5 L251.6,639.2 L253.5,636.4 L255.4,633.4 L257.2,630.0 L259.1,626.2 L260.9,622.1
		L262.8,617.6 L264.6,612.8 L266.5,607.6 L268.3,602.1 L270.2,596.3 L272.0,590.1 L273.9,583.7 L275.7,577.0
		L277.6,570.0 L279.5,562.8 L281.3,555.4 L283.2,547.8 L285.0,540.0 L286.9,532.1 L288.7,524.1 L290.6,515.9
		L292.4,507.6 L294.3,499.3 L296.1,490.9 L298.0,482.4 L299.8,474.0 L301.7,465.5 L303.6,457.1 L305.4,448.8
		L307.3,440.6 L309.1,432.5 L311.0,424.7 L312.8,417.2 L314.7,410.0 L316.5,403.2 L318.4,397.0 L320.2,391.3
		L322.1,386.4 L323.9,382.2 L325.8,378.9 L327.7,376.5 L329.5,375.1 L331.4,374.7 L333.2,375.4 L335.1,377.2
		L336.9,380.1 L338.8,384.1 L340.6,389.1 L342.5,395.1 L344.3,401.9 L346.2,409.5 L348.0,417.8 L349.9,426.6
		L351.8,435.8 L353.6,445.2 L355.5,454.8 L357.3,464.4 L359.2,473.8 L361.0,482.9 L362.9,491.7 L364.7,499.9
		L366.6,507.6 L368.4,514.7 L370.3,521.0 L372.1,526.6 L374.0,531.4 L375.9,535.4 L377.7,538.6 L379.6,541.0
		L381.4,542.6 L383.3,543.3 L385.1,543.2 L387.0,542.3 L388.8,540.6 L390.7,538.0 L392.5,534.5 L394.4,530.1
		L396.2,524.8 L398.1,518.6 L400.0,511.5 L401.8,503.3 L403.7,494.3 L405.5,484.3 L407.4,473.4 L409.2,461.6
		L411.1,449.1 L412.9,435.9 L414.8,422.2 L416.6,408.1 L418.5,393.9 L420.3,379.6 L422.2,365.5 L424.1,351.9
		L425.9,339.0 L427.8,327.0 L429.6,316.2 L431.5,306.7 L433.3,298.8 L435.2,292.6 L437.0,288.2 L438.9,285.7
		L440.7,285.1 L442.6,286.4 L444.5,289.5 L446.3,294.3 L448.2,300.6 L450.0,308.1 L451.9,316.7 L453.7,326.0
		L455.6,335.7 L457.4,345.5 L459.3,355.1 L461.1,364.1 L463.0,372.4 L464.8,379.5 L466.7,385.4 L468.6,389.7
		L470.4,392.4 L472.3,393.4 L474.1,392.6 L476.0,390.1 L477.8,385.9 L479.7,380.1 L481.5,373.0 L483.4,364.6
		L485.2,355.2 L487.1,345.0 L488.9,334.4 L490.8,323.5 L492.7,312.7 L494.5,302.1 L496.4,292.1 L498.2,282.7
		L500.1,274.2 L501.9,266.8 L503.8,260.5 L505.6,255.5 L507.5,251.7 L509.3,249.1 L511.2,247.8 L513.0,247.6
		L514.9,248.6 L516.8,250.4 L518.6,253.1 L520.5,256.4 L522.3,260.2 L524.2,264.2 L526.0,268.3 L527.9,272.1
		L529.7,275.6 L531.6,278.4 L533.4,280.4 L535.3,281.4 L537.1,281.2 L539.0,279.7 L540.9,276.7 L542.7,272.1
		L544.6,266.1 L546.4,258.4 L548.3,249.4 L550.1,239.0 L552.0,227.4 L553.8,214.9 L555.7,201.8 L557.5,188.3
		L559.4,174.8 L561.2,161.6 L563.1,149.1 L565.0,137.7 L566.8,127.5 L568.7,119.1 L570.5,112.5 L572.4,107.9
		L574.2,105.6 L576.1,105.4 L577.9,107.5 L579.8,111.8 L581.6,118.0 L583.5,126.1 L585.3,135.7 L587.2,146.5
		L589.1,158.3 L590.9,170.5 L592.8,183.0 L594.6,195.3 L596.5,207.1 L598.3,218.0 L600.2,227.7 L602.0,236.0
		L603.9,242.6 L605.7,247.4 L607.6,250.3 L609.4,251.1 L611.3,249.8 L613.2,246.5 L615.0,241.2 L616.9,234.1
		L618.7,225.4 L620.6,215.2 L622.4,203.9 L624.3,191.7 L626.1,178.9 L628.0,166.0 L629.8,153.1 L631.7,140.6
		L633.5,128.9 L635.4,118.3 L637.3,109.0 L639.1,101.2 L641.0,95.2 L642.8,91.1 L644.7,88.9 L646.5,88.6
		L648.4,90.3 L650.2,93.8 L652.1,98.9 L653.9,105.5 L655.8,113.3 L657.6,122.1 L659.5,131.6 L661.4,141.4
		L663.2,151.4 L665.1,161.2 L666.9,170.6 L668.8,179.3 L670.6,187.1 L672.5,193.9 L674.3,199.4 L676.2,203.7
		L678.0,206.7 L679.9,208.4 L681.8,208.8 L683.6,208.0 L685.5,206.1 L687.3,203.3 L689.2,199.8 L691.0,195.7
		L692.9,191.2 L694.7,186.7 L696.6,182.1 L698.4,177.9 L700.3,174.1 L702.1,170.8 L704.0,168.3 L705.9,166.6
		L707.7,165.8 L709.6,166.0 L711.4,167.0 L713.3,168.9 L715.1,171.7 L717.0,175.2 L718.8,179.4 L720.7,184.1
		L722.5,189.3 L724.4,194.8 L726.2,200.5 L728.1,206.3 L730.0,212.2 L731.8,217.9 L733.7,223.6 L735.5,229.0
		L737.4,234.3 L739.2,239.3 L741.1,244.1 L742.9,248.7 L744.8,253.0 L746.6,257.0 L748.5,260.9 L750.3,264.5
		L752.2,267.8 L754.1,271.0 L755.9,274.0 L757.8,276.8 L759.6,279.3 L761.5,281.6 L763.3,283.7 L765.2,285.6
		L767.0,287.3 L768.9,288.8 L770.7,290.1 L772.6,291.2 L774.4,292.2 L776.3,293.1 L778.2,294.0 L780.0,294.9
		L781.9,295.8 L783.7,296.9 L785.6,298.1 L787.4,299.6 L789.3,301.4 L791.1,303.6 L793.0,306.1 L794.8,309.0
		L796.7,312.3 L798.5,316.0 L800.4,320.1 L802.3,324.6 L804.1,329.4 L806.0,334.5 L807.8,339.8 L809.7,345.2
		L811.5,350.7 L813.4,356.2 L815.2,361.7 L817.1,367.0 L818.9,372.2 L820.8,377.1 L822.6,381.8 L824.5,386.1
		L826.4,390.2 L828.2,394.0 L830.1,397.5 L831.9,400.8 L833.8,403.8 L835.6,406.7 L837.5,409.4 L839.3,412.1
		L841.2,414.8 L843.0,417.4 L844.9,420.2 L846.7,423.1 L848.6,426.1 L850.5,429.3 L852.3,432.6 L854.2,436.1
		L856.0,439.8 L857.9,443.6 L859.7,447.5 L861.6,451.5 L863.4,455.5 L865.3,459.5 L867.1,463.4 L869.0,467.3
		L870.8,471.0 L872.7,474.6 L874.6,478.0 L876.4,481.3 L878.3,484.4 L880.1,487.3 L882.0,490.1 L883.8,492.7
		L885.7,495.2 L887.5,497.7 L889.4,500.1 L891.2,502.5 L893.1,504.9 L894.9,507.4 L896.8,509.9 L898.7,512.5
		L900.5,515.3 L902.4,518.1 L904.2,521.0 L906.1,524.0 L907.9,527.2 L909.8,530.4 L911.6,533.6 L913.5,536.9
		L915.3,540.3 L917.2,543.6 L919.1,546.9 L920.9,550.1 L922.8,553.3 L924.6,556.4 L926.5,559.4 L928.3,562.3
		L930.2,565.0 L932.0,567.7 L933.9,570.2 L935.7,572.5 L937.6,574.8 L939.4,576.9 L941.3,578.9 L943.2,580.8
		L945.0,582.7 L946.9,584.4 L948.7,586.1 L950.6,587.7 L952.4,589.3 L954.3,590.9 L956.1,592.5 L958.0,594.0
		L959.8,595.6 L961.7,597.1 L963.5,598.7 L965.4,600.2 L967.3,601.8 L969.1,603.4 L971.0,605.0 L972.8,606.6
		L974.7,608.2 L976.5,609.8 L978.4,611.4 L980.2,613.0 L982.1,614.5 L983.9,616.1 L985.8,617.6 L987.6,619.0
		L989.5,620.4 L991.4,621.8 L993.2,623.1 L995.1,624.4 L996.9,625.6 L998.8,626.8 L1000.6,627.9 L1002.5,629.0
		L1004.3,630.0 L1006.2,631.0 L1008.0,632.0 L1009.9,632.9 L1011.7,633.8 L1013.6,634.7  '/></g>
	</g>
	<g id="gnuplot_plot_2" ><title>Confidence interval</title>
<g fill="none" color="white" stroke="rgb( 31, 120, 180)" stroke-width="1.00" stroke-linecap="butt" stroke-linejoin="miter">
</g>
<g fill="none" color="black" stroke="currentColor" stroke-width="1.00" stroke-linecap="butt" stroke-linejoin="miter">
	<g transform="translate(1089.0,85.0)" stroke="none" fill="black" font-family="Helvetica" font-size="12.00"  text-anchor="start">
		<text><tspan font-family="Helvetica" >Confidence interval</tspan></text>
	</g>
</g>
<g fill="none" color="black" stroke="currentColor" stroke-width="1.00" stroke-linecap="butt" stroke-linejoin="miter">
	<g stroke='none' shape-rendering='crispEdges'>
		<polygon fill = 'rgb( 31, 120, 180)' fill-opacity = '0.250000' points = '1038.5,85.6 1080.7,85.6 1080.7,76.6 1038.5,76.6 '/>
		<polygon fill = 'rgb( 31, 120, 180)' fill-opacity = '0.250000' points = '173.8,564.0 173.8,662.4 175.6,662.4 175.6,565.8 '/>
		<polygon fill = 'rgb( 31, 120, 180)' fill-opacity = '0.250000' points = '175.6,565.8 175.6,662.4 177.5,662.4 177.5,568.0 '/>
		<polygon fill = 'rgb( 31, 120, 180)' fill-opacity = '0.250000' points = '177.5,568.0 177.5,662.4 179.3,662.4 179.3,570.4 '/>
		<polygon fill = 'rgb( 31, 120, 180)' fill-opacity = '0.250000' points = '179.3,570.4 179.3,662.4 181.2,662.4 181.2,573.0 '/>
		<polygon fill = 'rgb( 31, 120, 180)' fill-opacity = '0.250000' points = '181.2,573.0 181.2,662.4 183.0,662.4 183.0,575.8 '/>
		<polygon fill = 'rgb( 31, 120, 180)' fill-opacity = '0.250000' points = '183.0,575.8 183.0,662.4 184.9,662.4 184.9,578.8 '/>
		<polygon fill = 'rgb( 31, 120, 180)' fill-opacity = '0.250000' points = '184.9,578.8 184.9,662.4 186.8,662.4 186.8,582.0 '/>
		<polygon fill = 'rgb( 31, 120, 180)' fill-opacity = '0.250000' points = '186.8,582.0 186.8,662.4 188.6,662.4 188.6,585.3 '/>
		<polygon fill = 'rgb( 31, 120, 180)' fill-opacity = '0.250000' points = '188.6,585.3 188.6,662.4 190.5,662.4 190.5,588.7 '/>
		<polygon fill = 'rgb( 31, 120, 180)' fill-opacity = '0.250000' points = '190.5,588.7 190.5,662.4 192.3,662.4 192.3,592.2 '/>
		<polygon fill = 'rgb( 31, 120, 180)' fill-opacity = '0.250000' points = '192.3,592.2 192.3,662.4 194.2,662.4 194.2,595.8 '/>
		<polygon fill = 'rgb( 31, 120, 180)' fill-opacity = '0.250000' points = '194.2,595.8 194.2,662.4 196.0,662.4 196.0,599.4 '/>
		<polygon fill = 'rgb( 31, 120, 180)' fill-opacity = '0.250000' points = '196.0,599.4 196.0,662.4 197.9,662.4 197.9,603.0 '/>
		<polygon fill = 'rgb( 31, 120, 180)' fill-opacity = '0.250000' points = '197.9,603.0 197.9,662.4 199.7,662.4 199.7,606.6 '/>
		<polygon fill = 'rgb( 31, 120, 180)' fill-opacity = '0.250000' points = '199.7,606.6 199.7,662.4 201.6,662.4 201.6,610.2 '/>
		<polygon fill = 'rgb( 31, 120, 180)' fill-opacity = '0.250000' points = '201.6,610.2 201.6,662.4 203.4,662.4 203.4,613.7 '/>
		<polygon fill = 'rgb( 31, 120, 180)' fill-opacity = '0.250000' points = '203.4,613.7 203.4,662.4 205.3,662.4 205.3,617.1 '/>
		<polygon fill = 'rgb( 31, 120, 180)' fill-opacity = '0.250000' points = '205.3,617.1 205.3,662.4 207.2,662.4 207.2,620.4 '/>
		<polygon fill = 'rgb( 31, 120, 180)' fill-opacity = '0.250000' points = '207.2,620.4 207.2,662.4 209.0,662.4 209.0,623.6 '/>
		<polygon fill = 'rgb( 31, 120, 180)' fill-opacity = '0.250000' points = '209.0,623.6 209.0,662.4 210.9,662.4 210.9,626.7 '/>
		<polygon fill = 'rgb( 31, 120, 180)' fill-opacity = '0.250000' points = '210.9,626.7 210.9,662.4 212.7,662.4 212.7,629.6 '/>
		<polygon fill = 'rgb( 31, 120, 180)' fill-opacity = '0.250000' points = '212.7,629.6 212.7,662.4 214.6,662.4 214.6,632.4 '/>
		<polygon fill = 'rgb( 31, 120, 180)' fill-opacity = '0.250000' points = '214.6,632.4 214.6,662.4 216.4,662.4 216.4,635.0 '/>
		<polygon fill = 'rgb( 31, 120, 180)' fill-opacity = '0.250000' points = '216.4,635.0 216.4,662.4 218.3,662.4 218.3,637.3 '/>
		<polygon fill = 'rgb( 31, 120, 180)' fill-opacity = '0.250000' points = '218.3,637.3 218.3,662.4 220.1,662.4 220.1,639.5 '/>
		<polygon fill = 'rgb( 31, 120, 180)' fill-opacity = '0.250000' points = '220.1,639.5 220.1,662.4 222.0,662.4 222.0,641.5 '/>
		<polygon fill = 'rgb( 31, 120, 180)' fill-opacity = '0.250000' points = '222.0,641.5 222.0,662.4 223.8,662.4 223.8,643.3 '/>
		<polygon fill = 'rgb( 31, 120, 180)' fill-opacity = '0.250000' points = '223.8,643.3 223.8,662.4 225.7,662.4 225.7,644.9 '/>
		<polygon fill = 'rgb( 31, 120, 180)' fill-opacity = '0.250000' points = '225.7,644.9 225.7,662.4 227.5,662.4 227.5,646.2 '/>
		<polygon fill = 'rgb( 31, 120, 180)' fill-opacity = '0.250000' points = '227.5,646.2 227.5,662.4 229.4,662.4 229.4,647.3 '/>
		<polygon fill = 'rgb( 31, 120, 180)' fill-opacity = '0.250000' points = '229.4,647.3 229.4,662.4 231.3,662.4 231.3,648.1 '/>
		<polygon fill = 'rgb( 31, 120, 180)' fill-opacity = '0.250000' points = '231.3,648.1 231.3,662.4 233.1,662.4 233.1,648.7 '/>
		<polygon fill = 'rgb( 31, 120, 180)' fill-opacity = '0.250000' points = '233.1,648.7 233.1,662.4 235.0,662.4 235.0,649.1 '/>
		<polygon fill = 'rgb( 31, 120, 180)' fill-opacity = '0.250000' points = '235.0,649.1 235.0,662.4 236.8,662.4 236.8,649.2 '/>
		<polygon fill = 'rgb( 31, 120, 180)' fill-opacity = '0.250000' points = '236.8,649.2 236.8,662.4 238.7,662.4 238.7,649.0 '/>
		<polygon fill = 'rgb( 31, 120, 180)' fill-opacity = '0.250000' points = '238.7,649.0 238.7,662.4 240.5,662.4 240.5,648.5 '/>
		<polygon fill = 'rgb( 31, 120, 180)' fill-opacity = '0.250000' points = '240.5,648.5 240.5,662.4 242.4,662.4 242.4,647.7 '/>
		<polygon fill = 'rgb( 31, 120, 180)' fill-opacity = '0.250000' points = '242.4,647.7 242.4,662.4 244.2,662.4 244.2,646.6 '/>
		<polygon fill = 'rgb( 31, 120, 180)' fill-opacity = '0.250000' points = '244.2,646.6 244.2,662.4 246.1,662.4 246.1,645.2 '/>
		<polygon fill = 'rgb( 31, 120, 180)' fill-opacity = '0.250000' points = '246.1,645.2 246.1,662.4 247.9,662.4 247.9,643.5 '/>
		<polygon fill = 'rgb( 31, 120, 180)' fill-opacity = '0.250000' points = '247.9,643.5 247.9,662.4 249.8,662.4 249.8,641.5 '/>
		<polygon fill = 'rgb( 31, 120, 180)' fill-opacity = '0.250000' points = '249.8,641.5 249.8,662.4 251.6,662.4 251.6,639.2 '/>
		<polygon fill = 'rgb( 31, 120, 180)' fill-opacity = '0.250000' points = '251.6,639.2 251.6,662.4 253.5,662.4 253.5,636.4 '/>
		<polygon fill = 'rgb( 31, 120, 180)' fill-opacity = '0.250000' points = '253.5,636.4 253.5,662.4 255.4,662.4 255.4,633.4 '/>
		<polygon fill = 'rgb( 31, 120, 180)' fill-opacity = '0.250000' points = '255.4,633.4 255.4,662.4 257.2,662.4 257.2,630.0 '/>
		<polygon fill = 'rgb( 31, 120, 180)' fill-opacity = '0.250000' points = '257.2,630.0 257.2,662.4 259.1,662.4 259.1,626.2 '/>
		<polygon fill = 'rgb( 31, 120, 180)' fill-opacity = '0.250000' points = '259.1,626.2 259.1,662.4 260.9,662.4 260.9,622.1 '/>
		<polygon fill = 'rgb( 31, 120, 180)' fill-opacity = '0.250000' points = '260.9,622.1 260.9,662.4 262.8,662.4 262.8,617.6 '/>
		<polygon fill = 'rgb( 31, 120, 180)' fill-opacity = '0.250000' points = '262.8,617.6 262.8,662.4 264.6,662.4 264.6,612.8 '/>
		<polygon fill = 'rgb( 31, 120, 180)' fill-opacity = '0.250000' points = '264.6,612.8 264.6,662.4 266.5,662.4 266.5,607.6 '/>
		<polygon fill = 'rgb( 31, 120, 180)' fill-opacity = '0.250000' points = '266.5,607.6 266.5,662.4 268.3,662.4 268.3,602.1 '/>
		<polygon fill = 'rgb( 31, 120, 180)' fill-opacity = '0.250000' points = '268.3,602.1 268.3,662.4 270.2,662.4 270.2,596.3 '/>
		<polygon fill = 'rgb( 31, 120, 180)' fill-opacity = '0.250000' points = '270.2,596.3 270.2,662.4 272.0,662.4 272.0,590.1 '/>
		<polygon fill = 'rgb( 31, 120, 180)' fill-opacity = '0.250000' points = '272.0,590.1 272.0,662.4 273.9,662.4 273.9,583.7 '/>
		<polygon fill = 'rgb( 31, 120, 180)' fill-opacity = '0.250000' points = '273.9,583.7 273.9,662.4 275.7,662.4 275.7,577.0 '/>
		<polygon fill = 'rgb( 31, 120, 180)' fill-opacity = '0.250000' points = '275.7,577.0 275.7,662.4 277.6,662.4 277.6,570.0 '/>
		<polygon fill = 'rgb( 31, 120, 180)' fill-opacity = '0.250000' points = '277.6,570.0 277.6,662.4 279.5,662.4 279.5,562.8 '/>
		<polygon fill = 'rgb( 31, 120, 180)' fill-opacity = '0.250000' points = '279.5,562.8 279.5,662.4 281.3,662.4 281.3,555.4 '/>
		<polygon fill = 'rgb( 31, 120, 180)' fill-opacity = '0.250000' points = '281.3,555.4 281.3,662.4 283.2,662.4 283.2,547.8 '/>
		<polygon fill = 'rgb( 31, 120, 180)' fill-opacity = '0.250000' points = '283.2,547.8 283.2,662.4 285.0,662.4 285.0,540.0 '/>
		<polygon fill = 'rgb( 31, 120, 180)' fill-opacity = '0.250000' points = '285.0,540.0 285.0,662.4 286.9,662.4 286.9,532.1 '/>
		<polygon fill = 'rgb( 31, 120, 180)' fill-opacity = '0.250000' points = '286.9,532.1 286.9,662.4 288.7,662.4 288.7,524.1 '/>
		<polygon fill = 'rgb( 31, 120, 180)' fill-opacity = '0.250000' points = '288.7,524.1 288.7,662.4 290.6,662.4 290.6,515.9 '/>
		<polygon fill = 'rgb( 31, 120, 180)' fill-opacity = '0.250000' points = '290.6,515.9 290.6,662.4 292.4,662.4 292.4,507.6 '/>
		<polygon fill = 'rgb( 31, 120, 180)' fill-opacity = '0.250000' points = '292.4,507.6 292.4,662.4 294.3,662.4 294.3,499.3 '/>
		<polygon fill = 'rgb( 31, 120, 180)' fill-opacity = '0.250000' points = '294.3,499.3 294.3,662.4 296.1,662.4 296.1,490.9 '/>
		<polygon fill = 'rgb( 31, 120, 180)' fill-opacity = '0.250000' points = '296.1,490.9 296.1,662.4 298.0,662.4 298.0,482.4 '/>
		<polygon fill = 'rgb( 31, 120, 180)' fill-opacity = '0.250000' points = '298.0,482.4 298.0,662.4 299.8,662.4 299.8,474.0 '/>
		<polygon fill = 'rgb( 31, 120, 180)' fill-opacity = '0.250000' points = '299.8,474.0 299.8,662.4 301.7,662.4 301.7,465.5 '/>
		<polygon fill = 'rgb( 31, 120, 180)' fill-opacity = '0.250000' points = '301.7,465.5 301.7,662.4 303.6,662.4 303.6,457.1 '/>
		<polygon fill = 'rgb( 31, 120, 180)' fill-opacity = '0.250000' points = '303.6,457.1 303.6,662.4 305.4,662.4 305.4,448.8 '/>
		<polygon fill = 'rgb( 31, 120, 180)' fill-opacity = '0.250000' points = '305.4,448.8 305.4,662.4 307.3,662.4 307.3,440.6 '/>
		<polygon fill = 'rgb( 31, 120, 180)' fill-opacity = '0.250000' points = '307.3,440.6 307.3,662.4 309.1,662.4 309.1,432.5 '/>
		<polygon fill = 'rgb( 31, 120, 180)' fill-opacity = '0.250000' points = '309.1,432.5 309.1,662.4 311.0,662.4 311.0,424.7 '/>
		<polygon fill = 'rgb( 31, 120, 180)' fill-opacity = '0.250000' points = '311.0,424.7 311.0,662.4 312.8,662.4 312.8,417.2 '/>
		<polygon fill = 'rgb( 31, 120, 180)' fill-opacity = '0.250000' points = '312.8,417.2 312.8,662.4 314.7,662.4 314.7,410.0 '/>
		<polygon fill = 'rgb( 31, 120, 180)' fill-opacity = '0.250000' points = '314.7,410.0 314.7,662.4 316.5,662.4 316.5,403.2 '/>
		<polygon fill = 'rgb( 31, 120, 180)' fill-opacity = '0.250000' points = '316.5,403.2 316.5,662.4 318.4,662.4 318.4,397.0 '/>
		<polygon fill = 'rgb( 31, 120, 180)' fill-opacity = '0.250000' points = '318.4,397.0 318.4,662.4 320.2,662.4 320.2,391.3 '/>
		<polygon fill = 'rgb( 31, 120, 180)' fill-opacity = '0.250000' points = '320.2,391.3 320.2,662.4 322.1,662.4 322.1,386.4 '/>
		<polygon fill = 'rgb( 31, 120, 180)' fill-opacity = '0.250000' points = '322.1,386.4 322.1,662.4 323.9,662.4 323.9,382.2 '/>
		<polygon fill = 'rgb( 31, 120, 180)' fill-opacity = '0.250000' points = '323.9,382.2 323.9,662.4 325.8,662.4 325.8,378.9 '/>
		<polygon fill = 'rgb( 31, 120, 180)' fill-opacity = '0.250000' points = '325.8,378.9 325.8,662.4 327.7,662.4 327.7,376.5 '/>
		<polygon fill = 'rgb( 31, 120, 180)' fill-opacity = '0.250000' points = '327.7,376.5 327.7,662.4 329.5,662.4 329.5,375.1 '/>
		<polygon fill = 'rgb( 31, 120, 180)' fill-opacity = '0.250000' points = '329.5,375.1 329.5,662.4 331.4,662.4 331.4,374.7 '/>
		<polygon fill = 'rgb( 31, 120, 180)' fill-opacity = '0.250000' points = '331.4,374.7 331.4,662.4 333.2,662.4 333.2,375.4 '/>
		<polygon fill = 'rgb( 31, 120, 180)' fill-opacity = '0.250000' points = '333.2,375.4 333.2,662.4 335.1,662.4 335.1,377.2 '/>
		<polygon fill = 'rgb( 31, 120, 180)' fill-opacity = '0.250000' points = '335.1,377.2 335.1,662.4 336.9,662.4 336.9,380.1 '/>
		<polygon fill = 'rgb( 31, 120, 180)' fill-opacity = '0.250000' points = '336.9,380.1 336.9,662.4 338.8,662.4 338.8,384.1 '/>
		<polygon fill = 'rgb( 31, 120, 180)' fill-opacity = '0.250000' points = '338.8,384.1 338.8,662.4 340.6,662.4 340.6,389.1 '/>
		<polygon fill = 'rgb( 31, 120, 180)' fill-opacity = '0.250000' points = '340.6,389.1 340.6,662.4 342.5,662.4 342.5,395.1 '/>
		<polygon fill = 'rgb( 31, 120, 180)' fill-opacity = '0.250000' points = '342.5,395.1 342.5,662.4 344.3,662.4 344.3,401.9 '/>
		<polygon fill = 'rgb( 31, 120, 180)' fill-opacity = '0.250000' points = '344.3,401.9 344.3,662.4 346.2,662.4 346.2,409.5 '/>
		<polygon fill = 'rgb( 31, 120, 180)' fill-opacity = '0.250000' points = '346.2,409.5 346.2,662.4 348.0,662.4 348.0,417.8 '/>
		<polygon fill = 'rgb( 31, 120, 180)' fill-opacity = '0.250000' points = '348.0,417.8 348.0,662.4 349.9,662.4 349.9,426.6 '/>
		<polygon fill = 'rgb( 31, 120, 180)' fill-opacity = '0.250000' points = '349.9,426.6 349.9,662.4 351.8,662.4 351.8,435.8 '/>
		<polygon fill = 'rgb( 31, 120, 180)' fill-opacity = '0.250000' points = '351.8,435.8 351.8,662.4 353.6,662.4 353.6,445.2 '/>
		<polygon fill = 'rgb( 31, 120, 180)' fill-opacity = '0.250000' points = '353.6,445.2 353.6,662.4 355.5,662.4 355.5,454.8 '/>
		<polygon fill = 'rgb( 31, 120, 180)' fill-opacity = '0.250000' points = '355.5,454.8 355.5,662.4 357.3,662.4 357.3,464.4 '/>
		<polygon fill = 'rgb( 31, 120, 180)' fill-opacity = '0.250000' points = '357.3,464.4 357.3,662.4 359.2,662.4 359.2,473.8 '/>
		<polygon fill = 'rgb( 31, 120, 180)' fill-opacity = '0.250000' points = '359.2,473.8 359.2,662.4 361.0,662.4 361.0,482.9 '/>
		<polygon fill = 'rgb( 31, 120, 180)' fill-opacity = '0.250000' points = '361.0,482.9 361.0,662.4 362.9,662.4 362.9,491.7 '/>
		<polygon fill = 'rgb( 31, 120, 180)' fill-opacity = '0.250000' points = '362.9,491.7 362.9,662.4 364.7,662.4 364.7,499.9 '/>
		<polygon fill = 'rgb( 31, 120, 180)' fill-opacity = '0.250000' points = '364.7,499.9 364.7,662.4 366.6,662.4 366.6,507.6 '/>
		<polygon fill = 'rgb( 31, 120, 180)' fill-opacity = '0.250000' points = '366.6,507.6 366.6,662.4 368.4,662.4 368.4,514.7 '/>
		<polygon fill = 'rgb( 31, 120, 180)' fill-opacity = '0.250000' points = '368.4,514.7 368.4,662.4 370.3,662.4 370.3,521.0 '/>
		<polygon fill = 'rgb( 31, 120, 180)' fill-opacity = '0.250000' points = '370.3,521.0 370.3,662.4 372.1,662.4 372.1,526.6 '/>
		<polygon fill = 'rgb( 31, 120, 180)' fill-opacity = '0.250000' points = '372.1,526.6 372.1,662.4 374.0,662.4 374.0,531.4 '/>
		<polygon fill = 'rgb( 31, 120, 180)' fill-opacity = '0.250000' points = '374.0,531.4 374.0,662.4 375.9,662.4 375.9,535.4 '/>
		<polygon fill = 'rgb( 31, 120, 180)' fill-opacity = '0.250000' points = '375.9,535.4 375.9,662.4 377.7,662.4 377.7,538.6 '/>
		<polygon fill = 'rgb( 31, 120, 180)' fill-opacity = '0.250000' points = '377.7,538.6 377.7,662.4 379.6,662.4 379.6,541.0 '/>
		<polygon fill = 'rgb( 31, 120, 180)' fill-opacity = '0.250000' points = '379.6,541.0 379.6,662.4 381.4,662.4 381.4,542.6 '/>
		<polygon fill = 'rgb( 31, 120, 180)' fill-opacity = '0.250000' points = '381.4,542.6 381.4,662.4 383.3,662.4 383.3,543.3 '/>
		<polygon fill = 'rgb( 31, 120, 180)' fill-opacity = '0.250000' points = '383.3,543.3 383.3,662.4 385.1,662.4 385.1,543.2 '/>
		<polygon fill = 'rgb( 31, 120, 180)' fill-opacity = '0.250000' points = '385.1,543.2 385.1,662.4 387.0,662.4 387.0,542.3 '/>
		<polygon fill = 'rgb( 31, 120, 180)' fill-opacity = '0.250000' points = '387.0,542.3 387.0,662.4 388.8,662.4 388.8,540.6 '/>
		<polygon fill = 'rgb( 31, 120, 180)' fill-opacity = '0.250000' points = '388.8,540.6 388.8,662.4 390.7,662.4 390.7,538.0 '/>
		<polygon fill = 'rgb( 31, 120, 180)' fill-opacity = '0.250000' points = '390.7,538.0 390.7,662.4 392.5,662.4 392.5,534.5 '/>
		<polygon fill = 'rgb( 31, 120, 180)' fill-opacity = '0.250000' points = '392.5,534.5 392.5,662.4 394.4,662.4 394.4,530.1 '/>
		<polygon fill = 'rgb( 31, 120, 180)' fill-opacity = '0.250000' points = '394.4,530.1 394.4,662.4 396.2,662.4 396.2,524.8 '/>
		<polygon fill = 'rgb( 31, 120, 180)' fill-opacity = '0.250000' points = '396.2,524.8 396.2,662.4 398.1,662.4 398.1,518.6 '/>
		<polygon fill = 'rgb( 31, 120, 180)' fill-opacity = '0.250000' points = '398.1,518.6 398.1,662.4 400.0,662.4 400.0,511.5 '/>
		<polygon fill = 'rgb( 31, 120, 180)' fill-opacity = '0.250000' points = '400.0,511.5 400.0,662.4 401.8,662.4 401.8,503.3 '/>
		<polygon fill = 'rgb( 31, 120, 180)' fill-opacity = '0.250000' points = '401.8,503.3 401.8,662.4 403.7,662.4 403.7,494.3 '/>
		<polygon fill = 'rgb( 31, 120, 180)' fill-opacity = '0.250000' points = '403.7,494.3 403.7,662.4 405.5,662.4 405.5,484.3 '/>
		<polygon fill = 'rgb( 31, 120, 180)' fill-opacity = '0.250000' points = '405.5,484.3 405.5,662.4 407.4,662.4 407.4,473.4 '/>
		<polygon fill = 'rgb( 31, 120, 180)' fill-opacity = '0.250000' points = '407.4,473.4 407.4,662.4 409.2,662.4 409.2,461.6 '/>
		<polygon fill = 'rgb( 31, 120, 180)' fill-opacity = '0.250000' points = '409.2,461.6 409.2,662.4 411.1,662.4 411.1,449.1 '/>
		<polygon fill = 'rgb( 31, 120, 180)' fill-opacity = '0.250000' points = '411.1,449.1 411.1,662.4 412.9,662.4 412.9,435.9 '/>
		<polygon fill = 'rgb( 31, 120, 180)' fill-opacity = '0.250000' points = '412.9,435.9 412.9,662.4 414.8,662.4 414.8,422.2 '/>
		<polygon fill = 'rgb( 31, 120, 180)' fill-opacity = '0.250000' points = '414.8,422.2 414.8,662.4 416.6,662.4 416.6,408.1 '/>
		<polygon fill = 'rgb( 31, 120, 180)' fill-opacity = '0.250000' points = '416.6,408.1 416.6,662.4 418.5,662.4 418.5,393.9 '/>
		<polygon fill = 'rgb( 31, 120, 180)' fill-opacity = '0.250000' points = '418.5,393.9 418.5,662.4 420.3,662.4 420.3,379.6 '/>
		<polygon fill = 'rgb( 31, 120, 180)' fill-opacity = '0.250000' points = '420.3,379.6 420.3,662.4 422.2,662.4 422.2,365.5 '/>
		<polygon fill = 'rgb( 31, 120, 180)' fill-opacity = '0.250000' points = '422.2,365.5 422.2,662.4 424.1,662.4 424.1,351.9 '/>
		<polygon fill = 'rgb( 31, 120, 180)' fill-opacity = '0.250000' points = '424.1,351.9 424.1,662.4 425.9,662.4 425.9,339.0 '/>
		<polygon fill = 'rgb( 31, 120, 180)' fill-opacity = '0.250000' points = '425.9,339.0 425.9,662.4 427.8,662.4 427.8,327.0 '/>
		<polygon fill = 'rgb( 31, 120, 180)' fill-opacity = '0.250000' points = '427.8,327.0 427.8,662.4 429.6,662.4 429.6,316.2 '/>
		<polygon fill = 'rgb( 31, 120, 180)' fill-opacity = '0.250000' points = '429.6,316.2 429.6,662.4 431.5,662.4 431.5,306.7 '/>
		<polygon fill = 'rgb( 31, 120, 180)' fill-opacity = '0.250000' points = '431.5,306.7 431.5,662.4 433.3,662.4 433.3,298.8 '/>
		<polygon fill = 'rgb( 31, 120, 180)' fill-opacity = '0.250000' points = '433.3,298.8 433.3,662.4 435.2,662.4 435.2,292.6 '/>
		<polygon fill = 'rgb( 31, 120, 180)' fill-opacity = '0.250000' points = '435.2,292.6 435.2,662.4 437.0,662.4 437.0,288.2 '/>
		<polygon fill = 'rgb( 31, 120, 180)' fill-opacity = '0.250000' points = '437.0,288.2 437.0,662.4 438.9,662.4 438.9,285.7 '/>
		<polygon fill = 'rgb( 31, 120, 180)' fill-opacity = '0.250000' points = '438.9,285.7 438.9,662.4 440.7,662.4 440.7,285.1 '/>
		<polygon fill = 'rgb( 31, 120, 180)' fill-opacity = '0.250000' points = '440.7,285.1 440.7,662.4 442.6,662.4 442.6,286.4 '/>
		<polygon fill = 'rgb( 31, 120, 180)' fill-opacity = '0.250000' points = '442.6,286.4 442.6,662.4 444.5,662.4 444.5,289.5 '/>
		<polygon fill = 'rgb( 31, 120, 180)' fill-opacity = '0.250000' points = '444.5,289.5 444.5,662.4 446.3,662.4 446.3,294.3 '/>
		<polygon fill = 'rgb( 31, 120, 180)' fill-opacity = '0.250000' points = '446.3,294.3 446.3,662.4 448.2,662.4 448.2,300.6 '/>
		<polygon fill = 'rgb( 31, 120, 180)' fill-opacity = '0.250000' points = '448.2,300.6 448.2,662.4 450.0,662.4 450.0,308.1 '/>
		<polygon fill = 'rgb( 31, 120, 180)' fill-opacity = '0.250000' points = '450.0,308.1 450.0,662.4 451.9,662.4 451.9,316.7 '/>
		<polygon fill = 'rgb( 31, 120, 180)' fill-opacity = '0.250000' points = '451.9,316.7 451.9,662.4 453.7,662.4 453.7,326.0 '/>
		<polygon fill = 'rgb( 31, 120, 180)' fill-opacity = '0.250000' points = '453.7,326.0 453.7,662.4 455.6,662.4 455.6,335.7 '/>
		<polygon fill = 'rgb( 31, 120, 180)' fill-opacity = '0.250000' points = '455.6,335.7 455.6,662.4 457.4,662.4 457.4,345.5 '/>
		<polygon fill = 'rgb( 31, 120, 180)' fill-opacity = '0.250000' points = '457.4,345.5 457.4,662.4 459.3,662.4 459.3,355.1 '/>
		<polygon fill = 'rgb( 31, 120, 180)' fill-opacity = '0.250000' points = '459.3,355.1 459.3,662.4 461.1,662.4 461.1,364.1 '/>
		<polygon fill = 'rgb( 31, 120, 180)' fill-opacity = '0.250000' points = '461.1,364.1 461.1,662.4 463.0,662.4 463.0,372.4 '/>
		<polygon fill = 'rgb( 31, 120, 180)' fill-opacity = '0.250000' points = '463.0,372.4 463.0,662.4 464.8,662.4 464.8,379.5 '/>
		<polygon fill = 'rgb( 31, 120, 180)' fill-opacity = '0.250000' points = '464.8,379.5 464.8,662.4 466.7,662.4 466.7,385.4 '/>
		<polygon fill = 'rgb( 31, 120, 180)' fill-opacity = '0.250000' points = '466.7,385.4 466.7,662.4 468.6,662.4 468.6,389.7 '/>
		<polygon fill = 'rgb( 31, 120, 180)' fill-opacity = '0.250000' points = '468.6,389.7 468.6,662.4 470.4,662.4 470.4,392.4 '/>
		<polygon fill = 'rgb( 31, 120, 180)' fill-opacity = '0.250000' points = '470.4,392.4 470.4,662.4 472.3,662.4 472.3,393.4 '/>
		<polygon fill = 'rgb( 31, 120, 180)' fill-opacity = '0.250000' points = '472.3,393.4 472.3,662.4 474.1,662.4 474.1,392.6 '/>
		<polygon fill = 'rgb( 31, 120, 180)' fill-opacity = '0.250000' points = '474.1,392.6 474.1,662.4 476.0,662.4 476.0,390.1 '/>
		<polygon fill = 'rgb( 31, 120, 180)' fill-opacity = '0.250000' points = '476.0,390.1 476.0,662.4 477.8,662.4 477.8,385.9 '/>
		<polygon fill = 'rgb( 31, 120, 180)' fill-opacity = '0.250000' points = '477.8,385.9 477.8,662.4 479.7,662.4 479.7,380.1 '/>
		<polygon fill = 'rgb( 31, 120, 180)' fill-opacity = '0.250000' points = '479.7,380.1 479.7,662.4 481.5,662.4 481.5,373.0 '/>
		<polygon fill = 'rgb( 31, 120, 180)' fill-opacity = '0.250000' points = '481.5,373.0 481.5,662.4 483.4,662.4 483.4,364.6 '/>
		<polygon fill = 'rgb( 31, 120, 180)' fill-opacity = '0.250000' points = '483.4,364.6 483.4,662.4 485.2,662.4 485.2,355.2 '/>
		<polygon fill = 'rgb( 31, 120, 180)' fill-opacity = '0.250000' points = '485.2,355.2 485.2,662.4 487.1,662.4 487.1,345.0 '/>
		<polygon fill = 'rgb( 31, 120, 180)' fill-opacity = '0.250000' points = '487.1,345.0 487.1,662.4 488.9,662.4 488.9,334.4 '/>
		<polygon fill = 'rgb( 31, 120, 180)' fill-opacity = '0.250000' points = '488.9,334.4 488.9,662.4 490.8,662.4 490.8,323.5 '/>
		<polygon fill = 'rgb( 31, 120, 180)' fill-opacity = '0.250000' points = '490.8,323.5 490.8,662.4 492.7,662.4 492.7,312.7 '/>
		<polygon fill = 'rgb( 31, 120, 180)' fill-opacity = '0.250000' points = '492.7,312.7 492.7,662.4 494.5,662.4 494.5,302.1 '/>
		<polygon fill = 'rgb( 31, 120, 180)' fill-opacity = '0.250000' points = '494.5,302.1 494.5,662.4 496.4,662.4 496.4,292.1 '/>
		<polygon fill = 'rgb( 31, 120, 180)' fill-opacity = '0.250000' points = '496.4,292.1 496.4,662.4 498.2,662.4 498.2,282.7 '/>
		<polygon fill = 'rgb( 31, 120, 180)' fill-opacity = '0.250000' points = '498.2,282.7 498.2,662.4 500.1,662.4 500.1,274.2 '/>
		<polygon fill = 'rgb( 31, 120, 180)' fill-opacity = '0.250000' points = '500.1,274.2 500.1,662.4 501.9,662.4 501.9,266.8 '/>
		<polygon fill = 'rgb( 31, 120, 180)' fill-opacity = '0.250000' points = '501.9,266.8 501.9,662.4 503.8,662.4 503.8,260.5 '/>
		<polygon fill = 'rgb( 31, 120, 180)' fill-opacity = '0.250000' points = '503.8,260.5 503.8,662.4 505.6,662.4 505.6,255.5 '/>
		<polygon fill = 'rgb( 31, 120, 180)' fill-opacity = '0.250000' points = '505.6,255.5 505.6,662.4 507.5,662.4 507.5,251.7 '/>
		<polygon fill = 'rgb( 31, 120, 180)' fill-opacity = '0.250000' points = '507.5,251.7 507.5,662.4 509.3,662.4 509.3,249.1 '/>
		<polygon fill = 'rgb( 31, 120, 180)' fill-opacity = '0.250000' points = '509.3,249.1 509.3,662.4 511.2,662.4 511.2,247.8 '/>
		<polygon fill = 'rgb( 31, 120, 180)' fill-opacity = '0.250000' points = '511.2,247.8 511.2,662.4 513.0,662.4 513.0,247.6 '/>
		<polygon fill = 'rgb( 31, 120, 180)' fill-opacity = '0.250000' points = '513.0,247.6 513.0,662.4 514.9,662.4 514.9,248.6 '/>
		<polygon fill = 'rgb( 31, 120, 180)' fill-opacity = '0.250000' points = '514.9,248.6 514.9,662.4 516.8,662.4 516.8,250.4 '/>
		<polygon fill = 'rgb( 31, 120, 180)' fill-opacity = '0.250000' points = '516.8,250.4 516.8,662.4 518.6,662.4 518.6,253.1 '/>
		<polygon fill = 'rgb( 31, 120, 180)' fill-opacity = '0.250000' points = '518.6,253.1 518.6,662.4 520.5,662.4 520.5,256.4 '/>
		<polygon fill = 'rgb( 31, 120, 180)' fill-opacity = '0.250000' points = '520.5,256.4 520.5,662.4 522.3,662.4 522.3,260.2 '/>
		<polygon fill = 'rgb( 31, 120, 180)' fill-opacity = '0.250000' points = '522.3,260.2 522.3,662.4 524.2,662.4 524.2,264.2 '/>
		<polygon fill = 'rgb( 31, 120, 180)' fill-opacity = '0.250000' points = '524.2,264.2 524.2,662.4 526.0,662.4 526.0,268.3 '/>
		<polygon fill = 'rgb( 31, 120, 180)' fill-opacity = '0.250000' points = '526.0,268.3 526.0,662.4 527.9,662.4 527.9,272.1 '/>
		<polygon fill = 'rgb( 31, 120, 180)' fill-opacity = '0.250000' points = '527.9,272.1 527.9,662.4 529.7,662.4 529.7,275.6 '/>
		<polygon fill = 'rgb( 31, 120, 180)' fill-opacity = '0.250000' points = '529.7,275.6 529.7,662.4 531.6,662.4 531.6,278.4 '/>
		<polygon fill = 'rgb( 31, 120, 180)' fill-opacity = '0.250000' points = '531.6,278.4 531.6,662.4 533.4,662.4 533.4,280.4 '/>
		<polygon fill = 'rgb( 31, 120, 180)' fill-opacity = '0.250000' points = '533.4,280.4 533.4,662.4 535.3,662.4 535.3,281.4 '/>
		<polygon fill = 'rgb( 31, 120, 180)' fill-opacity = '0.250000' points = '535.3,281.4 535.3,662.4 537.1,662.4 537.1,281.2 '/>
		<polygon fill = 'rgb( 31, 120, 180)' fill-opacity = '0.250000' points = '537.1,281.2 537.1,662.4 539.0,662.4 539.0,279.7 '/>
		<polygon fill = 'rgb( 31, 120, 180)' fill-opacity = '0.250000' points = '539.0,279.7 539.0,662.4 540.9,662.4 540.9,276.7 '/>
		<polygon fill = 'rgb( 31, 120, 180)' fill-opacity = '0.250000' points = '540.9,276.7 540.9,662.4 542.7,662.4 542.7,272.1 '/>
		<polygon fill = 'rgb( 31, 120, 180)' fill-opacity = '0.250000' points = '542.7,272.1 542.7,662.4 544.6,662.4 544.6,266.1 '/>
		<polygon fill = 'rgb( 31, 120, 180)' fill-opacity = '0.250000' points = '544.6,266.1 544.6,662.4 546.4,662.4 546.4,258.4 '/>
		<polygon fill = 'rgb( 31, 120, 180)' fill-opacity = '0.250000' points = '546.4,258.4 546.4,662.4 548.3,662.4 548.3,249.4 '/>
		<polygon fill = 'rgb( 31, 120, 180)' fill-opacity = '0.250000' points = '548.3,249.4 548.3,662.4 550.1,662.4 550.1,239.0 '/>
		<polygon fill = 'rgb( 31, 120, 180)' fill-opacity = '0.250000' points = '550.1,239.0 550.1,662.4 552.0,662.4 552.0,227.4 '/>
		<polygon fill = 'rgb( 31, 120, 180)' fill-opacity = '0.250000' points = '552.0,227.4 552.0,662.4 553.8,662.4 553.8,214.9 '/>
		<polygon fill = 'rgb( 31, 120, 180)' fill-opacity = '0.250000' points = '553.8,214.9 553.8,662.4 555.7,662.4 555.7,201.8 '/>
		<polygon fill = 'rgb( 31, 120, 180)' fill-opacity = '0.250000' points = '555.7,201.8 555.7,662.4 557.5,662.4 557.5,188.3 '/>
		<polygon fill = 'rgb( 31, 120, 180)' fill-opacity = '0.250000' points = '557.5,188.3 557.5,662.4 559.4,662.4 559.4,174.8 '/>
		<polygon fill = 'rgb( 31, 120, 180)' fill-opacity = '0.250000' points = '559.4,174.8 559.4,662.4 561.2,662.4 561.2,161.6 '/>
		<polygon fill = 'rgb( 31, 120, 180)' fill-opacity = '0.250000' points = '561.2,161.6 561.2,662.4 563.1,662.4 563.1,149.1 '/>
		<polygon fill = 'rgb( 31, 120, 180)' fill-opacity = '0.250000' points = '563.1,149.1 563.1,662.4 565.0,662.4 565.0,137.7 '/>
		<polygon fill = 'rgb( 31, 120, 180)' fill-opacity = '0.250000' points = '565.0,137.7 565.0,662.4 566.8,662.4 566.8,127.5 '/>
		<polygon fill = 'rgb( 31, 120, 180)' fill-opacity = '0.250000' points = '566.8,127.5 566.8,662.4 568.7,662.4 568.7,119.1 '/>
		<polygon fill = 'rgb( 31, 120, 180)' fill-opacity = '0.250000' points = '568.7,119.1 568.7,662.4 570.5,662.4 570.5,112.5 '/>
		<polygon fill = 'rgb( 31, 120, 180)' fill-opacity = '0.250000' points = '570.5,112.5 570.5,662.4 572.4,662.4 572.4,107.9 '/>
		<polygon fill = 'rgb( 31, 120, 180)' fill-opacity = '0.250000' points = '572.4,107.9 572.4,662.4 574.2,662.4 574.2,105.6 '/>
		<polygon fill = 'rgb( 31, 120, 180)' fill-opacity = '0.250000' points = '574.2,105.6 574.2,662.4 576.1,662.4 576.1,105.4 '/>
		<polygon fill = 'rgb( 31, 120, 180)' fill-opacity = '0.250000' points = '576.1,105.4 576.1,662.4 577.9,662.4 577.9,107.5 '/>
		<polygon fill = 'rgb( 31, 120, 180)' fill-opacity = '0.250000' points = '577.9,107.5 577.9,662.4 579.8,662.4 579.8,111.8 '/>
		<polygon fill = 'rgb( 31, 120, 180)' fill-opacity = '0.250000' points = '579.8,111.8 579.8,662.4 581.6,662.4 581.6,118.0 '/>
		<polygon fill = 'rgb( 31, 120, 180)' fill-opacity = '0.250000' points = '581.6,118.0 581.6,662.4 583.5,662.4 583.5,126.1 '/>
		<polygon fill = 'rgb( 31, 120, 180)' fill-opacity = '0.250000' points = '583.5,126.1 583.5,662.4 585.3,662.4 585.3,135.7 '/>
		<polygon fill = 'rgb( 31, 120, 180)' fill-opacity = '0.250000' points = '585.3,135.7 585.3,662.4 587.2,662.4 587.2,146.5 '/>
		<polygon fill = 'rgb( 31, 120, 180)' fill-opacity = '0.250000' points = '587.2,146.5 587.2,662.4 589.1,662.4 589.1,158.3 '/>
		<polygon fill = 'rgb( 31, 120, 180)' fill-opacity = '0.250000' points = '589.1,158.3 589.1,662.4 590.9,662.4 590.9,170.5 '/>
		<polygon fill = 'rgb( 31, 120, 180)' fill-opacity = '0.250000' points = '590.9,170.5 590.9,662.4 592.8,662.4 592.8,183.0 '/>
		<polygon fill = 'rgb( 31, 120, 180)' fill-opacity = '0.250000' points = '592.8,183.0 592.8,662.4 594.6,662.4 594.6,195.3 '/>
		<polygon fill = 'rgb( 31, 120, 180)' fill-opacity = '0.250000' points = '594.6,195.3 594.6,662.4 596.5,662.4 596.5,207.1 '/>
		<polygon fill = 'rgb( 31, 120, 180)' fill-opacity = '0.250000' points = '596.5,207.1 596.5,662.4 598.3,662.4 598.3,218.0 '/>
		<polygon fill = 'rgb( 31, 120, 180)' fill-opacity = '0.250000' points = '598.3,218.0 598.3,662.4 600.2,662.4 600.2,227.7 '/>
		<polygon fill = 'rgb( 31, 120, 180)' fill-opacity = '0.250000' points = '600.2,227.7 600.2,662.4 602.0,662.4 602.0,236.0 '/>
		<polygon fill = 'rgb( 31, 120, 180)' fill-opacity = '0.250000' points = '602.0,236.0 602.0,662.4 603.9,662.4 603.9,242.6 '/>
		<polygon fill = 'rgb( 31, 120, 180)' fill-opacity = '0.250000' points = '603.9,242.6 603.9,662.4 605.7,662.4 605.7,247.4 '/>
		<polygon fill = 'rgb( 31, 120, 180)' fill-opacity = '0.250000' points = '605.7,247.4 605.7,662.4 607.6,662.4 607.6,250.3 '/>
		<polygon fill = 'rgb( 31, 120, 180)' fill-opacity = '0.250000' points = '607.6,250.3 607.6,662.4 609.4,662.4 609.4,251.1 '/>
		<polygon fill = 'rgb( 31, 120, 180)' fill-opacity = '0.250000' points = '609.4,251.1 609.4,662.4 611.3,662.4 611.3,249.8 '/>
		<polygon fill = 'rgb( 31, 120, 180)' fill-opacity = '0.250000' points = '611.3,249.8 611.3,662.4 613.2,662.4 613.2,246.5 '/>
		<polygon fill = 'rgb( 31, 120, 180)' fill-opacity = '0.250000' points = '613.2,246.5 613.2,662.4 615.0,662.4 615.0,241.2 '/>
		<polygon fill = 'rgb( 31, 120, 180)' fill-opacity = '0.250000' points = '615.0,241.2 615.0,662.4 616.9,662.4 616.9,234.1 '/>
		<polygon fill = 'rgb( 31, 120, 180)' fill-opacity = '0.250000' points = '616.9,234.1 616.9,662.4 618.7,662.4 618.7,225.4 '/>
		<polygon fill = 'rgb( 31, 120, 180)' fill-opacity = '0.250000' points = '618.7,225.4 618.7,662.4 620.6,662.4 620.6,215.2 '/>
		<polygon fill = 'rgb( 31, 120, 180)' fill-opacity = '0.250000' points = '620.6,215.2 620.6,662.4 622.4,662.4 622.4,203.9 '/>
		<polygon fill = 'rgb( 31, 120, 180)' fill-opacity = '0.250000' points = '622.4,203.9 622.4,662.4 624.3,662.4 624.3,191.7 '/>
		<polygon fill = 'rgb( 31, 120, 180)' fill-opacity = '0.250000' points = '624.3,191.7 624.3,662.4 626.1,662.4 626.1,178.9 '/>
		<polygon fill = 'rgb( 31, 120, 180)' fill-opacity = '0.250000' points = '626.1,178.9 626.1,662.4 628.0,662.4 628.0,166.0 '/>
		<polygon fill = 'rgb( 31, 120, 180)' fill-opacity = '0.250000' points = '628.0,166.0 628.0,662.4 629.8,662.4 629.8,153.1 '/>
		<polygon fill = 'rgb( 31, 120, 180)' fill-opacity = '0.250000' points = '629.8,153.1 629.8,662.4 631.7,662.4 631.7,140.6 '/>
		<polygon fill = 'rgb( 31, 120, 180)' fill-opacity = '0.250000' points = '631.7,140.6 631.7,662.4 633.5,662.4 633.5,128.9 '/>
		<polygon fill = 'rgb( 31, 120, 180)' fill-opacity = '0.250000' points = '633.5,128.9 633.5,662.4 635.4,662.4 635.4,118.3 '/>
		<polygon fill = 'rgb( 31, 120, 180)' fill-opacity = '0.250000' points = '635.4,118.3 635.4,662.4 637.3,662.4 637.3,109.0 '/>
		<polygon fill = 'rgb( 31, 120, 180)' fill-opacity = '0.250000' points = '637.3,109.0 637.3,662.4 639.1,662.4 639.1,101.2 '/>
		<polygon fill = 'rgb( 31, 120, 180)' fill-opacity = '0.250000' points = '639.1,101.2 639.1,662.4 641.0,662.4 641.0,95.2 '/>
		<polygon fill = 'rgb( 31, 120, 180)' fill-opacity = '0.250000' points = '641.0,95.2 641.0,662.4 642.8,662.4 642.8,91.1 '/>
		<polygon fill = 'rgb( 31, 120, 180)' fill-opacity = '0.250000' points = '642.8,91.1 642.8,662.4 644.7,662.4 644.7,88.9 '/>
		<polygon fill = 'rgb( 31, 120, 180)' fill-opacity = '0.250000' points = '644.7,88.9 644.7,662.4 646.5,662.4 646.5,88.6 '/>
		<polygon fill = 'rgb( 31, 120, 180)' fill-opacity = '0.250000' points = '646.5,88.6 646.5,662.4 648.4,662.4 648.4,90.3 '/>
		<polygon fill = 'rgb( 31, 120, 180)' fill-opacity = '0.250000' points = '648.4,90.3 648.4,662.4 650.2,662.4 650.2,93.8 '/>
		<polygon fill = 'rgb( 31, 120, 180)' fill-opacity = '0.250000' points = '650.2,93.8 650.2,662.4 652.1,662.4 652.1,98.9 '/>
		<polygon fill = 'rgb( 31, 120, 180)' fill-opacity = '0.250000' points = '652.1,98.9 652.1,662.4 653.9,662.4 653.9,105.5 '/>
		<polygon fill = 'rgb( 31, 120, 180)' fill-opacity = '0.250000' points = '653.9,105.5 653.9,662.4 655.8,662.4 655.8,113.3 '/>
		<polygon fill = 'rgb( 31, 120, 180)' fill-opacity = '0.250000' points = '655.8,113.3 655.8,662.4 657.6,662.4 657.6,122.1 '/>
		<polygon fill = 'rgb( 31, 120, 180)' fill-opacity = '0.250000' points = '657.6,122.1 657.6,662.4 659.5,662.4 659.5,131.6 '/>
		<polygon fill = 'rgb( 31, 120, 180)' fill-opacity = '0.250000' points = '659.5,131.6 659.5,662.4 661.4,662.4 661.4,141.4 '/>
		<polygon fill = 'rgb( 31, 120, 180)' fill-opacity = '0.250000' points = '661.4,141.4 661.4,662.4 663.2,662.4 663.2,151.4 '/>
		<polygon fill = 'rgb( 31, 120, 180)' fill-opacity = '0.250000' points = '663.2,151.4 663.2,662.4 665.1,662.4 665.1,161.2 '/>
		<polygon fill = 'rgb( 31, 120, 180)' fill-opacity = '0.250000' points = '665.1,161.2 665.1,662.4 666.9,662.4 666.9,170.6 '/>
		<polygon fill = 'rgb( 31, 120, 180)' fill-opacity = '0.250000' points = '666.9,170.6 666.9,662.4 668.8,662.4 668.8,179.3 '/>
		<polygon fill = 'rgb( 31, 120, 180)' fill-opacity = '0.250000' points = '668.8,179.3 668.8,662.4 670.6,662.4 670.6,187.1 '/>
		<polygon fill = 'rgb( 31, 120, 180)' fill-opacity = '0.250000' points = '670.6,187.1 670.6,662.4 672.5,662.4 672.5,193.9 '/>
		<polygon fill = 'rgb( 31, 120, 180)' fill-opacity = '0.250000' points = '672.5,193.9 672.5,662.4 674.3,662.4 674.3,199.4 '/>
		<polygon fill = 'rgb( 31, 120, 180)' fill-opacity = '0.250000' points = '674.3,199.4 674.3,662.4 676.2,662.4 676.2,203.7 '/>
		<polygon fill = 'rgb( 31, 120, 180)' fill-opacity = '0.250000' points = '676.2,203.7 676.2,662.4 678.0,662.4 678.0,206.7 '/>
		<polygon fill = 'rgb( 31, 120, 180)' fill-opacity = '0.250000' points = '678.0,206.7 678.0,662.4 679.9,662.4 679.9,208.4 '/>
		<polygon fill = 'rgb( 31, 120, 180)' fill-opacity = '0.250000' points = '679.9,208.4 679.9,662.4 681.8,662.4 681.8,208.8 '/>
		<polygon fill = 'rgb( 31, 120, 180)' fill-opacity = '0.250000' points = '681.8,208.8 681.8,662.4 683.6,662.4 683.6,208.0 '/>
		<polygon fill = 'rgb( 31, 120, 180)' fill-opacity = '0.250000' points = '683.6,208.0 683.6,662.4 685.5,662.4 685.5,206.1 '/>
		<polygon fill = 'rgb( 31, 120, 180)' fill-opacity = '0.250000' points = '685.5,206.1 685.5,662.4 687.3,662.4 687.3,203.3 '/>
		<polygon fill = 'rgb( 31, 120, 180)' fill-opacity = '0.250000' points = '687.3,203.3 687.3,662.4 689.2,662.4 689.2,199.8 '/>
		<polygon fill = 'rgb( 31, 120, 180)' fill-opacity = '0.250000' points = '689.2,199.8 689.2,662.4 691.0,662.4 691.0,195.7 '/>
		<polygon fill = 'rgb( 31, 120, 180)' fill-opacity = '0.250000' points = '691.0,195.7 691.0,662.4 692.9,662.4 692.9,191.2 '/>
		<polygon fill = 'rgb( 31, 120, 180)' fill-opacity = '0.250000' points = '692.9,191.2 692.9,662.4 694.7,662.4 694.7,186.7 '/>
		<polygon fill = 'rgb( 31, 120, 180)' fill-opacity = '0.250000' points = '694.7,186.7 694.7,662.4 696.6,662.4 696.6,182.1 '/>
		<polygon fill = 'rgb( 31, 120, 180)' fill-opacity = '0.250000' points = '696.6,182.1 696.6,662.4 698.4,662.4 698.4,177.9 '/>
		<polygon fill = 'rgb( 31, 120, 180)' fill-opacity = '0.250000' points = '698.4,177.9 698.4,662.4 700.3,662.4 700.3,174.1 '/>
		<polygon fill = 'rgb( 31, 120, 180)' fill-opacity = '0.250000' points = '700.3,174.1 700.3,662.4 702.1,662.4 702.1,170.8 '/>
		<polygon fill = 'rgb( 31, 120, 180)' fill-opacity = '0.250000' points = '702.1,170.8 702.1,662.4 704.0,662.4 704.0,168.3 '/>
		<polygon fill = 'rgb( 31, 120, 180)' fill-opacity = '0.250000' points = '704.0,168.3 704.0,662.4 705.9,662.4 705.9,166.6 '/>
		<polygon fill = 'rgb( 31, 120, 180)' fill-opacity = '0.250000' points = '705.9,166.6 705.9,662.4 707.7,662.4 707.7,165.8 '/>
		<polygon fill = 'rgb( 31, 120, 180)' fill-opacity = '0.250000' points = '707.7,165.8 707.7,662.4 709.6,662.4 709.6,166.0 '/>
		<polygon fill = 'rgb( 31, 120, 180)' fill-opacity = '0.250000' points = '709.6,166.0 709.6,662.4 711.4,662.4 711.4,167.0 '/>
		<polygon fill = 'rgb( 31, 120, 180)' fill-opacity = '0.250000' points = '711.4,167.0 711.4,662.4 713.3,662.4 713.3,168.9 '/>
		<polygon fill = 'rgb( 31, 120, 180)' fill-opacity = '0.250000' points = '713.3,168.9 713.3,662.4 715.1,662.4 715.1,171.7 '/>
		<polygon fill = 'rgb( 31, 120, 180)' fill-opacity = '0.250000' points = '715.1,171.7 715.1,662.4 717.0,662.4 717.0,175.2 '/>
		<polygon fill = 'rgb( 31, 120, 180)' fill-opacity = '0.250000' points = '717.0,175.2 717.0,662.4 718.8,662.4 718.8,179.4 '/>
		<polygon fill = 'rgb( 31, 120, 180)' fill-opacity = '0.250000' points = '718.8,179.4 718.8,662.4 720.7,662.4 720.7,184.1 '/>
		<polygon fill = 'rgb( 31, 120, 180)' fill-opacity = '0.250000' points = '720.7,184.1 720.7,662.4 722.5,662.4 722.5,189.3 '/>
		<polygon fill = 'rgb( 31, 120, 180)' fill-opacity = '0.250000' points = '722.5,189.3 722.5,662.4 724.4,662.4 724.4,194.8 '/>
		<polygon fill = 'rgb( 31, 120, 180)' fill-opacity = '0.250000' points = '724.4,194.8 724.4,662.4 726.2,662.4 726.2,200.5 '/>
		<polygon fill = 'rgb( 31, 120, 180)' fill-opacity = '0.250000' points = '726.2,200.5 726.2,662.4 728.1,662.4 728.1,206.3 '/>
		<polygon fill = 'rgb( 31, 120, 180)' fill-opacity = '0.250000' points = '728.1,206.3 728.1,662.4 730.0,662.4 730.0,212.2 '/>
		<polygon fill = 'rgb( 31, 120, 180)' fill-opacity = '0.250000' points = '730.0,212.2 730.0,662.4 731.8,662.4 731.8,217.9 '/>
		<polygon fill = 'rgb( 31, 120, 180)' fill-opacity = '0.250000' points = '731.8,217.9 731.8,662.4 733.7,662.4 733.7,223.6 '/>
		<polygon fill = 'rgb( 31, 120, 180)' fill-opacity = '0.250000' points = '733.7,223.6 733.7,662.4 735.5,662.4 735.5,229.0 '/>
		<polygon fill = 'rgb( 31, 120, 180)' fill-opacity = '0.250000' points = '735.5,229.0 735.5,662.4 737.4,662.4 737.4,234.3 '/>
		<polygon fill = 'rgb( 31, 120, 180)' fill-opacity = '0.250000' points = '737.4,234.3 737.4,662.4 739.2,662.4 739.2,239.3 '/>
		<polygon fill = 'rgb( 31, 120, 180)' fill-opacity = '0.250000' points = '739.2,239.3 739.2,662.4 741.1,662.4 741.1,244.1 '/>
		<polygon fill = 'rgb( 31, 120, 180)' fill-opacity = '0.250000' points = '741.1,244.1 741.1,662.4 742.9,662.4 742.9,248.7 '/>
		<polygon fill = 'rgb( 31, 120, 180)' fill-opacity = '0.250000' points = '742.9,248.7 742.9,662.4 744.8,662.4 744.8,253.0 '/>
		<polygon fill = 'rgb( 31, 120, 180)' fill-opacity = '0.250000' points = '744.8,253.0 744.8,662.4 746.6,662.4 746.6,257.0 '/>
		<polygon fill = 'rgb( 31, 120, 180)' fill-opacity = '0.250000' points = '746.6,257.0 746.6,662.4 748.5,662.4 748.5,260.9 '/>
		<polygon fill = 'rgb( 31, 120, 180)' fill-opacity = '0.250000' points = '748.5,260.9 748.5,662.4 750.3,662.4 750.3,264.5 '/>
		<polygon fill = 'rgb( 31, 120, 180)' fill-opacity = '0.250000' points = '750.3,264.5 750.3,662.4 752.2,662.4 752.2,267.8 '/>
		<polygon fill = 'rgb( 31, 120, 180)' fill-opacity = '0.250000' points = '752.2,267.8 752.2,662.4 754.1,662.4 754.1,271.0 '/>
		<polygon fill = 'rgb( 31, 120, 180)' fill-opacity = '0.250000' points = '754.1,271.0 754.1,662.4 755.9,662.4 755.9,274.0 '/>
		<polygon fill = 'rgb( 31, 120, 180)' fill-opacity = '0.250000' points = '755.9,274.0 755.9,662.4 757.8,662.4 757.8,276.8 '/>
		<polygon fill = 'rgb( 31, 120, 180)' fill-opacity = '0.250000' points = '757.8,276.8 757.8,662.4 759.6,662.4 759.6,279.3 '/>
		<polygon fill = 'rgb( 31, 120, 180)' fill-opacity = '0.250000' points = '759.6,279.3 759.6,662.4 761.5,662.4 761.5,281.6 '/>
		<polygon fill = 'rgb( 31, 120, 180)' fill-opacity = '0.250000' points = '761.5,281.6 761.5,662.4 763.3,662.4 763.3,283.7 '/>
		<polygon fill = 'rgb( 31, 120, 180)' fill-opacity = '0.250000' points = '763.3,283.7 763.3,662.4 765.2,662.4 765.2,285.6 '/>
		<polygon fill = 'rgb( 31, 120, 180)' fill-opacity = '0.250000' points = '765.2,285.6 765.2,662.4 767.0,662.4 767.0,287.3 '/>
		<polygon fill = 'rgb( 31, 120, 180)' fill-opacity = '0.250000' points = '767.0,287.3 767.0,662.4 768.9,662.4 768.9,288.8 '/>
		<polygon fill = 'rgb( 31, 120, 180)' fill-opacity = '0.250000' points = '768.9,288.8 768.9,662.4 770.7,662.4 770.7,290.1 '/>
		<polygon fill = 'rgb( 31, 120, 180)' fill-opacity = '0.250000' points = '770.7,290.1 770.7,662.4 772.6,662.4 772.6,291.2 '/>
		<polygon fill = 'rgb( 31, 120, 180)' fill-opacity = '0.250000' points = '772.6,291.2 772.6,662.4 774.4,662.4 774.4,292.2 '/>
		<polygon fill = 'rgb( 31, 120, 180)' fill-opacity = '0.250000' points = '774.4,292.2 774.4,662.4 776.3,662.4 776.3,293.1 '/>
		<polygon fill = 'rgb( 31, 120, 180)' fill-opacity = '0.250000' points = '776.3,293.1 776.3,662.4 778.2,662.4 778.2,294.0 '/>
		<polygon fill = 'rgb( 31, 120, 180)' fill-opacity = '0.250000' points = '778.2,294.0 778.2,662.4 780.0,662.4 780.0,294.9 '/>
		<polygon fill = 'rgb( 31, 120, 180)' fill-opacity = '0.250000' points = '780.0,294.9 780.0,662.4 781.9,662.4 781.9,295.8 '/>
		<polygon fill = 'rgb( 31, 120, 180)' fill-opacity = '0.250000' points = '781.9,295.8 781.9,662.4 783.7,662.4 783.7,296.9 '/>
		<polygon fill = 'rgb( 31, 120, 180)' fill-opacity = '0.250000' points = '783.7,296.9 783.7,662.4 785.6,662.4 785.6,298.1 '/>
		<polygon fill = 'rgb( 31, 120, 180)' fill-opacity = '0.250000' points = '785.6,298.1 785.6,662.4 787.4,662.4 787.4,299.6 '/>
		<polygon fill = 'rgb( 31, 120, 180)' fill-opacity = '0.250000' points = '787.4,299.6 787.4,662.4 789.3,662.4 789.3,301.4 '/>
		<polygon fill = 'rgb( 31, 120, 180)' fill-opacity = '0.250000' points = '789.3,301.4 789.3,662.4 791.1,662.4 791.1,303.6 '/>
		<polygon fill = 'rgb( 31, 120, 180)' fill-opacity = '0.250000' points = '791.1,303.6 791.1,662.4 793.0,662.4 793.0,306.1 '/>
		<polygon fill = 'rgb( 31, 120, 180)' fill-opacity = '0.250000' points = '793.0,306.1 793.0,662.4 794.8,662.4 794.8,309.0 '/>
		<polygon fill = 'rgb( 31, 120, 180)' fill-opacity = '0.250000' points = '794.8,309.0 794.8,662.4 796.7,662.4 796.7,312.3 '/>
		<polygon fill = 'rgb( 31, 120, 180)' fill-opacity = '0.250000' points = '796.7,312.3 796.7,662.4 798.5,662.4 798.5,316.0 '/>
		<polygon fill = 'rgb( 31, 120, 180)' fill-opacity = '0.250000' points = '798.5,316.0 798.5,662.4 800.4,662.4 800.4,320.1 '/>
		<polygon fill = 'rgb( 31, 120, 180)' fill-opacity = '0.250000' points = '800.4,320.1 800.4,662.4 802.3,662.4 802.3,324.6 '/>
		<polygon fill = 'rgb( 31, 120, 180)' fill-opacity = '0.250000' points = '802.3,324.6 802.3,662.4 804.1,662.4 804.1,329.4 '/>
		<polygon fill = 'rgb( 31, 120, 180)' fill-opacity = '0.250000' points = '804.1,329.4 804.1,662.4 806.0,662.4 806.0,334.5 '/>
		<polygon fill = 'rgb( 31, 120, 180)' fill-opacity = '0.250000' points = '806.0,334.5 806.0,662.4 807.8,662.4 807.8,339.8 '/>
		<polygon fill = 'rgb( 31, 120, 180)' fill-opacity = '0.250000' points = '807.8,339.8 807.8,662.4 809.7,662.4 809.7,345.2 '/>
		<polygon fill = 'rgb( 31, 120, 180)' fill-opacity = '0.250000' points = '809.7,345.2 809.7,662.4 811.5,662.4 811.5,350.7 '/>
		<polygon fill = 'rgb( 31, 120, 180)' fill-opacity = '0.250000' points = '811.5,350.7 811.5,662.4 813.4,662.4 813.4,356.2 '/>
		<polygon fill = 'rgb( 31, 120, 180)' fill-opacity = '0.250000' points = '813.4,356.2 813.4,662.4 815.2,662.4 815.2,361.7 '/>
		<polygon fill = 'rgb( 31, 120, 180)' fill-opacity = '0.250000' points = '815.2,361.7 815.2,662.4 817.1,662.4 817.1,367.0 '/>
		<polygon fill = 'rgb( 31, 120, 180)' fill-opacity = '0.250000' points = '817.1,367.0 817.1,662.4 818.9,662.4 818.9,372.2 '/>
		<polygon fill = 'rgb( 31, 120, 180)' fill-opacity = '0.250000' points = '818.9,372.2 818.9,662.4 820.8,662.4 820.8,377.1 '/>
		<polygon fill = 'rgb( 31, 120, 180)' fill-opacity = '0.250000' points = '820.8,377.1 820.8,662.4 822.6,662.4 822.6,381.8 '/>
		<polygon fill = 'rgb( 31, 120, 180)' fill-opacity = '0.250000' points = '822.6,381.8 822.6,662.4 824.5,662.4 824.5,386.1 '/>
		<polygon fill = 'rgb( 31, 120, 180)' fill-opacity = '0.250000' points = '824.5,386.1 824.5,662.4 826.4,662.4 826.4,390.2 '/>
		<polygon fill = 'rgb( 31, 120, 180)' fill-opacity = '0.250000' points = '826.4,390.2 826.4,662.4 828.2,662.4 828.2,394.0 '/>
		<polygon fill = 'rgb( 31, 120, 180)' fill-opacity = '0.250000' points = '828.2,394.0 828.2,662.4 830.1,662.4 830.1,397.5 '/>
		<polygon fill = 'rgb( 31, 120, 180)' fill-opacity = '0.250000' points = '830.1,397.5 830.1,662.4 831.9,662.4 831.9,400.8 '/>
		<polygon fill = 'rgb( 31, 120, 180)' fill-opacity = '0.250000' points = '831.9,400.8 831.9,662.4 833.8,662.4 833.8,403.8 '/>
		<polygon fill = 'rgb( 31, 120, 180)' fill-opacity = '0.250000' points = '833.8,403.8 833.8,662.4 835.6,662.4 835.6,406.7 '/>
		<polygon fill = 'rgb( 31, 120, 180)' fill-opacity = '0.250000' points = '835.6,406.7 835.6,662.4 837.5,662.4 837.5,409.4 '/>
		<polygon fill = 'rgb( 31, 120, 180)' fill-opacity = '0.250000' points = '837.5,409.4 837.5,662.4 839.3,662.4 839.3,412.1 '/>
		<polygon fill = 'rgb( 31, 120, 180)' fill-opacity = '0.250000' points = '839.3,412.1 839.3,662.4 841.2,662.4 841.2,414.8 '/>
		<polygon fill = 'rgb( 31, 120, 180)' fill-opacity = '0.250000' points = '841.2,414.8 841.2,662.4 843.0,662.4 843.0,417.4 '/>
		<polygon fill = 'rgb( 31, 120, 180)' fill-opacity = '0.250000' points = '843.0,417.4 843.0,662.4 844.9,662.4 844.9,420.2 '/>
		<polygon fill = 'rgb( 31, 120, 180)' fill-opacity = '0.250000' points = '844.9,420.2 844.9,662.4 846.7,662.4 846.7,423.1 '/>
		<polygon fill = 'rgb( 31, 120, 180)' fill-opacity = '0.250000' points = '846.7,423.1 846.7,662.4 848.6,662.4 848.6,426.1 '/>
		<polygon fill = 'rgb( 31, 120, 180)' fill-opacity = '0.250000' points = '848.6,426.1 848.6,662.4 850.5,662.4 850.5,429.3 '/>
		<polygon fill = 'rgb( 31, 120, 180)' fill-opacity = '0.250000' points = '850.5,429.3 850.5,662.4 852.3,662.4 852.3,432.6 '/>
		<polygon fill = 'rgb( 31, 120, 180)' fill-opacity = '0.250000' points = '852.3,432.6 852.3,662.4 854.2,662.4 854.2,436.1 '/>
		<polygon fill = 'rgb( 31, 120, 180)' fill-opacity = '0.250000' points = '854.2,436.1 854.2,662.4 856.0,662.4 856.0,439.8 '/>
		<polygon fill = 'rgb( 31, 120, 180)' fill-opacity = '0.250000' points = '856.0,439.8 856.0,662.4 857.9,662.4 857.9,443.6 '/>
		<polygon fill = 'rgb( 31, 120, 180)' fill-opacity = '0.250000' points = '857.9,443.6 857.9,662.4 859.7,662.4 859.7,447.5 '/>
		<polygon fill = 'rgb( 31, 120, 180)' fill-opacity = '0.250000' points = '859.7,447.5 859.7,662.4 861.6,662.4 861.6,451.5 '/>
		<polygon fill = 'rgb( 31, 120, 180)' fill-opacity = '0.250000' points = '861.6,451.5 861.6,662.4 863.4,662.4 863.4,455.5 '/>
		<polygon fill = 'rgb( 31, 120, 180)' fill-opacity = '0.250000' points = '863.4,455.5 863.4,662.4 865.3,662.4 865.3,459.5 '/>
		<polygon fill = 'rgb( 31, 120, 180)' fill-opacity = '0.250000' points = '865.3,459.5 865.3,662.4 867.1,662.4 867.1,463.4 '/>
		<polygon fill = 'rgb( 31, 120, 180)' fill-opacity = '0.250000' points = '867.1,463.4 867.1,662.4 869.0,662.4 869.0,467.3 '/>
		<polygon fill = 'rgb( 31, 120, 180)' fill-opacity = '0.250000' points = '869.0,467.3 869.0,662.4 870.8,662.4 870.8,471.0 '/>
		<polygon fill = 'rgb( 31, 120, 180)' fill-opacity = '0.250000' points = '870.8,471.0 870.8,662.4 872.7,662.4 872.7,474.6 '/>
		<polygon fill = 'rgb( 31, 120, 180)' fill-opacity = '0.250000' points = '872.7,474.6 872.7,662.4 874.6,662.4 874.6,478.0 '/>
		<polygon fill = 'rgb( 31, 120, 180)' fill-opacity = '0.250000' points = '874.6,478.0 874.6,662.4 876.4,662.4 876.4,481.3 '/>
		<polygon fill = 'rgb( 31, 120, 180)' fill-opacity = '0.250000' points = '876.4,481.3 876.4,662.4 878.3,662.4 878.3,484.4 '/>
		<polygon fill = 'rgb( 31, 120, 180)' fill-opacity = '0.250000' points = '878.3,484.4 878.3,662.4 880.1,662.4 880.1,487.3 '/>
		<polygon fill = 'rgb( 31, 120, 180)' fill-opacity = '0.250000' points = '880.1,487.3 880.1,662.4 882.0,662.4 882.0,490.1 '/>
		<polygon fill = 'rgb( 31, 120, 180)' fill-opacity = '0.250000' points = '882.0,490.1 882.0,662.4 883.8,662.4 883.8,492.7 '/>
		<polygon fill = 'rgb( 31, 120, 180)' fill-opacity = '0.250000' points = '883.8,492.7 883.8,662.4 885.7,662.4 885.7,495.2 '/>
		<polygon fill = 'rgb( 31, 120, 180)' fill-opacity = '0.250000' points = '885.7,495.2 885.7,662.4 887.5,662.4 887.5,497.7 '/>
		<polygon fill = 'rgb( 31, 120, 180)' fill-opacity = '0.250000' points = '887.5,497.7 887.5,662.4 889.4,662.4 889.4,500.1 '/>
		<polygon fill = 'rgb( 31, 120, 180)' fill-opacity = '0.250000' points = '889.4,500.1 889.4,662.4 891.2,662.4 891.2,502.5 '/>
		<polygon fill = 'rgb( 31, 120, 180)' fill-opacity = '0.250000' points = '891.2,502.5 891.2,662.4 893.1,662.4 893.1,504.9 '/>
		<polygon fill = 'rgb( 31, 120, 180)' fill-opacity = '0.250000' points = '893.1,504.9 893.1,662.4 894.9,662.4 894.9,507.4 '/>
		<polygon fill = 'rgb( 31, 120, 180)' fill-opacity = '0.250000' points = '894.9,507.4 894.9,662.4 896.8,662.4 896.8,509.9 '/>
		<polygon fill = 'rgb( 31, 120, 180)' fill-opacity = '0.250000' points = '896.8,509.9 896.8,662.4 898.7,662.4 898.7,512.5 '/>
		<polygon fill = 'rgb( 31, 120, 180)' fill-opacity = '0.250000' points = '898.7,512.5 898.7,662.4 900.5,662.4 900.5,515.3 '/>
		<polygon fill = 'rgb( 31, 120, 180)' fill-opacity = '0.250000' points = '900.5,515.3 900.5,662.4 902.4,662.4 902.4,518.1 '/>
		<polygon fill = 'rgb( 31, 120, 180)' fill-opacity = '0.250000' points = '902.4,518.1 902.4,662.4 904.2,662.4 904.2,521.0 '/>
		<polygon fill = 'rgb( 31, 120, 180)' fill-opacity = '0.250000' points = '904.2,521.0 904.2,662.4 906.1,662.4 906.1,524.0 '/>
		<polygon fill = 'rgb( 31, 120, 180)' fill-opacity = '0.250000' points = '906.1,524.0 906.1,662.4 907.9,662.4 907.9,527.2 '/>
		<polygon fill = 'rgb( 31, 120, 180)' fill-opacity = '0.250000' points = '907.9,527.2 907.9,662.4 909.8,662.4 909.8,530.4 '/>
		<polygon fill = 'rgb( 31, 120, 180)' fill-opacity = '0.250000' points = '909.8,530.4 909.8,662.4 911.6,662.4 911.6,533.6 '/>
		<polygon fill = 'rgb( 31, 120, 180)' fill-opacity = '0.250000' points = '911.6,533.6 911.6,662.4 913.5,662.4 913.5,536.9 '/>
		<polygon fill = 'rgb( 31, 120, 180)' fill-opacity = '0.250000' points = '913.5,536.9 913.5,662.4 915.3,662.4 915.3,540.3 '/>
		<polygon fill = 'rgb( 31, 120, 180)' fill-opacity = '0.250000' points = '915.3,540.3 915.3,662.4 917.2,662.4 917.2,543.6 '/>
		<polygon fill = 'rgb( 31, 120, 180)' fill-opacity = '0.250000' points = '917.2,543.6 917.2,662.4 919.1,662.4 919.1,546.9 '/>
		<polygon fill = 'rgb( 31, 120, 180)' fill-opacity = '0.250000' points = '919.1,546.9 919.1,662.4 920.9,662.4 920.9,550.1 '/>
		<polygon fill = 'rgb( 31, 120, 180)' fill-opacity = '0.250000' points = '920.9,550.1 920.9,662.4 922.8,662.4 922.8,553.3 '/>
		<polygon fill = 'rgb( 31, 120, 180)' fill-opacity = '0.250000' points = '922.8,553.3 922.8,662.4 924.6,662.4 924.6,556.4 '/>
		<polygon fill = 'rgb( 31, 120, 180)' fill-opacity = '0.250000' points = '924.6,556.4 924.6,662.4 926.5,662.4 926.5,559.4 '/>
	</g>
</g>
	</g>
	<g id="gnuplot_plot_3" ><title>Point estimate</title>
<g fill="none" color="white" stroke="rgb( 31, 120, 180)" stroke-width="2.00" stroke-linecap="butt" stroke-linejoin="miter">
</g>
<g fill="none" color="black" stroke="currentColor" stroke-width="2.00" stroke-linecap="butt" stroke-linejoin="miter">
	<g transform="translate(1089.0,103.0)" stroke="none" fill="black" font-family="Helvetica" font-size="12.00"  text-anchor="start">
		<text><tspan font-family="Helvetica" >Point estimate</tspan></text>
	</g>
</g>
<g fill="none" color="black" stroke="currentColor" stroke-width="2.00" stroke-linecap="butt" stroke-linejoin="miter">
	<path stroke='rgb( 31, 120, 180)'  d='M1038.5,99.1 L1080.7,99.1 M646.8,662.4 L646.8,88.9  '/></g>
	</g>
<g fill="none" color="black" stroke="currentColor" stroke-width="2.00" stroke-linecap="butt" stroke-linejoin="miter">
</g>
<g fill="none" color="black" stroke="black" stroke-width="1.00" stroke-linecap="butt" stroke-linejoin="miter">
</g>
<g fill="none" color="black" stroke="currentColor" stroke-width="1.00" stroke-linecap="butt" stroke-linejoin="miter">
	<path stroke='black'  d='M88.5,54.1 L88.5,662.4 L1013.6,662.4 L1013.6,54.1 L88.5,54.1 Z  '/></g>
<g fill="none" color="black" stroke="currentColor" stroke-width="1.00" stroke-linecap="butt" stroke-linejoin="miter">
</g>
</g>
</svg>

