<?xml version="1.0" encoding="utf-8"  standalone="no"?>
<svg 
 viewBox="0 0 1280 720"
 xmlns="http://www.w3.org/2000/svg"
 xmlns:xlink="http://www.w3.org/1999/xlink"
>

<title>Gnuplot</title>
<desc>Produced by GNUPLOT 5.0 patchlevel 6 </desc>

<g id="gnuplot_canvas">

<rect x="0" y="0" width="1280" height="720" fill="none"/>
<defs>

	<circle id='gpDot' r='0.5' stroke-width='0.5'/>
	<path id='gpPt0' stroke-width='0.222' stroke='currentColor' d='M-1,0 h2 M0,-1 v2'/>
	<path id='gpPt1' stroke-width='0.222' stroke='currentColor' d='M-1,-1 L1,1 M1,-1 L-1,1'/>
	<path id='gpPt2' stroke-width='0.222' stroke='currentColor' d='M-1,0 L1,0 M0,-1 L0,1 M-1,-1 L1,1 M-1,1 L1,-1'/>
	<rect id='gpPt3' stroke-width='0.222' stroke='currentColor' x='-1' y='-1' width='2' height='2'/>
	<rect id='gpPt4' stroke-width='0.222' stroke='currentColor' fill='currentColor' x='-1' y='-1' width='2' height='2'/>
	<circle id='gpPt5' stroke-width='0.222' stroke='currentColor' cx='0' cy='0' r='1'/>
	<use xlink:href='#gpPt5' id='gpPt6' fill='currentColor' stroke='none'/>
	<path id='gpPt7' stroke-width='0.222' stroke='currentColor' d='M0,-1.33 L-1.33,0.67 L1.33,0.67 z'/>
	<use xlink:href='#gpPt7' id='gpPt8' fill='currentColor' stroke='none'/>
	<use xlink:href='#gpPt7' id='gpPt9' stroke='currentColor' transform='rotate(180)'/>
	<use xlink:href='#gpPt9' id='gpPt10' fill='currentColor' stroke='none'/>
	<use xlink:href='#gpPt3' id='gpPt11' stroke='currentColor' transform='rotate(45)'/>
	<use xlink:href='#gpPt11' id='gpPt12' fill='currentColor' stroke='none'/>
	<path id='gpPt13' stroke-width='0.222' stroke='currentColor' d='M0,1.330 L1.265,0.411 L0.782,-1.067 L-0.782,-1.076 L-1.265,0.411 z'/>
	<use xlink:href='#gpPt13' id='gpPt14' fill='currentColor' stroke='none'/>
	<filter id='textbox' filterUnits='objectBoundingBox' x='0' y='0' height='1' width='1'>
	  <feFlood flood-color='white' flood-opacity='1' result='bgnd'/>
	  <feComposite in='SourceGraphic' in2='bgnd' operator='atop'/>
	</filter>
	<filter id='greybox' filterUnits='objectBoundingBox' x='0' y='0' height='1' width='1'>
	  <feFlood flood-color='lightgrey' flood-opacity='1' result='grey'/>
	  <feComposite in='SourceGraphic' in2='grey' operator='atop'/>
	</filter>
</defs>
<g fill="none" color="white" stroke="currentColor" stroke-width="1.00" stroke-linecap="butt" stroke-linejoin="miter">
</g>
<g fill="none" color="black" stroke="currentColor" stroke-width="1.00" stroke-linecap="butt" stroke-linejoin="miter">
	<path stroke='black'  d='M71.9,662.4 L80.9,662.4  '/>	<g transform="translate(63.6,666.3)" stroke="none" fill="black" font-family="Helvetica" font-size="12.00"  text-anchor="end">
		<text><tspan font-family="Helvetica" > 0</tspan></text>
	</g>
</g>
<g fill="none" color="black" stroke="currentColor" stroke-width="1.00" stroke-linecap="butt" stroke-linejoin="miter">
	<path stroke='black'  d='M71.9,594.8 L80.9,594.8  '/>	<g transform="translate(63.6,598.7)" stroke="none" fill="black" font-family="Helvetica" font-size="12.00"  text-anchor="end">
		<text><tspan font-family="Helvetica" > 0.2</tspan></text>
	</g>
</g>
<g fill="none" color="black" stroke="currentColor" stroke-width="1.00" stroke-linecap="butt" stroke-linejoin="miter">
	<path stroke='black'  d='M71.9,527.2 L80.9,527.2  '/>	<g transform="translate(63.6,531.1)" stroke="none" fill="black" font-family="Helvetica" font-size="12.00"  text-anchor="end">
		<text><tspan font-family="Helvetica" > 0.4</tspan></text>
	</g>
</g>
<g fill="none" color="black" stroke="currentColor" stroke-width="1.00" stroke-linecap="butt" stroke-linejoin="miter">
	<path stroke='black'  d='M71.9,459.6 L80.9,459.6  '/>	<g transform="translate(63.6,463.5)" stroke="none" fill="black" font-family="Helvetica" font-size="12.00"  text-anchor="end">
		<text><tspan font-family="Helvetica" > 0.6</tspan></text>
	</g>
</g>
<g fill="none" color="black" stroke="currentColor" stroke-width="1.00" stroke-linecap="butt" stroke-linejoin="miter">
	<path stroke='black'  d='M71.9,392.0 L80.9,392.0  '/>	<g transform="translate(63.6,395.9)" stroke="none" fill="black" font-family="Helvetica" font-size="12.00"  text-anchor="end">
		<text><tspan font-family="Helvetica" > 0.8</tspan></text>
	</g>
</g>
<g fill="none" color="black" stroke="currentColor" stroke-width="1.00" stroke-linecap="butt" stroke-linejoin="miter">
	<path stroke='black'  d='M71.9,324.5 L80.9,324.5  '/>	<g transform="translate(63.6,328.4)" stroke="none" fill="black" font-family="Helvetica" font-size="12.00"  text-anchor="end">
		<text><tspan font-family="Helvetica" > 1</tspan></text>
	</g>
</g>
<g fill="none" color="black" stroke="currentColor" stroke-width="1.00" stroke-linecap="butt" stroke-linejoin="miter">
	<path stroke='black'  d='M71.9,256.9 L80.9,256.9  '/>	<g transform="translate(63.6,260.8)" stroke="none" fill="black" font-family="Helvetica" font-size="12.00"  text-anchor="end">
		<text><tspan font-family="Helvetica" > 1.2</tspan></text>
	</g>
</g>
<g fill="none" color="black" stroke="currentColor" stroke-width="1.00" stroke-linecap="butt" stroke-linejoin="miter">
	<path stroke='black'  d='M71.9,189.3 L80.9,189.3  '/>	<g transform="translate(63.6,193.2)" stroke="none" fill="black" font-family="Helvetica" font-size="12.00"  text-anchor="end">
		<text><tspan font-family="Helvetica" > 1.4</tspan></text>
	</g>
</g>
<g fill="none" color="black" stroke="currentColor" stroke-width="1.00" stroke-linecap="butt" stroke-linejoin="miter">
	<path stroke='black'  d='M71.9,121.7 L80.9,121.7  '/>	<g transform="translate(63.6,125.6)" stroke="none" fill="black" font-family="Helvetica" font-size="12.00"  text-anchor="end">
		<text><tspan font-family="Helvetica" > 1.6</tspan></text>
	</g>
</g>
<g fill="none" color="black" stroke="currentColor" stroke-width="1.00" stroke-linecap="butt" stroke-linejoin="miter">
	<path stroke='black'  d='M71.9,54.1 L80.9,54.1  '/>	<g transform="translate(63.6,58.0)" stroke="none" fill="black" font-family="Helvetica" font-size="12.00"  text-anchor="end">
		<text><tspan font-family="Helvetica" > 1.8</tspan></text>
	</g>
</g>
<g fill="none" color="black" stroke="currentColor" stroke-width="1.00" stroke-linecap="butt" stroke-linejoin="miter">
	<path stroke='black'  d='M107.6,662.4 L107.6,653.4  '/>	<g transform="translate(107.6,684.3)" stroke="none" fill="black" font-family="Helvetica" font-size="12.00"  text-anchor="middle">
		<text><tspan font-family="Helvetica" > 242</tspan></text>
	</g>
</g>
<g fill="none" color="black" stroke="currentColor" stroke-width="1.00" stroke-linecap="butt" stroke-linejoin="miter">
	<path stroke='black'  d='M218.1,662.4 L218.1,653.4  '/>	<g transform="translate(218.1,684.3)" stroke="none" fill="black" font-family="Helvetica" font-size="12.00"  text-anchor="middle">
		<text><tspan font-family="Helvetica" > 242.2</tspan></text>
	</g>
</g>
<g fill="none" color="black" stroke="currentColor" stroke-width="1.00" stroke-linecap="butt" stroke-linejoin="miter">
	<path stroke='black'  d='M328.6,662.4 L328.6,653.4  '/>	<g transform="translate(328.6,684.3)" stroke="none" fill="black" font-family="Helvetica" font-size="12.00"  text-anchor="middle">
		<text><tspan font-family="Helvetica" > 242.4</tspan></text>
	</g>
</g>
<g fill="none" color="black" stroke="currentColor" stroke-width="1.00" stroke-linecap="butt" stroke-linejoin="miter">
	<path stroke='black'  d='M439.1,662.4 L439.1,653.4  '/>	<g transform="translate(439.1,684.3)" stroke="none" fill="black" font-family="Helvetica" font-size="12.00"  text-anchor="middle">
		<text><tspan font-family="Helvetica" > 242.6</tspan></text>
	</g>
</g>
<g fill="none" color="black" stroke="currentColor" stroke-width="1.00" stroke-linecap="butt" stroke-linejoin="miter">
	<path stroke='black'  d='M549.6,662.4 L549.6,653.4  '/>	<g transform="translate(549.6,684.3)" stroke="none" fill="black" font-family="Helvetica" font-size="12.00"  text-anchor="middle">
		<text><tspan font-family="Helvetica" > 242.8</tspan></text>
	</g>
</g>
<g fill="none" color="black" stroke="currentColor" stroke-width="1.00" stroke-linecap="butt" stroke-linejoin="miter">
	<path stroke='black'  d='M660.1,662.4 L660.1,653.4  '/>	<g transform="translate(660.1,684.3)" stroke="none" fill="black" font-family="Helvetica" font-size="12.00"  text-anchor="middle">
		<text><tspan font-family="Helvetica" > 243</tspan></text>
	</g>
</g>
<g fill="none" color="black" stroke="currentColor" stroke-width="1.00" stroke-linecap="butt" stroke-linejoin="miter">
	<path stroke='black'  d='M770.6,662.4 L770.6,653.4  '/>	<g transform="translate(770.6,684.3)" stroke="none" fill="black" font-family="Helvetica" font-size="12.00"  text-anchor="middle">
		<text><tspan font-family="Helvetica" > 243.2</tspan></text>
	</g>
</g>
<g fill="none" color="black" stroke="currentColor" stroke-width="1.00" stroke-linecap="butt" stroke-linejoin="miter">
	<path stroke='black'  d='M881.1,662.4 L881.1,653.4  '/>	<g transform="translate(881.1,684.3)" stroke="none" fill="black" font-family="Helvetica" font-size="12.00"  text-anchor="middle">
		<text><tspan font-family="Helvetica" > 243.4</tspan></text>
	</g>
</g>
<g fill="none" color="black" stroke="currentColor" stroke-width="1.00" stroke-linecap="butt" stroke-linejoin="miter">
	<path stroke='black'  d='M991.6,662.4 L991.6,653.4  '/>	<g transform="translate(991.6,684.3)" stroke="none" fill="black" font-family="Helvetica" font-size="12.00"  text-anchor="middle">
		<text><tspan font-family="Helvetica" > 243.6</tspan></text>
	</g>
</g>
<g fill="none" color="black" stroke="currentColor" stroke-width="1.00" stroke-linecap="butt" stroke-linejoin="miter">
</g>
<g fill="none" color="black" stroke="currentColor" stroke-width="1.00" stroke-linecap="butt" stroke-linejoin="miter">
	<path stroke='black'  d='M71.9,54.1 L71.9,662.4 L1013.6,662.4 L1013.6,54.1 L71.9,54.1 Z  '/></g>
<g fill="none" color="black" stroke="currentColor" stroke-width="1.00" stroke-linecap="butt" stroke-linejoin="miter">
	<g transform="translate(17.0,358.3) rotate(270)" stroke="none" fill="black" font-family="Helvetica" font-size="12.00"  text-anchor="middle">
		<text><tspan font-family="Helvetica" >Density (a.u.)</tspan></text>
	</g>
</g>
<g fill="none" color="black" stroke="currentColor" stroke-width="1.00" stroke-linecap="butt" stroke-linejoin="miter">
	<g transform="translate(542.7,711.3)" stroke="none" fill="black" font-family="Helvetica" font-size="12.00"  text-anchor="middle">
		<text><tspan font-family="Helvetica" >Average time (us)</tspan></text>
	</g>
</g>
<g fill="none" color="black" stroke="currentColor" stroke-width="1.00" stroke-linecap="butt" stroke-linejoin="miter">
	<g transform="translate(542.7,31.0)" stroke="none" fill="black" font-family="Helvetica" font-size="12.00"  text-anchor="middle">
		<text><tspan font-family="Helvetica" >language: bash/parse error: python/examples/tabs.py: median</tspan></text>
	</g>
</g>
	<g id="gnuplot_plot_1" ><title>Bootstrap distribution</title>
<g fill="none" color="white" stroke="black" stroke-width="2.00" stroke-linecap="butt" stroke-linejoin="miter">
</g>
<g fill="none" color="black" stroke="currentColor" stroke-width="2.00" stroke-linecap="butt" stroke-linejoin="miter">
	<g transform="translate(1089.0,67.0)" stroke="none" fill="black" font-family="Helvetica" font-size="12.00"  text-anchor="start">
		<text><tspan font-family="Helvetica" >Bootstrap distribution</tspan></text>
	</g>
</g>
<g fill="none" color="black" stroke="currentColor" stroke-width="2.00" stroke-linecap="butt" stroke-linejoin="miter">
	<path stroke='rgb( 31, 120, 180)'  d='M1038.5,63.1 L1080.7,63.1 M71.9,642.8 L73.8,641.9 L75.7,641.0 L77.6,640.1 L79.4,639.1 L81.3,638.0
		L83.2,637.0 L85.1,635.8 L87.0,634.7 L88.9,633.4 L90.8,632.1 L92.7,630.8 L94.5,629.4 L96.4,627.9
		L98.3,626.3 L100.2,624.7 L102.1,623.0 L104.0,621.2 L105.9,619.4 L107.8,617.5 L109.6,615.5 L111.5,613.5
		L113.4,611.5 L115.3,609.4 L117.2,607.3 L119.1,605.2 L121.0,603.1 L122.9,600.9 L124.7,598.8 L126.6,596.6
		L128.5,594.4 L130.4,592.2 L132.3,589.9 L134.2,587.6 L136.1,585.2 L138.0,582.8 L139.8,580.3 L141.7,577.7
		L143.6,575.1 L145.5,572.2 L147.4,569.3 L149.3,566.2 L151.2,562.9 L153.0,559.5 L154.9,555.9 L156.8,552.1
		L158.7,548.1 L160.6,543.9 L162.5,539.5 L164.4,534.9 L166.3,530.1 L168.1,525.1 L170.0,519.9 L171.9,514.5
		L173.8,509.0 L175.7,503.3 L177.6,497.4 L179.5,491.5 L181.4,485.5 L183.2,479.5 L185.1,473.4 L187.0,467.4
		L188.9,461.5 L190.8,455.7 L192.7,450.0 L194.6,444.6 L196.5,439.5 L198.3,434.7 L200.2,430.4 L202.1,426.5
		L204.0,423.1 L205.9,420.3 L207.8,418.2 L209.7,416.8 L211.6,416.2 L213.4,416.3 L215.3,417.4 L217.2,419.3
		L219.1,422.1 L221.0,425.8 L222.9,430.3 L224.8,435.7 L226.6,441.9 L228.5,448.8 L230.4,456.4 L232.3,464.5
		L234.2,473.1 L236.1,481.9 L238.0,490.9 L239.9,500.0 L241.7,509.0 L243.6,517.7 L245.5,526.0 L247.4,533.8
		L249.3,540.9 L251.2,547.3 L253.1,552.7 L255.0,557.2 L256.8,560.7 L258.7,563.0 L260.6,564.2 L262.5,564.2
		L264.4,563.1 L266.3,560.8 L268.2,557.3 L270.1,552.8 L271.9,547.3 L273.8,540.9 L275.7,533.6 L277.6,525.7
		L279.5,517.2 L281.4,508.3 L283.3,499.2 L285.2,490.1 L287.0,481.0 L288.9,472.2 L290.8,463.8 L292.7,456.1
		L294.6,449.0 L296.5,442.9 L298.4,437.7 L300.2,433.6 L302.1,430.6 L304.0,428.8 L305.9,428.1 L307.8,428.5
		L309.7,429.9 L311.6,432.3 L313.5,435.6 L315.3,439.6 L317.2,444.2 L319.1,449.2 L321.0,454.4 L322.9,459.8
		L324.8,465.2 L326.7,470.3 L328.6,475.1 L330.4,479.5 L332.3,483.4 L334.2,486.6 L336.1,489.2 L338.0,491.0
		L339.9,492.0 L341.8,492.2 L343.7,491.6 L345.5,490.2 L347.4,488.0 L349.3,485.0 L351.2,481.2 L353.1,476.8
		L355.0,471.7 L356.9,466.0 L358.8,459.7 L360.6,453.0 L362.5,446.0 L364.4,438.7 L366.3,431.3 L368.2,423.8
		L370.1,416.5 L372.0,409.4 L373.8,402.6 L375.7,396.3 L377.6,390.5 L379.5,385.4 L381.4,380.9 L383.3,377.2
		L385.2,374.1 L387.1,371.8 L388.9,370.1 L390.8,368.9 L392.7,368.2 L394.6,367.8 L396.5,367.7 L398.4,367.7
		L400.3,367.8 L402.2,367.7 L404.0,367.4 L405.9,367.0 L407.8,366.2 L409.7,365.2 L411.6,363.9 L413.5,362.3
		L415.4,360.6 L417.3,358.8 L419.1,356.9 L421.0,355.1 L422.9,353.3 L424.8,351.7 L426.7,350.2 L428.6,348.8
		L430.5,347.6 L432.4,346.4 L434.2,345.2 L436.1,343.8 L438.0,342.2 L439.9,340.2 L441.8,337.8 L443.7,334.7
		L445.6,331.0 L447.4,326.7 L449.3,321.5 L451.2,315.7 L453.1,309.3 L455.0,302.4 L456.9,295.1 L458.8,287.5
		L460.7,279.9 L462.5,272.5 L464.4,265.5 L466.3,259.0 L468.2,253.3 L470.1,248.4 L472.0,244.4 L473.9,241.4
		L475.8,239.4 L477.6,238.3 L479.5,238.1 L481.4,238.7 L483.3,239.8 L485.2,241.3 L487.1,243.0 L489.0,244.7
		L490.9,246.3 L492.7,247.6 L494.6,248.5 L496.5,248.8 L498.4,248.7 L500.3,247.9 L502.2,246.6 L504.1,244.9
		L506.0,242.8 L507.8,240.4 L509.7,237.8 L511.6,235.2 L513.5,232.6 L515.4,230.2 L517.3,228.0 L519.2,226.0
		L521.0,224.2 L522.9,222.7 L524.8,221.2 L526.7,219.7 L528.6,218.2 L530.5,216.3 L532.4,214.1 L534.3,211.4
		L536.1,207.9 L538.0,203.7 L539.9,198.7 L541.8,192.7 L543.7,185.8 L545.6,178.1 L547.5,169.5 L549.4,160.3
		L551.2,150.6 L553.1,140.5 L555.0,130.4 L556.9,120.5 L558.8,110.9 L560.7,102.1 L562.6,94.3 L564.5,87.7
		L566.3,82.6 L568.2,79.2 L570.1,77.7 L572.0,78.2 L573.9,80.8 L575.8,85.6 L577.7,92.7 L579.5,102.0
		L581.4,113.5 L583.3,127.0 L585.2,142.4 L587.1,159.7 L589.0,178.4 L590.9,198.6 L592.8,219.8 L594.6,241.9
		L596.5,264.6 L598.4,287.6 L600.3,310.7 L602.2,333.7 L604.1,356.2 L606.0,378.1 L607.9,399.3 L609.7,419.4
		L611.6,438.4 L613.5,456.2 L615.4,472.5 L617.3,487.4 L619.2,500.8 L621.1,512.7 L623.0,522.9 L624.8,531.5
		L626.7,538.5 L628.6,544.0 L630.5,547.8 L632.4,550.1 L634.3,550.9 L636.2,550.2 L638.1,548.0 L639.9,544.5
		L641.8,539.7 L643.7,533.6 L645.6,526.4 L647.5,518.1 L649.4,508.9 L651.3,498.9 L653.1,488.3 L655.0,477.2
		L656.9,465.9 L658.8,454.4 L660.7,443.0 L662.6,431.9 L664.5,421.4 L666.4,411.5 L668.2,402.5 L670.1,394.7
		L672.0,388.0 L673.9,382.8 L675.8,379.1 L677.7,376.9 L679.6,376.4 L681.5,377.5 L683.3,380.3 L685.2,384.7
		L687.1,390.7 L689.0,398.0 L690.9,406.7 L692.8,416.5 L694.7,427.3 L696.6,438.9 L698.4,451.1 L700.3,463.7
		L702.2,476.6 L704.1,489.5 L706.0,502.4 L707.9,514.9 L709.8,527.0 L711.7,538.6 L713.5,549.4 L715.4,559.5
		L717.3,568.6 L719.2,576.8 L721.1,584.0 L723.0,590.0 L724.9,595.0 L726.7,598.7 L728.6,601.3 L730.5,602.7
		L732.4,602.8 L734.3,601.8 L736.2,599.6 L738.1,596.3 L740.0,591.9 L741.8,586.5 L743.7,580.1 L745.6,572.9
		L747.5,564.8 L749.4,556.1 L751.3,546.7 L753.2,537.0 L755.1,526.9 L756.9,516.6 L758.8,506.3 L760.7,496.1
		L762.6,486.1 L764.5,476.4 L766.4,467.3 L768.3,458.7 L770.2,450.8 L772.0,443.6 L773.9,437.4 L775.8,432.0
		L777.7,427.5 L779.6,424.0 L781.5,421.5 L783.4,420.0 L785.3,419.4 L787.1,419.8 L789.0,421.1 L790.9,423.3
		L792.8,426.3 L794.7,430.1 L796.6,434.7 L798.5,440.0 L800.3,445.9 L802.2,452.4 L804.1,459.4 L806.0,467.0
		L807.9,474.9 L809.8,483.3 L811.7,491.9 L813.6,500.8 L815.4,509.9 L817.3,519.0 L819.2,528.2 L821.1,537.4
		L823.0,546.5 L824.9,555.5 L826.8,564.2 L828.7,572.7 L830.5,580.8 L832.4,588.5 L834.3,595.9 L836.2,602.8
		L838.1,609.2 L840.0,615.2 L841.9,620.7 L843.8,625.7 L845.6,630.1 L847.5,634.2 L849.4,637.7 L851.3,640.8
		L853.2,643.5 L855.1,645.8 L857.0,647.6 L858.9,649.2 L860.7,650.3 L862.6,651.2 L864.5,651.8 L866.4,652.0
		L868.3,652.0 L870.2,651.7 L872.1,651.2 L873.9,650.4 L875.8,649.3 L877.7,648.0 L879.6,646.5 L881.5,644.7
		L883.4,642.8 L885.3,640.6 L887.2,638.2 L889.0,635.6 L890.9,632.9 L892.8,630.0 L894.7,627.0 L896.6,623.9
		L898.5,620.8 L900.4,617.7 L902.3,614.5 L904.1,611.5 L906.0,608.5 L907.9,605.7 L909.8,603.1 L911.7,600.7
		L913.6,598.5 L915.5,596.7 L917.4,595.2 L919.2,594.1 L921.1,593.3 L923.0,592.9 L924.9,592.9 L926.8,593.3
		L928.7,594.1 L930.6,595.3 L932.5,596.8 L934.3,598.6 L936.2,600.7 L938.1,603.0 L940.0,605.6 L941.9,608.3
		L943.8,611.2 L945.7,614.1 L947.5,617.0 L949.4,620.0 L951.3,622.9 L953.2,625.8 L955.1,628.5 L957.0,631.2
		L958.9,633.7 L960.8,636.1 L962.6,638.4 L964.5,640.5 L966.4,642.4 L968.3,644.3 L970.2,645.9 L972.1,647.4
		L974.0,648.8 L975.9,650.1 L977.7,651.2 L979.6,652.2 L981.5,653.1 L983.4,653.9 L985.3,654.6 L987.2,655.2
		L989.1,655.6 L991.0,656.0 L992.8,656.2 L994.7,656.3 L996.6,656.3 L998.5,656.2 L1000.4,656.0 L1002.3,655.6
		L1004.2,655.2 L1006.1,654.6 L1007.9,653.8 L1009.8,653.0 L1011.7,652.0 L1013.6,651.0  '/></g>
	</g>
	<g id="gnuplot_plot_2" ><title>Confidence interval</title>
<g fill="none" color="white" stroke="rgb( 31, 120, 180)" stroke-width="1.00" stroke-linecap="butt" stroke-linejoin="miter">
</g>
<g fill="none" color="black" stroke="currentColor" stroke-width="1.00" stroke-linecap="butt" stroke-linejoin="miter">
	<g transform="translate(1089.0,85.0)" stroke="none" fill="black" font-family="Helvetica" font-size="12.00"  text-anchor="start">
		<text><tspan font-family="Helvetica" >Confidence interval</tspan></text>
	</g>
</g>
<g fill="none" color="black" stroke="currentColor" stroke-width="1.00" stroke-linecap="butt" stroke-linejoin="miter">
	<g stroke='none' shape-rendering='crispEdges'>
		<polygon fill = 'rgb( 31, 120, 180)' fill-opacity = '0.250000' points = '1038.5,85.6 1080.7,85.6 1080.7,76.6 1038.5,76.6 '/>
		<polygon fill = 'rgb( 31, 120, 180)' fill-opacity = '0.250000' points = '158.7,548.1 158.7,662.4 160.6,662.4 160.6,543.9 '/>
		<polygon fill = 'rgb( 31, 120, 180)' fill-opacity = '0.250000' points = '160.6,543.9 160.6,662.4 162.5,662.4 162.5,539.5 '/>
		<polygon fill = 'rgb( 31, 120, 180)' fill-opacity = '0.250000' points = '162.5,539.5 162.5,662.4 164.4,662.4 164.4,534.9 '/>
		<polygon fill = 'rgb( 31, 120, 180)' fill-opacity = '0.250000' points = '164.4,534.9 164.4,662.4 166.3,662.4 166.3,530.1 '/>
		<polygon fill = 'rgb( 31, 120, 180)' fill-opacity = '0.250000' points = '166.3,530.1 166.3,662.4 168.1,662.4 168.1,525.1 '/>
		<polygon fill = 'rgb( 31, 120, 180)' fill-opacity = '0.250000' points = '168.1,525.1 168.1,662.4 170.0,662.4 170.0,519.9 '/>
		<polygon fill = 'rgb( 31, 120, 180)' fill-opacity = '0.250000' points = '170.0,519.9 170.0,662.4 171.9,662.4 171.9,514.5 '/>
		<polygon fill = 'rgb( 31, 120, 180)' fill-opacity = '0.250000' points = '171.9,514.5 171.9,662.4 173.8,662.4 173.8,509.0 '/>
		<polygon fill = 'rgb( 31, 120, 180)' fill-opacity = '0.250000' points = '173.8,509.0 173.8,662.4 175.7,662.4 175.7,503.3 '/>
		<polygon fill = 'rgb( 31, 120, 180)' fill-opacity = '0.250000' points = '175.7,503.3 175.7,662.4 177.6,662.4 177.6,497.4 '/>
		<polygon fill = 'rgb( 31, 120, 180)' fill-opacity = '0.250000' points = '177.6,497.4 177.6,662.4 179.5,662.4 179.5,491.5 '/>
		<polygon fill = 'rgb( 31, 120, 180)' fill-opacity = '0.250000' points = '179.5,491.5 179.5,662.4 181.4,662.4 181.4,485.5 '/>
		<polygon fill = 'rgb( 31, 120, 180)' fill-opacity = '0.250000' points = '181.4,485.5 181.4,662.4 183.2,662.4 183.2,479.5 '/>
		<polygon fill = 'rgb( 31, 120, 180)' fill-opacity = '0.250000' points = '183.2,479.5 183.2,662.4 185.1,662.4 185.1,473.4 '/>
		<polygon fill = 'rgb( 31, 120, 180)' fill-opacity = '0.250000' points = '185.1,473.4 185.1,662.4 187.0,662.4 187.0,467.4 '/>
		<polygon fill = 'rgb( 31, 120, 180)' fill-opacity = '0.250000' points = '187.0,467.4 187.0,662.4 188.9,662.4 188.9,461.5 '/>
		<polygon fill = 'rgb( 31, 120, 180)' fill-opacity = '0.250000' points = '188.9,461.5 188.9,662.4 190.8,662.4 190.8,455.7 '/>
		<polygon fill = 'rgb( 31, 120, 180)' fill-opacity = '0.250000' points = '190.8,455.7 190.8,662.4 192.7,662.4 192.7,450.0 '/>
		<polygon fill = 'rgb( 31, 120, 180)' fill-opacity = '0.250000' points = '192.7,450.0 192.7,662.4 194.6,662.4 194.6,444.6 '/>
		<polygon fill = 'rgb( 31, 120, 180)' fill-opacity = '0.250000' points = '194.6,444.6 194.6,662.4 196.5,662.4 196.5,439.5 '/>
		<polygon fill = 'rgb( 31, 120, 180)' fill-opacity = '0.250000' points = '196.5,439.5 196.5,662.4 198.3,662.4 198.3,434.7 '/>
		<polygon fill = 'rgb( 31, 120, 180)' fill-opacity = '0.250000' points = '198.3,434.7 198.3,662.4 200.2,662.4 200.2,430.4 '/>
		<polygon fill = 'rgb( 31, 120, 180)' fill-opacity = '0.250000' points = '200.2,430.4 200.2,662.4 202.1,662.4 202.1,426.5 '/>
		<polygon fill = 'rgb( 31, 120, 180)' fill-opacity = '0.250000' points = '202.1,426.5 202.1,662.4 204.0,662.4 204.0,423.1 '/>
		<polygon fill = 'rgb( 31, 120, 180)' fill-opacity = '0.250000' points = '204.0,423.1 204.0,662.4 205.9,662.4 205.9,420.3 '/>
		<polygon fill = 'rgb( 31, 120, 180)' fill-opacity = '0.250000' points = '205.9,420.3 205.9,662.4 207.8,662.4 207.8,418.2 '/>
		<polygon fill = 'rgb( 31, 120, 180)' fill-opacity = '0.250000' points = '207.8,418.2 207.8,662.4 209.7,662.4 209.7,416.8 '/>
		<polygon fill = 'rgb( 31, 120, 180)' fill-opacity = '0.250000' points = '209.7,416.8 209.7,662.4 211.6,662.4 211.6,416.2 '/>
		<polygon fill = 'rgb( 31, 120, 180)' fill-opacity = '0.250000' points = '211.6,416.2 211.6,662.4 213.4,662.4 213.4,416.3 '/>
		<polygon fill = 'rgb( 31, 120, 180)' fill-opacity = '0.250000' points = '213.4,416.3 213.4,662.4 215.3,662.4 215.3,417.4 '/>
		<polygon fill = 'rgb( 31, 120, 180)' fill-opacity = '0.250000' points = '215.3,417.4 215.3,662.4 217.2,662.4 217.2,419.3 '/>
		<polygon fill = 'rgb( 31, 120, 180)' fill-opacity = '0.250000' points = '217.2,419.3 217.2,662.4 219.1,662.4 219.1,422.1 '/>
		<polygon fill = 'rgb( 31, 120, 180)' fill-opacity = '0.250000' points = '219.1,422.1 219.1,662.4 221.0,662.4 221.0,425.8 '/>
		<polygon fill = 'rgb( 31, 120, 180)' fill-opacity = '0.250000' points = '221.0,425.8 221.0,662.4 222.9,662.4 222.9,430.3 '/>
		<polygon fill = 'rgb( 31, 120, 180)' fill-opacity = '0.250000' points = '222.9,430.3 222.9,662.4 224.8,662.4 224.8,435.7 '/>
		<polygon fill = 'rgb( 31, 120, 180)' fill-opacity = '0.250000' points = '224.8,435.7 224.8,662.4 226.6,662.4 226.6,441.9 '/>
		<polygon fill = 'rgb( 31, 120, 180)' fill-opacity = '0.250000' points = '226.6,441.9 226.6,662.4 228.5,662.4 228.5,448.8 '/>
		<polygon fill = 'rgb( 31, 120, 180)' fill-opacity = '0.250000' points = '228.5,448.8 228.5,662.4 230.4,662.4 230.4,456.4 '/>
		<polygon fill = 'rgb( 31, 120, 180)' fill-opacity = '0.250000' points = '230.4,456.4 230.4,662.4 232.3,662.4 232.3,464.5 '/>
		<polygon fill = 'rgb( 31, 120, 180)' fill-opacity = '0.250000' points = '232.3,464.5 232.3,662.4 234.2,662.4 234.2,473.1 '/>
		<polygon fill = 'rgb( 31, 120, 180)' fill-opacity = '0.250000' points = '234.2,473.1 234.2,662.4 236.1,662.4 236.1,481.9 '/>
		<polygon fill = 'rgb( 31, 120, 180)' fill-opacity = '0.250000' points = '236.1,481.9 236.1,662.4 238.0,662.4 238.0,490.9 '/>
		<polygon fill = 'rgb( 31, 120, 180)' fill-opacity = '0.250000' points = '238.0,490.9 238.0,662.4 239.9,662.4 239.9,500.0 '/>
		<polygon fill = 'rgb( 31, 120, 180)' fill-opacity = '0.250000' points = '239.9,500.0 239.9,662.4 241.7,662.4 241.7,509.0 '/>
		<polygon fill = 'rgb( 31, 120, 180)' fill-opacity = '0.250000' points = '241.7,509.0 241.7,662.4 243.6,662.4 243.6,517.7 '/>
		<polygon fill = 'rgb( 31, 120, 180)' fill-opacity = '0.250000' points = '243.6,517.7 243.6,662.4 245.5,662.4 245.5,526.0 '/>
		<polygon fill = 'rgb( 31, 120, 180)' fill-opacity = '0.250000' points = '245.5,526.0 245.5,662.4 247.4,662.4 247.4,533.8 '/>
		<polygon fill = 'rgb( 31, 120, 180)' fill-opacity = '0.250000' points = '247.4,533.8 247.4,662.4 249.3,662.4 249.3,540.9 '/>
		<polygon fill = 'rgb( 31, 120, 180)' fill-opacity = '0.250000' points = '249.3,540.9 249.3,662.4 251.2,662.4 251.2,547.3 '/>
		<polygon fill = 'rgb( 31, 120, 180)' fill-opacity = '0.250000' points = '251.2,547.3 251.2,662.4 253.1,662.4 253.1,552.7 '/>
		<polygon fill = 'rgb( 31, 120, 180)' fill-opacity = '0.250000' points = '253.1,552.7 253.1,662.4 255.0,662.4 255.0,557.2 '/>
		<polygon fill = 'rgb( 31, 120, 180)' fill-opacity = '0.250000' points = '255.0,557.2 255.0,662.4 256.8,662.4 256.8,560.7 '/>
		<polygon fill = 'rgb( 31, 120, 180)' fill-opacity = '0.250000' points = '256.8,560.7 256.8,662.4 258.7,662.4 258.7,563.0 '/>
		<polygon fill = 'rgb( 31, 120, 180)' fill-opacity = '0.250000' points = '258.7,563.0 258.7,662.4 260.6,662.4 260.6,564.2 '/>
		<polygon fill = 'rgb( 31, 120, 180)' fill-opacity = '0.250000' points = '260.6,564.2 260.6,662.4 262.5,662.4 262.5,564.2 '/>
		<polygon fill = 'rgb( 31, 120, 180)' fill-opacity = '0.250000' points = '262.5,564.2 262.5,662.4 264.4,662.4 264.4,563.1 '/>
		<polygon fill = 'rgb( 31, 120, 180)' fill-opacity = '0.250000' points = '264.4,563.1 264.4,662.4 266.3,662.4 266.3,560.8 '/>
		<polygon fill = 'rgb( 31, 120, 180)' fill-opacity = '0.250000' points = '266.3,560.8 266.3,662.4 268.2,662.4 268.2,557.3 '/>
		<polygon fill = 'rgb( 31, 120, 180)' fill-opacity = '0.250000' points = '268.2,557.3 268.2,662.4 270.1,662.4 270.1,552.8 '/>
		<polygon fill = 'rgb( 31, 120, 180)' fill-opacity = '0.250000' points = '270.1,552.8 270.1,662.4 271.9,662.4 271.9,547.3 '/>
		<polygon fill = 'rgb( 31, 120, 180)' fill-opacity = '0.250000' points = '271.9,547.3 271.9,662.4 273.8,662.4 273.8,540.9 '/>
		<polygon fill = 'rgb( 31, 120, 180)' fill-opacity = '0.250000' points = '273.8,540.9 273.8,662.4 275.7,662.4 275.7,533.6 '/>
		<polygon fill = 'rgb( 31, 120, 180)' fill-opacity = '0.250000' points = '275.7,533.6 275.7,662.4 277.6,662.4 277.6,525.7 '/>
		<polygon fill = 'rgb( 31, 120, 180)' fill-opacity = '0.250000' points = '277.6,525.7 277.6,662.4 279.5,662.4 279.5,517.2 '/>
		<polygon fill = 'rgb( 31, 120, 180)' fill-opacity = '0.250000' points = '279.5,517.2 279.5,662.4 281.4,662.4 281.4,508.3 '/>
		<polygon fill = 'rgb( 31, 120, 180)' fill-opacity = '0.250000' points = '281.4,508.3 281.4,662.4 283.3,662.4 283.3,499.2 '/>
		<polygon fill = 'rgb( 31, 120, 180)' fill-opacity = '0.250000' points = '283.3,499.2 283.3,662.4 285.2,662.4 285.2,490.1 '/>
		<polygon fill = 'rgb( 31, 120, 180)' fill-opacity = '0.250000' points = '285.2,490.1 285.2,662.4 287.0,662.4 287.0,481.0 '/>
		<polygon fill = 'rgb( 31, 120, 180)' fill-opacity = '0.250000' points = '287.0,481.0 287.0,662.4 288.9,662.4 288.9,472.2 '/>
		<polygon fill = 'rgb( 31, 120, 180)' fill-opacity = '0.250000' points = '288.9,472.2 288.9,662.4 290.8,662.4 290.8,463.8 '/>
		<polygon fill = 'rgb( 31, 120, 180)' fill-opacity = '0.250000' points = '290.8,463.8 290.8,662.4 292.7,662.4 292.7,456.1 '/>
		<polygon fill = 'rgb( 31, 120, 180)' fill-opacity = '0.250000' points = '292.7,456.1 292.7,662.4 294.6,662.4 294.6,449.0 '/>
		<polygon fill = 'rgb( 31, 120, 180)' fill-opacity = '0.250000' points = '294.6,449.0 294.6,662.4 296.5,662.4 296.5,442.9 '/>
		<polygon fill = 'rgb( 31, 120, 180)' fill-opacity = '0.250000' points = '296.5,442.9 296.5,662.4 298.4,662.4 298.4,437.7 '/>
		<polygon fill = 'rgb( 31, 120, 180)' fill-opacity = '0.250000' points = '298.4,437.7 298.4,662.4 300.2,662.4 300.2,433.6 '/>
		<polygon fill = 'rgb( 31, 120, 180)' fill-opacity = '0.250000' points = '300.2,433.6 300.2,662.4 302.1,662.4 302.1,430.6 '/>
		<polygon fill = 'rgb( 31, 120, 180)' fill-opacity = '0.250000' points = '302.1,430.6 302.1,662.4 304.0,662.4 304.0,428.8 '/>
		<polygon fill = 'rgb( 31, 120, 180)' fill-opacity = '0.250000' points = '304.0,428.8 304.0,662.4 305.9,662.4 305.9,428.1 '/>
		<polygon fill = 'rgb( 31, 120, 180)' fill-opacity = '0.250000' points = '305.9,428.1 305.9,662.4 307.8,662.4 307.8,428.5 '/>
		<polygon fill = 'rgb( 31, 120, 180)' fill-opacity = '0.250000' points = '307.8,428.5 307.8,662.4 309.7,662.4 309.7,429.9 '/>
		<polygon fill = 'rgb( 31, 120, 180)' fill-opacity = '0.250000' points = '309.7,429.9 309.7,662.4 311.6,662.4 311.6,432.3 '/>
		<polygon fill = 'rgb( 31, 120, 180)' fill-opacity = '0.250000' points = '311.6,432.3 311.6,662.4 313.5,662.4 313.5,435.6 '/>
		<polygon fill = 'rgb( 31, 120, 180)' fill-opacity = '0.250000' points = '313.5,435.6 313.5,662.4 315.3,662.4 315.3,439.6 '/>
		<polygon fill = 'rgb( 31, 120, 180)' fill-opacity = '0.250000' points = '315.3,439.6 315.3,662.4 317.2,662.4 317.2,444.2 '/>
		<polygon fill = 'rgb( 31, 120, 180)' fill-opacity = '0.250000' points = '317.2,444.2 317.2,662.4 319.1,662.4 319.1,449.2 '/>
		<polygon fill = 'rgb( 31, 120, 180)' fill-opacity = '0.250000' points = '319.1,449.2 319.1,662.4 321.0,662.4 321.0,454.4 '/>
		<polygon fill = 'rgb( 31, 120, 180)' fill-opacity = '0.250000' points = '321.0,454.4 321.0,662.4 322.9,662.4 322.9,459.8 '/>
		<polygon fill = 'rgb( 31, 120, 180)' fill-opacity = '0.250000' points = '322.9,459.8 322.9,662.4 324.8,662.4 324.8,465.2 '/>
		<polygon fill = 'rgb( 31, 120, 180)' fill-opacity = '0.250000' points = '324.8,465.2 324.8,662.4 326.7,662.4 326.7,470.3 '/>
		<polygon fill = 'rgb( 31, 120, 180)' fill-opacity = '0.250000' points = '326.7,470.3 326.7,662.4 328.6,662.4 328.6,475.1 '/>
		<polygon fill = 'rgb( 31, 120, 180)' fill-opacity = '0.250000' points = '328.6,475.1 328.6,662.4 330.4,662.4 330.4,479.5 '/>
		<polygon fill = 'rgb( 31, 120, 180)' fill-opacity = '0.250000' points = '330.4,479.5 330.4,662.4 332.3,662.4 332.3,483.4 '/>
		<polygon fill = 'rgb( 31, 120, 180)' fill-opacity = '0.250000' points = '332.3,483.4 332.3,662.4 334.2,662.4 334.2,486.6 '/>
		<polygon fill = 'rgb( 31, 120, 180)' fill-opacity = '0.250000' points = '334.2,486.6 334.2,662.4 336.1,662.4 336.1,489.2 '/>
		<polygon fill = 'rgb( 31, 120, 180)' fill-opacity = '0.250000' points = '336.1,489.2 336.1,662.4 338.0,662.4 338.0,491.0 '/>
		<polygon fill = 'rgb( 31, 120, 180)' fill-opacity = '0.250000' points = '338.0,491.0 338.0,662.4 339.9,662.4 339.9,492.0 '/>
		<polygon fill = 'rgb( 31, 120, 180)' fill-opacity = '0.250000' points = '339.9,492.0 339.9,662.4 341.8,662.4 341.8,492.2 '/>
		<polygon fill = 'rgb( 31, 120, 180)' fill-opacity = '0.250000' points = '341.8,492.2 341.8,662.4 343.7,662.4 343.7,491.6 '/>
		<polygon fill = 'rgb( 31, 120, 180)' fill-opacity = '0.250000' points = '343.7,491.6 343.7,662.4 345.5,662.4 345.5,490.2 '/>
		<polygon fill = 'rgb( 31, 120, 180)' fill-opacity = '0.250000' points = '345.5,490.2 345.5,662.4 347.4,662.4 347.4,488.0 '/>
		<polygon fill = 'rgb( 31, 120, 180)' fill-opacity = '0.250000' points = '347.4,488.0 347.4,662.4 349.3,662.4 349.3,485.0 '/>
		<polygon fill = 'rgb( 31, 120, 180)' fill-opacity = '0.250000' points = '349.3,485.0 349.3,662.4 351.2,662.4 351.2,481.2 '/>
		<polygon fill = 'rgb( 31, 120, 180)' fill-opacity = '0.250000' points = '351.2,481.2 351.2,662.4 353.1,662.4 353.1,476.8 '/>
		<polygon fill = 'rgb( 31, 120, 180)' fill-opacity = '0.250000' points = '353.1,476.8 353.1,662.4 355.0,662.4 355.0,471.7 '/>
		<polygon fill = 'rgb( 31, 120, 180)' fill-opacity = '0.250000' points = '355.0,471.7 355.0,662.4 356.9,662.4 356.9,466.0 '/>
		<polygon fill = 'rgb( 31, 120, 180)' fill-opacity = '0.250000' points = '356.9,466.0 356.9,662.4 358.8,662.4 358.8,459.7 '/>
		<polygon fill = 'rgb( 31, 120, 180)' fill-opacity = '0.250000' points = '358.8,459.7 358.8,662.4 360.6,662.4 360.6,453.0 '/>
		<polygon fill = 'rgb( 31, 120, 180)' fill-opacity = '0.250000' points = '360.6,453.0 360.6,662.4 362.5,662.4 362.5,446.0 '/>
		<polygon fill = 'rgb( 31, 120, 180)' fill-opacity = '0.250000' points = '362.5,446.0 362.5,662.4 364.4,662.4 364.4,438.7 '/>
		<polygon fill = 'rgb( 31, 120, 180)' fill-opacity = '0.250000' points = '364.4,438.7 364.4,662.4 366.3,662.4 366.3,431.3 '/>
		<polygon fill = 'rgb( 31, 120, 180)' fill-opacity = '0.250000' points = '366.3,431.3 366.3,662.4 368.2,662.4 368.2,423.8 '/>
		<polygon fill = 'rgb( 31, 120, 180)' fill-opacity = '0.250000' points = '368.2,423.8 368.2,662.4 370.1,662.4 370.1,416.5 '/>
		<polygon fill = 'rgb( 31, 120, 180)' fill-opacity = '0.250000' points = '370.1,416.5 370.1,662.4 372.0,662.4 372.0,409.4 '/>
		<polygon fill = 'rgb( 31, 120, 180)' fill-opacity = '0.250000' points = '372.0,409.4 372.0,662.4 373.8,662.4 373.8,402.6 '/>
		<polygon fill = 'rgb( 31, 120, 180)' fill-opacity = '0.250000' points = '373.8,402.6 373.8,662.4 375.7,662.4 375.7,396.3 '/>
		<polygon fill = 'rgb( 31, 120, 180)' fill-opacity = '0.250000' points = '375.7,396.3 375.7,662.4 377.6,662.4 377.6,390.5 '/>
		<polygon fill = 'rgb( 31, 120, 180)' fill-opacity = '0.250000' points = '377.6,390.5 377.6,662.4 379.5,662.4 379.5,385.4 '/>
		<polygon fill = 'rgb( 31, 120, 180)' fill-opacity = '0.250000' points = '379.5,385.4 379.5,662.4 381.4,662.4 381.4,380.9 '/>
		<polygon fill = 'rgb( 31, 120, 180)' fill-opacity = '0.250000' points = '381.4,380.9 381.4,662.4 383.3,662.4 383.3,377.2 '/>
		<polygon fill = 'rgb( 31, 120, 180)' fill-opacity = '0.250000' points = '383.3,377.2 383.3,662.4 385.2,662.4 385.2,374.1 '/>
		<polygon fill = 'rgb( 31, 120, 180)' fill-opacity = '0.250000' points = '385.2,374.1 385.2,662.4 387.1,662.4 387.1,371.8 '/>
		<polygon fill = 'rgb( 31, 120, 180)' fill-opacity = '0.250000' points = '387.1,371.8 387.1,662.4 388.9,662.4 388.9,370.1 '/>
		<polygon fill = 'rgb( 31, 120, 180)' fill-opacity = '0.250000' points = '388.9,370.1 388.9,662.4 390.8,662.4 390.8,368.9 '/>
		<polygon fill = 'rgb( 31, 120, 180)' fill-opacity = '0.250000' points = '390.8,368.9 390.8,662.4 392.7,662.4 392.7,368.2 '/>
		<polygon fill = 'rgb( 31, 120, 180)' fill-opacity = '0.250000' points = '392.7,368.2 392.7,662.4 394.6,662.4 394.6,367.8 '/>
		<polygon fill = 'rgb( 31, 120, 180)' fill-opacity = '0.250000' points = '394.6,367.8 394.6,662.4 396.5,662.4 396.5,367.7 '/>
		<polygon fill = 'rgb( 31, 120, 180)' fill-opacity = '0.250000' points = '396.5,367.7 396.5,662.4 398.4,662.4 398.4,367.7 '/>
		<polygon fill = 'rgb( 31, 120, 180)' fill-opacity = '0.250000' points = '398.4,367.7 398.4,662.4 400.3,662.4 400.3,367.8 '/>
		<polygon fill = 'rgb( 31, 120, 180)' fill-opacity = '0.250000' points = '400.3,367.8 400.3,662.4 402.2,662.4 402.2,367.7 '/>
		<polygon fill = 'rgb( 31, 120, 180)' fill-opacity = '0.250000' points = '402.2,367.7 402.2,662.4 404.0,662.4 404.0,367.4 '/>
		<polygon fill = 'rgb( 31, 120, 180)' fill-opacity = '0.250000' points = '404.0,367.4 404.0,662.4 405.9,662.4 405.9,367.0 '/>
		<polygon fill = 'rgb( 31, 120, 180)' fill-opacity = '0.250000' points = '405.9,367.0 405.9,662.4 407.8,662.4 407.8,366.2 '/>
		<polygon fill = 'rgb( 31, 120, 180)' fill-opacity = '0.250000' points = '407.8,366.2 407.8,662.4 409.7,662.4 409.7,365.2 '/>
		<polygon fill = 'rgb( 31, 120, 180)' fill-opacity = '0.250000' points = '409.7,365.2 409.7,662.4 411.6,662.4 411.6,363.9 '/>
		<polygon fill = 'rgb( 31, 120, 180)' fill-opacity = '0.250000' points = '411.6,363.9 411.6,662.4 413.5,662.4 413.5,362.3 '/>
		<polygon fill = 'rgb( 31, 120, 180)' fill-opacity = '0.250000' points = '413.5,362.3 413.5,662.4 415.4,662.4 415.4,360.6 '/>
		<polygon fill = 'rgb( 31, 120, 180)' fill-opacity = '0.250000' points = '415.4,360.6 415.4,662.4 417.3,662.4 417.3,358.8 '/>
		<polygon fill = 'rgb( 31, 120, 180)' fill-opacity = '0.250000' points = '417.3,358.8 417.3,662.4 419.1,662.4 419.1,356.9 '/>
		<polygon fill = 'rgb( 31, 120, 180)' fill-opacity = '0.250000' points = '419.1,356.9 419.1,662.4 421.0,662.4 421.0,355.1 '/>
		<polygon fill = 'rgb( 31, 120, 180)' fill-opacity = '0.250000' points = '421.0,355.1 421.0,662.4 422.9,662.4 422.9,353.3 '/>
		<polygon fill = 'rgb( 31, 120, 180)' fill-opacity = '0.250000' points = '422.9,353.3 422.9,662.4 424.8,662.4 424.8,351.7 '/>
		<polygon fill = 'rgb( 31, 120, 180)' fill-opacity = '0.250000' points = '424.8,351.7 424.8,662.4 426.7,662.4 426.7,350.2 '/>
		<polygon fill = 'rgb( 31, 120, 180)' fill-opacity = '0.250000' points = '426.7,350.2 426.7,662.4 428.6,662.4 428.6,348.8 '/>
		<polygon fill = 'rgb( 31, 120, 180)' fill-opacity = '0.250000' points = '428.6,348.8 428.6,662.4 430.5,662.4 430.5,347.6 '/>
		<polygon fill = 'rgb( 31, 120, 180)' fill-opacity = '0.250000' points = '430.5,347.6 430.5,662.4 432.4,662.4 432.4,346.4 '/>
		<polygon fill = 'rgb( 31, 120, 180)' fill-opacity = '0.250000' points = '432.4,346.4 432.4,662.4 434.2,662.4 434.2,345.2 '/>
		<polygon fill = 'rgb( 31, 120, 180)' fill-opacity = '0.250000' points = '434.2,345.2 434.2,662.4 436.1,662.4 436.1,343.8 '/>
		<polygon fill = 'rgb( 31, 120, 180)' fill-opacity = '0.250000' points = '436.1,343.8 436.1,662.4 438.0,662.4 438.0,342.2 '/>
		<polygon fill = 'rgb( 31, 120, 180)' fill-opacity = '0.250000' points = '438.0,342.2 438.0,662.4 439.9,662.4 439.9,340.2 '/>
		<polygon fill = 'rgb( 31, 120, 180)' fill-opacity = '0.250000' points = '439.9,340.2 439.9,662.4 441.8,662.4 441.8,337.8 '/>
		<polygon fill = 'rgb( 31, 120, 180)' fill-opacity = '0.250000' points = '441.8,337.8 441.8,662.4 443.7,662.4 443.7,334.7 '/>
		<polygon fill = 'rgb( 31, 120, 180)' fill-opacity = '0.250000' points = '443.7,334.7 443.7,662.4 445.6,662.4 445.6,331.0 '/>
		<polygon fill = 'rgb( 31, 120, 180)' fill-opacity = '0.250000' points = '445.6,331.0 445.6,662.4 447.4,662.4 447.4,326.7 '/>
		<polygon fill = 'rgb( 31, 120, 180)' fill-opacity = '0.250000' points = '447.4,326.7 447.4,662.4 449.3,662.4 449.3,321.5 '/>
		<polygon fill = 'rgb( 31, 120, 180)' fill-opacity = '0.250000' points = '449.3,321.5 449.3,662.4 451.2,662.4 451.2,315.7 '/>
		<polygon fill = 'rgb( 31, 120, 180)' fill-opacity = '0.250000' points = '451.2,315.7 451.2,662.4 453.1,662.4 453.1,309.3 '/>
		<polygon fill = 'rgb( 31, 120, 180)' fill-opacity = '0.250000' points = '453.1,309.3 453.1,662.4 455.0,662.4 455.0,302.4 '/>
		<polygon fill = 'rgb( 31, 120, 180)' fill-opacity = '0.250000' points = '455.0,302.4 455.0,662.4 456.9,662.4 456.9,295.1 '/>
		<polygon fill = 'rgb( 31, 120, 180)' fill-opacity = '0.250000' points = '456.9,295.1 456.9,662.4 458.8,662.4 458.8,287.5 '/>
		<polygon fill = 'rgb( 31, 120, 180)' fill-opacity = '0.250000' points = '458.8,287.5 458.8,662.4 460.7,662.4 460.7,279.9 '/>
		<polygon fill = 'rgb( 31, 120, 180)' fill-opacity = '0.250000' points = '460.7,279.9 460.7,662.4 462.5,662.4 462.5,272.5 '/>
		<polygon fill = 'rgb( 31, 120, 180)' fill-opacity = '0.250000' points = '462.5,272.5 462.5,662.4 464.4,662.4 464.4,265.5 '/>
		<polygon fill = 'rgb( 31, 120, 180)' fill-opacity = '0.250000' points = '464.4,265.5 464.4,662.4 466.3,662.4 466.3,259.0 '/>
		<polygon fill = 'rgb( 31, 120, 180)' fill-opacity = '0.250000' points = '466.3,259.0 466.3,662.4 468.2,662.4 468.2,253.3 '/>
		<polygon fill = 'rgb( 31, 120, 180)' fill-opacity = '0.250000' points = '468.2,253.3 468.2,662.4 470.1,662.4 470.1,248.4 '/>
		<polygon fill = 'rgb( 31, 120, 180)' fill-opacity = '0.250000' points = '470.1,248.4 470.1,662.4 472.0,662.4 472.0,244.4 '/>
		<polygon fill = 'rgb( 31, 120, 180)' fill-opacity = '0.250000' points = '472.0,244.4 472.0,662.4 473.9,662.4 473.9,241.4 '/>
		<polygon fill = 'rgb( 31, 120, 180)' fill-opacity = '0.250000' points = '473.9,241.4 473.9,662.4 475.8,662.4 475.8,239.4 '/>
		<polygon fill = 'rgb( 31, 120, 180)' fill-opacity = '0.250000' points = '475.8,239.4 475.8,662.4 477.6,662.4 477.6,238.3 '/>
		<polygon fill = 'rgb( 31, 120, 180)' fill-opacity = '0.250000' points = '477.6,238.3 477.6,662.4 479.5,662.4 479.5,238.1 '/>
		<polygon fill = 'rgb( 31, 120, 180)' fill-opacity = '0.250000' points = '479.5,238.1 479.5,662.4 481.4,662.4 481.4,238.7 '/>
		<polygon fill = 'rgb( 31, 120, 180)' fill-opacity = '0.250000' points = '481.4,238.7 481.4,662.4 483.3,662.4 483.3,239.8 '/>
		<polygon fill = 'rgb( 31, 120, 180)' fill-opacity = '0.250000' points = '483.3,239.8 483.3,662.4 485.2,662.4 485.2,241.3 '/>
		<polygon fill = 'rgb( 31, 120, 180)' fill-opacity = '0.250000' points = '485.2,241.3 485.2,662.4 487.1,662.4 487.1,243.0 '/>
		<polygon fill = 'rgb( 31, 120, 180)' fill-opacity = '0.250000' points = '487.1,243.0 487.1,662.4 489.0,662.4 489.0,244.7 '/>
		<polygon fill = 'rgb( 31, 120, 180)' fill-opacity = '0.250000' points = '489.0,244.7 489.0,662.4 490.9,662.4 490.9,246.3 '/>
		<polygon fill = 'rgb( 31, 120, 180)' fill-opacity = '0.250000' points = '490.9,246.3 490.9,662.4 492.7,662.4 492.7,247.6 '/>
		<polygon fill = 'rgb( 31, 120, 180)' fill-opacity = '0.250000' points = '492.7,247.6 492.7,662.4 494.6,662.4 494.6,248.5 '/>
		<polygon fill = 'rgb( 31, 120, 180)' fill-opacity = '0.250000' points = '494.6,248.5 494.6,662.4 496.5,662.4 496.5,248.8 '/>
		<polygon fill = 'rgb( 31, 120, 180)' fill-opacity = '0.250000' points = '496.5,248.8 496.5,662.4 498.4,662.4 498.4,248.7 '/>
		<polygon fill = 'rgb( 31, 120, 180)' fill-opacity = '0.250000' points = '498.4,248.7 498.4,662.4 500.3,662.4 500.3,247.9 '/>
		<polygon fill = 'rgb( 31, 120, 180)' fill-opacity = '0.250000' points = '500.3,247.9 500.3,662.4 502.2,662.4 502.2,246.6 '/>
		<polygon fill = 'rgb( 31, 120, 180)' fill-opacity = '0.250000' points = '502.2,246.6 502.2,662.4 504.1,662.4 504.1,244.9 '/>
		<polygon fill = 'rgb( 31, 120, 180)' fill-opacity = '0.250000' points = '504.1,244.9 504.1,662.4 506.0,662.4 506.0,242.8 '/>
		<polygon fill = 'rgb( 31, 120, 180)' fill-opacity = '0.250000' points = '506.0,242.8 506.0,662.4 507.8,662.4 507.8,240.4 '/>
		<polygon fill = 'rgb( 31, 120, 180)' fill-opacity = '0.250000' points = '507.8,240.4 507.8,662.4 509.7,662.4 509.7,237.8 '/>
		<polygon fill = 'rgb( 31, 120, 180)' fill-opacity = '0.250000' points = '509.7,237.8 509.7,662.4 511.6,662.4 511.6,235.2 '/>
		<polygon fill = 'rgb( 31, 120, 180)' fill-opacity = '0.250000' points = '511.6,235.2 511.6,662.4 513.5,662.4 513.5,232.6 '/>
		<polygon fill = 'rgb( 31, 120, 180)' fill-opacity = '0.250000' points = '513.5,232.6 513.5,662.4 515.4,662.4 515.4,230.2 '/>
		<polygon fill = 'rgb( 31, 120, 180)' fill-opacity = '0.250000' points = '515.4,230.2 515.4,662.4 517.3,662.4 517.3,228.0 '/>
		<polygon fill = 'rgb( 31, 120, 180)' fill-opacity = '0.250000' points = '517.3,228.0 517.3,662.4 519.2,662.4 519.2,226.0 '/>
		<polygon fill = 'rgb( 31, 120, 180)' fill-opacity = '0.250000' points = '519.2,226.0 519.2,662.4 521.0,662.4 521.0,224.2 '/>
		<polygon fill = 'rgb( 31, 120, 180)' fill-opacity = '0.250000' points = '521.0,224.2 521.0,662.4 522.9,662.4 522.9,222.7 '/>
		<polygon fill = 'rgb( 31, 120, 180)' fill-opacity = '0.250000' points = '522.9,222.7 522.9,662.4 524.8,662.4 524.8,221.2 '/>
		<polygon fill = 'rgb( 31, 120, 180)' fill-opacity = '0.250000' points = '524.8,221.2 524.8,662.4 526.7,662.4 526.7,219.7 '/>
		<polygon fill = 'rgb( 31, 120, 180)' fill-opacity = '0.250000' points = '526.7,219.7 526.7,662.4 528.6,662.4 528.6,218.2 '/>
		<polygon fill = 'rgb( 31, 120, 180)' fill-opacity = '0.250000' points = '528.6,218.2 528.6,662.4 530.5,662.4 530.5,216.3 '/>
		<polygon fill = 'rgb( 31, 120, 180)' fill-opacity = '0.250000' points = '530.5,216.3 530.5,662.4 532.4,662.4 532.4,214.1 '/>
		<polygon fill = 'rgb( 31, 120, 180)' fill-opacity = '0.250000' points = '532.4,214.1 532.4,662.4 534.3,662.4 534.3,211.4 '/>
		<polygon fill = 'rgb( 31, 120, 180)' fill-opacity = '0.250000' points = '534.3,211.4 534.3,662.4 536.1,662.4 536.1,207.9 '/>
		<polygon fill = 'rgb( 31, 120, 180)' fill-opacity = '0.250000' points = '536.1,207.9 536.1,662.4 538.0,662.4 538.0,203.7 '/>
		<polygon fill = 'rgb( 31, 120, 180)' fill-opacity = '0.250000' points = '538.0,203.7 538.0,662.4 539.9,662.4 539.9,198.7 '/>
		<polygon fill = 'rgb( 31, 120, 180)' fill-opacity = '0.250000' points = '539.9,198.7 539.9,662.4 541.8,662.4 541.8,192.7 '/>
		<polygon fill = 'rgb( 31, 120, 180)' fill-opacity = '0.250000' points = '541.8,192.7 541.8,662.4 543.7,662.4 543.7,185.8 '/>
		<polygon fill = 'rgb( 31, 120, 180)' fill-opacity = '0.250000' points = '543.7,185.8 543.7,662.4 545.6,662.4 545.6,178.1 '/>
		<polygon fill = 'rgb( 31, 120, 180)' fill-opacity = '0.250000' points = '545.6,178.1 545.6,662.4 547.5,662.4 547.5,169.5 '/>
		<polygon fill = 'rgb( 31, 120, 180)' fill-opacity = '0.250000' points = '547.5,169.5 547.5,662.4 549.4,662.4 549.4,160.3 '/>
		<polygon fill = 'rgb( 31, 120, 180)' fill-opacity = '0.250000' points = '549.4,160.3 549.4,662.4 551.2,662.4 551.2,150.6 '/>
		<polygon fill = 'rgb( 31, 120, 180)' fill-opacity = '0.250000' points = '551.2,150.6 551.2,662.4 553.1,662.4 553.1,140.5 '/>
		<polygon fill = 'rgb( 31, 120, 180)' fill-opacity = '0.250000' points = '553.1,140.5 553.1,662.4 555.0,662.4 555.0,130.4 '/>
		<polygon fill = 'rgb( 31, 120, 180)' fill-opacity = '0.250000' points = '555.0,130.4 555.0,662.4 556.9,662.4 556.9,120.5 '/>
		<polygon fill = 'rgb( 31, 120, 180)' fill-opacity = '0.250000' points = '556.9,120.5 556.9,662.4 558.8,662.4 558.8,110.9 '/>
		<polygon fill = 'rgb( 31, 120, 180)' fill-opacity = '0.250000' points = '558.8,110.9 558.8,662.4 560.7,662.4 560.7,102.1 '/>
		<polygon fill = 'rgb( 31, 120, 180)' fill-opacity = '0.250000' points = '560.7,102.1 560.7,662.4 562.6,662.4 562.6,94.3 '/>
		<polygon fill = 'rgb( 31, 120, 180)' fill-opacity = '0.250000' points = '562.6,94.3 562.6,662.4 564.5,662.4 564.5,87.7 '/>
		<polygon fill = 'rgb( 31, 120, 180)' fill-opacity = '0.250000' points = '564.5,87.7 564.5,662.4 566.3,662.4 566.3,82.6 '/>
		<polygon fill = 'rgb( 31, 120, 180)' fill-opacity = '0.250000' points = '566.3,82.6 566.3,662.4 568.2,662.4 568.2,79.2 '/>
		<polygon fill = 'rgb( 31, 120, 180)' fill-opacity = '0.250000' points = '568.2,79.2 568.2,662.4 570.1,662.4 570.1,77.7 '/>
		<polygon fill = 'rgb( 31, 120, 180)' fill-opacity = '0.250000' points = '570.1,77.7 570.1,662.4 572.0,662.4 572.0,78.2 '/>
		<polygon fill = 'rgb( 31, 120, 180)' fill-opacity = '0.250000' points = '572.0,78.2 572.0,662.4 573.9,662.4 573.9,80.8 '/>
		<polygon fill = 'rgb( 31, 120, 180)' fill-opacity = '0.250000' points = '573.9,80.8 573.9,662.4 575.8,662.4 575.8,85.6 '/>
		<polygon fill = 'rgb( 31, 120, 180)' fill-opacity = '0.250000' points = '575.8,85.6 575.8,662.4 577.7,662.4 577.7,92.7 '/>
		<polygon fill = 'rgb( 31, 120, 180)' fill-opacity = '0.250000' points = '577.7,92.7 577.7,662.4 579.5,662.4 579.5,102.0 '/>
		<polygon fill = 'rgb( 31, 120, 180)' fill-opacity = '0.250000' points = '579.5,102.0 579.5,662.4 581.4,662.4 581.4,113.5 '/>
		<polygon fill = 'rgb( 31, 120, 180)' fill-opacity = '0.250000' points = '581.4,113.5 581.4,662.4 583.3,662.4 583.3,127.0 '/>
		<polygon fill = 'rgb( 31, 120, 180)' fill-opacity = '0.250000' points = '583.3,127.0 583.3,662.4 585.2,662.4 585.2,142.4 '/>
		<polygon fill = 'rgb( 31, 120, 180)' fill-opacity = '0.250000' points = '585.2,142.4 585.2,662.4 587.1,662.4 587.1,159.7 '/>
		<polygon fill = 'rgb( 31, 120, 180)' fill-opacity = '0.250000' points = '587.1,159.7 587.1,662.4 589.0,662.4 589.0,178.4 '/>
		<polygon fill = 'rgb( 31, 120, 180)' fill-opacity = '0.250000' points = '589.0,178.4 589.0,662.4 590.9,662.4 590.9,198.6 '/>
		<polygon fill = 'rgb( 31, 120, 180)' fill-opacity = '0.250000' points = '590.9,198.6 590.9,662.4 592.8,662.4 592.8,219.8 '/>
		<polygon fill = 'rgb( 31, 120, 180)' fill-opacity = '0.250000' points = '592.8,219.8 592.8,662.4 594.6,662.4 594.6,241.9 '/>
		<polygon fill = 'rgb( 31, 120, 180)' fill-opacity = '0.250000' points = '594.6,241.9 594.6,662.4 596.5,662.4 596.5,264.6 '/>
		<polygon fill = 'rgb( 31, 120, 180)' fill-opacity = '0.250000' points = '596.5,264.6 596.5,662.4 598.4,662.4 598.4,287.6 '/>
		<polygon fill = 'rgb( 31, 120, 180)' fill-opacity = '0.250000' points = '598.4,287.6 598.4,662.4 600.3,662.4 600.3,310.7 '/>
		<polygon fill = 'rgb( 31, 120, 180)' fill-opacity = '0.250000' points = '600.3,310.7 600.3,662.4 602.2,662.4 602.2,333.7 '/>
		<polygon fill = 'rgb( 31, 120, 180)' fill-opacity = '0.250000' points = '602.2,333.7 602.2,662.4 604.1,662.4 604.1,356.2 '/>
		<polygon fill = 'rgb( 31, 120, 180)' fill-opacity = '0.250000' points = '604.1,356.2 604.1,662.4 606.0,662.4 606.0,378.1 '/>
		<polygon fill = 'rgb( 31, 120, 180)' fill-opacity = '0.250000' points = '606.0,378.1 606.0,662.4 607.9,662.4 607.9,399.3 '/>
		<polygon fill = 'rgb( 31, 120, 180)' fill-opacity = '0.250000' points = '607.9,399.3 607.9,662.4 609.7,662.4 609.7,419.4 '/>
		<polygon fill = 'rgb( 31, 120, 180)' fill-opacity = '0.250000' points = '609.7,419.4 609.7,662.4 611.6,662.4 611.6,438.4 '/>
		<polygon fill = 'rgb( 31, 120, 180)' fill-opacity = '0.250000' points = '611.6,438.4 611.6,662.4 613.5,662.4 613.5,456.2 '/>
		<polygon fill = 'rgb( 31, 120, 180)' fill-opacity = '0.250000' points = '613.5,456.2 613.5,662.4 615.4,662.4 615.4,472.5 '/>
		<polygon fill = 'rgb( 31, 120, 180)' fill-opacity = '0.250000' points = '615.4,472.5 615.4,662.4 617.3,662.4 617.3,487.4 '/>
		<polygon fill = 'rgb( 31, 120, 180)' fill-opacity = '0.250000' points = '617.3,487.4 617.3,662.4 619.2,662.4 619.2,500.8 '/>
		<polygon fill = 'rgb( 31, 120, 180)' fill-opacity = '0.250000' points = '619.2,500.8 619.2,662.4 621.1,662.4 621.1,512.7 '/>
		<polygon fill = 'rgb( 31, 120, 180)' fill-opacity = '0.250000' points = '621.1,512.7 621.1,662.4 623.0,662.4 623.0,522.9 '/>
		<polygon fill = 'rgb( 31, 120, 180)' fill-opacity = '0.250000' points = '623.0,522.9 623.0,662.4 624.8,662.4 624.8,531.5 '/>
		<polygon fill = 'rgb( 31, 120, 180)' fill-opacity = '0.250000' points = '624.8,531.5 624.8,662.4 626.7,662.4 626.7,538.5 '/>
		<polygon fill = 'rgb( 31, 120, 180)' fill-opacity = '0.250000' points = '626.7,538.5 626.7,662.4 628.6,662.4 628.6,544.0 '/>
		<polygon fill = 'rgb( 31, 120, 180)' fill-opacity = '0.250000' points = '628.6,544.0 628.6,662.4 630.5,662.4 630.5,547.8 '/>
		<polygon fill = 'rgb( 31, 120, 180)' fill-opacity = '0.250000' points = '630.5,547.8 630.5,662.4 632.4,662.4 632.4,550.1 '/>
		<polygon fill = 'rgb( 31, 120, 180)' fill-opacity = '0.250000' points = '632.4,550.1 632.4,662.4 634.3,662.4 634.3,550.9 '/>
		<polygon fill = 'rgb( 31, 120, 180)' fill-opacity = '0.250000' points = '634.3,550.9 634.3,662.4 636.2,662.4 636.2,550.2 '/>
		<polygon fill = 'rgb( 31, 120, 180)' fill-opacity = '0.250000' points = '636.2,550.2 636.2,662.4 638.1,662.4 638.1,548.0 '/>
		<polygon fill = 'rgb( 31, 120, 180)' fill-opacity = '0.250000' points = '638.1,548.0 638.1,662.4 639.9,662.4 639.9,544.5 '/>
		<polygon fill = 'rgb( 31, 120, 180)' fill-opacity = '0.250000' points = '639.9,544.5 639.9,662.4 641.8,662.4 641.8,539.7 '/>
		<polygon fill = 'rgb( 31, 120, 180)' fill-opacity = '0.250000' points = '641.8,539.7 641.8,662.4 643.7,662.4 643.7,533.6 '/>
		<polygon fill = 'rgb( 31, 120, 180)' fill-opacity = '0.250000' points = '643.7,533.6 643.7,662.4 645.6,662.4 645.6,526.4 '/>
		<polygon fill = 'rgb( 31, 120, 180)' fill-opacity = '0.250000' points = '645.6,526.4 645.6,662.4 647.5,662.4 647.5,518.1 '/>
		<polygon fill = 'rgb( 31, 120, 180)' fill-opacity = '0.250000' points = '647.5,518.1 647.5,662.4 649.4,662.4 649.4,508.9 '/>
		<polygon fill = 'rgb( 31, 120, 180)' fill-opacity = '0.250000' points = '649.4,508.9 649.4,662.4 651.3,662.4 651.3,498.9 '/>
		<polygon fill = 'rgb( 31, 120, 180)' fill-opacity = '0.250000' points = '651.3,498.9 651.3,662.4 653.1,662.4 653.1,488.3 '/>
		<polygon fill = 'rgb( 31, 120, 180)' fill-opacity = '0.250000' points = '653.1,488.3 653.1,662.4 655.0,662.4 655.0,477.2 '/>
		<polygon fill = 'rgb( 31, 120, 180)' fill-opacity = '0.250000' points = '655.0,477.2 655.0,662.4 656.9,662.4 656.9,465.9 '/>
		<polygon fill = 'rgb( 31, 120, 180)' fill-opacity = '0.250000' points = '656.9,465.9 656.9,662.4 658.8,662.4 658.8,454.4 '/>
		<polygon fill = 'rgb( 31, 120, 180)' fill-opacity = '0.250000' points = '658.8,454.4 658.8,662.4 660.7,662.4 660.7,443.0 '/>
		<polygon fill = 'rgb( 31, 120, 180)' fill-opacity = '0.250000' points = '660.7,443.0 660.7,662.4 662.6,662.4 662.6,431.9 '/>
		<polygon fill = 'rgb( 31, 120, 180)' fill-opacity = '0.250000' points = '662.6,431.9 662.6,662.4 664.5,662.4 664.5,421.4 '/>
		<polygon fill = 'rgb( 31, 120, 180)' fill-opacity = '0.250000' points = '664.5,421.4 664.5,662.4 666.4,662.4 666.4,411.5 '/>
		<polygon fill = 'rgb( 31, 120, 180)' fill-opacity = '0.250000' points = '666.4,411.5 666.4,662.4 668.2,662.4 668.2,402.5 '/>
		<polygon fill = 'rgb( 31, 120, 180)' fill-opacity = '0.250000' points = '668.2,402.5 668.2,662.4 670.1,662.4 670.1,394.7 '/>
		<polygon fill = 'rgb( 31, 120, 180)' fill-opacity = '0.250000' points = '670.1,394.7 670.1,662.4 672.0,662.4 672.0,388.0 '/>
		<polygon fill = 'rgb( 31, 120, 180)' fill-opacity = '0.250000' points = '672.0,388.0 672.0,662.4 673.9,662.4 673.9,382.8 '/>
		<polygon fill = 'rgb( 31, 120, 180)' fill-opacity = '0.250000' points = '673.9,382.8 673.9,662.4 675.8,662.4 675.8,379.1 '/>
		<polygon fill = 'rgb( 31, 120, 180)' fill-opacity = '0.250000' points = '675.8,379.1 675.8,662.4 677.7,662.4 677.7,376.9 '/>
		<polygon fill = 'rgb( 31, 120, 180)' fill-opacity = '0.250000' points = '677.7,376.9 677.7,662.4 679.6,662.4 679.6,376.4 '/>
		<polygon fill = 'rgb( 31, 120, 180)' fill-opacity = '0.250000' points = '679.6,376.4 679.6,662.4 681.5,662.4 681.5,377.5 '/>
		<polygon fill = 'rgb( 31, 120, 180)' fill-opacity = '0.250000' points = '681.5,377.5 681.5,662.4 683.3,662.4 683.3,380.3 '/>
		<polygon fill = 'rgb( 31, 120, 180)' fill-opacity = '0.250000' points = '683.3,380.3 683.3,662.4 685.2,662.4 685.2,384.7 '/>
		<polygon fill = 'rgb( 31, 120, 180)' fill-opacity = '0.250000' points = '685.2,384.7 685.2,662.4 687.1,662.4 687.1,390.7 '/>
		<polygon fill = 'rgb( 31, 120, 180)' fill-opacity = '0.250000' points = '687.1,390.7 687.1,662.4 689.0,662.4 689.0,398.0 '/>
		<polygon fill = 'rgb( 31, 120, 180)' fill-opacity = '0.250000' points = '689.0,398.0 689.0,662.4 690.9,662.4 690.9,406.7 '/>
		<polygon fill = 'rgb( 31, 120, 180)' fill-opacity = '0.250000' points = '690.9,406.7 690.9,662.4 692.8,662.4 692.8,416.5 '/>
		<polygon fill = 'rgb( 31, 120, 180)' fill-opacity = '0.250000' points = '692.8,416.5 692.8,662.4 694.7,662.4 694.7,427.3 '/>
		<polygon fill = 'rgb( 31, 120, 180)' fill-opacity = '0.250000' points = '694.7,427.3 694.7,662.4 696.6,662.4 696.6,438.9 '/>
		<polygon fill = 'rgb( 31, 120, 180)' fill-opacity = '0.250000' points = '696.6,438.9 696.6,662.4 698.4,662.4 698.4,451.1 '/>
		<polygon fill = 'rgb( 31, 120, 180)' fill-opacity = '0.250000' points = '698.4,451.1 698.4,662.4 700.3,662.4 700.3,463.7 '/>
		<polygon fill = 'rgb( 31, 120, 180)' fill-opacity = '0.250000' points = '700.3,463.7 700.3,662.4 702.2,662.4 702.2,476.6 '/>
		<polygon fill = 'rgb( 31, 120, 180)' fill-opacity = '0.250000' points = '702.2,476.6 702.2,662.4 704.1,662.4 704.1,489.5 '/>
		<polygon fill = 'rgb( 31, 120, 180)' fill-opacity = '0.250000' points = '704.1,489.5 704.1,662.4 706.0,662.4 706.0,502.4 '/>
		<polygon fill = 'rgb( 31, 120, 180)' fill-opacity = '0.250000' points = '706.0,502.4 706.0,662.4 707.9,662.4 707.9,514.9 '/>
		<polygon fill = 'rgb( 31, 120, 180)' fill-opacity = '0.250000' points = '707.9,514.9 707.9,662.4 709.8,662.4 709.8,527.0 '/>
		<polygon fill = 'rgb( 31, 120, 180)' fill-opacity = '0.250000' points = '709.8,527.0 709.8,662.4 711.7,662.4 711.7,538.6 '/>
		<polygon fill = 'rgb( 31, 120, 180)' fill-opacity = '0.250000' points = '711.7,538.6 711.7,662.4 713.5,662.4 713.5,549.4 '/>
		<polygon fill = 'rgb( 31, 120, 180)' fill-opacity = '0.250000' points = '713.5,549.4 713.5,662.4 715.4,662.4 715.4,559.5 '/>
		<polygon fill = 'rgb( 31, 120, 180)' fill-opacity = '0.250000' points = '715.4,559.5 715.4,662.4 717.3,662.4 717.3,568.6 '/>
		<polygon fill = 'rgb( 31, 120, 180)' fill-opacity = '0.250000' points = '717.3,568.6 717.3,662.4 719.2,662.4 719.2,576.8 '/>
		<polygon fill = 'rgb( 31, 120, 180)' fill-opacity = '0.250000' points = '719.2,576.8 719.2,662.4 721.1,662.4 721.1,584.0 '/>
		<polygon fill = 'rgb( 31, 120, 180)' fill-opacity = '0.250000' points = '721.1,584.0 721.1,662.4 723.0,662.4 723.0,590.0 '/>
		<polygon fill = 'rgb( 31, 120, 180)' fill-opacity = '0.250000' points = '723.0,590.0 723.0,662.4 724.9,662.4 724.9,595.0 '/>
		<polygon fill = 'rgb( 31, 120, 180)' fill-opacity = '0.250000' points = '724.9,595.0 724.9,662.4 726.7,662.4 726.7,598.7 '/>
		<polygon fill = 'rgb( 31, 120, 180)' fill-opacity = '0.250000' points = '726.7,598.7 726.7,662.4 728.6,662.4 728.6,601.3 '/>
		<polygon fill = 'rgb( 31, 120, 180)' fill-opacity = '0.250000' points = '728.6,601.3 728.6,662.4 730.5,662.4 730.5,602.7 '/>
		<polygon fill = 'rgb( 31, 120, 180)' fill-opacity = '0.250000' points = '730.5,602.7 730.5,662.4 732.4,662.4 732.4,602.8 '/>
		<polygon fill = 'rgb( 31, 120, 180)' fill-opacity = '0.250000' points = '732.4,602.8 732.4,662.4 734.3,662.4 734.3,601.8 '/>
		<polygon fill = 'rgb( 31, 120, 180)' fill-opacity = '0.250000' points = '734.3,601.8 734.3,662.4 736.2,662.4 736.2,599.6 '/>
		<polygon fill = 'rgb( 31, 120, 180)' fill-opacity = '0.250000' points = '736.2,599.6 736.2,662.4 738.1,662.4 738.1,596.3 '/>
		<polygon fill = 'rgb( 31, 120, 180)' fill-opacity = '0.250000' points = '738.1,596.3 738.1,662.4 740.0,662.4 740.0,591.9 '/>
		<polygon fill = 'rgb( 31, 120, 180)' fill-opacity = '0.250000' points = '740.0,591.9 740.0,662.4 741.8,662.4 741.8,586.5 '/>
		<polygon fill = 'rgb( 31, 120, 180)' fill-opacity = '0.250000' points = '741.8,586.5 741.8,662.4 743.7,662.4 743.7,580.1 '/>
		<polygon fill = 'rgb( 31, 120, 180)' fill-opacity = '0.250000' points = '743.7,580.1 743.7,662.4 745.6,662.4 745.6,572.9 '/>
		<polygon fill = 'rgb( 31, 120, 180)' fill-opacity = '0.250000' points = '745.6,572.9 745.6,662.4 747.5,662.4 747.5,564.8 '/>
		<polygon fill = 'rgb( 31, 120, 180)' fill-opacity = '0.250000' points = '747.5,564.8 747.5,662.4 749.4,662.4 749.4,556.1 '/>
		<polygon fill = 'rgb( 31, 120, 180)' fill-opacity = '0.250000' points = '749.4,556.1 749.4,662.4 751.3,662.4 751.3,546.7 '/>
		<polygon fill = 'rgb( 31, 120, 180)' fill-opacity = '0.250000' points = '751.3,546.7 751.3,662.4 753.2,662.4 753.2,537.0 '/>
		<polygon fill = 'rgb( 31, 120, 180)' fill-opacity = '0.250000' points = '753.2,537.0 753.2,662.4 755.1,662.4 755.1,526.9 '/>
		<polygon fill = 'rgb( 31, 120, 180)' fill-opacity = '0.250000' points = '755.1,526.9 755.1,662.4 756.9,662.4 756.9,516.6 '/>
		<polygon fill = 'rgb( 31, 120, 180)' fill-opacity = '0.250000' points = '756.9,516.6 756.9,662.4 758.8,662.4 758.8,506.3 '/>
		<polygon fill = 'rgb( 31, 120, 180)' fill-opacity = '0.250000' points = '758.8,506.3 758.8,662.4 760.7,662.4 760.7,496.1 '/>
		<polygon fill = 'rgb( 31, 120, 180)' fill-opacity = '0.250000' points = '760.7,496.1 760.7,662.4 762.6,662.4 762.6,486.1 '/>
		<polygon fill = 'rgb( 31, 120, 180)' fill-opacity = '0.250000' points = '762.6,486.1 762.6,662.4 764.5,662.4 764.5,476.4 '/>
		<polygon fill = 'rgb( 31, 120, 180)' fill-opacity = '0.250000' points = '764.5,476.4 764.5,662.4 766.4,662.4 766.4,467.3 '/>
		<polygon fill = 'rgb( 31, 120, 180)' fill-opacity = '0.250000' points = '766.4,467.3 766.4,662.4 768.3,662.4 768.3,458.7 '/>
		<polygon fill = 'rgb( 31, 120, 180)' fill-opacity = '0.250000' points = '768.3,458.7 768.3,662.4 770.2,662.4 770.2,450.8 '/>
		<polygon fill = 'rgb( 31, 120, 180)' fill-opacity = '0.250000' points = '770.2,450.8 770.2,662.4 772.0,662.4 772.0,443.6 '/>
		<polygon fill = 'rgb( 31, 120, 180)' fill-opacity = '0.250000' points = '772.0,443.6 772.0,662.4 773.9,662.4 773.9,437.4 '/>
		<polygon fill = 'rgb( 31, 120, 180)' fill-opacity = '0.250000' points = '773.9,437.4 773.9,662.4 775.8,662.4 775.8,432.0 '/>
		<polygon fill = 'rgb( 31, 120, 180)' fill-opacity = '0.250000' points = '775.8,432.0 775.8,662.4 777.7,662.4 777.7,427.5 '/>
		<polygon fill = 'rgb( 31, 120, 180)' fill-opacity = '0.250000' points = '777.7,427.5 777.7,662.4 779.6,662.4 779.6,424.0 '/>
		<polygon fill = 'rgb( 31, 120, 180)' fill-opacity = '0.250000' points = '779.6,424.0 779.6,662.4 781.5,662.4 781.5,421.5 '/>
		<polygon fill = 'rgb( 31, 120, 180)' fill-opacity = '0.250000' points = '781.5,421.5 781.5,662.4 783.4,662.4 783.4,420.0 '/>
		<polygon fill = 'rgb( 31, 120, 180)' fill-opacity = '0.250000' points = '783.4,420.0 783.4,662.4 785.3,662.4 785.3,419.4 '/>
		<polygon fill = 'rgb( 31, 120, 180)' fill-opacity = '0.250000' points = '785.3,419.4 785.3,662.4 787.1,662.4 787.1,419.8 '/>
		<polygon fill = 'rgb( 31, 120, 180)' fill-opacity = '0.250000' points = '787.1,419.8 787.1,662.4 789.0,662.4 789.0,421.1 '/>
		<polygon fill = 'rgb( 31, 120, 180)' fill-opacity = '0.250000' points = '789.0,421.1 789.0,662.4 790.9,662.4 790.9,423.3 '/>
		<polygon fill = 'rgb( 31, 120, 180)' fill-opacity = '0.250000' points = '790.9,423.3 790.9,662.4 792.8,662.4 792.8,426.3 '/>
		<polygon fill = 'rgb( 31, 120, 180)' fill-opacity = '0.250000' points = '792.8,426.3 792.8,662.4 794.7,662.4 794.7,430.1 '/>
		<polygon fill = 'rgb( 31, 120, 180)' fill-opacity = '0.250000' points = '794.7,430.1 794.7,662.4 796.6,662.4 796.6,434.7 '/>
		<polygon fill = 'rgb( 31, 120, 180)' fill-opacity = '0.250000' points = '796.6,434.7 796.6,662.4 798.5,662.4 798.5,440.0 '/>
		<polygon fill = 'rgb( 31, 120, 180)' fill-opacity = '0.250000' points = '798.5,440.0 798.5,662.4 800.3,662.4 800.3,445.9 '/>
		<polygon fill = 'rgb( 31, 120, 180)' fill-opacity = '0.250000' points = '800.3,445.9 800.3,662.4 802.2,662.4 802.2,452.4 '/>
		<polygon fill = 'rgb( 31, 120, 180)' fill-opacity = '0.250000' points = '802.2,452.4 802.2,662.4 804.1,662.4 804.1,459.4 '/>
		<polygon fill = 'rgb( 31, 120, 180)' fill-opacity = '0.250000' points = '804.1,459.4 804.1,662.4 806.0,662.4 806.0,467.0 '/>
		<polygon fill = 'rgb( 31, 120, 180)' fill-opacity = '0.250000' points = '806.0,467.0 806.0,662.4 807.9,662.4 807.9,474.9 '/>
		<polygon fill = 'rgb( 31, 120, 180)' fill-opacity = '0.250000' points = '807.9,474.9 807.9,662.4 809.8,662.4 809.8,483.3 '/>
		<polygon fill = 'rgb( 31, 120, 180)' fill-opacity = '0.250000' points = '809.8,483.3 809.8,662.4 811.7,662.4 811.7,491.9 '/>
		<polygon fill = 'rgb( 31, 120, 180)' fill-opacity = '0.250000' points = '811.7,491.9 811.7,662.4 813.6,662.4 813.6,500.8 '/>
		<polygon fill = 'rgb( 31, 120, 180)' fill-opacity = '0.250000' points = '813.6,500.8 813.6,662.4 815.4,662.4 815.4,509.9 '/>
		<polygon fill = 'rgb( 31, 120, 180)' fill-opacity = '0.250000' points = '815.4,509.9 815.4,662.4 817.3,662.4 817.3,519.0 '/>
		<polygon fill = 'rgb( 31, 120, 180)' fill-opacity = '0.250000' points = '817.3,519.0 817.3,662.4 819.2,662.4 819.2,528.2 '/>
		<polygon fill = 'rgb( 31, 120, 180)' fill-opacity = '0.250000' points = '819.2,528.2 819.2,662.4 821.1,662.4 821.1,537.4 '/>
		<polygon fill = 'rgb( 31, 120, 180)' fill-opacity = '0.250000' points = '821.1,537.4 821.1,662.4 823.0,662.4 823.0,546.5 '/>
		<polygon fill = 'rgb( 31, 120, 180)' fill-opacity = '0.250000' points = '823.0,546.5 823.0,662.4 824.9,662.4 824.9,555.5 '/>
		<polygon fill = 'rgb( 31, 120, 180)' fill-opacity = '0.250000' points = '824.9,555.5 824.9,662.4 826.8,662.4 826.8,564.2 '/>
		<polygon fill = 'rgb( 31, 120, 180)' fill-opacity = '0.250000' points = '826.8,564.2 826.8,662.4 828.7,662.4 828.7,572.7 '/>
		<polygon fill = 'rgb( 31, 120, 180)' fill-opacity = '0.250000' points = '828.7,572.7 828.7,662.4 830.5,662.4 830.5,580.8 '/>
		<polygon fill = 'rgb( 31, 120, 180)' fill-opacity = '0.250000' points = '830.5,580.8 830.5,662.4 832.4,662.4 832.4,588.5 '/>
		<polygon fill = 'rgb( 31, 120, 180)' fill-opacity = '0.250000' points = '832.4,588.5 832.4,662.4 834.3,662.4 834.3,595.9 '/>
		<polygon fill = 'rgb( 31, 120, 180)' fill-opacity = '0.250000' points = '834.3,595.9 834.3,662.4 836.2,662.4 836.2,602.8 '/>
		<polygon fill = 'rgb( 31, 120, 180)' fill-opacity = '0.250000' points = '836.2,602.8 836.2,662.4 838.1,662.4 838.1,609.2 '/>
		<polygon fill = 'rgb( 31, 120, 180)' fill-opacity = '0.250000' points = '838.1,609.2 838.1,662.4 840.0,662.4 840.0,615.2 '/>
		<polygon fill = 'rgb( 31, 120, 180)' fill-opacity = '0.250000' points = '840.0,615.2 840.0,662.4 841.9,662.4 841.9,620.7 '/>
		<polygon fill = 'rgb( 31, 120, 180)' fill-opacity = '0.250000' points = '841.9,620.7 841.9,662.4 843.8,662.4 843.8,625.7 '/>
		<polygon fill = 'rgb( 31, 120, 180)' fill-opacity = '0.250000' points = '843.8,625.7 843.8,662.4 845.6,662.4 845.6,630.1 '/>
		<polygon fill = 'rgb( 31, 120, 180)' fill-opacity = '0.250000' points = '845.6,630.1 845.6,662.4 847.5,662.4 847.5,634.2 '/>
		<polygon fill = 'rgb( 31, 120, 180)' fill-opacity = '0.250000' points = '847.5,634.2 847.5,662.4 849.4,662.4 849.4,637.7 '/>
		<polygon fill = 'rgb( 31, 120, 180)' fill-opacity = '0.250000' points = '849.4,637.7 849.4,662.4 851.3,662.4 851.3,640.8 '/>
		<polygon fill = 'rgb( 31, 120, 180)' fill-opacity = '0.250000' points = '851.3,640.8 851.3,662.4 853.2,662.4 853.2,643.5 '/>
		<polygon fill = 'rgb( 31, 120, 180)' fill-opacity = '0.250000' points = '853.2,643.5 853.2,662.4 855.1,662.4 855.1,645.8 '/>
		<polygon fill = 'rgb( 31, 120, 180)' fill-opacity = '0.250000' points = '855.1,645.8 855.1,662.4 857.0,662.4 857.0,647.6 '/>
		<polygon fill = 'rgb( 31, 120, 180)' fill-opacity = '0.250000' points = '857.0,647.6 857.0,662.4 858.9,662.4 858.9,649.2 '/>
		<polygon fill = 'rgb( 31, 120, 180)' fill-opacity = '0.250000' points = '858.9,649.2 858.9,662.4 860.7,662.4 860.7,650.3 '/>
		<polygon fill = 'rgb( 31, 120, 180)' fill-opacity = '0.250000' points = '860.7,650.3 860.7,662.4 862.6,662.4 862.6,651.2 '/>
		<polygon fill = 'rgb( 31, 120, 180)' fill-opacity = '0.250000' points = '862.6,651.2 862.6,662.4 864.5,662.4 864.5,651.8 '/>
		<polygon fill = 'rgb( 31, 120, 180)' fill-opacity = '0.250000' points = '864.5,651.8 864.5,662.4 866.4,662.4 866.4,652.0 '/>
		<polygon fill = 'rgb( 31, 120, 180)' fill-opacity = '0.250000' points = '866.4,652.0 866.4,662.4 868.3,662.4 868.3,652.0 '/>
		<polygon fill = 'rgb( 31, 120, 180)' fill-opacity = '0.250000' points = '868.3,652.0 868.3,662.4 870.2,662.4 870.2,651.7 '/>
		<polygon fill = 'rgb( 31, 120, 180)' fill-opacity = '0.250000' points = '870.2,651.7 870.2,662.4 872.1,662.4 872.1,651.2 '/>
		<polygon fill = 'rgb( 31, 120, 180)' fill-opacity = '0.250000' points = '872.1,651.2 872.1,662.4 873.9,662.4 873.9,650.4 '/>
		<polygon fill = 'rgb( 31, 120, 180)' fill-opacity = '0.250000' points = '873.9,650.4 873.9,662.4 875.8,662.4 875.8,649.3 '/>
		<polygon fill = 'rgb( 31, 120, 180)' fill-opacity = '0.250000' points = '875.8,649.3 875.8,662.4 877.7,662.4 877.7,648.0 '/>
		<polygon fill = 'rgb( 31, 120, 180)' fill-opacity = '0.250000' points = '877.7,648.0 877.7,662.4 879.6,662.4 879.6,646.5 '/>
		<polygon fill = 'rgb( 31, 120, 180)' fill-opacity = '0.250000' points = '879.6,646.5 879.6,662.4 881.5,662.4 881.5,644.7 '/>
		<polygon fill = 'rgb( 31, 120, 180)' fill-opacity = '0.250000' points = '881.5,644.7 881.5,662.4 883.4,662.4 883.4,642.8 '/>
		<polygon fill = 'rgb( 31, 120, 180)' fill-opacity = '0.250000' points = '883.4,642.8 883.4,662.4 885.3,662.4 885.3,640.6 '/>
		<polygon fill = 'rgb( 31, 120, 180)' fill-opacity = '0.250000' points = '885.3,640.6 885.3,662.4 887.2,662.4 887.2,638.2 '/>
		<polygon fill = 'rgb( 31, 120, 180)' fill-opacity = '0.250000' points = '887.2,638.2 887.2,662.4 889.0,662.4 889.0,635.6 '/>
		<polygon fill = 'rgb( 31, 120, 180)' fill-opacity = '0.250000' points = '889.0,635.6 889.0,662.4 890.9,662.4 890.9,632.9 '/>
		<polygon fill = 'rgb( 31, 120, 180)' fill-opacity = '0.250000' points = '890.9,632.9 890.9,662.4 892.8,662.4 892.8,630.0 '/>
		<polygon fill = 'rgb( 31, 120, 180)' fill-opacity = '0.250000' points = '892.8,630.0 892.8,662.4 894.7,662.4 894.7,627.0 '/>
		<polygon fill = 'rgb( 31, 120, 180)' fill-opacity = '0.250000' points = '894.7,627.0 894.7,662.4 896.6,662.4 896.6,623.9 '/>
		<polygon fill = 'rgb( 31, 120, 180)' fill-opacity = '0.250000' points = '896.6,623.9 896.6,662.4 898.5,662.4 898.5,620.8 '/>
		<polygon fill = 'rgb( 31, 120, 180)' fill-opacity = '0.250000' points = '898.5,620.8 898.5,662.4 900.4,662.4 900.4,617.7 '/>
		<polygon fill = 'rgb( 31, 120, 180)' fill-opacity = '0.250000' points = '900.4,617.7 900.4,662.4 902.3,662.4 902.3,614.5 '/>
		<polygon fill = 'rgb( 31, 120, 180)' fill-opacity = '0.250000' points = '902.3,614.5 902.3,662.4 904.1,662.4 904.1,611.5 '/>
		<polygon fill = 'rgb( 31, 120, 180)' fill-opacity = '0.250000' points = '904.1,611.5 904.1,662.4 906.0,662.4 906.0,608.5 '/>
		<polygon fill = 'rgb( 31, 120, 180)' fill-opacity = '0.250000' points = '906.0,608.5 906.0,662.4 907.9,662.4 907.9,605.7 '/>
		<polygon fill = 'rgb( 31, 120, 180)' fill-opacity = '0.250000' points = '907.9,605.7 907.9,662.4 909.8,662.4 909.8,603.1 '/>
		<polygon fill = 'rgb( 31, 120, 180)' fill-opacity = '0.250000' points = '909.8,603.1 909.8,662.4 911.7,662.4 911.7,600.7 '/>
		<polygon fill = 'rgb( 31, 120, 180)' fill-opacity = '0.250000' points = '911.7,600.7 911.7,662.4 913.6,662.4 913.6,598.5 '/>
		<polygon fill = 'rgb( 31, 120, 180)' fill-opacity = '0.250000' points = '913.6,598.5 913.6,662.4 915.5,662.4 915.5,596.7 '/>
		<polygon fill = 'rgb( 31, 120, 180)' fill-opacity = '0.250000' points = '915.5,596.7 915.5,662.4 917.4,662.4 917.4,595.2 '/>
		<polygon fill = 'rgb( 31, 120, 180)' fill-opacity = '0.250000' points = '917.4,595.2 917.4,662.4 919.2,662.4 919.2,594.1 '/>
		<polygon fill = 'rgb( 31, 120, 180)' fill-opacity = '0.250000' points = '919.2,594.1 919.2,662.4 921.1,662.4 921.1,593.3 '/>
		<polygon fill = 'rgb( 31, 120, 180)' fill-opacity = '0.250000' points = '921.1,593.3 921.1,662.4 923.0,662.4 923.0,592.9 '/>
		<polygon fill = 'rgb( 31, 120, 180)' fill-opacity = '0.250000' points = '923.0,592.9 923.0,662.4 924.9,662.4 924.9,592.9 '/>
	</g>
</g>
	</g>
	<g id="gnuplot_plot_3" ><title>Point estimate</title>
<g fill="none" color="white" stroke="rgb( 31, 120, 180)" stroke-width="2.00" stroke-linecap="butt" stroke-linejoin="miter">
</g>
<g fill="none" color="black" stroke="currentColor" stroke-width="2.00" stroke-linecap="butt" stroke-linejoin="miter">
	<g transform="translate(1089.0,103.0)" stroke="none" fill="black" font-family="Helvetica" font-size="12.00"  text-anchor="start">
		<text><tspan font-family="Helvetica" >Point estimate</tspan></text>
	</g>
</g>
<g fill="none" color="black" stroke="currentColor" stroke-width="2.00" stroke-linecap="butt" stroke-linejoin="miter">
	<path stroke='rgb( 31, 120, 180)'  d='M1038.5,99.1 L1080.7,99.1 M515.5,662.4 L515.5,230.1  '/></g>
	</g>
<g fill="none" color="black" stroke="currentColor" stroke-width="2.00" stroke-linecap="butt" stroke-linejoin="miter">
</g>
<g fill="none" color="black" stroke="black" stroke-width="1.00" stroke-linecap="butt" stroke-linejoin="miter">
</g>
<g fill="none" color="black" stroke="currentColor" stroke-width="1.00" stroke-linecap="butt" stroke-linejoin="miter">
	<path stroke='black'  d='M71.9,54.1 L71.9,662.4 L1013.6,662.4 L1013.6,54.1 L71.9,54.1 Z  '/></g>
<g fill="none" color="black" stroke="currentColor" stroke-width="1.00" stroke-linecap="butt" stroke-linejoin="miter">
</g>
</g>
</svg>

