<?xml version="1.0" encoding="utf-8"  standalone="no"?>
<svg 
 viewBox="0 0 1280 720"
 xmlns="http://www.w3.org/2000/svg"
 xmlns:xlink="http://www.w3.org/1999/xlink"
>

<title>Gnuplot</title>
<desc>Produced by GNUPLOT 5.0 patchlevel 6 </desc>

<g id="gnuplot_canvas">

<rect x="0" y="0" width="1280" height="720" fill="none"/>
<defs>

	<circle id='gpDot' r='0.5' stroke-width='0.5'/>
	<path id='gpPt0' stroke-width='0.222' stroke='currentColor' d='M-1,0 h2 M0,-1 v2'/>
	<path id='gpPt1' stroke-width='0.222' stroke='currentColor' d='M-1,-1 L1,1 M1,-1 L-1,1'/>
	<path id='gpPt2' stroke-width='0.222' stroke='currentColor' d='M-1,0 L1,0 M0,-1 L0,1 M-1,-1 L1,1 M-1,1 L1,-1'/>
	<rect id='gpPt3' stroke-width='0.222' stroke='currentColor' x='-1' y='-1' width='2' height='2'/>
	<rect id='gpPt4' stroke-width='0.222' stroke='currentColor' fill='currentColor' x='-1' y='-1' width='2' height='2'/>
	<circle id='gpPt5' stroke-width='0.222' stroke='currentColor' cx='0' cy='0' r='1'/>
	<use xlink:href='#gpPt5' id='gpPt6' fill='currentColor' stroke='none'/>
	<path id='gpPt7' stroke-width='0.222' stroke='currentColor' d='M0,-1.33 L-1.33,0.67 L1.33,0.67 z'/>
	<use xlink:href='#gpPt7' id='gpPt8' fill='currentColor' stroke='none'/>
	<use xlink:href='#gpPt7' id='gpPt9' stroke='currentColor' transform='rotate(180)'/>
	<use xlink:href='#gpPt9' id='gpPt10' fill='currentColor' stroke='none'/>
	<use xlink:href='#gpPt3' id='gpPt11' stroke='currentColor' transform='rotate(45)'/>
	<use xlink:href='#gpPt11' id='gpPt12' fill='currentColor' stroke='none'/>
	<path id='gpPt13' stroke-width='0.222' stroke='currentColor' d='M0,1.330 L1.265,0.411 L0.782,-1.067 L-0.782,-1.076 L-1.265,0.411 z'/>
	<use xlink:href='#gpPt13' id='gpPt14' fill='currentColor' stroke='none'/>
	<filter id='textbox' filterUnits='objectBoundingBox' x='0' y='0' height='1' width='1'>
	  <feFlood flood-color='white' flood-opacity='1' result='bgnd'/>
	  <feComposite in='SourceGraphic' in2='bgnd' operator='atop'/>
	</filter>
	<filter id='greybox' filterUnits='objectBoundingBox' x='0' y='0' height='1' width='1'>
	  <feFlood flood-color='lightgrey' flood-opacity='1' result='grey'/>
	  <feComposite in='SourceGraphic' in2='grey' operator='atop'/>
	</filter>
</defs>
<g fill="none" color="white" stroke="currentColor" stroke-width="1.00" stroke-linecap="butt" stroke-linejoin="miter">
</g>
<g fill="none" color="black" stroke="currentColor" stroke-width="1.00" stroke-linecap="butt" stroke-linejoin="miter">
	<path stroke='black'  d='M63.6,662.4 L72.6,662.4  '/>	<g transform="translate(55.3,666.3)" stroke="none" fill="black" font-family="Helvetica" font-size="12.00"  text-anchor="end">
		<text><tspan font-family="Helvetica" > 0</tspan></text>
	</g>
</g>
<g fill="none" color="black" stroke="currentColor" stroke-width="1.00" stroke-linecap="butt" stroke-linejoin="miter">
	<path stroke='black'  d='M63.6,575.5 L72.6,575.5  '/>	<g transform="translate(55.3,579.4)" stroke="none" fill="black" font-family="Helvetica" font-size="12.00"  text-anchor="end">
		<text><tspan font-family="Helvetica" > 5</tspan></text>
	</g>
</g>
<g fill="none" color="black" stroke="currentColor" stroke-width="1.00" stroke-linecap="butt" stroke-linejoin="miter">
	<path stroke='black'  d='M63.6,488.6 L72.6,488.6  '/>	<g transform="translate(55.3,492.5)" stroke="none" fill="black" font-family="Helvetica" font-size="12.00"  text-anchor="end">
		<text><tspan font-family="Helvetica" > 10</tspan></text>
	</g>
</g>
<g fill="none" color="black" stroke="currentColor" stroke-width="1.00" stroke-linecap="butt" stroke-linejoin="miter">
	<path stroke='black'  d='M63.6,401.7 L72.6,401.7  '/>	<g transform="translate(55.3,405.6)" stroke="none" fill="black" font-family="Helvetica" font-size="12.00"  text-anchor="end">
		<text><tspan font-family="Helvetica" > 15</tspan></text>
	</g>
</g>
<g fill="none" color="black" stroke="currentColor" stroke-width="1.00" stroke-linecap="butt" stroke-linejoin="miter">
	<path stroke='black'  d='M63.6,314.8 L72.6,314.8  '/>	<g transform="translate(55.3,318.7)" stroke="none" fill="black" font-family="Helvetica" font-size="12.00"  text-anchor="end">
		<text><tspan font-family="Helvetica" > 20</tspan></text>
	</g>
</g>
<g fill="none" color="black" stroke="currentColor" stroke-width="1.00" stroke-linecap="butt" stroke-linejoin="miter">
	<path stroke='black'  d='M63.6,227.9 L72.6,227.9  '/>	<g transform="translate(55.3,231.8)" stroke="none" fill="black" font-family="Helvetica" font-size="12.00"  text-anchor="end">
		<text><tspan font-family="Helvetica" > 25</tspan></text>
	</g>
</g>
<g fill="none" color="black" stroke="currentColor" stroke-width="1.00" stroke-linecap="butt" stroke-linejoin="miter">
	<path stroke='black'  d='M63.6,141.0 L72.6,141.0  '/>	<g transform="translate(55.3,144.9)" stroke="none" fill="black" font-family="Helvetica" font-size="12.00"  text-anchor="end">
		<text><tspan font-family="Helvetica" > 30</tspan></text>
	</g>
</g>
<g fill="none" color="black" stroke="currentColor" stroke-width="1.00" stroke-linecap="butt" stroke-linejoin="miter">
	<path stroke='black'  d='M63.6,54.1 L72.6,54.1  '/>	<g transform="translate(55.3,58.0)" stroke="none" fill="black" font-family="Helvetica" font-size="12.00"  text-anchor="end">
		<text><tspan font-family="Helvetica" > 35</tspan></text>
	</g>
</g>
<g fill="none" color="black" stroke="currentColor" stroke-width="1.00" stroke-linecap="butt" stroke-linejoin="miter">
	<path stroke='black'  d='M143.5,662.4 L143.5,653.4  '/>	<g transform="translate(143.5,684.3)" stroke="none" fill="black" font-family="Helvetica" font-size="12.00"  text-anchor="middle">
		<text><tspan font-family="Helvetica" > 21.04</tspan></text>
	</g>
</g>
<g fill="none" color="black" stroke="currentColor" stroke-width="1.00" stroke-linecap="butt" stroke-linejoin="miter">
	<path stroke='black'  d='M324.3,662.4 L324.3,653.4  '/>	<g transform="translate(324.3,684.3)" stroke="none" fill="black" font-family="Helvetica" font-size="12.00"  text-anchor="middle">
		<text><tspan font-family="Helvetica" > 21.06</tspan></text>
	</g>
</g>
<g fill="none" color="black" stroke="currentColor" stroke-width="1.00" stroke-linecap="butt" stroke-linejoin="miter">
	<path stroke='black'  d='M505.0,662.4 L505.0,653.4  '/>	<g transform="translate(505.0,684.3)" stroke="none" fill="black" font-family="Helvetica" font-size="12.00"  text-anchor="middle">
		<text><tspan font-family="Helvetica" > 21.08</tspan></text>
	</g>
</g>
<g fill="none" color="black" stroke="currentColor" stroke-width="1.00" stroke-linecap="butt" stroke-linejoin="miter">
	<path stroke='black'  d='M685.8,662.4 L685.8,653.4  '/>	<g transform="translate(685.8,684.3)" stroke="none" fill="black" font-family="Helvetica" font-size="12.00"  text-anchor="middle">
		<text><tspan font-family="Helvetica" > 21.1</tspan></text>
	</g>
</g>
<g fill="none" color="black" stroke="currentColor" stroke-width="1.00" stroke-linecap="butt" stroke-linejoin="miter">
	<path stroke='black'  d='M866.6,662.4 L866.6,653.4  '/>	<g transform="translate(866.6,684.3)" stroke="none" fill="black" font-family="Helvetica" font-size="12.00"  text-anchor="middle">
		<text><tspan font-family="Helvetica" > 21.12</tspan></text>
	</g>
</g>
<g fill="none" color="black" stroke="currentColor" stroke-width="1.00" stroke-linecap="butt" stroke-linejoin="miter">
</g>
<g fill="none" color="black" stroke="currentColor" stroke-width="1.00" stroke-linecap="butt" stroke-linejoin="miter">
	<path stroke='black'  d='M63.6,54.1 L63.6,662.4 L1013.6,662.4 L1013.6,54.1 L63.6,54.1 Z  '/></g>
<g fill="none" color="black" stroke="currentColor" stroke-width="1.00" stroke-linecap="butt" stroke-linejoin="miter">
	<g transform="translate(17.0,358.3) rotate(270)" stroke="none" fill="black" font-family="Helvetica" font-size="12.00"  text-anchor="middle">
		<text><tspan font-family="Helvetica" >Density (a.u.)</tspan></text>
	</g>
</g>
<g fill="none" color="black" stroke="currentColor" stroke-width="1.00" stroke-linecap="butt" stroke-linejoin="miter">
	<g transform="translate(538.6,711.3)" stroke="none" fill="black" font-family="Helvetica" font-size="12.00"  text-anchor="middle">
		<text><tspan font-family="Helvetica" >Average time (ms)</tspan></text>
	</g>
</g>
<g fill="none" color="black" stroke="currentColor" stroke-width="1.00" stroke-linecap="butt" stroke-linejoin="miter">
	<g transform="translate(538.6,31.0)" stroke="none" fill="black" font-family="Helvetica" font-size="12.00"  text-anchor="middle">
		<text><tspan font-family="Helvetica" >language: javascript/parse error: python/examples/python2-grammar-crlf.py: median</tspan></text>
	</g>
</g>
	<g id="gnuplot_plot_1" ><title>Bootstrap distribution</title>
<g fill="none" color="white" stroke="black" stroke-width="2.00" stroke-linecap="butt" stroke-linejoin="miter">
</g>
<g fill="none" color="black" stroke="currentColor" stroke-width="2.00" stroke-linecap="butt" stroke-linejoin="miter">
	<g transform="translate(1089.0,67.0)" stroke="none" fill="black" font-family="Helvetica" font-size="12.00"  text-anchor="start">
		<text><tspan font-family="Helvetica" >Bootstrap distribution</tspan></text>
	</g>
</g>
<g fill="none" color="black" stroke="currentColor" stroke-width="2.00" stroke-linecap="butt" stroke-linejoin="miter">
	<path stroke='rgb( 31, 120, 180)'  d='M1038.5,63.1 L1080.7,63.1 M63.6,657.6 L65.5,657.5 L67.4,657.3 L69.3,657.2 L71.2,657.0 L73.1,656.8
		L75.0,656.6 L76.9,656.4 L78.8,656.1 L80.7,655.7 L82.6,655.2 L84.5,654.6 L86.4,653.9 L88.3,653.0
		L90.3,652.0 L92.2,650.7 L94.1,649.2 L96.0,647.5 L97.9,645.5 L99.8,643.2 L101.7,640.6 L103.6,637.7
		L105.5,634.4 L107.4,630.8 L109.3,626.9 L111.2,622.6 L113.1,618.0 L115.0,613.1 L116.9,607.9 L118.8,602.5
		L120.7,596.8 L122.6,591.0 L124.5,585.2 L126.4,579.2 L128.3,573.3 L130.2,567.5 L132.1,561.9 L134.0,556.6
		L135.9,551.5 L137.8,546.9 L139.8,542.8 L141.7,539.2 L143.6,536.3 L145.5,533.9 L147.4,532.3 L149.3,531.4
		L151.2,531.3 L153.1,531.9 L155.0,533.3 L156.9,535.4 L158.8,538.1 L160.7,541.5 L162.6,545.5 L164.5,549.9
		L166.4,554.8 L168.3,560.0 L170.2,565.4 L172.1,571.0 L174.0,576.7 L175.9,582.2 L177.8,587.7 L179.7,592.9
		L181.6,597.7 L183.5,602.2 L185.4,606.2 L187.3,609.7 L189.3,612.6 L191.2,614.8 L193.1,616.4 L195.0,617.4
		L196.9,617.6 L198.8,617.1 L200.7,616.0 L202.6,614.1 L204.5,611.7 L206.4,608.6 L208.3,605.0 L210.2,601.0
		L212.1,596.4 L214.0,591.6 L215.9,586.4 L217.8,581.1 L219.7,575.7 L221.6,570.3 L223.5,564.9 L225.4,559.8
		L227.3,554.9 L229.2,550.3 L231.1,546.1 L233.0,542.4 L234.9,539.2 L236.8,536.6 L238.8,534.7 L240.7,533.3
		L242.6,532.6 L244.5,532.5 L246.4,533.0 L248.3,534.1 L250.2,535.8 L252.1,537.9 L254.0,540.5 L255.9,543.5
		L257.8,546.7 L259.7,550.2 L261.6,553.9 L263.5,557.6 L265.4,561.4 L267.3,565.0 L269.2,568.5 L271.1,571.7
		L273.0,574.6 L274.9,577.1 L276.8,579.1 L278.7,580.6 L280.6,581.5 L282.5,581.8 L284.4,581.5 L286.3,580.4
		L288.2,578.7 L290.2,576.2 L292.1,573.0 L294.0,569.1 L295.9,564.5 L297.8,559.3 L299.7,553.6 L301.6,547.2
		L303.5,540.4 L305.4,533.2 L307.3,525.6 L309.2,517.7 L311.1,509.6 L313.0,501.4 L314.9,493.0 L316.8,484.7
		L318.7,476.3 L320.6,468.0 L322.5,459.9 L324.4,451.9 L326.3,444.1 L328.2,436.5 L330.1,429.2 L332.0,422.1
		L333.9,415.4 L335.8,409.1 L337.7,403.1 L339.7,397.5 L341.6,392.3 L343.5,387.7 L345.4,383.6 L347.3,380.0
		L349.2,377.1 L351.1,374.8 L353.0,373.2 L354.9,372.4 L356.8,372.5 L358.7,373.3 L360.6,375.1 L362.5,377.8
		L364.4,381.5 L366.3,386.2 L368.2,391.8 L370.1,398.3 L372.0,405.8 L373.9,414.1 L375.8,423.3 L377.7,433.1
		L379.6,443.6 L381.5,454.6 L383.4,466.0 L385.3,477.7 L387.2,489.5 L389.2,501.3 L391.1,512.9 L393.0,524.3
		L394.9,535.2 L396.8,545.6 L398.7,555.3 L400.6,564.2 L402.5,572.2 L404.4,579.3 L406.3,585.4 L408.2,590.4
		L410.1,594.3 L412.0,597.0 L413.9,598.6 L415.8,598.9 L417.7,598.2 L419.6,596.2 L421.5,593.1 L423.4,589.0
		L425.3,583.7 L427.2,577.5 L429.1,570.2 L431.0,562.0 L432.9,553.0 L434.8,543.2 L436.7,532.6 L438.7,521.4
		L440.6,509.7 L442.5,497.4 L444.4,484.9 L446.3,472.1 L448.2,459.1 L450.1,446.2 L452.0,433.5 L453.9,421.1
		L455.8,409.1 L457.7,397.8 L459.6,387.3 L461.5,377.8 L463.4,369.3 L465.3,362.2 L467.2,356.4 L469.1,352.2
		L471.0,349.5 L472.9,348.6 L474.8,349.4 L476.7,351.9 L478.6,356.2 L480.5,362.1 L482.4,369.6 L484.3,378.6
		L486.2,388.9 L488.1,400.4 L490.1,412.8 L492.0,426.1 L493.9,439.9 L495.8,454.0 L497.7,468.3 L499.6,482.5
		L501.5,496.5 L503.4,510.0 L505.3,522.8 L507.2,534.8 L509.1,546.0 L511.0,556.0 L512.9,565.0 L514.8,572.7
		L516.7,579.2 L518.6,584.3 L520.5,588.0 L522.4,590.3 L524.3,591.2 L526.2,590.5 L528.1,588.4 L530.0,584.7
		L531.9,579.4 L533.8,572.4 L535.7,563.8 L537.6,553.5 L539.6,541.4 L541.5,527.6 L543.4,512.0 L545.3,494.6
		L547.2,475.6 L549.1,454.9 L551.0,432.6 L552.9,408.9 L554.8,384.0 L556.7,358.1 L558.6,331.4 L560.5,304.2
		L562.4,276.9 L564.3,249.9 L566.2,223.5 L568.1,198.2 L570.0,174.4 L571.9,152.5 L573.8,132.9 L575.7,116.0
		L577.6,102.1 L579.5,91.5 L581.4,84.4 L583.3,81.0 L585.2,81.3 L587.1,85.4 L589.1,93.2 L591.0,104.5
		L592.9,119.0 L594.8,136.6 L596.7,156.7 L598.6,179.1 L600.5,203.2 L602.4,228.7 L604.3,254.9 L606.2,281.4
		L608.1,307.8 L610.0,333.5 L611.9,358.1 L613.8,381.3 L615.7,402.6 L617.6,421.9 L619.5,438.7 L621.4,452.9
		L623.3,464.5 L625.2,473.2 L627.1,479.1 L629.0,482.1 L630.9,482.4 L632.8,480.1 L634.7,475.2 L636.6,468.1
		L638.5,459.0 L640.5,448.2 L642.4,436.0 L644.3,422.6 L646.2,408.6 L648.1,394.2 L650.0,379.8 L651.9,365.8
		L653.8,352.6 L655.7,340.5 L657.6,329.8 L659.5,320.8 L661.4,313.7 L663.3,308.8 L665.2,306.1 L667.1,305.8
		L669.0,307.8 L670.9,312.1 L672.8,318.7 L674.7,327.3 L676.6,337.7 L678.5,349.8 L680.4,363.2 L682.3,377.6
		L684.2,392.7 L686.1,408.1 L688.0,423.5 L690.0,438.5 L691.9,452.7 L693.8,466.0 L695.7,477.9 L697.6,488.3
		L699.5,496.8 L701.4,503.3 L703.3,507.7 L705.2,509.7 L707.1,509.4 L709.0,506.7 L710.9,501.6 L712.8,494.3
		L714.7,484.7 L716.6,473.1 L718.5,459.7 L720.4,444.6 L722.3,428.2 L724.2,410.8 L726.1,392.6 L728.0,374.2
		L729.9,355.8 L731.8,337.8 L733.7,320.6 L735.6,304.6 L737.5,290.2 L739.5,277.6 L741.4,267.2 L743.3,259.1
		L745.2,253.7 L747.1,250.9 L749.0,251.0 L750.9,253.8 L752.8,259.4 L754.7,267.6 L756.6,278.3 L758.5,291.2
		L760.4,306.1 L762.3,322.6 L764.2,340.6 L766.1,359.5 L768.0,379.1 L769.9,399.0 L771.8,418.9 L773.7,438.5
		L775.6,457.5 L777.5,475.6 L779.4,492.6 L781.3,508.4 L783.2,522.7 L785.1,535.5 L787.0,546.6 L789.0,556.1
		L790.9,563.9 L792.8,570.0 L794.7,574.5 L796.6,577.4 L798.5,578.9 L800.4,579.0 L802.3,577.9 L804.2,575.6
		L806.1,572.5 L808.0,568.5 L809.9,563.9 L811.8,558.9 L813.7,553.6 L815.6,548.1 L817.5,542.7 L819.4,537.5
		L821.3,532.7 L823.2,528.3 L825.1,524.5 L827.0,521.5 L828.9,519.2 L830.8,517.8 L832.7,517.3 L834.6,517.6
		L836.5,518.9 L838.4,521.1 L840.4,524.1 L842.3,527.9 L844.2,532.3 L846.1,537.4 L848.0,543.0 L849.9,549.0
		L851.8,555.2 L853.7,561.6 L855.6,568.1 L857.5,574.4 L859.4,580.6 L861.3,586.5 L863.2,592.1 L865.1,597.2
		L867.0,601.7 L868.9,605.7 L870.8,609.1 L872.7,611.8 L874.6,613.8 L876.5,615.1 L878.4,615.8 L880.3,615.8
		L882.2,615.2 L884.1,614.0 L886.0,612.2 L887.9,609.9 L889.9,607.1 L891.8,604.0 L893.7,600.5 L895.6,596.9
		L897.5,593.0 L899.4,589.1 L901.3,585.2 L903.2,581.3 L905.1,577.6 L907.0,574.1 L908.9,571.0 L910.8,568.1
		L912.7,565.7 L914.6,563.7 L916.5,562.1 L918.4,561.1 L920.3,560.6 L922.2,560.6 L924.1,561.2 L926.0,562.3
		L927.9,563.8 L929.8,565.8 L931.7,568.3 L933.6,571.1 L935.5,574.4 L937.4,577.9 L939.4,581.7 L941.3,585.7
		L943.2,589.8 L945.1,594.1 L947.0,598.4 L948.9,602.8 L950.8,607.1 L952.7,611.4 L954.6,615.5 L956.5,619.5
		L958.4,623.4 L960.3,627.1 L962.2,630.6 L964.1,633.8 L966.0,636.9 L967.9,639.6 L969.8,642.2 L971.7,644.5
		L973.6,646.6 L975.5,648.4 L977.4,650.0 L979.3,651.4 L981.2,652.6 L983.1,653.7 L985.0,654.5 L986.9,655.2
		L988.9,655.8 L990.8,656.2 L992.7,656.6 L994.6,656.9 L996.5,657.1 L998.4,657.2 L1000.3,657.3 L1002.2,657.3
		L1004.1,657.4 L1006.0,657.4 L1007.9,657.5 L1009.8,657.5 L1011.7,657.5 L1013.6,657.6  '/></g>
	</g>
	<g id="gnuplot_plot_2" ><title>Confidence interval</title>
<g fill="none" color="white" stroke="rgb( 31, 120, 180)" stroke-width="1.00" stroke-linecap="butt" stroke-linejoin="miter">
</g>
<g fill="none" color="black" stroke="currentColor" stroke-width="1.00" stroke-linecap="butt" stroke-linejoin="miter">
	<g transform="translate(1089.0,85.0)" stroke="none" fill="black" font-family="Helvetica" font-size="12.00"  text-anchor="start">
		<text><tspan font-family="Helvetica" >Confidence interval</tspan></text>
	</g>
</g>
<g fill="none" color="black" stroke="currentColor" stroke-width="1.00" stroke-linecap="butt" stroke-linejoin="miter">
	<g stroke='none' shape-rendering='crispEdges'>
		<polygon fill = 'rgb( 31, 120, 180)' fill-opacity = '0.250000' points = '1038.5,85.6 1080.7,85.6 1080.7,76.6 1038.5,76.6 '/>
		<polygon fill = 'rgb( 31, 120, 180)' fill-opacity = '0.250000' points = '151.2,531.3 151.2,662.4 153.1,662.4 153.1,531.9 '/>
		<polygon fill = 'rgb( 31, 120, 180)' fill-opacity = '0.250000' points = '153.1,531.9 153.1,662.4 155.0,662.4 155.0,533.3 '/>
		<polygon fill = 'rgb( 31, 120, 180)' fill-opacity = '0.250000' points = '155.0,533.3 155.0,662.4 156.9,662.4 156.9,535.4 '/>
		<polygon fill = 'rgb( 31, 120, 180)' fill-opacity = '0.250000' points = '156.9,535.4 156.9,662.4 158.8,662.4 158.8,538.1 '/>
		<polygon fill = 'rgb( 31, 120, 180)' fill-opacity = '0.250000' points = '158.8,538.1 158.8,662.4 160.7,662.4 160.7,541.5 '/>
		<polygon fill = 'rgb( 31, 120, 180)' fill-opacity = '0.250000' points = '160.7,541.5 160.7,662.4 162.6,662.4 162.6,545.5 '/>
		<polygon fill = 'rgb( 31, 120, 180)' fill-opacity = '0.250000' points = '162.6,545.5 162.6,662.4 164.5,662.4 164.5,549.9 '/>
		<polygon fill = 'rgb( 31, 120, 180)' fill-opacity = '0.250000' points = '164.5,549.9 164.5,662.4 166.4,662.4 166.4,554.8 '/>
		<polygon fill = 'rgb( 31, 120, 180)' fill-opacity = '0.250000' points = '166.4,554.8 166.4,662.4 168.3,662.4 168.3,560.0 '/>
		<polygon fill = 'rgb( 31, 120, 180)' fill-opacity = '0.250000' points = '168.3,560.0 168.3,662.4 170.2,662.4 170.2,565.4 '/>
		<polygon fill = 'rgb( 31, 120, 180)' fill-opacity = '0.250000' points = '170.2,565.4 170.2,662.4 172.1,662.4 172.1,571.0 '/>
		<polygon fill = 'rgb( 31, 120, 180)' fill-opacity = '0.250000' points = '172.1,571.0 172.1,662.4 174.0,662.4 174.0,576.7 '/>
		<polygon fill = 'rgb( 31, 120, 180)' fill-opacity = '0.250000' points = '174.0,576.7 174.0,662.4 175.9,662.4 175.9,582.2 '/>
		<polygon fill = 'rgb( 31, 120, 180)' fill-opacity = '0.250000' points = '175.9,582.2 175.9,662.4 177.8,662.4 177.8,587.7 '/>
		<polygon fill = 'rgb( 31, 120, 180)' fill-opacity = '0.250000' points = '177.8,587.7 177.8,662.4 179.7,662.4 179.7,592.9 '/>
		<polygon fill = 'rgb( 31, 120, 180)' fill-opacity = '0.250000' points = '179.7,592.9 179.7,662.4 181.6,662.4 181.6,597.7 '/>
		<polygon fill = 'rgb( 31, 120, 180)' fill-opacity = '0.250000' points = '181.6,597.7 181.6,662.4 183.5,662.4 183.5,602.2 '/>
		<polygon fill = 'rgb( 31, 120, 180)' fill-opacity = '0.250000' points = '183.5,602.2 183.5,662.4 185.4,662.4 185.4,606.2 '/>
		<polygon fill = 'rgb( 31, 120, 180)' fill-opacity = '0.250000' points = '185.4,606.2 185.4,662.4 187.3,662.4 187.3,609.7 '/>
		<polygon fill = 'rgb( 31, 120, 180)' fill-opacity = '0.250000' points = '187.3,609.7 187.3,662.4 189.3,662.4 189.3,612.6 '/>
		<polygon fill = 'rgb( 31, 120, 180)' fill-opacity = '0.250000' points = '189.3,612.6 189.3,662.4 191.2,662.4 191.2,614.8 '/>
		<polygon fill = 'rgb( 31, 120, 180)' fill-opacity = '0.250000' points = '191.2,614.8 191.2,662.4 193.1,662.4 193.1,616.4 '/>
		<polygon fill = 'rgb( 31, 120, 180)' fill-opacity = '0.250000' points = '193.1,616.4 193.1,662.4 195.0,662.4 195.0,617.4 '/>
		<polygon fill = 'rgb( 31, 120, 180)' fill-opacity = '0.250000' points = '195.0,617.4 195.0,662.4 196.9,662.4 196.9,617.6 '/>
		<polygon fill = 'rgb( 31, 120, 180)' fill-opacity = '0.250000' points = '196.9,617.6 196.9,662.4 198.8,662.4 198.8,617.1 '/>
		<polygon fill = 'rgb( 31, 120, 180)' fill-opacity = '0.250000' points = '198.8,617.1 198.8,662.4 200.7,662.4 200.7,616.0 '/>
		<polygon fill = 'rgb( 31, 120, 180)' fill-opacity = '0.250000' points = '200.7,616.0 200.7,662.4 202.6,662.4 202.6,614.1 '/>
		<polygon fill = 'rgb( 31, 120, 180)' fill-opacity = '0.250000' points = '202.6,614.1 202.6,662.4 204.5,662.4 204.5,611.7 '/>
		<polygon fill = 'rgb( 31, 120, 180)' fill-opacity = '0.250000' points = '204.5,611.7 204.5,662.4 206.4,662.4 206.4,608.6 '/>
		<polygon fill = 'rgb( 31, 120, 180)' fill-opacity = '0.250000' points = '206.4,608.6 206.4,662.4 208.3,662.4 208.3,605.0 '/>
		<polygon fill = 'rgb( 31, 120, 180)' fill-opacity = '0.250000' points = '208.3,605.0 208.3,662.4 210.2,662.4 210.2,601.0 '/>
		<polygon fill = 'rgb( 31, 120, 180)' fill-opacity = '0.250000' points = '210.2,601.0 210.2,662.4 212.1,662.4 212.1,596.4 '/>
		<polygon fill = 'rgb( 31, 120, 180)' fill-opacity = '0.250000' points = '212.1,596.4 212.1,662.4 214.0,662.4 214.0,591.6 '/>
		<polygon fill = 'rgb( 31, 120, 180)' fill-opacity = '0.250000' points = '214.0,591.6 214.0,662.4 215.9,662.4 215.9,586.4 '/>
		<polygon fill = 'rgb( 31, 120, 180)' fill-opacity = '0.250000' points = '215.9,586.4 215.9,662.4 217.8,662.4 217.8,581.1 '/>
		<polygon fill = 'rgb( 31, 120, 180)' fill-opacity = '0.250000' points = '217.8,581.1 217.8,662.4 219.7,662.4 219.7,575.7 '/>
		<polygon fill = 'rgb( 31, 120, 180)' fill-opacity = '0.250000' points = '219.7,575.7 219.7,662.4 221.6,662.4 221.6,570.3 '/>
		<polygon fill = 'rgb( 31, 120, 180)' fill-opacity = '0.250000' points = '221.6,570.3 221.6,662.4 223.5,662.4 223.5,564.9 '/>
		<polygon fill = 'rgb( 31, 120, 180)' fill-opacity = '0.250000' points = '223.5,564.9 223.5,662.4 225.4,662.4 225.4,559.8 '/>
		<polygon fill = 'rgb( 31, 120, 180)' fill-opacity = '0.250000' points = '225.4,559.8 225.4,662.4 227.3,662.4 227.3,554.9 '/>
		<polygon fill = 'rgb( 31, 120, 180)' fill-opacity = '0.250000' points = '227.3,554.9 227.3,662.4 229.2,662.4 229.2,550.3 '/>
		<polygon fill = 'rgb( 31, 120, 180)' fill-opacity = '0.250000' points = '229.2,550.3 229.2,662.4 231.1,662.4 231.1,546.1 '/>
		<polygon fill = 'rgb( 31, 120, 180)' fill-opacity = '0.250000' points = '231.1,546.1 231.1,662.4 233.0,662.4 233.0,542.4 '/>
		<polygon fill = 'rgb( 31, 120, 180)' fill-opacity = '0.250000' points = '233.0,542.4 233.0,662.4 234.9,662.4 234.9,539.2 '/>
		<polygon fill = 'rgb( 31, 120, 180)' fill-opacity = '0.250000' points = '234.9,539.2 234.9,662.4 236.8,662.4 236.8,536.6 '/>
		<polygon fill = 'rgb( 31, 120, 180)' fill-opacity = '0.250000' points = '236.8,536.6 236.8,662.4 238.8,662.4 238.8,534.7 '/>
		<polygon fill = 'rgb( 31, 120, 180)' fill-opacity = '0.250000' points = '238.8,534.7 238.8,662.4 240.7,662.4 240.7,533.3 '/>
		<polygon fill = 'rgb( 31, 120, 180)' fill-opacity = '0.250000' points = '240.7,533.3 240.7,662.4 242.6,662.4 242.6,532.6 '/>
		<polygon fill = 'rgb( 31, 120, 180)' fill-opacity = '0.250000' points = '242.6,532.6 242.6,662.4 244.5,662.4 244.5,532.5 '/>
		<polygon fill = 'rgb( 31, 120, 180)' fill-opacity = '0.250000' points = '244.5,532.5 244.5,662.4 246.4,662.4 246.4,533.0 '/>
		<polygon fill = 'rgb( 31, 120, 180)' fill-opacity = '0.250000' points = '246.4,533.0 246.4,662.4 248.3,662.4 248.3,534.1 '/>
		<polygon fill = 'rgb( 31, 120, 180)' fill-opacity = '0.250000' points = '248.3,534.1 248.3,662.4 250.2,662.4 250.2,535.8 '/>
		<polygon fill = 'rgb( 31, 120, 180)' fill-opacity = '0.250000' points = '250.2,535.8 250.2,662.4 252.1,662.4 252.1,537.9 '/>
		<polygon fill = 'rgb( 31, 120, 180)' fill-opacity = '0.250000' points = '252.1,537.9 252.1,662.4 254.0,662.4 254.0,540.5 '/>
		<polygon fill = 'rgb( 31, 120, 180)' fill-opacity = '0.250000' points = '254.0,540.5 254.0,662.4 255.9,662.4 255.9,543.5 '/>
		<polygon fill = 'rgb( 31, 120, 180)' fill-opacity = '0.250000' points = '255.9,543.5 255.9,662.4 257.8,662.4 257.8,546.7 '/>
		<polygon fill = 'rgb( 31, 120, 180)' fill-opacity = '0.250000' points = '257.8,546.7 257.8,662.4 259.7,662.4 259.7,550.2 '/>
		<polygon fill = 'rgb( 31, 120, 180)' fill-opacity = '0.250000' points = '259.7,550.2 259.7,662.4 261.6,662.4 261.6,553.9 '/>
		<polygon fill = 'rgb( 31, 120, 180)' fill-opacity = '0.250000' points = '261.6,553.9 261.6,662.4 263.5,662.4 263.5,557.6 '/>
		<polygon fill = 'rgb( 31, 120, 180)' fill-opacity = '0.250000' points = '263.5,557.6 263.5,662.4 265.4,662.4 265.4,561.4 '/>
		<polygon fill = 'rgb( 31, 120, 180)' fill-opacity = '0.250000' points = '265.4,561.4 265.4,662.4 267.3,662.4 267.3,565.0 '/>
		<polygon fill = 'rgb( 31, 120, 180)' fill-opacity = '0.250000' points = '267.3,565.0 267.3,662.4 269.2,662.4 269.2,568.5 '/>
		<polygon fill = 'rgb( 31, 120, 180)' fill-opacity = '0.250000' points = '269.2,568.5 269.2,662.4 271.1,662.4 271.1,571.7 '/>
		<polygon fill = 'rgb( 31, 120, 180)' fill-opacity = '0.250000' points = '271.1,571.7 271.1,662.4 273.0,662.4 273.0,574.6 '/>
		<polygon fill = 'rgb( 31, 120, 180)' fill-opacity = '0.250000' points = '273.0,574.6 273.0,662.4 274.9,662.4 274.9,577.1 '/>
		<polygon fill = 'rgb( 31, 120, 180)' fill-opacity = '0.250000' points = '274.9,577.1 274.9,662.4 276.8,662.4 276.8,579.1 '/>
		<polygon fill = 'rgb( 31, 120, 180)' fill-opacity = '0.250000' points = '276.8,579.1 276.8,662.4 278.7,662.4 278.7,580.6 '/>
		<polygon fill = 'rgb( 31, 120, 180)' fill-opacity = '0.250000' points = '278.7,580.6 278.7,662.4 280.6,662.4 280.6,581.5 '/>
		<polygon fill = 'rgb( 31, 120, 180)' fill-opacity = '0.250000' points = '280.6,581.5 280.6,662.4 282.5,662.4 282.5,581.8 '/>
		<polygon fill = 'rgb( 31, 120, 180)' fill-opacity = '0.250000' points = '282.5,581.8 282.5,662.4 284.4,662.4 284.4,581.5 '/>
		<polygon fill = 'rgb( 31, 120, 180)' fill-opacity = '0.250000' points = '284.4,581.5 284.4,662.4 286.3,662.4 286.3,580.4 '/>
		<polygon fill = 'rgb( 31, 120, 180)' fill-opacity = '0.250000' points = '286.3,580.4 286.3,662.4 288.2,662.4 288.2,578.7 '/>
		<polygon fill = 'rgb( 31, 120, 180)' fill-opacity = '0.250000' points = '288.2,578.7 288.2,662.4 290.2,662.4 290.2,576.2 '/>
		<polygon fill = 'rgb( 31, 120, 180)' fill-opacity = '0.250000' points = '290.2,576.2 290.2,662.4 292.1,662.4 292.1,573.0 '/>
		<polygon fill = 'rgb( 31, 120, 180)' fill-opacity = '0.250000' points = '292.1,573.0 292.1,662.4 294.0,662.4 294.0,569.1 '/>
		<polygon fill = 'rgb( 31, 120, 180)' fill-opacity = '0.250000' points = '294.0,569.1 294.0,662.4 295.9,662.4 295.9,564.5 '/>
		<polygon fill = 'rgb( 31, 120, 180)' fill-opacity = '0.250000' points = '295.9,564.5 295.9,662.4 297.8,662.4 297.8,559.3 '/>
		<polygon fill = 'rgb( 31, 120, 180)' fill-opacity = '0.250000' points = '297.8,559.3 297.8,662.4 299.7,662.4 299.7,553.6 '/>
		<polygon fill = 'rgb( 31, 120, 180)' fill-opacity = '0.250000' points = '299.7,553.6 299.7,662.4 301.6,662.4 301.6,547.2 '/>
		<polygon fill = 'rgb( 31, 120, 180)' fill-opacity = '0.250000' points = '301.6,547.2 301.6,662.4 303.5,662.4 303.5,540.4 '/>
		<polygon fill = 'rgb( 31, 120, 180)' fill-opacity = '0.250000' points = '303.5,540.4 303.5,662.4 305.4,662.4 305.4,533.2 '/>
		<polygon fill = 'rgb( 31, 120, 180)' fill-opacity = '0.250000' points = '305.4,533.2 305.4,662.4 307.3,662.4 307.3,525.6 '/>
		<polygon fill = 'rgb( 31, 120, 180)' fill-opacity = '0.250000' points = '307.3,525.6 307.3,662.4 309.2,662.4 309.2,517.7 '/>
		<polygon fill = 'rgb( 31, 120, 180)' fill-opacity = '0.250000' points = '309.2,517.7 309.2,662.4 311.1,662.4 311.1,509.6 '/>
		<polygon fill = 'rgb( 31, 120, 180)' fill-opacity = '0.250000' points = '311.1,509.6 311.1,662.4 313.0,662.4 313.0,501.4 '/>
		<polygon fill = 'rgb( 31, 120, 180)' fill-opacity = '0.250000' points = '313.0,501.4 313.0,662.4 314.9,662.4 314.9,493.0 '/>
		<polygon fill = 'rgb( 31, 120, 180)' fill-opacity = '0.250000' points = '314.9,493.0 314.9,662.4 316.8,662.4 316.8,484.7 '/>
		<polygon fill = 'rgb( 31, 120, 180)' fill-opacity = '0.250000' points = '316.8,484.7 316.8,662.4 318.7,662.4 318.7,476.3 '/>
		<polygon fill = 'rgb( 31, 120, 180)' fill-opacity = '0.250000' points = '318.7,476.3 318.7,662.4 320.6,662.4 320.6,468.0 '/>
		<polygon fill = 'rgb( 31, 120, 180)' fill-opacity = '0.250000' points = '320.6,468.0 320.6,662.4 322.5,662.4 322.5,459.9 '/>
		<polygon fill = 'rgb( 31, 120, 180)' fill-opacity = '0.250000' points = '322.5,459.9 322.5,662.4 324.4,662.4 324.4,451.9 '/>
		<polygon fill = 'rgb( 31, 120, 180)' fill-opacity = '0.250000' points = '324.4,451.9 324.4,662.4 326.3,662.4 326.3,444.1 '/>
		<polygon fill = 'rgb( 31, 120, 180)' fill-opacity = '0.250000' points = '326.3,444.1 326.3,662.4 328.2,662.4 328.2,436.5 '/>
		<polygon fill = 'rgb( 31, 120, 180)' fill-opacity = '0.250000' points = '328.2,436.5 328.2,662.4 330.1,662.4 330.1,429.2 '/>
		<polygon fill = 'rgb( 31, 120, 180)' fill-opacity = '0.250000' points = '330.1,429.2 330.1,662.4 332.0,662.4 332.0,422.1 '/>
		<polygon fill = 'rgb( 31, 120, 180)' fill-opacity = '0.250000' points = '332.0,422.1 332.0,662.4 333.9,662.4 333.9,415.4 '/>
		<polygon fill = 'rgb( 31, 120, 180)' fill-opacity = '0.250000' points = '333.9,415.4 333.9,662.4 335.8,662.4 335.8,409.1 '/>
		<polygon fill = 'rgb( 31, 120, 180)' fill-opacity = '0.250000' points = '335.8,409.1 335.8,662.4 337.7,662.4 337.7,403.1 '/>
		<polygon fill = 'rgb( 31, 120, 180)' fill-opacity = '0.250000' points = '337.7,403.1 337.7,662.4 339.7,662.4 339.7,397.5 '/>
		<polygon fill = 'rgb( 31, 120, 180)' fill-opacity = '0.250000' points = '339.7,397.5 339.7,662.4 341.6,662.4 341.6,392.3 '/>
		<polygon fill = 'rgb( 31, 120, 180)' fill-opacity = '0.250000' points = '341.6,392.3 341.6,662.4 343.5,662.4 343.5,387.7 '/>
		<polygon fill = 'rgb( 31, 120, 180)' fill-opacity = '0.250000' points = '343.5,387.7 343.5,662.4 345.4,662.4 345.4,383.6 '/>
		<polygon fill = 'rgb( 31, 120, 180)' fill-opacity = '0.250000' points = '345.4,383.6 345.4,662.4 347.3,662.4 347.3,380.0 '/>
		<polygon fill = 'rgb( 31, 120, 180)' fill-opacity = '0.250000' points = '347.3,380.0 347.3,662.4 349.2,662.4 349.2,377.1 '/>
		<polygon fill = 'rgb( 31, 120, 180)' fill-opacity = '0.250000' points = '349.2,377.1 349.2,662.4 351.1,662.4 351.1,374.8 '/>
		<polygon fill = 'rgb( 31, 120, 180)' fill-opacity = '0.250000' points = '351.1,374.8 351.1,662.4 353.0,662.4 353.0,373.2 '/>
		<polygon fill = 'rgb( 31, 120, 180)' fill-opacity = '0.250000' points = '353.0,373.2 353.0,662.4 354.9,662.4 354.9,372.4 '/>
		<polygon fill = 'rgb( 31, 120, 180)' fill-opacity = '0.250000' points = '354.9,372.4 354.9,662.4 356.8,662.4 356.8,372.5 '/>
		<polygon fill = 'rgb( 31, 120, 180)' fill-opacity = '0.250000' points = '356.8,372.5 356.8,662.4 358.7,662.4 358.7,373.3 '/>
		<polygon fill = 'rgb( 31, 120, 180)' fill-opacity = '0.250000' points = '358.7,373.3 358.7,662.4 360.6,662.4 360.6,375.1 '/>
		<polygon fill = 'rgb( 31, 120, 180)' fill-opacity = '0.250000' points = '360.6,375.1 360.6,662.4 362.5,662.4 362.5,377.8 '/>
		<polygon fill = 'rgb( 31, 120, 180)' fill-opacity = '0.250000' points = '362.5,377.8 362.5,662.4 364.4,662.4 364.4,381.5 '/>
		<polygon fill = 'rgb( 31, 120, 180)' fill-opacity = '0.250000' points = '364.4,381.5 364.4,662.4 366.3,662.4 366.3,386.2 '/>
		<polygon fill = 'rgb( 31, 120, 180)' fill-opacity = '0.250000' points = '366.3,386.2 366.3,662.4 368.2,662.4 368.2,391.8 '/>
		<polygon fill = 'rgb( 31, 120, 180)' fill-opacity = '0.250000' points = '368.2,391.8 368.2,662.4 370.1,662.4 370.1,398.3 '/>
		<polygon fill = 'rgb( 31, 120, 180)' fill-opacity = '0.250000' points = '370.1,398.3 370.1,662.4 372.0,662.4 372.0,405.8 '/>
		<polygon fill = 'rgb( 31, 120, 180)' fill-opacity = '0.250000' points = '372.0,405.8 372.0,662.4 373.9,662.4 373.9,414.1 '/>
		<polygon fill = 'rgb( 31, 120, 180)' fill-opacity = '0.250000' points = '373.9,414.1 373.9,662.4 375.8,662.4 375.8,423.3 '/>
		<polygon fill = 'rgb( 31, 120, 180)' fill-opacity = '0.250000' points = '375.8,423.3 375.8,662.4 377.7,662.4 377.7,433.1 '/>
		<polygon fill = 'rgb( 31, 120, 180)' fill-opacity = '0.250000' points = '377.7,433.1 377.7,662.4 379.6,662.4 379.6,443.6 '/>
		<polygon fill = 'rgb( 31, 120, 180)' fill-opacity = '0.250000' points = '379.6,443.6 379.6,662.4 381.5,662.4 381.5,454.6 '/>
		<polygon fill = 'rgb( 31, 120, 180)' fill-opacity = '0.250000' points = '381.5,454.6 381.5,662.4 383.4,662.4 383.4,466.0 '/>
		<polygon fill = 'rgb( 31, 120, 180)' fill-opacity = '0.250000' points = '383.4,466.0 383.4,662.4 385.3,662.4 385.3,477.7 '/>
		<polygon fill = 'rgb( 31, 120, 180)' fill-opacity = '0.250000' points = '385.3,477.7 385.3,662.4 387.2,662.4 387.2,489.5 '/>
		<polygon fill = 'rgb( 31, 120, 180)' fill-opacity = '0.250000' points = '387.2,489.5 387.2,662.4 389.2,662.4 389.2,501.3 '/>
		<polygon fill = 'rgb( 31, 120, 180)' fill-opacity = '0.250000' points = '389.2,501.3 389.2,662.4 391.1,662.4 391.1,512.9 '/>
		<polygon fill = 'rgb( 31, 120, 180)' fill-opacity = '0.250000' points = '391.1,512.9 391.1,662.4 393.0,662.4 393.0,524.3 '/>
		<polygon fill = 'rgb( 31, 120, 180)' fill-opacity = '0.250000' points = '393.0,524.3 393.0,662.4 394.9,662.4 394.9,535.2 '/>
		<polygon fill = 'rgb( 31, 120, 180)' fill-opacity = '0.250000' points = '394.9,535.2 394.9,662.4 396.8,662.4 396.8,545.6 '/>
		<polygon fill = 'rgb( 31, 120, 180)' fill-opacity = '0.250000' points = '396.8,545.6 396.8,662.4 398.7,662.4 398.7,555.3 '/>
		<polygon fill = 'rgb( 31, 120, 180)' fill-opacity = '0.250000' points = '398.7,555.3 398.7,662.4 400.6,662.4 400.6,564.2 '/>
		<polygon fill = 'rgb( 31, 120, 180)' fill-opacity = '0.250000' points = '400.6,564.2 400.6,662.4 402.5,662.4 402.5,572.2 '/>
		<polygon fill = 'rgb( 31, 120, 180)' fill-opacity = '0.250000' points = '402.5,572.2 402.5,662.4 404.4,662.4 404.4,579.3 '/>
		<polygon fill = 'rgb( 31, 120, 180)' fill-opacity = '0.250000' points = '404.4,579.3 404.4,662.4 406.3,662.4 406.3,585.4 '/>
		<polygon fill = 'rgb( 31, 120, 180)' fill-opacity = '0.250000' points = '406.3,585.4 406.3,662.4 408.2,662.4 408.2,590.4 '/>
		<polygon fill = 'rgb( 31, 120, 180)' fill-opacity = '0.250000' points = '408.2,590.4 408.2,662.4 410.1,662.4 410.1,594.3 '/>
		<polygon fill = 'rgb( 31, 120, 180)' fill-opacity = '0.250000' points = '410.1,594.3 410.1,662.4 412.0,662.4 412.0,597.0 '/>
		<polygon fill = 'rgb( 31, 120, 180)' fill-opacity = '0.250000' points = '412.0,597.0 412.0,662.4 413.9,662.4 413.9,598.6 '/>
		<polygon fill = 'rgb( 31, 120, 180)' fill-opacity = '0.250000' points = '413.9,598.6 413.9,662.4 415.8,662.4 415.8,598.9 '/>
		<polygon fill = 'rgb( 31, 120, 180)' fill-opacity = '0.250000' points = '415.8,598.9 415.8,662.4 417.7,662.4 417.7,598.2 '/>
		<polygon fill = 'rgb( 31, 120, 180)' fill-opacity = '0.250000' points = '417.7,598.2 417.7,662.4 419.6,662.4 419.6,596.2 '/>
		<polygon fill = 'rgb( 31, 120, 180)' fill-opacity = '0.250000' points = '419.6,596.2 419.6,662.4 421.5,662.4 421.5,593.1 '/>
		<polygon fill = 'rgb( 31, 120, 180)' fill-opacity = '0.250000' points = '421.5,593.1 421.5,662.4 423.4,662.4 423.4,589.0 '/>
		<polygon fill = 'rgb( 31, 120, 180)' fill-opacity = '0.250000' points = '423.4,589.0 423.4,662.4 425.3,662.4 425.3,583.7 '/>
		<polygon fill = 'rgb( 31, 120, 180)' fill-opacity = '0.250000' points = '425.3,583.7 425.3,662.4 427.2,662.4 427.2,577.5 '/>
		<polygon fill = 'rgb( 31, 120, 180)' fill-opacity = '0.250000' points = '427.2,577.5 427.2,662.4 429.1,662.4 429.1,570.2 '/>
		<polygon fill = 'rgb( 31, 120, 180)' fill-opacity = '0.250000' points = '429.1,570.2 429.1,662.4 431.0,662.4 431.0,562.0 '/>
		<polygon fill = 'rgb( 31, 120, 180)' fill-opacity = '0.250000' points = '431.0,562.0 431.0,662.4 432.9,662.4 432.9,553.0 '/>
		<polygon fill = 'rgb( 31, 120, 180)' fill-opacity = '0.250000' points = '432.9,553.0 432.9,662.4 434.8,662.4 434.8,543.2 '/>
		<polygon fill = 'rgb( 31, 120, 180)' fill-opacity = '0.250000' points = '434.8,543.2 434.8,662.4 436.7,662.4 436.7,532.6 '/>
		<polygon fill = 'rgb( 31, 120, 180)' fill-opacity = '0.250000' points = '436.7,532.6 436.7,662.4 438.7,662.4 438.7,521.4 '/>
		<polygon fill = 'rgb( 31, 120, 180)' fill-opacity = '0.250000' points = '438.7,521.4 438.7,662.4 440.6,662.4 440.6,509.7 '/>
		<polygon fill = 'rgb( 31, 120, 180)' fill-opacity = '0.250000' points = '440.6,509.7 440.6,662.4 442.5,662.4 442.5,497.4 '/>
		<polygon fill = 'rgb( 31, 120, 180)' fill-opacity = '0.250000' points = '442.5,497.4 442.5,662.4 444.4,662.4 444.4,484.9 '/>
		<polygon fill = 'rgb( 31, 120, 180)' fill-opacity = '0.250000' points = '444.4,484.9 444.4,662.4 446.3,662.4 446.3,472.1 '/>
		<polygon fill = 'rgb( 31, 120, 180)' fill-opacity = '0.250000' points = '446.3,472.1 446.3,662.4 448.2,662.4 448.2,459.1 '/>
		<polygon fill = 'rgb( 31, 120, 180)' fill-opacity = '0.250000' points = '448.2,459.1 448.2,662.4 450.1,662.4 450.1,446.2 '/>
		<polygon fill = 'rgb( 31, 120, 180)' fill-opacity = '0.250000' points = '450.1,446.2 450.1,662.4 452.0,662.4 452.0,433.5 '/>
		<polygon fill = 'rgb( 31, 120, 180)' fill-opacity = '0.250000' points = '452.0,433.5 452.0,662.4 453.9,662.4 453.9,421.1 '/>
		<polygon fill = 'rgb( 31, 120, 180)' fill-opacity = '0.250000' points = '453.9,421.1 453.9,662.4 455.8,662.4 455.8,409.1 '/>
		<polygon fill = 'rgb( 31, 120, 180)' fill-opacity = '0.250000' points = '455.8,409.1 455.8,662.4 457.7,662.4 457.7,397.8 '/>
		<polygon fill = 'rgb( 31, 120, 180)' fill-opacity = '0.250000' points = '457.7,397.8 457.7,662.4 459.6,662.4 459.6,387.3 '/>
		<polygon fill = 'rgb( 31, 120, 180)' fill-opacity = '0.250000' points = '459.6,387.3 459.6,662.4 461.5,662.4 461.5,377.8 '/>
		<polygon fill = 'rgb( 31, 120, 180)' fill-opacity = '0.250000' points = '461.5,377.8 461.5,662.4 463.4,662.4 463.4,369.3 '/>
		<polygon fill = 'rgb( 31, 120, 180)' fill-opacity = '0.250000' points = '463.4,369.3 463.4,662.4 465.3,662.4 465.3,362.2 '/>
		<polygon fill = 'rgb( 31, 120, 180)' fill-opacity = '0.250000' points = '465.3,362.2 465.3,662.4 467.2,662.4 467.2,356.4 '/>
		<polygon fill = 'rgb( 31, 120, 180)' fill-opacity = '0.250000' points = '467.2,356.4 467.2,662.4 469.1,662.4 469.1,352.2 '/>
		<polygon fill = 'rgb( 31, 120, 180)' fill-opacity = '0.250000' points = '469.1,352.2 469.1,662.4 471.0,662.4 471.0,349.5 '/>
		<polygon fill = 'rgb( 31, 120, 180)' fill-opacity = '0.250000' points = '471.0,349.5 471.0,662.4 472.9,662.4 472.9,348.6 '/>
		<polygon fill = 'rgb( 31, 120, 180)' fill-opacity = '0.250000' points = '472.9,348.6 472.9,662.4 474.8,662.4 474.8,349.4 '/>
		<polygon fill = 'rgb( 31, 120, 180)' fill-opacity = '0.250000' points = '474.8,349.4 474.8,662.4 476.7,662.4 476.7,351.9 '/>
		<polygon fill = 'rgb( 31, 120, 180)' fill-opacity = '0.250000' points = '476.7,351.9 476.7,662.4 478.6,662.4 478.6,356.2 '/>
		<polygon fill = 'rgb( 31, 120, 180)' fill-opacity = '0.250000' points = '478.6,356.2 478.6,662.4 480.5,662.4 480.5,362.1 '/>
		<polygon fill = 'rgb( 31, 120, 180)' fill-opacity = '0.250000' points = '480.5,362.1 480.5,662.4 482.4,662.4 482.4,369.6 '/>
		<polygon fill = 'rgb( 31, 120, 180)' fill-opacity = '0.250000' points = '482.4,369.6 482.4,662.4 484.3,662.4 484.3,378.6 '/>
		<polygon fill = 'rgb( 31, 120, 180)' fill-opacity = '0.250000' points = '484.3,378.6 484.3,662.4 486.2,662.4 486.2,388.9 '/>
		<polygon fill = 'rgb( 31, 120, 180)' fill-opacity = '0.250000' points = '486.2,388.9 486.2,662.4 488.1,662.4 488.1,400.4 '/>
		<polygon fill = 'rgb( 31, 120, 180)' fill-opacity = '0.250000' points = '488.1,400.4 488.1,662.4 490.1,662.4 490.1,412.8 '/>
		<polygon fill = 'rgb( 31, 120, 180)' fill-opacity = '0.250000' points = '490.1,412.8 490.1,662.4 492.0,662.4 492.0,426.1 '/>
		<polygon fill = 'rgb( 31, 120, 180)' fill-opacity = '0.250000' points = '492.0,426.1 492.0,662.4 493.9,662.4 493.9,439.9 '/>
		<polygon fill = 'rgb( 31, 120, 180)' fill-opacity = '0.250000' points = '493.9,439.9 493.9,662.4 495.8,662.4 495.8,454.0 '/>
		<polygon fill = 'rgb( 31, 120, 180)' fill-opacity = '0.250000' points = '495.8,454.0 495.8,662.4 497.7,662.4 497.7,468.3 '/>
		<polygon fill = 'rgb( 31, 120, 180)' fill-opacity = '0.250000' points = '497.7,468.3 497.7,662.4 499.6,662.4 499.6,482.5 '/>
		<polygon fill = 'rgb( 31, 120, 180)' fill-opacity = '0.250000' points = '499.6,482.5 499.6,662.4 501.5,662.4 501.5,496.5 '/>
		<polygon fill = 'rgb( 31, 120, 180)' fill-opacity = '0.250000' points = '501.5,496.5 501.5,662.4 503.4,662.4 503.4,510.0 '/>
		<polygon fill = 'rgb( 31, 120, 180)' fill-opacity = '0.250000' points = '503.4,510.0 503.4,662.4 505.3,662.4 505.3,522.8 '/>
		<polygon fill = 'rgb( 31, 120, 180)' fill-opacity = '0.250000' points = '505.3,522.8 505.3,662.4 507.2,662.4 507.2,534.8 '/>
		<polygon fill = 'rgb( 31, 120, 180)' fill-opacity = '0.250000' points = '507.2,534.8 507.2,662.4 509.1,662.4 509.1,546.0 '/>
		<polygon fill = 'rgb( 31, 120, 180)' fill-opacity = '0.250000' points = '509.1,546.0 509.1,662.4 511.0,662.4 511.0,556.0 '/>
		<polygon fill = 'rgb( 31, 120, 180)' fill-opacity = '0.250000' points = '511.0,556.0 511.0,662.4 512.9,662.4 512.9,565.0 '/>
		<polygon fill = 'rgb( 31, 120, 180)' fill-opacity = '0.250000' points = '512.9,565.0 512.9,662.4 514.8,662.4 514.8,572.7 '/>
		<polygon fill = 'rgb( 31, 120, 180)' fill-opacity = '0.250000' points = '514.8,572.7 514.8,662.4 516.7,662.4 516.7,579.2 '/>
		<polygon fill = 'rgb( 31, 120, 180)' fill-opacity = '0.250000' points = '516.7,579.2 516.7,662.4 518.6,662.4 518.6,584.3 '/>
		<polygon fill = 'rgb( 31, 120, 180)' fill-opacity = '0.250000' points = '518.6,584.3 518.6,662.4 520.5,662.4 520.5,588.0 '/>
		<polygon fill = 'rgb( 31, 120, 180)' fill-opacity = '0.250000' points = '520.5,588.0 520.5,662.4 522.4,662.4 522.4,590.3 '/>
		<polygon fill = 'rgb( 31, 120, 180)' fill-opacity = '0.250000' points = '522.4,590.3 522.4,662.4 524.3,662.4 524.3,591.2 '/>
		<polygon fill = 'rgb( 31, 120, 180)' fill-opacity = '0.250000' points = '524.3,591.2 524.3,662.4 526.2,662.4 526.2,590.5 '/>
		<polygon fill = 'rgb( 31, 120, 180)' fill-opacity = '0.250000' points = '526.2,590.5 526.2,662.4 528.1,662.4 528.1,588.4 '/>
		<polygon fill = 'rgb( 31, 120, 180)' fill-opacity = '0.250000' points = '528.1,588.4 528.1,662.4 530.0,662.4 530.0,584.7 '/>
		<polygon fill = 'rgb( 31, 120, 180)' fill-opacity = '0.250000' points = '530.0,584.7 530.0,662.4 531.9,662.4 531.9,579.4 '/>
		<polygon fill = 'rgb( 31, 120, 180)' fill-opacity = '0.250000' points = '531.9,579.4 531.9,662.4 533.8,662.4 533.8,572.4 '/>
		<polygon fill = 'rgb( 31, 120, 180)' fill-opacity = '0.250000' points = '533.8,572.4 533.8,662.4 535.7,662.4 535.7,563.8 '/>
		<polygon fill = 'rgb( 31, 120, 180)' fill-opacity = '0.250000' points = '535.7,563.8 535.7,662.4 537.6,662.4 537.6,553.5 '/>
		<polygon fill = 'rgb( 31, 120, 180)' fill-opacity = '0.250000' points = '537.6,553.5 537.6,662.4 539.6,662.4 539.6,541.4 '/>
		<polygon fill = 'rgb( 31, 120, 180)' fill-opacity = '0.250000' points = '539.6,541.4 539.6,662.4 541.5,662.4 541.5,527.6 '/>
		<polygon fill = 'rgb( 31, 120, 180)' fill-opacity = '0.250000' points = '541.5,527.6 541.5,662.4 543.4,662.4 543.4,512.0 '/>
		<polygon fill = 'rgb( 31, 120, 180)' fill-opacity = '0.250000' points = '543.4,512.0 543.4,662.4 545.3,662.4 545.3,494.6 '/>
		<polygon fill = 'rgb( 31, 120, 180)' fill-opacity = '0.250000' points = '545.3,494.6 545.3,662.4 547.2,662.4 547.2,475.6 '/>
		<polygon fill = 'rgb( 31, 120, 180)' fill-opacity = '0.250000' points = '547.2,475.6 547.2,662.4 549.1,662.4 549.1,454.9 '/>
		<polygon fill = 'rgb( 31, 120, 180)' fill-opacity = '0.250000' points = '549.1,454.9 549.1,662.4 551.0,662.4 551.0,432.6 '/>
		<polygon fill = 'rgb( 31, 120, 180)' fill-opacity = '0.250000' points = '551.0,432.6 551.0,662.4 552.9,662.4 552.9,408.9 '/>
		<polygon fill = 'rgb( 31, 120, 180)' fill-opacity = '0.250000' points = '552.9,408.9 552.9,662.4 554.8,662.4 554.8,384.0 '/>
		<polygon fill = 'rgb( 31, 120, 180)' fill-opacity = '0.250000' points = '554.8,384.0 554.8,662.4 556.7,662.4 556.7,358.1 '/>
		<polygon fill = 'rgb( 31, 120, 180)' fill-opacity = '0.250000' points = '556.7,358.1 556.7,662.4 558.6,662.4 558.6,331.4 '/>
		<polygon fill = 'rgb( 31, 120, 180)' fill-opacity = '0.250000' points = '558.6,331.4 558.6,662.4 560.5,662.4 560.5,304.2 '/>
		<polygon fill = 'rgb( 31, 120, 180)' fill-opacity = '0.250000' points = '560.5,304.2 560.5,662.4 562.4,662.4 562.4,276.9 '/>
		<polygon fill = 'rgb( 31, 120, 180)' fill-opacity = '0.250000' points = '562.4,276.9 562.4,662.4 564.3,662.4 564.3,249.9 '/>
		<polygon fill = 'rgb( 31, 120, 180)' fill-opacity = '0.250000' points = '564.3,249.9 564.3,662.4 566.2,662.4 566.2,223.5 '/>
		<polygon fill = 'rgb( 31, 120, 180)' fill-opacity = '0.250000' points = '566.2,223.5 566.2,662.4 568.1,662.4 568.1,198.2 '/>
		<polygon fill = 'rgb( 31, 120, 180)' fill-opacity = '0.250000' points = '568.1,198.2 568.1,662.4 570.0,662.4 570.0,174.4 '/>
		<polygon fill = 'rgb( 31, 120, 180)' fill-opacity = '0.250000' points = '570.0,174.4 570.0,662.4 571.9,662.4 571.9,152.5 '/>
		<polygon fill = 'rgb( 31, 120, 180)' fill-opacity = '0.250000' points = '571.9,152.5 571.9,662.4 573.8,662.4 573.8,132.9 '/>
		<polygon fill = 'rgb( 31, 120, 180)' fill-opacity = '0.250000' points = '573.8,132.9 573.8,662.4 575.7,662.4 575.7,116.0 '/>
		<polygon fill = 'rgb( 31, 120, 180)' fill-opacity = '0.250000' points = '575.7,116.0 575.7,662.4 577.6,662.4 577.6,102.1 '/>
		<polygon fill = 'rgb( 31, 120, 180)' fill-opacity = '0.250000' points = '577.6,102.1 577.6,662.4 579.5,662.4 579.5,91.5 '/>
		<polygon fill = 'rgb( 31, 120, 180)' fill-opacity = '0.250000' points = '579.5,91.5 579.5,662.4 581.4,662.4 581.4,84.4 '/>
		<polygon fill = 'rgb( 31, 120, 180)' fill-opacity = '0.250000' points = '581.4,84.4 581.4,662.4 583.3,662.4 583.3,81.0 '/>
		<polygon fill = 'rgb( 31, 120, 180)' fill-opacity = '0.250000' points = '583.3,81.0 583.3,662.4 585.2,662.4 585.2,81.3 '/>
		<polygon fill = 'rgb( 31, 120, 180)' fill-opacity = '0.250000' points = '585.2,81.3 585.2,662.4 587.1,662.4 587.1,85.4 '/>
		<polygon fill = 'rgb( 31, 120, 180)' fill-opacity = '0.250000' points = '587.1,85.4 587.1,662.4 589.1,662.4 589.1,93.2 '/>
		<polygon fill = 'rgb( 31, 120, 180)' fill-opacity = '0.250000' points = '589.1,93.2 589.1,662.4 591.0,662.4 591.0,104.5 '/>
		<polygon fill = 'rgb( 31, 120, 180)' fill-opacity = '0.250000' points = '591.0,104.5 591.0,662.4 592.9,662.4 592.9,119.0 '/>
		<polygon fill = 'rgb( 31, 120, 180)' fill-opacity = '0.250000' points = '592.9,119.0 592.9,662.4 594.8,662.4 594.8,136.6 '/>
		<polygon fill = 'rgb( 31, 120, 180)' fill-opacity = '0.250000' points = '594.8,136.6 594.8,662.4 596.7,662.4 596.7,156.7 '/>
		<polygon fill = 'rgb( 31, 120, 180)' fill-opacity = '0.250000' points = '596.7,156.7 596.7,662.4 598.6,662.4 598.6,179.1 '/>
		<polygon fill = 'rgb( 31, 120, 180)' fill-opacity = '0.250000' points = '598.6,179.1 598.6,662.4 600.5,662.4 600.5,203.2 '/>
		<polygon fill = 'rgb( 31, 120, 180)' fill-opacity = '0.250000' points = '600.5,203.2 600.5,662.4 602.4,662.4 602.4,228.7 '/>
		<polygon fill = 'rgb( 31, 120, 180)' fill-opacity = '0.250000' points = '602.4,228.7 602.4,662.4 604.3,662.4 604.3,254.9 '/>
		<polygon fill = 'rgb( 31, 120, 180)' fill-opacity = '0.250000' points = '604.3,254.9 604.3,662.4 606.2,662.4 606.2,281.4 '/>
		<polygon fill = 'rgb( 31, 120, 180)' fill-opacity = '0.250000' points = '606.2,281.4 606.2,662.4 608.1,662.4 608.1,307.8 '/>
		<polygon fill = 'rgb( 31, 120, 180)' fill-opacity = '0.250000' points = '608.1,307.8 608.1,662.4 610.0,662.4 610.0,333.5 '/>
		<polygon fill = 'rgb( 31, 120, 180)' fill-opacity = '0.250000' points = '610.0,333.5 610.0,662.4 611.9,662.4 611.9,358.1 '/>
		<polygon fill = 'rgb( 31, 120, 180)' fill-opacity = '0.250000' points = '611.9,358.1 611.9,662.4 613.8,662.4 613.8,381.3 '/>
		<polygon fill = 'rgb( 31, 120, 180)' fill-opacity = '0.250000' points = '613.8,381.3 613.8,662.4 615.7,662.4 615.7,402.6 '/>
		<polygon fill = 'rgb( 31, 120, 180)' fill-opacity = '0.250000' points = '615.7,402.6 615.7,662.4 617.6,662.4 617.6,421.9 '/>
		<polygon fill = 'rgb( 31, 120, 180)' fill-opacity = '0.250000' points = '617.6,421.9 617.6,662.4 619.5,662.4 619.5,438.7 '/>
		<polygon fill = 'rgb( 31, 120, 180)' fill-opacity = '0.250000' points = '619.5,438.7 619.5,662.4 621.4,662.4 621.4,452.9 '/>
		<polygon fill = 'rgb( 31, 120, 180)' fill-opacity = '0.250000' points = '621.4,452.9 621.4,662.4 623.3,662.4 623.3,464.5 '/>
		<polygon fill = 'rgb( 31, 120, 180)' fill-opacity = '0.250000' points = '623.3,464.5 623.3,662.4 625.2,662.4 625.2,473.2 '/>
		<polygon fill = 'rgb( 31, 120, 180)' fill-opacity = '0.250000' points = '625.2,473.2 625.2,662.4 627.1,662.4 627.1,479.1 '/>
		<polygon fill = 'rgb( 31, 120, 180)' fill-opacity = '0.250000' points = '627.1,479.1 627.1,662.4 629.0,662.4 629.0,482.1 '/>
		<polygon fill = 'rgb( 31, 120, 180)' fill-opacity = '0.250000' points = '629.0,482.1 629.0,662.4 630.9,662.4 630.9,482.4 '/>
		<polygon fill = 'rgb( 31, 120, 180)' fill-opacity = '0.250000' points = '630.9,482.4 630.9,662.4 632.8,662.4 632.8,480.1 '/>
		<polygon fill = 'rgb( 31, 120, 180)' fill-opacity = '0.250000' points = '632.8,480.1 632.8,662.4 634.7,662.4 634.7,475.2 '/>
		<polygon fill = 'rgb( 31, 120, 180)' fill-opacity = '0.250000' points = '634.7,475.2 634.7,662.4 636.6,662.4 636.6,468.1 '/>
		<polygon fill = 'rgb( 31, 120, 180)' fill-opacity = '0.250000' points = '636.6,468.1 636.6,662.4 638.5,662.4 638.5,459.0 '/>
		<polygon fill = 'rgb( 31, 120, 180)' fill-opacity = '0.250000' points = '638.5,459.0 638.5,662.4 640.5,662.4 640.5,448.2 '/>
		<polygon fill = 'rgb( 31, 120, 180)' fill-opacity = '0.250000' points = '640.5,448.2 640.5,662.4 642.4,662.4 642.4,436.0 '/>
		<polygon fill = 'rgb( 31, 120, 180)' fill-opacity = '0.250000' points = '642.4,436.0 642.4,662.4 644.3,662.4 644.3,422.6 '/>
		<polygon fill = 'rgb( 31, 120, 180)' fill-opacity = '0.250000' points = '644.3,422.6 644.3,662.4 646.2,662.4 646.2,408.6 '/>
		<polygon fill = 'rgb( 31, 120, 180)' fill-opacity = '0.250000' points = '646.2,408.6 646.2,662.4 648.1,662.4 648.1,394.2 '/>
		<polygon fill = 'rgb( 31, 120, 180)' fill-opacity = '0.250000' points = '648.1,394.2 648.1,662.4 650.0,662.4 650.0,379.8 '/>
		<polygon fill = 'rgb( 31, 120, 180)' fill-opacity = '0.250000' points = '650.0,379.8 650.0,662.4 651.9,662.4 651.9,365.8 '/>
		<polygon fill = 'rgb( 31, 120, 180)' fill-opacity = '0.250000' points = '651.9,365.8 651.9,662.4 653.8,662.4 653.8,352.6 '/>
		<polygon fill = 'rgb( 31, 120, 180)' fill-opacity = '0.250000' points = '653.8,352.6 653.8,662.4 655.7,662.4 655.7,340.5 '/>
		<polygon fill = 'rgb( 31, 120, 180)' fill-opacity = '0.250000' points = '655.7,340.5 655.7,662.4 657.6,662.4 657.6,329.8 '/>
		<polygon fill = 'rgb( 31, 120, 180)' fill-opacity = '0.250000' points = '657.6,329.8 657.6,662.4 659.5,662.4 659.5,320.8 '/>
		<polygon fill = 'rgb( 31, 120, 180)' fill-opacity = '0.250000' points = '659.5,320.8 659.5,662.4 661.4,662.4 661.4,313.7 '/>
		<polygon fill = 'rgb( 31, 120, 180)' fill-opacity = '0.250000' points = '661.4,313.7 661.4,662.4 663.3,662.4 663.3,308.8 '/>
		<polygon fill = 'rgb( 31, 120, 180)' fill-opacity = '0.250000' points = '663.3,308.8 663.3,662.4 665.2,662.4 665.2,306.1 '/>
		<polygon fill = 'rgb( 31, 120, 180)' fill-opacity = '0.250000' points = '665.2,306.1 665.2,662.4 667.1,662.4 667.1,305.8 '/>
		<polygon fill = 'rgb( 31, 120, 180)' fill-opacity = '0.250000' points = '667.1,305.8 667.1,662.4 669.0,662.4 669.0,307.8 '/>
		<polygon fill = 'rgb( 31, 120, 180)' fill-opacity = '0.250000' points = '669.0,307.8 669.0,662.4 670.9,662.4 670.9,312.1 '/>
		<polygon fill = 'rgb( 31, 120, 180)' fill-opacity = '0.250000' points = '670.9,312.1 670.9,662.4 672.8,662.4 672.8,318.7 '/>
		<polygon fill = 'rgb( 31, 120, 180)' fill-opacity = '0.250000' points = '672.8,318.7 672.8,662.4 674.7,662.4 674.7,327.3 '/>
		<polygon fill = 'rgb( 31, 120, 180)' fill-opacity = '0.250000' points = '674.7,327.3 674.7,662.4 676.6,662.4 676.6,337.7 '/>
		<polygon fill = 'rgb( 31, 120, 180)' fill-opacity = '0.250000' points = '676.6,337.7 676.6,662.4 678.5,662.4 678.5,349.8 '/>
		<polygon fill = 'rgb( 31, 120, 180)' fill-opacity = '0.250000' points = '678.5,349.8 678.5,662.4 680.4,662.4 680.4,363.2 '/>
		<polygon fill = 'rgb( 31, 120, 180)' fill-opacity = '0.250000' points = '680.4,363.2 680.4,662.4 682.3,662.4 682.3,377.6 '/>
		<polygon fill = 'rgb( 31, 120, 180)' fill-opacity = '0.250000' points = '682.3,377.6 682.3,662.4 684.2,662.4 684.2,392.7 '/>
		<polygon fill = 'rgb( 31, 120, 180)' fill-opacity = '0.250000' points = '684.2,392.7 684.2,662.4 686.1,662.4 686.1,408.1 '/>
		<polygon fill = 'rgb( 31, 120, 180)' fill-opacity = '0.250000' points = '686.1,408.1 686.1,662.4 688.0,662.4 688.0,423.5 '/>
		<polygon fill = 'rgb( 31, 120, 180)' fill-opacity = '0.250000' points = '688.0,423.5 688.0,662.4 690.0,662.4 690.0,438.5 '/>
		<polygon fill = 'rgb( 31, 120, 180)' fill-opacity = '0.250000' points = '690.0,438.5 690.0,662.4 691.9,662.4 691.9,452.7 '/>
		<polygon fill = 'rgb( 31, 120, 180)' fill-opacity = '0.250000' points = '691.9,452.7 691.9,662.4 693.8,662.4 693.8,466.0 '/>
		<polygon fill = 'rgb( 31, 120, 180)' fill-opacity = '0.250000' points = '693.8,466.0 693.8,662.4 695.7,662.4 695.7,477.9 '/>
		<polygon fill = 'rgb( 31, 120, 180)' fill-opacity = '0.250000' points = '695.7,477.9 695.7,662.4 697.6,662.4 697.6,488.3 '/>
		<polygon fill = 'rgb( 31, 120, 180)' fill-opacity = '0.250000' points = '697.6,488.3 697.6,662.4 699.5,662.4 699.5,496.8 '/>
		<polygon fill = 'rgb( 31, 120, 180)' fill-opacity = '0.250000' points = '699.5,496.8 699.5,662.4 701.4,662.4 701.4,503.3 '/>
		<polygon fill = 'rgb( 31, 120, 180)' fill-opacity = '0.250000' points = '701.4,503.3 701.4,662.4 703.3,662.4 703.3,507.7 '/>
		<polygon fill = 'rgb( 31, 120, 180)' fill-opacity = '0.250000' points = '703.3,507.7 703.3,662.4 705.2,662.4 705.2,509.7 '/>
		<polygon fill = 'rgb( 31, 120, 180)' fill-opacity = '0.250000' points = '705.2,509.7 705.2,662.4 707.1,662.4 707.1,509.4 '/>
		<polygon fill = 'rgb( 31, 120, 180)' fill-opacity = '0.250000' points = '707.1,509.4 707.1,662.4 709.0,662.4 709.0,506.7 '/>
		<polygon fill = 'rgb( 31, 120, 180)' fill-opacity = '0.250000' points = '709.0,506.7 709.0,662.4 710.9,662.4 710.9,501.6 '/>
		<polygon fill = 'rgb( 31, 120, 180)' fill-opacity = '0.250000' points = '710.9,501.6 710.9,662.4 712.8,662.4 712.8,494.3 '/>
		<polygon fill = 'rgb( 31, 120, 180)' fill-opacity = '0.250000' points = '712.8,494.3 712.8,662.4 714.7,662.4 714.7,484.7 '/>
		<polygon fill = 'rgb( 31, 120, 180)' fill-opacity = '0.250000' points = '714.7,484.7 714.7,662.4 716.6,662.4 716.6,473.1 '/>
		<polygon fill = 'rgb( 31, 120, 180)' fill-opacity = '0.250000' points = '716.6,473.1 716.6,662.4 718.5,662.4 718.5,459.7 '/>
		<polygon fill = 'rgb( 31, 120, 180)' fill-opacity = '0.250000' points = '718.5,459.7 718.5,662.4 720.4,662.4 720.4,444.6 '/>
		<polygon fill = 'rgb( 31, 120, 180)' fill-opacity = '0.250000' points = '720.4,444.6 720.4,662.4 722.3,662.4 722.3,428.2 '/>
		<polygon fill = 'rgb( 31, 120, 180)' fill-opacity = '0.250000' points = '722.3,428.2 722.3,662.4 724.2,662.4 724.2,410.8 '/>
		<polygon fill = 'rgb( 31, 120, 180)' fill-opacity = '0.250000' points = '724.2,410.8 724.2,662.4 726.1,662.4 726.1,392.6 '/>
		<polygon fill = 'rgb( 31, 120, 180)' fill-opacity = '0.250000' points = '726.1,392.6 726.1,662.4 728.0,662.4 728.0,374.2 '/>
		<polygon fill = 'rgb( 31, 120, 180)' fill-opacity = '0.250000' points = '728.0,374.2 728.0,662.4 729.9,662.4 729.9,355.8 '/>
		<polygon fill = 'rgb( 31, 120, 180)' fill-opacity = '0.250000' points = '729.9,355.8 729.9,662.4 731.8,662.4 731.8,337.8 '/>
		<polygon fill = 'rgb( 31, 120, 180)' fill-opacity = '0.250000' points = '731.8,337.8 731.8,662.4 733.7,662.4 733.7,320.6 '/>
		<polygon fill = 'rgb( 31, 120, 180)' fill-opacity = '0.250000' points = '733.7,320.6 733.7,662.4 735.6,662.4 735.6,304.6 '/>
		<polygon fill = 'rgb( 31, 120, 180)' fill-opacity = '0.250000' points = '735.6,304.6 735.6,662.4 737.5,662.4 737.5,290.2 '/>
		<polygon fill = 'rgb( 31, 120, 180)' fill-opacity = '0.250000' points = '737.5,290.2 737.5,662.4 739.5,662.4 739.5,277.6 '/>
		<polygon fill = 'rgb( 31, 120, 180)' fill-opacity = '0.250000' points = '739.5,277.6 739.5,662.4 741.4,662.4 741.4,267.2 '/>
		<polygon fill = 'rgb( 31, 120, 180)' fill-opacity = '0.250000' points = '741.4,267.2 741.4,662.4 743.3,662.4 743.3,259.1 '/>
		<polygon fill = 'rgb( 31, 120, 180)' fill-opacity = '0.250000' points = '743.3,259.1 743.3,662.4 745.2,662.4 745.2,253.7 '/>
		<polygon fill = 'rgb( 31, 120, 180)' fill-opacity = '0.250000' points = '745.2,253.7 745.2,662.4 747.1,662.4 747.1,250.9 '/>
		<polygon fill = 'rgb( 31, 120, 180)' fill-opacity = '0.250000' points = '747.1,250.9 747.1,662.4 749.0,662.4 749.0,251.0 '/>
		<polygon fill = 'rgb( 31, 120, 180)' fill-opacity = '0.250000' points = '749.0,251.0 749.0,662.4 750.9,662.4 750.9,253.8 '/>
		<polygon fill = 'rgb( 31, 120, 180)' fill-opacity = '0.250000' points = '750.9,253.8 750.9,662.4 752.8,662.4 752.8,259.4 '/>
		<polygon fill = 'rgb( 31, 120, 180)' fill-opacity = '0.250000' points = '752.8,259.4 752.8,662.4 754.7,662.4 754.7,267.6 '/>
		<polygon fill = 'rgb( 31, 120, 180)' fill-opacity = '0.250000' points = '754.7,267.6 754.7,662.4 756.6,662.4 756.6,278.3 '/>
		<polygon fill = 'rgb( 31, 120, 180)' fill-opacity = '0.250000' points = '756.6,278.3 756.6,662.4 758.5,662.4 758.5,291.2 '/>
		<polygon fill = 'rgb( 31, 120, 180)' fill-opacity = '0.250000' points = '758.5,291.2 758.5,662.4 760.4,662.4 760.4,306.1 '/>
		<polygon fill = 'rgb( 31, 120, 180)' fill-opacity = '0.250000' points = '760.4,306.1 760.4,662.4 762.3,662.4 762.3,322.6 '/>
		<polygon fill = 'rgb( 31, 120, 180)' fill-opacity = '0.250000' points = '762.3,322.6 762.3,662.4 764.2,662.4 764.2,340.6 '/>
		<polygon fill = 'rgb( 31, 120, 180)' fill-opacity = '0.250000' points = '764.2,340.6 764.2,662.4 766.1,662.4 766.1,359.5 '/>
		<polygon fill = 'rgb( 31, 120, 180)' fill-opacity = '0.250000' points = '766.1,359.5 766.1,662.4 768.0,662.4 768.0,379.1 '/>
		<polygon fill = 'rgb( 31, 120, 180)' fill-opacity = '0.250000' points = '768.0,379.1 768.0,662.4 769.9,662.4 769.9,399.0 '/>
		<polygon fill = 'rgb( 31, 120, 180)' fill-opacity = '0.250000' points = '769.9,399.0 769.9,662.4 771.8,662.4 771.8,418.9 '/>
		<polygon fill = 'rgb( 31, 120, 180)' fill-opacity = '0.250000' points = '771.8,418.9 771.8,662.4 773.7,662.4 773.7,438.5 '/>
		<polygon fill = 'rgb( 31, 120, 180)' fill-opacity = '0.250000' points = '773.7,438.5 773.7,662.4 775.6,662.4 775.6,457.5 '/>
		<polygon fill = 'rgb( 31, 120, 180)' fill-opacity = '0.250000' points = '775.6,457.5 775.6,662.4 777.5,662.4 777.5,475.6 '/>
		<polygon fill = 'rgb( 31, 120, 180)' fill-opacity = '0.250000' points = '777.5,475.6 777.5,662.4 779.4,662.4 779.4,492.6 '/>
		<polygon fill = 'rgb( 31, 120, 180)' fill-opacity = '0.250000' points = '779.4,492.6 779.4,662.4 781.3,662.4 781.3,508.4 '/>
		<polygon fill = 'rgb( 31, 120, 180)' fill-opacity = '0.250000' points = '781.3,508.4 781.3,662.4 783.2,662.4 783.2,522.7 '/>
		<polygon fill = 'rgb( 31, 120, 180)' fill-opacity = '0.250000' points = '783.2,522.7 783.2,662.4 785.1,662.4 785.1,535.5 '/>
		<polygon fill = 'rgb( 31, 120, 180)' fill-opacity = '0.250000' points = '785.1,535.5 785.1,662.4 787.0,662.4 787.0,546.6 '/>
		<polygon fill = 'rgb( 31, 120, 180)' fill-opacity = '0.250000' points = '787.0,546.6 787.0,662.4 789.0,662.4 789.0,556.1 '/>
		<polygon fill = 'rgb( 31, 120, 180)' fill-opacity = '0.250000' points = '789.0,556.1 789.0,662.4 790.9,662.4 790.9,563.9 '/>
		<polygon fill = 'rgb( 31, 120, 180)' fill-opacity = '0.250000' points = '790.9,563.9 790.9,662.4 792.8,662.4 792.8,570.0 '/>
		<polygon fill = 'rgb( 31, 120, 180)' fill-opacity = '0.250000' points = '792.8,570.0 792.8,662.4 794.7,662.4 794.7,574.5 '/>
		<polygon fill = 'rgb( 31, 120, 180)' fill-opacity = '0.250000' points = '794.7,574.5 794.7,662.4 796.6,662.4 796.6,577.4 '/>
		<polygon fill = 'rgb( 31, 120, 180)' fill-opacity = '0.250000' points = '796.6,577.4 796.6,662.4 798.5,662.4 798.5,578.9 '/>
		<polygon fill = 'rgb( 31, 120, 180)' fill-opacity = '0.250000' points = '798.5,578.9 798.5,662.4 800.4,662.4 800.4,579.0 '/>
		<polygon fill = 'rgb( 31, 120, 180)' fill-opacity = '0.250000' points = '800.4,579.0 800.4,662.4 802.3,662.4 802.3,577.9 '/>
		<polygon fill = 'rgb( 31, 120, 180)' fill-opacity = '0.250000' points = '802.3,577.9 802.3,662.4 804.2,662.4 804.2,575.6 '/>
		<polygon fill = 'rgb( 31, 120, 180)' fill-opacity = '0.250000' points = '804.2,575.6 804.2,662.4 806.1,662.4 806.1,572.5 '/>
		<polygon fill = 'rgb( 31, 120, 180)' fill-opacity = '0.250000' points = '806.1,572.5 806.1,662.4 808.0,662.4 808.0,568.5 '/>
		<polygon fill = 'rgb( 31, 120, 180)' fill-opacity = '0.250000' points = '808.0,568.5 808.0,662.4 809.9,662.4 809.9,563.9 '/>
		<polygon fill = 'rgb( 31, 120, 180)' fill-opacity = '0.250000' points = '809.9,563.9 809.9,662.4 811.8,662.4 811.8,558.9 '/>
		<polygon fill = 'rgb( 31, 120, 180)' fill-opacity = '0.250000' points = '811.8,558.9 811.8,662.4 813.7,662.4 813.7,553.6 '/>
		<polygon fill = 'rgb( 31, 120, 180)' fill-opacity = '0.250000' points = '813.7,553.6 813.7,662.4 815.6,662.4 815.6,548.1 '/>
		<polygon fill = 'rgb( 31, 120, 180)' fill-opacity = '0.250000' points = '815.6,548.1 815.6,662.4 817.5,662.4 817.5,542.7 '/>
		<polygon fill = 'rgb( 31, 120, 180)' fill-opacity = '0.250000' points = '817.5,542.7 817.5,662.4 819.4,662.4 819.4,537.5 '/>
		<polygon fill = 'rgb( 31, 120, 180)' fill-opacity = '0.250000' points = '819.4,537.5 819.4,662.4 821.3,662.4 821.3,532.7 '/>
		<polygon fill = 'rgb( 31, 120, 180)' fill-opacity = '0.250000' points = '821.3,532.7 821.3,662.4 823.2,662.4 823.2,528.3 '/>
		<polygon fill = 'rgb( 31, 120, 180)' fill-opacity = '0.250000' points = '823.2,528.3 823.2,662.4 825.1,662.4 825.1,524.5 '/>
		<polygon fill = 'rgb( 31, 120, 180)' fill-opacity = '0.250000' points = '825.1,524.5 825.1,662.4 827.0,662.4 827.0,521.5 '/>
		<polygon fill = 'rgb( 31, 120, 180)' fill-opacity = '0.250000' points = '827.0,521.5 827.0,662.4 828.9,662.4 828.9,519.2 '/>
		<polygon fill = 'rgb( 31, 120, 180)' fill-opacity = '0.250000' points = '828.9,519.2 828.9,662.4 830.8,662.4 830.8,517.8 '/>
		<polygon fill = 'rgb( 31, 120, 180)' fill-opacity = '0.250000' points = '830.8,517.8 830.8,662.4 832.7,662.4 832.7,517.3 '/>
		<polygon fill = 'rgb( 31, 120, 180)' fill-opacity = '0.250000' points = '832.7,517.3 832.7,662.4 834.6,662.4 834.6,517.6 '/>
		<polygon fill = 'rgb( 31, 120, 180)' fill-opacity = '0.250000' points = '834.6,517.6 834.6,662.4 836.5,662.4 836.5,518.9 '/>
		<polygon fill = 'rgb( 31, 120, 180)' fill-opacity = '0.250000' points = '836.5,518.9 836.5,662.4 838.4,662.4 838.4,521.1 '/>
		<polygon fill = 'rgb( 31, 120, 180)' fill-opacity = '0.250000' points = '838.4,521.1 838.4,662.4 840.4,662.4 840.4,524.1 '/>
		<polygon fill = 'rgb( 31, 120, 180)' fill-opacity = '0.250000' points = '840.4,524.1 840.4,662.4 842.3,662.4 842.3,527.9 '/>
		<polygon fill = 'rgb( 31, 120, 180)' fill-opacity = '0.250000' points = '842.3,527.9 842.3,662.4 844.2,662.4 844.2,532.3 '/>
		<polygon fill = 'rgb( 31, 120, 180)' fill-opacity = '0.250000' points = '844.2,532.3 844.2,662.4 846.1,662.4 846.1,537.4 '/>
		<polygon fill = 'rgb( 31, 120, 180)' fill-opacity = '0.250000' points = '846.1,537.4 846.1,662.4 848.0,662.4 848.0,543.0 '/>
		<polygon fill = 'rgb( 31, 120, 180)' fill-opacity = '0.250000' points = '848.0,543.0 848.0,662.4 849.9,662.4 849.9,549.0 '/>
		<polygon fill = 'rgb( 31, 120, 180)' fill-opacity = '0.250000' points = '849.9,549.0 849.9,662.4 851.8,662.4 851.8,555.2 '/>
		<polygon fill = 'rgb( 31, 120, 180)' fill-opacity = '0.250000' points = '851.8,555.2 851.8,662.4 853.7,662.4 853.7,561.6 '/>
		<polygon fill = 'rgb( 31, 120, 180)' fill-opacity = '0.250000' points = '853.7,561.6 853.7,662.4 855.6,662.4 855.6,568.1 '/>
		<polygon fill = 'rgb( 31, 120, 180)' fill-opacity = '0.250000' points = '855.6,568.1 855.6,662.4 857.5,662.4 857.5,574.4 '/>
		<polygon fill = 'rgb( 31, 120, 180)' fill-opacity = '0.250000' points = '857.5,574.4 857.5,662.4 859.4,662.4 859.4,580.6 '/>
		<polygon fill = 'rgb( 31, 120, 180)' fill-opacity = '0.250000' points = '859.4,580.6 859.4,662.4 861.3,662.4 861.3,586.5 '/>
		<polygon fill = 'rgb( 31, 120, 180)' fill-opacity = '0.250000' points = '861.3,586.5 861.3,662.4 863.2,662.4 863.2,592.1 '/>
		<polygon fill = 'rgb( 31, 120, 180)' fill-opacity = '0.250000' points = '863.2,592.1 863.2,662.4 865.1,662.4 865.1,597.2 '/>
		<polygon fill = 'rgb( 31, 120, 180)' fill-opacity = '0.250000' points = '865.1,597.2 865.1,662.4 867.0,662.4 867.0,601.7 '/>
		<polygon fill = 'rgb( 31, 120, 180)' fill-opacity = '0.250000' points = '867.0,601.7 867.0,662.4 868.9,662.4 868.9,605.7 '/>
		<polygon fill = 'rgb( 31, 120, 180)' fill-opacity = '0.250000' points = '868.9,605.7 868.9,662.4 870.8,662.4 870.8,609.1 '/>
		<polygon fill = 'rgb( 31, 120, 180)' fill-opacity = '0.250000' points = '870.8,609.1 870.8,662.4 872.7,662.4 872.7,611.8 '/>
		<polygon fill = 'rgb( 31, 120, 180)' fill-opacity = '0.250000' points = '872.7,611.8 872.7,662.4 874.6,662.4 874.6,613.8 '/>
		<polygon fill = 'rgb( 31, 120, 180)' fill-opacity = '0.250000' points = '874.6,613.8 874.6,662.4 876.5,662.4 876.5,615.1 '/>
		<polygon fill = 'rgb( 31, 120, 180)' fill-opacity = '0.250000' points = '876.5,615.1 876.5,662.4 878.4,662.4 878.4,615.8 '/>
		<polygon fill = 'rgb( 31, 120, 180)' fill-opacity = '0.250000' points = '878.4,615.8 878.4,662.4 880.3,662.4 880.3,615.8 '/>
		<polygon fill = 'rgb( 31, 120, 180)' fill-opacity = '0.250000' points = '880.3,615.8 880.3,662.4 882.2,662.4 882.2,615.2 '/>
		<polygon fill = 'rgb( 31, 120, 180)' fill-opacity = '0.250000' points = '882.2,615.2 882.2,662.4 884.1,662.4 884.1,614.0 '/>
		<polygon fill = 'rgb( 31, 120, 180)' fill-opacity = '0.250000' points = '884.1,614.0 884.1,662.4 886.0,662.4 886.0,612.2 '/>
		<polygon fill = 'rgb( 31, 120, 180)' fill-opacity = '0.250000' points = '886.0,612.2 886.0,662.4 887.9,662.4 887.9,609.9 '/>
		<polygon fill = 'rgb( 31, 120, 180)' fill-opacity = '0.250000' points = '887.9,609.9 887.9,662.4 889.9,662.4 889.9,607.1 '/>
		<polygon fill = 'rgb( 31, 120, 180)' fill-opacity = '0.250000' points = '889.9,607.1 889.9,662.4 891.8,662.4 891.8,604.0 '/>
		<polygon fill = 'rgb( 31, 120, 180)' fill-opacity = '0.250000' points = '891.8,604.0 891.8,662.4 893.7,662.4 893.7,600.5 '/>
		<polygon fill = 'rgb( 31, 120, 180)' fill-opacity = '0.250000' points = '893.7,600.5 893.7,662.4 895.6,662.4 895.6,596.9 '/>
		<polygon fill = 'rgb( 31, 120, 180)' fill-opacity = '0.250000' points = '895.6,596.9 895.6,662.4 897.5,662.4 897.5,593.0 '/>
		<polygon fill = 'rgb( 31, 120, 180)' fill-opacity = '0.250000' points = '897.5,593.0 897.5,662.4 899.4,662.4 899.4,589.1 '/>
		<polygon fill = 'rgb( 31, 120, 180)' fill-opacity = '0.250000' points = '899.4,589.1 899.4,662.4 901.3,662.4 901.3,585.2 '/>
		<polygon fill = 'rgb( 31, 120, 180)' fill-opacity = '0.250000' points = '901.3,585.2 901.3,662.4 903.2,662.4 903.2,581.3 '/>
		<polygon fill = 'rgb( 31, 120, 180)' fill-opacity = '0.250000' points = '903.2,581.3 903.2,662.4 905.1,662.4 905.1,577.6 '/>
		<polygon fill = 'rgb( 31, 120, 180)' fill-opacity = '0.250000' points = '905.1,577.6 905.1,662.4 907.0,662.4 907.0,574.1 '/>
		<polygon fill = 'rgb( 31, 120, 180)' fill-opacity = '0.250000' points = '907.0,574.1 907.0,662.4 908.9,662.4 908.9,571.0 '/>
		<polygon fill = 'rgb( 31, 120, 180)' fill-opacity = '0.250000' points = '908.9,571.0 908.9,662.4 910.8,662.4 910.8,568.1 '/>
		<polygon fill = 'rgb( 31, 120, 180)' fill-opacity = '0.250000' points = '910.8,568.1 910.8,662.4 912.7,662.4 912.7,565.7 '/>
		<polygon fill = 'rgb( 31, 120, 180)' fill-opacity = '0.250000' points = '912.7,565.7 912.7,662.4 914.6,662.4 914.6,563.7 '/>
		<polygon fill = 'rgb( 31, 120, 180)' fill-opacity = '0.250000' points = '914.6,563.7 914.6,662.4 916.5,662.4 916.5,562.1 '/>
		<polygon fill = 'rgb( 31, 120, 180)' fill-opacity = '0.250000' points = '916.5,562.1 916.5,662.4 918.4,662.4 918.4,561.1 '/>
		<polygon fill = 'rgb( 31, 120, 180)' fill-opacity = '0.250000' points = '918.4,561.1 918.4,662.4 920.3,662.4 920.3,560.6 '/>
		<polygon fill = 'rgb( 31, 120, 180)' fill-opacity = '0.250000' points = '920.3,560.6 920.3,662.4 922.2,662.4 922.2,560.6 '/>
		<polygon fill = 'rgb( 31, 120, 180)' fill-opacity = '0.250000' points = '922.2,560.6 922.2,662.4 924.1,662.4 924.1,561.2 '/>
	</g>
</g>
	</g>
	<g id="gnuplot_plot_3" ><title>Point estimate</title>
<g fill="none" color="white" stroke="rgb( 31, 120, 180)" stroke-width="2.00" stroke-linecap="butt" stroke-linejoin="miter">
</g>
<g fill="none" color="black" stroke="currentColor" stroke-width="2.00" stroke-linecap="butt" stroke-linejoin="miter">
	<g transform="translate(1089.0,103.0)" stroke="none" fill="black" font-family="Helvetica" font-size="12.00"  text-anchor="start">
		<text><tspan font-family="Helvetica" >Point estimate</tspan></text>
	</g>
</g>
<g fill="none" color="black" stroke="currentColor" stroke-width="2.00" stroke-linecap="butt" stroke-linejoin="miter">
	<path stroke='rgb( 31, 120, 180)'  d='M1038.5,99.1 L1080.7,99.1 M585.0,662.4 L585.0,81.3  '/></g>
	</g>
<g fill="none" color="black" stroke="currentColor" stroke-width="2.00" stroke-linecap="butt" stroke-linejoin="miter">
</g>
<g fill="none" color="black" stroke="black" stroke-width="1.00" stroke-linecap="butt" stroke-linejoin="miter">
</g>
<g fill="none" color="black" stroke="currentColor" stroke-width="1.00" stroke-linecap="butt" stroke-linejoin="miter">
	<path stroke='black'  d='M63.6,54.1 L63.6,662.4 L1013.6,662.4 L1013.6,54.1 L63.6,54.1 Z  '/></g>
<g fill="none" color="black" stroke="currentColor" stroke-width="1.00" stroke-linecap="butt" stroke-linejoin="miter">
</g>
</g>
</svg>

