<?xml version="1.0" encoding="utf-8"  standalone="no"?>
<svg 
 viewBox="0 0 1280 720"
 xmlns="http://www.w3.org/2000/svg"
 xmlns:xlink="http://www.w3.org/1999/xlink"
>

<title>Gnuplot</title>
<desc>Produced by GNUPLOT 5.0 patchlevel 6 </desc>

<g id="gnuplot_canvas">

<rect x="0" y="0" width="1280" height="720" fill="none"/>
<defs>

	<circle id='gpDot' r='0.5' stroke-width='0.5'/>
	<path id='gpPt0' stroke-width='0.222' stroke='currentColor' d='M-1,0 h2 M0,-1 v2'/>
	<path id='gpPt1' stroke-width='0.222' stroke='currentColor' d='M-1,-1 L1,1 M1,-1 L-1,1'/>
	<path id='gpPt2' stroke-width='0.222' stroke='currentColor' d='M-1,0 L1,0 M0,-1 L0,1 M-1,-1 L1,1 M-1,1 L1,-1'/>
	<rect id='gpPt3' stroke-width='0.222' stroke='currentColor' x='-1' y='-1' width='2' height='2'/>
	<rect id='gpPt4' stroke-width='0.222' stroke='currentColor' fill='currentColor' x='-1' y='-1' width='2' height='2'/>
	<circle id='gpPt5' stroke-width='0.222' stroke='currentColor' cx='0' cy='0' r='1'/>
	<use xlink:href='#gpPt5' id='gpPt6' fill='currentColor' stroke='none'/>
	<path id='gpPt7' stroke-width='0.222' stroke='currentColor' d='M0,-1.33 L-1.33,0.67 L1.33,0.67 z'/>
	<use xlink:href='#gpPt7' id='gpPt8' fill='currentColor' stroke='none'/>
	<use xlink:href='#gpPt7' id='gpPt9' stroke='currentColor' transform='rotate(180)'/>
	<use xlink:href='#gpPt9' id='gpPt10' fill='currentColor' stroke='none'/>
	<use xlink:href='#gpPt3' id='gpPt11' stroke='currentColor' transform='rotate(45)'/>
	<use xlink:href='#gpPt11' id='gpPt12' fill='currentColor' stroke='none'/>
	<path id='gpPt13' stroke-width='0.222' stroke='currentColor' d='M0,1.330 L1.265,0.411 L0.782,-1.067 L-0.782,-1.076 L-1.265,0.411 z'/>
	<use xlink:href='#gpPt13' id='gpPt14' fill='currentColor' stroke='none'/>
	<filter id='textbox' filterUnits='objectBoundingBox' x='0' y='0' height='1' width='1'>
	  <feFlood flood-color='white' flood-opacity='1' result='bgnd'/>
	  <feComposite in='SourceGraphic' in2='bgnd' operator='atop'/>
	</filter>
	<filter id='greybox' filterUnits='objectBoundingBox' x='0' y='0' height='1' width='1'>
	  <feFlood flood-color='lightgrey' flood-opacity='1' result='grey'/>
	  <feComposite in='SourceGraphic' in2='grey' operator='atop'/>
	</filter>
</defs>
<g fill="none" color="white" stroke="currentColor" stroke-width="1.00" stroke-linecap="butt" stroke-linejoin="miter">
</g>
<g fill="none" color="black" stroke="currentColor" stroke-width="1.00" stroke-linecap="butt" stroke-linejoin="miter">
	<path stroke='black'  d='M71.9,662.4 L80.9,662.4  '/>	<g transform="translate(63.6,666.3)" stroke="none" fill="black" font-family="Helvetica" font-size="12.00"  text-anchor="end">
		<text><tspan font-family="Helvetica" > 0</tspan></text>
	</g>
</g>
<g fill="none" color="black" stroke="currentColor" stroke-width="1.00" stroke-linecap="butt" stroke-linejoin="miter">
	<path stroke='black'  d='M71.9,599.3 L80.9,599.3  '/>	<g transform="translate(63.6,603.2)" stroke="none" fill="black" font-family="Helvetica" font-size="12.00"  text-anchor="end">
		<text><tspan font-family="Helvetica" > 0.5</tspan></text>
	</g>
</g>
<g fill="none" color="black" stroke="currentColor" stroke-width="1.00" stroke-linecap="butt" stroke-linejoin="miter">
	<path stroke='black'  d='M71.9,536.2 L80.9,536.2  '/>	<g transform="translate(63.6,540.1)" stroke="none" fill="black" font-family="Helvetica" font-size="12.00"  text-anchor="end">
		<text><tspan font-family="Helvetica" > 1</tspan></text>
	</g>
</g>
<g fill="none" color="black" stroke="currentColor" stroke-width="1.00" stroke-linecap="butt" stroke-linejoin="miter">
	<path stroke='black'  d='M71.9,473.1 L80.9,473.1  '/>	<g transform="translate(63.6,477.0)" stroke="none" fill="black" font-family="Helvetica" font-size="12.00"  text-anchor="end">
		<text><tspan font-family="Helvetica" > 1.5</tspan></text>
	</g>
</g>
<g fill="none" color="black" stroke="currentColor" stroke-width="1.00" stroke-linecap="butt" stroke-linejoin="miter">
	<path stroke='black'  d='M71.9,410.0 L80.9,410.0  '/>	<g transform="translate(63.6,413.9)" stroke="none" fill="black" font-family="Helvetica" font-size="12.00"  text-anchor="end">
		<text><tspan font-family="Helvetica" > 2</tspan></text>
	</g>
</g>
<g fill="none" color="black" stroke="currentColor" stroke-width="1.00" stroke-linecap="butt" stroke-linejoin="miter">
	<path stroke='black'  d='M71.9,346.9 L80.9,346.9  '/>	<g transform="translate(63.6,350.8)" stroke="none" fill="black" font-family="Helvetica" font-size="12.00"  text-anchor="end">
		<text><tspan font-family="Helvetica" > 2.5</tspan></text>
	</g>
</g>
<g fill="none" color="black" stroke="currentColor" stroke-width="1.00" stroke-linecap="butt" stroke-linejoin="miter">
	<path stroke='black'  d='M71.9,283.8 L80.9,283.8  '/>	<g transform="translate(63.6,287.7)" stroke="none" fill="black" font-family="Helvetica" font-size="12.00"  text-anchor="end">
		<text><tspan font-family="Helvetica" > 3</tspan></text>
	</g>
</g>
<g fill="none" color="black" stroke="currentColor" stroke-width="1.00" stroke-linecap="butt" stroke-linejoin="miter">
	<path stroke='black'  d='M71.9,220.7 L80.9,220.7  '/>	<g transform="translate(63.6,224.6)" stroke="none" fill="black" font-family="Helvetica" font-size="12.00"  text-anchor="end">
		<text><tspan font-family="Helvetica" > 3.5</tspan></text>
	</g>
</g>
<g fill="none" color="black" stroke="currentColor" stroke-width="1.00" stroke-linecap="butt" stroke-linejoin="miter">
	<path stroke='black'  d='M71.9,157.6 L80.9,157.6  '/>	<g transform="translate(63.6,161.5)" stroke="none" fill="black" font-family="Helvetica" font-size="12.00"  text-anchor="end">
		<text><tspan font-family="Helvetica" > 4</tspan></text>
	</g>
</g>
<g fill="none" color="black" stroke="currentColor" stroke-width="1.00" stroke-linecap="butt" stroke-linejoin="miter">
	<path stroke='black'  d='M71.9,94.5 L80.9,94.5  '/>	<g transform="translate(63.6,98.4)" stroke="none" fill="black" font-family="Helvetica" font-size="12.00"  text-anchor="end">
		<text><tspan font-family="Helvetica" > 4.5</tspan></text>
	</g>
</g>
<g fill="none" color="black" stroke="currentColor" stroke-width="1.00" stroke-linecap="butt" stroke-linejoin="miter">
	<path stroke='black'  d='M179.3,662.4 L179.3,653.4  '/>	<g transform="translate(179.3,684.3)" stroke="none" fill="black" font-family="Helvetica" font-size="12.00"  text-anchor="middle">
		<text><tspan font-family="Helvetica" > 19.6</tspan></text>
	</g>
</g>
<g fill="none" color="black" stroke="currentColor" stroke-width="1.00" stroke-linecap="butt" stroke-linejoin="miter">
	<path stroke='black'  d='M318.7,662.4 L318.7,653.4  '/>	<g transform="translate(318.7,684.3)" stroke="none" fill="black" font-family="Helvetica" font-size="12.00"  text-anchor="middle">
		<text><tspan font-family="Helvetica" > 19.7</tspan></text>
	</g>
</g>
<g fill="none" color="black" stroke="currentColor" stroke-width="1.00" stroke-linecap="butt" stroke-linejoin="miter">
	<path stroke='black'  d='M458.0,662.4 L458.0,653.4  '/>	<g transform="translate(458.0,684.3)" stroke="none" fill="black" font-family="Helvetica" font-size="12.00"  text-anchor="middle">
		<text><tspan font-family="Helvetica" > 19.8</tspan></text>
	</g>
</g>
<g fill="none" color="black" stroke="currentColor" stroke-width="1.00" stroke-linecap="butt" stroke-linejoin="miter">
	<path stroke='black'  d='M597.4,662.4 L597.4,653.4  '/>	<g transform="translate(597.4,684.3)" stroke="none" fill="black" font-family="Helvetica" font-size="12.00"  text-anchor="middle">
		<text><tspan font-family="Helvetica" > 19.9</tspan></text>
	</g>
</g>
<g fill="none" color="black" stroke="currentColor" stroke-width="1.00" stroke-linecap="butt" stroke-linejoin="miter">
	<path stroke='black'  d='M736.7,662.4 L736.7,653.4  '/>	<g transform="translate(736.7,684.3)" stroke="none" fill="black" font-family="Helvetica" font-size="12.00"  text-anchor="middle">
		<text><tspan font-family="Helvetica" > 20</tspan></text>
	</g>
</g>
<g fill="none" color="black" stroke="currentColor" stroke-width="1.00" stroke-linecap="butt" stroke-linejoin="miter">
	<path stroke='black'  d='M876.1,662.4 L876.1,653.4  '/>	<g transform="translate(876.1,684.3)" stroke="none" fill="black" font-family="Helvetica" font-size="12.00"  text-anchor="middle">
		<text><tspan font-family="Helvetica" > 20.1</tspan></text>
	</g>
</g>
<g fill="none" color="black" stroke="currentColor" stroke-width="1.00" stroke-linecap="butt" stroke-linejoin="miter">
	<path stroke='black'  d='M995.6,662.4 L986.6,662.4  '/>	<g transform="translate(1003.9,666.3)" stroke="none" fill="black" font-family="Helvetica" font-size="12.00"  text-anchor="start">
		<text><tspan font-family="Helvetica" > 0</tspan></text>
	</g>
</g>
<g fill="none" color="black" stroke="currentColor" stroke-width="1.00" stroke-linecap="butt" stroke-linejoin="miter">
	<path stroke='black'  d='M995.6,561.0 L986.6,561.0  '/>	<g transform="translate(1003.9,564.9)" stroke="none" fill="black" font-family="Helvetica" font-size="12.00"  text-anchor="start">
		<text><tspan font-family="Helvetica" > 0.001</tspan></text>
	</g>
</g>
<g fill="none" color="black" stroke="currentColor" stroke-width="1.00" stroke-linecap="butt" stroke-linejoin="miter">
	<path stroke='black'  d='M995.6,459.6 L986.6,459.6  '/>	<g transform="translate(1003.9,463.5)" stroke="none" fill="black" font-family="Helvetica" font-size="12.00"  text-anchor="start">
		<text><tspan font-family="Helvetica" > 0.002</tspan></text>
	</g>
</g>
<g fill="none" color="black" stroke="currentColor" stroke-width="1.00" stroke-linecap="butt" stroke-linejoin="miter">
	<path stroke='black'  d='M995.6,358.2 L986.6,358.2  '/>	<g transform="translate(1003.9,362.1)" stroke="none" fill="black" font-family="Helvetica" font-size="12.00"  text-anchor="start">
		<text><tspan font-family="Helvetica" > 0.003</tspan></text>
	</g>
</g>
<g fill="none" color="black" stroke="currentColor" stroke-width="1.00" stroke-linecap="butt" stroke-linejoin="miter">
	<path stroke='black'  d='M995.6,256.9 L986.6,256.9  '/>	<g transform="translate(1003.9,260.8)" stroke="none" fill="black" font-family="Helvetica" font-size="12.00"  text-anchor="start">
		<text><tspan font-family="Helvetica" > 0.004</tspan></text>
	</g>
</g>
<g fill="none" color="black" stroke="currentColor" stroke-width="1.00" stroke-linecap="butt" stroke-linejoin="miter">
	<path stroke='black'  d='M995.6,155.5 L986.6,155.5  '/>	<g transform="translate(1003.9,159.4)" stroke="none" fill="black" font-family="Helvetica" font-size="12.00"  text-anchor="start">
		<text><tspan font-family="Helvetica" > 0.005</tspan></text>
	</g>
</g>
<g fill="none" color="black" stroke="currentColor" stroke-width="1.00" stroke-linecap="butt" stroke-linejoin="miter">
	<path stroke='black'  d='M995.6,54.1 L986.6,54.1  '/>	<g transform="translate(1003.9,58.0)" stroke="none" fill="black" font-family="Helvetica" font-size="12.00"  text-anchor="start">
		<text><tspan font-family="Helvetica" > 0.006</tspan></text>
	</g>
</g>
<g fill="none" color="black" stroke="currentColor" stroke-width="1.00" stroke-linecap="butt" stroke-linejoin="miter">
</g>
<g fill="none" color="black" stroke="currentColor" stroke-width="1.00" stroke-linecap="butt" stroke-linejoin="miter">
	<path stroke='black'  d='M71.9,54.1 L71.9,662.4 L995.6,662.4 L995.6,54.1 L71.9,54.1 Z  '/></g>
<g fill="none" color="black" stroke="currentColor" stroke-width="1.00" stroke-linecap="butt" stroke-linejoin="miter">
	<g transform="translate(17.0,358.3) rotate(270)" stroke="none" fill="black" font-family="Helvetica" font-size="12.00"  text-anchor="middle">
		<text><tspan font-family="Helvetica" >Iterations (x 10</tspan><tspan font-family="Helvetica"  font-size="9.6" dy="-6.00px">3</tspan><tspan font-family="Helvetica"  font-size="12.0" dy="6.00px">)</tspan></text>
	</g>
</g>
<g fill="none" color="black" stroke="currentColor" stroke-width="1.00" stroke-linecap="butt" stroke-linejoin="miter">
	<g transform="translate(1074.8,358.3) rotate(270)" stroke="none" fill="black" font-family="Helvetica" font-size="12.00"  text-anchor="middle">
		<text><tspan font-family="Helvetica" >Density (a.u.)</tspan></text>
	</g>
</g>
<g fill="none" color="black" stroke="currentColor" stroke-width="1.00" stroke-linecap="butt" stroke-linejoin="miter">
	<g transform="translate(533.7,711.3)" stroke="none" fill="black" font-family="Helvetica" font-size="12.00"  text-anchor="middle">
		<text><tspan font-family="Helvetica" >Average time (us)</tspan></text>
	</g>
</g>
<g fill="none" color="black" stroke="currentColor" stroke-width="1.00" stroke-linecap="butt" stroke-linejoin="miter">
	<g transform="translate(533.7,31.0)" stroke="none" fill="black" font-family="Helvetica" font-size="12.00"  text-anchor="middle">
		<text><tspan font-family="Helvetica" >language: c/parse error: python/examples/trailing-whitespace.py</tspan></text>
	</g>
</g>
	<g id="gnuplot_plot_1" ><title>PDF</title>
<g fill="none" color="black" stroke="currentColor" stroke-width="1.00" stroke-linecap="butt" stroke-linejoin="miter">
	<g transform="translate(1155.4,67.0)" stroke="none" fill="black" font-family="Helvetica" font-size="12.00"  text-anchor="start">
		<text><tspan font-family="Helvetica" >PDF</tspan></text>
	</g>
</g>
<g fill="none" color="black" stroke="currentColor" stroke-width="1.00" stroke-linecap="butt" stroke-linejoin="miter">
	<g stroke='none' shape-rendering='crispEdges'>
		<polygon fill = 'rgb( 31, 120, 180)' fill-opacity = '0.250000' points = '1104.9,67.6 1147.1,67.6 1147.1,58.6 1104.9,58.6 '/>
		<polygon fill = 'rgb( 31, 120, 180)' fill-opacity = '0.250000' points = '71.9,661.4 71.9,662.4 73.8,662.4 73.8,661.3 '/>
		<polygon fill = 'rgb( 31, 120, 180)' fill-opacity = '0.250000' points = '73.8,661.3 73.8,662.4 75.6,662.4 75.6,661.2 '/>
		<polygon fill = 'rgb( 31, 120, 180)' fill-opacity = '0.250000' points = '75.6,661.2 75.6,662.4 77.5,662.4 77.5,661.1 '/>
		<polygon fill = 'rgb( 31, 120, 180)' fill-opacity = '0.250000' points = '77.5,661.1 77.5,662.4 79.3,662.4 79.3,661.0 '/>
		<polygon fill = 'rgb( 31, 120, 180)' fill-opacity = '0.250000' points = '79.3,661.0 79.3,662.4 81.2,662.4 81.2,660.8 '/>
		<polygon fill = 'rgb( 31, 120, 180)' fill-opacity = '0.250000' points = '81.2,660.8 81.2,662.4 83.0,662.4 83.0,660.7 '/>
		<polygon fill = 'rgb( 31, 120, 180)' fill-opacity = '0.250000' points = '83.0,660.7 83.0,662.4 84.9,662.4 84.9,660.6 '/>
		<polygon fill = 'rgb( 31, 120, 180)' fill-opacity = '0.250000' points = '84.9,660.6 84.9,662.4 86.7,662.4 86.7,660.4 '/>
		<polygon fill = 'rgb( 31, 120, 180)' fill-opacity = '0.250000' points = '86.7,660.4 86.7,662.4 88.6,662.4 88.6,660.3 '/>
		<polygon fill = 'rgb( 31, 120, 180)' fill-opacity = '0.250000' points = '88.6,660.3 88.6,662.4 90.4,662.4 90.4,660.1 '/>
		<polygon fill = 'rgb( 31, 120, 180)' fill-opacity = '0.250000' points = '90.4,660.1 90.4,662.4 92.3,662.4 92.3,659.9 '/>
		<polygon fill = 'rgb( 31, 120, 180)' fill-opacity = '0.250000' points = '92.3,659.9 92.3,662.4 94.1,662.4 94.1,659.7 '/>
		<polygon fill = 'rgb( 31, 120, 180)' fill-opacity = '0.250000' points = '94.1,659.7 94.1,662.4 96.0,662.4 96.0,659.5 '/>
		<polygon fill = 'rgb( 31, 120, 180)' fill-opacity = '0.250000' points = '96.0,659.5 96.0,662.4 97.8,662.4 97.8,659.3 '/>
		<polygon fill = 'rgb( 31, 120, 180)' fill-opacity = '0.250000' points = '97.8,659.3 97.8,662.4 99.7,662.4 99.7,659.1 '/>
		<polygon fill = 'rgb( 31, 120, 180)' fill-opacity = '0.250000' points = '99.7,659.1 99.7,662.4 101.5,662.4 101.5,658.8 '/>
		<polygon fill = 'rgb( 31, 120, 180)' fill-opacity = '0.250000' points = '101.5,658.8 101.5,662.4 103.4,662.4 103.4,658.5 '/>
		<polygon fill = 'rgb( 31, 120, 180)' fill-opacity = '0.250000' points = '103.4,658.5 103.4,662.4 105.2,662.4 105.2,658.3 '/>
		<polygon fill = 'rgb( 31, 120, 180)' fill-opacity = '0.250000' points = '105.2,658.3 105.2,662.4 107.1,662.4 107.1,658.0 '/>
		<polygon fill = 'rgb( 31, 120, 180)' fill-opacity = '0.250000' points = '107.1,658.0 107.1,662.4 108.9,662.4 108.9,657.6 '/>
		<polygon fill = 'rgb( 31, 120, 180)' fill-opacity = '0.250000' points = '108.9,657.6 108.9,662.4 110.8,662.4 110.8,657.3 '/>
		<polygon fill = 'rgb( 31, 120, 180)' fill-opacity = '0.250000' points = '110.8,657.3 110.8,662.4 112.6,662.4 112.6,656.9 '/>
		<polygon fill = 'rgb( 31, 120, 180)' fill-opacity = '0.250000' points = '112.6,656.9 112.6,662.4 114.5,662.4 114.5,656.6 '/>
		<polygon fill = 'rgb( 31, 120, 180)' fill-opacity = '0.250000' points = '114.5,656.6 114.5,662.4 116.3,662.4 116.3,656.2 '/>
		<polygon fill = 'rgb( 31, 120, 180)' fill-opacity = '0.250000' points = '116.3,656.2 116.3,662.4 118.2,662.4 118.2,655.7 '/>
		<polygon fill = 'rgb( 31, 120, 180)' fill-opacity = '0.250000' points = '118.2,655.7 118.2,662.4 120.0,662.4 120.0,655.3 '/>
		<polygon fill = 'rgb( 31, 120, 180)' fill-opacity = '0.250000' points = '120.0,655.3 120.0,662.4 121.9,662.4 121.9,654.8 '/>
		<polygon fill = 'rgb( 31, 120, 180)' fill-opacity = '0.250000' points = '121.9,654.8 121.9,662.4 123.7,662.4 123.7,654.3 '/>
		<polygon fill = 'rgb( 31, 120, 180)' fill-opacity = '0.250000' points = '123.7,654.3 123.7,662.4 125.6,662.4 125.6,653.7 '/>
		<polygon fill = 'rgb( 31, 120, 180)' fill-opacity = '0.250000' points = '125.6,653.7 125.6,662.4 127.4,662.4 127.4,653.2 '/>
		<polygon fill = 'rgb( 31, 120, 180)' fill-opacity = '0.250000' points = '127.4,653.2 127.4,662.4 129.3,662.4 129.3,652.6 '/>
		<polygon fill = 'rgb( 31, 120, 180)' fill-opacity = '0.250000' points = '129.3,652.6 129.3,662.4 131.1,662.4 131.1,651.9 '/>
		<polygon fill = 'rgb( 31, 120, 180)' fill-opacity = '0.250000' points = '131.1,651.9 131.1,662.4 133.0,662.4 133.0,651.3 '/>
		<polygon fill = 'rgb( 31, 120, 180)' fill-opacity = '0.250000' points = '133.0,651.3 133.0,662.4 134.8,662.4 134.8,650.6 '/>
		<polygon fill = 'rgb( 31, 120, 180)' fill-opacity = '0.250000' points = '134.8,650.6 134.8,662.4 136.7,662.4 136.7,649.8 '/>
		<polygon fill = 'rgb( 31, 120, 180)' fill-opacity = '0.250000' points = '136.7,649.8 136.7,662.4 138.5,662.4 138.5,649.1 '/>
		<polygon fill = 'rgb( 31, 120, 180)' fill-opacity = '0.250000' points = '138.5,649.1 138.5,662.4 140.4,662.4 140.4,648.2 '/>
		<polygon fill = 'rgb( 31, 120, 180)' fill-opacity = '0.250000' points = '140.4,648.2 140.4,662.4 142.2,662.4 142.2,647.4 '/>
		<polygon fill = 'rgb( 31, 120, 180)' fill-opacity = '0.250000' points = '142.2,647.4 142.2,662.4 144.1,662.4 144.1,646.5 '/>
		<polygon fill = 'rgb( 31, 120, 180)' fill-opacity = '0.250000' points = '144.1,646.5 144.1,662.4 145.9,662.4 145.9,645.6 '/>
		<polygon fill = 'rgb( 31, 120, 180)' fill-opacity = '0.250000' points = '145.9,645.6 145.9,662.4 147.8,662.4 147.8,644.6 '/>
		<polygon fill = 'rgb( 31, 120, 180)' fill-opacity = '0.250000' points = '147.8,644.6 147.8,662.4 149.6,662.4 149.6,643.5 '/>
		<polygon fill = 'rgb( 31, 120, 180)' fill-opacity = '0.250000' points = '149.6,643.5 149.6,662.4 151.5,662.4 151.5,642.5 '/>
		<polygon fill = 'rgb( 31, 120, 180)' fill-opacity = '0.250000' points = '151.5,642.5 151.5,662.4 153.3,662.4 153.3,641.3 '/>
		<polygon fill = 'rgb( 31, 120, 180)' fill-opacity = '0.250000' points = '153.3,641.3 153.3,662.4 155.2,662.4 155.2,640.1 '/>
		<polygon fill = 'rgb( 31, 120, 180)' fill-opacity = '0.250000' points = '155.2,640.1 155.2,662.4 157.1,662.4 157.1,638.9 '/>
		<polygon fill = 'rgb( 31, 120, 180)' fill-opacity = '0.250000' points = '157.1,638.9 157.1,662.4 158.9,662.4 158.9,637.6 '/>
		<polygon fill = 'rgb( 31, 120, 180)' fill-opacity = '0.250000' points = '158.9,637.6 158.9,662.4 160.8,662.4 160.8,636.3 '/>
		<polygon fill = 'rgb( 31, 120, 180)' fill-opacity = '0.250000' points = '160.8,636.3 160.8,662.4 162.6,662.4 162.6,634.9 '/>
		<polygon fill = 'rgb( 31, 120, 180)' fill-opacity = '0.250000' points = '162.6,634.9 162.6,662.4 164.5,662.4 164.5,633.4 '/>
		<polygon fill = 'rgb( 31, 120, 180)' fill-opacity = '0.250000' points = '164.5,633.4 164.5,662.4 166.3,662.4 166.3,631.9 '/>
		<polygon fill = 'rgb( 31, 120, 180)' fill-opacity = '0.250000' points = '166.3,631.9 166.3,662.4 168.2,662.4 168.2,630.3 '/>
		<polygon fill = 'rgb( 31, 120, 180)' fill-opacity = '0.250000' points = '168.2,630.3 168.2,662.4 170.0,662.4 170.0,628.7 '/>
		<polygon fill = 'rgb( 31, 120, 180)' fill-opacity = '0.250000' points = '170.0,628.7 170.0,662.4 171.9,662.4 171.9,627.0 '/>
		<polygon fill = 'rgb( 31, 120, 180)' fill-opacity = '0.250000' points = '171.9,627.0 171.9,662.4 173.7,662.4 173.7,625.2 '/>
		<polygon fill = 'rgb( 31, 120, 180)' fill-opacity = '0.250000' points = '173.7,625.2 173.7,662.4 175.6,662.4 175.6,623.4 '/>
		<polygon fill = 'rgb( 31, 120, 180)' fill-opacity = '0.250000' points = '175.6,623.4 175.6,662.4 177.4,662.4 177.4,621.5 '/>
		<polygon fill = 'rgb( 31, 120, 180)' fill-opacity = '0.250000' points = '177.4,621.5 177.4,662.4 179.3,662.4 179.3,619.5 '/>
		<polygon fill = 'rgb( 31, 120, 180)' fill-opacity = '0.250000' points = '179.3,619.5 179.3,662.4 181.1,662.4 181.1,617.5 '/>
		<polygon fill = 'rgb( 31, 120, 180)' fill-opacity = '0.250000' points = '181.1,617.5 181.1,662.4 183.0,662.4 183.0,615.3 '/>
		<polygon fill = 'rgb( 31, 120, 180)' fill-opacity = '0.250000' points = '183.0,615.3 183.0,662.4 184.8,662.4 184.8,613.2 '/>
		<polygon fill = 'rgb( 31, 120, 180)' fill-opacity = '0.250000' points = '184.8,613.2 184.8,662.4 186.7,662.4 186.7,610.9 '/>
		<polygon fill = 'rgb( 31, 120, 180)' fill-opacity = '0.250000' points = '186.7,610.9 186.7,662.4 188.5,662.4 188.5,608.6 '/>
		<polygon fill = 'rgb( 31, 120, 180)' fill-opacity = '0.250000' points = '188.5,608.6 188.5,662.4 190.4,662.4 190.4,606.2 '/>
		<polygon fill = 'rgb( 31, 120, 180)' fill-opacity = '0.250000' points = '190.4,606.2 190.4,662.4 192.2,662.4 192.2,603.7 '/>
		<polygon fill = 'rgb( 31, 120, 180)' fill-opacity = '0.250000' points = '192.2,603.7 192.2,662.4 194.1,662.4 194.1,601.1 '/>
		<polygon fill = 'rgb( 31, 120, 180)' fill-opacity = '0.250000' points = '194.1,601.1 194.1,662.4 195.9,662.4 195.9,598.5 '/>
		<polygon fill = 'rgb( 31, 120, 180)' fill-opacity = '0.250000' points = '195.9,598.5 195.9,662.4 197.8,662.4 197.8,595.8 '/>
		<polygon fill = 'rgb( 31, 120, 180)' fill-opacity = '0.250000' points = '197.8,595.8 197.8,662.4 199.6,662.4 199.6,593.0 '/>
		<polygon fill = 'rgb( 31, 120, 180)' fill-opacity = '0.250000' points = '199.6,593.0 199.6,662.4 201.5,662.4 201.5,590.1 '/>
		<polygon fill = 'rgb( 31, 120, 180)' fill-opacity = '0.250000' points = '201.5,590.1 201.5,662.4 203.3,662.4 203.3,587.2 '/>
		<polygon fill = 'rgb( 31, 120, 180)' fill-opacity = '0.250000' points = '203.3,587.2 203.3,662.4 205.2,662.4 205.2,584.1 '/>
		<polygon fill = 'rgb( 31, 120, 180)' fill-opacity = '0.250000' points = '205.2,584.1 205.2,662.4 207.0,662.4 207.0,581.0 '/>
		<polygon fill = 'rgb( 31, 120, 180)' fill-opacity = '0.250000' points = '207.0,581.0 207.0,662.4 208.9,662.4 208.9,577.8 '/>
		<polygon fill = 'rgb( 31, 120, 180)' fill-opacity = '0.250000' points = '208.9,577.8 208.9,662.4 210.7,662.4 210.7,574.6 '/>
		<polygon fill = 'rgb( 31, 120, 180)' fill-opacity = '0.250000' points = '210.7,574.6 210.7,662.4 212.6,662.4 212.6,571.2 '/>
		<polygon fill = 'rgb( 31, 120, 180)' fill-opacity = '0.250000' points = '212.6,571.2 212.6,662.4 214.4,662.4 214.4,567.8 '/>
		<polygon fill = 'rgb( 31, 120, 180)' fill-opacity = '0.250000' points = '214.4,567.8 214.4,662.4 216.3,662.4 216.3,564.3 '/>
		<polygon fill = 'rgb( 31, 120, 180)' fill-opacity = '0.250000' points = '216.3,564.3 216.3,662.4 218.1,662.4 218.1,560.7 '/>
		<polygon fill = 'rgb( 31, 120, 180)' fill-opacity = '0.250000' points = '218.1,560.7 218.1,662.4 220.0,662.4 220.0,557.0 '/>
		<polygon fill = 'rgb( 31, 120, 180)' fill-opacity = '0.250000' points = '220.0,557.0 220.0,662.4 221.8,662.4 221.8,553.3 '/>
		<polygon fill = 'rgb( 31, 120, 180)' fill-opacity = '0.250000' points = '221.8,553.3 221.8,662.4 223.7,662.4 223.7,549.5 '/>
		<polygon fill = 'rgb( 31, 120, 180)' fill-opacity = '0.250000' points = '223.7,549.5 223.7,662.4 225.5,662.4 225.5,545.6 '/>
		<polygon fill = 'rgb( 31, 120, 180)' fill-opacity = '0.250000' points = '225.5,545.6 225.5,662.4 227.4,662.4 227.4,541.6 '/>
		<polygon fill = 'rgb( 31, 120, 180)' fill-opacity = '0.250000' points = '227.4,541.6 227.4,662.4 229.2,662.4 229.2,537.6 '/>
		<polygon fill = 'rgb( 31, 120, 180)' fill-opacity = '0.250000' points = '229.2,537.6 229.2,662.4 231.1,662.4 231.1,533.5 '/>
		<polygon fill = 'rgb( 31, 120, 180)' fill-opacity = '0.250000' points = '231.1,533.5 231.1,662.4 232.9,662.4 232.9,529.3 '/>
		<polygon fill = 'rgb( 31, 120, 180)' fill-opacity = '0.250000' points = '232.9,529.3 232.9,662.4 234.8,662.4 234.8,525.0 '/>
		<polygon fill = 'rgb( 31, 120, 180)' fill-opacity = '0.250000' points = '234.8,525.0 234.8,662.4 236.6,662.4 236.6,520.7 '/>
		<polygon fill = 'rgb( 31, 120, 180)' fill-opacity = '0.250000' points = '236.6,520.7 236.6,662.4 238.5,662.4 238.5,516.3 '/>
		<polygon fill = 'rgb( 31, 120, 180)' fill-opacity = '0.250000' points = '238.5,516.3 238.5,662.4 240.4,662.4 240.4,511.9 '/>
		<polygon fill = 'rgb( 31, 120, 180)' fill-opacity = '0.250000' points = '240.4,511.9 240.4,662.4 242.2,662.4 242.2,507.3 '/>
		<polygon fill = 'rgb( 31, 120, 180)' fill-opacity = '0.250000' points = '242.2,507.3 242.2,662.4 244.1,662.4 244.1,502.7 '/>
		<polygon fill = 'rgb( 31, 120, 180)' fill-opacity = '0.250000' points = '244.1,502.7 244.1,662.4 245.9,662.4 245.9,498.1 '/>
		<polygon fill = 'rgb( 31, 120, 180)' fill-opacity = '0.250000' points = '245.9,498.1 245.9,662.4 247.8,662.4 247.8,493.4 '/>
		<polygon fill = 'rgb( 31, 120, 180)' fill-opacity = '0.250000' points = '247.8,493.4 247.8,662.4 249.6,662.4 249.6,488.6 '/>
		<polygon fill = 'rgb( 31, 120, 180)' fill-opacity = '0.250000' points = '249.6,488.6 249.6,662.4 251.5,662.4 251.5,483.8 '/>
		<polygon fill = 'rgb( 31, 120, 180)' fill-opacity = '0.250000' points = '251.5,483.8 251.5,662.4 253.3,662.4 253.3,478.9 '/>
		<polygon fill = 'rgb( 31, 120, 180)' fill-opacity = '0.250000' points = '253.3,478.9 253.3,662.4 255.2,662.4 255.2,474.0 '/>
		<polygon fill = 'rgb( 31, 120, 180)' fill-opacity = '0.250000' points = '255.2,474.0 255.2,662.4 257.0,662.4 257.0,469.0 '/>
		<polygon fill = 'rgb( 31, 120, 180)' fill-opacity = '0.250000' points = '257.0,469.0 257.0,662.4 258.9,662.4 258.9,464.0 '/>
		<polygon fill = 'rgb( 31, 120, 180)' fill-opacity = '0.250000' points = '258.9,464.0 258.9,662.4 260.7,662.4 260.7,458.9 '/>
		<polygon fill = 'rgb( 31, 120, 180)' fill-opacity = '0.250000' points = '260.7,458.9 260.7,662.4 262.6,662.4 262.6,453.8 '/>
		<polygon fill = 'rgb( 31, 120, 180)' fill-opacity = '0.250000' points = '262.6,453.8 262.6,662.4 264.4,662.4 264.4,448.7 '/>
		<polygon fill = 'rgb( 31, 120, 180)' fill-opacity = '0.250000' points = '264.4,448.7 264.4,662.4 266.3,662.4 266.3,443.5 '/>
		<polygon fill = 'rgb( 31, 120, 180)' fill-opacity = '0.250000' points = '266.3,443.5 266.3,662.4 268.1,662.4 268.1,438.3 '/>
		<polygon fill = 'rgb( 31, 120, 180)' fill-opacity = '0.250000' points = '268.1,438.3 268.1,662.4 270.0,662.4 270.0,433.0 '/>
		<polygon fill = 'rgb( 31, 120, 180)' fill-opacity = '0.250000' points = '270.0,433.0 270.0,662.4 271.8,662.4 271.8,427.7 '/>
		<polygon fill = 'rgb( 31, 120, 180)' fill-opacity = '0.250000' points = '271.8,427.7 271.8,662.4 273.7,662.4 273.7,422.4 '/>
		<polygon fill = 'rgb( 31, 120, 180)' fill-opacity = '0.250000' points = '273.7,422.4 273.7,662.4 275.5,662.4 275.5,417.1 '/>
		<polygon fill = 'rgb( 31, 120, 180)' fill-opacity = '0.250000' points = '275.5,417.1 275.5,662.4 277.4,662.4 277.4,411.7 '/>
		<polygon fill = 'rgb( 31, 120, 180)' fill-opacity = '0.250000' points = '277.4,411.7 277.4,662.4 279.2,662.4 279.2,406.4 '/>
		<polygon fill = 'rgb( 31, 120, 180)' fill-opacity = '0.250000' points = '279.2,406.4 279.2,662.4 281.1,662.4 281.1,401.0 '/>
		<polygon fill = 'rgb( 31, 120, 180)' fill-opacity = '0.250000' points = '281.1,401.0 281.1,662.4 282.9,662.4 282.9,395.6 '/>
		<polygon fill = 'rgb( 31, 120, 180)' fill-opacity = '0.250000' points = '282.9,395.6 282.9,662.4 284.8,662.4 284.8,390.1 '/>
		<polygon fill = 'rgb( 31, 120, 180)' fill-opacity = '0.250000' points = '284.8,390.1 284.8,662.4 286.6,662.4 286.6,384.7 '/>
		<polygon fill = 'rgb( 31, 120, 180)' fill-opacity = '0.250000' points = '286.6,384.7 286.6,662.4 288.5,662.4 288.5,379.3 '/>
		<polygon fill = 'rgb( 31, 120, 180)' fill-opacity = '0.250000' points = '288.5,379.3 288.5,662.4 290.3,662.4 290.3,373.9 '/>
		<polygon fill = 'rgb( 31, 120, 180)' fill-opacity = '0.250000' points = '290.3,373.9 290.3,662.4 292.2,662.4 292.2,368.4 '/>
		<polygon fill = 'rgb( 31, 120, 180)' fill-opacity = '0.250000' points = '292.2,368.4 292.2,662.4 294.0,662.4 294.0,363.0 '/>
		<polygon fill = 'rgb( 31, 120, 180)' fill-opacity = '0.250000' points = '294.0,363.0 294.0,662.4 295.9,662.4 295.9,357.6 '/>
		<polygon fill = 'rgb( 31, 120, 180)' fill-opacity = '0.250000' points = '295.9,357.6 295.9,662.4 297.7,662.4 297.7,352.2 '/>
		<polygon fill = 'rgb( 31, 120, 180)' fill-opacity = '0.250000' points = '297.7,352.2 297.7,662.4 299.6,662.4 299.6,346.8 '/>
		<polygon fill = 'rgb( 31, 120, 180)' fill-opacity = '0.250000' points = '299.6,346.8 299.6,662.4 301.4,662.4 301.4,341.4 '/>
		<polygon fill = 'rgb( 31, 120, 180)' fill-opacity = '0.250000' points = '301.4,341.4 301.4,662.4 303.3,662.4 303.3,336.0 '/>
		<polygon fill = 'rgb( 31, 120, 180)' fill-opacity = '0.250000' points = '303.3,336.0 303.3,662.4 305.1,662.4 305.1,330.7 '/>
		<polygon fill = 'rgb( 31, 120, 180)' fill-opacity = '0.250000' points = '305.1,330.7 305.1,662.4 307.0,662.4 307.0,325.4 '/>
		<polygon fill = 'rgb( 31, 120, 180)' fill-opacity = '0.250000' points = '307.0,325.4 307.0,662.4 308.8,662.4 308.8,320.1 '/>
		<polygon fill = 'rgb( 31, 120, 180)' fill-opacity = '0.250000' points = '308.8,320.1 308.8,662.4 310.7,662.4 310.7,314.8 '/>
		<polygon fill = 'rgb( 31, 120, 180)' fill-opacity = '0.250000' points = '310.7,314.8 310.7,662.4 312.5,662.4 312.5,309.6 '/>
		<polygon fill = 'rgb( 31, 120, 180)' fill-opacity = '0.250000' points = '312.5,309.6 312.5,662.4 314.4,662.4 314.4,304.4 '/>
		<polygon fill = 'rgb( 31, 120, 180)' fill-opacity = '0.250000' points = '314.4,304.4 314.4,662.4 316.2,662.4 316.2,299.2 '/>
		<polygon fill = 'rgb( 31, 120, 180)' fill-opacity = '0.250000' points = '316.2,299.2 316.2,662.4 318.1,662.4 318.1,294.1 '/>
		<polygon fill = 'rgb( 31, 120, 180)' fill-opacity = '0.250000' points = '318.1,294.1 318.1,662.4 319.9,662.4 319.9,289.1 '/>
		<polygon fill = 'rgb( 31, 120, 180)' fill-opacity = '0.250000' points = '319.9,289.1 319.9,662.4 321.8,662.4 321.8,284.0 '/>
		<polygon fill = 'rgb( 31, 120, 180)' fill-opacity = '0.250000' points = '321.8,284.0 321.8,662.4 323.6,662.4 323.6,279.1 '/>
		<polygon fill = 'rgb( 31, 120, 180)' fill-opacity = '0.250000' points = '323.6,279.1 323.6,662.4 325.5,662.4 325.5,274.2 '/>
		<polygon fill = 'rgb( 31, 120, 180)' fill-opacity = '0.250000' points = '325.5,274.2 325.5,662.4 327.4,662.4 327.4,269.3 '/>
		<polygon fill = 'rgb( 31, 120, 180)' fill-opacity = '0.250000' points = '327.4,269.3 327.4,662.4 329.2,662.4 329.2,264.5 '/>
		<polygon fill = 'rgb( 31, 120, 180)' fill-opacity = '0.250000' points = '329.2,264.5 329.2,662.4 331.1,662.4 331.1,259.7 '/>
		<polygon fill = 'rgb( 31, 120, 180)' fill-opacity = '0.250000' points = '331.1,259.7 331.1,662.4 332.9,662.4 332.9,255.1 '/>
		<polygon fill = 'rgb( 31, 120, 180)' fill-opacity = '0.250000' points = '332.9,255.1 332.9,662.4 334.8,662.4 334.8,250.5 '/>
		<polygon fill = 'rgb( 31, 120, 180)' fill-opacity = '0.250000' points = '334.8,250.5 334.8,662.4 336.6,662.4 336.6,245.9 '/>
		<polygon fill = 'rgb( 31, 120, 180)' fill-opacity = '0.250000' points = '336.6,245.9 336.6,662.4 338.5,662.4 338.5,241.5 '/>
		<polygon fill = 'rgb( 31, 120, 180)' fill-opacity = '0.250000' points = '338.5,241.5 338.5,662.4 340.3,662.4 340.3,237.1 '/>
		<polygon fill = 'rgb( 31, 120, 180)' fill-opacity = '0.250000' points = '340.3,237.1 340.3,662.4 342.2,662.4 342.2,232.8 '/>
		<polygon fill = 'rgb( 31, 120, 180)' fill-opacity = '0.250000' points = '342.2,232.8 342.2,662.4 344.0,662.4 344.0,228.5 '/>
		<polygon fill = 'rgb( 31, 120, 180)' fill-opacity = '0.250000' points = '344.0,228.5 344.0,662.4 345.9,662.4 345.9,224.4 '/>
		<polygon fill = 'rgb( 31, 120, 180)' fill-opacity = '0.250000' points = '345.9,224.4 345.9,662.4 347.7,662.4 347.7,220.3 '/>
		<polygon fill = 'rgb( 31, 120, 180)' fill-opacity = '0.250000' points = '347.7,220.3 347.7,662.4 349.6,662.4 349.6,216.4 '/>
		<polygon fill = 'rgb( 31, 120, 180)' fill-opacity = '0.250000' points = '349.6,216.4 349.6,662.4 351.4,662.4 351.4,212.5 '/>
		<polygon fill = 'rgb( 31, 120, 180)' fill-opacity = '0.250000' points = '351.4,212.5 351.4,662.4 353.3,662.4 353.3,208.7 '/>
		<polygon fill = 'rgb( 31, 120, 180)' fill-opacity = '0.250000' points = '353.3,208.7 353.3,662.4 355.1,662.4 355.1,205.0 '/>
		<polygon fill = 'rgb( 31, 120, 180)' fill-opacity = '0.250000' points = '355.1,205.0 355.1,662.4 357.0,662.4 357.0,201.4 '/>
		<polygon fill = 'rgb( 31, 120, 180)' fill-opacity = '0.250000' points = '357.0,201.4 357.0,662.4 358.8,662.4 358.8,198.0 '/>
		<polygon fill = 'rgb( 31, 120, 180)' fill-opacity = '0.250000' points = '358.8,198.0 358.8,662.4 360.7,662.4 360.7,194.6 '/>
		<polygon fill = 'rgb( 31, 120, 180)' fill-opacity = '0.250000' points = '360.7,194.6 360.7,662.4 362.5,662.4 362.5,191.4 '/>
		<polygon fill = 'rgb( 31, 120, 180)' fill-opacity = '0.250000' points = '362.5,191.4 362.5,662.4 364.4,662.4 364.4,188.2 '/>
		<polygon fill = 'rgb( 31, 120, 180)' fill-opacity = '0.250000' points = '364.4,188.2 364.4,662.4 366.2,662.4 366.2,185.2 '/>
		<polygon fill = 'rgb( 31, 120, 180)' fill-opacity = '0.250000' points = '366.2,185.2 366.2,662.4 368.1,662.4 368.1,182.3 '/>
		<polygon fill = 'rgb( 31, 120, 180)' fill-opacity = '0.250000' points = '368.1,182.3 368.1,662.4 369.9,662.4 369.9,179.5 '/>
		<polygon fill = 'rgb( 31, 120, 180)' fill-opacity = '0.250000' points = '369.9,179.5 369.9,662.4 371.8,662.4 371.8,176.8 '/>
		<polygon fill = 'rgb( 31, 120, 180)' fill-opacity = '0.250000' points = '371.8,176.8 371.8,662.4 373.6,662.4 373.6,174.3 '/>
		<polygon fill = 'rgb( 31, 120, 180)' fill-opacity = '0.250000' points = '373.6,174.3 373.6,662.4 375.5,662.4 375.5,171.9 '/>
		<polygon fill = 'rgb( 31, 120, 180)' fill-opacity = '0.250000' points = '375.5,171.9 375.5,662.4 377.3,662.4 377.3,169.6 '/>
		<polygon fill = 'rgb( 31, 120, 180)' fill-opacity = '0.250000' points = '377.3,169.6 377.3,662.4 379.2,662.4 379.2,167.4 '/>
		<polygon fill = 'rgb( 31, 120, 180)' fill-opacity = '0.250000' points = '379.2,167.4 379.2,662.4 381.0,662.4 381.0,165.4 '/>
		<polygon fill = 'rgb( 31, 120, 180)' fill-opacity = '0.250000' points = '381.0,165.4 381.0,662.4 382.9,662.4 382.9,163.6 '/>
		<polygon fill = 'rgb( 31, 120, 180)' fill-opacity = '0.250000' points = '382.9,163.6 382.9,662.4 384.7,662.4 384.7,161.8 '/>
		<polygon fill = 'rgb( 31, 120, 180)' fill-opacity = '0.250000' points = '384.7,161.8 384.7,662.4 386.6,662.4 386.6,160.2 '/>
		<polygon fill = 'rgb( 31, 120, 180)' fill-opacity = '0.250000' points = '386.6,160.2 386.6,662.4 388.4,662.4 388.4,158.8 '/>
		<polygon fill = 'rgb( 31, 120, 180)' fill-opacity = '0.250000' points = '388.4,158.8 388.4,662.4 390.3,662.4 390.3,157.5 '/>
		<polygon fill = 'rgb( 31, 120, 180)' fill-opacity = '0.250000' points = '390.3,157.5 390.3,662.4 392.1,662.4 392.1,156.3 '/>
		<polygon fill = 'rgb( 31, 120, 180)' fill-opacity = '0.250000' points = '392.1,156.3 392.1,662.4 394.0,662.4 394.0,155.3 '/>
		<polygon fill = 'rgb( 31, 120, 180)' fill-opacity = '0.250000' points = '394.0,155.3 394.0,662.4 395.8,662.4 395.8,154.5 '/>
		<polygon fill = 'rgb( 31, 120, 180)' fill-opacity = '0.250000' points = '395.8,154.5 395.8,662.4 397.7,662.4 397.7,153.8 '/>
		<polygon fill = 'rgb( 31, 120, 180)' fill-opacity = '0.250000' points = '397.7,153.8 397.7,662.4 399.5,662.4 399.5,153.2 '/>
		<polygon fill = 'rgb( 31, 120, 180)' fill-opacity = '0.250000' points = '399.5,153.2 399.5,662.4 401.4,662.4 401.4,152.9 '/>
		<polygon fill = 'rgb( 31, 120, 180)' fill-opacity = '0.250000' points = '401.4,152.9 401.4,662.4 403.2,662.4 403.2,152.6 '/>
		<polygon fill = 'rgb( 31, 120, 180)' fill-opacity = '0.250000' points = '403.2,152.6 403.2,662.4 405.1,662.4 405.1,152.6 '/>
		<polygon fill = 'rgb( 31, 120, 180)' fill-opacity = '0.250000' points = '405.1,152.6 405.1,662.4 406.9,662.4 406.9,152.7 '/>
		<polygon fill = 'rgb( 31, 120, 180)' fill-opacity = '0.250000' points = '406.9,152.7 406.9,662.4 408.8,662.4 408.8,152.9 '/>
		<polygon fill = 'rgb( 31, 120, 180)' fill-opacity = '0.250000' points = '408.8,152.9 408.8,662.4 410.7,662.4 410.7,153.3 '/>
		<polygon fill = 'rgb( 31, 120, 180)' fill-opacity = '0.250000' points = '410.7,153.3 410.7,662.4 412.5,662.4 412.5,153.9 '/>
		<polygon fill = 'rgb( 31, 120, 180)' fill-opacity = '0.250000' points = '412.5,153.9 412.5,662.4 414.4,662.4 414.4,154.7 '/>
		<polygon fill = 'rgb( 31, 120, 180)' fill-opacity = '0.250000' points = '414.4,154.7 414.4,662.4 416.2,662.4 416.2,155.6 '/>
		<polygon fill = 'rgb( 31, 120, 180)' fill-opacity = '0.250000' points = '416.2,155.6 416.2,662.4 418.1,662.4 418.1,156.7 '/>
		<polygon fill = 'rgb( 31, 120, 180)' fill-opacity = '0.250000' points = '418.1,156.7 418.1,662.4 419.9,662.4 419.9,157.9 '/>
		<polygon fill = 'rgb( 31, 120, 180)' fill-opacity = '0.250000' points = '419.9,157.9 419.9,662.4 421.8,662.4 421.8,159.3 '/>
		<polygon fill = 'rgb( 31, 120, 180)' fill-opacity = '0.250000' points = '421.8,159.3 421.8,662.4 423.6,662.4 423.6,160.9 '/>
		<polygon fill = 'rgb( 31, 120, 180)' fill-opacity = '0.250000' points = '423.6,160.9 423.6,662.4 425.5,662.4 425.5,162.6 '/>
		<polygon fill = 'rgb( 31, 120, 180)' fill-opacity = '0.250000' points = '425.5,162.6 425.5,662.4 427.3,662.4 427.3,164.5 '/>
		<polygon fill = 'rgb( 31, 120, 180)' fill-opacity = '0.250000' points = '427.3,164.5 427.3,662.4 429.2,662.4 429.2,166.6 '/>
		<polygon fill = 'rgb( 31, 120, 180)' fill-opacity = '0.250000' points = '429.2,166.6 429.2,662.4 431.0,662.4 431.0,168.8 '/>
		<polygon fill = 'rgb( 31, 120, 180)' fill-opacity = '0.250000' points = '431.0,168.8 431.0,662.4 432.9,662.4 432.9,171.2 '/>
		<polygon fill = 'rgb( 31, 120, 180)' fill-opacity = '0.250000' points = '432.9,171.2 432.9,662.4 434.7,662.4 434.7,173.7 '/>
		<polygon fill = 'rgb( 31, 120, 180)' fill-opacity = '0.250000' points = '434.7,173.7 434.7,662.4 436.6,662.4 436.6,176.4 '/>
		<polygon fill = 'rgb( 31, 120, 180)' fill-opacity = '0.250000' points = '436.6,176.4 436.6,662.4 438.4,662.4 438.4,179.3 '/>
		<polygon fill = 'rgb( 31, 120, 180)' fill-opacity = '0.250000' points = '438.4,179.3 438.4,662.4 440.3,662.4 440.3,182.3 '/>
		<polygon fill = 'rgb( 31, 120, 180)' fill-opacity = '0.250000' points = '440.3,182.3 440.3,662.4 442.1,662.4 442.1,185.5 '/>
		<polygon fill = 'rgb( 31, 120, 180)' fill-opacity = '0.250000' points = '442.1,185.5 442.1,662.4 444.0,662.4 444.0,188.8 '/>
		<polygon fill = 'rgb( 31, 120, 180)' fill-opacity = '0.250000' points = '444.0,188.8 444.0,662.4 445.8,662.4 445.8,192.2 '/>
		<polygon fill = 'rgb( 31, 120, 180)' fill-opacity = '0.250000' points = '445.8,192.2 445.8,662.4 447.7,662.4 447.7,195.9 '/>
		<polygon fill = 'rgb( 31, 120, 180)' fill-opacity = '0.250000' points = '447.7,195.9 447.7,662.4 449.5,662.4 449.5,199.6 '/>
		<polygon fill = 'rgb( 31, 120, 180)' fill-opacity = '0.250000' points = '449.5,199.6 449.5,662.4 451.4,662.4 451.4,203.5 '/>
		<polygon fill = 'rgb( 31, 120, 180)' fill-opacity = '0.250000' points = '451.4,203.5 451.4,662.4 453.2,662.4 453.2,207.6 '/>
		<polygon fill = 'rgb( 31, 120, 180)' fill-opacity = '0.250000' points = '453.2,207.6 453.2,662.4 455.1,662.4 455.1,211.7 '/>
		<polygon fill = 'rgb( 31, 120, 180)' fill-opacity = '0.250000' points = '455.1,211.7 455.1,662.4 456.9,662.4 456.9,216.1 '/>
		<polygon fill = 'rgb( 31, 120, 180)' fill-opacity = '0.250000' points = '456.9,216.1 456.9,662.4 458.8,662.4 458.8,220.5 '/>
		<polygon fill = 'rgb( 31, 120, 180)' fill-opacity = '0.250000' points = '458.8,220.5 458.8,662.4 460.6,662.4 460.6,225.1 '/>
		<polygon fill = 'rgb( 31, 120, 180)' fill-opacity = '0.250000' points = '460.6,225.1 460.6,662.4 462.5,662.4 462.5,229.7 '/>
		<polygon fill = 'rgb( 31, 120, 180)' fill-opacity = '0.250000' points = '462.5,229.7 462.5,662.4 464.3,662.4 464.3,234.5 '/>
		<polygon fill = 'rgb( 31, 120, 180)' fill-opacity = '0.250000' points = '464.3,234.5 464.3,662.4 466.2,662.4 466.2,239.5 '/>
		<polygon fill = 'rgb( 31, 120, 180)' fill-opacity = '0.250000' points = '466.2,239.5 466.2,662.4 468.0,662.4 468.0,244.5 '/>
		<polygon fill = 'rgb( 31, 120, 180)' fill-opacity = '0.250000' points = '468.0,244.5 468.0,662.4 469.9,662.4 469.9,249.6 '/>
		<polygon fill = 'rgb( 31, 120, 180)' fill-opacity = '0.250000' points = '469.9,249.6 469.9,662.4 471.7,662.4 471.7,254.9 '/>
		<polygon fill = 'rgb( 31, 120, 180)' fill-opacity = '0.250000' points = '471.7,254.9 471.7,662.4 473.6,662.4 473.6,260.2 '/>
		<polygon fill = 'rgb( 31, 120, 180)' fill-opacity = '0.250000' points = '473.6,260.2 473.6,662.4 475.4,662.4 475.4,265.6 '/>
		<polygon fill = 'rgb( 31, 120, 180)' fill-opacity = '0.250000' points = '475.4,265.6 475.4,662.4 477.3,662.4 477.3,271.1 '/>
		<polygon fill = 'rgb( 31, 120, 180)' fill-opacity = '0.250000' points = '477.3,271.1 477.3,662.4 479.1,662.4 479.1,276.7 '/>
		<polygon fill = 'rgb( 31, 120, 180)' fill-opacity = '0.250000' points = '479.1,276.7 479.1,662.4 481.0,662.4 481.0,282.4 '/>
		<polygon fill = 'rgb( 31, 120, 180)' fill-opacity = '0.250000' points = '481.0,282.4 481.0,662.4 482.8,662.4 482.8,288.1 '/>
		<polygon fill = 'rgb( 31, 120, 180)' fill-opacity = '0.250000' points = '482.8,288.1 482.8,662.4 484.7,662.4 484.7,293.9 '/>
		<polygon fill = 'rgb( 31, 120, 180)' fill-opacity = '0.250000' points = '484.7,293.9 484.7,662.4 486.5,662.4 486.5,299.8 '/>
		<polygon fill = 'rgb( 31, 120, 180)' fill-opacity = '0.250000' points = '486.5,299.8 486.5,662.4 488.4,662.4 488.4,305.7 '/>
		<polygon fill = 'rgb( 31, 120, 180)' fill-opacity = '0.250000' points = '488.4,305.7 488.4,662.4 490.2,662.4 490.2,311.7 '/>
		<polygon fill = 'rgb( 31, 120, 180)' fill-opacity = '0.250000' points = '490.2,311.7 490.2,662.4 492.1,662.4 492.1,317.7 '/>
		<polygon fill = 'rgb( 31, 120, 180)' fill-opacity = '0.250000' points = '492.1,317.7 492.1,662.4 494.0,662.4 494.0,323.7 '/>
		<polygon fill = 'rgb( 31, 120, 180)' fill-opacity = '0.250000' points = '494.0,323.7 494.0,662.4 495.8,662.4 495.8,329.8 '/>
		<polygon fill = 'rgb( 31, 120, 180)' fill-opacity = '0.250000' points = '495.8,329.8 495.8,662.4 497.7,662.4 497.7,335.9 '/>
		<polygon fill = 'rgb( 31, 120, 180)' fill-opacity = '0.250000' points = '497.7,335.9 497.7,662.4 499.5,662.4 499.5,342.1 '/>
		<polygon fill = 'rgb( 31, 120, 180)' fill-opacity = '0.250000' points = '499.5,342.1 499.5,662.4 501.4,662.4 501.4,348.2 '/>
		<polygon fill = 'rgb( 31, 120, 180)' fill-opacity = '0.250000' points = '501.4,348.2 501.4,662.4 503.2,662.4 503.2,354.4 '/>
		<polygon fill = 'rgb( 31, 120, 180)' fill-opacity = '0.250000' points = '503.2,354.4 503.2,662.4 505.1,662.4 505.1,360.6 '/>
		<polygon fill = 'rgb( 31, 120, 180)' fill-opacity = '0.250000' points = '505.1,360.6 505.1,662.4 506.9,662.4 506.9,366.8 '/>
		<polygon fill = 'rgb( 31, 120, 180)' fill-opacity = '0.250000' points = '506.9,366.8 506.9,662.4 508.8,662.4 508.8,373.0 '/>
		<polygon fill = 'rgb( 31, 120, 180)' fill-opacity = '0.250000' points = '508.8,373.0 508.8,662.4 510.6,662.4 510.6,379.1 '/>
		<polygon fill = 'rgb( 31, 120, 180)' fill-opacity = '0.250000' points = '510.6,379.1 510.6,662.4 512.5,662.4 512.5,385.3 '/>
		<polygon fill = 'rgb( 31, 120, 180)' fill-opacity = '0.250000' points = '512.5,385.3 512.5,662.4 514.3,662.4 514.3,391.4 '/>
		<polygon fill = 'rgb( 31, 120, 180)' fill-opacity = '0.250000' points = '514.3,391.4 514.3,662.4 516.2,662.4 516.2,397.5 '/>
		<polygon fill = 'rgb( 31, 120, 180)' fill-opacity = '0.250000' points = '516.2,397.5 516.2,662.4 518.0,662.4 518.0,403.6 '/>
		<polygon fill = 'rgb( 31, 120, 180)' fill-opacity = '0.250000' points = '518.0,403.6 518.0,662.4 519.9,662.4 519.9,409.7 '/>
		<polygon fill = 'rgb( 31, 120, 180)' fill-opacity = '0.250000' points = '519.9,409.7 519.9,662.4 521.7,662.4 521.7,415.7 '/>
		<polygon fill = 'rgb( 31, 120, 180)' fill-opacity = '0.250000' points = '521.7,415.7 521.7,662.4 523.6,662.4 523.6,421.6 '/>
		<polygon fill = 'rgb( 31, 120, 180)' fill-opacity = '0.250000' points = '523.6,421.6 523.6,662.4 525.4,662.4 525.4,427.5 '/>
		<polygon fill = 'rgb( 31, 120, 180)' fill-opacity = '0.250000' points = '525.4,427.5 525.4,662.4 527.3,662.4 527.3,433.4 '/>
		<polygon fill = 'rgb( 31, 120, 180)' fill-opacity = '0.250000' points = '527.3,433.4 527.3,662.4 529.1,662.4 529.1,439.2 '/>
		<polygon fill = 'rgb( 31, 120, 180)' fill-opacity = '0.250000' points = '529.1,439.2 529.1,662.4 531.0,662.4 531.0,444.9 '/>
		<polygon fill = 'rgb( 31, 120, 180)' fill-opacity = '0.250000' points = '531.0,444.9 531.0,662.4 532.8,662.4 532.8,450.6 '/>
		<polygon fill = 'rgb( 31, 120, 180)' fill-opacity = '0.250000' points = '532.8,450.6 532.8,662.4 534.7,662.4 534.7,456.2 '/>
		<polygon fill = 'rgb( 31, 120, 180)' fill-opacity = '0.250000' points = '534.7,456.2 534.7,662.4 536.5,662.4 536.5,461.7 '/>
		<polygon fill = 'rgb( 31, 120, 180)' fill-opacity = '0.250000' points = '536.5,461.7 536.5,662.4 538.4,662.4 538.4,467.2 '/>
		<polygon fill = 'rgb( 31, 120, 180)' fill-opacity = '0.250000' points = '538.4,467.2 538.4,662.4 540.2,662.4 540.2,472.6 '/>
		<polygon fill = 'rgb( 31, 120, 180)' fill-opacity = '0.250000' points = '540.2,472.6 540.2,662.4 542.1,662.4 542.1,477.8 '/>
		<polygon fill = 'rgb( 31, 120, 180)' fill-opacity = '0.250000' points = '542.1,477.8 542.1,662.4 543.9,662.4 543.9,483.0 '/>
		<polygon fill = 'rgb( 31, 120, 180)' fill-opacity = '0.250000' points = '543.9,483.0 543.9,662.4 545.8,662.4 545.8,488.1 '/>
		<polygon fill = 'rgb( 31, 120, 180)' fill-opacity = '0.250000' points = '545.8,488.1 545.8,662.4 547.6,662.4 547.6,493.2 '/>
		<polygon fill = 'rgb( 31, 120, 180)' fill-opacity = '0.250000' points = '547.6,493.2 547.6,662.4 549.5,662.4 549.5,498.1 '/>
		<polygon fill = 'rgb( 31, 120, 180)' fill-opacity = '0.250000' points = '549.5,498.1 549.5,662.4 551.3,662.4 551.3,502.9 '/>
		<polygon fill = 'rgb( 31, 120, 180)' fill-opacity = '0.250000' points = '551.3,502.9 551.3,662.4 553.2,662.4 553.2,507.6 '/>
		<polygon fill = 'rgb( 31, 120, 180)' fill-opacity = '0.250000' points = '553.2,507.6 553.2,662.4 555.0,662.4 555.0,512.2 '/>
		<polygon fill = 'rgb( 31, 120, 180)' fill-opacity = '0.250000' points = '555.0,512.2 555.0,662.4 556.9,662.4 556.9,516.7 '/>
		<polygon fill = 'rgb( 31, 120, 180)' fill-opacity = '0.250000' points = '556.9,516.7 556.9,662.4 558.7,662.4 558.7,521.1 '/>
		<polygon fill = 'rgb( 31, 120, 180)' fill-opacity = '0.250000' points = '558.7,521.1 558.7,662.4 560.6,662.4 560.6,525.4 '/>
		<polygon fill = 'rgb( 31, 120, 180)' fill-opacity = '0.250000' points = '560.6,525.4 560.6,662.4 562.4,662.4 562.4,529.5 '/>
		<polygon fill = 'rgb( 31, 120, 180)' fill-opacity = '0.250000' points = '562.4,529.5 562.4,662.4 564.3,662.4 564.3,533.6 '/>
		<polygon fill = 'rgb( 31, 120, 180)' fill-opacity = '0.250000' points = '564.3,533.6 564.3,662.4 566.1,662.4 566.1,537.5 '/>
		<polygon fill = 'rgb( 31, 120, 180)' fill-opacity = '0.250000' points = '566.1,537.5 566.1,662.4 568.0,662.4 568.0,541.4 '/>
		<polygon fill = 'rgb( 31, 120, 180)' fill-opacity = '0.250000' points = '568.0,541.4 568.0,662.4 569.8,662.4 569.8,545.1 '/>
		<polygon fill = 'rgb( 31, 120, 180)' fill-opacity = '0.250000' points = '569.8,545.1 569.8,662.4 571.7,662.4 571.7,548.7 '/>
		<polygon fill = 'rgb( 31, 120, 180)' fill-opacity = '0.250000' points = '571.7,548.7 571.7,662.4 573.5,662.4 573.5,552.2 '/>
		<polygon fill = 'rgb( 31, 120, 180)' fill-opacity = '0.250000' points = '573.5,552.2 573.5,662.4 575.4,662.4 575.4,555.5 '/>
		<polygon fill = 'rgb( 31, 120, 180)' fill-opacity = '0.250000' points = '575.4,555.5 575.4,662.4 577.3,662.4 577.3,558.8 '/>
		<polygon fill = 'rgb( 31, 120, 180)' fill-opacity = '0.250000' points = '577.3,558.8 577.3,662.4 579.1,662.4 579.1,561.9 '/>
		<polygon fill = 'rgb( 31, 120, 180)' fill-opacity = '0.250000' points = '579.1,561.9 579.1,662.4 581.0,662.4 581.0,565.0 '/>
		<polygon fill = 'rgb( 31, 120, 180)' fill-opacity = '0.250000' points = '581.0,565.0 581.0,662.4 582.8,662.4 582.8,567.9 '/>
		<polygon fill = 'rgb( 31, 120, 180)' fill-opacity = '0.250000' points = '582.8,567.9 582.8,662.4 584.7,662.4 584.7,570.7 '/>
		<polygon fill = 'rgb( 31, 120, 180)' fill-opacity = '0.250000' points = '584.7,570.7 584.7,662.4 586.5,662.4 586.5,573.3 '/>
		<polygon fill = 'rgb( 31, 120, 180)' fill-opacity = '0.250000' points = '586.5,573.3 586.5,662.4 588.4,662.4 588.4,575.9 '/>
		<polygon fill = 'rgb( 31, 120, 180)' fill-opacity = '0.250000' points = '588.4,575.9 588.4,662.4 590.2,662.4 590.2,578.3 '/>
		<polygon fill = 'rgb( 31, 120, 180)' fill-opacity = '0.250000' points = '590.2,578.3 590.2,662.4 592.1,662.4 592.1,580.7 '/>
		<polygon fill = 'rgb( 31, 120, 180)' fill-opacity = '0.250000' points = '592.1,580.7 592.1,662.4 593.9,662.4 593.9,582.9 '/>
		<polygon fill = 'rgb( 31, 120, 180)' fill-opacity = '0.250000' points = '593.9,582.9 593.9,662.4 595.8,662.4 595.8,585.0 '/>
		<polygon fill = 'rgb( 31, 120, 180)' fill-opacity = '0.250000' points = '595.8,585.0 595.8,662.4 597.6,662.4 597.6,587.1 '/>
		<polygon fill = 'rgb( 31, 120, 180)' fill-opacity = '0.250000' points = '597.6,587.1 597.6,662.4 599.5,662.4 599.5,589.0 '/>
		<polygon fill = 'rgb( 31, 120, 180)' fill-opacity = '0.250000' points = '599.5,589.0 599.5,662.4 601.3,662.4 601.3,590.8 '/>
		<polygon fill = 'rgb( 31, 120, 180)' fill-opacity = '0.250000' points = '601.3,590.8 601.3,662.4 603.2,662.4 603.2,592.5 '/>
		<polygon fill = 'rgb( 31, 120, 180)' fill-opacity = '0.250000' points = '603.2,592.5 603.2,662.4 605.0,662.4 605.0,594.1 '/>
		<polygon fill = 'rgb( 31, 120, 180)' fill-opacity = '0.250000' points = '605.0,594.1 605.0,662.4 606.9,662.4 606.9,595.6 '/>
		<polygon fill = 'rgb( 31, 120, 180)' fill-opacity = '0.250000' points = '606.9,595.6 606.9,662.4 608.7,662.4 608.7,597.0 '/>
		<polygon fill = 'rgb( 31, 120, 180)' fill-opacity = '0.250000' points = '608.7,597.0 608.7,662.4 610.6,662.4 610.6,598.4 '/>
		<polygon fill = 'rgb( 31, 120, 180)' fill-opacity = '0.250000' points = '610.6,598.4 610.6,662.4 612.4,662.4 612.4,599.6 '/>
		<polygon fill = 'rgb( 31, 120, 180)' fill-opacity = '0.250000' points = '612.4,599.6 612.4,662.4 614.3,662.4 614.3,600.8 '/>
		<polygon fill = 'rgb( 31, 120, 180)' fill-opacity = '0.250000' points = '614.3,600.8 614.3,662.4 616.1,662.4 616.1,601.8 '/>
		<polygon fill = 'rgb( 31, 120, 180)' fill-opacity = '0.250000' points = '616.1,601.8 616.1,662.4 618.0,662.4 618.0,602.8 '/>
		<polygon fill = 'rgb( 31, 120, 180)' fill-opacity = '0.250000' points = '618.0,602.8 618.0,662.4 619.8,662.4 619.8,603.7 '/>
		<polygon fill = 'rgb( 31, 120, 180)' fill-opacity = '0.250000' points = '619.8,603.7 619.8,662.4 621.7,662.4 621.7,604.5 '/>
		<polygon fill = 'rgb( 31, 120, 180)' fill-opacity = '0.250000' points = '621.7,604.5 621.7,662.4 623.5,662.4 623.5,605.3 '/>
		<polygon fill = 'rgb( 31, 120, 180)' fill-opacity = '0.250000' points = '623.5,605.3 623.5,662.4 625.4,662.4 625.4,605.9 '/>
		<polygon fill = 'rgb( 31, 120, 180)' fill-opacity = '0.250000' points = '625.4,605.9 625.4,662.4 627.2,662.4 627.2,606.5 '/>
		<polygon fill = 'rgb( 31, 120, 180)' fill-opacity = '0.250000' points = '627.2,606.5 627.2,662.4 629.1,662.4 629.1,607.1 '/>
		<polygon fill = 'rgb( 31, 120, 180)' fill-opacity = '0.250000' points = '629.1,607.1 629.1,662.4 630.9,662.4 630.9,607.5 '/>
		<polygon fill = 'rgb( 31, 120, 180)' fill-opacity = '0.250000' points = '630.9,607.5 630.9,662.4 632.8,662.4 632.8,607.9 '/>
		<polygon fill = 'rgb( 31, 120, 180)' fill-opacity = '0.250000' points = '632.8,607.9 632.8,662.4 634.6,662.4 634.6,608.3 '/>
		<polygon fill = 'rgb( 31, 120, 180)' fill-opacity = '0.250000' points = '634.6,608.3 634.6,662.4 636.5,662.4 636.5,608.6 '/>
		<polygon fill = 'rgb( 31, 120, 180)' fill-opacity = '0.250000' points = '636.5,608.6 636.5,662.4 638.3,662.4 638.3,608.8 '/>
		<polygon fill = 'rgb( 31, 120, 180)' fill-opacity = '0.250000' points = '638.3,608.8 638.3,662.4 640.2,662.4 640.2,609.0 '/>
		<polygon fill = 'rgb( 31, 120, 180)' fill-opacity = '0.250000' points = '640.2,609.0 640.2,662.4 642.0,662.4 642.0,609.1 '/>
		<polygon fill = 'rgb( 31, 120, 180)' fill-opacity = '0.250000' points = '642.0,609.1 642.0,662.4 643.9,662.4 643.9,609.2 '/>
		<polygon fill = 'rgb( 31, 120, 180)' fill-opacity = '0.250000' points = '643.9,609.2 643.9,662.4 645.7,662.4 645.7,609.2 '/>
		<polygon fill = 'rgb( 31, 120, 180)' fill-opacity = '0.250000' points = '645.7,609.2 645.7,662.4 647.6,662.4 647.6,609.2 '/>
		<polygon fill = 'rgb( 31, 120, 180)' fill-opacity = '0.250000' points = '647.6,609.2 647.6,662.4 649.4,662.4 649.4,609.2 '/>
		<polygon fill = 'rgb( 31, 120, 180)' fill-opacity = '0.250000' points = '649.4,609.2 649.4,662.4 651.3,662.4 651.3,609.1 '/>
		<polygon fill = 'rgb( 31, 120, 180)' fill-opacity = '0.250000' points = '651.3,609.1 651.3,662.4 653.1,662.4 653.1,609.0 '/>
		<polygon fill = 'rgb( 31, 120, 180)' fill-opacity = '0.250000' points = '653.1,609.0 653.1,662.4 655.0,662.4 655.0,608.9 '/>
		<polygon fill = 'rgb( 31, 120, 180)' fill-opacity = '0.250000' points = '655.0,608.9 655.0,662.4 656.8,662.4 656.8,608.7 '/>
		<polygon fill = 'rgb( 31, 120, 180)' fill-opacity = '0.250000' points = '656.8,608.7 656.8,662.4 658.7,662.4 658.7,608.5 '/>
		<polygon fill = 'rgb( 31, 120, 180)' fill-opacity = '0.250000' points = '658.7,608.5 658.7,662.4 660.6,662.4 660.6,608.3 '/>
		<polygon fill = 'rgb( 31, 120, 180)' fill-opacity = '0.250000' points = '660.6,608.3 660.6,662.4 662.4,662.4 662.4,608.1 '/>
		<polygon fill = 'rgb( 31, 120, 180)' fill-opacity = '0.250000' points = '662.4,608.1 662.4,662.4 664.3,662.4 664.3,607.8 '/>
		<polygon fill = 'rgb( 31, 120, 180)' fill-opacity = '0.250000' points = '664.3,607.8 664.3,662.4 666.1,662.4 666.1,607.5 '/>
		<polygon fill = 'rgb( 31, 120, 180)' fill-opacity = '0.250000' points = '666.1,607.5 666.1,662.4 668.0,662.4 668.0,607.2 '/>
		<polygon fill = 'rgb( 31, 120, 180)' fill-opacity = '0.250000' points = '668.0,607.2 668.0,662.4 669.8,662.4 669.8,606.9 '/>
		<polygon fill = 'rgb( 31, 120, 180)' fill-opacity = '0.250000' points = '669.8,606.9 669.8,662.4 671.7,662.4 671.7,606.6 '/>
		<polygon fill = 'rgb( 31, 120, 180)' fill-opacity = '0.250000' points = '671.7,606.6 671.7,662.4 673.5,662.4 673.5,606.2 '/>
		<polygon fill = 'rgb( 31, 120, 180)' fill-opacity = '0.250000' points = '673.5,606.2 673.5,662.4 675.4,662.4 675.4,605.9 '/>
		<polygon fill = 'rgb( 31, 120, 180)' fill-opacity = '0.250000' points = '675.4,605.9 675.4,662.4 677.2,662.4 677.2,605.5 '/>
		<polygon fill = 'rgb( 31, 120, 180)' fill-opacity = '0.250000' points = '677.2,605.5 677.2,662.4 679.1,662.4 679.1,605.2 '/>
		<polygon fill = 'rgb( 31, 120, 180)' fill-opacity = '0.250000' points = '679.1,605.2 679.1,662.4 680.9,662.4 680.9,604.8 '/>
		<polygon fill = 'rgb( 31, 120, 180)' fill-opacity = '0.250000' points = '680.9,604.8 680.9,662.4 682.8,662.4 682.8,604.5 '/>
		<polygon fill = 'rgb( 31, 120, 180)' fill-opacity = '0.250000' points = '682.8,604.5 682.8,662.4 684.6,662.4 684.6,604.1 '/>
		<polygon fill = 'rgb( 31, 120, 180)' fill-opacity = '0.250000' points = '684.6,604.1 684.6,662.4 686.5,662.4 686.5,603.8 '/>
		<polygon fill = 'rgb( 31, 120, 180)' fill-opacity = '0.250000' points = '686.5,603.8 686.5,662.4 688.3,662.4 688.3,603.4 '/>
		<polygon fill = 'rgb( 31, 120, 180)' fill-opacity = '0.250000' points = '688.3,603.4 688.3,662.4 690.2,662.4 690.2,603.0 '/>
		<polygon fill = 'rgb( 31, 120, 180)' fill-opacity = '0.250000' points = '690.2,603.0 690.2,662.4 692.0,662.4 692.0,602.7 '/>
		<polygon fill = 'rgb( 31, 120, 180)' fill-opacity = '0.250000' points = '692.0,602.7 692.0,662.4 693.9,662.4 693.9,602.4 '/>
		<polygon fill = 'rgb( 31, 120, 180)' fill-opacity = '0.250000' points = '693.9,602.4 693.9,662.4 695.7,662.4 695.7,602.0 '/>
		<polygon fill = 'rgb( 31, 120, 180)' fill-opacity = '0.250000' points = '695.7,602.0 695.7,662.4 697.6,662.4 697.6,601.7 '/>
		<polygon fill = 'rgb( 31, 120, 180)' fill-opacity = '0.250000' points = '697.6,601.7 697.6,662.4 699.4,662.4 699.4,601.4 '/>
		<polygon fill = 'rgb( 31, 120, 180)' fill-opacity = '0.250000' points = '699.4,601.4 699.4,662.4 701.3,662.4 701.3,601.1 '/>
		<polygon fill = 'rgb( 31, 120, 180)' fill-opacity = '0.250000' points = '701.3,601.1 701.3,662.4 703.1,662.4 703.1,600.8 '/>
		<polygon fill = 'rgb( 31, 120, 180)' fill-opacity = '0.250000' points = '703.1,600.8 703.1,662.4 705.0,662.4 705.0,600.5 '/>
		<polygon fill = 'rgb( 31, 120, 180)' fill-opacity = '0.250000' points = '705.0,600.5 705.0,662.4 706.8,662.4 706.8,600.3 '/>
		<polygon fill = 'rgb( 31, 120, 180)' fill-opacity = '0.250000' points = '706.8,600.3 706.8,662.4 708.7,662.4 708.7,600.0 '/>
		<polygon fill = 'rgb( 31, 120, 180)' fill-opacity = '0.250000' points = '708.7,600.0 708.7,662.4 710.5,662.4 710.5,599.8 '/>
		<polygon fill = 'rgb( 31, 120, 180)' fill-opacity = '0.250000' points = '710.5,599.8 710.5,662.4 712.4,662.4 712.4,599.6 '/>
		<polygon fill = 'rgb( 31, 120, 180)' fill-opacity = '0.250000' points = '712.4,599.6 712.4,662.4 714.2,662.4 714.2,599.4 '/>
		<polygon fill = 'rgb( 31, 120, 180)' fill-opacity = '0.250000' points = '714.2,599.4 714.2,662.4 716.1,662.4 716.1,599.2 '/>
		<polygon fill = 'rgb( 31, 120, 180)' fill-opacity = '0.250000' points = '716.1,599.2 716.1,662.4 717.9,662.4 717.9,599.0 '/>
		<polygon fill = 'rgb( 31, 120, 180)' fill-opacity = '0.250000' points = '717.9,599.0 717.9,662.4 719.8,662.4 719.8,598.9 '/>
		<polygon fill = 'rgb( 31, 120, 180)' fill-opacity = '0.250000' points = '719.8,598.9 719.8,662.4 721.6,662.4 721.6,598.7 '/>
		<polygon fill = 'rgb( 31, 120, 180)' fill-opacity = '0.250000' points = '721.6,598.7 721.6,662.4 723.5,662.4 723.5,598.6 '/>
		<polygon fill = 'rgb( 31, 120, 180)' fill-opacity = '0.250000' points = '723.5,598.6 723.5,662.4 725.3,662.4 725.3,598.5 '/>
		<polygon fill = 'rgb( 31, 120, 180)' fill-opacity = '0.250000' points = '725.3,598.5 725.3,662.4 727.2,662.4 727.2,598.5 '/>
		<polygon fill = 'rgb( 31, 120, 180)' fill-opacity = '0.250000' points = '727.2,598.5 727.2,662.4 729.0,662.4 729.0,598.4 '/>
		<polygon fill = 'rgb( 31, 120, 180)' fill-opacity = '0.250000' points = '729.0,598.4 729.0,662.4 730.9,662.4 730.9,598.4 '/>
		<polygon fill = 'rgb( 31, 120, 180)' fill-opacity = '0.250000' points = '730.9,598.4 730.9,662.4 732.7,662.4 732.7,598.4 '/>
		<polygon fill = 'rgb( 31, 120, 180)' fill-opacity = '0.250000' points = '732.7,598.4 732.7,662.4 734.6,662.4 734.6,598.4 '/>
		<polygon fill = 'rgb( 31, 120, 180)' fill-opacity = '0.250000' points = '734.6,598.4 734.6,662.4 736.4,662.4 736.4,598.4 '/>
		<polygon fill = 'rgb( 31, 120, 180)' fill-opacity = '0.250000' points = '736.4,598.4 736.4,662.4 738.3,662.4 738.3,598.5 '/>
		<polygon fill = 'rgb( 31, 120, 180)' fill-opacity = '0.250000' points = '738.3,598.5 738.3,662.4 740.1,662.4 740.1,598.6 '/>
		<polygon fill = 'rgb( 31, 120, 180)' fill-opacity = '0.250000' points = '740.1,598.6 740.1,662.4 742.0,662.4 742.0,598.7 '/>
		<polygon fill = 'rgb( 31, 120, 180)' fill-opacity = '0.250000' points = '742.0,598.7 742.0,662.4 743.9,662.4 743.9,598.8 '/>
		<polygon fill = 'rgb( 31, 120, 180)' fill-opacity = '0.250000' points = '743.9,598.8 743.9,662.4 745.7,662.4 745.7,599.0 '/>
		<polygon fill = 'rgb( 31, 120, 180)' fill-opacity = '0.250000' points = '745.7,599.0 745.7,662.4 747.6,662.4 747.6,599.1 '/>
		<polygon fill = 'rgb( 31, 120, 180)' fill-opacity = '0.250000' points = '747.6,599.1 747.6,662.4 749.4,662.4 749.4,599.3 '/>
		<polygon fill = 'rgb( 31, 120, 180)' fill-opacity = '0.250000' points = '749.4,599.3 749.4,662.4 751.3,662.4 751.3,599.5 '/>
		<polygon fill = 'rgb( 31, 120, 180)' fill-opacity = '0.250000' points = '751.3,599.5 751.3,662.4 753.1,662.4 753.1,599.8 '/>
		<polygon fill = 'rgb( 31, 120, 180)' fill-opacity = '0.250000' points = '753.1,599.8 753.1,662.4 755.0,662.4 755.0,600.0 '/>
		<polygon fill = 'rgb( 31, 120, 180)' fill-opacity = '0.250000' points = '755.0,600.0 755.0,662.4 756.8,662.4 756.8,600.3 '/>
		<polygon fill = 'rgb( 31, 120, 180)' fill-opacity = '0.250000' points = '756.8,600.3 756.8,662.4 758.7,662.4 758.7,600.6 '/>
		<polygon fill = 'rgb( 31, 120, 180)' fill-opacity = '0.250000' points = '758.7,600.6 758.7,662.4 760.5,662.4 760.5,600.9 '/>
		<polygon fill = 'rgb( 31, 120, 180)' fill-opacity = '0.250000' points = '760.5,600.9 760.5,662.4 762.4,662.4 762.4,601.3 '/>
		<polygon fill = 'rgb( 31, 120, 180)' fill-opacity = '0.250000' points = '762.4,601.3 762.4,662.4 764.2,662.4 764.2,601.7 '/>
		<polygon fill = 'rgb( 31, 120, 180)' fill-opacity = '0.250000' points = '764.2,601.7 764.2,662.4 766.1,662.4 766.1,602.0 '/>
		<polygon fill = 'rgb( 31, 120, 180)' fill-opacity = '0.250000' points = '766.1,602.0 766.1,662.4 767.9,662.4 767.9,602.5 '/>
		<polygon fill = 'rgb( 31, 120, 180)' fill-opacity = '0.250000' points = '767.9,602.5 767.9,662.4 769.8,662.4 769.8,602.9 '/>
		<polygon fill = 'rgb( 31, 120, 180)' fill-opacity = '0.250000' points = '769.8,602.9 769.8,662.4 771.6,662.4 771.6,603.3 '/>
		<polygon fill = 'rgb( 31, 120, 180)' fill-opacity = '0.250000' points = '771.6,603.3 771.6,662.4 773.5,662.4 773.5,603.8 '/>
		<polygon fill = 'rgb( 31, 120, 180)' fill-opacity = '0.250000' points = '773.5,603.8 773.5,662.4 775.3,662.4 775.3,604.3 '/>
		<polygon fill = 'rgb( 31, 120, 180)' fill-opacity = '0.250000' points = '775.3,604.3 775.3,662.4 777.2,662.4 777.2,604.8 '/>
		<polygon fill = 'rgb( 31, 120, 180)' fill-opacity = '0.250000' points = '777.2,604.8 777.2,662.4 779.0,662.4 779.0,605.4 '/>
		<polygon fill = 'rgb( 31, 120, 180)' fill-opacity = '0.250000' points = '779.0,605.4 779.0,662.4 780.9,662.4 780.9,605.9 '/>
		<polygon fill = 'rgb( 31, 120, 180)' fill-opacity = '0.250000' points = '780.9,605.9 780.9,662.4 782.7,662.4 782.7,606.5 '/>
		<polygon fill = 'rgb( 31, 120, 180)' fill-opacity = '0.250000' points = '782.7,606.5 782.7,662.4 784.6,662.4 784.6,607.1 '/>
		<polygon fill = 'rgb( 31, 120, 180)' fill-opacity = '0.250000' points = '784.6,607.1 784.6,662.4 786.4,662.4 786.4,607.7 '/>
		<polygon fill = 'rgb( 31, 120, 180)' fill-opacity = '0.250000' points = '786.4,607.7 786.4,662.4 788.3,662.4 788.3,608.3 '/>
		<polygon fill = 'rgb( 31, 120, 180)' fill-opacity = '0.250000' points = '788.3,608.3 788.3,662.4 790.1,662.4 790.1,608.9 '/>
		<polygon fill = 'rgb( 31, 120, 180)' fill-opacity = '0.250000' points = '790.1,608.9 790.1,662.4 792.0,662.4 792.0,609.6 '/>
		<polygon fill = 'rgb( 31, 120, 180)' fill-opacity = '0.250000' points = '792.0,609.6 792.0,662.4 793.8,662.4 793.8,610.2 '/>
		<polygon fill = 'rgb( 31, 120, 180)' fill-opacity = '0.250000' points = '793.8,610.2 793.8,662.4 795.7,662.4 795.7,610.9 '/>
		<polygon fill = 'rgb( 31, 120, 180)' fill-opacity = '0.250000' points = '795.7,610.9 795.7,662.4 797.5,662.4 797.5,611.6 '/>
		<polygon fill = 'rgb( 31, 120, 180)' fill-opacity = '0.250000' points = '797.5,611.6 797.5,662.4 799.4,662.4 799.4,612.3 '/>
		<polygon fill = 'rgb( 31, 120, 180)' fill-opacity = '0.250000' points = '799.4,612.3 799.4,662.4 801.2,662.4 801.2,613.1 '/>
		<polygon fill = 'rgb( 31, 120, 180)' fill-opacity = '0.250000' points = '801.2,613.1 801.2,662.4 803.1,662.4 803.1,613.8 '/>
		<polygon fill = 'rgb( 31, 120, 180)' fill-opacity = '0.250000' points = '803.1,613.8 803.1,662.4 804.9,662.4 804.9,614.6 '/>
		<polygon fill = 'rgb( 31, 120, 180)' fill-opacity = '0.250000' points = '804.9,614.6 804.9,662.4 806.8,662.4 806.8,615.3 '/>
		<polygon fill = 'rgb( 31, 120, 180)' fill-opacity = '0.250000' points = '806.8,615.3 806.8,662.4 808.6,662.4 808.6,616.1 '/>
		<polygon fill = 'rgb( 31, 120, 180)' fill-opacity = '0.250000' points = '808.6,616.1 808.6,662.4 810.5,662.4 810.5,616.9 '/>
		<polygon fill = 'rgb( 31, 120, 180)' fill-opacity = '0.250000' points = '810.5,616.9 810.5,662.4 812.3,662.4 812.3,617.6 '/>
		<polygon fill = 'rgb( 31, 120, 180)' fill-opacity = '0.250000' points = '812.3,617.6 812.3,662.4 814.2,662.4 814.2,618.4 '/>
		<polygon fill = 'rgb( 31, 120, 180)' fill-opacity = '0.250000' points = '814.2,618.4 814.2,662.4 816.0,662.4 816.0,619.2 '/>
		<polygon fill = 'rgb( 31, 120, 180)' fill-opacity = '0.250000' points = '816.0,619.2 816.0,662.4 817.9,662.4 817.9,620.1 '/>
		<polygon fill = 'rgb( 31, 120, 180)' fill-opacity = '0.250000' points = '817.9,620.1 817.9,662.4 819.7,662.4 819.7,620.9 '/>
		<polygon fill = 'rgb( 31, 120, 180)' fill-opacity = '0.250000' points = '819.7,620.9 819.7,662.4 821.6,662.4 821.6,621.7 '/>
		<polygon fill = 'rgb( 31, 120, 180)' fill-opacity = '0.250000' points = '821.6,621.7 821.6,662.4 823.4,662.4 823.4,622.5 '/>
		<polygon fill = 'rgb( 31, 120, 180)' fill-opacity = '0.250000' points = '823.4,622.5 823.4,662.4 825.3,662.4 825.3,623.3 '/>
		<polygon fill = 'rgb( 31, 120, 180)' fill-opacity = '0.250000' points = '825.3,623.3 825.3,662.4 827.1,662.4 827.1,624.2 '/>
		<polygon fill = 'rgb( 31, 120, 180)' fill-opacity = '0.250000' points = '827.1,624.2 827.1,662.4 829.0,662.4 829.0,625.0 '/>
		<polygon fill = 'rgb( 31, 120, 180)' fill-opacity = '0.250000' points = '829.0,625.0 829.0,662.4 830.9,662.4 830.9,625.8 '/>
		<polygon fill = 'rgb( 31, 120, 180)' fill-opacity = '0.250000' points = '830.9,625.8 830.9,662.4 832.7,662.4 832.7,626.7 '/>
		<polygon fill = 'rgb( 31, 120, 180)' fill-opacity = '0.250000' points = '832.7,626.7 832.7,662.4 834.6,662.4 834.6,627.5 '/>
		<polygon fill = 'rgb( 31, 120, 180)' fill-opacity = '0.250000' points = '834.6,627.5 834.6,662.4 836.4,662.4 836.4,628.3 '/>
		<polygon fill = 'rgb( 31, 120, 180)' fill-opacity = '0.250000' points = '836.4,628.3 836.4,662.4 838.3,662.4 838.3,629.2 '/>
		<polygon fill = 'rgb( 31, 120, 180)' fill-opacity = '0.250000' points = '838.3,629.2 838.3,662.4 840.1,662.4 840.1,630.0 '/>
		<polygon fill = 'rgb( 31, 120, 180)' fill-opacity = '0.250000' points = '840.1,630.0 840.1,662.4 842.0,662.4 842.0,630.8 '/>
		<polygon fill = 'rgb( 31, 120, 180)' fill-opacity = '0.250000' points = '842.0,630.8 842.0,662.4 843.8,662.4 843.8,631.6 '/>
		<polygon fill = 'rgb( 31, 120, 180)' fill-opacity = '0.250000' points = '843.8,631.6 843.8,662.4 845.7,662.4 845.7,632.5 '/>
		<polygon fill = 'rgb( 31, 120, 180)' fill-opacity = '0.250000' points = '845.7,632.5 845.7,662.4 847.5,662.4 847.5,633.3 '/>
		<polygon fill = 'rgb( 31, 120, 180)' fill-opacity = '0.250000' points = '847.5,633.3 847.5,662.4 849.4,662.4 849.4,634.1 '/>
		<polygon fill = 'rgb( 31, 120, 180)' fill-opacity = '0.250000' points = '849.4,634.1 849.4,662.4 851.2,662.4 851.2,634.9 '/>
		<polygon fill = 'rgb( 31, 120, 180)' fill-opacity = '0.250000' points = '851.2,634.9 851.2,662.4 853.1,662.4 853.1,635.7 '/>
		<polygon fill = 'rgb( 31, 120, 180)' fill-opacity = '0.250000' points = '853.1,635.7 853.1,662.4 854.9,662.4 854.9,636.4 '/>
		<polygon fill = 'rgb( 31, 120, 180)' fill-opacity = '0.250000' points = '854.9,636.4 854.9,662.4 856.8,662.4 856.8,637.2 '/>
		<polygon fill = 'rgb( 31, 120, 180)' fill-opacity = '0.250000' points = '856.8,637.2 856.8,662.4 858.6,662.4 858.6,638.0 '/>
		<polygon fill = 'rgb( 31, 120, 180)' fill-opacity = '0.250000' points = '858.6,638.0 858.6,662.4 860.5,662.4 860.5,638.7 '/>
		<polygon fill = 'rgb( 31, 120, 180)' fill-opacity = '0.250000' points = '860.5,638.7 860.5,662.4 862.3,662.4 862.3,639.5 '/>
		<polygon fill = 'rgb( 31, 120, 180)' fill-opacity = '0.250000' points = '862.3,639.5 862.3,662.4 864.2,662.4 864.2,640.2 '/>
		<polygon fill = 'rgb( 31, 120, 180)' fill-opacity = '0.250000' points = '864.2,640.2 864.2,662.4 866.0,662.4 866.0,640.9 '/>
		<polygon fill = 'rgb( 31, 120, 180)' fill-opacity = '0.250000' points = '866.0,640.9 866.0,662.4 867.9,662.4 867.9,641.7 '/>
		<polygon fill = 'rgb( 31, 120, 180)' fill-opacity = '0.250000' points = '867.9,641.7 867.9,662.4 869.7,662.4 869.7,642.4 '/>
		<polygon fill = 'rgb( 31, 120, 180)' fill-opacity = '0.250000' points = '869.7,642.4 869.7,662.4 871.6,662.4 871.6,643.0 '/>
		<polygon fill = 'rgb( 31, 120, 180)' fill-opacity = '0.250000' points = '871.6,643.0 871.6,662.4 873.4,662.4 873.4,643.7 '/>
		<polygon fill = 'rgb( 31, 120, 180)' fill-opacity = '0.250000' points = '873.4,643.7 873.4,662.4 875.3,662.4 875.3,644.4 '/>
		<polygon fill = 'rgb( 31, 120, 180)' fill-opacity = '0.250000' points = '875.3,644.4 875.3,662.4 877.1,662.4 877.1,645.0 '/>
		<polygon fill = 'rgb( 31, 120, 180)' fill-opacity = '0.250000' points = '877.1,645.0 877.1,662.4 879.0,662.4 879.0,645.7 '/>
		<polygon fill = 'rgb( 31, 120, 180)' fill-opacity = '0.250000' points = '879.0,645.7 879.0,662.4 880.8,662.4 880.8,646.3 '/>
		<polygon fill = 'rgb( 31, 120, 180)' fill-opacity = '0.250000' points = '880.8,646.3 880.8,662.4 882.7,662.4 882.7,646.9 '/>
		<polygon fill = 'rgb( 31, 120, 180)' fill-opacity = '0.250000' points = '882.7,646.9 882.7,662.4 884.5,662.4 884.5,647.5 '/>
		<polygon fill = 'rgb( 31, 120, 180)' fill-opacity = '0.250000' points = '884.5,647.5 884.5,662.4 886.4,662.4 886.4,648.1 '/>
		<polygon fill = 'rgb( 31, 120, 180)' fill-opacity = '0.250000' points = '886.4,648.1 886.4,662.4 888.2,662.4 888.2,648.6 '/>
		<polygon fill = 'rgb( 31, 120, 180)' fill-opacity = '0.250000' points = '888.2,648.6 888.2,662.4 890.1,662.4 890.1,649.2 '/>
		<polygon fill = 'rgb( 31, 120, 180)' fill-opacity = '0.250000' points = '890.1,649.2 890.1,662.4 891.9,662.4 891.9,649.7 '/>
		<polygon fill = 'rgb( 31, 120, 180)' fill-opacity = '0.250000' points = '891.9,649.7 891.9,662.4 893.8,662.4 893.8,650.3 '/>
		<polygon fill = 'rgb( 31, 120, 180)' fill-opacity = '0.250000' points = '893.8,650.3 893.8,662.4 895.6,662.4 895.6,650.8 '/>
		<polygon fill = 'rgb( 31, 120, 180)' fill-opacity = '0.250000' points = '895.6,650.8 895.6,662.4 897.5,662.4 897.5,651.3 '/>
		<polygon fill = 'rgb( 31, 120, 180)' fill-opacity = '0.250000' points = '897.5,651.3 897.5,662.4 899.3,662.4 899.3,651.7 '/>
		<polygon fill = 'rgb( 31, 120, 180)' fill-opacity = '0.250000' points = '899.3,651.7 899.3,662.4 901.2,662.4 901.2,652.2 '/>
		<polygon fill = 'rgb( 31, 120, 180)' fill-opacity = '0.250000' points = '901.2,652.2 901.2,662.4 903.0,662.4 903.0,652.7 '/>
		<polygon fill = 'rgb( 31, 120, 180)' fill-opacity = '0.250000' points = '903.0,652.7 903.0,662.4 904.9,662.4 904.9,653.1 '/>
		<polygon fill = 'rgb( 31, 120, 180)' fill-opacity = '0.250000' points = '904.9,653.1 904.9,662.4 906.7,662.4 906.7,653.5 '/>
		<polygon fill = 'rgb( 31, 120, 180)' fill-opacity = '0.250000' points = '906.7,653.5 906.7,662.4 908.6,662.4 908.6,653.9 '/>
		<polygon fill = 'rgb( 31, 120, 180)' fill-opacity = '0.250000' points = '908.6,653.9 908.6,662.4 910.4,662.4 910.4,654.3 '/>
		<polygon fill = 'rgb( 31, 120, 180)' fill-opacity = '0.250000' points = '910.4,654.3 910.4,662.4 912.3,662.4 912.3,654.7 '/>
		<polygon fill = 'rgb( 31, 120, 180)' fill-opacity = '0.250000' points = '912.3,654.7 912.3,662.4 914.2,662.4 914.2,655.1 '/>
		<polygon fill = 'rgb( 31, 120, 180)' fill-opacity = '0.250000' points = '914.2,655.1 914.2,662.4 916.0,662.4 916.0,655.4 '/>
		<polygon fill = 'rgb( 31, 120, 180)' fill-opacity = '0.250000' points = '916.0,655.4 916.0,662.4 917.9,662.4 917.9,655.8 '/>
		<polygon fill = 'rgb( 31, 120, 180)' fill-opacity = '0.250000' points = '917.9,655.8 917.9,662.4 919.7,662.4 919.7,656.1 '/>
		<polygon fill = 'rgb( 31, 120, 180)' fill-opacity = '0.250000' points = '919.7,656.1 919.7,662.4 921.6,662.4 921.6,656.4 '/>
		<polygon fill = 'rgb( 31, 120, 180)' fill-opacity = '0.250000' points = '921.6,656.4 921.6,662.4 923.4,662.4 923.4,656.7 '/>
		<polygon fill = 'rgb( 31, 120, 180)' fill-opacity = '0.250000' points = '923.4,656.7 923.4,662.4 925.3,662.4 925.3,657.0 '/>
		<polygon fill = 'rgb( 31, 120, 180)' fill-opacity = '0.250000' points = '925.3,657.0 925.3,662.4 927.1,662.4 927.1,657.3 '/>
		<polygon fill = 'rgb( 31, 120, 180)' fill-opacity = '0.250000' points = '927.1,657.3 927.1,662.4 929.0,662.4 929.0,657.6 '/>
		<polygon fill = 'rgb( 31, 120, 180)' fill-opacity = '0.250000' points = '929.0,657.6 929.0,662.4 930.8,662.4 930.8,657.8 '/>
		<polygon fill = 'rgb( 31, 120, 180)' fill-opacity = '0.250000' points = '930.8,657.8 930.8,662.4 932.7,662.4 932.7,658.1 '/>
		<polygon fill = 'rgb( 31, 120, 180)' fill-opacity = '0.250000' points = '932.7,658.1 932.7,662.4 934.5,662.4 934.5,658.3 '/>
		<polygon fill = 'rgb( 31, 120, 180)' fill-opacity = '0.250000' points = '934.5,658.3 934.5,662.4 936.4,662.4 936.4,658.5 '/>
		<polygon fill = 'rgb( 31, 120, 180)' fill-opacity = '0.250000' points = '936.4,658.5 936.4,662.4 938.2,662.4 938.2,658.8 '/>
		<polygon fill = 'rgb( 31, 120, 180)' fill-opacity = '0.250000' points = '938.2,658.8 938.2,662.4 940.1,662.4 940.1,659.0 '/>
		<polygon fill = 'rgb( 31, 120, 180)' fill-opacity = '0.250000' points = '940.1,659.0 940.1,662.4 941.9,662.4 941.9,659.2 '/>
		<polygon fill = 'rgb( 31, 120, 180)' fill-opacity = '0.250000' points = '941.9,659.2 941.9,662.4 943.8,662.4 943.8,659.3 '/>
		<polygon fill = 'rgb( 31, 120, 180)' fill-opacity = '0.250000' points = '943.8,659.3 943.8,662.4 945.6,662.4 945.6,659.5 '/>
		<polygon fill = 'rgb( 31, 120, 180)' fill-opacity = '0.250000' points = '945.6,659.5 945.6,662.4 947.5,662.4 947.5,659.7 '/>
		<polygon fill = 'rgb( 31, 120, 180)' fill-opacity = '0.250000' points = '947.5,659.7 947.5,662.4 949.3,662.4 949.3,659.9 '/>
		<polygon fill = 'rgb( 31, 120, 180)' fill-opacity = '0.250000' points = '949.3,659.9 949.3,662.4 951.2,662.4 951.2,660.0 '/>
		<polygon fill = 'rgb( 31, 120, 180)' fill-opacity = '0.250000' points = '951.2,660.0 951.2,662.4 953.0,662.4 953.0,660.2 '/>
		<polygon fill = 'rgb( 31, 120, 180)' fill-opacity = '0.250000' points = '953.0,660.2 953.0,662.4 954.9,662.4 954.9,660.3 '/>
		<polygon fill = 'rgb( 31, 120, 180)' fill-opacity = '0.250000' points = '954.9,660.3 954.9,662.4 956.7,662.4 956.7,660.4 '/>
		<polygon fill = 'rgb( 31, 120, 180)' fill-opacity = '0.250000' points = '956.7,660.4 956.7,662.4 958.6,662.4 958.6,660.5 '/>
		<polygon fill = 'rgb( 31, 120, 180)' fill-opacity = '0.250000' points = '958.6,660.5 958.6,662.4 960.4,662.4 960.4,660.7 '/>
		<polygon fill = 'rgb( 31, 120, 180)' fill-opacity = '0.250000' points = '960.4,660.7 960.4,662.4 962.3,662.4 962.3,660.8 '/>
		<polygon fill = 'rgb( 31, 120, 180)' fill-opacity = '0.250000' points = '962.3,660.8 962.3,662.4 964.1,662.4 964.1,660.9 '/>
		<polygon fill = 'rgb( 31, 120, 180)' fill-opacity = '0.250000' points = '964.1,660.9 964.1,662.4 966.0,662.4 966.0,661.0 '/>
		<polygon fill = 'rgb( 31, 120, 180)' fill-opacity = '0.250000' points = '966.0,661.0 966.0,662.4 967.8,662.4 967.8,661.1 '/>
		<polygon fill = 'rgb( 31, 120, 180)' fill-opacity = '0.250000' points = '967.8,661.1 967.8,662.4 969.7,662.4 969.7,661.2 '/>
		<polygon fill = 'rgb( 31, 120, 180)' fill-opacity = '0.250000' points = '969.7,661.2 969.7,662.4 971.5,662.4 971.5,661.2 '/>
		<polygon fill = 'rgb( 31, 120, 180)' fill-opacity = '0.250000' points = '971.5,661.2 971.5,662.4 973.4,662.4 973.4,661.3 '/>
		<polygon fill = 'rgb( 31, 120, 180)' fill-opacity = '0.250000' points = '973.4,661.3 973.4,662.4 975.2,662.4 975.2,661.4 '/>
		<polygon fill = 'rgb( 31, 120, 180)' fill-opacity = '0.250000' points = '975.2,661.4 975.2,662.4 977.1,662.4 977.1,661.5 '/>
		<polygon fill = 'rgb( 31, 120, 180)' fill-opacity = '0.250000' points = '977.1,661.5 977.1,662.4 978.9,662.4 978.9,661.5 '/>
		<polygon fill = 'rgb( 31, 120, 180)' fill-opacity = '0.250000' points = '978.9,661.5 978.9,662.4 980.8,662.4 980.8,661.6 '/>
		<polygon fill = 'rgb( 31, 120, 180)' fill-opacity = '0.250000' points = '980.8,661.6 980.8,662.4 982.6,662.4 982.6,661.6 '/>
		<polygon fill = 'rgb( 31, 120, 180)' fill-opacity = '0.250000' points = '982.6,661.6 982.6,662.4 984.5,662.4 984.5,661.7 '/>
		<polygon fill = 'rgb( 31, 120, 180)' fill-opacity = '0.250000' points = '984.5,661.7 984.5,662.4 986.3,662.4 986.3,661.8 '/>
		<polygon fill = 'rgb( 31, 120, 180)' fill-opacity = '0.250000' points = '986.3,661.8 986.3,662.4 988.2,662.4 988.2,661.8 '/>
		<polygon fill = 'rgb( 31, 120, 180)' fill-opacity = '0.250000' points = '988.2,661.8 988.2,662.4 990.0,662.4 990.0,661.8 '/>
		<polygon fill = 'rgb( 31, 120, 180)' fill-opacity = '0.250000' points = '990.0,661.8 990.0,662.4 991.9,662.4 991.9,661.9 '/>
		<polygon fill = 'rgb( 31, 120, 180)' fill-opacity = '0.250000' points = '991.9,661.9 991.9,662.4 993.7,662.4 993.7,661.9 '/>
		<polygon fill = 'rgb( 31, 120, 180)' fill-opacity = '0.250000' points = '993.7,661.9 993.7,662.4 995.6,662.4 995.6,662.0 '/>
	</g>
</g>
	</g>
	<g id="gnuplot_plot_2" ><title>Mean</title>
<g fill="none" color="white" stroke="rgb( 31, 120, 180)" stroke-width="2.00" stroke-linecap="butt" stroke-linejoin="miter">
</g>
<g fill="none" color="black" stroke="currentColor" stroke-width="2.00" stroke-linecap="butt" stroke-linejoin="miter">
	<g transform="translate(1155.4,85.0)" stroke="none" fill="black" font-family="Helvetica" font-size="12.00"  text-anchor="start">
		<text><tspan font-family="Helvetica" >Mean</tspan></text>
	</g>
</g>
<g fill="none" color="black" stroke="currentColor" stroke-width="2.00" stroke-linecap="butt" stroke-linejoin="miter">
	<path stroke='rgb( 31, 120, 180)'  d='M1104.9,81.1 L1147.1,81.1 M430.8,662.4 L430.8,54.1  '/></g>
	</g>
	<g id="gnuplot_plot_3" ><title>"Clean" sample</title>
<g fill="none" color="white" stroke="rgb( 31, 120, 180)" stroke-width="1.00" stroke-linecap="butt" stroke-linejoin="miter">
</g>
<g fill="none" color="black" stroke="currentColor" stroke-width="1.00" stroke-linecap="butt" stroke-linejoin="miter">
	<g transform="translate(1155.4,103.0)" stroke="none" fill="black" font-family="Helvetica" font-size="12.00"  text-anchor="start">
		<text><tspan font-family="Helvetica" >"Clean" sample</tspan></text>
	</g>
</g>
<g fill="none" color="black" stroke="currentColor" stroke-width="1.00" stroke-linecap="butt" stroke-linejoin="miter">
	<use xlink:href='#gpPt6' transform='translate(484.8,632.0) scale(3.38)' color='rgb( 31, 120, 180)'/>
	<use xlink:href='#gpPt6' transform='translate(410.1,540.7) scale(3.38)' color='rgb( 31, 120, 180)'/>
	<use xlink:href='#gpPt6' transform='translate(285.5,510.3) scale(3.38)' color='rgb( 31, 120, 180)'/>
	<use xlink:href='#gpPt6' transform='translate(317.1,479.9) scale(3.38)' color='rgb( 31, 120, 180)'/>
	<use xlink:href='#gpPt6' transform='translate(494.0,449.5) scale(3.38)' color='rgb( 31, 120, 180)'/>
	<use xlink:href='#gpPt6' transform='translate(429.6,419.1) scale(3.38)' color='rgb( 31, 120, 180)'/>
	<use xlink:href='#gpPt6' transform='translate(290.9,388.7) scale(3.38)' color='rgb( 31, 120, 180)'/>
	<use xlink:href='#gpPt6' transform='translate(465.5,358.2) scale(3.38)' color='rgb( 31, 120, 180)'/>
	<use xlink:href='#gpPt6' transform='translate(431.0,327.8) scale(3.38)' color='rgb( 31, 120, 180)'/>
	<use xlink:href='#gpPt6' transform='translate(375.1,297.4) scale(3.38)' color='rgb( 31, 120, 180)'/>
	<use xlink:href='#gpPt6' transform='translate(362.1,267.0) scale(3.38)' color='rgb( 31, 120, 180)'/>
	<use xlink:href='#gpPt6' transform='translate(357.9,236.6) scale(3.38)' color='rgb( 31, 120, 180)'/>
	<use xlink:href='#gpPt6' transform='translate(384.0,206.2) scale(3.38)' color='rgb( 31, 120, 180)'/>
	<use xlink:href='#gpPt6' transform='translate(418.6,175.8) scale(3.38)' color='rgb( 31, 120, 180)'/>
	<use xlink:href='#gpPt6' transform='translate(314.1,145.3) scale(3.38)' color='rgb( 31, 120, 180)'/>
	<use xlink:href='#gpPt6' transform='translate(478.5,114.9) scale(3.38)' color='rgb( 31, 120, 180)'/>
	<use xlink:href='#gpPt6' transform='translate(396.0,84.5) scale(3.38)' color='rgb( 31, 120, 180)'/>
	<use xlink:href='#gpPt6' transform='translate(450.5,54.1) scale(3.38)' color='rgb( 31, 120, 180)'/>
	<use xlink:href='#gpPt6' transform='translate(1126.0,99.1) scale(3.38)' color='rgb( 31, 120, 180)'/>
</g>
	</g>
	<g id="gnuplot_plot_4" ><title>Mild outliers</title>
<g fill="none" color="black" stroke="currentColor" stroke-width="1.00" stroke-linecap="butt" stroke-linejoin="miter">
	<g transform="translate(1155.4,121.0)" stroke="none" fill="black" font-family="Helvetica" font-size="12.00"  text-anchor="start">
		<text><tspan font-family="Helvetica" >Mild outliers</tspan></text>
	</g>
</g>
<g fill="none" color="black" stroke="currentColor" stroke-width="1.00" stroke-linecap="butt" stroke-linejoin="miter">
	<use xlink:href='#gpPt6' transform='translate(782.0,601.6) scale(3.38)' color='rgb(255, 127,   0)'/>
	<use xlink:href='#gpPt6' transform='translate(688.0,571.2) scale(3.38)' color='rgb(255, 127,   0)'/>
	<use xlink:href='#gpPt6' transform='translate(1126.0,117.1) scale(3.38)' color='rgb(255, 127,   0)'/>
</g>
	</g>
	<g id="gnuplot_plot_5" ><title>gnuplot_plot_5</title>
<g fill="none" color="white" stroke="rgb(255, 127,   0)" stroke-width="2.00" stroke-linecap="butt" stroke-linejoin="miter">
</g>
<g fill="none" color="black" stroke="currentColor" stroke-width="2.00" stroke-linecap="butt" stroke-linejoin="miter">
	<path stroke='rgb(255, 127,   0)'  d='M199.6,662.4 L199.6,54.1  '/></g>
	</g>
	<g id="gnuplot_plot_6" ><title>gnuplot_plot_6</title>
<g fill="none" color="black" stroke="currentColor" stroke-width="2.00" stroke-linecap="butt" stroke-linejoin="miter">
	<path stroke='rgb(255, 127,   0)'  d='M630.2,662.4 L630.2,54.1  '/></g>
	</g>
	<g id="gnuplot_plot_7" ><title>gnuplot_plot_7</title>
<g fill="none" color="black" stroke="currentColor" stroke-width="2.00" stroke-linecap="butt" stroke-linejoin="miter">
</g>
	</g>
	<g id="gnuplot_plot_8" ><title>gnuplot_plot_8</title>
<g fill="none" color="black" stroke="currentColor" stroke-width="2.00" stroke-linecap="butt" stroke-linejoin="miter">
	<path stroke='rgb(227,  26,  28)'  d='M791.7,662.4 L791.7,54.1  '/></g>
	</g>
<g fill="none" color="black" stroke="currentColor" stroke-width="2.00" stroke-linecap="butt" stroke-linejoin="miter">
</g>
<g fill="none" color="black" stroke="black" stroke-width="1.00" stroke-linecap="butt" stroke-linejoin="miter">
</g>
<g fill="none" color="black" stroke="currentColor" stroke-width="1.00" stroke-linecap="butt" stroke-linejoin="miter">
	<path stroke='black'  d='M71.9,54.1 L71.9,662.4 L995.6,662.4 L995.6,54.1 L71.9,54.1 Z  '/></g>
<g fill="none" color="black" stroke="currentColor" stroke-width="1.00" stroke-linecap="butt" stroke-linejoin="miter">
</g>
</g>
</svg>

