<?xml version="1.0" encoding="utf-8"  standalone="no"?>
<svg 
 viewBox="0 0 1280 720"
 xmlns="http://www.w3.org/2000/svg"
 xmlns:xlink="http://www.w3.org/1999/xlink"
>

<title>Gnuplot</title>
<desc>Produced by GNUPLOT 5.0 patchlevel 6 </desc>

<g id="gnuplot_canvas">

<rect x="0" y="0" width="1280" height="720" fill="none"/>
<defs>

	<circle id='gpDot' r='0.5' stroke-width='0.5'/>
	<path id='gpPt0' stroke-width='0.222' stroke='currentColor' d='M-1,0 h2 M0,-1 v2'/>
	<path id='gpPt1' stroke-width='0.222' stroke='currentColor' d='M-1,-1 L1,1 M1,-1 L-1,1'/>
	<path id='gpPt2' stroke-width='0.222' stroke='currentColor' d='M-1,0 L1,0 M0,-1 L0,1 M-1,-1 L1,1 M-1,1 L1,-1'/>
	<rect id='gpPt3' stroke-width='0.222' stroke='currentColor' x='-1' y='-1' width='2' height='2'/>
	<rect id='gpPt4' stroke-width='0.222' stroke='currentColor' fill='currentColor' x='-1' y='-1' width='2' height='2'/>
	<circle id='gpPt5' stroke-width='0.222' stroke='currentColor' cx='0' cy='0' r='1'/>
	<use xlink:href='#gpPt5' id='gpPt6' fill='currentColor' stroke='none'/>
	<path id='gpPt7' stroke-width='0.222' stroke='currentColor' d='M0,-1.33 L-1.33,0.67 L1.33,0.67 z'/>
	<use xlink:href='#gpPt7' id='gpPt8' fill='currentColor' stroke='none'/>
	<use xlink:href='#gpPt7' id='gpPt9' stroke='currentColor' transform='rotate(180)'/>
	<use xlink:href='#gpPt9' id='gpPt10' fill='currentColor' stroke='none'/>
	<use xlink:href='#gpPt3' id='gpPt11' stroke='currentColor' transform='rotate(45)'/>
	<use xlink:href='#gpPt11' id='gpPt12' fill='currentColor' stroke='none'/>
	<path id='gpPt13' stroke-width='0.222' stroke='currentColor' d='M0,1.330 L1.265,0.411 L0.782,-1.067 L-0.782,-1.076 L-1.265,0.411 z'/>
	<use xlink:href='#gpPt13' id='gpPt14' fill='currentColor' stroke='none'/>
	<filter id='textbox' filterUnits='objectBoundingBox' x='0' y='0' height='1' width='1'>
	  <feFlood flood-color='white' flood-opacity='1' result='bgnd'/>
	  <feComposite in='SourceGraphic' in2='bgnd' operator='atop'/>
	</filter>
	<filter id='greybox' filterUnits='objectBoundingBox' x='0' y='0' height='1' width='1'>
	  <feFlood flood-color='lightgrey' flood-opacity='1' result='grey'/>
	  <feComposite in='SourceGraphic' in2='grey' operator='atop'/>
	</filter>
</defs>
<g fill="none" color="white" stroke="currentColor" stroke-width="1.00" stroke-linecap="butt" stroke-linejoin="miter">
</g>
<g fill="none" color="black" stroke="currentColor" stroke-width="1.00" stroke-linecap="butt" stroke-linejoin="miter">
	<path stroke='black'  d='M96.8,662.4 L105.8,662.4  '/>	<g transform="translate(88.5,666.3)" stroke="none" fill="black" font-family="Helvetica" font-size="12.00"  text-anchor="end">
		<text><tspan font-family="Helvetica" > 0</tspan></text>
	</g>
</g>
<g fill="none" color="black" stroke="currentColor" stroke-width="1.00" stroke-linecap="butt" stroke-linejoin="miter">
	<path stroke='black'  d='M96.8,575.5 L105.8,575.5  '/>	<g transform="translate(88.5,579.4)" stroke="none" fill="black" font-family="Helvetica" font-size="12.00"  text-anchor="end">
		<text><tspan font-family="Helvetica" > 0.0005</tspan></text>
	</g>
</g>
<g fill="none" color="black" stroke="currentColor" stroke-width="1.00" stroke-linecap="butt" stroke-linejoin="miter">
	<path stroke='black'  d='M96.8,488.6 L105.8,488.6  '/>	<g transform="translate(88.5,492.5)" stroke="none" fill="black" font-family="Helvetica" font-size="12.00"  text-anchor="end">
		<text><tspan font-family="Helvetica" > 0.001</tspan></text>
	</g>
</g>
<g fill="none" color="black" stroke="currentColor" stroke-width="1.00" stroke-linecap="butt" stroke-linejoin="miter">
	<path stroke='black'  d='M96.8,401.7 L105.8,401.7  '/>	<g transform="translate(88.5,405.6)" stroke="none" fill="black" font-family="Helvetica" font-size="12.00"  text-anchor="end">
		<text><tspan font-family="Helvetica" > 0.0015</tspan></text>
	</g>
</g>
<g fill="none" color="black" stroke="currentColor" stroke-width="1.00" stroke-linecap="butt" stroke-linejoin="miter">
	<path stroke='black'  d='M96.8,314.8 L105.8,314.8  '/>	<g transform="translate(88.5,318.7)" stroke="none" fill="black" font-family="Helvetica" font-size="12.00"  text-anchor="end">
		<text><tspan font-family="Helvetica" > 0.002</tspan></text>
	</g>
</g>
<g fill="none" color="black" stroke="currentColor" stroke-width="1.00" stroke-linecap="butt" stroke-linejoin="miter">
	<path stroke='black'  d='M96.8,227.9 L105.8,227.9  '/>	<g transform="translate(88.5,231.8)" stroke="none" fill="black" font-family="Helvetica" font-size="12.00"  text-anchor="end">
		<text><tspan font-family="Helvetica" > 0.0025</tspan></text>
	</g>
</g>
<g fill="none" color="black" stroke="currentColor" stroke-width="1.00" stroke-linecap="butt" stroke-linejoin="miter">
	<path stroke='black'  d='M96.8,141.0 L105.8,141.0  '/>	<g transform="translate(88.5,144.9)" stroke="none" fill="black" font-family="Helvetica" font-size="12.00"  text-anchor="end">
		<text><tspan font-family="Helvetica" > 0.003</tspan></text>
	</g>
</g>
<g fill="none" color="black" stroke="currentColor" stroke-width="1.00" stroke-linecap="butt" stroke-linejoin="miter">
	<path stroke='black'  d='M96.8,54.1 L105.8,54.1  '/>	<g transform="translate(88.5,58.0)" stroke="none" fill="black" font-family="Helvetica" font-size="12.00"  text-anchor="end">
		<text><tspan font-family="Helvetica" > 0.0035</tspan></text>
	</g>
</g>
<g fill="none" color="black" stroke="currentColor" stroke-width="1.00" stroke-linecap="butt" stroke-linejoin="miter">
	<path stroke='black'  d='M106.4,662.4 L106.4,653.4  '/>	<g transform="translate(106.4,684.3)" stroke="none" fill="black" font-family="Helvetica" font-size="12.00"  text-anchor="middle">
		<text><tspan font-family="Helvetica" > 400</tspan></text>
	</g>
</g>
<g fill="none" color="black" stroke="currentColor" stroke-width="1.00" stroke-linecap="butt" stroke-linejoin="miter">
	<path stroke='black'  d='M258.0,662.4 L258.0,653.4  '/>	<g transform="translate(258.0,684.3)" stroke="none" fill="black" font-family="Helvetica" font-size="12.00"  text-anchor="middle">
		<text><tspan font-family="Helvetica" > 500</tspan></text>
	</g>
</g>
<g fill="none" color="black" stroke="currentColor" stroke-width="1.00" stroke-linecap="butt" stroke-linejoin="miter">
	<path stroke='black'  d='M409.5,662.4 L409.5,653.4  '/>	<g transform="translate(409.5,684.3)" stroke="none" fill="black" font-family="Helvetica" font-size="12.00"  text-anchor="middle">
		<text><tspan font-family="Helvetica" > 600</tspan></text>
	</g>
</g>
<g fill="none" color="black" stroke="currentColor" stroke-width="1.00" stroke-linecap="butt" stroke-linejoin="miter">
	<path stroke='black'  d='M561.1,662.4 L561.1,653.4  '/>	<g transform="translate(561.1,684.3)" stroke="none" fill="black" font-family="Helvetica" font-size="12.00"  text-anchor="middle">
		<text><tspan font-family="Helvetica" > 700</tspan></text>
	</g>
</g>
<g fill="none" color="black" stroke="currentColor" stroke-width="1.00" stroke-linecap="butt" stroke-linejoin="miter">
	<path stroke='black'  d='M712.7,662.4 L712.7,653.4  '/>	<g transform="translate(712.7,684.3)" stroke="none" fill="black" font-family="Helvetica" font-size="12.00"  text-anchor="middle">
		<text><tspan font-family="Helvetica" > 800</tspan></text>
	</g>
</g>
<g fill="none" color="black" stroke="currentColor" stroke-width="1.00" stroke-linecap="butt" stroke-linejoin="miter">
	<path stroke='black'  d='M864.2,662.4 L864.2,653.4  '/>	<g transform="translate(864.2,684.3)" stroke="none" fill="black" font-family="Helvetica" font-size="12.00"  text-anchor="middle">
		<text><tspan font-family="Helvetica" > 900</tspan></text>
	</g>
</g>
<g fill="none" color="black" stroke="currentColor" stroke-width="1.00" stroke-linecap="butt" stroke-linejoin="miter">
</g>
<g fill="none" color="black" stroke="currentColor" stroke-width="1.00" stroke-linecap="butt" stroke-linejoin="miter">
	<path stroke='black'  d='M96.8,54.1 L96.8,662.4 L1013.6,662.4 L1013.6,54.1 L96.8,54.1 Z  '/></g>
<g fill="none" color="black" stroke="currentColor" stroke-width="1.00" stroke-linecap="butt" stroke-linejoin="miter">
	<g transform="translate(17.0,358.3) rotate(270)" stroke="none" fill="black" font-family="Helvetica" font-size="12.00"  text-anchor="middle">
		<text><tspan font-family="Helvetica" >Density (a.u.)</tspan></text>
	</g>
</g>
<g fill="none" color="black" stroke="currentColor" stroke-width="1.00" stroke-linecap="butt" stroke-linejoin="miter">
	<g transform="translate(555.2,711.3)" stroke="none" fill="black" font-family="Helvetica" font-size="12.00"  text-anchor="middle">
		<text><tspan font-family="Helvetica" >Average time (ns)</tspan></text>
	</g>
</g>
<g fill="none" color="black" stroke="currentColor" stroke-width="1.00" stroke-linecap="butt" stroke-linejoin="miter">
	<g transform="translate(555.2,31.0)" stroke="none" fill="black" font-family="Helvetica" font-size="12.00"  text-anchor="middle">
		<text><tspan font-family="Helvetica" >language: python/parse error: bash/examples/update-authors.sh: SD</tspan></text>
	</g>
</g>
	<g id="gnuplot_plot_1" ><title>Bootstrap distribution</title>
<g fill="none" color="white" stroke="black" stroke-width="2.00" stroke-linecap="butt" stroke-linejoin="miter">
</g>
<g fill="none" color="black" stroke="currentColor" stroke-width="2.00" stroke-linecap="butt" stroke-linejoin="miter">
	<g transform="translate(1089.0,67.0)" stroke="none" fill="black" font-family="Helvetica" font-size="12.00"  text-anchor="start">
		<text><tspan font-family="Helvetica" >Bootstrap distribution</tspan></text>
	</g>
</g>
<g fill="none" color="black" stroke="currentColor" stroke-width="2.00" stroke-linecap="butt" stroke-linejoin="miter">
	<path stroke='rgb( 31, 120, 180)'  d='M1038.5,63.1 L1080.7,63.1 M96.8,628.7 L98.6,627.7 L100.5,626.8 L102.3,625.9 L104.1,624.9 L106.0,624.0
		L107.8,623.0 L109.7,622.1 L111.5,621.1 L113.3,620.1 L115.2,619.1 L117.0,618.1 L118.8,617.1 L120.7,616.1
		L122.5,615.0 L124.4,614.0 L126.2,612.9 L128.0,611.9 L129.9,610.8 L131.7,609.7 L133.5,608.6 L135.4,607.4
		L137.2,606.3 L139.1,605.1 L140.9,604.0 L142.7,602.8 L144.6,601.6 L146.4,600.4 L148.2,599.2 L150.1,598.0
		L151.9,596.8 L153.8,595.6 L155.6,594.3 L157.4,593.1 L159.3,591.9 L161.1,590.7 L162.9,589.4 L164.8,588.2
		L166.6,587.0 L168.5,585.7 L170.3,584.5 L172.1,583.2 L174.0,582.0 L175.8,580.7 L177.6,579.4 L179.5,578.1
		L181.3,576.7 L183.2,575.4 L185.0,574.0 L186.8,572.7 L188.7,571.3 L190.5,569.8 L192.3,568.4 L194.2,567.0
		L196.0,565.5 L197.9,564.1 L199.7,562.6 L201.5,561.1 L203.4,559.6 L205.2,558.1 L207.0,556.6 L208.9,555.1
		L210.7,553.7 L212.5,552.2 L214.4,550.7 L216.2,549.2 L218.1,547.7 L219.9,546.2 L221.7,544.7 L223.6,543.3
		L225.4,541.8 L227.2,540.3 L229.1,538.8 L230.9,537.3 L232.8,535.8 L234.6,534.2 L236.4,532.7 L238.3,531.1
		L240.1,529.6 L241.9,528.0 L243.8,526.4 L245.6,524.8 L247.5,523.2 L249.3,521.5 L251.1,519.9 L253.0,518.2
		L254.8,516.5 L256.6,514.8 L258.5,513.1 L260.3,511.3 L262.2,509.6 L264.0,507.8 L265.8,506.0 L267.7,504.2
		L269.5,502.4 L271.3,500.5 L273.2,498.6 L275.0,496.7 L276.9,494.8 L278.7,492.8 L280.5,490.8 L282.4,488.7
		L284.2,486.7 L286.0,484.6 L287.9,482.4 L289.7,480.3 L291.6,478.1 L293.4,475.8 L295.2,473.6 L297.1,471.3
		L298.9,469.0 L300.7,466.7 L302.6,464.3 L304.4,462.0 L306.2,459.6 L308.1,457.2 L309.9,454.8 L311.8,452.3
		L313.6,449.9 L315.4,447.5 L317.3,445.0 L319.1,442.6 L320.9,440.2 L322.8,437.7 L324.6,435.3 L326.5,432.8
		L328.3,430.4 L330.1,427.9 L332.0,425.4 L333.8,423.0 L335.6,420.5 L337.5,418.0 L339.3,415.6 L341.2,413.1
		L343.0,410.6 L344.8,408.0 L346.7,405.5 L348.5,402.9 L350.3,400.3 L352.2,397.7 L354.0,395.1 L355.9,392.4
		L357.7,389.8 L359.5,387.1 L361.4,384.4 L363.2,381.6 L365.0,378.9 L366.9,376.1 L368.7,373.4 L370.6,370.6
		L372.4,367.9 L374.2,365.1 L376.1,362.4 L377.9,359.7 L379.7,357.0 L381.6,354.3 L383.4,351.6 L385.3,349.0
		L387.1,346.4 L388.9,343.8 L390.8,341.1 L392.6,338.6 L394.4,336.0 L396.3,333.4 L398.1,330.8 L400.0,328.2
		L401.8,325.7 L403.6,323.1 L405.5,320.5 L407.3,317.9 L409.1,315.2 L411.0,312.6 L412.8,309.9 L414.6,307.2
		L416.5,304.5 L418.3,301.8 L420.2,299.1 L422.0,296.3 L423.8,293.5 L425.7,290.7 L427.5,287.9 L429.3,285.1
		L431.2,282.2 L433.0,279.4 L434.9,276.5 L436.7,273.7 L438.5,270.8 L440.4,267.9 L442.2,265.1 L444.0,262.2
		L445.9,259.4 L447.7,256.5 L449.6,253.7 L451.4,250.9 L453.2,248.1 L455.1,245.3 L456.9,242.5 L458.7,239.7
		L460.6,236.9 L462.4,234.2 L464.3,231.5 L466.1,228.8 L467.9,226.1 L469.8,223.5 L471.6,220.8 L473.4,218.3
		L475.3,215.7 L477.1,213.2 L479.0,210.7 L480.8,208.2 L482.6,205.8 L484.5,203.4 L486.3,201.0 L488.1,198.7
		L490.0,196.4 L491.8,194.1 L493.7,191.9 L495.5,189.7 L497.3,187.5 L499.2,185.4 L501.0,183.4 L502.8,181.4
		L504.7,179.5 L506.5,177.6 L508.3,175.8 L510.2,174.1 L512.0,172.4 L513.9,170.8 L515.7,169.3 L517.5,167.8
		L519.4,166.4 L521.2,165.1 L523.0,163.9 L524.9,162.7 L526.7,161.5 L528.6,160.4 L530.4,159.4 L532.2,158.3
		L534.1,157.3 L535.9,156.3 L537.7,155.4 L539.6,154.4 L541.4,153.5 L543.3,152.5 L545.1,151.6 L546.9,150.7
		L548.8,149.7 L550.6,148.8 L552.4,147.8 L554.3,146.9 L556.1,146.0 L558.0,145.0 L559.8,144.1 L561.6,143.2
		L563.5,142.2 L565.3,141.3 L567.1,140.3 L569.0,139.4 L570.8,138.5 L572.7,137.5 L574.5,136.6 L576.3,135.7
		L578.2,134.7 L580.0,133.8 L581.8,132.9 L583.7,132.0 L585.5,131.2 L587.4,130.4 L589.2,129.6 L591.0,128.8
		L592.9,128.1 L594.7,127.5 L596.5,126.9 L598.4,126.4 L600.2,125.9 L602.1,125.5 L603.9,125.2 L605.7,125.0
		L607.6,124.8 L609.4,124.8 L611.2,124.8 L613.1,124.8 L614.9,125.0 L616.7,125.2 L618.6,125.5 L620.4,125.9
		L622.3,126.4 L624.1,126.9 L625.9,127.6 L627.8,128.3 L629.6,129.0 L631.4,129.9 L633.3,130.8 L635.1,131.8
		L637.0,132.8 L638.8,133.9 L640.6,135.1 L642.5,136.4 L644.3,137.6 L646.1,139.0 L648.0,140.3 L649.8,141.8
		L651.7,143.2 L653.5,144.7 L655.3,146.2 L657.2,147.7 L659.0,149.2 L660.8,150.8 L662.7,152.4 L664.5,154.0
		L666.4,155.6 L668.2,157.3 L670.0,159.0 L671.9,160.7 L673.7,162.5 L675.5,164.3 L677.4,166.2 L679.2,168.1
		L681.1,170.1 L682.9,172.2 L684.7,174.3 L686.6,176.5 L688.4,178.7 L690.2,181.0 L692.1,183.4 L693.9,185.8
		L695.8,188.3 L697.6,190.8 L699.4,193.4 L701.3,196.1 L703.1,198.8 L704.9,201.5 L706.8,204.3 L708.6,207.1
		L710.4,210.0 L712.3,212.9 L714.1,215.8 L716.0,218.8 L717.8,221.8 L719.6,224.8 L721.5,227.8 L723.3,230.8
		L725.1,233.8 L727.0,236.9 L728.8,239.9 L730.7,242.9 L732.5,245.9 L734.3,248.9 L736.2,251.8 L738.0,254.7
		L739.8,257.6 L741.7,260.5 L743.5,263.3 L745.4,266.2 L747.2,269.0 L749.0,271.8 L750.9,274.6 L752.7,277.4
		L754.5,280.2 L756.4,283.0 L758.2,285.8 L760.1,288.6 L761.9,291.5 L763.7,294.4 L765.6,297.3 L767.4,300.2
		L769.2,303.2 L771.1,306.3 L772.9,309.3 L774.8,312.5 L776.6,315.6 L778.4,318.8 L780.3,322.0 L782.1,325.3
		L783.9,328.5 L785.8,331.9 L787.6,335.2 L789.5,338.6 L791.3,342.0 L793.1,345.4 L795.0,348.9 L796.8,352.4
		L798.6,355.9 L800.5,359.4 L802.3,362.9 L804.2,366.5 L806.0,370.0 L807.8,373.6 L809.7,377.2 L811.5,380.8
		L813.3,384.4 L815.2,387.9 L817.0,391.5 L818.8,395.1 L820.7,398.6 L822.5,402.1 L824.4,405.6 L826.2,409.0
		L828.0,412.4 L829.9,415.8 L831.7,419.1 L833.5,422.3 L835.4,425.5 L837.2,428.7 L839.1,431.8 L840.9,434.8
		L842.7,437.9 L844.6,440.8 L846.4,443.7 L848.2,446.6 L850.1,449.5 L851.9,452.3 L853.8,455.1 L855.6,457.9
		L857.4,460.7 L859.3,463.5 L861.1,466.2 L862.9,469.0 L864.8,471.8 L866.6,474.5 L868.5,477.3 L870.3,480.1
		L872.1,482.9 L874.0,485.6 L875.8,488.5 L877.6,491.3 L879.5,494.1 L881.3,497.0 L883.2,499.8 L885.0,502.7
		L886.8,505.6 L888.7,508.5 L890.5,511.4 L892.3,514.3 L894.2,517.2 L896.0,520.1 L897.9,523.0 L899.7,525.9
		L901.5,528.7 L903.4,531.6 L905.2,534.4 L907.0,537.2 L908.9,539.9 L910.7,542.6 L912.5,545.3 L914.4,547.9
		L916.2,550.4 L918.1,552.9 L919.9,555.3 L921.7,557.7 L923.6,560.0 L925.4,562.2 L927.2,564.3 L929.1,566.4
		L930.9,568.5 L932.8,570.4 L934.6,572.3 L936.4,574.2 L938.3,576.0 L940.1,577.7 L941.9,579.5 L943.8,581.1
		L945.6,582.8 L947.5,584.4 L949.3,586.0 L951.1,587.5 L953.0,589.0 L954.8,590.5 L956.6,592.0 L958.5,593.4
		L960.3,594.9 L962.2,596.3 L964.0,597.6 L965.8,599.0 L967.7,600.3 L969.5,601.7 L971.3,603.0 L973.2,604.2
		L975.0,605.5 L976.9,606.8 L978.7,608.0 L980.5,609.3 L982.4,610.5 L984.2,611.7 L986.0,612.9 L987.9,614.1
		L989.7,615.3 L991.6,616.5 L993.4,617.7 L995.2,618.9 L997.1,620.1 L998.9,621.2 L1000.7,622.4 L1002.6,623.5
		L1004.4,624.7 L1006.3,625.8 L1008.1,626.9 L1009.9,627.9 L1011.8,629.0 L1013.6,630.0  '/></g>
	</g>
	<g id="gnuplot_plot_2" ><title>Confidence interval</title>
<g fill="none" color="white" stroke="rgb( 31, 120, 180)" stroke-width="1.00" stroke-linecap="butt" stroke-linejoin="miter">
</g>
<g fill="none" color="black" stroke="currentColor" stroke-width="1.00" stroke-linecap="butt" stroke-linejoin="miter">
	<g transform="translate(1089.0,85.0)" stroke="none" fill="black" font-family="Helvetica" font-size="12.00"  text-anchor="start">
		<text><tspan font-family="Helvetica" >Confidence interval</tspan></text>
	</g>
</g>
<g fill="none" color="black" stroke="currentColor" stroke-width="1.00" stroke-linecap="butt" stroke-linejoin="miter">
	<g stroke='none' shape-rendering='crispEdges'>
		<polygon fill = 'rgb( 31, 120, 180)' fill-opacity = '0.250000' points = '1038.5,85.6 1080.7,85.6 1080.7,76.6 1038.5,76.6 '/>
		<polygon fill = 'rgb( 31, 120, 180)' fill-opacity = '0.250000' points = '181.3,576.7 181.3,662.4 183.2,662.4 183.2,575.4 '/>
		<polygon fill = 'rgb( 31, 120, 180)' fill-opacity = '0.250000' points = '183.2,575.4 183.2,662.4 185.0,662.4 185.0,574.0 '/>
		<polygon fill = 'rgb( 31, 120, 180)' fill-opacity = '0.250000' points = '185.0,574.0 185.0,662.4 186.8,662.4 186.8,572.7 '/>
		<polygon fill = 'rgb( 31, 120, 180)' fill-opacity = '0.250000' points = '186.8,572.7 186.8,662.4 188.7,662.4 188.7,571.3 '/>
		<polygon fill = 'rgb( 31, 120, 180)' fill-opacity = '0.250000' points = '188.7,571.3 188.7,662.4 190.5,662.4 190.5,569.8 '/>
		<polygon fill = 'rgb( 31, 120, 180)' fill-opacity = '0.250000' points = '190.5,569.8 190.5,662.4 192.3,662.4 192.3,568.4 '/>
		<polygon fill = 'rgb( 31, 120, 180)' fill-opacity = '0.250000' points = '192.3,568.4 192.3,662.4 194.2,662.4 194.2,567.0 '/>
		<polygon fill = 'rgb( 31, 120, 180)' fill-opacity = '0.250000' points = '194.2,567.0 194.2,662.4 196.0,662.4 196.0,565.5 '/>
		<polygon fill = 'rgb( 31, 120, 180)' fill-opacity = '0.250000' points = '196.0,565.5 196.0,662.4 197.9,662.4 197.9,564.1 '/>
		<polygon fill = 'rgb( 31, 120, 180)' fill-opacity = '0.250000' points = '197.9,564.1 197.9,662.4 199.7,662.4 199.7,562.6 '/>
		<polygon fill = 'rgb( 31, 120, 180)' fill-opacity = '0.250000' points = '199.7,562.6 199.7,662.4 201.5,662.4 201.5,561.1 '/>
		<polygon fill = 'rgb( 31, 120, 180)' fill-opacity = '0.250000' points = '201.5,561.1 201.5,662.4 203.4,662.4 203.4,559.6 '/>
		<polygon fill = 'rgb( 31, 120, 180)' fill-opacity = '0.250000' points = '203.4,559.6 203.4,662.4 205.2,662.4 205.2,558.1 '/>
		<polygon fill = 'rgb( 31, 120, 180)' fill-opacity = '0.250000' points = '205.2,558.1 205.2,662.4 207.0,662.4 207.0,556.6 '/>
		<polygon fill = 'rgb( 31, 120, 180)' fill-opacity = '0.250000' points = '207.0,556.6 207.0,662.4 208.9,662.4 208.9,555.1 '/>
		<polygon fill = 'rgb( 31, 120, 180)' fill-opacity = '0.250000' points = '208.9,555.1 208.9,662.4 210.7,662.4 210.7,553.7 '/>
		<polygon fill = 'rgb( 31, 120, 180)' fill-opacity = '0.250000' points = '210.7,553.7 210.7,662.4 212.5,662.4 212.5,552.2 '/>
		<polygon fill = 'rgb( 31, 120, 180)' fill-opacity = '0.250000' points = '212.5,552.2 212.5,662.4 214.4,662.4 214.4,550.7 '/>
		<polygon fill = 'rgb( 31, 120, 180)' fill-opacity = '0.250000' points = '214.4,550.7 214.4,662.4 216.2,662.4 216.2,549.2 '/>
		<polygon fill = 'rgb( 31, 120, 180)' fill-opacity = '0.250000' points = '216.2,549.2 216.2,662.4 218.1,662.4 218.1,547.7 '/>
		<polygon fill = 'rgb( 31, 120, 180)' fill-opacity = '0.250000' points = '218.1,547.7 218.1,662.4 219.9,662.4 219.9,546.2 '/>
		<polygon fill = 'rgb( 31, 120, 180)' fill-opacity = '0.250000' points = '219.9,546.2 219.9,662.4 221.7,662.4 221.7,544.7 '/>
		<polygon fill = 'rgb( 31, 120, 180)' fill-opacity = '0.250000' points = '221.7,544.7 221.7,662.4 223.6,662.4 223.6,543.3 '/>
		<polygon fill = 'rgb( 31, 120, 180)' fill-opacity = '0.250000' points = '223.6,543.3 223.6,662.4 225.4,662.4 225.4,541.8 '/>
		<polygon fill = 'rgb( 31, 120, 180)' fill-opacity = '0.250000' points = '225.4,541.8 225.4,662.4 227.2,662.4 227.2,540.3 '/>
		<polygon fill = 'rgb( 31, 120, 180)' fill-opacity = '0.250000' points = '227.2,540.3 227.2,662.4 229.1,662.4 229.1,538.8 '/>
		<polygon fill = 'rgb( 31, 120, 180)' fill-opacity = '0.250000' points = '229.1,538.8 229.1,662.4 230.9,662.4 230.9,537.3 '/>
		<polygon fill = 'rgb( 31, 120, 180)' fill-opacity = '0.250000' points = '230.9,537.3 230.9,662.4 232.8,662.4 232.8,535.8 '/>
		<polygon fill = 'rgb( 31, 120, 180)' fill-opacity = '0.250000' points = '232.8,535.8 232.8,662.4 234.6,662.4 234.6,534.2 '/>
		<polygon fill = 'rgb( 31, 120, 180)' fill-opacity = '0.250000' points = '234.6,534.2 234.6,662.4 236.4,662.4 236.4,532.7 '/>
		<polygon fill = 'rgb( 31, 120, 180)' fill-opacity = '0.250000' points = '236.4,532.7 236.4,662.4 238.3,662.4 238.3,531.1 '/>
		<polygon fill = 'rgb( 31, 120, 180)' fill-opacity = '0.250000' points = '238.3,531.1 238.3,662.4 240.1,662.4 240.1,529.6 '/>
		<polygon fill = 'rgb( 31, 120, 180)' fill-opacity = '0.250000' points = '240.1,529.6 240.1,662.4 241.9,662.4 241.9,528.0 '/>
		<polygon fill = 'rgb( 31, 120, 180)' fill-opacity = '0.250000' points = '241.9,528.0 241.9,662.4 243.8,662.4 243.8,526.4 '/>
		<polygon fill = 'rgb( 31, 120, 180)' fill-opacity = '0.250000' points = '243.8,526.4 243.8,662.4 245.6,662.4 245.6,524.8 '/>
		<polygon fill = 'rgb( 31, 120, 180)' fill-opacity = '0.250000' points = '245.6,524.8 245.6,662.4 247.5,662.4 247.5,523.2 '/>
		<polygon fill = 'rgb( 31, 120, 180)' fill-opacity = '0.250000' points = '247.5,523.2 247.5,662.4 249.3,662.4 249.3,521.5 '/>
		<polygon fill = 'rgb( 31, 120, 180)' fill-opacity = '0.250000' points = '249.3,521.5 249.3,662.4 251.1,662.4 251.1,519.9 '/>
		<polygon fill = 'rgb( 31, 120, 180)' fill-opacity = '0.250000' points = '251.1,519.9 251.1,662.4 253.0,662.4 253.0,518.2 '/>
		<polygon fill = 'rgb( 31, 120, 180)' fill-opacity = '0.250000' points = '253.0,518.2 253.0,662.4 254.8,662.4 254.8,516.5 '/>
		<polygon fill = 'rgb( 31, 120, 180)' fill-opacity = '0.250000' points = '254.8,516.5 254.8,662.4 256.6,662.4 256.6,514.8 '/>
		<polygon fill = 'rgb( 31, 120, 180)' fill-opacity = '0.250000' points = '256.6,514.8 256.6,662.4 258.5,662.4 258.5,513.1 '/>
		<polygon fill = 'rgb( 31, 120, 180)' fill-opacity = '0.250000' points = '258.5,513.1 258.5,662.4 260.3,662.4 260.3,511.3 '/>
		<polygon fill = 'rgb( 31, 120, 180)' fill-opacity = '0.250000' points = '260.3,511.3 260.3,662.4 262.2,662.4 262.2,509.6 '/>
		<polygon fill = 'rgb( 31, 120, 180)' fill-opacity = '0.250000' points = '262.2,509.6 262.2,662.4 264.0,662.4 264.0,507.8 '/>
		<polygon fill = 'rgb( 31, 120, 180)' fill-opacity = '0.250000' points = '264.0,507.8 264.0,662.4 265.8,662.4 265.8,506.0 '/>
		<polygon fill = 'rgb( 31, 120, 180)' fill-opacity = '0.250000' points = '265.8,506.0 265.8,662.4 267.7,662.4 267.7,504.2 '/>
		<polygon fill = 'rgb( 31, 120, 180)' fill-opacity = '0.250000' points = '267.7,504.2 267.7,662.4 269.5,662.4 269.5,502.4 '/>
		<polygon fill = 'rgb( 31, 120, 180)' fill-opacity = '0.250000' points = '269.5,502.4 269.5,662.4 271.3,662.4 271.3,500.5 '/>
		<polygon fill = 'rgb( 31, 120, 180)' fill-opacity = '0.250000' points = '271.3,500.5 271.3,662.4 273.2,662.4 273.2,498.6 '/>
		<polygon fill = 'rgb( 31, 120, 180)' fill-opacity = '0.250000' points = '273.2,498.6 273.2,662.4 275.0,662.4 275.0,496.7 '/>
		<polygon fill = 'rgb( 31, 120, 180)' fill-opacity = '0.250000' points = '275.0,496.7 275.0,662.4 276.9,662.4 276.9,494.8 '/>
		<polygon fill = 'rgb( 31, 120, 180)' fill-opacity = '0.250000' points = '276.9,494.8 276.9,662.4 278.7,662.4 278.7,492.8 '/>
		<polygon fill = 'rgb( 31, 120, 180)' fill-opacity = '0.250000' points = '278.7,492.8 278.7,662.4 280.5,662.4 280.5,490.8 '/>
		<polygon fill = 'rgb( 31, 120, 180)' fill-opacity = '0.250000' points = '280.5,490.8 280.5,662.4 282.4,662.4 282.4,488.7 '/>
		<polygon fill = 'rgb( 31, 120, 180)' fill-opacity = '0.250000' points = '282.4,488.7 282.4,662.4 284.2,662.4 284.2,486.7 '/>
		<polygon fill = 'rgb( 31, 120, 180)' fill-opacity = '0.250000' points = '284.2,486.7 284.2,662.4 286.0,662.4 286.0,484.6 '/>
		<polygon fill = 'rgb( 31, 120, 180)' fill-opacity = '0.250000' points = '286.0,484.6 286.0,662.4 287.9,662.4 287.9,482.4 '/>
		<polygon fill = 'rgb( 31, 120, 180)' fill-opacity = '0.250000' points = '287.9,482.4 287.9,662.4 289.7,662.4 289.7,480.3 '/>
		<polygon fill = 'rgb( 31, 120, 180)' fill-opacity = '0.250000' points = '289.7,480.3 289.7,662.4 291.6,662.4 291.6,478.1 '/>
		<polygon fill = 'rgb( 31, 120, 180)' fill-opacity = '0.250000' points = '291.6,478.1 291.6,662.4 293.4,662.4 293.4,475.8 '/>
		<polygon fill = 'rgb( 31, 120, 180)' fill-opacity = '0.250000' points = '293.4,475.8 293.4,662.4 295.2,662.4 295.2,473.6 '/>
		<polygon fill = 'rgb( 31, 120, 180)' fill-opacity = '0.250000' points = '295.2,473.6 295.2,662.4 297.1,662.4 297.1,471.3 '/>
		<polygon fill = 'rgb( 31, 120, 180)' fill-opacity = '0.250000' points = '297.1,471.3 297.1,662.4 298.9,662.4 298.9,469.0 '/>
		<polygon fill = 'rgb( 31, 120, 180)' fill-opacity = '0.250000' points = '298.9,469.0 298.9,662.4 300.7,662.4 300.7,466.7 '/>
		<polygon fill = 'rgb( 31, 120, 180)' fill-opacity = '0.250000' points = '300.7,466.7 300.7,662.4 302.6,662.4 302.6,464.3 '/>
		<polygon fill = 'rgb( 31, 120, 180)' fill-opacity = '0.250000' points = '302.6,464.3 302.6,662.4 304.4,662.4 304.4,462.0 '/>
		<polygon fill = 'rgb( 31, 120, 180)' fill-opacity = '0.250000' points = '304.4,462.0 304.4,662.4 306.2,662.4 306.2,459.6 '/>
		<polygon fill = 'rgb( 31, 120, 180)' fill-opacity = '0.250000' points = '306.2,459.6 306.2,662.4 308.1,662.4 308.1,457.2 '/>
		<polygon fill = 'rgb( 31, 120, 180)' fill-opacity = '0.250000' points = '308.1,457.2 308.1,662.4 309.9,662.4 309.9,454.8 '/>
		<polygon fill = 'rgb( 31, 120, 180)' fill-opacity = '0.250000' points = '309.9,454.8 309.9,662.4 311.8,662.4 311.8,452.3 '/>
		<polygon fill = 'rgb( 31, 120, 180)' fill-opacity = '0.250000' points = '311.8,452.3 311.8,662.4 313.6,662.4 313.6,449.9 '/>
		<polygon fill = 'rgb( 31, 120, 180)' fill-opacity = '0.250000' points = '313.6,449.9 313.6,662.4 315.4,662.4 315.4,447.5 '/>
		<polygon fill = 'rgb( 31, 120, 180)' fill-opacity = '0.250000' points = '315.4,447.5 315.4,662.4 317.3,662.4 317.3,445.0 '/>
		<polygon fill = 'rgb( 31, 120, 180)' fill-opacity = '0.250000' points = '317.3,445.0 317.3,662.4 319.1,662.4 319.1,442.6 '/>
		<polygon fill = 'rgb( 31, 120, 180)' fill-opacity = '0.250000' points = '319.1,442.6 319.1,662.4 320.9,662.4 320.9,440.2 '/>
		<polygon fill = 'rgb( 31, 120, 180)' fill-opacity = '0.250000' points = '320.9,440.2 320.9,662.4 322.8,662.4 322.8,437.7 '/>
		<polygon fill = 'rgb( 31, 120, 180)' fill-opacity = '0.250000' points = '322.8,437.7 322.8,662.4 324.6,662.4 324.6,435.3 '/>
		<polygon fill = 'rgb( 31, 120, 180)' fill-opacity = '0.250000' points = '324.6,435.3 324.6,662.4 326.5,662.4 326.5,432.8 '/>
		<polygon fill = 'rgb( 31, 120, 180)' fill-opacity = '0.250000' points = '326.5,432.8 326.5,662.4 328.3,662.4 328.3,430.4 '/>
		<polygon fill = 'rgb( 31, 120, 180)' fill-opacity = '0.250000' points = '328.3,430.4 328.3,662.4 330.1,662.4 330.1,427.9 '/>
		<polygon fill = 'rgb( 31, 120, 180)' fill-opacity = '0.250000' points = '330.1,427.9 330.1,662.4 332.0,662.4 332.0,425.4 '/>
		<polygon fill = 'rgb( 31, 120, 180)' fill-opacity = '0.250000' points = '332.0,425.4 332.0,662.4 333.8,662.4 333.8,423.0 '/>
		<polygon fill = 'rgb( 31, 120, 180)' fill-opacity = '0.250000' points = '333.8,423.0 333.8,662.4 335.6,662.4 335.6,420.5 '/>
		<polygon fill = 'rgb( 31, 120, 180)' fill-opacity = '0.250000' points = '335.6,420.5 335.6,662.4 337.5,662.4 337.5,418.0 '/>
		<polygon fill = 'rgb( 31, 120, 180)' fill-opacity = '0.250000' points = '337.5,418.0 337.5,662.4 339.3,662.4 339.3,415.6 '/>
		<polygon fill = 'rgb( 31, 120, 180)' fill-opacity = '0.250000' points = '339.3,415.6 339.3,662.4 341.2,662.4 341.2,413.1 '/>
		<polygon fill = 'rgb( 31, 120, 180)' fill-opacity = '0.250000' points = '341.2,413.1 341.2,662.4 343.0,662.4 343.0,410.6 '/>
		<polygon fill = 'rgb( 31, 120, 180)' fill-opacity = '0.250000' points = '343.0,410.6 343.0,662.4 344.8,662.4 344.8,408.0 '/>
		<polygon fill = 'rgb( 31, 120, 180)' fill-opacity = '0.250000' points = '344.8,408.0 344.8,662.4 346.7,662.4 346.7,405.5 '/>
		<polygon fill = 'rgb( 31, 120, 180)' fill-opacity = '0.250000' points = '346.7,405.5 346.7,662.4 348.5,662.4 348.5,402.9 '/>
		<polygon fill = 'rgb( 31, 120, 180)' fill-opacity = '0.250000' points = '348.5,402.9 348.5,662.4 350.3,662.4 350.3,400.3 '/>
		<polygon fill = 'rgb( 31, 120, 180)' fill-opacity = '0.250000' points = '350.3,400.3 350.3,662.4 352.2,662.4 352.2,397.7 '/>
		<polygon fill = 'rgb( 31, 120, 180)' fill-opacity = '0.250000' points = '352.2,397.7 352.2,662.4 354.0,662.4 354.0,395.1 '/>
		<polygon fill = 'rgb( 31, 120, 180)' fill-opacity = '0.250000' points = '354.0,395.1 354.0,662.4 355.9,662.4 355.9,392.4 '/>
		<polygon fill = 'rgb( 31, 120, 180)' fill-opacity = '0.250000' points = '355.9,392.4 355.9,662.4 357.7,662.4 357.7,389.8 '/>
		<polygon fill = 'rgb( 31, 120, 180)' fill-opacity = '0.250000' points = '357.7,389.8 357.7,662.4 359.5,662.4 359.5,387.1 '/>
		<polygon fill = 'rgb( 31, 120, 180)' fill-opacity = '0.250000' points = '359.5,387.1 359.5,662.4 361.4,662.4 361.4,384.4 '/>
		<polygon fill = 'rgb( 31, 120, 180)' fill-opacity = '0.250000' points = '361.4,384.4 361.4,662.4 363.2,662.4 363.2,381.6 '/>
		<polygon fill = 'rgb( 31, 120, 180)' fill-opacity = '0.250000' points = '363.2,381.6 363.2,662.4 365.0,662.4 365.0,378.9 '/>
		<polygon fill = 'rgb( 31, 120, 180)' fill-opacity = '0.250000' points = '365.0,378.9 365.0,662.4 366.9,662.4 366.9,376.1 '/>
		<polygon fill = 'rgb( 31, 120, 180)' fill-opacity = '0.250000' points = '366.9,376.1 366.9,662.4 368.7,662.4 368.7,373.4 '/>
		<polygon fill = 'rgb( 31, 120, 180)' fill-opacity = '0.250000' points = '368.7,373.4 368.7,662.4 370.6,662.4 370.6,370.6 '/>
		<polygon fill = 'rgb( 31, 120, 180)' fill-opacity = '0.250000' points = '370.6,370.6 370.6,662.4 372.4,662.4 372.4,367.9 '/>
		<polygon fill = 'rgb( 31, 120, 180)' fill-opacity = '0.250000' points = '372.4,367.9 372.4,662.4 374.2,662.4 374.2,365.1 '/>
		<polygon fill = 'rgb( 31, 120, 180)' fill-opacity = '0.250000' points = '374.2,365.1 374.2,662.4 376.1,662.4 376.1,362.4 '/>
		<polygon fill = 'rgb( 31, 120, 180)' fill-opacity = '0.250000' points = '376.1,362.4 376.1,662.4 377.9,662.4 377.9,359.7 '/>
		<polygon fill = 'rgb( 31, 120, 180)' fill-opacity = '0.250000' points = '377.9,359.7 377.9,662.4 379.7,662.4 379.7,357.0 '/>
		<polygon fill = 'rgb( 31, 120, 180)' fill-opacity = '0.250000' points = '379.7,357.0 379.7,662.4 381.6,662.4 381.6,354.3 '/>
		<polygon fill = 'rgb( 31, 120, 180)' fill-opacity = '0.250000' points = '381.6,354.3 381.6,662.4 383.4,662.4 383.4,351.6 '/>
		<polygon fill = 'rgb( 31, 120, 180)' fill-opacity = '0.250000' points = '383.4,351.6 383.4,662.4 385.3,662.4 385.3,349.0 '/>
		<polygon fill = 'rgb( 31, 120, 180)' fill-opacity = '0.250000' points = '385.3,349.0 385.3,662.4 387.1,662.4 387.1,346.4 '/>
		<polygon fill = 'rgb( 31, 120, 180)' fill-opacity = '0.250000' points = '387.1,346.4 387.1,662.4 388.9,662.4 388.9,343.8 '/>
		<polygon fill = 'rgb( 31, 120, 180)' fill-opacity = '0.250000' points = '388.9,343.8 388.9,662.4 390.8,662.4 390.8,341.1 '/>
		<polygon fill = 'rgb( 31, 120, 180)' fill-opacity = '0.250000' points = '390.8,341.1 390.8,662.4 392.6,662.4 392.6,338.6 '/>
		<polygon fill = 'rgb( 31, 120, 180)' fill-opacity = '0.250000' points = '392.6,338.6 392.6,662.4 394.4,662.4 394.4,336.0 '/>
		<polygon fill = 'rgb( 31, 120, 180)' fill-opacity = '0.250000' points = '394.4,336.0 394.4,662.4 396.3,662.4 396.3,333.4 '/>
		<polygon fill = 'rgb( 31, 120, 180)' fill-opacity = '0.250000' points = '396.3,333.4 396.3,662.4 398.1,662.4 398.1,330.8 '/>
		<polygon fill = 'rgb( 31, 120, 180)' fill-opacity = '0.250000' points = '398.1,330.8 398.1,662.4 400.0,662.4 400.0,328.2 '/>
		<polygon fill = 'rgb( 31, 120, 180)' fill-opacity = '0.250000' points = '400.0,328.2 400.0,662.4 401.8,662.4 401.8,325.7 '/>
		<polygon fill = 'rgb( 31, 120, 180)' fill-opacity = '0.250000' points = '401.8,325.7 401.8,662.4 403.6,662.4 403.6,323.1 '/>
		<polygon fill = 'rgb( 31, 120, 180)' fill-opacity = '0.250000' points = '403.6,323.1 403.6,662.4 405.5,662.4 405.5,320.5 '/>
		<polygon fill = 'rgb( 31, 120, 180)' fill-opacity = '0.250000' points = '405.5,320.5 405.5,662.4 407.3,662.4 407.3,317.9 '/>
		<polygon fill = 'rgb( 31, 120, 180)' fill-opacity = '0.250000' points = '407.3,317.9 407.3,662.4 409.1,662.4 409.1,315.2 '/>
		<polygon fill = 'rgb( 31, 120, 180)' fill-opacity = '0.250000' points = '409.1,315.2 409.1,662.4 411.0,662.4 411.0,312.6 '/>
		<polygon fill = 'rgb( 31, 120, 180)' fill-opacity = '0.250000' points = '411.0,312.6 411.0,662.4 412.8,662.4 412.8,309.9 '/>
		<polygon fill = 'rgb( 31, 120, 180)' fill-opacity = '0.250000' points = '412.8,309.9 412.8,662.4 414.6,662.4 414.6,307.2 '/>
		<polygon fill = 'rgb( 31, 120, 180)' fill-opacity = '0.250000' points = '414.6,307.2 414.6,662.4 416.5,662.4 416.5,304.5 '/>
		<polygon fill = 'rgb( 31, 120, 180)' fill-opacity = '0.250000' points = '416.5,304.5 416.5,662.4 418.3,662.4 418.3,301.8 '/>
		<polygon fill = 'rgb( 31, 120, 180)' fill-opacity = '0.250000' points = '418.3,301.8 418.3,662.4 420.2,662.4 420.2,299.1 '/>
		<polygon fill = 'rgb( 31, 120, 180)' fill-opacity = '0.250000' points = '420.2,299.1 420.2,662.4 422.0,662.4 422.0,296.3 '/>
		<polygon fill = 'rgb( 31, 120, 180)' fill-opacity = '0.250000' points = '422.0,296.3 422.0,662.4 423.8,662.4 423.8,293.5 '/>
		<polygon fill = 'rgb( 31, 120, 180)' fill-opacity = '0.250000' points = '423.8,293.5 423.8,662.4 425.7,662.4 425.7,290.7 '/>
		<polygon fill = 'rgb( 31, 120, 180)' fill-opacity = '0.250000' points = '425.7,290.7 425.7,662.4 427.5,662.4 427.5,287.9 '/>
		<polygon fill = 'rgb( 31, 120, 180)' fill-opacity = '0.250000' points = '427.5,287.9 427.5,662.4 429.3,662.4 429.3,285.1 '/>
		<polygon fill = 'rgb( 31, 120, 180)' fill-opacity = '0.250000' points = '429.3,285.1 429.3,662.4 431.2,662.4 431.2,282.2 '/>
		<polygon fill = 'rgb( 31, 120, 180)' fill-opacity = '0.250000' points = '431.2,282.2 431.2,662.4 433.0,662.4 433.0,279.4 '/>
		<polygon fill = 'rgb( 31, 120, 180)' fill-opacity = '0.250000' points = '433.0,279.4 433.0,662.4 434.9,662.4 434.9,276.5 '/>
		<polygon fill = 'rgb( 31, 120, 180)' fill-opacity = '0.250000' points = '434.9,276.5 434.9,662.4 436.7,662.4 436.7,273.7 '/>
		<polygon fill = 'rgb( 31, 120, 180)' fill-opacity = '0.250000' points = '436.7,273.7 436.7,662.4 438.5,662.4 438.5,270.8 '/>
		<polygon fill = 'rgb( 31, 120, 180)' fill-opacity = '0.250000' points = '438.5,270.8 438.5,662.4 440.4,662.4 440.4,267.9 '/>
		<polygon fill = 'rgb( 31, 120, 180)' fill-opacity = '0.250000' points = '440.4,267.9 440.4,662.4 442.2,662.4 442.2,265.1 '/>
		<polygon fill = 'rgb( 31, 120, 180)' fill-opacity = '0.250000' points = '442.2,265.1 442.2,662.4 444.0,662.4 444.0,262.2 '/>
		<polygon fill = 'rgb( 31, 120, 180)' fill-opacity = '0.250000' points = '444.0,262.2 444.0,662.4 445.9,662.4 445.9,259.4 '/>
		<polygon fill = 'rgb( 31, 120, 180)' fill-opacity = '0.250000' points = '445.9,259.4 445.9,662.4 447.7,662.4 447.7,256.5 '/>
		<polygon fill = 'rgb( 31, 120, 180)' fill-opacity = '0.250000' points = '447.7,256.5 447.7,662.4 449.6,662.4 449.6,253.7 '/>
		<polygon fill = 'rgb( 31, 120, 180)' fill-opacity = '0.250000' points = '449.6,253.7 449.6,662.4 451.4,662.4 451.4,250.9 '/>
		<polygon fill = 'rgb( 31, 120, 180)' fill-opacity = '0.250000' points = '451.4,250.9 451.4,662.4 453.2,662.4 453.2,248.1 '/>
		<polygon fill = 'rgb( 31, 120, 180)' fill-opacity = '0.250000' points = '453.2,248.1 453.2,662.4 455.1,662.4 455.1,245.3 '/>
		<polygon fill = 'rgb( 31, 120, 180)' fill-opacity = '0.250000' points = '455.1,245.3 455.1,662.4 456.9,662.4 456.9,242.5 '/>
		<polygon fill = 'rgb( 31, 120, 180)' fill-opacity = '0.250000' points = '456.9,242.5 456.9,662.4 458.7,662.4 458.7,239.7 '/>
		<polygon fill = 'rgb( 31, 120, 180)' fill-opacity = '0.250000' points = '458.7,239.7 458.7,662.4 460.6,662.4 460.6,236.9 '/>
		<polygon fill = 'rgb( 31, 120, 180)' fill-opacity = '0.250000' points = '460.6,236.9 460.6,662.4 462.4,662.4 462.4,234.2 '/>
		<polygon fill = 'rgb( 31, 120, 180)' fill-opacity = '0.250000' points = '462.4,234.2 462.4,662.4 464.3,662.4 464.3,231.5 '/>
		<polygon fill = 'rgb( 31, 120, 180)' fill-opacity = '0.250000' points = '464.3,231.5 464.3,662.4 466.1,662.4 466.1,228.8 '/>
		<polygon fill = 'rgb( 31, 120, 180)' fill-opacity = '0.250000' points = '466.1,228.8 466.1,662.4 467.9,662.4 467.9,226.1 '/>
		<polygon fill = 'rgb( 31, 120, 180)' fill-opacity = '0.250000' points = '467.9,226.1 467.9,662.4 469.8,662.4 469.8,223.5 '/>
		<polygon fill = 'rgb( 31, 120, 180)' fill-opacity = '0.250000' points = '469.8,223.5 469.8,662.4 471.6,662.4 471.6,220.8 '/>
		<polygon fill = 'rgb( 31, 120, 180)' fill-opacity = '0.250000' points = '471.6,220.8 471.6,662.4 473.4,662.4 473.4,218.3 '/>
		<polygon fill = 'rgb( 31, 120, 180)' fill-opacity = '0.250000' points = '473.4,218.3 473.4,662.4 475.3,662.4 475.3,215.7 '/>
		<polygon fill = 'rgb( 31, 120, 180)' fill-opacity = '0.250000' points = '475.3,215.7 475.3,662.4 477.1,662.4 477.1,213.2 '/>
		<polygon fill = 'rgb( 31, 120, 180)' fill-opacity = '0.250000' points = '477.1,213.2 477.1,662.4 479.0,662.4 479.0,210.7 '/>
		<polygon fill = 'rgb( 31, 120, 180)' fill-opacity = '0.250000' points = '479.0,210.7 479.0,662.4 480.8,662.4 480.8,208.2 '/>
		<polygon fill = 'rgb( 31, 120, 180)' fill-opacity = '0.250000' points = '480.8,208.2 480.8,662.4 482.6,662.4 482.6,205.8 '/>
		<polygon fill = 'rgb( 31, 120, 180)' fill-opacity = '0.250000' points = '482.6,205.8 482.6,662.4 484.5,662.4 484.5,203.4 '/>
		<polygon fill = 'rgb( 31, 120, 180)' fill-opacity = '0.250000' points = '484.5,203.4 484.5,662.4 486.3,662.4 486.3,201.0 '/>
		<polygon fill = 'rgb( 31, 120, 180)' fill-opacity = '0.250000' points = '486.3,201.0 486.3,662.4 488.1,662.4 488.1,198.7 '/>
		<polygon fill = 'rgb( 31, 120, 180)' fill-opacity = '0.250000' points = '488.1,198.7 488.1,662.4 490.0,662.4 490.0,196.4 '/>
		<polygon fill = 'rgb( 31, 120, 180)' fill-opacity = '0.250000' points = '490.0,196.4 490.0,662.4 491.8,662.4 491.8,194.1 '/>
		<polygon fill = 'rgb( 31, 120, 180)' fill-opacity = '0.250000' points = '491.8,194.1 491.8,662.4 493.7,662.4 493.7,191.9 '/>
		<polygon fill = 'rgb( 31, 120, 180)' fill-opacity = '0.250000' points = '493.7,191.9 493.7,662.4 495.5,662.4 495.5,189.7 '/>
		<polygon fill = 'rgb( 31, 120, 180)' fill-opacity = '0.250000' points = '495.5,189.7 495.5,662.4 497.3,662.4 497.3,187.5 '/>
		<polygon fill = 'rgb( 31, 120, 180)' fill-opacity = '0.250000' points = '497.3,187.5 497.3,662.4 499.2,662.4 499.2,185.4 '/>
		<polygon fill = 'rgb( 31, 120, 180)' fill-opacity = '0.250000' points = '499.2,185.4 499.2,662.4 501.0,662.4 501.0,183.4 '/>
		<polygon fill = 'rgb( 31, 120, 180)' fill-opacity = '0.250000' points = '501.0,183.4 501.0,662.4 502.8,662.4 502.8,181.4 '/>
		<polygon fill = 'rgb( 31, 120, 180)' fill-opacity = '0.250000' points = '502.8,181.4 502.8,662.4 504.7,662.4 504.7,179.5 '/>
		<polygon fill = 'rgb( 31, 120, 180)' fill-opacity = '0.250000' points = '504.7,179.5 504.7,662.4 506.5,662.4 506.5,177.6 '/>
		<polygon fill = 'rgb( 31, 120, 180)' fill-opacity = '0.250000' points = '506.5,177.6 506.5,662.4 508.3,662.4 508.3,175.8 '/>
		<polygon fill = 'rgb( 31, 120, 180)' fill-opacity = '0.250000' points = '508.3,175.8 508.3,662.4 510.2,662.4 510.2,174.1 '/>
		<polygon fill = 'rgb( 31, 120, 180)' fill-opacity = '0.250000' points = '510.2,174.1 510.2,662.4 512.0,662.4 512.0,172.4 '/>
		<polygon fill = 'rgb( 31, 120, 180)' fill-opacity = '0.250000' points = '512.0,172.4 512.0,662.4 513.9,662.4 513.9,170.8 '/>
		<polygon fill = 'rgb( 31, 120, 180)' fill-opacity = '0.250000' points = '513.9,170.8 513.9,662.4 515.7,662.4 515.7,169.3 '/>
		<polygon fill = 'rgb( 31, 120, 180)' fill-opacity = '0.250000' points = '515.7,169.3 515.7,662.4 517.5,662.4 517.5,167.8 '/>
		<polygon fill = 'rgb( 31, 120, 180)' fill-opacity = '0.250000' points = '517.5,167.8 517.5,662.4 519.4,662.4 519.4,166.4 '/>
		<polygon fill = 'rgb( 31, 120, 180)' fill-opacity = '0.250000' points = '519.4,166.4 519.4,662.4 521.2,662.4 521.2,165.1 '/>
		<polygon fill = 'rgb( 31, 120, 180)' fill-opacity = '0.250000' points = '521.2,165.1 521.2,662.4 523.0,662.4 523.0,163.9 '/>
		<polygon fill = 'rgb( 31, 120, 180)' fill-opacity = '0.250000' points = '523.0,163.9 523.0,662.4 524.9,662.4 524.9,162.7 '/>
		<polygon fill = 'rgb( 31, 120, 180)' fill-opacity = '0.250000' points = '524.9,162.7 524.9,662.4 526.7,662.4 526.7,161.5 '/>
		<polygon fill = 'rgb( 31, 120, 180)' fill-opacity = '0.250000' points = '526.7,161.5 526.7,662.4 528.6,662.4 528.6,160.4 '/>
		<polygon fill = 'rgb( 31, 120, 180)' fill-opacity = '0.250000' points = '528.6,160.4 528.6,662.4 530.4,662.4 530.4,159.4 '/>
		<polygon fill = 'rgb( 31, 120, 180)' fill-opacity = '0.250000' points = '530.4,159.4 530.4,662.4 532.2,662.4 532.2,158.3 '/>
		<polygon fill = 'rgb( 31, 120, 180)' fill-opacity = '0.250000' points = '532.2,158.3 532.2,662.4 534.1,662.4 534.1,157.3 '/>
		<polygon fill = 'rgb( 31, 120, 180)' fill-opacity = '0.250000' points = '534.1,157.3 534.1,662.4 535.9,662.4 535.9,156.3 '/>
		<polygon fill = 'rgb( 31, 120, 180)' fill-opacity = '0.250000' points = '535.9,156.3 535.9,662.4 537.7,662.4 537.7,155.4 '/>
		<polygon fill = 'rgb( 31, 120, 180)' fill-opacity = '0.250000' points = '537.7,155.4 537.7,662.4 539.6,662.4 539.6,154.4 '/>
		<polygon fill = 'rgb( 31, 120, 180)' fill-opacity = '0.250000' points = '539.6,154.4 539.6,662.4 541.4,662.4 541.4,153.5 '/>
		<polygon fill = 'rgb( 31, 120, 180)' fill-opacity = '0.250000' points = '541.4,153.5 541.4,662.4 543.3,662.4 543.3,152.5 '/>
		<polygon fill = 'rgb( 31, 120, 180)' fill-opacity = '0.250000' points = '543.3,152.5 543.3,662.4 545.1,662.4 545.1,151.6 '/>
		<polygon fill = 'rgb( 31, 120, 180)' fill-opacity = '0.250000' points = '545.1,151.6 545.1,662.4 546.9,662.4 546.9,150.7 '/>
		<polygon fill = 'rgb( 31, 120, 180)' fill-opacity = '0.250000' points = '546.9,150.7 546.9,662.4 548.8,662.4 548.8,149.7 '/>
		<polygon fill = 'rgb( 31, 120, 180)' fill-opacity = '0.250000' points = '548.8,149.7 548.8,662.4 550.6,662.4 550.6,148.8 '/>
		<polygon fill = 'rgb( 31, 120, 180)' fill-opacity = '0.250000' points = '550.6,148.8 550.6,662.4 552.4,662.4 552.4,147.8 '/>
		<polygon fill = 'rgb( 31, 120, 180)' fill-opacity = '0.250000' points = '552.4,147.8 552.4,662.4 554.3,662.4 554.3,146.9 '/>
		<polygon fill = 'rgb( 31, 120, 180)' fill-opacity = '0.250000' points = '554.3,146.9 554.3,662.4 556.1,662.4 556.1,146.0 '/>
		<polygon fill = 'rgb( 31, 120, 180)' fill-opacity = '0.250000' points = '556.1,146.0 556.1,662.4 558.0,662.4 558.0,145.0 '/>
		<polygon fill = 'rgb( 31, 120, 180)' fill-opacity = '0.250000' points = '558.0,145.0 558.0,662.4 559.8,662.4 559.8,144.1 '/>
		<polygon fill = 'rgb( 31, 120, 180)' fill-opacity = '0.250000' points = '559.8,144.1 559.8,662.4 561.6,662.4 561.6,143.2 '/>
		<polygon fill = 'rgb( 31, 120, 180)' fill-opacity = '0.250000' points = '561.6,143.2 561.6,662.4 563.5,662.4 563.5,142.2 '/>
		<polygon fill = 'rgb( 31, 120, 180)' fill-opacity = '0.250000' points = '563.5,142.2 563.5,662.4 565.3,662.4 565.3,141.3 '/>
		<polygon fill = 'rgb( 31, 120, 180)' fill-opacity = '0.250000' points = '565.3,141.3 565.3,662.4 567.1,662.4 567.1,140.3 '/>
		<polygon fill = 'rgb( 31, 120, 180)' fill-opacity = '0.250000' points = '567.1,140.3 567.1,662.4 569.0,662.4 569.0,139.4 '/>
		<polygon fill = 'rgb( 31, 120, 180)' fill-opacity = '0.250000' points = '569.0,139.4 569.0,662.4 570.8,662.4 570.8,138.5 '/>
		<polygon fill = 'rgb( 31, 120, 180)' fill-opacity = '0.250000' points = '570.8,138.5 570.8,662.4 572.7,662.4 572.7,137.5 '/>
		<polygon fill = 'rgb( 31, 120, 180)' fill-opacity = '0.250000' points = '572.7,137.5 572.7,662.4 574.5,662.4 574.5,136.6 '/>
		<polygon fill = 'rgb( 31, 120, 180)' fill-opacity = '0.250000' points = '574.5,136.6 574.5,662.4 576.3,662.4 576.3,135.7 '/>
		<polygon fill = 'rgb( 31, 120, 180)' fill-opacity = '0.250000' points = '576.3,135.7 576.3,662.4 578.2,662.4 578.2,134.7 '/>
		<polygon fill = 'rgb( 31, 120, 180)' fill-opacity = '0.250000' points = '578.2,134.7 578.2,662.4 580.0,662.4 580.0,133.8 '/>
		<polygon fill = 'rgb( 31, 120, 180)' fill-opacity = '0.250000' points = '580.0,133.8 580.0,662.4 581.8,662.4 581.8,132.9 '/>
		<polygon fill = 'rgb( 31, 120, 180)' fill-opacity = '0.250000' points = '581.8,132.9 581.8,662.4 583.7,662.4 583.7,132.0 '/>
		<polygon fill = 'rgb( 31, 120, 180)' fill-opacity = '0.250000' points = '583.7,132.0 583.7,662.4 585.5,662.4 585.5,131.2 '/>
		<polygon fill = 'rgb( 31, 120, 180)' fill-opacity = '0.250000' points = '585.5,131.2 585.5,662.4 587.4,662.4 587.4,130.4 '/>
		<polygon fill = 'rgb( 31, 120, 180)' fill-opacity = '0.250000' points = '587.4,130.4 587.4,662.4 589.2,662.4 589.2,129.6 '/>
		<polygon fill = 'rgb( 31, 120, 180)' fill-opacity = '0.250000' points = '589.2,129.6 589.2,662.4 591.0,662.4 591.0,128.8 '/>
		<polygon fill = 'rgb( 31, 120, 180)' fill-opacity = '0.250000' points = '591.0,128.8 591.0,662.4 592.9,662.4 592.9,128.1 '/>
		<polygon fill = 'rgb( 31, 120, 180)' fill-opacity = '0.250000' points = '592.9,128.1 592.9,662.4 594.7,662.4 594.7,127.5 '/>
		<polygon fill = 'rgb( 31, 120, 180)' fill-opacity = '0.250000' points = '594.7,127.5 594.7,662.4 596.5,662.4 596.5,126.9 '/>
		<polygon fill = 'rgb( 31, 120, 180)' fill-opacity = '0.250000' points = '596.5,126.9 596.5,662.4 598.4,662.4 598.4,126.4 '/>
		<polygon fill = 'rgb( 31, 120, 180)' fill-opacity = '0.250000' points = '598.4,126.4 598.4,662.4 600.2,662.4 600.2,125.9 '/>
		<polygon fill = 'rgb( 31, 120, 180)' fill-opacity = '0.250000' points = '600.2,125.9 600.2,662.4 602.1,662.4 602.1,125.5 '/>
		<polygon fill = 'rgb( 31, 120, 180)' fill-opacity = '0.250000' points = '602.1,125.5 602.1,662.4 603.9,662.4 603.9,125.2 '/>
		<polygon fill = 'rgb( 31, 120, 180)' fill-opacity = '0.250000' points = '603.9,125.2 603.9,662.4 605.7,662.4 605.7,125.0 '/>
		<polygon fill = 'rgb( 31, 120, 180)' fill-opacity = '0.250000' points = '605.7,125.0 605.7,662.4 607.6,662.4 607.6,124.8 '/>
		<polygon fill = 'rgb( 31, 120, 180)' fill-opacity = '0.250000' points = '607.6,124.8 607.6,662.4 609.4,662.4 609.4,124.8 '/>
		<polygon fill = 'rgb( 31, 120, 180)' fill-opacity = '0.250000' points = '609.4,124.8 609.4,662.4 611.2,662.4 611.2,124.8 '/>
		<polygon fill = 'rgb( 31, 120, 180)' fill-opacity = '0.250000' points = '611.2,124.8 611.2,662.4 613.1,662.4 613.1,124.8 '/>
		<polygon fill = 'rgb( 31, 120, 180)' fill-opacity = '0.250000' points = '613.1,124.8 613.1,662.4 614.9,662.4 614.9,125.0 '/>
		<polygon fill = 'rgb( 31, 120, 180)' fill-opacity = '0.250000' points = '614.9,125.0 614.9,662.4 616.7,662.4 616.7,125.2 '/>
		<polygon fill = 'rgb( 31, 120, 180)' fill-opacity = '0.250000' points = '616.7,125.2 616.7,662.4 618.6,662.4 618.6,125.5 '/>
		<polygon fill = 'rgb( 31, 120, 180)' fill-opacity = '0.250000' points = '618.6,125.5 618.6,662.4 620.4,662.4 620.4,125.9 '/>
		<polygon fill = 'rgb( 31, 120, 180)' fill-opacity = '0.250000' points = '620.4,125.9 620.4,662.4 622.3,662.4 622.3,126.4 '/>
		<polygon fill = 'rgb( 31, 120, 180)' fill-opacity = '0.250000' points = '622.3,126.4 622.3,662.4 624.1,662.4 624.1,126.9 '/>
		<polygon fill = 'rgb( 31, 120, 180)' fill-opacity = '0.250000' points = '624.1,126.9 624.1,662.4 625.9,662.4 625.9,127.6 '/>
		<polygon fill = 'rgb( 31, 120, 180)' fill-opacity = '0.250000' points = '625.9,127.6 625.9,662.4 627.8,662.4 627.8,128.3 '/>
		<polygon fill = 'rgb( 31, 120, 180)' fill-opacity = '0.250000' points = '627.8,128.3 627.8,662.4 629.6,662.4 629.6,129.0 '/>
		<polygon fill = 'rgb( 31, 120, 180)' fill-opacity = '0.250000' points = '629.6,129.0 629.6,662.4 631.4,662.4 631.4,129.9 '/>
		<polygon fill = 'rgb( 31, 120, 180)' fill-opacity = '0.250000' points = '631.4,129.9 631.4,662.4 633.3,662.4 633.3,130.8 '/>
		<polygon fill = 'rgb( 31, 120, 180)' fill-opacity = '0.250000' points = '633.3,130.8 633.3,662.4 635.1,662.4 635.1,131.8 '/>
		<polygon fill = 'rgb( 31, 120, 180)' fill-opacity = '0.250000' points = '635.1,131.8 635.1,662.4 637.0,662.4 637.0,132.8 '/>
		<polygon fill = 'rgb( 31, 120, 180)' fill-opacity = '0.250000' points = '637.0,132.8 637.0,662.4 638.8,662.4 638.8,133.9 '/>
		<polygon fill = 'rgb( 31, 120, 180)' fill-opacity = '0.250000' points = '638.8,133.9 638.8,662.4 640.6,662.4 640.6,135.1 '/>
		<polygon fill = 'rgb( 31, 120, 180)' fill-opacity = '0.250000' points = '640.6,135.1 640.6,662.4 642.5,662.4 642.5,136.4 '/>
		<polygon fill = 'rgb( 31, 120, 180)' fill-opacity = '0.250000' points = '642.5,136.4 642.5,662.4 644.3,662.4 644.3,137.6 '/>
		<polygon fill = 'rgb( 31, 120, 180)' fill-opacity = '0.250000' points = '644.3,137.6 644.3,662.4 646.1,662.4 646.1,139.0 '/>
		<polygon fill = 'rgb( 31, 120, 180)' fill-opacity = '0.250000' points = '646.1,139.0 646.1,662.4 648.0,662.4 648.0,140.3 '/>
		<polygon fill = 'rgb( 31, 120, 180)' fill-opacity = '0.250000' points = '648.0,140.3 648.0,662.4 649.8,662.4 649.8,141.8 '/>
		<polygon fill = 'rgb( 31, 120, 180)' fill-opacity = '0.250000' points = '649.8,141.8 649.8,662.4 651.7,662.4 651.7,143.2 '/>
		<polygon fill = 'rgb( 31, 120, 180)' fill-opacity = '0.250000' points = '651.7,143.2 651.7,662.4 653.5,662.4 653.5,144.7 '/>
		<polygon fill = 'rgb( 31, 120, 180)' fill-opacity = '0.250000' points = '653.5,144.7 653.5,662.4 655.3,662.4 655.3,146.2 '/>
		<polygon fill = 'rgb( 31, 120, 180)' fill-opacity = '0.250000' points = '655.3,146.2 655.3,662.4 657.2,662.4 657.2,147.7 '/>
		<polygon fill = 'rgb( 31, 120, 180)' fill-opacity = '0.250000' points = '657.2,147.7 657.2,662.4 659.0,662.4 659.0,149.2 '/>
		<polygon fill = 'rgb( 31, 120, 180)' fill-opacity = '0.250000' points = '659.0,149.2 659.0,662.4 660.8,662.4 660.8,150.8 '/>
		<polygon fill = 'rgb( 31, 120, 180)' fill-opacity = '0.250000' points = '660.8,150.8 660.8,662.4 662.7,662.4 662.7,152.4 '/>
		<polygon fill = 'rgb( 31, 120, 180)' fill-opacity = '0.250000' points = '662.7,152.4 662.7,662.4 664.5,662.4 664.5,154.0 '/>
		<polygon fill = 'rgb( 31, 120, 180)' fill-opacity = '0.250000' points = '664.5,154.0 664.5,662.4 666.4,662.4 666.4,155.6 '/>
		<polygon fill = 'rgb( 31, 120, 180)' fill-opacity = '0.250000' points = '666.4,155.6 666.4,662.4 668.2,662.4 668.2,157.3 '/>
		<polygon fill = 'rgb( 31, 120, 180)' fill-opacity = '0.250000' points = '668.2,157.3 668.2,662.4 670.0,662.4 670.0,159.0 '/>
		<polygon fill = 'rgb( 31, 120, 180)' fill-opacity = '0.250000' points = '670.0,159.0 670.0,662.4 671.9,662.4 671.9,160.7 '/>
		<polygon fill = 'rgb( 31, 120, 180)' fill-opacity = '0.250000' points = '671.9,160.7 671.9,662.4 673.7,662.4 673.7,162.5 '/>
		<polygon fill = 'rgb( 31, 120, 180)' fill-opacity = '0.250000' points = '673.7,162.5 673.7,662.4 675.5,662.4 675.5,164.3 '/>
		<polygon fill = 'rgb( 31, 120, 180)' fill-opacity = '0.250000' points = '675.5,164.3 675.5,662.4 677.4,662.4 677.4,166.2 '/>
		<polygon fill = 'rgb( 31, 120, 180)' fill-opacity = '0.250000' points = '677.4,166.2 677.4,662.4 679.2,662.4 679.2,168.1 '/>
		<polygon fill = 'rgb( 31, 120, 180)' fill-opacity = '0.250000' points = '679.2,168.1 679.2,662.4 681.1,662.4 681.1,170.1 '/>
		<polygon fill = 'rgb( 31, 120, 180)' fill-opacity = '0.250000' points = '681.1,170.1 681.1,662.4 682.9,662.4 682.9,172.2 '/>
		<polygon fill = 'rgb( 31, 120, 180)' fill-opacity = '0.250000' points = '682.9,172.2 682.9,662.4 684.7,662.4 684.7,174.3 '/>
		<polygon fill = 'rgb( 31, 120, 180)' fill-opacity = '0.250000' points = '684.7,174.3 684.7,662.4 686.6,662.4 686.6,176.5 '/>
		<polygon fill = 'rgb( 31, 120, 180)' fill-opacity = '0.250000' points = '686.6,176.5 686.6,662.4 688.4,662.4 688.4,178.7 '/>
		<polygon fill = 'rgb( 31, 120, 180)' fill-opacity = '0.250000' points = '688.4,178.7 688.4,662.4 690.2,662.4 690.2,181.0 '/>
		<polygon fill = 'rgb( 31, 120, 180)' fill-opacity = '0.250000' points = '690.2,181.0 690.2,662.4 692.1,662.4 692.1,183.4 '/>
		<polygon fill = 'rgb( 31, 120, 180)' fill-opacity = '0.250000' points = '692.1,183.4 692.1,662.4 693.9,662.4 693.9,185.8 '/>
		<polygon fill = 'rgb( 31, 120, 180)' fill-opacity = '0.250000' points = '693.9,185.8 693.9,662.4 695.8,662.4 695.8,188.3 '/>
		<polygon fill = 'rgb( 31, 120, 180)' fill-opacity = '0.250000' points = '695.8,188.3 695.8,662.4 697.6,662.4 697.6,190.8 '/>
		<polygon fill = 'rgb( 31, 120, 180)' fill-opacity = '0.250000' points = '697.6,190.8 697.6,662.4 699.4,662.4 699.4,193.4 '/>
		<polygon fill = 'rgb( 31, 120, 180)' fill-opacity = '0.250000' points = '699.4,193.4 699.4,662.4 701.3,662.4 701.3,196.1 '/>
		<polygon fill = 'rgb( 31, 120, 180)' fill-opacity = '0.250000' points = '701.3,196.1 701.3,662.4 703.1,662.4 703.1,198.8 '/>
		<polygon fill = 'rgb( 31, 120, 180)' fill-opacity = '0.250000' points = '703.1,198.8 703.1,662.4 704.9,662.4 704.9,201.5 '/>
		<polygon fill = 'rgb( 31, 120, 180)' fill-opacity = '0.250000' points = '704.9,201.5 704.9,662.4 706.8,662.4 706.8,204.3 '/>
		<polygon fill = 'rgb( 31, 120, 180)' fill-opacity = '0.250000' points = '706.8,204.3 706.8,662.4 708.6,662.4 708.6,207.1 '/>
		<polygon fill = 'rgb( 31, 120, 180)' fill-opacity = '0.250000' points = '708.6,207.1 708.6,662.4 710.4,662.4 710.4,210.0 '/>
		<polygon fill = 'rgb( 31, 120, 180)' fill-opacity = '0.250000' points = '710.4,210.0 710.4,662.4 712.3,662.4 712.3,212.9 '/>
		<polygon fill = 'rgb( 31, 120, 180)' fill-opacity = '0.250000' points = '712.3,212.9 712.3,662.4 714.1,662.4 714.1,215.8 '/>
		<polygon fill = 'rgb( 31, 120, 180)' fill-opacity = '0.250000' points = '714.1,215.8 714.1,662.4 716.0,662.4 716.0,218.8 '/>
		<polygon fill = 'rgb( 31, 120, 180)' fill-opacity = '0.250000' points = '716.0,218.8 716.0,662.4 717.8,662.4 717.8,221.8 '/>
		<polygon fill = 'rgb( 31, 120, 180)' fill-opacity = '0.250000' points = '717.8,221.8 717.8,662.4 719.6,662.4 719.6,224.8 '/>
		<polygon fill = 'rgb( 31, 120, 180)' fill-opacity = '0.250000' points = '719.6,224.8 719.6,662.4 721.5,662.4 721.5,227.8 '/>
		<polygon fill = 'rgb( 31, 120, 180)' fill-opacity = '0.250000' points = '721.5,227.8 721.5,662.4 723.3,662.4 723.3,230.8 '/>
		<polygon fill = 'rgb( 31, 120, 180)' fill-opacity = '0.250000' points = '723.3,230.8 723.3,662.4 725.1,662.4 725.1,233.8 '/>
		<polygon fill = 'rgb( 31, 120, 180)' fill-opacity = '0.250000' points = '725.1,233.8 725.1,662.4 727.0,662.4 727.0,236.9 '/>
		<polygon fill = 'rgb( 31, 120, 180)' fill-opacity = '0.250000' points = '727.0,236.9 727.0,662.4 728.8,662.4 728.8,239.9 '/>
		<polygon fill = 'rgb( 31, 120, 180)' fill-opacity = '0.250000' points = '728.8,239.9 728.8,662.4 730.7,662.4 730.7,242.9 '/>
		<polygon fill = 'rgb( 31, 120, 180)' fill-opacity = '0.250000' points = '730.7,242.9 730.7,662.4 732.5,662.4 732.5,245.9 '/>
		<polygon fill = 'rgb( 31, 120, 180)' fill-opacity = '0.250000' points = '732.5,245.9 732.5,662.4 734.3,662.4 734.3,248.9 '/>
		<polygon fill = 'rgb( 31, 120, 180)' fill-opacity = '0.250000' points = '734.3,248.9 734.3,662.4 736.2,662.4 736.2,251.8 '/>
		<polygon fill = 'rgb( 31, 120, 180)' fill-opacity = '0.250000' points = '736.2,251.8 736.2,662.4 738.0,662.4 738.0,254.7 '/>
		<polygon fill = 'rgb( 31, 120, 180)' fill-opacity = '0.250000' points = '738.0,254.7 738.0,662.4 739.8,662.4 739.8,257.6 '/>
		<polygon fill = 'rgb( 31, 120, 180)' fill-opacity = '0.250000' points = '739.8,257.6 739.8,662.4 741.7,662.4 741.7,260.5 '/>
		<polygon fill = 'rgb( 31, 120, 180)' fill-opacity = '0.250000' points = '741.7,260.5 741.7,662.4 743.5,662.4 743.5,263.3 '/>
		<polygon fill = 'rgb( 31, 120, 180)' fill-opacity = '0.250000' points = '743.5,263.3 743.5,662.4 745.4,662.4 745.4,266.2 '/>
		<polygon fill = 'rgb( 31, 120, 180)' fill-opacity = '0.250000' points = '745.4,266.2 745.4,662.4 747.2,662.4 747.2,269.0 '/>
		<polygon fill = 'rgb( 31, 120, 180)' fill-opacity = '0.250000' points = '747.2,269.0 747.2,662.4 749.0,662.4 749.0,271.8 '/>
		<polygon fill = 'rgb( 31, 120, 180)' fill-opacity = '0.250000' points = '749.0,271.8 749.0,662.4 750.9,662.4 750.9,274.6 '/>
		<polygon fill = 'rgb( 31, 120, 180)' fill-opacity = '0.250000' points = '750.9,274.6 750.9,662.4 752.7,662.4 752.7,277.4 '/>
		<polygon fill = 'rgb( 31, 120, 180)' fill-opacity = '0.250000' points = '752.7,277.4 752.7,662.4 754.5,662.4 754.5,280.2 '/>
		<polygon fill = 'rgb( 31, 120, 180)' fill-opacity = '0.250000' points = '754.5,280.2 754.5,662.4 756.4,662.4 756.4,283.0 '/>
		<polygon fill = 'rgb( 31, 120, 180)' fill-opacity = '0.250000' points = '756.4,283.0 756.4,662.4 758.2,662.4 758.2,285.8 '/>
		<polygon fill = 'rgb( 31, 120, 180)' fill-opacity = '0.250000' points = '758.2,285.8 758.2,662.4 760.1,662.4 760.1,288.6 '/>
		<polygon fill = 'rgb( 31, 120, 180)' fill-opacity = '0.250000' points = '760.1,288.6 760.1,662.4 761.9,662.4 761.9,291.5 '/>
		<polygon fill = 'rgb( 31, 120, 180)' fill-opacity = '0.250000' points = '761.9,291.5 761.9,662.4 763.7,662.4 763.7,294.4 '/>
		<polygon fill = 'rgb( 31, 120, 180)' fill-opacity = '0.250000' points = '763.7,294.4 763.7,662.4 765.6,662.4 765.6,297.3 '/>
		<polygon fill = 'rgb( 31, 120, 180)' fill-opacity = '0.250000' points = '765.6,297.3 765.6,662.4 767.4,662.4 767.4,300.2 '/>
		<polygon fill = 'rgb( 31, 120, 180)' fill-opacity = '0.250000' points = '767.4,300.2 767.4,662.4 769.2,662.4 769.2,303.2 '/>
		<polygon fill = 'rgb( 31, 120, 180)' fill-opacity = '0.250000' points = '769.2,303.2 769.2,662.4 771.1,662.4 771.1,306.3 '/>
		<polygon fill = 'rgb( 31, 120, 180)' fill-opacity = '0.250000' points = '771.1,306.3 771.1,662.4 772.9,662.4 772.9,309.3 '/>
		<polygon fill = 'rgb( 31, 120, 180)' fill-opacity = '0.250000' points = '772.9,309.3 772.9,662.4 774.8,662.4 774.8,312.5 '/>
		<polygon fill = 'rgb( 31, 120, 180)' fill-opacity = '0.250000' points = '774.8,312.5 774.8,662.4 776.6,662.4 776.6,315.6 '/>
		<polygon fill = 'rgb( 31, 120, 180)' fill-opacity = '0.250000' points = '776.6,315.6 776.6,662.4 778.4,662.4 778.4,318.8 '/>
		<polygon fill = 'rgb( 31, 120, 180)' fill-opacity = '0.250000' points = '778.4,318.8 778.4,662.4 780.3,662.4 780.3,322.0 '/>
		<polygon fill = 'rgb( 31, 120, 180)' fill-opacity = '0.250000' points = '780.3,322.0 780.3,662.4 782.1,662.4 782.1,325.3 '/>
		<polygon fill = 'rgb( 31, 120, 180)' fill-opacity = '0.250000' points = '782.1,325.3 782.1,662.4 783.9,662.4 783.9,328.5 '/>
		<polygon fill = 'rgb( 31, 120, 180)' fill-opacity = '0.250000' points = '783.9,328.5 783.9,662.4 785.8,662.4 785.8,331.9 '/>
		<polygon fill = 'rgb( 31, 120, 180)' fill-opacity = '0.250000' points = '785.8,331.9 785.8,662.4 787.6,662.4 787.6,335.2 '/>
		<polygon fill = 'rgb( 31, 120, 180)' fill-opacity = '0.250000' points = '787.6,335.2 787.6,662.4 789.5,662.4 789.5,338.6 '/>
		<polygon fill = 'rgb( 31, 120, 180)' fill-opacity = '0.250000' points = '789.5,338.6 789.5,662.4 791.3,662.4 791.3,342.0 '/>
		<polygon fill = 'rgb( 31, 120, 180)' fill-opacity = '0.250000' points = '791.3,342.0 791.3,662.4 793.1,662.4 793.1,345.4 '/>
		<polygon fill = 'rgb( 31, 120, 180)' fill-opacity = '0.250000' points = '793.1,345.4 793.1,662.4 795.0,662.4 795.0,348.9 '/>
		<polygon fill = 'rgb( 31, 120, 180)' fill-opacity = '0.250000' points = '795.0,348.9 795.0,662.4 796.8,662.4 796.8,352.4 '/>
		<polygon fill = 'rgb( 31, 120, 180)' fill-opacity = '0.250000' points = '796.8,352.4 796.8,662.4 798.6,662.4 798.6,355.9 '/>
		<polygon fill = 'rgb( 31, 120, 180)' fill-opacity = '0.250000' points = '798.6,355.9 798.6,662.4 800.5,662.4 800.5,359.4 '/>
		<polygon fill = 'rgb( 31, 120, 180)' fill-opacity = '0.250000' points = '800.5,359.4 800.5,662.4 802.3,662.4 802.3,362.9 '/>
		<polygon fill = 'rgb( 31, 120, 180)' fill-opacity = '0.250000' points = '802.3,362.9 802.3,662.4 804.2,662.4 804.2,366.5 '/>
		<polygon fill = 'rgb( 31, 120, 180)' fill-opacity = '0.250000' points = '804.2,366.5 804.2,662.4 806.0,662.4 806.0,370.0 '/>
		<polygon fill = 'rgb( 31, 120, 180)' fill-opacity = '0.250000' points = '806.0,370.0 806.0,662.4 807.8,662.4 807.8,373.6 '/>
		<polygon fill = 'rgb( 31, 120, 180)' fill-opacity = '0.250000' points = '807.8,373.6 807.8,662.4 809.7,662.4 809.7,377.2 '/>
		<polygon fill = 'rgb( 31, 120, 180)' fill-opacity = '0.250000' points = '809.7,377.2 809.7,662.4 811.5,662.4 811.5,380.8 '/>
		<polygon fill = 'rgb( 31, 120, 180)' fill-opacity = '0.250000' points = '811.5,380.8 811.5,662.4 813.3,662.4 813.3,384.4 '/>
		<polygon fill = 'rgb( 31, 120, 180)' fill-opacity = '0.250000' points = '813.3,384.4 813.3,662.4 815.2,662.4 815.2,387.9 '/>
		<polygon fill = 'rgb( 31, 120, 180)' fill-opacity = '0.250000' points = '815.2,387.9 815.2,662.4 817.0,662.4 817.0,391.5 '/>
		<polygon fill = 'rgb( 31, 120, 180)' fill-opacity = '0.250000' points = '817.0,391.5 817.0,662.4 818.8,662.4 818.8,395.1 '/>
		<polygon fill = 'rgb( 31, 120, 180)' fill-opacity = '0.250000' points = '818.8,395.1 818.8,662.4 820.7,662.4 820.7,398.6 '/>
		<polygon fill = 'rgb( 31, 120, 180)' fill-opacity = '0.250000' points = '820.7,398.6 820.7,662.4 822.5,662.4 822.5,402.1 '/>
		<polygon fill = 'rgb( 31, 120, 180)' fill-opacity = '0.250000' points = '822.5,402.1 822.5,662.4 824.4,662.4 824.4,405.6 '/>
		<polygon fill = 'rgb( 31, 120, 180)' fill-opacity = '0.250000' points = '824.4,405.6 824.4,662.4 826.2,662.4 826.2,409.0 '/>
		<polygon fill = 'rgb( 31, 120, 180)' fill-opacity = '0.250000' points = '826.2,409.0 826.2,662.4 828.0,662.4 828.0,412.4 '/>
		<polygon fill = 'rgb( 31, 120, 180)' fill-opacity = '0.250000' points = '828.0,412.4 828.0,662.4 829.9,662.4 829.9,415.8 '/>
		<polygon fill = 'rgb( 31, 120, 180)' fill-opacity = '0.250000' points = '829.9,415.8 829.9,662.4 831.7,662.4 831.7,419.1 '/>
		<polygon fill = 'rgb( 31, 120, 180)' fill-opacity = '0.250000' points = '831.7,419.1 831.7,662.4 833.5,662.4 833.5,422.3 '/>
		<polygon fill = 'rgb( 31, 120, 180)' fill-opacity = '0.250000' points = '833.5,422.3 833.5,662.4 835.4,662.4 835.4,425.5 '/>
		<polygon fill = 'rgb( 31, 120, 180)' fill-opacity = '0.250000' points = '835.4,425.5 835.4,662.4 837.2,662.4 837.2,428.7 '/>
		<polygon fill = 'rgb( 31, 120, 180)' fill-opacity = '0.250000' points = '837.2,428.7 837.2,662.4 839.1,662.4 839.1,431.8 '/>
		<polygon fill = 'rgb( 31, 120, 180)' fill-opacity = '0.250000' points = '839.1,431.8 839.1,662.4 840.9,662.4 840.9,434.8 '/>
		<polygon fill = 'rgb( 31, 120, 180)' fill-opacity = '0.250000' points = '840.9,434.8 840.9,662.4 842.7,662.4 842.7,437.9 '/>
		<polygon fill = 'rgb( 31, 120, 180)' fill-opacity = '0.250000' points = '842.7,437.9 842.7,662.4 844.6,662.4 844.6,440.8 '/>
		<polygon fill = 'rgb( 31, 120, 180)' fill-opacity = '0.250000' points = '844.6,440.8 844.6,662.4 846.4,662.4 846.4,443.7 '/>
		<polygon fill = 'rgb( 31, 120, 180)' fill-opacity = '0.250000' points = '846.4,443.7 846.4,662.4 848.2,662.4 848.2,446.6 '/>
		<polygon fill = 'rgb( 31, 120, 180)' fill-opacity = '0.250000' points = '848.2,446.6 848.2,662.4 850.1,662.4 850.1,449.5 '/>
		<polygon fill = 'rgb( 31, 120, 180)' fill-opacity = '0.250000' points = '850.1,449.5 850.1,662.4 851.9,662.4 851.9,452.3 '/>
		<polygon fill = 'rgb( 31, 120, 180)' fill-opacity = '0.250000' points = '851.9,452.3 851.9,662.4 853.8,662.4 853.8,455.1 '/>
		<polygon fill = 'rgb( 31, 120, 180)' fill-opacity = '0.250000' points = '853.8,455.1 853.8,662.4 855.6,662.4 855.6,457.9 '/>
		<polygon fill = 'rgb( 31, 120, 180)' fill-opacity = '0.250000' points = '855.6,457.9 855.6,662.4 857.4,662.4 857.4,460.7 '/>
		<polygon fill = 'rgb( 31, 120, 180)' fill-opacity = '0.250000' points = '857.4,460.7 857.4,662.4 859.3,662.4 859.3,463.5 '/>
		<polygon fill = 'rgb( 31, 120, 180)' fill-opacity = '0.250000' points = '859.3,463.5 859.3,662.4 861.1,662.4 861.1,466.2 '/>
		<polygon fill = 'rgb( 31, 120, 180)' fill-opacity = '0.250000' points = '861.1,466.2 861.1,662.4 862.9,662.4 862.9,469.0 '/>
		<polygon fill = 'rgb( 31, 120, 180)' fill-opacity = '0.250000' points = '862.9,469.0 862.9,662.4 864.8,662.4 864.8,471.8 '/>
		<polygon fill = 'rgb( 31, 120, 180)' fill-opacity = '0.250000' points = '864.8,471.8 864.8,662.4 866.6,662.4 866.6,474.5 '/>
		<polygon fill = 'rgb( 31, 120, 180)' fill-opacity = '0.250000' points = '866.6,474.5 866.6,662.4 868.5,662.4 868.5,477.3 '/>
		<polygon fill = 'rgb( 31, 120, 180)' fill-opacity = '0.250000' points = '868.5,477.3 868.5,662.4 870.3,662.4 870.3,480.1 '/>
		<polygon fill = 'rgb( 31, 120, 180)' fill-opacity = '0.250000' points = '870.3,480.1 870.3,662.4 872.1,662.4 872.1,482.9 '/>
		<polygon fill = 'rgb( 31, 120, 180)' fill-opacity = '0.250000' points = '872.1,482.9 872.1,662.4 874.0,662.4 874.0,485.6 '/>
		<polygon fill = 'rgb( 31, 120, 180)' fill-opacity = '0.250000' points = '874.0,485.6 874.0,662.4 875.8,662.4 875.8,488.5 '/>
		<polygon fill = 'rgb( 31, 120, 180)' fill-opacity = '0.250000' points = '875.8,488.5 875.8,662.4 877.6,662.4 877.6,491.3 '/>
		<polygon fill = 'rgb( 31, 120, 180)' fill-opacity = '0.250000' points = '877.6,491.3 877.6,662.4 879.5,662.4 879.5,494.1 '/>
		<polygon fill = 'rgb( 31, 120, 180)' fill-opacity = '0.250000' points = '879.5,494.1 879.5,662.4 881.3,662.4 881.3,497.0 '/>
		<polygon fill = 'rgb( 31, 120, 180)' fill-opacity = '0.250000' points = '881.3,497.0 881.3,662.4 883.2,662.4 883.2,499.8 '/>
		<polygon fill = 'rgb( 31, 120, 180)' fill-opacity = '0.250000' points = '883.2,499.8 883.2,662.4 885.0,662.4 885.0,502.7 '/>
		<polygon fill = 'rgb( 31, 120, 180)' fill-opacity = '0.250000' points = '885.0,502.7 885.0,662.4 886.8,662.4 886.8,505.6 '/>
		<polygon fill = 'rgb( 31, 120, 180)' fill-opacity = '0.250000' points = '886.8,505.6 886.8,662.4 888.7,662.4 888.7,508.5 '/>
		<polygon fill = 'rgb( 31, 120, 180)' fill-opacity = '0.250000' points = '888.7,508.5 888.7,662.4 890.5,662.4 890.5,511.4 '/>
		<polygon fill = 'rgb( 31, 120, 180)' fill-opacity = '0.250000' points = '890.5,511.4 890.5,662.4 892.3,662.4 892.3,514.3 '/>
		<polygon fill = 'rgb( 31, 120, 180)' fill-opacity = '0.250000' points = '892.3,514.3 892.3,662.4 894.2,662.4 894.2,517.2 '/>
		<polygon fill = 'rgb( 31, 120, 180)' fill-opacity = '0.250000' points = '894.2,517.2 894.2,662.4 896.0,662.4 896.0,520.1 '/>
		<polygon fill = 'rgb( 31, 120, 180)' fill-opacity = '0.250000' points = '896.0,520.1 896.0,662.4 897.9,662.4 897.9,523.0 '/>
		<polygon fill = 'rgb( 31, 120, 180)' fill-opacity = '0.250000' points = '897.9,523.0 897.9,662.4 899.7,662.4 899.7,525.9 '/>
		<polygon fill = 'rgb( 31, 120, 180)' fill-opacity = '0.250000' points = '899.7,525.9 899.7,662.4 901.5,662.4 901.5,528.7 '/>
		<polygon fill = 'rgb( 31, 120, 180)' fill-opacity = '0.250000' points = '901.5,528.7 901.5,662.4 903.4,662.4 903.4,531.6 '/>
		<polygon fill = 'rgb( 31, 120, 180)' fill-opacity = '0.250000' points = '903.4,531.6 903.4,662.4 905.2,662.4 905.2,534.4 '/>
		<polygon fill = 'rgb( 31, 120, 180)' fill-opacity = '0.250000' points = '905.2,534.4 905.2,662.4 907.0,662.4 907.0,537.2 '/>
		<polygon fill = 'rgb( 31, 120, 180)' fill-opacity = '0.250000' points = '907.0,537.2 907.0,662.4 908.9,662.4 908.9,539.9 '/>
		<polygon fill = 'rgb( 31, 120, 180)' fill-opacity = '0.250000' points = '908.9,539.9 908.9,662.4 910.7,662.4 910.7,542.6 '/>
		<polygon fill = 'rgb( 31, 120, 180)' fill-opacity = '0.250000' points = '910.7,542.6 910.7,662.4 912.5,662.4 912.5,545.3 '/>
		<polygon fill = 'rgb( 31, 120, 180)' fill-opacity = '0.250000' points = '912.5,545.3 912.5,662.4 914.4,662.4 914.4,547.9 '/>
		<polygon fill = 'rgb( 31, 120, 180)' fill-opacity = '0.250000' points = '914.4,547.9 914.4,662.4 916.2,662.4 916.2,550.4 '/>
		<polygon fill = 'rgb( 31, 120, 180)' fill-opacity = '0.250000' points = '916.2,550.4 916.2,662.4 918.1,662.4 918.1,552.9 '/>
		<polygon fill = 'rgb( 31, 120, 180)' fill-opacity = '0.250000' points = '918.1,552.9 918.1,662.4 919.9,662.4 919.9,555.3 '/>
		<polygon fill = 'rgb( 31, 120, 180)' fill-opacity = '0.250000' points = '919.9,555.3 919.9,662.4 921.7,662.4 921.7,557.7 '/>
		<polygon fill = 'rgb( 31, 120, 180)' fill-opacity = '0.250000' points = '921.7,557.7 921.7,662.4 923.6,662.4 923.6,560.0 '/>
		<polygon fill = 'rgb( 31, 120, 180)' fill-opacity = '0.250000' points = '923.6,560.0 923.6,662.4 925.4,662.4 925.4,562.2 '/>
		<polygon fill = 'rgb( 31, 120, 180)' fill-opacity = '0.250000' points = '925.4,562.2 925.4,662.4 927.2,662.4 927.2,564.3 '/>
	</g>
</g>
	</g>
	<g id="gnuplot_plot_3" ><title>Point estimate</title>
<g fill="none" color="white" stroke="rgb( 31, 120, 180)" stroke-width="2.00" stroke-linecap="butt" stroke-linejoin="miter">
</g>
<g fill="none" color="black" stroke="currentColor" stroke-width="2.00" stroke-linecap="butt" stroke-linejoin="miter">
	<g transform="translate(1089.0,103.0)" stroke="none" fill="black" font-family="Helvetica" font-size="12.00"  text-anchor="start">
		<text><tspan font-family="Helvetica" >Point estimate</tspan></text>
	</g>
</g>
<g fill="none" color="black" stroke="currentColor" stroke-width="2.00" stroke-linecap="butt" stroke-linejoin="miter">
	<path stroke='rgb( 31, 120, 180)'  d='M1038.5,99.1 L1080.7,99.1 M619.8,662.4 L619.8,125.8  '/></g>
	</g>
<g fill="none" color="black" stroke="currentColor" stroke-width="2.00" stroke-linecap="butt" stroke-linejoin="miter">
</g>
<g fill="none" color="black" stroke="black" stroke-width="1.00" stroke-linecap="butt" stroke-linejoin="miter">
</g>
<g fill="none" color="black" stroke="currentColor" stroke-width="1.00" stroke-linecap="butt" stroke-linejoin="miter">
	<path stroke='black'  d='M96.8,54.1 L96.8,662.4 L1013.6,662.4 L1013.6,54.1 L96.8,54.1 Z  '/></g>
<g fill="none" color="black" stroke="currentColor" stroke-width="1.00" stroke-linecap="butt" stroke-linejoin="miter">
</g>
</g>
</svg>

