<?xml version="1.0" encoding="utf-8"  standalone="no"?>
<svg 
 viewBox="0 0 1280 720"
 xmlns="http://www.w3.org/2000/svg"
 xmlns:xlink="http://www.w3.org/1999/xlink"
>

<title>Gnuplot</title>
<desc>Produced by GNUPLOT 5.0 patchlevel 6 </desc>

<g id="gnuplot_canvas">

<rect x="0" y="0" width="1280" height="720" fill="none"/>
<defs>

	<circle id='gpDot' r='0.5' stroke-width='0.5'/>
	<path id='gpPt0' stroke-width='0.222' stroke='currentColor' d='M-1,0 h2 M0,-1 v2'/>
	<path id='gpPt1' stroke-width='0.222' stroke='currentColor' d='M-1,-1 L1,1 M1,-1 L-1,1'/>
	<path id='gpPt2' stroke-width='0.222' stroke='currentColor' d='M-1,0 L1,0 M0,-1 L0,1 M-1,-1 L1,1 M-1,1 L1,-1'/>
	<rect id='gpPt3' stroke-width='0.222' stroke='currentColor' x='-1' y='-1' width='2' height='2'/>
	<rect id='gpPt4' stroke-width='0.222' stroke='currentColor' fill='currentColor' x='-1' y='-1' width='2' height='2'/>
	<circle id='gpPt5' stroke-width='0.222' stroke='currentColor' cx='0' cy='0' r='1'/>
	<use xlink:href='#gpPt5' id='gpPt6' fill='currentColor' stroke='none'/>
	<path id='gpPt7' stroke-width='0.222' stroke='currentColor' d='M0,-1.33 L-1.33,0.67 L1.33,0.67 z'/>
	<use xlink:href='#gpPt7' id='gpPt8' fill='currentColor' stroke='none'/>
	<use xlink:href='#gpPt7' id='gpPt9' stroke='currentColor' transform='rotate(180)'/>
	<use xlink:href='#gpPt9' id='gpPt10' fill='currentColor' stroke='none'/>
	<use xlink:href='#gpPt3' id='gpPt11' stroke='currentColor' transform='rotate(45)'/>
	<use xlink:href='#gpPt11' id='gpPt12' fill='currentColor' stroke='none'/>
	<path id='gpPt13' stroke-width='0.222' stroke='currentColor' d='M0,1.330 L1.265,0.411 L0.782,-1.067 L-0.782,-1.076 L-1.265,0.411 z'/>
	<use xlink:href='#gpPt13' id='gpPt14' fill='currentColor' stroke='none'/>
	<filter id='textbox' filterUnits='objectBoundingBox' x='0' y='0' height='1' width='1'>
	  <feFlood flood-color='white' flood-opacity='1' result='bgnd'/>
	  <feComposite in='SourceGraphic' in2='bgnd' operator='atop'/>
	</filter>
	<filter id='greybox' filterUnits='objectBoundingBox' x='0' y='0' height='1' width='1'>
	  <feFlood flood-color='lightgrey' flood-opacity='1' result='grey'/>
	  <feComposite in='SourceGraphic' in2='grey' operator='atop'/>
	</filter>
</defs>
<g fill="none" color="white" stroke="currentColor" stroke-width="1.00" stroke-linecap="butt" stroke-linejoin="miter">
</g>
<g fill="none" color="black" stroke="currentColor" stroke-width="1.00" stroke-linecap="butt" stroke-linejoin="miter">
	<path stroke='black'  d='M71.9,662.4 L80.9,662.4  '/>	<g transform="translate(63.6,666.3)" stroke="none" fill="black" font-family="Helvetica" font-size="12.00"  text-anchor="end">
		<text><tspan font-family="Helvetica" > 0</tspan></text>
	</g>
</g>
<g fill="none" color="black" stroke="currentColor" stroke-width="1.00" stroke-linecap="butt" stroke-linejoin="miter">
	<path stroke='black'  d='M71.9,540.7 L80.9,540.7  '/>	<g transform="translate(63.6,544.6)" stroke="none" fill="black" font-family="Helvetica" font-size="12.00"  text-anchor="end">
		<text><tspan font-family="Helvetica" > 50</tspan></text>
	</g>
</g>
<g fill="none" color="black" stroke="currentColor" stroke-width="1.00" stroke-linecap="butt" stroke-linejoin="miter">
	<path stroke='black'  d='M71.9,419.1 L80.9,419.1  '/>	<g transform="translate(63.6,423.0)" stroke="none" fill="black" font-family="Helvetica" font-size="12.00"  text-anchor="end">
		<text><tspan font-family="Helvetica" > 100</tspan></text>
	</g>
</g>
<g fill="none" color="black" stroke="currentColor" stroke-width="1.00" stroke-linecap="butt" stroke-linejoin="miter">
	<path stroke='black'  d='M71.9,297.4 L80.9,297.4  '/>	<g transform="translate(63.6,301.3)" stroke="none" fill="black" font-family="Helvetica" font-size="12.00"  text-anchor="end">
		<text><tspan font-family="Helvetica" > 150</tspan></text>
	</g>
</g>
<g fill="none" color="black" stroke="currentColor" stroke-width="1.00" stroke-linecap="butt" stroke-linejoin="miter">
	<path stroke='black'  d='M71.9,175.8 L80.9,175.8  '/>	<g transform="translate(63.6,179.7)" stroke="none" fill="black" font-family="Helvetica" font-size="12.00"  text-anchor="end">
		<text><tspan font-family="Helvetica" > 200</tspan></text>
	</g>
</g>
<g fill="none" color="black" stroke="currentColor" stroke-width="1.00" stroke-linecap="butt" stroke-linejoin="miter">
	<path stroke='black'  d='M71.9,54.1 L80.9,54.1  '/>	<g transform="translate(63.6,58.0)" stroke="none" fill="black" font-family="Helvetica" font-size="12.00"  text-anchor="end">
		<text><tspan font-family="Helvetica" > 250</tspan></text>
	</g>
</g>
<g fill="none" color="black" stroke="currentColor" stroke-width="1.00" stroke-linecap="butt" stroke-linejoin="miter">
	<path stroke='black'  d='M82.5,662.4 L82.5,653.4  '/>	<g transform="translate(82.5,684.3)" stroke="none" fill="black" font-family="Helvetica" font-size="12.00"  text-anchor="middle">
		<text><tspan font-family="Helvetica" >-5.4</tspan></text>
	</g>
</g>
<g fill="none" color="black" stroke="currentColor" stroke-width="1.00" stroke-linecap="butt" stroke-linejoin="miter">
	<path stroke='black'  d='M194.7,662.4 L194.7,653.4  '/>	<g transform="translate(194.7,684.3)" stroke="none" fill="black" font-family="Helvetica" font-size="12.00"  text-anchor="middle">
		<text><tspan font-family="Helvetica" >-5.3</tspan></text>
	</g>
</g>
<g fill="none" color="black" stroke="currentColor" stroke-width="1.00" stroke-linecap="butt" stroke-linejoin="miter">
	<path stroke='black'  d='M306.8,662.4 L306.8,653.4  '/>	<g transform="translate(306.8,684.3)" stroke="none" fill="black" font-family="Helvetica" font-size="12.00"  text-anchor="middle">
		<text><tspan font-family="Helvetica" >-5.2</tspan></text>
	</g>
</g>
<g fill="none" color="black" stroke="currentColor" stroke-width="1.00" stroke-linecap="butt" stroke-linejoin="miter">
	<path stroke='black'  d='M418.9,662.4 L418.9,653.4  '/>	<g transform="translate(418.9,684.3)" stroke="none" fill="black" font-family="Helvetica" font-size="12.00"  text-anchor="middle">
		<text><tspan font-family="Helvetica" >-5.1</tspan></text>
	</g>
</g>
<g fill="none" color="black" stroke="currentColor" stroke-width="1.00" stroke-linecap="butt" stroke-linejoin="miter">
	<path stroke='black'  d='M531.0,662.4 L531.0,653.4  '/>	<g transform="translate(531.0,684.3)" stroke="none" fill="black" font-family="Helvetica" font-size="12.00"  text-anchor="middle">
		<text><tspan font-family="Helvetica" >-5</tspan></text>
	</g>
</g>
<g fill="none" color="black" stroke="currentColor" stroke-width="1.00" stroke-linecap="butt" stroke-linejoin="miter">
	<path stroke='black'  d='M643.1,662.4 L643.1,653.4  '/>	<g transform="translate(643.1,684.3)" stroke="none" fill="black" font-family="Helvetica" font-size="12.00"  text-anchor="middle">
		<text><tspan font-family="Helvetica" >-4.9</tspan></text>
	</g>
</g>
<g fill="none" color="black" stroke="currentColor" stroke-width="1.00" stroke-linecap="butt" stroke-linejoin="miter">
	<path stroke='black'  d='M755.2,662.4 L755.2,653.4  '/>	<g transform="translate(755.2,684.3)" stroke="none" fill="black" font-family="Helvetica" font-size="12.00"  text-anchor="middle">
		<text><tspan font-family="Helvetica" >-4.8</tspan></text>
	</g>
</g>
<g fill="none" color="black" stroke="currentColor" stroke-width="1.00" stroke-linecap="butt" stroke-linejoin="miter">
	<path stroke='black'  d='M867.3,662.4 L867.3,653.4  '/>	<g transform="translate(867.3,684.3)" stroke="none" fill="black" font-family="Helvetica" font-size="12.00"  text-anchor="middle">
		<text><tspan font-family="Helvetica" >-4.7</tspan></text>
	</g>
</g>
<g fill="none" color="black" stroke="currentColor" stroke-width="1.00" stroke-linecap="butt" stroke-linejoin="miter">
	<path stroke='black'  d='M979.4,662.4 L979.4,653.4  '/>	<g transform="translate(979.4,684.3)" stroke="none" fill="black" font-family="Helvetica" font-size="12.00"  text-anchor="middle">
		<text><tspan font-family="Helvetica" >-4.6</tspan></text>
	</g>
</g>
<g fill="none" color="black" stroke="currentColor" stroke-width="1.00" stroke-linecap="butt" stroke-linejoin="miter">
</g>
<g fill="none" color="black" stroke="currentColor" stroke-width="1.00" stroke-linecap="butt" stroke-linejoin="miter">
	<path stroke='black'  d='M71.9,54.1 L71.9,662.4 L1013.6,662.4 L1013.6,54.1 L71.9,54.1 Z  '/></g>
<g fill="none" color="black" stroke="currentColor" stroke-width="1.00" stroke-linecap="butt" stroke-linejoin="miter">
	<g transform="translate(17.0,358.3) rotate(270)" stroke="none" fill="black" font-family="Helvetica" font-size="12.00"  text-anchor="middle">
		<text><tspan font-family="Helvetica" >Density (a.u.)</tspan></text>
	</g>
</g>
<g fill="none" color="black" stroke="currentColor" stroke-width="1.00" stroke-linecap="butt" stroke-linejoin="miter">
	<g transform="translate(542.7,711.3)" stroke="none" fill="black" font-family="Helvetica" font-size="12.00"  text-anchor="middle">
		<text><tspan font-family="Helvetica" >Relative change (%)</tspan></text>
	</g>
</g>
<g fill="none" color="black" stroke="currentColor" stroke-width="1.00" stroke-linecap="butt" stroke-linejoin="miter">
	<g transform="translate(542.7,31.0)" stroke="none" fill="black" font-family="Helvetica" font-size="12.00"  text-anchor="middle">
		<text><tspan font-family="Helvetica" >language: bash/parse error: go/examples/value.go: median</tspan></text>
	</g>
</g>
	<g id="gnuplot_plot_1" ><title>Bootstrap distribution</title>
<g fill="none" color="white" stroke="black" stroke-width="2.00" stroke-linecap="butt" stroke-linejoin="miter">
</g>
<g fill="none" color="black" stroke="currentColor" stroke-width="2.00" stroke-linecap="butt" stroke-linejoin="miter">
	<g transform="translate(1089.0,67.0)" stroke="none" fill="black" font-family="Helvetica" font-size="12.00"  text-anchor="start">
		<text><tspan font-family="Helvetica" >Bootstrap distribution</tspan></text>
	</g>
</g>
<g fill="none" color="black" stroke="currentColor" stroke-width="2.00" stroke-linecap="butt" stroke-linejoin="miter">
	<path stroke='rgb( 31, 120, 180)'  d='M1038.5,63.1 L1080.7,63.1 M71.9,646.8 L73.8,645.7 L75.7,644.6 L77.6,643.4 L79.4,642.1 L81.3,640.7
		L83.2,639.2 L85.1,637.6 L87.0,635.8 L88.9,633.9 L90.8,631.9 L92.7,629.7 L94.5,627.4 L96.4,624.9
		L98.3,622.2 L100.2,619.4 L102.1,616.5 L104.0,613.3 L105.9,610.0 L107.8,606.5 L109.6,602.9 L111.5,599.2
		L113.4,595.2 L115.3,591.2 L117.2,587.0 L119.1,582.8 L121.0,578.4 L122.9,573.9 L124.7,569.4 L126.6,564.9
		L128.5,560.4 L130.4,555.8 L132.3,551.3 L134.2,546.9 L136.1,542.6 L138.0,538.4 L139.8,534.3 L141.7,530.4
		L143.6,526.7 L145.5,523.2 L147.4,520.0 L149.3,517.0 L151.2,514.4 L153.0,512.0 L154.9,509.9 L156.8,508.1
		L158.7,506.6 L160.6,505.4 L162.5,504.6 L164.4,504.0 L166.3,503.7 L168.1,503.6 L170.0,503.8 L171.9,504.2
		L173.8,504.8 L175.7,505.6 L177.6,506.5 L179.5,507.6 L181.4,508.7 L183.2,509.9 L185.1,511.1 L187.0,512.3
		L188.9,513.4 L190.8,514.6 L192.7,515.6 L194.6,516.5 L196.5,517.3 L198.3,517.9 L200.2,518.4 L202.1,518.7
		L204.0,518.7 L205.9,518.6 L207.8,518.2 L209.7,517.6 L211.6,516.8 L213.4,515.7 L215.3,514.3 L217.2,512.8
		L219.1,511.0 L221.0,509.0 L222.9,506.8 L224.8,504.4 L226.6,501.8 L228.5,499.0 L230.4,496.2 L232.3,493.2
		L234.2,490.1 L236.1,487.0 L238.0,483.8 L239.9,480.6 L241.7,477.5 L243.6,474.4 L245.5,471.4 L247.4,468.5
		L249.3,465.7 L251.2,463.0 L253.1,460.6 L255.0,458.4 L256.8,456.3 L258.7,454.6 L260.6,453.0 L262.5,451.8
		L264.4,450.7 L266.3,450.0 L268.2,449.4 L270.1,449.1 L271.9,449.1 L273.8,449.2 L275.7,449.4 L277.6,449.8
		L279.5,450.3 L281.4,450.9 L283.3,451.4 L285.2,451.9 L287.0,452.3 L288.9,452.6 L290.8,452.7 L292.7,452.6
		L294.6,452.2 L296.5,451.5 L298.4,450.5 L300.2,449.2 L302.1,447.5 L304.0,445.4 L305.9,442.9 L307.8,440.0
		L309.7,436.8 L311.6,433.1 L313.5,429.1 L315.3,424.7 L317.2,420.0 L319.1,415.0 L321.0,409.8 L322.9,404.3
		L324.8,398.5 L326.7,392.6 L328.6,386.6 L330.4,380.4 L332.3,374.2 L334.2,368.0 L336.1,361.7 L338.0,355.5
		L339.9,349.4 L341.8,343.5 L343.7,337.7 L345.5,332.0 L347.4,326.7 L349.3,321.6 L351.2,316.7 L353.1,312.3
		L355.0,308.1 L356.9,304.4 L358.8,301.1 L360.6,298.1 L362.5,295.7 L364.4,293.6 L366.3,292.0 L368.2,290.9
		L370.1,290.2 L372.0,290.0 L373.8,290.2 L375.7,290.8 L377.6,291.8 L379.5,293.1 L381.4,294.7 L383.3,296.7
		L385.2,298.9 L387.1,301.2 L388.9,303.8 L390.8,306.4 L392.7,309.1 L394.6,311.9 L396.5,314.6 L398.4,317.2
		L400.3,319.8 L402.2,322.2 L404.0,324.4 L405.9,326.4 L407.8,328.3 L409.7,329.9 L411.6,331.3 L413.5,332.4
		L415.4,333.4 L417.3,334.0 L419.1,334.5 L421.0,334.8 L422.9,334.8 L424.8,334.7 L426.7,334.4 L428.6,333.9
		L430.5,333.3 L432.4,332.6 L434.2,331.7 L436.1,330.8 L438.0,329.8 L439.9,328.8 L441.8,327.8 L443.7,326.9
		L445.6,325.9 L447.4,325.1 L449.3,324.4 L451.2,323.9 L453.1,323.6 L455.0,323.6 L456.9,323.8 L458.8,324.3
		L460.7,325.2 L462.5,326.4 L464.4,327.9 L466.3,329.8 L468.2,332.1 L470.1,334.7 L472.0,337.5 L473.9,340.6
		L475.8,343.9 L477.6,347.3 L479.5,350.7 L481.4,354.2 L483.3,357.5 L485.2,360.7 L487.1,363.7 L489.0,366.3
		L490.9,368.5 L492.7,370.3 L494.6,371.5 L496.5,372.3 L498.4,372.4 L500.3,371.9 L502.2,370.9 L504.1,369.2
		L506.0,366.9 L507.8,364.1 L509.7,360.7 L511.6,356.7 L513.5,352.3 L515.4,347.4 L517.3,342.1 L519.2,336.5
		L521.0,330.5 L522.9,324.2 L524.8,317.6 L526.7,310.7 L528.6,303.6 L530.5,296.3 L532.4,288.8 L534.3,281.1
		L536.1,273.2 L538.0,265.1 L539.9,256.9 L541.8,248.5 L543.7,240.0 L545.6,231.5 L547.5,222.9 L549.4,214.3
		L551.2,205.9 L553.1,197.5 L555.0,189.5 L556.9,181.7 L558.8,174.3 L560.7,167.5 L562.6,161.2 L564.5,155.6
		L566.3,150.8 L568.2,146.8 L570.1,143.6 L572.0,141.4 L573.9,140.1 L575.8,139.8 L577.7,140.3 L579.5,141.8
		L581.4,144.0 L583.3,147.0 L585.2,150.6 L587.1,154.8 L589.0,159.3 L590.9,164.1 L592.8,169.0 L594.6,174.0
		L596.5,178.9 L598.4,183.5 L600.3,187.8 L602.2,191.8 L604.1,195.2 L606.0,198.2 L607.9,200.7 L609.7,202.6
		L611.6,204.0 L613.5,205.0 L615.4,205.6 L617.3,205.8 L619.2,205.8 L621.1,205.5 L623.0,205.1 L624.8,204.7
		L626.7,204.4 L628.6,204.1 L630.5,204.0 L632.4,204.1 L634.3,204.4 L636.2,205.0 L638.1,205.8 L639.9,206.9
		L641.8,208.3 L643.7,209.8 L645.6,211.5 L647.5,213.4 L649.4,215.4 L651.3,217.4 L653.1,219.4 L655.0,221.4
		L656.9,223.4 L658.8,225.3 L660.7,227.0 L662.6,228.7 L664.5,230.2 L666.4,231.6 L668.2,232.8 L670.1,233.9
		L672.0,234.9 L673.9,235.8 L675.8,236.7 L677.7,237.4 L679.6,238.1 L681.5,238.8 L683.3,239.5 L685.2,240.1
		L687.1,240.8 L689.0,241.4 L690.9,242.1 L692.8,242.7 L694.7,243.3 L696.6,243.8 L698.4,244.4 L700.3,244.8
		L702.2,245.2 L704.1,245.5 L706.0,245.7 L707.9,245.8 L709.8,245.9 L711.7,245.8 L713.5,245.6 L715.4,245.3
		L717.3,244.9 L719.2,244.4 L721.1,243.8 L723.0,243.2 L724.9,242.4 L726.7,241.6 L728.6,240.7 L730.5,239.7
		L732.4,238.5 L734.3,237.2 L736.2,235.8 L738.1,234.2 L740.0,232.4 L741.8,230.4 L743.7,228.1 L745.6,225.7
		L747.5,222.9 L749.4,219.9 L751.3,216.7 L753.2,213.3 L755.1,209.6 L756.9,205.8 L758.8,201.9 L760.7,197.9
		L762.6,193.8 L764.5,189.8 L766.4,185.9 L768.3,182.1 L770.2,178.6 L772.0,175.3 L773.9,172.3 L775.8,169.7
		L777.7,167.4 L779.6,165.5 L781.5,164.1 L783.4,163.1 L785.3,162.5 L787.1,162.3 L789.0,162.5 L790.9,163.1
		L792.8,164.1 L794.7,165.4 L796.6,167.0 L798.5,168.9 L800.3,171.1 L802.2,173.5 L804.1,176.2 L806.0,179.1
		L807.9,182.2 L809.8,185.6 L811.7,189.2 L813.6,193.0 L815.4,197.1 L817.3,201.5 L819.2,206.2 L821.1,211.1
		L823.0,216.4 L824.9,222.1 L826.8,228.1 L828.7,234.5 L830.5,241.3 L832.4,248.5 L834.3,256.1 L836.2,264.0
		L838.1,272.3 L840.0,280.9 L841.9,289.9 L843.8,299.1 L845.6,308.5 L847.5,318.1 L849.4,327.8 L851.3,337.6
		L853.2,347.4 L855.1,357.2 L857.0,366.9 L858.9,376.4 L860.7,385.8 L862.6,394.9 L864.5,403.7 L866.4,412.2
		L868.3,420.4 L870.2,428.2 L872.1,435.6 L873.9,442.7 L875.8,449.3 L877.7,455.5 L879.6,461.4 L881.5,466.8
		L883.4,471.9 L885.3,476.7 L887.2,481.2 L889.0,485.4 L890.9,489.3 L892.8,493.0 L894.7,496.5 L896.6,499.9
		L898.5,503.1 L900.4,506.1 L902.3,509.1 L904.1,512.0 L906.0,514.9 L907.9,517.8 L909.8,520.6 L911.7,523.5
		L913.6,526.3 L915.5,529.2 L917.4,532.2 L919.2,535.2 L921.1,538.3 L923.0,541.4 L924.9,544.6 L926.8,547.8
		L928.7,551.1 L930.6,554.4 L932.5,557.8 L934.3,561.1 L936.2,564.5 L938.1,567.8 L940.0,571.1 L941.9,574.3
		L943.8,577.5 L945.7,580.6 L947.5,583.6 L949.4,586.5 L951.3,589.3 L953.2,591.9 L955.1,594.4 L957.0,596.8
		L958.9,599.0 L960.8,601.1 L962.6,603.0 L964.5,604.7 L966.4,606.3 L968.3,607.8 L970.2,609.1 L972.1,610.3
		L974.0,611.4 L975.9,612.3 L977.7,613.2 L979.6,613.9 L981.5,614.6 L983.4,615.1 L985.3,615.6 L987.2,616.1
		L989.1,616.5 L991.0,616.9 L992.8,617.3 L994.7,617.6 L996.6,618.0 L998.5,618.3 L1000.4,618.7 L1002.3,619.1
		L1004.2,619.6 L1006.1,620.0 L1007.9,620.5 L1009.8,621.1 L1011.7,621.7 L1013.6,622.3  '/></g>
	</g>
	<g id="gnuplot_plot_2" ><title>Confidence interval</title>
<g fill="none" color="white" stroke="rgb( 31, 120, 180)" stroke-width="1.00" stroke-linecap="butt" stroke-linejoin="miter">
</g>
<g fill="none" color="black" stroke="currentColor" stroke-width="1.00" stroke-linecap="butt" stroke-linejoin="miter">
	<g transform="translate(1089.0,85.0)" stroke="none" fill="black" font-family="Helvetica" font-size="12.00"  text-anchor="start">
		<text><tspan font-family="Helvetica" >Confidence interval</tspan></text>
	</g>
</g>
<g fill="none" color="black" stroke="currentColor" stroke-width="1.00" stroke-linecap="butt" stroke-linejoin="miter">
	<g stroke='none' shape-rendering='crispEdges'>
		<polygon fill = 'rgb( 31, 120, 180)' fill-opacity = '0.250000' points = '1038.5,85.6 1080.7,85.6 1080.7,76.6 1038.5,76.6 '/>
		<polygon fill = 'rgb( 31, 120, 180)' fill-opacity = '0.250000' points = '158.7,506.6 158.7,662.4 160.6,662.4 160.6,505.4 '/>
		<polygon fill = 'rgb( 31, 120, 180)' fill-opacity = '0.250000' points = '160.6,505.4 160.6,662.4 162.5,662.4 162.5,504.6 '/>
		<polygon fill = 'rgb( 31, 120, 180)' fill-opacity = '0.250000' points = '162.5,504.6 162.5,662.4 164.4,662.4 164.4,504.0 '/>
		<polygon fill = 'rgb( 31, 120, 180)' fill-opacity = '0.250000' points = '164.4,504.0 164.4,662.4 166.3,662.4 166.3,503.7 '/>
		<polygon fill = 'rgb( 31, 120, 180)' fill-opacity = '0.250000' points = '166.3,503.7 166.3,662.4 168.1,662.4 168.1,503.6 '/>
		<polygon fill = 'rgb( 31, 120, 180)' fill-opacity = '0.250000' points = '168.1,503.6 168.1,662.4 170.0,662.4 170.0,503.8 '/>
		<polygon fill = 'rgb( 31, 120, 180)' fill-opacity = '0.250000' points = '170.0,503.8 170.0,662.4 171.9,662.4 171.9,504.2 '/>
		<polygon fill = 'rgb( 31, 120, 180)' fill-opacity = '0.250000' points = '171.9,504.2 171.9,662.4 173.8,662.4 173.8,504.8 '/>
		<polygon fill = 'rgb( 31, 120, 180)' fill-opacity = '0.250000' points = '173.8,504.8 173.8,662.4 175.7,662.4 175.7,505.6 '/>
		<polygon fill = 'rgb( 31, 120, 180)' fill-opacity = '0.250000' points = '175.7,505.6 175.7,662.4 177.6,662.4 177.6,506.5 '/>
		<polygon fill = 'rgb( 31, 120, 180)' fill-opacity = '0.250000' points = '177.6,506.5 177.6,662.4 179.5,662.4 179.5,507.6 '/>
		<polygon fill = 'rgb( 31, 120, 180)' fill-opacity = '0.250000' points = '179.5,507.6 179.5,662.4 181.4,662.4 181.4,508.7 '/>
		<polygon fill = 'rgb( 31, 120, 180)' fill-opacity = '0.250000' points = '181.4,508.7 181.4,662.4 183.2,662.4 183.2,509.9 '/>
		<polygon fill = 'rgb( 31, 120, 180)' fill-opacity = '0.250000' points = '183.2,509.9 183.2,662.4 185.1,662.4 185.1,511.1 '/>
		<polygon fill = 'rgb( 31, 120, 180)' fill-opacity = '0.250000' points = '185.1,511.1 185.1,662.4 187.0,662.4 187.0,512.3 '/>
		<polygon fill = 'rgb( 31, 120, 180)' fill-opacity = '0.250000' points = '187.0,512.3 187.0,662.4 188.9,662.4 188.9,513.4 '/>
		<polygon fill = 'rgb( 31, 120, 180)' fill-opacity = '0.250000' points = '188.9,513.4 188.9,662.4 190.8,662.4 190.8,514.6 '/>
		<polygon fill = 'rgb( 31, 120, 180)' fill-opacity = '0.250000' points = '190.8,514.6 190.8,662.4 192.7,662.4 192.7,515.6 '/>
		<polygon fill = 'rgb( 31, 120, 180)' fill-opacity = '0.250000' points = '192.7,515.6 192.7,662.4 194.6,662.4 194.6,516.5 '/>
		<polygon fill = 'rgb( 31, 120, 180)' fill-opacity = '0.250000' points = '194.6,516.5 194.6,662.4 196.5,662.4 196.5,517.3 '/>
		<polygon fill = 'rgb( 31, 120, 180)' fill-opacity = '0.250000' points = '196.5,517.3 196.5,662.4 198.3,662.4 198.3,517.9 '/>
		<polygon fill = 'rgb( 31, 120, 180)' fill-opacity = '0.250000' points = '198.3,517.9 198.3,662.4 200.2,662.4 200.2,518.4 '/>
		<polygon fill = 'rgb( 31, 120, 180)' fill-opacity = '0.250000' points = '200.2,518.4 200.2,662.4 202.1,662.4 202.1,518.7 '/>
		<polygon fill = 'rgb( 31, 120, 180)' fill-opacity = '0.250000' points = '202.1,518.7 202.1,662.4 204.0,662.4 204.0,518.7 '/>
		<polygon fill = 'rgb( 31, 120, 180)' fill-opacity = '0.250000' points = '204.0,518.7 204.0,662.4 205.9,662.4 205.9,518.6 '/>
		<polygon fill = 'rgb( 31, 120, 180)' fill-opacity = '0.250000' points = '205.9,518.6 205.9,662.4 207.8,662.4 207.8,518.2 '/>
		<polygon fill = 'rgb( 31, 120, 180)' fill-opacity = '0.250000' points = '207.8,518.2 207.8,662.4 209.7,662.4 209.7,517.6 '/>
		<polygon fill = 'rgb( 31, 120, 180)' fill-opacity = '0.250000' points = '209.7,517.6 209.7,662.4 211.6,662.4 211.6,516.8 '/>
		<polygon fill = 'rgb( 31, 120, 180)' fill-opacity = '0.250000' points = '211.6,516.8 211.6,662.4 213.4,662.4 213.4,515.7 '/>
		<polygon fill = 'rgb( 31, 120, 180)' fill-opacity = '0.250000' points = '213.4,515.7 213.4,662.4 215.3,662.4 215.3,514.3 '/>
		<polygon fill = 'rgb( 31, 120, 180)' fill-opacity = '0.250000' points = '215.3,514.3 215.3,662.4 217.2,662.4 217.2,512.8 '/>
		<polygon fill = 'rgb( 31, 120, 180)' fill-opacity = '0.250000' points = '217.2,512.8 217.2,662.4 219.1,662.4 219.1,511.0 '/>
		<polygon fill = 'rgb( 31, 120, 180)' fill-opacity = '0.250000' points = '219.1,511.0 219.1,662.4 221.0,662.4 221.0,509.0 '/>
		<polygon fill = 'rgb( 31, 120, 180)' fill-opacity = '0.250000' points = '221.0,509.0 221.0,662.4 222.9,662.4 222.9,506.8 '/>
		<polygon fill = 'rgb( 31, 120, 180)' fill-opacity = '0.250000' points = '222.9,506.8 222.9,662.4 224.8,662.4 224.8,504.4 '/>
		<polygon fill = 'rgb( 31, 120, 180)' fill-opacity = '0.250000' points = '224.8,504.4 224.8,662.4 226.6,662.4 226.6,501.8 '/>
		<polygon fill = 'rgb( 31, 120, 180)' fill-opacity = '0.250000' points = '226.6,501.8 226.6,662.4 228.5,662.4 228.5,499.0 '/>
		<polygon fill = 'rgb( 31, 120, 180)' fill-opacity = '0.250000' points = '228.5,499.0 228.5,662.4 230.4,662.4 230.4,496.2 '/>
		<polygon fill = 'rgb( 31, 120, 180)' fill-opacity = '0.250000' points = '230.4,496.2 230.4,662.4 232.3,662.4 232.3,493.2 '/>
		<polygon fill = 'rgb( 31, 120, 180)' fill-opacity = '0.250000' points = '232.3,493.2 232.3,662.4 234.2,662.4 234.2,490.1 '/>
		<polygon fill = 'rgb( 31, 120, 180)' fill-opacity = '0.250000' points = '234.2,490.1 234.2,662.4 236.1,662.4 236.1,487.0 '/>
		<polygon fill = 'rgb( 31, 120, 180)' fill-opacity = '0.250000' points = '236.1,487.0 236.1,662.4 238.0,662.4 238.0,483.8 '/>
		<polygon fill = 'rgb( 31, 120, 180)' fill-opacity = '0.250000' points = '238.0,483.8 238.0,662.4 239.9,662.4 239.9,480.6 '/>
		<polygon fill = 'rgb( 31, 120, 180)' fill-opacity = '0.250000' points = '239.9,480.6 239.9,662.4 241.7,662.4 241.7,477.5 '/>
		<polygon fill = 'rgb( 31, 120, 180)' fill-opacity = '0.250000' points = '241.7,477.5 241.7,662.4 243.6,662.4 243.6,474.4 '/>
		<polygon fill = 'rgb( 31, 120, 180)' fill-opacity = '0.250000' points = '243.6,474.4 243.6,662.4 245.5,662.4 245.5,471.4 '/>
		<polygon fill = 'rgb( 31, 120, 180)' fill-opacity = '0.250000' points = '245.5,471.4 245.5,662.4 247.4,662.4 247.4,468.5 '/>
		<polygon fill = 'rgb( 31, 120, 180)' fill-opacity = '0.250000' points = '247.4,468.5 247.4,662.4 249.3,662.4 249.3,465.7 '/>
		<polygon fill = 'rgb( 31, 120, 180)' fill-opacity = '0.250000' points = '249.3,465.7 249.3,662.4 251.2,662.4 251.2,463.0 '/>
		<polygon fill = 'rgb( 31, 120, 180)' fill-opacity = '0.250000' points = '251.2,463.0 251.2,662.4 253.1,662.4 253.1,460.6 '/>
		<polygon fill = 'rgb( 31, 120, 180)' fill-opacity = '0.250000' points = '253.1,460.6 253.1,662.4 255.0,662.4 255.0,458.4 '/>
		<polygon fill = 'rgb( 31, 120, 180)' fill-opacity = '0.250000' points = '255.0,458.4 255.0,662.4 256.8,662.4 256.8,456.3 '/>
		<polygon fill = 'rgb( 31, 120, 180)' fill-opacity = '0.250000' points = '256.8,456.3 256.8,662.4 258.7,662.4 258.7,454.6 '/>
		<polygon fill = 'rgb( 31, 120, 180)' fill-opacity = '0.250000' points = '258.7,454.6 258.7,662.4 260.6,662.4 260.6,453.0 '/>
		<polygon fill = 'rgb( 31, 120, 180)' fill-opacity = '0.250000' points = '260.6,453.0 260.6,662.4 262.5,662.4 262.5,451.8 '/>
		<polygon fill = 'rgb( 31, 120, 180)' fill-opacity = '0.250000' points = '262.5,451.8 262.5,662.4 264.4,662.4 264.4,450.7 '/>
		<polygon fill = 'rgb( 31, 120, 180)' fill-opacity = '0.250000' points = '264.4,450.7 264.4,662.4 266.3,662.4 266.3,450.0 '/>
		<polygon fill = 'rgb( 31, 120, 180)' fill-opacity = '0.250000' points = '266.3,450.0 266.3,662.4 268.2,662.4 268.2,449.4 '/>
		<polygon fill = 'rgb( 31, 120, 180)' fill-opacity = '0.250000' points = '268.2,449.4 268.2,662.4 270.1,662.4 270.1,449.1 '/>
		<polygon fill = 'rgb( 31, 120, 180)' fill-opacity = '0.250000' points = '270.1,449.1 270.1,662.4 271.9,662.4 271.9,449.1 '/>
		<polygon fill = 'rgb( 31, 120, 180)' fill-opacity = '0.250000' points = '271.9,449.1 271.9,662.4 273.8,662.4 273.8,449.2 '/>
		<polygon fill = 'rgb( 31, 120, 180)' fill-opacity = '0.250000' points = '273.8,449.2 273.8,662.4 275.7,662.4 275.7,449.4 '/>
		<polygon fill = 'rgb( 31, 120, 180)' fill-opacity = '0.250000' points = '275.7,449.4 275.7,662.4 277.6,662.4 277.6,449.8 '/>
		<polygon fill = 'rgb( 31, 120, 180)' fill-opacity = '0.250000' points = '277.6,449.8 277.6,662.4 279.5,662.4 279.5,450.3 '/>
		<polygon fill = 'rgb( 31, 120, 180)' fill-opacity = '0.250000' points = '279.5,450.3 279.5,662.4 281.4,662.4 281.4,450.9 '/>
		<polygon fill = 'rgb( 31, 120, 180)' fill-opacity = '0.250000' points = '281.4,450.9 281.4,662.4 283.3,662.4 283.3,451.4 '/>
		<polygon fill = 'rgb( 31, 120, 180)' fill-opacity = '0.250000' points = '283.3,451.4 283.3,662.4 285.2,662.4 285.2,451.9 '/>
		<polygon fill = 'rgb( 31, 120, 180)' fill-opacity = '0.250000' points = '285.2,451.9 285.2,662.4 287.0,662.4 287.0,452.3 '/>
		<polygon fill = 'rgb( 31, 120, 180)' fill-opacity = '0.250000' points = '287.0,452.3 287.0,662.4 288.9,662.4 288.9,452.6 '/>
		<polygon fill = 'rgb( 31, 120, 180)' fill-opacity = '0.250000' points = '288.9,452.6 288.9,662.4 290.8,662.4 290.8,452.7 '/>
		<polygon fill = 'rgb( 31, 120, 180)' fill-opacity = '0.250000' points = '290.8,452.7 290.8,662.4 292.7,662.4 292.7,452.6 '/>
		<polygon fill = 'rgb( 31, 120, 180)' fill-opacity = '0.250000' points = '292.7,452.6 292.7,662.4 294.6,662.4 294.6,452.2 '/>
		<polygon fill = 'rgb( 31, 120, 180)' fill-opacity = '0.250000' points = '294.6,452.2 294.6,662.4 296.5,662.4 296.5,451.5 '/>
		<polygon fill = 'rgb( 31, 120, 180)' fill-opacity = '0.250000' points = '296.5,451.5 296.5,662.4 298.4,662.4 298.4,450.5 '/>
		<polygon fill = 'rgb( 31, 120, 180)' fill-opacity = '0.250000' points = '298.4,450.5 298.4,662.4 300.2,662.4 300.2,449.2 '/>
		<polygon fill = 'rgb( 31, 120, 180)' fill-opacity = '0.250000' points = '300.2,449.2 300.2,662.4 302.1,662.4 302.1,447.5 '/>
		<polygon fill = 'rgb( 31, 120, 180)' fill-opacity = '0.250000' points = '302.1,447.5 302.1,662.4 304.0,662.4 304.0,445.4 '/>
		<polygon fill = 'rgb( 31, 120, 180)' fill-opacity = '0.250000' points = '304.0,445.4 304.0,662.4 305.9,662.4 305.9,442.9 '/>
		<polygon fill = 'rgb( 31, 120, 180)' fill-opacity = '0.250000' points = '305.9,442.9 305.9,662.4 307.8,662.4 307.8,440.0 '/>
		<polygon fill = 'rgb( 31, 120, 180)' fill-opacity = '0.250000' points = '307.8,440.0 307.8,662.4 309.7,662.4 309.7,436.8 '/>
		<polygon fill = 'rgb( 31, 120, 180)' fill-opacity = '0.250000' points = '309.7,436.8 309.7,662.4 311.6,662.4 311.6,433.1 '/>
		<polygon fill = 'rgb( 31, 120, 180)' fill-opacity = '0.250000' points = '311.6,433.1 311.6,662.4 313.5,662.4 313.5,429.1 '/>
		<polygon fill = 'rgb( 31, 120, 180)' fill-opacity = '0.250000' points = '313.5,429.1 313.5,662.4 315.3,662.4 315.3,424.7 '/>
		<polygon fill = 'rgb( 31, 120, 180)' fill-opacity = '0.250000' points = '315.3,424.7 315.3,662.4 317.2,662.4 317.2,420.0 '/>
		<polygon fill = 'rgb( 31, 120, 180)' fill-opacity = '0.250000' points = '317.2,420.0 317.2,662.4 319.1,662.4 319.1,415.0 '/>
		<polygon fill = 'rgb( 31, 120, 180)' fill-opacity = '0.250000' points = '319.1,415.0 319.1,662.4 321.0,662.4 321.0,409.8 '/>
		<polygon fill = 'rgb( 31, 120, 180)' fill-opacity = '0.250000' points = '321.0,409.8 321.0,662.4 322.9,662.4 322.9,404.3 '/>
		<polygon fill = 'rgb( 31, 120, 180)' fill-opacity = '0.250000' points = '322.9,404.3 322.9,662.4 324.8,662.4 324.8,398.5 '/>
		<polygon fill = 'rgb( 31, 120, 180)' fill-opacity = '0.250000' points = '324.8,398.5 324.8,662.4 326.7,662.4 326.7,392.6 '/>
		<polygon fill = 'rgb( 31, 120, 180)' fill-opacity = '0.250000' points = '326.7,392.6 326.7,662.4 328.6,662.4 328.6,386.6 '/>
		<polygon fill = 'rgb( 31, 120, 180)' fill-opacity = '0.250000' points = '328.6,386.6 328.6,662.4 330.4,662.4 330.4,380.4 '/>
		<polygon fill = 'rgb( 31, 120, 180)' fill-opacity = '0.250000' points = '330.4,380.4 330.4,662.4 332.3,662.4 332.3,374.2 '/>
		<polygon fill = 'rgb( 31, 120, 180)' fill-opacity = '0.250000' points = '332.3,374.2 332.3,662.4 334.2,662.4 334.2,368.0 '/>
		<polygon fill = 'rgb( 31, 120, 180)' fill-opacity = '0.250000' points = '334.2,368.0 334.2,662.4 336.1,662.4 336.1,361.7 '/>
		<polygon fill = 'rgb( 31, 120, 180)' fill-opacity = '0.250000' points = '336.1,361.7 336.1,662.4 338.0,662.4 338.0,355.5 '/>
		<polygon fill = 'rgb( 31, 120, 180)' fill-opacity = '0.250000' points = '338.0,355.5 338.0,662.4 339.9,662.4 339.9,349.4 '/>
		<polygon fill = 'rgb( 31, 120, 180)' fill-opacity = '0.250000' points = '339.9,349.4 339.9,662.4 341.8,662.4 341.8,343.5 '/>
		<polygon fill = 'rgb( 31, 120, 180)' fill-opacity = '0.250000' points = '341.8,343.5 341.8,662.4 343.7,662.4 343.7,337.7 '/>
		<polygon fill = 'rgb( 31, 120, 180)' fill-opacity = '0.250000' points = '343.7,337.7 343.7,662.4 345.5,662.4 345.5,332.0 '/>
		<polygon fill = 'rgb( 31, 120, 180)' fill-opacity = '0.250000' points = '345.5,332.0 345.5,662.4 347.4,662.4 347.4,326.7 '/>
		<polygon fill = 'rgb( 31, 120, 180)' fill-opacity = '0.250000' points = '347.4,326.7 347.4,662.4 349.3,662.4 349.3,321.6 '/>
		<polygon fill = 'rgb( 31, 120, 180)' fill-opacity = '0.250000' points = '349.3,321.6 349.3,662.4 351.2,662.4 351.2,316.7 '/>
		<polygon fill = 'rgb( 31, 120, 180)' fill-opacity = '0.250000' points = '351.2,316.7 351.2,662.4 353.1,662.4 353.1,312.3 '/>
		<polygon fill = 'rgb( 31, 120, 180)' fill-opacity = '0.250000' points = '353.1,312.3 353.1,662.4 355.0,662.4 355.0,308.1 '/>
		<polygon fill = 'rgb( 31, 120, 180)' fill-opacity = '0.250000' points = '355.0,308.1 355.0,662.4 356.9,662.4 356.9,304.4 '/>
		<polygon fill = 'rgb( 31, 120, 180)' fill-opacity = '0.250000' points = '356.9,304.4 356.9,662.4 358.8,662.4 358.8,301.1 '/>
		<polygon fill = 'rgb( 31, 120, 180)' fill-opacity = '0.250000' points = '358.8,301.1 358.8,662.4 360.6,662.4 360.6,298.1 '/>
		<polygon fill = 'rgb( 31, 120, 180)' fill-opacity = '0.250000' points = '360.6,298.1 360.6,662.4 362.5,662.4 362.5,295.7 '/>
		<polygon fill = 'rgb( 31, 120, 180)' fill-opacity = '0.250000' points = '362.5,295.7 362.5,662.4 364.4,662.4 364.4,293.6 '/>
		<polygon fill = 'rgb( 31, 120, 180)' fill-opacity = '0.250000' points = '364.4,293.6 364.4,662.4 366.3,662.4 366.3,292.0 '/>
		<polygon fill = 'rgb( 31, 120, 180)' fill-opacity = '0.250000' points = '366.3,292.0 366.3,662.4 368.2,662.4 368.2,290.9 '/>
		<polygon fill = 'rgb( 31, 120, 180)' fill-opacity = '0.250000' points = '368.2,290.9 368.2,662.4 370.1,662.4 370.1,290.2 '/>
		<polygon fill = 'rgb( 31, 120, 180)' fill-opacity = '0.250000' points = '370.1,290.2 370.1,662.4 372.0,662.4 372.0,290.0 '/>
		<polygon fill = 'rgb( 31, 120, 180)' fill-opacity = '0.250000' points = '372.0,290.0 372.0,662.4 373.8,662.4 373.8,290.2 '/>
		<polygon fill = 'rgb( 31, 120, 180)' fill-opacity = '0.250000' points = '373.8,290.2 373.8,662.4 375.7,662.4 375.7,290.8 '/>
		<polygon fill = 'rgb( 31, 120, 180)' fill-opacity = '0.250000' points = '375.7,290.8 375.7,662.4 377.6,662.4 377.6,291.8 '/>
		<polygon fill = 'rgb( 31, 120, 180)' fill-opacity = '0.250000' points = '377.6,291.8 377.6,662.4 379.5,662.4 379.5,293.1 '/>
		<polygon fill = 'rgb( 31, 120, 180)' fill-opacity = '0.250000' points = '379.5,293.1 379.5,662.4 381.4,662.4 381.4,294.7 '/>
		<polygon fill = 'rgb( 31, 120, 180)' fill-opacity = '0.250000' points = '381.4,294.7 381.4,662.4 383.3,662.4 383.3,296.7 '/>
		<polygon fill = 'rgb( 31, 120, 180)' fill-opacity = '0.250000' points = '383.3,296.7 383.3,662.4 385.2,662.4 385.2,298.9 '/>
		<polygon fill = 'rgb( 31, 120, 180)' fill-opacity = '0.250000' points = '385.2,298.9 385.2,662.4 387.1,662.4 387.1,301.2 '/>
		<polygon fill = 'rgb( 31, 120, 180)' fill-opacity = '0.250000' points = '387.1,301.2 387.1,662.4 388.9,662.4 388.9,303.8 '/>
		<polygon fill = 'rgb( 31, 120, 180)' fill-opacity = '0.250000' points = '388.9,303.8 388.9,662.4 390.8,662.4 390.8,306.4 '/>
		<polygon fill = 'rgb( 31, 120, 180)' fill-opacity = '0.250000' points = '390.8,306.4 390.8,662.4 392.7,662.4 392.7,309.1 '/>
		<polygon fill = 'rgb( 31, 120, 180)' fill-opacity = '0.250000' points = '392.7,309.1 392.7,662.4 394.6,662.4 394.6,311.9 '/>
		<polygon fill = 'rgb( 31, 120, 180)' fill-opacity = '0.250000' points = '394.6,311.9 394.6,662.4 396.5,662.4 396.5,314.6 '/>
		<polygon fill = 'rgb( 31, 120, 180)' fill-opacity = '0.250000' points = '396.5,314.6 396.5,662.4 398.4,662.4 398.4,317.2 '/>
		<polygon fill = 'rgb( 31, 120, 180)' fill-opacity = '0.250000' points = '398.4,317.2 398.4,662.4 400.3,662.4 400.3,319.8 '/>
		<polygon fill = 'rgb( 31, 120, 180)' fill-opacity = '0.250000' points = '400.3,319.8 400.3,662.4 402.2,662.4 402.2,322.2 '/>
		<polygon fill = 'rgb( 31, 120, 180)' fill-opacity = '0.250000' points = '402.2,322.2 402.2,662.4 404.0,662.4 404.0,324.4 '/>
		<polygon fill = 'rgb( 31, 120, 180)' fill-opacity = '0.250000' points = '404.0,324.4 404.0,662.4 405.9,662.4 405.9,326.4 '/>
		<polygon fill = 'rgb( 31, 120, 180)' fill-opacity = '0.250000' points = '405.9,326.4 405.9,662.4 407.8,662.4 407.8,328.3 '/>
		<polygon fill = 'rgb( 31, 120, 180)' fill-opacity = '0.250000' points = '407.8,328.3 407.8,662.4 409.7,662.4 409.7,329.9 '/>
		<polygon fill = 'rgb( 31, 120, 180)' fill-opacity = '0.250000' points = '409.7,329.9 409.7,662.4 411.6,662.4 411.6,331.3 '/>
		<polygon fill = 'rgb( 31, 120, 180)' fill-opacity = '0.250000' points = '411.6,331.3 411.6,662.4 413.5,662.4 413.5,332.4 '/>
		<polygon fill = 'rgb( 31, 120, 180)' fill-opacity = '0.250000' points = '413.5,332.4 413.5,662.4 415.4,662.4 415.4,333.4 '/>
		<polygon fill = 'rgb( 31, 120, 180)' fill-opacity = '0.250000' points = '415.4,333.4 415.4,662.4 417.3,662.4 417.3,334.0 '/>
		<polygon fill = 'rgb( 31, 120, 180)' fill-opacity = '0.250000' points = '417.3,334.0 417.3,662.4 419.1,662.4 419.1,334.5 '/>
		<polygon fill = 'rgb( 31, 120, 180)' fill-opacity = '0.250000' points = '419.1,334.5 419.1,662.4 421.0,662.4 421.0,334.8 '/>
		<polygon fill = 'rgb( 31, 120, 180)' fill-opacity = '0.250000' points = '421.0,334.8 421.0,662.4 422.9,662.4 422.9,334.8 '/>
		<polygon fill = 'rgb( 31, 120, 180)' fill-opacity = '0.250000' points = '422.9,334.8 422.9,662.4 424.8,662.4 424.8,334.7 '/>
		<polygon fill = 'rgb( 31, 120, 180)' fill-opacity = '0.250000' points = '424.8,334.7 424.8,662.4 426.7,662.4 426.7,334.4 '/>
		<polygon fill = 'rgb( 31, 120, 180)' fill-opacity = '0.250000' points = '426.7,334.4 426.7,662.4 428.6,662.4 428.6,333.9 '/>
		<polygon fill = 'rgb( 31, 120, 180)' fill-opacity = '0.250000' points = '428.6,333.9 428.6,662.4 430.5,662.4 430.5,333.3 '/>
		<polygon fill = 'rgb( 31, 120, 180)' fill-opacity = '0.250000' points = '430.5,333.3 430.5,662.4 432.4,662.4 432.4,332.6 '/>
		<polygon fill = 'rgb( 31, 120, 180)' fill-opacity = '0.250000' points = '432.4,332.6 432.4,662.4 434.2,662.4 434.2,331.7 '/>
		<polygon fill = 'rgb( 31, 120, 180)' fill-opacity = '0.250000' points = '434.2,331.7 434.2,662.4 436.1,662.4 436.1,330.8 '/>
		<polygon fill = 'rgb( 31, 120, 180)' fill-opacity = '0.250000' points = '436.1,330.8 436.1,662.4 438.0,662.4 438.0,329.8 '/>
		<polygon fill = 'rgb( 31, 120, 180)' fill-opacity = '0.250000' points = '438.0,329.8 438.0,662.4 439.9,662.4 439.9,328.8 '/>
		<polygon fill = 'rgb( 31, 120, 180)' fill-opacity = '0.250000' points = '439.9,328.8 439.9,662.4 441.8,662.4 441.8,327.8 '/>
		<polygon fill = 'rgb( 31, 120, 180)' fill-opacity = '0.250000' points = '441.8,327.8 441.8,662.4 443.7,662.4 443.7,326.9 '/>
		<polygon fill = 'rgb( 31, 120, 180)' fill-opacity = '0.250000' points = '443.7,326.9 443.7,662.4 445.6,662.4 445.6,325.9 '/>
		<polygon fill = 'rgb( 31, 120, 180)' fill-opacity = '0.250000' points = '445.6,325.9 445.6,662.4 447.4,662.4 447.4,325.1 '/>
		<polygon fill = 'rgb( 31, 120, 180)' fill-opacity = '0.250000' points = '447.4,325.1 447.4,662.4 449.3,662.4 449.3,324.4 '/>
		<polygon fill = 'rgb( 31, 120, 180)' fill-opacity = '0.250000' points = '449.3,324.4 449.3,662.4 451.2,662.4 451.2,323.9 '/>
		<polygon fill = 'rgb( 31, 120, 180)' fill-opacity = '0.250000' points = '451.2,323.9 451.2,662.4 453.1,662.4 453.1,323.6 '/>
		<polygon fill = 'rgb( 31, 120, 180)' fill-opacity = '0.250000' points = '453.1,323.6 453.1,662.4 455.0,662.4 455.0,323.6 '/>
		<polygon fill = 'rgb( 31, 120, 180)' fill-opacity = '0.250000' points = '455.0,323.6 455.0,662.4 456.9,662.4 456.9,323.8 '/>
		<polygon fill = 'rgb( 31, 120, 180)' fill-opacity = '0.250000' points = '456.9,323.8 456.9,662.4 458.8,662.4 458.8,324.3 '/>
		<polygon fill = 'rgb( 31, 120, 180)' fill-opacity = '0.250000' points = '458.8,324.3 458.8,662.4 460.7,662.4 460.7,325.2 '/>
		<polygon fill = 'rgb( 31, 120, 180)' fill-opacity = '0.250000' points = '460.7,325.2 460.7,662.4 462.5,662.4 462.5,326.4 '/>
		<polygon fill = 'rgb( 31, 120, 180)' fill-opacity = '0.250000' points = '462.5,326.4 462.5,662.4 464.4,662.4 464.4,327.9 '/>
		<polygon fill = 'rgb( 31, 120, 180)' fill-opacity = '0.250000' points = '464.4,327.9 464.4,662.4 466.3,662.4 466.3,329.8 '/>
		<polygon fill = 'rgb( 31, 120, 180)' fill-opacity = '0.250000' points = '466.3,329.8 466.3,662.4 468.2,662.4 468.2,332.1 '/>
		<polygon fill = 'rgb( 31, 120, 180)' fill-opacity = '0.250000' points = '468.2,332.1 468.2,662.4 470.1,662.4 470.1,334.7 '/>
		<polygon fill = 'rgb( 31, 120, 180)' fill-opacity = '0.250000' points = '470.1,334.7 470.1,662.4 472.0,662.4 472.0,337.5 '/>
		<polygon fill = 'rgb( 31, 120, 180)' fill-opacity = '0.250000' points = '472.0,337.5 472.0,662.4 473.9,662.4 473.9,340.6 '/>
		<polygon fill = 'rgb( 31, 120, 180)' fill-opacity = '0.250000' points = '473.9,340.6 473.9,662.4 475.8,662.4 475.8,343.9 '/>
		<polygon fill = 'rgb( 31, 120, 180)' fill-opacity = '0.250000' points = '475.8,343.9 475.8,662.4 477.6,662.4 477.6,347.3 '/>
		<polygon fill = 'rgb( 31, 120, 180)' fill-opacity = '0.250000' points = '477.6,347.3 477.6,662.4 479.5,662.4 479.5,350.7 '/>
		<polygon fill = 'rgb( 31, 120, 180)' fill-opacity = '0.250000' points = '479.5,350.7 479.5,662.4 481.4,662.4 481.4,354.2 '/>
		<polygon fill = 'rgb( 31, 120, 180)' fill-opacity = '0.250000' points = '481.4,354.2 481.4,662.4 483.3,662.4 483.3,357.5 '/>
		<polygon fill = 'rgb( 31, 120, 180)' fill-opacity = '0.250000' points = '483.3,357.5 483.3,662.4 485.2,662.4 485.2,360.7 '/>
		<polygon fill = 'rgb( 31, 120, 180)' fill-opacity = '0.250000' points = '485.2,360.7 485.2,662.4 487.1,662.4 487.1,363.7 '/>
		<polygon fill = 'rgb( 31, 120, 180)' fill-opacity = '0.250000' points = '487.1,363.7 487.1,662.4 489.0,662.4 489.0,366.3 '/>
		<polygon fill = 'rgb( 31, 120, 180)' fill-opacity = '0.250000' points = '489.0,366.3 489.0,662.4 490.9,662.4 490.9,368.5 '/>
		<polygon fill = 'rgb( 31, 120, 180)' fill-opacity = '0.250000' points = '490.9,368.5 490.9,662.4 492.7,662.4 492.7,370.3 '/>
		<polygon fill = 'rgb( 31, 120, 180)' fill-opacity = '0.250000' points = '492.7,370.3 492.7,662.4 494.6,662.4 494.6,371.5 '/>
		<polygon fill = 'rgb( 31, 120, 180)' fill-opacity = '0.250000' points = '494.6,371.5 494.6,662.4 496.5,662.4 496.5,372.3 '/>
		<polygon fill = 'rgb( 31, 120, 180)' fill-opacity = '0.250000' points = '496.5,372.3 496.5,662.4 498.4,662.4 498.4,372.4 '/>
		<polygon fill = 'rgb( 31, 120, 180)' fill-opacity = '0.250000' points = '498.4,372.4 498.4,662.4 500.3,662.4 500.3,371.9 '/>
		<polygon fill = 'rgb( 31, 120, 180)' fill-opacity = '0.250000' points = '500.3,371.9 500.3,662.4 502.2,662.4 502.2,370.9 '/>
		<polygon fill = 'rgb( 31, 120, 180)' fill-opacity = '0.250000' points = '502.2,370.9 502.2,662.4 504.1,662.4 504.1,369.2 '/>
		<polygon fill = 'rgb( 31, 120, 180)' fill-opacity = '0.250000' points = '504.1,369.2 504.1,662.4 506.0,662.4 506.0,366.9 '/>
		<polygon fill = 'rgb( 31, 120, 180)' fill-opacity = '0.250000' points = '506.0,366.9 506.0,662.4 507.8,662.4 507.8,364.1 '/>
		<polygon fill = 'rgb( 31, 120, 180)' fill-opacity = '0.250000' points = '507.8,364.1 507.8,662.4 509.7,662.4 509.7,360.7 '/>
		<polygon fill = 'rgb( 31, 120, 180)' fill-opacity = '0.250000' points = '509.7,360.7 509.7,662.4 511.6,662.4 511.6,356.7 '/>
		<polygon fill = 'rgb( 31, 120, 180)' fill-opacity = '0.250000' points = '511.6,356.7 511.6,662.4 513.5,662.4 513.5,352.3 '/>
		<polygon fill = 'rgb( 31, 120, 180)' fill-opacity = '0.250000' points = '513.5,352.3 513.5,662.4 515.4,662.4 515.4,347.4 '/>
		<polygon fill = 'rgb( 31, 120, 180)' fill-opacity = '0.250000' points = '515.4,347.4 515.4,662.4 517.3,662.4 517.3,342.1 '/>
		<polygon fill = 'rgb( 31, 120, 180)' fill-opacity = '0.250000' points = '517.3,342.1 517.3,662.4 519.2,662.4 519.2,336.5 '/>
		<polygon fill = 'rgb( 31, 120, 180)' fill-opacity = '0.250000' points = '519.2,336.5 519.2,662.4 521.0,662.4 521.0,330.5 '/>
		<polygon fill = 'rgb( 31, 120, 180)' fill-opacity = '0.250000' points = '521.0,330.5 521.0,662.4 522.9,662.4 522.9,324.2 '/>
		<polygon fill = 'rgb( 31, 120, 180)' fill-opacity = '0.250000' points = '522.9,324.2 522.9,662.4 524.8,662.4 524.8,317.6 '/>
		<polygon fill = 'rgb( 31, 120, 180)' fill-opacity = '0.250000' points = '524.8,317.6 524.8,662.4 526.7,662.4 526.7,310.7 '/>
		<polygon fill = 'rgb( 31, 120, 180)' fill-opacity = '0.250000' points = '526.7,310.7 526.7,662.4 528.6,662.4 528.6,303.6 '/>
		<polygon fill = 'rgb( 31, 120, 180)' fill-opacity = '0.250000' points = '528.6,303.6 528.6,662.4 530.5,662.4 530.5,296.3 '/>
		<polygon fill = 'rgb( 31, 120, 180)' fill-opacity = '0.250000' points = '530.5,296.3 530.5,662.4 532.4,662.4 532.4,288.8 '/>
		<polygon fill = 'rgb( 31, 120, 180)' fill-opacity = '0.250000' points = '532.4,288.8 532.4,662.4 534.3,662.4 534.3,281.1 '/>
		<polygon fill = 'rgb( 31, 120, 180)' fill-opacity = '0.250000' points = '534.3,281.1 534.3,662.4 536.1,662.4 536.1,273.2 '/>
		<polygon fill = 'rgb( 31, 120, 180)' fill-opacity = '0.250000' points = '536.1,273.2 536.1,662.4 538.0,662.4 538.0,265.1 '/>
		<polygon fill = 'rgb( 31, 120, 180)' fill-opacity = '0.250000' points = '538.0,265.1 538.0,662.4 539.9,662.4 539.9,256.9 '/>
		<polygon fill = 'rgb( 31, 120, 180)' fill-opacity = '0.250000' points = '539.9,256.9 539.9,662.4 541.8,662.4 541.8,248.5 '/>
		<polygon fill = 'rgb( 31, 120, 180)' fill-opacity = '0.250000' points = '541.8,248.5 541.8,662.4 543.7,662.4 543.7,240.0 '/>
		<polygon fill = 'rgb( 31, 120, 180)' fill-opacity = '0.250000' points = '543.7,240.0 543.7,662.4 545.6,662.4 545.6,231.5 '/>
		<polygon fill = 'rgb( 31, 120, 180)' fill-opacity = '0.250000' points = '545.6,231.5 545.6,662.4 547.5,662.4 547.5,222.9 '/>
		<polygon fill = 'rgb( 31, 120, 180)' fill-opacity = '0.250000' points = '547.5,222.9 547.5,662.4 549.4,662.4 549.4,214.3 '/>
		<polygon fill = 'rgb( 31, 120, 180)' fill-opacity = '0.250000' points = '549.4,214.3 549.4,662.4 551.2,662.4 551.2,205.9 '/>
		<polygon fill = 'rgb( 31, 120, 180)' fill-opacity = '0.250000' points = '551.2,205.9 551.2,662.4 553.1,662.4 553.1,197.5 '/>
		<polygon fill = 'rgb( 31, 120, 180)' fill-opacity = '0.250000' points = '553.1,197.5 553.1,662.4 555.0,662.4 555.0,189.5 '/>
		<polygon fill = 'rgb( 31, 120, 180)' fill-opacity = '0.250000' points = '555.0,189.5 555.0,662.4 556.9,662.4 556.9,181.7 '/>
		<polygon fill = 'rgb( 31, 120, 180)' fill-opacity = '0.250000' points = '556.9,181.7 556.9,662.4 558.8,662.4 558.8,174.3 '/>
		<polygon fill = 'rgb( 31, 120, 180)' fill-opacity = '0.250000' points = '558.8,174.3 558.8,662.4 560.7,662.4 560.7,167.5 '/>
		<polygon fill = 'rgb( 31, 120, 180)' fill-opacity = '0.250000' points = '560.7,167.5 560.7,662.4 562.6,662.4 562.6,161.2 '/>
		<polygon fill = 'rgb( 31, 120, 180)' fill-opacity = '0.250000' points = '562.6,161.2 562.6,662.4 564.5,662.4 564.5,155.6 '/>
		<polygon fill = 'rgb( 31, 120, 180)' fill-opacity = '0.250000' points = '564.5,155.6 564.5,662.4 566.3,662.4 566.3,150.8 '/>
		<polygon fill = 'rgb( 31, 120, 180)' fill-opacity = '0.250000' points = '566.3,150.8 566.3,662.4 568.2,662.4 568.2,146.8 '/>
		<polygon fill = 'rgb( 31, 120, 180)' fill-opacity = '0.250000' points = '568.2,146.8 568.2,662.4 570.1,662.4 570.1,143.6 '/>
		<polygon fill = 'rgb( 31, 120, 180)' fill-opacity = '0.250000' points = '570.1,143.6 570.1,662.4 572.0,662.4 572.0,141.4 '/>
		<polygon fill = 'rgb( 31, 120, 180)' fill-opacity = '0.250000' points = '572.0,141.4 572.0,662.4 573.9,662.4 573.9,140.1 '/>
		<polygon fill = 'rgb( 31, 120, 180)' fill-opacity = '0.250000' points = '573.9,140.1 573.9,662.4 575.8,662.4 575.8,139.8 '/>
		<polygon fill = 'rgb( 31, 120, 180)' fill-opacity = '0.250000' points = '575.8,139.8 575.8,662.4 577.7,662.4 577.7,140.3 '/>
		<polygon fill = 'rgb( 31, 120, 180)' fill-opacity = '0.250000' points = '577.7,140.3 577.7,662.4 579.5,662.4 579.5,141.8 '/>
		<polygon fill = 'rgb( 31, 120, 180)' fill-opacity = '0.250000' points = '579.5,141.8 579.5,662.4 581.4,662.4 581.4,144.0 '/>
		<polygon fill = 'rgb( 31, 120, 180)' fill-opacity = '0.250000' points = '581.4,144.0 581.4,662.4 583.3,662.4 583.3,147.0 '/>
		<polygon fill = 'rgb( 31, 120, 180)' fill-opacity = '0.250000' points = '583.3,147.0 583.3,662.4 585.2,662.4 585.2,150.6 '/>
		<polygon fill = 'rgb( 31, 120, 180)' fill-opacity = '0.250000' points = '585.2,150.6 585.2,662.4 587.1,662.4 587.1,154.8 '/>
		<polygon fill = 'rgb( 31, 120, 180)' fill-opacity = '0.250000' points = '587.1,154.8 587.1,662.4 589.0,662.4 589.0,159.3 '/>
		<polygon fill = 'rgb( 31, 120, 180)' fill-opacity = '0.250000' points = '589.0,159.3 589.0,662.4 590.9,662.4 590.9,164.1 '/>
		<polygon fill = 'rgb( 31, 120, 180)' fill-opacity = '0.250000' points = '590.9,164.1 590.9,662.4 592.8,662.4 592.8,169.0 '/>
		<polygon fill = 'rgb( 31, 120, 180)' fill-opacity = '0.250000' points = '592.8,169.0 592.8,662.4 594.6,662.4 594.6,174.0 '/>
		<polygon fill = 'rgb( 31, 120, 180)' fill-opacity = '0.250000' points = '594.6,174.0 594.6,662.4 596.5,662.4 596.5,178.9 '/>
		<polygon fill = 'rgb( 31, 120, 180)' fill-opacity = '0.250000' points = '596.5,178.9 596.5,662.4 598.4,662.4 598.4,183.5 '/>
		<polygon fill = 'rgb( 31, 120, 180)' fill-opacity = '0.250000' points = '598.4,183.5 598.4,662.4 600.3,662.4 600.3,187.8 '/>
		<polygon fill = 'rgb( 31, 120, 180)' fill-opacity = '0.250000' points = '600.3,187.8 600.3,662.4 602.2,662.4 602.2,191.8 '/>
		<polygon fill = 'rgb( 31, 120, 180)' fill-opacity = '0.250000' points = '602.2,191.8 602.2,662.4 604.1,662.4 604.1,195.2 '/>
		<polygon fill = 'rgb( 31, 120, 180)' fill-opacity = '0.250000' points = '604.1,195.2 604.1,662.4 606.0,662.4 606.0,198.2 '/>
		<polygon fill = 'rgb( 31, 120, 180)' fill-opacity = '0.250000' points = '606.0,198.2 606.0,662.4 607.9,662.4 607.9,200.7 '/>
		<polygon fill = 'rgb( 31, 120, 180)' fill-opacity = '0.250000' points = '607.9,200.7 607.9,662.4 609.7,662.4 609.7,202.6 '/>
		<polygon fill = 'rgb( 31, 120, 180)' fill-opacity = '0.250000' points = '609.7,202.6 609.7,662.4 611.6,662.4 611.6,204.0 '/>
		<polygon fill = 'rgb( 31, 120, 180)' fill-opacity = '0.250000' points = '611.6,204.0 611.6,662.4 613.5,662.4 613.5,205.0 '/>
		<polygon fill = 'rgb( 31, 120, 180)' fill-opacity = '0.250000' points = '613.5,205.0 613.5,662.4 615.4,662.4 615.4,205.6 '/>
		<polygon fill = 'rgb( 31, 120, 180)' fill-opacity = '0.250000' points = '615.4,205.6 615.4,662.4 617.3,662.4 617.3,205.8 '/>
		<polygon fill = 'rgb( 31, 120, 180)' fill-opacity = '0.250000' points = '617.3,205.8 617.3,662.4 619.2,662.4 619.2,205.8 '/>
		<polygon fill = 'rgb( 31, 120, 180)' fill-opacity = '0.250000' points = '619.2,205.8 619.2,662.4 621.1,662.4 621.1,205.5 '/>
		<polygon fill = 'rgb( 31, 120, 180)' fill-opacity = '0.250000' points = '621.1,205.5 621.1,662.4 623.0,662.4 623.0,205.1 '/>
		<polygon fill = 'rgb( 31, 120, 180)' fill-opacity = '0.250000' points = '623.0,205.1 623.0,662.4 624.8,662.4 624.8,204.7 '/>
		<polygon fill = 'rgb( 31, 120, 180)' fill-opacity = '0.250000' points = '624.8,204.7 624.8,662.4 626.7,662.4 626.7,204.4 '/>
		<polygon fill = 'rgb( 31, 120, 180)' fill-opacity = '0.250000' points = '626.7,204.4 626.7,662.4 628.6,662.4 628.6,204.1 '/>
		<polygon fill = 'rgb( 31, 120, 180)' fill-opacity = '0.250000' points = '628.6,204.1 628.6,662.4 630.5,662.4 630.5,204.0 '/>
		<polygon fill = 'rgb( 31, 120, 180)' fill-opacity = '0.250000' points = '630.5,204.0 630.5,662.4 632.4,662.4 632.4,204.1 '/>
		<polygon fill = 'rgb( 31, 120, 180)' fill-opacity = '0.250000' points = '632.4,204.1 632.4,662.4 634.3,662.4 634.3,204.4 '/>
		<polygon fill = 'rgb( 31, 120, 180)' fill-opacity = '0.250000' points = '634.3,204.4 634.3,662.4 636.2,662.4 636.2,205.0 '/>
		<polygon fill = 'rgb( 31, 120, 180)' fill-opacity = '0.250000' points = '636.2,205.0 636.2,662.4 638.1,662.4 638.1,205.8 '/>
		<polygon fill = 'rgb( 31, 120, 180)' fill-opacity = '0.250000' points = '638.1,205.8 638.1,662.4 639.9,662.4 639.9,206.9 '/>
		<polygon fill = 'rgb( 31, 120, 180)' fill-opacity = '0.250000' points = '639.9,206.9 639.9,662.4 641.8,662.4 641.8,208.3 '/>
		<polygon fill = 'rgb( 31, 120, 180)' fill-opacity = '0.250000' points = '641.8,208.3 641.8,662.4 643.7,662.4 643.7,209.8 '/>
		<polygon fill = 'rgb( 31, 120, 180)' fill-opacity = '0.250000' points = '643.7,209.8 643.7,662.4 645.6,662.4 645.6,211.5 '/>
		<polygon fill = 'rgb( 31, 120, 180)' fill-opacity = '0.250000' points = '645.6,211.5 645.6,662.4 647.5,662.4 647.5,213.4 '/>
		<polygon fill = 'rgb( 31, 120, 180)' fill-opacity = '0.250000' points = '647.5,213.4 647.5,662.4 649.4,662.4 649.4,215.4 '/>
		<polygon fill = 'rgb( 31, 120, 180)' fill-opacity = '0.250000' points = '649.4,215.4 649.4,662.4 651.3,662.4 651.3,217.4 '/>
		<polygon fill = 'rgb( 31, 120, 180)' fill-opacity = '0.250000' points = '651.3,217.4 651.3,662.4 653.1,662.4 653.1,219.4 '/>
		<polygon fill = 'rgb( 31, 120, 180)' fill-opacity = '0.250000' points = '653.1,219.4 653.1,662.4 655.0,662.4 655.0,221.4 '/>
		<polygon fill = 'rgb( 31, 120, 180)' fill-opacity = '0.250000' points = '655.0,221.4 655.0,662.4 656.9,662.4 656.9,223.4 '/>
		<polygon fill = 'rgb( 31, 120, 180)' fill-opacity = '0.250000' points = '656.9,223.4 656.9,662.4 658.8,662.4 658.8,225.3 '/>
		<polygon fill = 'rgb( 31, 120, 180)' fill-opacity = '0.250000' points = '658.8,225.3 658.8,662.4 660.7,662.4 660.7,227.0 '/>
		<polygon fill = 'rgb( 31, 120, 180)' fill-opacity = '0.250000' points = '660.7,227.0 660.7,662.4 662.6,662.4 662.6,228.7 '/>
		<polygon fill = 'rgb( 31, 120, 180)' fill-opacity = '0.250000' points = '662.6,228.7 662.6,662.4 664.5,662.4 664.5,230.2 '/>
		<polygon fill = 'rgb( 31, 120, 180)' fill-opacity = '0.250000' points = '664.5,230.2 664.5,662.4 666.4,662.4 666.4,231.6 '/>
		<polygon fill = 'rgb( 31, 120, 180)' fill-opacity = '0.250000' points = '666.4,231.6 666.4,662.4 668.2,662.4 668.2,232.8 '/>
		<polygon fill = 'rgb( 31, 120, 180)' fill-opacity = '0.250000' points = '668.2,232.8 668.2,662.4 670.1,662.4 670.1,233.9 '/>
		<polygon fill = 'rgb( 31, 120, 180)' fill-opacity = '0.250000' points = '670.1,233.9 670.1,662.4 672.0,662.4 672.0,234.9 '/>
		<polygon fill = 'rgb( 31, 120, 180)' fill-opacity = '0.250000' points = '672.0,234.9 672.0,662.4 673.9,662.4 673.9,235.8 '/>
		<polygon fill = 'rgb( 31, 120, 180)' fill-opacity = '0.250000' points = '673.9,235.8 673.9,662.4 675.8,662.4 675.8,236.7 '/>
		<polygon fill = 'rgb( 31, 120, 180)' fill-opacity = '0.250000' points = '675.8,236.7 675.8,662.4 677.7,662.4 677.7,237.4 '/>
		<polygon fill = 'rgb( 31, 120, 180)' fill-opacity = '0.250000' points = '677.7,237.4 677.7,662.4 679.6,662.4 679.6,238.1 '/>
		<polygon fill = 'rgb( 31, 120, 180)' fill-opacity = '0.250000' points = '679.6,238.1 679.6,662.4 681.5,662.4 681.5,238.8 '/>
		<polygon fill = 'rgb( 31, 120, 180)' fill-opacity = '0.250000' points = '681.5,238.8 681.5,662.4 683.3,662.4 683.3,239.5 '/>
		<polygon fill = 'rgb( 31, 120, 180)' fill-opacity = '0.250000' points = '683.3,239.5 683.3,662.4 685.2,662.4 685.2,240.1 '/>
		<polygon fill = 'rgb( 31, 120, 180)' fill-opacity = '0.250000' points = '685.2,240.1 685.2,662.4 687.1,662.4 687.1,240.8 '/>
		<polygon fill = 'rgb( 31, 120, 180)' fill-opacity = '0.250000' points = '687.1,240.8 687.1,662.4 689.0,662.4 689.0,241.4 '/>
		<polygon fill = 'rgb( 31, 120, 180)' fill-opacity = '0.250000' points = '689.0,241.4 689.0,662.4 690.9,662.4 690.9,242.1 '/>
		<polygon fill = 'rgb( 31, 120, 180)' fill-opacity = '0.250000' points = '690.9,242.1 690.9,662.4 692.8,662.4 692.8,242.7 '/>
		<polygon fill = 'rgb( 31, 120, 180)' fill-opacity = '0.250000' points = '692.8,242.7 692.8,662.4 694.7,662.4 694.7,243.3 '/>
		<polygon fill = 'rgb( 31, 120, 180)' fill-opacity = '0.250000' points = '694.7,243.3 694.7,662.4 696.6,662.4 696.6,243.8 '/>
		<polygon fill = 'rgb( 31, 120, 180)' fill-opacity = '0.250000' points = '696.6,243.8 696.6,662.4 698.4,662.4 698.4,244.4 '/>
		<polygon fill = 'rgb( 31, 120, 180)' fill-opacity = '0.250000' points = '698.4,244.4 698.4,662.4 700.3,662.4 700.3,244.8 '/>
		<polygon fill = 'rgb( 31, 120, 180)' fill-opacity = '0.250000' points = '700.3,244.8 700.3,662.4 702.2,662.4 702.2,245.2 '/>
		<polygon fill = 'rgb( 31, 120, 180)' fill-opacity = '0.250000' points = '702.2,245.2 702.2,662.4 704.1,662.4 704.1,245.5 '/>
		<polygon fill = 'rgb( 31, 120, 180)' fill-opacity = '0.250000' points = '704.1,245.5 704.1,662.4 706.0,662.4 706.0,245.7 '/>
		<polygon fill = 'rgb( 31, 120, 180)' fill-opacity = '0.250000' points = '706.0,245.7 706.0,662.4 707.9,662.4 707.9,245.8 '/>
		<polygon fill = 'rgb( 31, 120, 180)' fill-opacity = '0.250000' points = '707.9,245.8 707.9,662.4 709.8,662.4 709.8,245.9 '/>
		<polygon fill = 'rgb( 31, 120, 180)' fill-opacity = '0.250000' points = '709.8,245.9 709.8,662.4 711.7,662.4 711.7,245.8 '/>
		<polygon fill = 'rgb( 31, 120, 180)' fill-opacity = '0.250000' points = '711.7,245.8 711.7,662.4 713.5,662.4 713.5,245.6 '/>
		<polygon fill = 'rgb( 31, 120, 180)' fill-opacity = '0.250000' points = '713.5,245.6 713.5,662.4 715.4,662.4 715.4,245.3 '/>
		<polygon fill = 'rgb( 31, 120, 180)' fill-opacity = '0.250000' points = '715.4,245.3 715.4,662.4 717.3,662.4 717.3,244.9 '/>
		<polygon fill = 'rgb( 31, 120, 180)' fill-opacity = '0.250000' points = '717.3,244.9 717.3,662.4 719.2,662.4 719.2,244.4 '/>
		<polygon fill = 'rgb( 31, 120, 180)' fill-opacity = '0.250000' points = '719.2,244.4 719.2,662.4 721.1,662.4 721.1,243.8 '/>
		<polygon fill = 'rgb( 31, 120, 180)' fill-opacity = '0.250000' points = '721.1,243.8 721.1,662.4 723.0,662.4 723.0,243.2 '/>
		<polygon fill = 'rgb( 31, 120, 180)' fill-opacity = '0.250000' points = '723.0,243.2 723.0,662.4 724.9,662.4 724.9,242.4 '/>
		<polygon fill = 'rgb( 31, 120, 180)' fill-opacity = '0.250000' points = '724.9,242.4 724.9,662.4 726.7,662.4 726.7,241.6 '/>
		<polygon fill = 'rgb( 31, 120, 180)' fill-opacity = '0.250000' points = '726.7,241.6 726.7,662.4 728.6,662.4 728.6,240.7 '/>
		<polygon fill = 'rgb( 31, 120, 180)' fill-opacity = '0.250000' points = '728.6,240.7 728.6,662.4 730.5,662.4 730.5,239.7 '/>
		<polygon fill = 'rgb( 31, 120, 180)' fill-opacity = '0.250000' points = '730.5,239.7 730.5,662.4 732.4,662.4 732.4,238.5 '/>
		<polygon fill = 'rgb( 31, 120, 180)' fill-opacity = '0.250000' points = '732.4,238.5 732.4,662.4 734.3,662.4 734.3,237.2 '/>
		<polygon fill = 'rgb( 31, 120, 180)' fill-opacity = '0.250000' points = '734.3,237.2 734.3,662.4 736.2,662.4 736.2,235.8 '/>
		<polygon fill = 'rgb( 31, 120, 180)' fill-opacity = '0.250000' points = '736.2,235.8 736.2,662.4 738.1,662.4 738.1,234.2 '/>
		<polygon fill = 'rgb( 31, 120, 180)' fill-opacity = '0.250000' points = '738.1,234.2 738.1,662.4 740.0,662.4 740.0,232.4 '/>
		<polygon fill = 'rgb( 31, 120, 180)' fill-opacity = '0.250000' points = '740.0,232.4 740.0,662.4 741.8,662.4 741.8,230.4 '/>
		<polygon fill = 'rgb( 31, 120, 180)' fill-opacity = '0.250000' points = '741.8,230.4 741.8,662.4 743.7,662.4 743.7,228.1 '/>
		<polygon fill = 'rgb( 31, 120, 180)' fill-opacity = '0.250000' points = '743.7,228.1 743.7,662.4 745.6,662.4 745.6,225.7 '/>
		<polygon fill = 'rgb( 31, 120, 180)' fill-opacity = '0.250000' points = '745.6,225.7 745.6,662.4 747.5,662.4 747.5,222.9 '/>
		<polygon fill = 'rgb( 31, 120, 180)' fill-opacity = '0.250000' points = '747.5,222.9 747.5,662.4 749.4,662.4 749.4,219.9 '/>
		<polygon fill = 'rgb( 31, 120, 180)' fill-opacity = '0.250000' points = '749.4,219.9 749.4,662.4 751.3,662.4 751.3,216.7 '/>
		<polygon fill = 'rgb( 31, 120, 180)' fill-opacity = '0.250000' points = '751.3,216.7 751.3,662.4 753.2,662.4 753.2,213.3 '/>
		<polygon fill = 'rgb( 31, 120, 180)' fill-opacity = '0.250000' points = '753.2,213.3 753.2,662.4 755.1,662.4 755.1,209.6 '/>
		<polygon fill = 'rgb( 31, 120, 180)' fill-opacity = '0.250000' points = '755.1,209.6 755.1,662.4 756.9,662.4 756.9,205.8 '/>
		<polygon fill = 'rgb( 31, 120, 180)' fill-opacity = '0.250000' points = '756.9,205.8 756.9,662.4 758.8,662.4 758.8,201.9 '/>
		<polygon fill = 'rgb( 31, 120, 180)' fill-opacity = '0.250000' points = '758.8,201.9 758.8,662.4 760.7,662.4 760.7,197.9 '/>
		<polygon fill = 'rgb( 31, 120, 180)' fill-opacity = '0.250000' points = '760.7,197.9 760.7,662.4 762.6,662.4 762.6,193.8 '/>
		<polygon fill = 'rgb( 31, 120, 180)' fill-opacity = '0.250000' points = '762.6,193.8 762.6,662.4 764.5,662.4 764.5,189.8 '/>
		<polygon fill = 'rgb( 31, 120, 180)' fill-opacity = '0.250000' points = '764.5,189.8 764.5,662.4 766.4,662.4 766.4,185.9 '/>
		<polygon fill = 'rgb( 31, 120, 180)' fill-opacity = '0.250000' points = '766.4,185.9 766.4,662.4 768.3,662.4 768.3,182.1 '/>
		<polygon fill = 'rgb( 31, 120, 180)' fill-opacity = '0.250000' points = '768.3,182.1 768.3,662.4 770.2,662.4 770.2,178.6 '/>
		<polygon fill = 'rgb( 31, 120, 180)' fill-opacity = '0.250000' points = '770.2,178.6 770.2,662.4 772.0,662.4 772.0,175.3 '/>
		<polygon fill = 'rgb( 31, 120, 180)' fill-opacity = '0.250000' points = '772.0,175.3 772.0,662.4 773.9,662.4 773.9,172.3 '/>
		<polygon fill = 'rgb( 31, 120, 180)' fill-opacity = '0.250000' points = '773.9,172.3 773.9,662.4 775.8,662.4 775.8,169.7 '/>
		<polygon fill = 'rgb( 31, 120, 180)' fill-opacity = '0.250000' points = '775.8,169.7 775.8,662.4 777.7,662.4 777.7,167.4 '/>
		<polygon fill = 'rgb( 31, 120, 180)' fill-opacity = '0.250000' points = '777.7,167.4 777.7,662.4 779.6,662.4 779.6,165.5 '/>
		<polygon fill = 'rgb( 31, 120, 180)' fill-opacity = '0.250000' points = '779.6,165.5 779.6,662.4 781.5,662.4 781.5,164.1 '/>
		<polygon fill = 'rgb( 31, 120, 180)' fill-opacity = '0.250000' points = '781.5,164.1 781.5,662.4 783.4,662.4 783.4,163.1 '/>
		<polygon fill = 'rgb( 31, 120, 180)' fill-opacity = '0.250000' points = '783.4,163.1 783.4,662.4 785.3,662.4 785.3,162.5 '/>
		<polygon fill = 'rgb( 31, 120, 180)' fill-opacity = '0.250000' points = '785.3,162.5 785.3,662.4 787.1,662.4 787.1,162.3 '/>
		<polygon fill = 'rgb( 31, 120, 180)' fill-opacity = '0.250000' points = '787.1,162.3 787.1,662.4 789.0,662.4 789.0,162.5 '/>
		<polygon fill = 'rgb( 31, 120, 180)' fill-opacity = '0.250000' points = '789.0,162.5 789.0,662.4 790.9,662.4 790.9,163.1 '/>
		<polygon fill = 'rgb( 31, 120, 180)' fill-opacity = '0.250000' points = '790.9,163.1 790.9,662.4 792.8,662.4 792.8,164.1 '/>
		<polygon fill = 'rgb( 31, 120, 180)' fill-opacity = '0.250000' points = '792.8,164.1 792.8,662.4 794.7,662.4 794.7,165.4 '/>
		<polygon fill = 'rgb( 31, 120, 180)' fill-opacity = '0.250000' points = '794.7,165.4 794.7,662.4 796.6,662.4 796.6,167.0 '/>
		<polygon fill = 'rgb( 31, 120, 180)' fill-opacity = '0.250000' points = '796.6,167.0 796.6,662.4 798.5,662.4 798.5,168.9 '/>
		<polygon fill = 'rgb( 31, 120, 180)' fill-opacity = '0.250000' points = '798.5,168.9 798.5,662.4 800.3,662.4 800.3,171.1 '/>
		<polygon fill = 'rgb( 31, 120, 180)' fill-opacity = '0.250000' points = '800.3,171.1 800.3,662.4 802.2,662.4 802.2,173.5 '/>
		<polygon fill = 'rgb( 31, 120, 180)' fill-opacity = '0.250000' points = '802.2,173.5 802.2,662.4 804.1,662.4 804.1,176.2 '/>
		<polygon fill = 'rgb( 31, 120, 180)' fill-opacity = '0.250000' points = '804.1,176.2 804.1,662.4 806.0,662.4 806.0,179.1 '/>
		<polygon fill = 'rgb( 31, 120, 180)' fill-opacity = '0.250000' points = '806.0,179.1 806.0,662.4 807.9,662.4 807.9,182.2 '/>
		<polygon fill = 'rgb( 31, 120, 180)' fill-opacity = '0.250000' points = '807.9,182.2 807.9,662.4 809.8,662.4 809.8,185.6 '/>
		<polygon fill = 'rgb( 31, 120, 180)' fill-opacity = '0.250000' points = '809.8,185.6 809.8,662.4 811.7,662.4 811.7,189.2 '/>
		<polygon fill = 'rgb( 31, 120, 180)' fill-opacity = '0.250000' points = '811.7,189.2 811.7,662.4 813.6,662.4 813.6,193.0 '/>
		<polygon fill = 'rgb( 31, 120, 180)' fill-opacity = '0.250000' points = '813.6,193.0 813.6,662.4 815.4,662.4 815.4,197.1 '/>
		<polygon fill = 'rgb( 31, 120, 180)' fill-opacity = '0.250000' points = '815.4,197.1 815.4,662.4 817.3,662.4 817.3,201.5 '/>
		<polygon fill = 'rgb( 31, 120, 180)' fill-opacity = '0.250000' points = '817.3,201.5 817.3,662.4 819.2,662.4 819.2,206.2 '/>
		<polygon fill = 'rgb( 31, 120, 180)' fill-opacity = '0.250000' points = '819.2,206.2 819.2,662.4 821.1,662.4 821.1,211.1 '/>
		<polygon fill = 'rgb( 31, 120, 180)' fill-opacity = '0.250000' points = '821.1,211.1 821.1,662.4 823.0,662.4 823.0,216.4 '/>
		<polygon fill = 'rgb( 31, 120, 180)' fill-opacity = '0.250000' points = '823.0,216.4 823.0,662.4 824.9,662.4 824.9,222.1 '/>
		<polygon fill = 'rgb( 31, 120, 180)' fill-opacity = '0.250000' points = '824.9,222.1 824.9,662.4 826.8,662.4 826.8,228.1 '/>
		<polygon fill = 'rgb( 31, 120, 180)' fill-opacity = '0.250000' points = '826.8,228.1 826.8,662.4 828.7,662.4 828.7,234.5 '/>
		<polygon fill = 'rgb( 31, 120, 180)' fill-opacity = '0.250000' points = '828.7,234.5 828.7,662.4 830.5,662.4 830.5,241.3 '/>
		<polygon fill = 'rgb( 31, 120, 180)' fill-opacity = '0.250000' points = '830.5,241.3 830.5,662.4 832.4,662.4 832.4,248.5 '/>
		<polygon fill = 'rgb( 31, 120, 180)' fill-opacity = '0.250000' points = '832.4,248.5 832.4,662.4 834.3,662.4 834.3,256.1 '/>
		<polygon fill = 'rgb( 31, 120, 180)' fill-opacity = '0.250000' points = '834.3,256.1 834.3,662.4 836.2,662.4 836.2,264.0 '/>
		<polygon fill = 'rgb( 31, 120, 180)' fill-opacity = '0.250000' points = '836.2,264.0 836.2,662.4 838.1,662.4 838.1,272.3 '/>
		<polygon fill = 'rgb( 31, 120, 180)' fill-opacity = '0.250000' points = '838.1,272.3 838.1,662.4 840.0,662.4 840.0,280.9 '/>
		<polygon fill = 'rgb( 31, 120, 180)' fill-opacity = '0.250000' points = '840.0,280.9 840.0,662.4 841.9,662.4 841.9,289.9 '/>
		<polygon fill = 'rgb( 31, 120, 180)' fill-opacity = '0.250000' points = '841.9,289.9 841.9,662.4 843.8,662.4 843.8,299.1 '/>
		<polygon fill = 'rgb( 31, 120, 180)' fill-opacity = '0.250000' points = '843.8,299.1 843.8,662.4 845.6,662.4 845.6,308.5 '/>
		<polygon fill = 'rgb( 31, 120, 180)' fill-opacity = '0.250000' points = '845.6,308.5 845.6,662.4 847.5,662.4 847.5,318.1 '/>
		<polygon fill = 'rgb( 31, 120, 180)' fill-opacity = '0.250000' points = '847.5,318.1 847.5,662.4 849.4,662.4 849.4,327.8 '/>
		<polygon fill = 'rgb( 31, 120, 180)' fill-opacity = '0.250000' points = '849.4,327.8 849.4,662.4 851.3,662.4 851.3,337.6 '/>
		<polygon fill = 'rgb( 31, 120, 180)' fill-opacity = '0.250000' points = '851.3,337.6 851.3,662.4 853.2,662.4 853.2,347.4 '/>
		<polygon fill = 'rgb( 31, 120, 180)' fill-opacity = '0.250000' points = '853.2,347.4 853.2,662.4 855.1,662.4 855.1,357.2 '/>
		<polygon fill = 'rgb( 31, 120, 180)' fill-opacity = '0.250000' points = '855.1,357.2 855.1,662.4 857.0,662.4 857.0,366.9 '/>
		<polygon fill = 'rgb( 31, 120, 180)' fill-opacity = '0.250000' points = '857.0,366.9 857.0,662.4 858.9,662.4 858.9,376.4 '/>
		<polygon fill = 'rgb( 31, 120, 180)' fill-opacity = '0.250000' points = '858.9,376.4 858.9,662.4 860.7,662.4 860.7,385.8 '/>
		<polygon fill = 'rgb( 31, 120, 180)' fill-opacity = '0.250000' points = '860.7,385.8 860.7,662.4 862.6,662.4 862.6,394.9 '/>
		<polygon fill = 'rgb( 31, 120, 180)' fill-opacity = '0.250000' points = '862.6,394.9 862.6,662.4 864.5,662.4 864.5,403.7 '/>
		<polygon fill = 'rgb( 31, 120, 180)' fill-opacity = '0.250000' points = '864.5,403.7 864.5,662.4 866.4,662.4 866.4,412.2 '/>
		<polygon fill = 'rgb( 31, 120, 180)' fill-opacity = '0.250000' points = '866.4,412.2 866.4,662.4 868.3,662.4 868.3,420.4 '/>
		<polygon fill = 'rgb( 31, 120, 180)' fill-opacity = '0.250000' points = '868.3,420.4 868.3,662.4 870.2,662.4 870.2,428.2 '/>
		<polygon fill = 'rgb( 31, 120, 180)' fill-opacity = '0.250000' points = '870.2,428.2 870.2,662.4 872.1,662.4 872.1,435.6 '/>
		<polygon fill = 'rgb( 31, 120, 180)' fill-opacity = '0.250000' points = '872.1,435.6 872.1,662.4 873.9,662.4 873.9,442.7 '/>
		<polygon fill = 'rgb( 31, 120, 180)' fill-opacity = '0.250000' points = '873.9,442.7 873.9,662.4 875.8,662.4 875.8,449.3 '/>
		<polygon fill = 'rgb( 31, 120, 180)' fill-opacity = '0.250000' points = '875.8,449.3 875.8,662.4 877.7,662.4 877.7,455.5 '/>
		<polygon fill = 'rgb( 31, 120, 180)' fill-opacity = '0.250000' points = '877.7,455.5 877.7,662.4 879.6,662.4 879.6,461.4 '/>
		<polygon fill = 'rgb( 31, 120, 180)' fill-opacity = '0.250000' points = '879.6,461.4 879.6,662.4 881.5,662.4 881.5,466.8 '/>
		<polygon fill = 'rgb( 31, 120, 180)' fill-opacity = '0.250000' points = '881.5,466.8 881.5,662.4 883.4,662.4 883.4,471.9 '/>
		<polygon fill = 'rgb( 31, 120, 180)' fill-opacity = '0.250000' points = '883.4,471.9 883.4,662.4 885.3,662.4 885.3,476.7 '/>
		<polygon fill = 'rgb( 31, 120, 180)' fill-opacity = '0.250000' points = '885.3,476.7 885.3,662.4 887.2,662.4 887.2,481.2 '/>
		<polygon fill = 'rgb( 31, 120, 180)' fill-opacity = '0.250000' points = '887.2,481.2 887.2,662.4 889.0,662.4 889.0,485.4 '/>
		<polygon fill = 'rgb( 31, 120, 180)' fill-opacity = '0.250000' points = '889.0,485.4 889.0,662.4 890.9,662.4 890.9,489.3 '/>
		<polygon fill = 'rgb( 31, 120, 180)' fill-opacity = '0.250000' points = '890.9,489.3 890.9,662.4 892.8,662.4 892.8,493.0 '/>
		<polygon fill = 'rgb( 31, 120, 180)' fill-opacity = '0.250000' points = '892.8,493.0 892.8,662.4 894.7,662.4 894.7,496.5 '/>
		<polygon fill = 'rgb( 31, 120, 180)' fill-opacity = '0.250000' points = '894.7,496.5 894.7,662.4 896.6,662.4 896.6,499.9 '/>
		<polygon fill = 'rgb( 31, 120, 180)' fill-opacity = '0.250000' points = '896.6,499.9 896.6,662.4 898.5,662.4 898.5,503.1 '/>
		<polygon fill = 'rgb( 31, 120, 180)' fill-opacity = '0.250000' points = '898.5,503.1 898.5,662.4 900.4,662.4 900.4,506.1 '/>
		<polygon fill = 'rgb( 31, 120, 180)' fill-opacity = '0.250000' points = '900.4,506.1 900.4,662.4 902.3,662.4 902.3,509.1 '/>
		<polygon fill = 'rgb( 31, 120, 180)' fill-opacity = '0.250000' points = '902.3,509.1 902.3,662.4 904.1,662.4 904.1,512.0 '/>
		<polygon fill = 'rgb( 31, 120, 180)' fill-opacity = '0.250000' points = '904.1,512.0 904.1,662.4 906.0,662.4 906.0,514.9 '/>
		<polygon fill = 'rgb( 31, 120, 180)' fill-opacity = '0.250000' points = '906.0,514.9 906.0,662.4 907.9,662.4 907.9,517.8 '/>
		<polygon fill = 'rgb( 31, 120, 180)' fill-opacity = '0.250000' points = '907.9,517.8 907.9,662.4 909.8,662.4 909.8,520.6 '/>
		<polygon fill = 'rgb( 31, 120, 180)' fill-opacity = '0.250000' points = '909.8,520.6 909.8,662.4 911.7,662.4 911.7,523.5 '/>
		<polygon fill = 'rgb( 31, 120, 180)' fill-opacity = '0.250000' points = '911.7,523.5 911.7,662.4 913.6,662.4 913.6,526.3 '/>
		<polygon fill = 'rgb( 31, 120, 180)' fill-opacity = '0.250000' points = '913.6,526.3 913.6,662.4 915.5,662.4 915.5,529.2 '/>
		<polygon fill = 'rgb( 31, 120, 180)' fill-opacity = '0.250000' points = '915.5,529.2 915.5,662.4 917.4,662.4 917.4,532.2 '/>
		<polygon fill = 'rgb( 31, 120, 180)' fill-opacity = '0.250000' points = '917.4,532.2 917.4,662.4 919.2,662.4 919.2,535.2 '/>
		<polygon fill = 'rgb( 31, 120, 180)' fill-opacity = '0.250000' points = '919.2,535.2 919.2,662.4 921.1,662.4 921.1,538.3 '/>
		<polygon fill = 'rgb( 31, 120, 180)' fill-opacity = '0.250000' points = '921.1,538.3 921.1,662.4 923.0,662.4 923.0,541.4 '/>
		<polygon fill = 'rgb( 31, 120, 180)' fill-opacity = '0.250000' points = '923.0,541.4 923.0,662.4 924.9,662.4 924.9,544.6 '/>
	</g>
</g>
	</g>
	<g id="gnuplot_plot_3" ><title>Point estimate</title>
<g fill="none" color="white" stroke="rgb( 31, 120, 180)" stroke-width="2.00" stroke-linecap="butt" stroke-linejoin="miter">
</g>
<g fill="none" color="black" stroke="currentColor" stroke-width="2.00" stroke-linecap="butt" stroke-linejoin="miter">
	<g transform="translate(1089.0,103.0)" stroke="none" fill="black" font-family="Helvetica" font-size="12.00"  text-anchor="start">
		<text><tspan font-family="Helvetica" >Point estimate</tspan></text>
	</g>
</g>
<g fill="none" color="black" stroke="currentColor" stroke-width="2.00" stroke-linecap="butt" stroke-linejoin="miter">
	<path stroke='rgb( 31, 120, 180)'  d='M1038.5,99.1 L1080.7,99.1 M618.7,662.4 L618.7,205.8  '/></g>
	</g>
	<g id="gnuplot_plot_4" ><title>Noise threshold</title>
<g fill="none" color="white" stroke="rgb( 31, 120, 180)" stroke-width="1.00" stroke-linecap="butt" stroke-linejoin="miter">
</g>
<g fill="none" color="black" stroke="currentColor" stroke-width="1.00" stroke-linecap="butt" stroke-linejoin="miter">
	<g transform="translate(1089.0,121.0)" stroke="none" fill="black" font-family="Helvetica" font-size="12.00"  text-anchor="start">
		<text><tspan font-family="Helvetica" >Noise threshold</tspan></text>
	</g>
</g>
<g fill="none" color="black" stroke="currentColor" stroke-width="1.00" stroke-linecap="butt" stroke-linejoin="miter">
	<g stroke='none' shape-rendering='crispEdges'>
		<polygon fill = 'rgb(227,  26,  28)' fill-opacity = '0.100000' points = '1038.5,121.6 1080.7,121.6 1080.7,112.6 1038.5,112.6 '/>
		<polygon fill = 'rgb(227,  26,  28)' fill-opacity = '0.100000' points = '542.8,54.1 542.8,662.4 542.8,662.4 542.8,54.1 '/>
	</g>
</g>
	</g>
<g fill="none" color="white" stroke="rgb(227,  26,  28)" stroke-width="2.00" stroke-linecap="butt" stroke-linejoin="miter">
</g>
<g fill="none" color="black" stroke="currentColor" stroke-width="2.00" stroke-linecap="butt" stroke-linejoin="miter">
</g>
<g fill="none" color="black" stroke="black" stroke-width="1.00" stroke-linecap="butt" stroke-linejoin="miter">
</g>
<g fill="none" color="black" stroke="currentColor" stroke-width="1.00" stroke-linecap="butt" stroke-linejoin="miter">
	<path stroke='black'  d='M71.9,54.1 L71.9,662.4 L1013.6,662.4 L1013.6,54.1 L71.9,54.1 Z  '/></g>
<g fill="none" color="black" stroke="currentColor" stroke-width="1.00" stroke-linecap="butt" stroke-linejoin="miter">
</g>
</g>
</svg>

