<?xml version="1.0" encoding="utf-8"  standalone="no"?>
<svg 
 viewBox="0 0 1280 720"
 xmlns="http://www.w3.org/2000/svg"
 xmlns:xlink="http://www.w3.org/1999/xlink"
>

<title>Gnuplot</title>
<desc>Produced by GNUPLOT 5.0 patchlevel 6 </desc>

<g id="gnuplot_canvas">

<rect x="0" y="0" width="1280" height="720" fill="none"/>
<defs>

	<circle id='gpDot' r='0.5' stroke-width='0.5'/>
	<path id='gpPt0' stroke-width='0.222' stroke='currentColor' d='M-1,0 h2 M0,-1 v2'/>
	<path id='gpPt1' stroke-width='0.222' stroke='currentColor' d='M-1,-1 L1,1 M1,-1 L-1,1'/>
	<path id='gpPt2' stroke-width='0.222' stroke='currentColor' d='M-1,0 L1,0 M0,-1 L0,1 M-1,-1 L1,1 M-1,1 L1,-1'/>
	<rect id='gpPt3' stroke-width='0.222' stroke='currentColor' x='-1' y='-1' width='2' height='2'/>
	<rect id='gpPt4' stroke-width='0.222' stroke='currentColor' fill='currentColor' x='-1' y='-1' width='2' height='2'/>
	<circle id='gpPt5' stroke-width='0.222' stroke='currentColor' cx='0' cy='0' r='1'/>
	<use xlink:href='#gpPt5' id='gpPt6' fill='currentColor' stroke='none'/>
	<path id='gpPt7' stroke-width='0.222' stroke='currentColor' d='M0,-1.33 L-1.33,0.67 L1.33,0.67 z'/>
	<use xlink:href='#gpPt7' id='gpPt8' fill='currentColor' stroke='none'/>
	<use xlink:href='#gpPt7' id='gpPt9' stroke='currentColor' transform='rotate(180)'/>
	<use xlink:href='#gpPt9' id='gpPt10' fill='currentColor' stroke='none'/>
	<use xlink:href='#gpPt3' id='gpPt11' stroke='currentColor' transform='rotate(45)'/>
	<use xlink:href='#gpPt11' id='gpPt12' fill='currentColor' stroke='none'/>
	<path id='gpPt13' stroke-width='0.222' stroke='currentColor' d='M0,1.330 L1.265,0.411 L0.782,-1.067 L-0.782,-1.076 L-1.265,0.411 z'/>
	<use xlink:href='#gpPt13' id='gpPt14' fill='currentColor' stroke='none'/>
	<filter id='textbox' filterUnits='objectBoundingBox' x='0' y='0' height='1' width='1'>
	  <feFlood flood-color='white' flood-opacity='1' result='bgnd'/>
	  <feComposite in='SourceGraphic' in2='bgnd' operator='atop'/>
	</filter>
	<filter id='greybox' filterUnits='objectBoundingBox' x='0' y='0' height='1' width='1'>
	  <feFlood flood-color='lightgrey' flood-opacity='1' result='grey'/>
	  <feComposite in='SourceGraphic' in2='grey' operator='atop'/>
	</filter>
</defs>
<g fill="none" color="white" stroke="currentColor" stroke-width="1.00" stroke-linecap="butt" stroke-linejoin="miter">
</g>
<g fill="none" color="black" stroke="currentColor" stroke-width="1.00" stroke-linecap="butt" stroke-linejoin="miter">
	<path stroke='black'  d='M71.9,662.4 L80.9,662.4  '/>	<g transform="translate(63.6,666.3)" stroke="none" fill="black" font-family="Helvetica" font-size="12.00"  text-anchor="end">
		<text><tspan font-family="Helvetica" > 0</tspan></text>
	</g>
</g>
<g fill="none" color="black" stroke="currentColor" stroke-width="1.00" stroke-linecap="butt" stroke-linejoin="miter">
	<path stroke='black'  d='M71.9,511.8 L80.9,511.8  '/>	<g transform="translate(63.6,515.7)" stroke="none" fill="black" font-family="Helvetica" font-size="12.00"  text-anchor="end">
		<text><tspan font-family="Helvetica" > 0.5</tspan></text>
	</g>
</g>
<g fill="none" color="black" stroke="currentColor" stroke-width="1.00" stroke-linecap="butt" stroke-linejoin="miter">
	<path stroke='black'  d='M71.9,361.3 L80.9,361.3  '/>	<g transform="translate(63.6,365.2)" stroke="none" fill="black" font-family="Helvetica" font-size="12.00"  text-anchor="end">
		<text><tspan font-family="Helvetica" > 1</tspan></text>
	</g>
</g>
<g fill="none" color="black" stroke="currentColor" stroke-width="1.00" stroke-linecap="butt" stroke-linejoin="miter">
	<path stroke='black'  d='M71.9,210.7 L80.9,210.7  '/>	<g transform="translate(63.6,214.6)" stroke="none" fill="black" font-family="Helvetica" font-size="12.00"  text-anchor="end">
		<text><tspan font-family="Helvetica" > 1.5</tspan></text>
	</g>
</g>
<g fill="none" color="black" stroke="currentColor" stroke-width="1.00" stroke-linecap="butt" stroke-linejoin="miter">
	<path stroke='black'  d='M71.9,60.1 L80.9,60.1  '/>	<g transform="translate(63.6,64.0)" stroke="none" fill="black" font-family="Helvetica" font-size="12.00"  text-anchor="end">
		<text><tspan font-family="Helvetica" > 2</tspan></text>
	</g>
</g>
<g fill="none" color="black" stroke="currentColor" stroke-width="1.00" stroke-linecap="butt" stroke-linejoin="miter">
	<path stroke='black'  d='M78.3,662.4 L78.3,653.4  '/>	<g transform="translate(78.3,684.3)" stroke="none" fill="black" font-family="Helvetica" font-size="12.00"  text-anchor="middle">
		<text><tspan font-family="Helvetica" > 46</tspan></text>
	</g>
</g>
<g fill="none" color="black" stroke="currentColor" stroke-width="1.00" stroke-linecap="butt" stroke-linejoin="miter">
	<path stroke='black'  d='M227.3,662.4 L227.3,653.4  '/>	<g transform="translate(227.3,684.3)" stroke="none" fill="black" font-family="Helvetica" font-size="12.00"  text-anchor="middle">
		<text><tspan font-family="Helvetica" > 46.5</tspan></text>
	</g>
</g>
<g fill="none" color="black" stroke="currentColor" stroke-width="1.00" stroke-linecap="butt" stroke-linejoin="miter">
	<path stroke='black'  d='M376.3,662.4 L376.3,653.4  '/>	<g transform="translate(376.3,684.3)" stroke="none" fill="black" font-family="Helvetica" font-size="12.00"  text-anchor="middle">
		<text><tspan font-family="Helvetica" > 47</tspan></text>
	</g>
</g>
<g fill="none" color="black" stroke="currentColor" stroke-width="1.00" stroke-linecap="butt" stroke-linejoin="miter">
	<path stroke='black'  d='M525.3,662.4 L525.3,653.4  '/>	<g transform="translate(525.3,684.3)" stroke="none" fill="black" font-family="Helvetica" font-size="12.00"  text-anchor="middle">
		<text><tspan font-family="Helvetica" > 47.5</tspan></text>
	</g>
</g>
<g fill="none" color="black" stroke="currentColor" stroke-width="1.00" stroke-linecap="butt" stroke-linejoin="miter">
	<path stroke='black'  d='M674.3,662.4 L674.3,653.4  '/>	<g transform="translate(674.3,684.3)" stroke="none" fill="black" font-family="Helvetica" font-size="12.00"  text-anchor="middle">
		<text><tspan font-family="Helvetica" > 48</tspan></text>
	</g>
</g>
<g fill="none" color="black" stroke="currentColor" stroke-width="1.00" stroke-linecap="butt" stroke-linejoin="miter">
	<path stroke='black'  d='M823.3,662.4 L823.3,653.4  '/>	<g transform="translate(823.3,684.3)" stroke="none" fill="black" font-family="Helvetica" font-size="12.00"  text-anchor="middle">
		<text><tspan font-family="Helvetica" > 48.5</tspan></text>
	</g>
</g>
<g fill="none" color="black" stroke="currentColor" stroke-width="1.00" stroke-linecap="butt" stroke-linejoin="miter">
	<path stroke='black'  d='M972.3,662.4 L972.3,653.4  '/>	<g transform="translate(972.3,684.3)" stroke="none" fill="black" font-family="Helvetica" font-size="12.00"  text-anchor="middle">
		<text><tspan font-family="Helvetica" > 49</tspan></text>
	</g>
</g>
<g fill="none" color="black" stroke="currentColor" stroke-width="1.00" stroke-linecap="butt" stroke-linejoin="miter">
	<path stroke='black'  d='M979.0,662.4 L970.0,662.4  '/>	<g transform="translate(987.3,666.3)" stroke="none" fill="black" font-family="Helvetica" font-size="12.00"  text-anchor="start">
		<text><tspan font-family="Helvetica" > 0</tspan></text>
	</g>
</g>
<g fill="none" color="black" stroke="currentColor" stroke-width="1.00" stroke-linecap="butt" stroke-linejoin="miter">
	<path stroke='black'  d='M979.0,575.5 L970.0,575.5  '/>	<g transform="translate(987.3,579.4)" stroke="none" fill="black" font-family="Helvetica" font-size="12.00"  text-anchor="start">
		<text><tspan font-family="Helvetica" > 0.0002</tspan></text>
	</g>
</g>
<g fill="none" color="black" stroke="currentColor" stroke-width="1.00" stroke-linecap="butt" stroke-linejoin="miter">
	<path stroke='black'  d='M979.0,488.6 L970.0,488.6  '/>	<g transform="translate(987.3,492.5)" stroke="none" fill="black" font-family="Helvetica" font-size="12.00"  text-anchor="start">
		<text><tspan font-family="Helvetica" > 0.0004</tspan></text>
	</g>
</g>
<g fill="none" color="black" stroke="currentColor" stroke-width="1.00" stroke-linecap="butt" stroke-linejoin="miter">
	<path stroke='black'  d='M979.0,401.7 L970.0,401.7  '/>	<g transform="translate(987.3,405.6)" stroke="none" fill="black" font-family="Helvetica" font-size="12.00"  text-anchor="start">
		<text><tspan font-family="Helvetica" > 0.0006</tspan></text>
	</g>
</g>
<g fill="none" color="black" stroke="currentColor" stroke-width="1.00" stroke-linecap="butt" stroke-linejoin="miter">
	<path stroke='black'  d='M979.0,314.8 L970.0,314.8  '/>	<g transform="translate(987.3,318.7)" stroke="none" fill="black" font-family="Helvetica" font-size="12.00"  text-anchor="start">
		<text><tspan font-family="Helvetica" > 0.0008</tspan></text>
	</g>
</g>
<g fill="none" color="black" stroke="currentColor" stroke-width="1.00" stroke-linecap="butt" stroke-linejoin="miter">
	<path stroke='black'  d='M979.0,227.9 L970.0,227.9  '/>	<g transform="translate(987.3,231.8)" stroke="none" fill="black" font-family="Helvetica" font-size="12.00"  text-anchor="start">
		<text><tspan font-family="Helvetica" > 0.001</tspan></text>
	</g>
</g>
<g fill="none" color="black" stroke="currentColor" stroke-width="1.00" stroke-linecap="butt" stroke-linejoin="miter">
	<path stroke='black'  d='M979.0,141.0 L970.0,141.0  '/>	<g transform="translate(987.3,144.9)" stroke="none" fill="black" font-family="Helvetica" font-size="12.00"  text-anchor="start">
		<text><tspan font-family="Helvetica" > 0.0012</tspan></text>
	</g>
</g>
<g fill="none" color="black" stroke="currentColor" stroke-width="1.00" stroke-linecap="butt" stroke-linejoin="miter">
	<path stroke='black'  d='M979.0,54.1 L970.0,54.1  '/>	<g transform="translate(987.3,58.0)" stroke="none" fill="black" font-family="Helvetica" font-size="12.00"  text-anchor="start">
		<text><tspan font-family="Helvetica" > 0.0014</tspan></text>
	</g>
</g>
<g fill="none" color="black" stroke="currentColor" stroke-width="1.00" stroke-linecap="butt" stroke-linejoin="miter">
</g>
<g fill="none" color="black" stroke="currentColor" stroke-width="1.00" stroke-linecap="butt" stroke-linejoin="miter">
	<path stroke='black'  d='M71.9,54.1 L71.9,662.4 L979.0,662.4 L979.0,54.1 L71.9,54.1 Z  '/></g>
<g fill="none" color="black" stroke="currentColor" stroke-width="1.00" stroke-linecap="butt" stroke-linejoin="miter">
	<g transform="translate(17.0,358.3) rotate(270)" stroke="none" fill="black" font-family="Helvetica" font-size="12.00"  text-anchor="middle">
		<text><tspan font-family="Helvetica" >Iterations (x 10</tspan><tspan font-family="Helvetica"  font-size="9.6" dy="-6.00px">3</tspan><tspan font-family="Helvetica"  font-size="12.0" dy="6.00px">)</tspan></text>
	</g>
</g>
<g fill="none" color="black" stroke="currentColor" stroke-width="1.00" stroke-linecap="butt" stroke-linejoin="miter">
	<g transform="translate(1066.5,358.3) rotate(270)" stroke="none" fill="black" font-family="Helvetica" font-size="12.00"  text-anchor="middle">
		<text><tspan font-family="Helvetica" >Density (a.u.)</tspan></text>
	</g>
</g>
<g fill="none" color="black" stroke="currentColor" stroke-width="1.00" stroke-linecap="butt" stroke-linejoin="miter">
	<g transform="translate(525.4,711.3)" stroke="none" fill="black" font-family="Helvetica" font-size="12.00"  text-anchor="middle">
		<text><tspan font-family="Helvetica" >Average time (us)</tspan></text>
	</g>
</g>
<g fill="none" color="black" stroke="currentColor" stroke-width="1.00" stroke-linecap="butt" stroke-linejoin="miter">
	<g transform="translate(525.4,31.0)" stroke="none" fill="black" font-family="Helvetica" font-size="12.00"  text-anchor="middle">
		<text><tspan font-family="Helvetica" >language: ruby/parse error: python/examples/mixed-spaces-tabs.py</tspan></text>
	</g>
</g>
	<g id="gnuplot_plot_1" ><title>PDF</title>
<g fill="none" color="black" stroke="currentColor" stroke-width="1.00" stroke-linecap="butt" stroke-linejoin="miter">
	<g transform="translate(1147.1,67.0)" stroke="none" fill="black" font-family="Helvetica" font-size="12.00"  text-anchor="start">
		<text><tspan font-family="Helvetica" >PDF</tspan></text>
	</g>
</g>
<g fill="none" color="black" stroke="currentColor" stroke-width="1.00" stroke-linecap="butt" stroke-linejoin="miter">
	<g stroke='none' shape-rendering='crispEdges'>
		<polygon fill = 'rgb( 31, 120, 180)' fill-opacity = '0.250000' points = '1096.6,67.6 1138.8,67.6 1138.8,58.6 1096.6,58.6 '/>
		<polygon fill = 'rgb( 31, 120, 180)' fill-opacity = '0.250000' points = '71.9,660.1 71.9,662.4 73.7,662.4 73.7,659.9 '/>
		<polygon fill = 'rgb( 31, 120, 180)' fill-opacity = '0.250000' points = '73.7,659.9 73.7,662.4 75.5,662.4 75.5,659.7 '/>
		<polygon fill = 'rgb( 31, 120, 180)' fill-opacity = '0.250000' points = '75.5,659.7 75.5,662.4 77.4,662.4 77.4,659.4 '/>
		<polygon fill = 'rgb( 31, 120, 180)' fill-opacity = '0.250000' points = '77.4,659.4 77.4,662.4 79.2,662.4 79.2,659.2 '/>
		<polygon fill = 'rgb( 31, 120, 180)' fill-opacity = '0.250000' points = '79.2,659.2 79.2,662.4 81.0,662.4 81.0,658.9 '/>
		<polygon fill = 'rgb( 31, 120, 180)' fill-opacity = '0.250000' points = '81.0,658.9 81.0,662.4 82.8,662.4 82.8,658.7 '/>
		<polygon fill = 'rgb( 31, 120, 180)' fill-opacity = '0.250000' points = '82.8,658.7 82.8,662.4 84.6,662.4 84.6,658.4 '/>
		<polygon fill = 'rgb( 31, 120, 180)' fill-opacity = '0.250000' points = '84.6,658.4 84.6,662.4 86.4,662.4 86.4,658.0 '/>
		<polygon fill = 'rgb( 31, 120, 180)' fill-opacity = '0.250000' points = '86.4,658.0 86.4,662.4 88.3,662.4 88.3,657.7 '/>
		<polygon fill = 'rgb( 31, 120, 180)' fill-opacity = '0.250000' points = '88.3,657.7 88.3,662.4 90.1,662.4 90.1,657.3 '/>
		<polygon fill = 'rgb( 31, 120, 180)' fill-opacity = '0.250000' points = '90.1,657.3 90.1,662.4 91.9,662.4 91.9,656.9 '/>
		<polygon fill = 'rgb( 31, 120, 180)' fill-opacity = '0.250000' points = '91.9,656.9 91.9,662.4 93.7,662.4 93.7,656.5 '/>
		<polygon fill = 'rgb( 31, 120, 180)' fill-opacity = '0.250000' points = '93.7,656.5 93.7,662.4 95.5,662.4 95.5,656.0 '/>
		<polygon fill = 'rgb( 31, 120, 180)' fill-opacity = '0.250000' points = '95.5,656.0 95.5,662.4 97.3,662.4 97.3,655.5 '/>
		<polygon fill = 'rgb( 31, 120, 180)' fill-opacity = '0.250000' points = '97.3,655.5 97.3,662.4 99.2,662.4 99.2,655.0 '/>
		<polygon fill = 'rgb( 31, 120, 180)' fill-opacity = '0.250000' points = '99.2,655.0 99.2,662.4 101.0,662.4 101.0,654.5 '/>
		<polygon fill = 'rgb( 31, 120, 180)' fill-opacity = '0.250000' points = '101.0,654.5 101.0,662.4 102.8,662.4 102.8,653.9 '/>
		<polygon fill = 'rgb( 31, 120, 180)' fill-opacity = '0.250000' points = '102.8,653.9 102.8,662.4 104.6,662.4 104.6,653.2 '/>
		<polygon fill = 'rgb( 31, 120, 180)' fill-opacity = '0.250000' points = '104.6,653.2 104.6,662.4 106.4,662.4 106.4,652.6 '/>
		<polygon fill = 'rgb( 31, 120, 180)' fill-opacity = '0.250000' points = '106.4,652.6 106.4,662.4 108.3,662.4 108.3,651.9 '/>
		<polygon fill = 'rgb( 31, 120, 180)' fill-opacity = '0.250000' points = '108.3,651.9 108.3,662.4 110.1,662.4 110.1,651.1 '/>
		<polygon fill = 'rgb( 31, 120, 180)' fill-opacity = '0.250000' points = '110.1,651.1 110.1,662.4 111.9,662.4 111.9,650.3 '/>
		<polygon fill = 'rgb( 31, 120, 180)' fill-opacity = '0.250000' points = '111.9,650.3 111.9,662.4 113.7,662.4 113.7,649.5 '/>
		<polygon fill = 'rgb( 31, 120, 180)' fill-opacity = '0.250000' points = '113.7,649.5 113.7,662.4 115.5,662.4 115.5,648.6 '/>
		<polygon fill = 'rgb( 31, 120, 180)' fill-opacity = '0.250000' points = '115.5,648.6 115.5,662.4 117.3,662.4 117.3,647.6 '/>
		<polygon fill = 'rgb( 31, 120, 180)' fill-opacity = '0.250000' points = '117.3,647.6 117.3,662.4 119.2,662.4 119.2,646.6 '/>
		<polygon fill = 'rgb( 31, 120, 180)' fill-opacity = '0.250000' points = '119.2,646.6 119.2,662.4 121.0,662.4 121.0,645.6 '/>
		<polygon fill = 'rgb( 31, 120, 180)' fill-opacity = '0.250000' points = '121.0,645.6 121.0,662.4 122.8,662.4 122.8,644.5 '/>
		<polygon fill = 'rgb( 31, 120, 180)' fill-opacity = '0.250000' points = '122.8,644.5 122.8,662.4 124.6,662.4 124.6,643.3 '/>
		<polygon fill = 'rgb( 31, 120, 180)' fill-opacity = '0.250000' points = '124.6,643.3 124.6,662.4 126.4,662.4 126.4,642.0 '/>
		<polygon fill = 'rgb( 31, 120, 180)' fill-opacity = '0.250000' points = '126.4,642.0 126.4,662.4 128.3,662.4 128.3,640.7 '/>
		<polygon fill = 'rgb( 31, 120, 180)' fill-opacity = '0.250000' points = '128.3,640.7 128.3,662.4 130.1,662.4 130.1,639.3 '/>
		<polygon fill = 'rgb( 31, 120, 180)' fill-opacity = '0.250000' points = '130.1,639.3 130.1,662.4 131.9,662.4 131.9,637.9 '/>
		<polygon fill = 'rgb( 31, 120, 180)' fill-opacity = '0.250000' points = '131.9,637.9 131.9,662.4 133.7,662.4 133.7,636.3 '/>
		<polygon fill = 'rgb( 31, 120, 180)' fill-opacity = '0.250000' points = '133.7,636.3 133.7,662.4 135.5,662.4 135.5,634.7 '/>
		<polygon fill = 'rgb( 31, 120, 180)' fill-opacity = '0.250000' points = '135.5,634.7 135.5,662.4 137.3,662.4 137.3,633.0 '/>
		<polygon fill = 'rgb( 31, 120, 180)' fill-opacity = '0.250000' points = '137.3,633.0 137.3,662.4 139.2,662.4 139.2,631.3 '/>
		<polygon fill = 'rgb( 31, 120, 180)' fill-opacity = '0.250000' points = '139.2,631.3 139.2,662.4 141.0,662.4 141.0,629.4 '/>
		<polygon fill = 'rgb( 31, 120, 180)' fill-opacity = '0.250000' points = '141.0,629.4 141.0,662.4 142.8,662.4 142.8,627.5 '/>
		<polygon fill = 'rgb( 31, 120, 180)' fill-opacity = '0.250000' points = '142.8,627.5 142.8,662.4 144.6,662.4 144.6,625.4 '/>
		<polygon fill = 'rgb( 31, 120, 180)' fill-opacity = '0.250000' points = '144.6,625.4 144.6,662.4 146.4,662.4 146.4,623.3 '/>
		<polygon fill = 'rgb( 31, 120, 180)' fill-opacity = '0.250000' points = '146.4,623.3 146.4,662.4 148.2,662.4 148.2,621.1 '/>
		<polygon fill = 'rgb( 31, 120, 180)' fill-opacity = '0.250000' points = '148.2,621.1 148.2,662.4 150.1,662.4 150.1,618.8 '/>
		<polygon fill = 'rgb( 31, 120, 180)' fill-opacity = '0.250000' points = '150.1,618.8 150.1,662.4 151.9,662.4 151.9,616.3 '/>
		<polygon fill = 'rgb( 31, 120, 180)' fill-opacity = '0.250000' points = '151.9,616.3 151.9,662.4 153.7,662.4 153.7,613.8 '/>
		<polygon fill = 'rgb( 31, 120, 180)' fill-opacity = '0.250000' points = '153.7,613.8 153.7,662.4 155.5,662.4 155.5,611.2 '/>
		<polygon fill = 'rgb( 31, 120, 180)' fill-opacity = '0.250000' points = '155.5,611.2 155.5,662.4 157.3,662.4 157.3,608.4 '/>
		<polygon fill = 'rgb( 31, 120, 180)' fill-opacity = '0.250000' points = '157.3,608.4 157.3,662.4 159.2,662.4 159.2,605.6 '/>
		<polygon fill = 'rgb( 31, 120, 180)' fill-opacity = '0.250000' points = '159.2,605.6 159.2,662.4 161.0,662.4 161.0,602.6 '/>
		<polygon fill = 'rgb( 31, 120, 180)' fill-opacity = '0.250000' points = '161.0,602.6 161.0,662.4 162.8,662.4 162.8,599.5 '/>
		<polygon fill = 'rgb( 31, 120, 180)' fill-opacity = '0.250000' points = '162.8,599.5 162.8,662.4 164.6,662.4 164.6,596.3 '/>
		<polygon fill = 'rgb( 31, 120, 180)' fill-opacity = '0.250000' points = '164.6,596.3 164.6,662.4 166.4,662.4 166.4,593.0 '/>
		<polygon fill = 'rgb( 31, 120, 180)' fill-opacity = '0.250000' points = '166.4,593.0 166.4,662.4 168.2,662.4 168.2,589.5 '/>
		<polygon fill = 'rgb( 31, 120, 180)' fill-opacity = '0.250000' points = '168.2,589.5 168.2,662.4 170.1,662.4 170.1,586.0 '/>
		<polygon fill = 'rgb( 31, 120, 180)' fill-opacity = '0.250000' points = '170.1,586.0 170.1,662.4 171.9,662.4 171.9,582.3 '/>
		<polygon fill = 'rgb( 31, 120, 180)' fill-opacity = '0.250000' points = '171.9,582.3 171.9,662.4 173.7,662.4 173.7,578.5 '/>
		<polygon fill = 'rgb( 31, 120, 180)' fill-opacity = '0.250000' points = '173.7,578.5 173.7,662.4 175.5,662.4 175.5,574.5 '/>
		<polygon fill = 'rgb( 31, 120, 180)' fill-opacity = '0.250000' points = '175.5,574.5 175.5,662.4 177.3,662.4 177.3,570.5 '/>
		<polygon fill = 'rgb( 31, 120, 180)' fill-opacity = '0.250000' points = '177.3,570.5 177.3,662.4 179.2,662.4 179.2,566.3 '/>
		<polygon fill = 'rgb( 31, 120, 180)' fill-opacity = '0.250000' points = '179.2,566.3 179.2,662.4 181.0,662.4 181.0,562.0 '/>
		<polygon fill = 'rgb( 31, 120, 180)' fill-opacity = '0.250000' points = '181.0,562.0 181.0,662.4 182.8,662.4 182.8,557.5 '/>
		<polygon fill = 'rgb( 31, 120, 180)' fill-opacity = '0.250000' points = '182.8,557.5 182.8,662.4 184.6,662.4 184.6,552.9 '/>
		<polygon fill = 'rgb( 31, 120, 180)' fill-opacity = '0.250000' points = '184.6,552.9 184.6,662.4 186.4,662.4 186.4,548.2 '/>
		<polygon fill = 'rgb( 31, 120, 180)' fill-opacity = '0.250000' points = '186.4,548.2 186.4,662.4 188.2,662.4 188.2,543.4 '/>
		<polygon fill = 'rgb( 31, 120, 180)' fill-opacity = '0.250000' points = '188.2,543.4 188.2,662.4 190.1,662.4 190.1,538.4 '/>
		<polygon fill = 'rgb( 31, 120, 180)' fill-opacity = '0.250000' points = '190.1,538.4 190.1,662.4 191.9,662.4 191.9,533.3 '/>
		<polygon fill = 'rgb( 31, 120, 180)' fill-opacity = '0.250000' points = '191.9,533.3 191.9,662.4 193.7,662.4 193.7,528.1 '/>
		<polygon fill = 'rgb( 31, 120, 180)' fill-opacity = '0.250000' points = '193.7,528.1 193.7,662.4 195.5,662.4 195.5,522.7 '/>
		<polygon fill = 'rgb( 31, 120, 180)' fill-opacity = '0.250000' points = '195.5,522.7 195.5,662.4 197.3,662.4 197.3,517.3 '/>
		<polygon fill = 'rgb( 31, 120, 180)' fill-opacity = '0.250000' points = '197.3,517.3 197.3,662.4 199.1,662.4 199.1,511.7 '/>
		<polygon fill = 'rgb( 31, 120, 180)' fill-opacity = '0.250000' points = '199.1,511.7 199.1,662.4 201.0,662.4 201.0,506.0 '/>
		<polygon fill = 'rgb( 31, 120, 180)' fill-opacity = '0.250000' points = '201.0,506.0 201.0,662.4 202.8,662.4 202.8,500.1 '/>
		<polygon fill = 'rgb( 31, 120, 180)' fill-opacity = '0.250000' points = '202.8,500.1 202.8,662.4 204.6,662.4 204.6,494.2 '/>
		<polygon fill = 'rgb( 31, 120, 180)' fill-opacity = '0.250000' points = '204.6,494.2 204.6,662.4 206.4,662.4 206.4,488.1 '/>
		<polygon fill = 'rgb( 31, 120, 180)' fill-opacity = '0.250000' points = '206.4,488.1 206.4,662.4 208.2,662.4 208.2,482.0 '/>
		<polygon fill = 'rgb( 31, 120, 180)' fill-opacity = '0.250000' points = '208.2,482.0 208.2,662.4 210.1,662.4 210.1,475.7 '/>
		<polygon fill = 'rgb( 31, 120, 180)' fill-opacity = '0.250000' points = '210.1,475.7 210.1,662.4 211.9,662.4 211.9,469.4 '/>
		<polygon fill = 'rgb( 31, 120, 180)' fill-opacity = '0.250000' points = '211.9,469.4 211.9,662.4 213.7,662.4 213.7,462.9 '/>
		<polygon fill = 'rgb( 31, 120, 180)' fill-opacity = '0.250000' points = '213.7,462.9 213.7,662.4 215.5,662.4 215.5,456.3 '/>
		<polygon fill = 'rgb( 31, 120, 180)' fill-opacity = '0.250000' points = '215.5,456.3 215.5,662.4 217.3,662.4 217.3,449.7 '/>
		<polygon fill = 'rgb( 31, 120, 180)' fill-opacity = '0.250000' points = '217.3,449.7 217.3,662.4 219.1,662.4 219.1,443.0 '/>
		<polygon fill = 'rgb( 31, 120, 180)' fill-opacity = '0.250000' points = '219.1,443.0 219.1,662.4 221.0,662.4 221.0,436.2 '/>
		<polygon fill = 'rgb( 31, 120, 180)' fill-opacity = '0.250000' points = '221.0,436.2 221.0,662.4 222.8,662.4 222.8,429.3 '/>
		<polygon fill = 'rgb( 31, 120, 180)' fill-opacity = '0.250000' points = '222.8,429.3 222.8,662.4 224.6,662.4 224.6,422.3 '/>
		<polygon fill = 'rgb( 31, 120, 180)' fill-opacity = '0.250000' points = '224.6,422.3 224.6,662.4 226.4,662.4 226.4,415.3 '/>
		<polygon fill = 'rgb( 31, 120, 180)' fill-opacity = '0.250000' points = '226.4,415.3 226.4,662.4 228.2,662.4 228.2,408.3 '/>
		<polygon fill = 'rgb( 31, 120, 180)' fill-opacity = '0.250000' points = '228.2,408.3 228.2,662.4 230.1,662.4 230.1,401.1 '/>
		<polygon fill = 'rgb( 31, 120, 180)' fill-opacity = '0.250000' points = '230.1,401.1 230.1,662.4 231.9,662.4 231.9,394.0 '/>
		<polygon fill = 'rgb( 31, 120, 180)' fill-opacity = '0.250000' points = '231.9,394.0 231.9,662.4 233.7,662.4 233.7,386.8 '/>
		<polygon fill = 'rgb( 31, 120, 180)' fill-opacity = '0.250000' points = '233.7,386.8 233.7,662.4 235.5,662.4 235.5,379.6 '/>
		<polygon fill = 'rgb( 31, 120, 180)' fill-opacity = '0.250000' points = '235.5,379.6 235.5,662.4 237.3,662.4 237.3,372.4 '/>
		<polygon fill = 'rgb( 31, 120, 180)' fill-opacity = '0.250000' points = '237.3,372.4 237.3,662.4 239.1,662.4 239.1,365.1 '/>
		<polygon fill = 'rgb( 31, 120, 180)' fill-opacity = '0.250000' points = '239.1,365.1 239.1,662.4 241.0,662.4 241.0,357.9 '/>
		<polygon fill = 'rgb( 31, 120, 180)' fill-opacity = '0.250000' points = '241.0,357.9 241.0,662.4 242.8,662.4 242.8,350.6 '/>
		<polygon fill = 'rgb( 31, 120, 180)' fill-opacity = '0.250000' points = '242.8,350.6 242.8,662.4 244.6,662.4 244.6,343.4 '/>
		<polygon fill = 'rgb( 31, 120, 180)' fill-opacity = '0.250000' points = '244.6,343.4 244.6,662.4 246.4,662.4 246.4,336.1 '/>
		<polygon fill = 'rgb( 31, 120, 180)' fill-opacity = '0.250000' points = '246.4,336.1 246.4,662.4 248.2,662.4 248.2,328.9 '/>
		<polygon fill = 'rgb( 31, 120, 180)' fill-opacity = '0.250000' points = '248.2,328.9 248.2,662.4 250.0,662.4 250.0,321.7 '/>
		<polygon fill = 'rgb( 31, 120, 180)' fill-opacity = '0.250000' points = '250.0,321.7 250.0,662.4 251.9,662.4 251.9,314.6 '/>
		<polygon fill = 'rgb( 31, 120, 180)' fill-opacity = '0.250000' points = '251.9,314.6 251.9,662.4 253.7,662.4 253.7,307.5 '/>
		<polygon fill = 'rgb( 31, 120, 180)' fill-opacity = '0.250000' points = '253.7,307.5 253.7,662.4 255.5,662.4 255.5,300.5 '/>
		<polygon fill = 'rgb( 31, 120, 180)' fill-opacity = '0.250000' points = '255.5,300.5 255.5,662.4 257.3,662.4 257.3,293.5 '/>
		<polygon fill = 'rgb( 31, 120, 180)' fill-opacity = '0.250000' points = '257.3,293.5 257.3,662.4 259.1,662.4 259.1,286.7 '/>
		<polygon fill = 'rgb( 31, 120, 180)' fill-opacity = '0.250000' points = '259.1,286.7 259.1,662.4 261.0,662.4 261.0,279.8 '/>
		<polygon fill = 'rgb( 31, 120, 180)' fill-opacity = '0.250000' points = '261.0,279.8 261.0,662.4 262.8,662.4 262.8,273.1 '/>
		<polygon fill = 'rgb( 31, 120, 180)' fill-opacity = '0.250000' points = '262.8,273.1 262.8,662.4 264.6,662.4 264.6,266.5 '/>
		<polygon fill = 'rgb( 31, 120, 180)' fill-opacity = '0.250000' points = '264.6,266.5 264.6,662.4 266.4,662.4 266.4,260.0 '/>
		<polygon fill = 'rgb( 31, 120, 180)' fill-opacity = '0.250000' points = '266.4,260.0 266.4,662.4 268.2,662.4 268.2,253.6 '/>
		<polygon fill = 'rgb( 31, 120, 180)' fill-opacity = '0.250000' points = '268.2,253.6 268.2,662.4 270.0,662.4 270.0,247.3 '/>
		<polygon fill = 'rgb( 31, 120, 180)' fill-opacity = '0.250000' points = '270.0,247.3 270.0,662.4 271.9,662.4 271.9,241.1 '/>
		<polygon fill = 'rgb( 31, 120, 180)' fill-opacity = '0.250000' points = '271.9,241.1 271.9,662.4 273.7,662.4 273.7,235.1 '/>
		<polygon fill = 'rgb( 31, 120, 180)' fill-opacity = '0.250000' points = '273.7,235.1 273.7,662.4 275.5,662.4 275.5,229.2 '/>
		<polygon fill = 'rgb( 31, 120, 180)' fill-opacity = '0.250000' points = '275.5,229.2 275.5,662.4 277.3,662.4 277.3,223.4 '/>
		<polygon fill = 'rgb( 31, 120, 180)' fill-opacity = '0.250000' points = '277.3,223.4 277.3,662.4 279.1,662.4 279.1,217.8 '/>
		<polygon fill = 'rgb( 31, 120, 180)' fill-opacity = '0.250000' points = '279.1,217.8 279.1,662.4 281.0,662.4 281.0,212.4 '/>
		<polygon fill = 'rgb( 31, 120, 180)' fill-opacity = '0.250000' points = '281.0,212.4 281.0,662.4 282.8,662.4 282.8,207.1 '/>
		<polygon fill = 'rgb( 31, 120, 180)' fill-opacity = '0.250000' points = '282.8,207.1 282.8,662.4 284.6,662.4 284.6,202.0 '/>
		<polygon fill = 'rgb( 31, 120, 180)' fill-opacity = '0.250000' points = '284.6,202.0 284.6,662.4 286.4,662.4 286.4,197.1 '/>
		<polygon fill = 'rgb( 31, 120, 180)' fill-opacity = '0.250000' points = '286.4,197.1 286.4,662.4 288.2,662.4 288.2,192.4 '/>
		<polygon fill = 'rgb( 31, 120, 180)' fill-opacity = '0.250000' points = '288.2,192.4 288.2,662.4 290.0,662.4 290.0,187.8 '/>
		<polygon fill = 'rgb( 31, 120, 180)' fill-opacity = '0.250000' points = '290.0,187.8 290.0,662.4 291.9,662.4 291.9,183.4 '/>
		<polygon fill = 'rgb( 31, 120, 180)' fill-opacity = '0.250000' points = '291.9,183.4 291.9,662.4 293.7,662.4 293.7,179.2 '/>
		<polygon fill = 'rgb( 31, 120, 180)' fill-opacity = '0.250000' points = '293.7,179.2 293.7,662.4 295.5,662.4 295.5,175.3 '/>
		<polygon fill = 'rgb( 31, 120, 180)' fill-opacity = '0.250000' points = '295.5,175.3 295.5,662.4 297.3,662.4 297.3,171.5 '/>
		<polygon fill = 'rgb( 31, 120, 180)' fill-opacity = '0.250000' points = '297.3,171.5 297.3,662.4 299.1,662.4 299.1,167.9 '/>
		<polygon fill = 'rgb( 31, 120, 180)' fill-opacity = '0.250000' points = '299.1,167.9 299.1,662.4 300.9,662.4 300.9,164.6 '/>
		<polygon fill = 'rgb( 31, 120, 180)' fill-opacity = '0.250000' points = '300.9,164.6 300.9,662.4 302.8,662.4 302.8,161.4 '/>
		<polygon fill = 'rgb( 31, 120, 180)' fill-opacity = '0.250000' points = '302.8,161.4 302.8,662.4 304.6,662.4 304.6,158.5 '/>
		<polygon fill = 'rgb( 31, 120, 180)' fill-opacity = '0.250000' points = '304.6,158.5 304.6,662.4 306.4,662.4 306.4,155.7 '/>
		<polygon fill = 'rgb( 31, 120, 180)' fill-opacity = '0.250000' points = '306.4,155.7 306.4,662.4 308.2,662.4 308.2,153.2 '/>
		<polygon fill = 'rgb( 31, 120, 180)' fill-opacity = '0.250000' points = '308.2,153.2 308.2,662.4 310.0,662.4 310.0,150.9 '/>
		<polygon fill = 'rgb( 31, 120, 180)' fill-opacity = '0.250000' points = '310.0,150.9 310.0,662.4 311.9,662.4 311.9,148.8 '/>
		<polygon fill = 'rgb( 31, 120, 180)' fill-opacity = '0.250000' points = '311.9,148.8 311.9,662.4 313.7,662.4 313.7,147.0 '/>
		<polygon fill = 'rgb( 31, 120, 180)' fill-opacity = '0.250000' points = '313.7,147.0 313.7,662.4 315.5,662.4 315.5,145.3 '/>
		<polygon fill = 'rgb( 31, 120, 180)' fill-opacity = '0.250000' points = '315.5,145.3 315.5,662.4 317.3,662.4 317.3,143.9 '/>
		<polygon fill = 'rgb( 31, 120, 180)' fill-opacity = '0.250000' points = '317.3,143.9 317.3,662.4 319.1,662.4 319.1,142.7 '/>
		<polygon fill = 'rgb( 31, 120, 180)' fill-opacity = '0.250000' points = '319.1,142.7 319.1,662.4 320.9,662.4 320.9,141.7 '/>
		<polygon fill = 'rgb( 31, 120, 180)' fill-opacity = '0.250000' points = '320.9,141.7 320.9,662.4 322.8,662.4 322.8,140.9 '/>
		<polygon fill = 'rgb( 31, 120, 180)' fill-opacity = '0.250000' points = '322.8,140.9 322.8,662.4 324.6,662.4 324.6,140.4 '/>
		<polygon fill = 'rgb( 31, 120, 180)' fill-opacity = '0.250000' points = '324.6,140.4 324.6,662.4 326.4,662.4 326.4,140.0 '/>
		<polygon fill = 'rgb( 31, 120, 180)' fill-opacity = '0.250000' points = '326.4,140.0 326.4,662.4 328.2,662.4 328.2,139.9 '/>
		<polygon fill = 'rgb( 31, 120, 180)' fill-opacity = '0.250000' points = '328.2,139.9 328.2,662.4 330.0,662.4 330.0,140.0 '/>
		<polygon fill = 'rgb( 31, 120, 180)' fill-opacity = '0.250000' points = '330.0,140.0 330.0,662.4 331.9,662.4 331.9,140.2 '/>
		<polygon fill = 'rgb( 31, 120, 180)' fill-opacity = '0.250000' points = '331.9,140.2 331.9,662.4 333.7,662.4 333.7,140.7 '/>
		<polygon fill = 'rgb( 31, 120, 180)' fill-opacity = '0.250000' points = '333.7,140.7 333.7,662.4 335.5,662.4 335.5,141.4 '/>
		<polygon fill = 'rgb( 31, 120, 180)' fill-opacity = '0.250000' points = '335.5,141.4 335.5,662.4 337.3,662.4 337.3,142.3 '/>
		<polygon fill = 'rgb( 31, 120, 180)' fill-opacity = '0.250000' points = '337.3,142.3 337.3,662.4 339.1,662.4 339.1,143.4 '/>
		<polygon fill = 'rgb( 31, 120, 180)' fill-opacity = '0.250000' points = '339.1,143.4 339.1,662.4 340.9,662.4 340.9,144.7 '/>
		<polygon fill = 'rgb( 31, 120, 180)' fill-opacity = '0.250000' points = '340.9,144.7 340.9,662.4 342.8,662.4 342.8,146.1 '/>
		<polygon fill = 'rgb( 31, 120, 180)' fill-opacity = '0.250000' points = '342.8,146.1 342.8,662.4 344.6,662.4 344.6,147.8 '/>
		<polygon fill = 'rgb( 31, 120, 180)' fill-opacity = '0.250000' points = '344.6,147.8 344.6,662.4 346.4,662.4 346.4,149.6 '/>
		<polygon fill = 'rgb( 31, 120, 180)' fill-opacity = '0.250000' points = '346.4,149.6 346.4,662.4 348.2,662.4 348.2,151.6 '/>
		<polygon fill = 'rgb( 31, 120, 180)' fill-opacity = '0.250000' points = '348.2,151.6 348.2,662.4 350.0,662.4 350.0,153.8 '/>
		<polygon fill = 'rgb( 31, 120, 180)' fill-opacity = '0.250000' points = '350.0,153.8 350.0,662.4 351.8,662.4 351.8,156.1 '/>
		<polygon fill = 'rgb( 31, 120, 180)' fill-opacity = '0.250000' points = '351.8,156.1 351.8,662.4 353.7,662.4 353.7,158.7 '/>
		<polygon fill = 'rgb( 31, 120, 180)' fill-opacity = '0.250000' points = '353.7,158.7 353.7,662.4 355.5,662.4 355.5,161.3 '/>
		<polygon fill = 'rgb( 31, 120, 180)' fill-opacity = '0.250000' points = '355.5,161.3 355.5,662.4 357.3,662.4 357.3,164.2 '/>
		<polygon fill = 'rgb( 31, 120, 180)' fill-opacity = '0.250000' points = '357.3,164.2 357.3,662.4 359.1,662.4 359.1,167.2 '/>
		<polygon fill = 'rgb( 31, 120, 180)' fill-opacity = '0.250000' points = '359.1,167.2 359.1,662.4 360.9,662.4 360.9,170.3 '/>
		<polygon fill = 'rgb( 31, 120, 180)' fill-opacity = '0.250000' points = '360.9,170.3 360.9,662.4 362.8,662.4 362.8,173.6 '/>
		<polygon fill = 'rgb( 31, 120, 180)' fill-opacity = '0.250000' points = '362.8,173.6 362.8,662.4 364.6,662.4 364.6,177.0 '/>
		<polygon fill = 'rgb( 31, 120, 180)' fill-opacity = '0.250000' points = '364.6,177.0 364.6,662.4 366.4,662.4 366.4,180.5 '/>
		<polygon fill = 'rgb( 31, 120, 180)' fill-opacity = '0.250000' points = '366.4,180.5 366.4,662.4 368.2,662.4 368.2,184.2 '/>
		<polygon fill = 'rgb( 31, 120, 180)' fill-opacity = '0.250000' points = '368.2,184.2 368.2,662.4 370.0,662.4 370.0,188.0 '/>
		<polygon fill = 'rgb( 31, 120, 180)' fill-opacity = '0.250000' points = '370.0,188.0 370.0,662.4 371.8,662.4 371.8,192.0 '/>
		<polygon fill = 'rgb( 31, 120, 180)' fill-opacity = '0.250000' points = '371.8,192.0 371.8,662.4 373.7,662.4 373.7,196.0 '/>
		<polygon fill = 'rgb( 31, 120, 180)' fill-opacity = '0.250000' points = '373.7,196.0 373.7,662.4 375.5,662.4 375.5,200.2 '/>
		<polygon fill = 'rgb( 31, 120, 180)' fill-opacity = '0.250000' points = '375.5,200.2 375.5,662.4 377.3,662.4 377.3,204.4 '/>
		<polygon fill = 'rgb( 31, 120, 180)' fill-opacity = '0.250000' points = '377.3,204.4 377.3,662.4 379.1,662.4 379.1,208.8 '/>
		<polygon fill = 'rgb( 31, 120, 180)' fill-opacity = '0.250000' points = '379.1,208.8 379.1,662.4 380.9,662.4 380.9,213.3 '/>
		<polygon fill = 'rgb( 31, 120, 180)' fill-opacity = '0.250000' points = '380.9,213.3 380.9,662.4 382.7,662.4 382.7,217.8 '/>
		<polygon fill = 'rgb( 31, 120, 180)' fill-opacity = '0.250000' points = '382.7,217.8 382.7,662.4 384.6,662.4 384.6,222.5 '/>
		<polygon fill = 'rgb( 31, 120, 180)' fill-opacity = '0.250000' points = '384.6,222.5 384.6,662.4 386.4,662.4 386.4,227.2 '/>
		<polygon fill = 'rgb( 31, 120, 180)' fill-opacity = '0.250000' points = '386.4,227.2 386.4,662.4 388.2,662.4 388.2,232.1 '/>
		<polygon fill = 'rgb( 31, 120, 180)' fill-opacity = '0.250000' points = '388.2,232.1 388.2,662.4 390.0,662.4 390.0,237.0 '/>
		<polygon fill = 'rgb( 31, 120, 180)' fill-opacity = '0.250000' points = '390.0,237.0 390.0,662.4 391.8,662.4 391.8,241.9 '/>
		<polygon fill = 'rgb( 31, 120, 180)' fill-opacity = '0.250000' points = '391.8,241.9 391.8,662.4 393.7,662.4 393.7,247.0 '/>
		<polygon fill = 'rgb( 31, 120, 180)' fill-opacity = '0.250000' points = '393.7,247.0 393.7,662.4 395.5,662.4 395.5,252.1 '/>
		<polygon fill = 'rgb( 31, 120, 180)' fill-opacity = '0.250000' points = '395.5,252.1 395.5,662.4 397.3,662.4 397.3,257.2 '/>
		<polygon fill = 'rgb( 31, 120, 180)' fill-opacity = '0.250000' points = '397.3,257.2 397.3,662.4 399.1,662.4 399.1,262.5 '/>
		<polygon fill = 'rgb( 31, 120, 180)' fill-opacity = '0.250000' points = '399.1,262.5 399.1,662.4 400.9,662.4 400.9,267.7 '/>
		<polygon fill = 'rgb( 31, 120, 180)' fill-opacity = '0.250000' points = '400.9,267.7 400.9,662.4 402.7,662.4 402.7,273.1 '/>
		<polygon fill = 'rgb( 31, 120, 180)' fill-opacity = '0.250000' points = '402.7,273.1 402.7,662.4 404.6,662.4 404.6,278.4 '/>
		<polygon fill = 'rgb( 31, 120, 180)' fill-opacity = '0.250000' points = '404.6,278.4 404.6,662.4 406.4,662.4 406.4,283.8 '/>
		<polygon fill = 'rgb( 31, 120, 180)' fill-opacity = '0.250000' points = '406.4,283.8 406.4,662.4 408.2,662.4 408.2,289.3 '/>
		<polygon fill = 'rgb( 31, 120, 180)' fill-opacity = '0.250000' points = '408.2,289.3 408.2,662.4 410.0,662.4 410.0,294.8 '/>
		<polygon fill = 'rgb( 31, 120, 180)' fill-opacity = '0.250000' points = '410.0,294.8 410.0,662.4 411.8,662.4 411.8,300.3 '/>
		<polygon fill = 'rgb( 31, 120, 180)' fill-opacity = '0.250000' points = '411.8,300.3 411.8,662.4 413.7,662.4 413.7,305.8 '/>
		<polygon fill = 'rgb( 31, 120, 180)' fill-opacity = '0.250000' points = '413.7,305.8 413.7,662.4 415.5,662.4 415.5,311.4 '/>
		<polygon fill = 'rgb( 31, 120, 180)' fill-opacity = '0.250000' points = '415.5,311.4 415.5,662.4 417.3,662.4 417.3,317.0 '/>
		<polygon fill = 'rgb( 31, 120, 180)' fill-opacity = '0.250000' points = '417.3,317.0 417.3,662.4 419.1,662.4 419.1,322.6 '/>
		<polygon fill = 'rgb( 31, 120, 180)' fill-opacity = '0.250000' points = '419.1,322.6 419.1,662.4 420.9,662.4 420.9,328.2 '/>
		<polygon fill = 'rgb( 31, 120, 180)' fill-opacity = '0.250000' points = '420.9,328.2 420.9,662.4 422.7,662.4 422.7,333.8 '/>
		<polygon fill = 'rgb( 31, 120, 180)' fill-opacity = '0.250000' points = '422.7,333.8 422.7,662.4 424.6,662.4 424.6,339.4 '/>
		<polygon fill = 'rgb( 31, 120, 180)' fill-opacity = '0.250000' points = '424.6,339.4 424.6,662.4 426.4,662.4 426.4,345.0 '/>
		<polygon fill = 'rgb( 31, 120, 180)' fill-opacity = '0.250000' points = '426.4,345.0 426.4,662.4 428.2,662.4 428.2,350.7 '/>
		<polygon fill = 'rgb( 31, 120, 180)' fill-opacity = '0.250000' points = '428.2,350.7 428.2,662.4 430.0,662.4 430.0,356.3 '/>
		<polygon fill = 'rgb( 31, 120, 180)' fill-opacity = '0.250000' points = '430.0,356.3 430.0,662.4 431.8,662.4 431.8,361.9 '/>
		<polygon fill = 'rgb( 31, 120, 180)' fill-opacity = '0.250000' points = '431.8,361.9 431.8,662.4 433.6,662.4 433.6,367.5 '/>
		<polygon fill = 'rgb( 31, 120, 180)' fill-opacity = '0.250000' points = '433.6,367.5 433.6,662.4 435.5,662.4 435.5,373.0 '/>
		<polygon fill = 'rgb( 31, 120, 180)' fill-opacity = '0.250000' points = '435.5,373.0 435.5,662.4 437.3,662.4 437.3,378.6 '/>
		<polygon fill = 'rgb( 31, 120, 180)' fill-opacity = '0.250000' points = '437.3,378.6 437.3,662.4 439.1,662.4 439.1,384.1 '/>
		<polygon fill = 'rgb( 31, 120, 180)' fill-opacity = '0.250000' points = '439.1,384.1 439.1,662.4 440.9,662.4 440.9,389.6 '/>
		<polygon fill = 'rgb( 31, 120, 180)' fill-opacity = '0.250000' points = '440.9,389.6 440.9,662.4 442.7,662.4 442.7,395.1 '/>
		<polygon fill = 'rgb( 31, 120, 180)' fill-opacity = '0.250000' points = '442.7,395.1 442.7,662.4 444.6,662.4 444.6,400.5 '/>
		<polygon fill = 'rgb( 31, 120, 180)' fill-opacity = '0.250000' points = '444.6,400.5 444.6,662.4 446.4,662.4 446.4,406.0 '/>
		<polygon fill = 'rgb( 31, 120, 180)' fill-opacity = '0.250000' points = '446.4,406.0 446.4,662.4 448.2,662.4 448.2,411.3 '/>
		<polygon fill = 'rgb( 31, 120, 180)' fill-opacity = '0.250000' points = '448.2,411.3 448.2,662.4 450.0,662.4 450.0,416.7 '/>
		<polygon fill = 'rgb( 31, 120, 180)' fill-opacity = '0.250000' points = '450.0,416.7 450.0,662.4 451.8,662.4 451.8,421.9 '/>
		<polygon fill = 'rgb( 31, 120, 180)' fill-opacity = '0.250000' points = '451.8,421.9 451.8,662.4 453.6,662.4 453.6,427.2 '/>
		<polygon fill = 'rgb( 31, 120, 180)' fill-opacity = '0.250000' points = '453.6,427.2 453.6,662.4 455.5,662.4 455.5,432.4 '/>
		<polygon fill = 'rgb( 31, 120, 180)' fill-opacity = '0.250000' points = '455.5,432.4 455.5,662.4 457.3,662.4 457.3,437.5 '/>
		<polygon fill = 'rgb( 31, 120, 180)' fill-opacity = '0.250000' points = '457.3,437.5 457.3,662.4 459.1,662.4 459.1,442.6 '/>
		<polygon fill = 'rgb( 31, 120, 180)' fill-opacity = '0.250000' points = '459.1,442.6 459.1,662.4 460.9,662.4 460.9,447.6 '/>
		<polygon fill = 'rgb( 31, 120, 180)' fill-opacity = '0.250000' points = '460.9,447.6 460.9,662.4 462.7,662.4 462.7,452.5 '/>
		<polygon fill = 'rgb( 31, 120, 180)' fill-opacity = '0.250000' points = '462.7,452.5 462.7,662.4 464.6,662.4 464.6,457.4 '/>
		<polygon fill = 'rgb( 31, 120, 180)' fill-opacity = '0.250000' points = '464.6,457.4 464.6,662.4 466.4,662.4 466.4,462.3 '/>
		<polygon fill = 'rgb( 31, 120, 180)' fill-opacity = '0.250000' points = '466.4,462.3 466.4,662.4 468.2,662.4 468.2,467.0 '/>
		<polygon fill = 'rgb( 31, 120, 180)' fill-opacity = '0.250000' points = '468.2,467.0 468.2,662.4 470.0,662.4 470.0,471.7 '/>
		<polygon fill = 'rgb( 31, 120, 180)' fill-opacity = '0.250000' points = '470.0,471.7 470.0,662.4 471.8,662.4 471.8,476.3 '/>
		<polygon fill = 'rgb( 31, 120, 180)' fill-opacity = '0.250000' points = '471.8,476.3 471.8,662.4 473.6,662.4 473.6,480.9 '/>
		<polygon fill = 'rgb( 31, 120, 180)' fill-opacity = '0.250000' points = '473.6,480.9 473.6,662.4 475.5,662.4 475.5,485.3 '/>
		<polygon fill = 'rgb( 31, 120, 180)' fill-opacity = '0.250000' points = '475.5,485.3 475.5,662.4 477.3,662.4 477.3,489.7 '/>
		<polygon fill = 'rgb( 31, 120, 180)' fill-opacity = '0.250000' points = '477.3,489.7 477.3,662.4 479.1,662.4 479.1,494.0 '/>
		<polygon fill = 'rgb( 31, 120, 180)' fill-opacity = '0.250000' points = '479.1,494.0 479.1,662.4 480.9,662.4 480.9,498.2 '/>
		<polygon fill = 'rgb( 31, 120, 180)' fill-opacity = '0.250000' points = '480.9,498.2 480.9,662.4 482.7,662.4 482.7,502.4 '/>
		<polygon fill = 'rgb( 31, 120, 180)' fill-opacity = '0.250000' points = '482.7,502.4 482.7,662.4 484.5,662.4 484.5,506.4 '/>
		<polygon fill = 'rgb( 31, 120, 180)' fill-opacity = '0.250000' points = '484.5,506.4 484.5,662.4 486.4,662.4 486.4,510.4 '/>
		<polygon fill = 'rgb( 31, 120, 180)' fill-opacity = '0.250000' points = '486.4,510.4 486.4,662.4 488.2,662.4 488.2,514.3 '/>
		<polygon fill = 'rgb( 31, 120, 180)' fill-opacity = '0.250000' points = '488.2,514.3 488.2,662.4 490.0,662.4 490.0,518.1 '/>
		<polygon fill = 'rgb( 31, 120, 180)' fill-opacity = '0.250000' points = '490.0,518.1 490.0,662.4 491.8,662.4 491.8,521.8 '/>
		<polygon fill = 'rgb( 31, 120, 180)' fill-opacity = '0.250000' points = '491.8,521.8 491.8,662.4 493.6,662.4 493.6,525.4 '/>
		<polygon fill = 'rgb( 31, 120, 180)' fill-opacity = '0.250000' points = '493.6,525.4 493.6,662.4 495.5,662.4 495.5,529.0 '/>
		<polygon fill = 'rgb( 31, 120, 180)' fill-opacity = '0.250000' points = '495.5,529.0 495.5,662.4 497.3,662.4 497.3,532.4 '/>
		<polygon fill = 'rgb( 31, 120, 180)' fill-opacity = '0.250000' points = '497.3,532.4 497.3,662.4 499.1,662.4 499.1,535.8 '/>
		<polygon fill = 'rgb( 31, 120, 180)' fill-opacity = '0.250000' points = '499.1,535.8 499.1,662.4 500.9,662.4 500.9,539.0 '/>
		<polygon fill = 'rgb( 31, 120, 180)' fill-opacity = '0.250000' points = '500.9,539.0 500.9,662.4 502.7,662.4 502.7,542.2 '/>
		<polygon fill = 'rgb( 31, 120, 180)' fill-opacity = '0.250000' points = '502.7,542.2 502.7,662.4 504.5,662.4 504.5,545.3 '/>
		<polygon fill = 'rgb( 31, 120, 180)' fill-opacity = '0.250000' points = '504.5,545.3 504.5,662.4 506.4,662.4 506.4,548.3 '/>
		<polygon fill = 'rgb( 31, 120, 180)' fill-opacity = '0.250000' points = '506.4,548.3 506.4,662.4 508.2,662.4 508.2,551.2 '/>
		<polygon fill = 'rgb( 31, 120, 180)' fill-opacity = '0.250000' points = '508.2,551.2 508.2,662.4 510.0,662.4 510.0,554.0 '/>
		<polygon fill = 'rgb( 31, 120, 180)' fill-opacity = '0.250000' points = '510.0,554.0 510.0,662.4 511.8,662.4 511.8,556.8 '/>
		<polygon fill = 'rgb( 31, 120, 180)' fill-opacity = '0.250000' points = '511.8,556.8 511.8,662.4 513.6,662.4 513.6,559.4 '/>
		<polygon fill = 'rgb( 31, 120, 180)' fill-opacity = '0.250000' points = '513.6,559.4 513.6,662.4 515.5,662.4 515.5,562.0 '/>
		<polygon fill = 'rgb( 31, 120, 180)' fill-opacity = '0.250000' points = '515.5,562.0 515.5,662.4 517.3,662.4 517.3,564.5 '/>
		<polygon fill = 'rgb( 31, 120, 180)' fill-opacity = '0.250000' points = '517.3,564.5 517.3,662.4 519.1,662.4 519.1,566.9 '/>
		<polygon fill = 'rgb( 31, 120, 180)' fill-opacity = '0.250000' points = '519.1,566.9 519.1,662.4 520.9,662.4 520.9,569.2 '/>
		<polygon fill = 'rgb( 31, 120, 180)' fill-opacity = '0.250000' points = '520.9,569.2 520.9,662.4 522.7,662.4 522.7,571.4 '/>
		<polygon fill = 'rgb( 31, 120, 180)' fill-opacity = '0.250000' points = '522.7,571.4 522.7,662.4 524.5,662.4 524.5,573.6 '/>
		<polygon fill = 'rgb( 31, 120, 180)' fill-opacity = '0.250000' points = '524.5,573.6 524.5,662.4 526.4,662.4 526.4,575.7 '/>
		<polygon fill = 'rgb( 31, 120, 180)' fill-opacity = '0.250000' points = '526.4,575.7 526.4,662.4 528.2,662.4 528.2,577.7 '/>
		<polygon fill = 'rgb( 31, 120, 180)' fill-opacity = '0.250000' points = '528.2,577.7 528.2,662.4 530.0,662.4 530.0,579.6 '/>
		<polygon fill = 'rgb( 31, 120, 180)' fill-opacity = '0.250000' points = '530.0,579.6 530.0,662.4 531.8,662.4 531.8,581.5 '/>
		<polygon fill = 'rgb( 31, 120, 180)' fill-opacity = '0.250000' points = '531.8,581.5 531.8,662.4 533.6,662.4 533.6,583.2 '/>
		<polygon fill = 'rgb( 31, 120, 180)' fill-opacity = '0.250000' points = '533.6,583.2 533.6,662.4 535.4,662.4 535.4,585.0 '/>
		<polygon fill = 'rgb( 31, 120, 180)' fill-opacity = '0.250000' points = '535.4,585.0 535.4,662.4 537.3,662.4 537.3,586.6 '/>
		<polygon fill = 'rgb( 31, 120, 180)' fill-opacity = '0.250000' points = '537.3,586.6 537.3,662.4 539.1,662.4 539.1,588.2 '/>
		<polygon fill = 'rgb( 31, 120, 180)' fill-opacity = '0.250000' points = '539.1,588.2 539.1,662.4 540.9,662.4 540.9,589.8 '/>
		<polygon fill = 'rgb( 31, 120, 180)' fill-opacity = '0.250000' points = '540.9,589.8 540.9,662.4 542.7,662.4 542.7,591.2 '/>
		<polygon fill = 'rgb( 31, 120, 180)' fill-opacity = '0.250000' points = '542.7,591.2 542.7,662.4 544.5,662.4 544.5,592.6 '/>
		<polygon fill = 'rgb( 31, 120, 180)' fill-opacity = '0.250000' points = '544.5,592.6 544.5,662.4 546.4,662.4 546.4,594.0 '/>
		<polygon fill = 'rgb( 31, 120, 180)' fill-opacity = '0.250000' points = '546.4,594.0 546.4,662.4 548.2,662.4 548.2,595.3 '/>
		<polygon fill = 'rgb( 31, 120, 180)' fill-opacity = '0.250000' points = '548.2,595.3 548.2,662.4 550.0,662.4 550.0,596.6 '/>
		<polygon fill = 'rgb( 31, 120, 180)' fill-opacity = '0.250000' points = '550.0,596.6 550.0,662.4 551.8,662.4 551.8,597.8 '/>
		<polygon fill = 'rgb( 31, 120, 180)' fill-opacity = '0.250000' points = '551.8,597.8 551.8,662.4 553.6,662.4 553.6,598.9 '/>
		<polygon fill = 'rgb( 31, 120, 180)' fill-opacity = '0.250000' points = '553.6,598.9 553.6,662.4 555.4,662.4 555.4,600.0 '/>
		<polygon fill = 'rgb( 31, 120, 180)' fill-opacity = '0.250000' points = '555.4,600.0 555.4,662.4 557.3,662.4 557.3,601.1 '/>
		<polygon fill = 'rgb( 31, 120, 180)' fill-opacity = '0.250000' points = '557.3,601.1 557.3,662.4 559.1,662.4 559.1,602.2 '/>
		<polygon fill = 'rgb( 31, 120, 180)' fill-opacity = '0.250000' points = '559.1,602.2 559.1,662.4 560.9,662.4 560.9,603.2 '/>
		<polygon fill = 'rgb( 31, 120, 180)' fill-opacity = '0.250000' points = '560.9,603.2 560.9,662.4 562.7,662.4 562.7,604.1 '/>
		<polygon fill = 'rgb( 31, 120, 180)' fill-opacity = '0.250000' points = '562.7,604.1 562.7,662.4 564.5,662.4 564.5,605.0 '/>
		<polygon fill = 'rgb( 31, 120, 180)' fill-opacity = '0.250000' points = '564.5,605.0 564.5,662.4 566.4,662.4 566.4,605.9 '/>
		<polygon fill = 'rgb( 31, 120, 180)' fill-opacity = '0.250000' points = '566.4,605.9 566.4,662.4 568.2,662.4 568.2,606.8 '/>
		<polygon fill = 'rgb( 31, 120, 180)' fill-opacity = '0.250000' points = '568.2,606.8 568.2,662.4 570.0,662.4 570.0,607.6 '/>
		<polygon fill = 'rgb( 31, 120, 180)' fill-opacity = '0.250000' points = '570.0,607.6 570.0,662.4 571.8,662.4 571.8,608.5 '/>
		<polygon fill = 'rgb( 31, 120, 180)' fill-opacity = '0.250000' points = '571.8,608.5 571.8,662.4 573.6,662.4 573.6,609.2 '/>
		<polygon fill = 'rgb( 31, 120, 180)' fill-opacity = '0.250000' points = '573.6,609.2 573.6,662.4 575.4,662.4 575.4,610.0 '/>
		<polygon fill = 'rgb( 31, 120, 180)' fill-opacity = '0.250000' points = '575.4,610.0 575.4,662.4 577.3,662.4 577.3,610.7 '/>
		<polygon fill = 'rgb( 31, 120, 180)' fill-opacity = '0.250000' points = '577.3,610.7 577.3,662.4 579.1,662.4 579.1,611.5 '/>
		<polygon fill = 'rgb( 31, 120, 180)' fill-opacity = '0.250000' points = '579.1,611.5 579.1,662.4 580.9,662.4 580.9,612.2 '/>
		<polygon fill = 'rgb( 31, 120, 180)' fill-opacity = '0.250000' points = '580.9,612.2 580.9,662.4 582.7,662.4 582.7,612.9 '/>
		<polygon fill = 'rgb( 31, 120, 180)' fill-opacity = '0.250000' points = '582.7,612.9 582.7,662.4 584.5,662.4 584.5,613.5 '/>
		<polygon fill = 'rgb( 31, 120, 180)' fill-opacity = '0.250000' points = '584.5,613.5 584.5,662.4 586.3,662.4 586.3,614.2 '/>
		<polygon fill = 'rgb( 31, 120, 180)' fill-opacity = '0.250000' points = '586.3,614.2 586.3,662.4 588.2,662.4 588.2,614.8 '/>
		<polygon fill = 'rgb( 31, 120, 180)' fill-opacity = '0.250000' points = '588.2,614.8 588.2,662.4 590.0,662.4 590.0,615.4 '/>
		<polygon fill = 'rgb( 31, 120, 180)' fill-opacity = '0.250000' points = '590.0,615.4 590.0,662.4 591.8,662.4 591.8,616.1 '/>
		<polygon fill = 'rgb( 31, 120, 180)' fill-opacity = '0.250000' points = '591.8,616.1 591.8,662.4 593.6,662.4 593.6,616.7 '/>
		<polygon fill = 'rgb( 31, 120, 180)' fill-opacity = '0.250000' points = '593.6,616.7 593.6,662.4 595.4,662.4 595.4,617.3 '/>
		<polygon fill = 'rgb( 31, 120, 180)' fill-opacity = '0.250000' points = '595.4,617.3 595.4,662.4 597.3,662.4 597.3,617.8 '/>
		<polygon fill = 'rgb( 31, 120, 180)' fill-opacity = '0.250000' points = '597.3,617.8 597.3,662.4 599.1,662.4 599.1,618.4 '/>
		<polygon fill = 'rgb( 31, 120, 180)' fill-opacity = '0.250000' points = '599.1,618.4 599.1,662.4 600.9,662.4 600.9,619.0 '/>
		<polygon fill = 'rgb( 31, 120, 180)' fill-opacity = '0.250000' points = '600.9,619.0 600.9,662.4 602.7,662.4 602.7,619.5 '/>
		<polygon fill = 'rgb( 31, 120, 180)' fill-opacity = '0.250000' points = '602.7,619.5 602.7,662.4 604.5,662.4 604.5,620.1 '/>
		<polygon fill = 'rgb( 31, 120, 180)' fill-opacity = '0.250000' points = '604.5,620.1 604.5,662.4 606.3,662.4 606.3,620.6 '/>
		<polygon fill = 'rgb( 31, 120, 180)' fill-opacity = '0.250000' points = '606.3,620.6 606.3,662.4 608.2,662.4 608.2,621.2 '/>
		<polygon fill = 'rgb( 31, 120, 180)' fill-opacity = '0.250000' points = '608.2,621.2 608.2,662.4 610.0,662.4 610.0,621.7 '/>
		<polygon fill = 'rgb( 31, 120, 180)' fill-opacity = '0.250000' points = '610.0,621.7 610.0,662.4 611.8,662.4 611.8,622.2 '/>
		<polygon fill = 'rgb( 31, 120, 180)' fill-opacity = '0.250000' points = '611.8,622.2 611.8,662.4 613.6,662.4 613.6,622.7 '/>
		<polygon fill = 'rgb( 31, 120, 180)' fill-opacity = '0.250000' points = '613.6,622.7 613.6,662.4 615.4,662.4 615.4,623.2 '/>
		<polygon fill = 'rgb( 31, 120, 180)' fill-opacity = '0.250000' points = '615.4,623.2 615.4,662.4 617.3,662.4 617.3,623.7 '/>
		<polygon fill = 'rgb( 31, 120, 180)' fill-opacity = '0.250000' points = '617.3,623.7 617.3,662.4 619.1,662.4 619.1,624.2 '/>
		<polygon fill = 'rgb( 31, 120, 180)' fill-opacity = '0.250000' points = '619.1,624.2 619.1,662.4 620.9,662.4 620.9,624.7 '/>
		<polygon fill = 'rgb( 31, 120, 180)' fill-opacity = '0.250000' points = '620.9,624.7 620.9,662.4 622.7,662.4 622.7,625.2 '/>
		<polygon fill = 'rgb( 31, 120, 180)' fill-opacity = '0.250000' points = '622.7,625.2 622.7,662.4 624.5,662.4 624.5,625.6 '/>
		<polygon fill = 'rgb( 31, 120, 180)' fill-opacity = '0.250000' points = '624.5,625.6 624.5,662.4 626.3,662.4 626.3,626.1 '/>
		<polygon fill = 'rgb( 31, 120, 180)' fill-opacity = '0.250000' points = '626.3,626.1 626.3,662.4 628.2,662.4 628.2,626.5 '/>
		<polygon fill = 'rgb( 31, 120, 180)' fill-opacity = '0.250000' points = '628.2,626.5 628.2,662.4 630.0,662.4 630.0,627.0 '/>
		<polygon fill = 'rgb( 31, 120, 180)' fill-opacity = '0.250000' points = '630.0,627.0 630.0,662.4 631.8,662.4 631.8,627.4 '/>
		<polygon fill = 'rgb( 31, 120, 180)' fill-opacity = '0.250000' points = '631.8,627.4 631.8,662.4 633.6,662.4 633.6,627.8 '/>
		<polygon fill = 'rgb( 31, 120, 180)' fill-opacity = '0.250000' points = '633.6,627.8 633.6,662.4 635.4,662.4 635.4,628.2 '/>
		<polygon fill = 'rgb( 31, 120, 180)' fill-opacity = '0.250000' points = '635.4,628.2 635.4,662.4 637.2,662.4 637.2,628.6 '/>
		<polygon fill = 'rgb( 31, 120, 180)' fill-opacity = '0.250000' points = '637.2,628.6 637.2,662.4 639.1,662.4 639.1,629.0 '/>
		<polygon fill = 'rgb( 31, 120, 180)' fill-opacity = '0.250000' points = '639.1,629.0 639.1,662.4 640.9,662.4 640.9,629.3 '/>
		<polygon fill = 'rgb( 31, 120, 180)' fill-opacity = '0.250000' points = '640.9,629.3 640.9,662.4 642.7,662.4 642.7,629.7 '/>
		<polygon fill = 'rgb( 31, 120, 180)' fill-opacity = '0.250000' points = '642.7,629.7 642.7,662.4 644.5,662.4 644.5,630.0 '/>
		<polygon fill = 'rgb( 31, 120, 180)' fill-opacity = '0.250000' points = '644.5,630.0 644.5,662.4 646.3,662.4 646.3,630.3 '/>
		<polygon fill = 'rgb( 31, 120, 180)' fill-opacity = '0.250000' points = '646.3,630.3 646.3,662.4 648.2,662.4 648.2,630.6 '/>
		<polygon fill = 'rgb( 31, 120, 180)' fill-opacity = '0.250000' points = '648.2,630.6 648.2,662.4 650.0,662.4 650.0,630.9 '/>
		<polygon fill = 'rgb( 31, 120, 180)' fill-opacity = '0.250000' points = '650.0,630.9 650.0,662.4 651.8,662.4 651.8,631.2 '/>
		<polygon fill = 'rgb( 31, 120, 180)' fill-opacity = '0.250000' points = '651.8,631.2 651.8,662.4 653.6,662.4 653.6,631.4 '/>
		<polygon fill = 'rgb( 31, 120, 180)' fill-opacity = '0.250000' points = '653.6,631.4 653.6,662.4 655.4,662.4 655.4,631.7 '/>
		<polygon fill = 'rgb( 31, 120, 180)' fill-opacity = '0.250000' points = '655.4,631.7 655.4,662.4 657.2,662.4 657.2,631.9 '/>
		<polygon fill = 'rgb( 31, 120, 180)' fill-opacity = '0.250000' points = '657.2,631.9 657.2,662.4 659.1,662.4 659.1,632.1 '/>
		<polygon fill = 'rgb( 31, 120, 180)' fill-opacity = '0.250000' points = '659.1,632.1 659.1,662.4 660.9,662.4 660.9,632.3 '/>
		<polygon fill = 'rgb( 31, 120, 180)' fill-opacity = '0.250000' points = '660.9,632.3 660.9,662.4 662.7,662.4 662.7,632.5 '/>
		<polygon fill = 'rgb( 31, 120, 180)' fill-opacity = '0.250000' points = '662.7,632.5 662.7,662.4 664.5,662.4 664.5,632.6 '/>
		<polygon fill = 'rgb( 31, 120, 180)' fill-opacity = '0.250000' points = '664.5,632.6 664.5,662.4 666.3,662.4 666.3,632.7 '/>
		<polygon fill = 'rgb( 31, 120, 180)' fill-opacity = '0.250000' points = '666.3,632.7 666.3,662.4 668.2,662.4 668.2,632.8 '/>
		<polygon fill = 'rgb( 31, 120, 180)' fill-opacity = '0.250000' points = '668.2,632.8 668.2,662.4 670.0,662.4 670.0,632.9 '/>
		<polygon fill = 'rgb( 31, 120, 180)' fill-opacity = '0.250000' points = '670.0,632.9 670.0,662.4 671.8,662.4 671.8,633.0 '/>
		<polygon fill = 'rgb( 31, 120, 180)' fill-opacity = '0.250000' points = '671.8,633.0 671.8,662.4 673.6,662.4 673.6,633.0 '/>
		<polygon fill = 'rgb( 31, 120, 180)' fill-opacity = '0.250000' points = '673.6,633.0 673.6,662.4 675.4,662.4 675.4,633.1 '/>
		<polygon fill = 'rgb( 31, 120, 180)' fill-opacity = '0.250000' points = '675.4,633.1 675.4,662.4 677.2,662.4 677.2,633.1 '/>
		<polygon fill = 'rgb( 31, 120, 180)' fill-opacity = '0.250000' points = '677.2,633.1 677.2,662.4 679.1,662.4 679.1,633.1 '/>
		<polygon fill = 'rgb( 31, 120, 180)' fill-opacity = '0.250000' points = '679.1,633.1 679.1,662.4 680.9,662.4 680.9,633.0 '/>
		<polygon fill = 'rgb( 31, 120, 180)' fill-opacity = '0.250000' points = '680.9,633.0 680.9,662.4 682.7,662.4 682.7,633.0 '/>
		<polygon fill = 'rgb( 31, 120, 180)' fill-opacity = '0.250000' points = '682.7,633.0 682.7,662.4 684.5,662.4 684.5,632.9 '/>
		<polygon fill = 'rgb( 31, 120, 180)' fill-opacity = '0.250000' points = '684.5,632.9 684.5,662.4 686.3,662.4 686.3,632.9 '/>
		<polygon fill = 'rgb( 31, 120, 180)' fill-opacity = '0.250000' points = '686.3,632.9 686.3,662.4 688.1,662.4 688.1,632.8 '/>
		<polygon fill = 'rgb( 31, 120, 180)' fill-opacity = '0.250000' points = '688.1,632.8 688.1,662.4 690.0,662.4 690.0,632.6 '/>
		<polygon fill = 'rgb( 31, 120, 180)' fill-opacity = '0.250000' points = '690.0,632.6 690.0,662.4 691.8,662.4 691.8,632.5 '/>
		<polygon fill = 'rgb( 31, 120, 180)' fill-opacity = '0.250000' points = '691.8,632.5 691.8,662.4 693.6,662.4 693.6,632.4 '/>
		<polygon fill = 'rgb( 31, 120, 180)' fill-opacity = '0.250000' points = '693.6,632.4 693.6,662.4 695.4,662.4 695.4,632.2 '/>
		<polygon fill = 'rgb( 31, 120, 180)' fill-opacity = '0.250000' points = '695.4,632.2 695.4,662.4 697.2,662.4 697.2,632.0 '/>
		<polygon fill = 'rgb( 31, 120, 180)' fill-opacity = '0.250000' points = '697.2,632.0 697.2,662.4 699.1,662.4 699.1,631.8 '/>
		<polygon fill = 'rgb( 31, 120, 180)' fill-opacity = '0.250000' points = '699.1,631.8 699.1,662.4 700.9,662.4 700.9,631.6 '/>
		<polygon fill = 'rgb( 31, 120, 180)' fill-opacity = '0.250000' points = '700.9,631.6 700.9,662.4 702.7,662.4 702.7,631.4 '/>
		<polygon fill = 'rgb( 31, 120, 180)' fill-opacity = '0.250000' points = '702.7,631.4 702.7,662.4 704.5,662.4 704.5,631.2 '/>
		<polygon fill = 'rgb( 31, 120, 180)' fill-opacity = '0.250000' points = '704.5,631.2 704.5,662.4 706.3,662.4 706.3,631.0 '/>
		<polygon fill = 'rgb( 31, 120, 180)' fill-opacity = '0.250000' points = '706.3,631.0 706.3,662.4 708.1,662.4 708.1,630.7 '/>
		<polygon fill = 'rgb( 31, 120, 180)' fill-opacity = '0.250000' points = '708.1,630.7 708.1,662.4 710.0,662.4 710.0,630.4 '/>
		<polygon fill = 'rgb( 31, 120, 180)' fill-opacity = '0.250000' points = '710.0,630.4 710.0,662.4 711.8,662.4 711.8,630.2 '/>
		<polygon fill = 'rgb( 31, 120, 180)' fill-opacity = '0.250000' points = '711.8,630.2 711.8,662.4 713.6,662.4 713.6,629.9 '/>
		<polygon fill = 'rgb( 31, 120, 180)' fill-opacity = '0.250000' points = '713.6,629.9 713.6,662.4 715.4,662.4 715.4,629.6 '/>
		<polygon fill = 'rgb( 31, 120, 180)' fill-opacity = '0.250000' points = '715.4,629.6 715.4,662.4 717.2,662.4 717.2,629.4 '/>
		<polygon fill = 'rgb( 31, 120, 180)' fill-opacity = '0.250000' points = '717.2,629.4 717.2,662.4 719.0,662.4 719.0,629.1 '/>
		<polygon fill = 'rgb( 31, 120, 180)' fill-opacity = '0.250000' points = '719.0,629.1 719.0,662.4 720.9,662.4 720.9,628.8 '/>
		<polygon fill = 'rgb( 31, 120, 180)' fill-opacity = '0.250000' points = '720.9,628.8 720.9,662.4 722.7,662.4 722.7,628.5 '/>
		<polygon fill = 'rgb( 31, 120, 180)' fill-opacity = '0.250000' points = '722.7,628.5 722.7,662.4 724.5,662.4 724.5,628.2 '/>
		<polygon fill = 'rgb( 31, 120, 180)' fill-opacity = '0.250000' points = '724.5,628.2 724.5,662.4 726.3,662.4 726.3,628.0 '/>
		<polygon fill = 'rgb( 31, 120, 180)' fill-opacity = '0.250000' points = '726.3,628.0 726.3,662.4 728.1,662.4 728.1,627.7 '/>
		<polygon fill = 'rgb( 31, 120, 180)' fill-opacity = '0.250000' points = '728.1,627.7 728.1,662.4 730.0,662.4 730.0,627.4 '/>
		<polygon fill = 'rgb( 31, 120, 180)' fill-opacity = '0.250000' points = '730.0,627.4 730.0,662.4 731.8,662.4 731.8,627.1 '/>
		<polygon fill = 'rgb( 31, 120, 180)' fill-opacity = '0.250000' points = '731.8,627.1 731.8,662.4 733.6,662.4 733.6,626.9 '/>
		<polygon fill = 'rgb( 31, 120, 180)' fill-opacity = '0.250000' points = '733.6,626.9 733.6,662.4 735.4,662.4 735.4,626.6 '/>
		<polygon fill = 'rgb( 31, 120, 180)' fill-opacity = '0.250000' points = '735.4,626.6 735.4,662.4 737.2,662.4 737.2,626.4 '/>
		<polygon fill = 'rgb( 31, 120, 180)' fill-opacity = '0.250000' points = '737.2,626.4 737.2,662.4 739.0,662.4 739.0,626.1 '/>
		<polygon fill = 'rgb( 31, 120, 180)' fill-opacity = '0.250000' points = '739.0,626.1 739.0,662.4 740.9,662.4 740.9,625.9 '/>
		<polygon fill = 'rgb( 31, 120, 180)' fill-opacity = '0.250000' points = '740.9,625.9 740.9,662.4 742.7,662.4 742.7,625.7 '/>
		<polygon fill = 'rgb( 31, 120, 180)' fill-opacity = '0.250000' points = '742.7,625.7 742.7,662.4 744.5,662.4 744.5,625.5 '/>
		<polygon fill = 'rgb( 31, 120, 180)' fill-opacity = '0.250000' points = '744.5,625.5 744.5,662.4 746.3,662.4 746.3,625.3 '/>
		<polygon fill = 'rgb( 31, 120, 180)' fill-opacity = '0.250000' points = '746.3,625.3 746.3,662.4 748.1,662.4 748.1,625.1 '/>
		<polygon fill = 'rgb( 31, 120, 180)' fill-opacity = '0.250000' points = '748.1,625.1 748.1,662.4 750.0,662.4 750.0,624.9 '/>
		<polygon fill = 'rgb( 31, 120, 180)' fill-opacity = '0.250000' points = '750.0,624.9 750.0,662.4 751.8,662.4 751.8,624.8 '/>
		<polygon fill = 'rgb( 31, 120, 180)' fill-opacity = '0.250000' points = '751.8,624.8 751.8,662.4 753.6,662.4 753.6,624.7 '/>
		<polygon fill = 'rgb( 31, 120, 180)' fill-opacity = '0.250000' points = '753.6,624.7 753.6,662.4 755.4,662.4 755.4,624.5 '/>
		<polygon fill = 'rgb( 31, 120, 180)' fill-opacity = '0.250000' points = '755.4,624.5 755.4,662.4 757.2,662.4 757.2,624.4 '/>
		<polygon fill = 'rgb( 31, 120, 180)' fill-opacity = '0.250000' points = '757.2,624.4 757.2,662.4 759.0,662.4 759.0,624.4 '/>
		<polygon fill = 'rgb( 31, 120, 180)' fill-opacity = '0.250000' points = '759.0,624.4 759.0,662.4 760.9,662.4 760.9,624.3 '/>
		<polygon fill = 'rgb( 31, 120, 180)' fill-opacity = '0.250000' points = '760.9,624.3 760.9,662.4 762.7,662.4 762.7,624.3 '/>
		<polygon fill = 'rgb( 31, 120, 180)' fill-opacity = '0.250000' points = '762.7,624.3 762.7,662.4 764.5,662.4 764.5,624.3 '/>
		<polygon fill = 'rgb( 31, 120, 180)' fill-opacity = '0.250000' points = '764.5,624.3 764.5,662.4 766.3,662.4 766.3,624.3 '/>
		<polygon fill = 'rgb( 31, 120, 180)' fill-opacity = '0.250000' points = '766.3,624.3 766.3,662.4 768.1,662.4 768.1,624.3 '/>
		<polygon fill = 'rgb( 31, 120, 180)' fill-opacity = '0.250000' points = '768.1,624.3 768.1,662.4 769.9,662.4 769.9,624.3 '/>
		<polygon fill = 'rgb( 31, 120, 180)' fill-opacity = '0.250000' points = '769.9,624.3 769.9,662.4 771.8,662.4 771.8,624.4 '/>
		<polygon fill = 'rgb( 31, 120, 180)' fill-opacity = '0.250000' points = '771.8,624.4 771.8,662.4 773.6,662.4 773.6,624.5 '/>
		<polygon fill = 'rgb( 31, 120, 180)' fill-opacity = '0.250000' points = '773.6,624.5 773.6,662.4 775.4,662.4 775.4,624.6 '/>
		<polygon fill = 'rgb( 31, 120, 180)' fill-opacity = '0.250000' points = '775.4,624.6 775.4,662.4 777.2,662.4 777.2,624.7 '/>
		<polygon fill = 'rgb( 31, 120, 180)' fill-opacity = '0.250000' points = '777.2,624.7 777.2,662.4 779.0,662.4 779.0,624.9 '/>
		<polygon fill = 'rgb( 31, 120, 180)' fill-opacity = '0.250000' points = '779.0,624.9 779.0,662.4 780.9,662.4 780.9,625.0 '/>
		<polygon fill = 'rgb( 31, 120, 180)' fill-opacity = '0.250000' points = '780.9,625.0 780.9,662.4 782.7,662.4 782.7,625.2 '/>
		<polygon fill = 'rgb( 31, 120, 180)' fill-opacity = '0.250000' points = '782.7,625.2 782.7,662.4 784.5,662.4 784.5,625.5 '/>
		<polygon fill = 'rgb( 31, 120, 180)' fill-opacity = '0.250000' points = '784.5,625.5 784.5,662.4 786.3,662.4 786.3,625.7 '/>
		<polygon fill = 'rgb( 31, 120, 180)' fill-opacity = '0.250000' points = '786.3,625.7 786.3,662.4 788.1,662.4 788.1,626.0 '/>
		<polygon fill = 'rgb( 31, 120, 180)' fill-opacity = '0.250000' points = '788.1,626.0 788.1,662.4 789.9,662.4 789.9,626.2 '/>
		<polygon fill = 'rgb( 31, 120, 180)' fill-opacity = '0.250000' points = '789.9,626.2 789.9,662.4 791.8,662.4 791.8,626.5 '/>
		<polygon fill = 'rgb( 31, 120, 180)' fill-opacity = '0.250000' points = '791.8,626.5 791.8,662.4 793.6,662.4 793.6,626.9 '/>
		<polygon fill = 'rgb( 31, 120, 180)' fill-opacity = '0.250000' points = '793.6,626.9 793.6,662.4 795.4,662.4 795.4,627.2 '/>
		<polygon fill = 'rgb( 31, 120, 180)' fill-opacity = '0.250000' points = '795.4,627.2 795.4,662.4 797.2,662.4 797.2,627.6 '/>
		<polygon fill = 'rgb( 31, 120, 180)' fill-opacity = '0.250000' points = '797.2,627.6 797.2,662.4 799.0,662.4 799.0,627.9 '/>
		<polygon fill = 'rgb( 31, 120, 180)' fill-opacity = '0.250000' points = '799.0,627.9 799.0,662.4 800.9,662.4 800.9,628.3 '/>
		<polygon fill = 'rgb( 31, 120, 180)' fill-opacity = '0.250000' points = '800.9,628.3 800.9,662.4 802.7,662.4 802.7,628.8 '/>
		<polygon fill = 'rgb( 31, 120, 180)' fill-opacity = '0.250000' points = '802.7,628.8 802.7,662.4 804.5,662.4 804.5,629.2 '/>
		<polygon fill = 'rgb( 31, 120, 180)' fill-opacity = '0.250000' points = '804.5,629.2 804.5,662.4 806.3,662.4 806.3,629.6 '/>
		<polygon fill = 'rgb( 31, 120, 180)' fill-opacity = '0.250000' points = '806.3,629.6 806.3,662.4 808.1,662.4 808.1,630.1 '/>
		<polygon fill = 'rgb( 31, 120, 180)' fill-opacity = '0.250000' points = '808.1,630.1 808.1,662.4 809.9,662.4 809.9,630.6 '/>
		<polygon fill = 'rgb( 31, 120, 180)' fill-opacity = '0.250000' points = '809.9,630.6 809.9,662.4 811.8,662.4 811.8,631.1 '/>
		<polygon fill = 'rgb( 31, 120, 180)' fill-opacity = '0.250000' points = '811.8,631.1 811.8,662.4 813.6,662.4 813.6,631.6 '/>
		<polygon fill = 'rgb( 31, 120, 180)' fill-opacity = '0.250000' points = '813.6,631.6 813.6,662.4 815.4,662.4 815.4,632.1 '/>
		<polygon fill = 'rgb( 31, 120, 180)' fill-opacity = '0.250000' points = '815.4,632.1 815.4,662.4 817.2,662.4 817.2,632.6 '/>
		<polygon fill = 'rgb( 31, 120, 180)' fill-opacity = '0.250000' points = '817.2,632.6 817.2,662.4 819.0,662.4 819.0,633.1 '/>
		<polygon fill = 'rgb( 31, 120, 180)' fill-opacity = '0.250000' points = '819.0,633.1 819.0,662.4 820.8,662.4 820.8,633.7 '/>
		<polygon fill = 'rgb( 31, 120, 180)' fill-opacity = '0.250000' points = '820.8,633.7 820.8,662.4 822.7,662.4 822.7,634.2 '/>
		<polygon fill = 'rgb( 31, 120, 180)' fill-opacity = '0.250000' points = '822.7,634.2 822.7,662.4 824.5,662.4 824.5,634.8 '/>
		<polygon fill = 'rgb( 31, 120, 180)' fill-opacity = '0.250000' points = '824.5,634.8 824.5,662.4 826.3,662.4 826.3,635.4 '/>
		<polygon fill = 'rgb( 31, 120, 180)' fill-opacity = '0.250000' points = '826.3,635.4 826.3,662.4 828.1,662.4 828.1,635.9 '/>
		<polygon fill = 'rgb( 31, 120, 180)' fill-opacity = '0.250000' points = '828.1,635.9 828.1,662.4 829.9,662.4 829.9,636.5 '/>
		<polygon fill = 'rgb( 31, 120, 180)' fill-opacity = '0.250000' points = '829.9,636.5 829.9,662.4 831.8,662.4 831.8,637.1 '/>
		<polygon fill = 'rgb( 31, 120, 180)' fill-opacity = '0.250000' points = '831.8,637.1 831.8,662.4 833.6,662.4 833.6,637.7 '/>
		<polygon fill = 'rgb( 31, 120, 180)' fill-opacity = '0.250000' points = '833.6,637.7 833.6,662.4 835.4,662.4 835.4,638.3 '/>
		<polygon fill = 'rgb( 31, 120, 180)' fill-opacity = '0.250000' points = '835.4,638.3 835.4,662.4 837.2,662.4 837.2,638.9 '/>
		<polygon fill = 'rgb( 31, 120, 180)' fill-opacity = '0.250000' points = '837.2,638.9 837.2,662.4 839.0,662.4 839.0,639.5 '/>
		<polygon fill = 'rgb( 31, 120, 180)' fill-opacity = '0.250000' points = '839.0,639.5 839.0,662.4 840.8,662.4 840.8,640.1 '/>
		<polygon fill = 'rgb( 31, 120, 180)' fill-opacity = '0.250000' points = '840.8,640.1 840.8,662.4 842.7,662.4 842.7,640.7 '/>
		<polygon fill = 'rgb( 31, 120, 180)' fill-opacity = '0.250000' points = '842.7,640.7 842.7,662.4 844.5,662.4 844.5,641.2 '/>
		<polygon fill = 'rgb( 31, 120, 180)' fill-opacity = '0.250000' points = '844.5,641.2 844.5,662.4 846.3,662.4 846.3,641.8 '/>
		<polygon fill = 'rgb( 31, 120, 180)' fill-opacity = '0.250000' points = '846.3,641.8 846.3,662.4 848.1,662.4 848.1,642.4 '/>
		<polygon fill = 'rgb( 31, 120, 180)' fill-opacity = '0.250000' points = '848.1,642.4 848.1,662.4 849.9,662.4 849.9,643.0 '/>
		<polygon fill = 'rgb( 31, 120, 180)' fill-opacity = '0.250000' points = '849.9,643.0 849.9,662.4 851.8,662.4 851.8,643.6 '/>
		<polygon fill = 'rgb( 31, 120, 180)' fill-opacity = '0.250000' points = '851.8,643.6 851.8,662.4 853.6,662.4 853.6,644.2 '/>
		<polygon fill = 'rgb( 31, 120, 180)' fill-opacity = '0.250000' points = '853.6,644.2 853.6,662.4 855.4,662.4 855.4,644.7 '/>
		<polygon fill = 'rgb( 31, 120, 180)' fill-opacity = '0.250000' points = '855.4,644.7 855.4,662.4 857.2,662.4 857.2,645.3 '/>
		<polygon fill = 'rgb( 31, 120, 180)' fill-opacity = '0.250000' points = '857.2,645.3 857.2,662.4 859.0,662.4 859.0,645.8 '/>
		<polygon fill = 'rgb( 31, 120, 180)' fill-opacity = '0.250000' points = '859.0,645.8 859.0,662.4 860.8,662.4 860.8,646.4 '/>
		<polygon fill = 'rgb( 31, 120, 180)' fill-opacity = '0.250000' points = '860.8,646.4 860.8,662.4 862.7,662.4 862.7,646.9 '/>
		<polygon fill = 'rgb( 31, 120, 180)' fill-opacity = '0.250000' points = '862.7,646.9 862.7,662.4 864.5,662.4 864.5,647.5 '/>
		<polygon fill = 'rgb( 31, 120, 180)' fill-opacity = '0.250000' points = '864.5,647.5 864.5,662.4 866.3,662.4 866.3,648.0 '/>
		<polygon fill = 'rgb( 31, 120, 180)' fill-opacity = '0.250000' points = '866.3,648.0 866.3,662.4 868.1,662.4 868.1,648.5 '/>
		<polygon fill = 'rgb( 31, 120, 180)' fill-opacity = '0.250000' points = '868.1,648.5 868.1,662.4 869.9,662.4 869.9,649.0 '/>
		<polygon fill = 'rgb( 31, 120, 180)' fill-opacity = '0.250000' points = '869.9,649.0 869.9,662.4 871.7,662.4 871.7,649.5 '/>
		<polygon fill = 'rgb( 31, 120, 180)' fill-opacity = '0.250000' points = '871.7,649.5 871.7,662.4 873.6,662.4 873.6,650.0 '/>
		<polygon fill = 'rgb( 31, 120, 180)' fill-opacity = '0.250000' points = '873.6,650.0 873.6,662.4 875.4,662.4 875.4,650.5 '/>
		<polygon fill = 'rgb( 31, 120, 180)' fill-opacity = '0.250000' points = '875.4,650.5 875.4,662.4 877.2,662.4 877.2,650.9 '/>
		<polygon fill = 'rgb( 31, 120, 180)' fill-opacity = '0.250000' points = '877.2,650.9 877.2,662.4 879.0,662.4 879.0,651.4 '/>
		<polygon fill = 'rgb( 31, 120, 180)' fill-opacity = '0.250000' points = '879.0,651.4 879.0,662.4 880.8,662.4 880.8,651.8 '/>
		<polygon fill = 'rgb( 31, 120, 180)' fill-opacity = '0.250000' points = '880.8,651.8 880.8,662.4 882.7,662.4 882.7,652.3 '/>
		<polygon fill = 'rgb( 31, 120, 180)' fill-opacity = '0.250000' points = '882.7,652.3 882.7,662.4 884.5,662.4 884.5,652.7 '/>
		<polygon fill = 'rgb( 31, 120, 180)' fill-opacity = '0.250000' points = '884.5,652.7 884.5,662.4 886.3,662.4 886.3,653.1 '/>
		<polygon fill = 'rgb( 31, 120, 180)' fill-opacity = '0.250000' points = '886.3,653.1 886.3,662.4 888.1,662.4 888.1,653.5 '/>
		<polygon fill = 'rgb( 31, 120, 180)' fill-opacity = '0.250000' points = '888.1,653.5 888.1,662.4 889.9,662.4 889.9,653.9 '/>
		<polygon fill = 'rgb( 31, 120, 180)' fill-opacity = '0.250000' points = '889.9,653.9 889.9,662.4 891.7,662.4 891.7,654.3 '/>
		<polygon fill = 'rgb( 31, 120, 180)' fill-opacity = '0.250000' points = '891.7,654.3 891.7,662.4 893.6,662.4 893.6,654.6 '/>
		<polygon fill = 'rgb( 31, 120, 180)' fill-opacity = '0.250000' points = '893.6,654.6 893.6,662.4 895.4,662.4 895.4,655.0 '/>
		<polygon fill = 'rgb( 31, 120, 180)' fill-opacity = '0.250000' points = '895.4,655.0 895.4,662.4 897.2,662.4 897.2,655.3 '/>
		<polygon fill = 'rgb( 31, 120, 180)' fill-opacity = '0.250000' points = '897.2,655.3 897.2,662.4 899.0,662.4 899.0,655.7 '/>
		<polygon fill = 'rgb( 31, 120, 180)' fill-opacity = '0.250000' points = '899.0,655.7 899.0,662.4 900.8,662.4 900.8,656.0 '/>
		<polygon fill = 'rgb( 31, 120, 180)' fill-opacity = '0.250000' points = '900.8,656.0 900.8,662.4 902.7,662.4 902.7,656.3 '/>
		<polygon fill = 'rgb( 31, 120, 180)' fill-opacity = '0.250000' points = '902.7,656.3 902.7,662.4 904.5,662.4 904.5,656.6 '/>
		<polygon fill = 'rgb( 31, 120, 180)' fill-opacity = '0.250000' points = '904.5,656.6 904.5,662.4 906.3,662.4 906.3,656.9 '/>
		<polygon fill = 'rgb( 31, 120, 180)' fill-opacity = '0.250000' points = '906.3,656.9 906.3,662.4 908.1,662.4 908.1,657.2 '/>
		<polygon fill = 'rgb( 31, 120, 180)' fill-opacity = '0.250000' points = '908.1,657.2 908.1,662.4 909.9,662.4 909.9,657.4 '/>
		<polygon fill = 'rgb( 31, 120, 180)' fill-opacity = '0.250000' points = '909.9,657.4 909.9,662.4 911.7,662.4 911.7,657.7 '/>
		<polygon fill = 'rgb( 31, 120, 180)' fill-opacity = '0.250000' points = '911.7,657.7 911.7,662.4 913.6,662.4 913.6,657.9 '/>
		<polygon fill = 'rgb( 31, 120, 180)' fill-opacity = '0.250000' points = '913.6,657.9 913.6,662.4 915.4,662.4 915.4,658.2 '/>
		<polygon fill = 'rgb( 31, 120, 180)' fill-opacity = '0.250000' points = '915.4,658.2 915.4,662.4 917.2,662.4 917.2,658.4 '/>
		<polygon fill = 'rgb( 31, 120, 180)' fill-opacity = '0.250000' points = '917.2,658.4 917.2,662.4 919.0,662.4 919.0,658.6 '/>
		<polygon fill = 'rgb( 31, 120, 180)' fill-opacity = '0.250000' points = '919.0,658.6 919.0,662.4 920.8,662.4 920.8,658.8 '/>
		<polygon fill = 'rgb( 31, 120, 180)' fill-opacity = '0.250000' points = '920.8,658.8 920.8,662.4 922.6,662.4 922.6,659.0 '/>
		<polygon fill = 'rgb( 31, 120, 180)' fill-opacity = '0.250000' points = '922.6,659.0 922.6,662.4 924.5,662.4 924.5,659.2 '/>
		<polygon fill = 'rgb( 31, 120, 180)' fill-opacity = '0.250000' points = '924.5,659.2 924.5,662.4 926.3,662.4 926.3,659.4 '/>
		<polygon fill = 'rgb( 31, 120, 180)' fill-opacity = '0.250000' points = '926.3,659.4 926.3,662.4 928.1,662.4 928.1,659.6 '/>
		<polygon fill = 'rgb( 31, 120, 180)' fill-opacity = '0.250000' points = '928.1,659.6 928.1,662.4 929.9,662.4 929.9,659.7 '/>
		<polygon fill = 'rgb( 31, 120, 180)' fill-opacity = '0.250000' points = '929.9,659.7 929.9,662.4 931.7,662.4 931.7,659.9 '/>
		<polygon fill = 'rgb( 31, 120, 180)' fill-opacity = '0.250000' points = '931.7,659.9 931.7,662.4 933.6,662.4 933.6,660.0 '/>
		<polygon fill = 'rgb( 31, 120, 180)' fill-opacity = '0.250000' points = '933.6,660.0 933.6,662.4 935.4,662.4 935.4,660.2 '/>
		<polygon fill = 'rgb( 31, 120, 180)' fill-opacity = '0.250000' points = '935.4,660.2 935.4,662.4 937.2,662.4 937.2,660.3 '/>
		<polygon fill = 'rgb( 31, 120, 180)' fill-opacity = '0.250000' points = '937.2,660.3 937.2,662.4 939.0,662.4 939.0,660.4 '/>
		<polygon fill = 'rgb( 31, 120, 180)' fill-opacity = '0.250000' points = '939.0,660.4 939.0,662.4 940.8,662.4 940.8,660.6 '/>
		<polygon fill = 'rgb( 31, 120, 180)' fill-opacity = '0.250000' points = '940.8,660.6 940.8,662.4 942.6,662.4 942.6,660.7 '/>
		<polygon fill = 'rgb( 31, 120, 180)' fill-opacity = '0.250000' points = '942.6,660.7 942.6,662.4 944.5,662.4 944.5,660.8 '/>
		<polygon fill = 'rgb( 31, 120, 180)' fill-opacity = '0.250000' points = '944.5,660.8 944.5,662.4 946.3,662.4 946.3,660.9 '/>
		<polygon fill = 'rgb( 31, 120, 180)' fill-opacity = '0.250000' points = '946.3,660.9 946.3,662.4 948.1,662.4 948.1,661.0 '/>
		<polygon fill = 'rgb( 31, 120, 180)' fill-opacity = '0.250000' points = '948.1,661.0 948.1,662.4 949.9,662.4 949.9,661.1 '/>
		<polygon fill = 'rgb( 31, 120, 180)' fill-opacity = '0.250000' points = '949.9,661.1 949.9,662.4 951.7,662.4 951.7,661.2 '/>
		<polygon fill = 'rgb( 31, 120, 180)' fill-opacity = '0.250000' points = '951.7,661.2 951.7,662.4 953.6,662.4 953.6,661.2 '/>
		<polygon fill = 'rgb( 31, 120, 180)' fill-opacity = '0.250000' points = '953.6,661.2 953.6,662.4 955.4,662.4 955.4,661.3 '/>
		<polygon fill = 'rgb( 31, 120, 180)' fill-opacity = '0.250000' points = '955.4,661.3 955.4,662.4 957.2,662.4 957.2,661.4 '/>
		<polygon fill = 'rgb( 31, 120, 180)' fill-opacity = '0.250000' points = '957.2,661.4 957.2,662.4 959.0,662.4 959.0,661.5 '/>
		<polygon fill = 'rgb( 31, 120, 180)' fill-opacity = '0.250000' points = '959.0,661.5 959.0,662.4 960.8,662.4 960.8,661.5 '/>
		<polygon fill = 'rgb( 31, 120, 180)' fill-opacity = '0.250000' points = '960.8,661.5 960.8,662.4 962.6,662.4 962.6,661.6 '/>
		<polygon fill = 'rgb( 31, 120, 180)' fill-opacity = '0.250000' points = '962.6,661.6 962.6,662.4 964.5,662.4 964.5,661.6 '/>
		<polygon fill = 'rgb( 31, 120, 180)' fill-opacity = '0.250000' points = '964.5,661.6 964.5,662.4 966.3,662.4 966.3,661.7 '/>
		<polygon fill = 'rgb( 31, 120, 180)' fill-opacity = '0.250000' points = '966.3,661.7 966.3,662.4 968.1,662.4 968.1,661.7 '/>
		<polygon fill = 'rgb( 31, 120, 180)' fill-opacity = '0.250000' points = '968.1,661.7 968.1,662.4 969.9,662.4 969.9,661.8 '/>
		<polygon fill = 'rgb( 31, 120, 180)' fill-opacity = '0.250000' points = '969.9,661.8 969.9,662.4 971.7,662.4 971.7,661.8 '/>
		<polygon fill = 'rgb( 31, 120, 180)' fill-opacity = '0.250000' points = '971.7,661.8 971.7,662.4 973.5,662.4 973.5,661.9 '/>
		<polygon fill = 'rgb( 31, 120, 180)' fill-opacity = '0.250000' points = '973.5,661.9 973.5,662.4 975.4,662.4 975.4,661.9 '/>
		<polygon fill = 'rgb( 31, 120, 180)' fill-opacity = '0.250000' points = '975.4,661.9 975.4,662.4 977.2,662.4 977.2,662.0 '/>
		<polygon fill = 'rgb( 31, 120, 180)' fill-opacity = '0.250000' points = '977.2,662.0 977.2,662.4 979.0,662.4 979.0,662.0 '/>
	</g>
</g>
	</g>
	<g id="gnuplot_plot_2" ><title>Mean</title>
<g fill="none" color="white" stroke="rgb( 31, 120, 180)" stroke-width="2.00" stroke-linecap="butt" stroke-linejoin="miter">
</g>
<g fill="none" color="black" stroke="currentColor" stroke-width="2.00" stroke-linecap="butt" stroke-linejoin="miter">
	<g transform="translate(1147.1,85.0)" stroke="none" fill="black" font-family="Helvetica" font-size="12.00"  text-anchor="start">
		<text><tspan font-family="Helvetica" >Mean</tspan></text>
	</g>
</g>
<g fill="none" color="black" stroke="currentColor" stroke-width="2.00" stroke-linecap="butt" stroke-linejoin="miter">
	<path stroke='rgb( 31, 120, 180)'  d='M1096.6,81.1 L1138.8,81.1 M372.9,662.4 L372.9,54.1  '/></g>
	</g>
	<g id="gnuplot_plot_3" ><title>"Clean" sample</title>
<g fill="none" color="white" stroke="rgb( 31, 120, 180)" stroke-width="1.00" stroke-linecap="butt" stroke-linejoin="miter">
</g>
<g fill="none" color="black" stroke="currentColor" stroke-width="1.00" stroke-linecap="butt" stroke-linejoin="miter">
	<g transform="translate(1147.1,103.0)" stroke="none" fill="black" font-family="Helvetica" font-size="12.00"  text-anchor="start">
		<text><tspan font-family="Helvetica" >"Clean" sample</tspan></text>
	</g>
</g>
<g fill="none" color="black" stroke="currentColor" stroke-width="1.00" stroke-linecap="butt" stroke-linejoin="miter">
	<use xlink:href='#gpPt6' transform='translate(353.5,601.6) scale(3.38)' color='rgb( 31, 120, 180)'/>
	<use xlink:href='#gpPt6' transform='translate(288.7,571.2) scale(3.38)' color='rgb( 31, 120, 180)'/>
	<use xlink:href='#gpPt6' transform='translate(399.8,540.7) scale(3.38)' color='rgb( 31, 120, 180)'/>
	<use xlink:href='#gpPt6' transform='translate(309.4,510.3) scale(3.38)' color='rgb( 31, 120, 180)'/>
	<use xlink:href='#gpPt6' transform='translate(439.8,479.9) scale(3.38)' color='rgb( 31, 120, 180)'/>
	<use xlink:href='#gpPt6' transform='translate(291.5,449.5) scale(3.38)' color='rgb( 31, 120, 180)'/>
	<use xlink:href='#gpPt6' transform='translate(415.3,419.1) scale(3.38)' color='rgb( 31, 120, 180)'/>
	<use xlink:href='#gpPt6' transform='translate(281.0,388.7) scale(3.38)' color='rgb( 31, 120, 180)'/>
	<use xlink:href='#gpPt6' transform='translate(369.9,358.2) scale(3.38)' color='rgb( 31, 120, 180)'/>
	<use xlink:href='#gpPt6' transform='translate(302.6,327.8) scale(3.38)' color='rgb( 31, 120, 180)'/>
	<use xlink:href='#gpPt6' transform='translate(313.2,297.4) scale(3.38)' color='rgb( 31, 120, 180)'/>
	<use xlink:href='#gpPt6' transform='translate(410.4,267.0) scale(3.38)' color='rgb( 31, 120, 180)'/>
	<use xlink:href='#gpPt6' transform='translate(403.8,236.6) scale(3.38)' color='rgb( 31, 120, 180)'/>
	<use xlink:href='#gpPt6' transform='translate(324.7,175.8) scale(3.38)' color='rgb( 31, 120, 180)'/>
	<use xlink:href='#gpPt6' transform='translate(281.5,145.3) scale(3.38)' color='rgb( 31, 120, 180)'/>
	<use xlink:href='#gpPt6' transform='translate(336.8,114.9) scale(3.38)' color='rgb( 31, 120, 180)'/>
	<use xlink:href='#gpPt6' transform='translate(305.0,84.5) scale(3.38)' color='rgb( 31, 120, 180)'/>
	<use xlink:href='#gpPt6' transform='translate(280.3,54.1) scale(3.38)' color='rgb( 31, 120, 180)'/>
	<use xlink:href='#gpPt6' transform='translate(1117.7,99.1) scale(3.38)' color='rgb( 31, 120, 180)'/>
</g>
	</g>
	<g id="gnuplot_plot_4" ><title>Mild outliers</title>
<g fill="none" color="black" stroke="currentColor" stroke-width="1.00" stroke-linecap="butt" stroke-linejoin="miter">
	<g transform="translate(1147.1,121.0)" stroke="none" fill="black" font-family="Helvetica" font-size="12.00"  text-anchor="start">
		<text><tspan font-family="Helvetica" >Mild outliers</tspan></text>
	</g>
</g>
<g fill="none" color="black" stroke="currentColor" stroke-width="1.00" stroke-linecap="butt" stroke-linejoin="miter">
	<use xlink:href='#gpPt6' transform='translate(580.4,206.2) scale(3.38)' color='rgb(255, 127,   0)'/>
	<use xlink:href='#gpPt6' transform='translate(1117.7,117.1) scale(3.38)' color='rgb(255, 127,   0)'/>
</g>
	</g>
	<g id="gnuplot_plot_5" ><title>Severe outliers</title>
<g fill="none" color="black" stroke="currentColor" stroke-width="1.00" stroke-linecap="butt" stroke-linejoin="miter">
	<g transform="translate(1147.1,139.0)" stroke="none" fill="black" font-family="Helvetica" font-size="12.00"  text-anchor="start">
		<text><tspan font-family="Helvetica" >Severe outliers</tspan></text>
	</g>
</g>
<g fill="none" color="black" stroke="currentColor" stroke-width="1.00" stroke-linecap="butt" stroke-linejoin="miter">
	<use xlink:href='#gpPt6' transform='translate(770.6,632.0) scale(3.38)' color='rgb(227,  26,  28)'/>
	<use xlink:href='#gpPt6' transform='translate(1117.7,135.1) scale(3.38)' color='rgb(227,  26,  28)'/>
</g>
	</g>
	<g id="gnuplot_plot_6" ><title>gnuplot_plot_6</title>
<g fill="none" color="white" stroke="rgb(227,  26,  28)" stroke-width="2.00" stroke-linecap="butt" stroke-linejoin="miter">
</g>
<g fill="none" color="black" stroke="currentColor" stroke-width="2.00" stroke-linecap="butt" stroke-linejoin="miter">
	<path stroke='rgb(255, 127,   0)'  d='M141.3,662.4 L141.3,54.1  '/></g>
	</g>
	<g id="gnuplot_plot_7" ><title>gnuplot_plot_7</title>
<g fill="none" color="black" stroke="currentColor" stroke-width="2.00" stroke-linecap="butt" stroke-linejoin="miter">
	<path stroke='rgb(255, 127,   0)'  d='M563.9,662.4 L563.9,54.1  '/></g>
	</g>
	<g id="gnuplot_plot_8" ><title>gnuplot_plot_8</title>
<g fill="none" color="black" stroke="currentColor" stroke-width="2.00" stroke-linecap="butt" stroke-linejoin="miter">
</g>
	</g>
	<g id="gnuplot_plot_9" ><title>gnuplot_plot_9</title>
<g fill="none" color="black" stroke="currentColor" stroke-width="2.00" stroke-linecap="butt" stroke-linejoin="miter">
	<path stroke='rgb(227,  26,  28)'  d='M722.4,662.4 L722.4,54.1  '/></g>
	</g>
<g fill="none" color="black" stroke="currentColor" stroke-width="2.00" stroke-linecap="butt" stroke-linejoin="miter">
</g>
<g fill="none" color="black" stroke="black" stroke-width="1.00" stroke-linecap="butt" stroke-linejoin="miter">
</g>
<g fill="none" color="black" stroke="currentColor" stroke-width="1.00" stroke-linecap="butt" stroke-linejoin="miter">
	<path stroke='black'  d='M71.9,54.1 L71.9,662.4 L979.0,662.4 L979.0,54.1 L71.9,54.1 Z  '/></g>
<g fill="none" color="black" stroke="currentColor" stroke-width="1.00" stroke-linecap="butt" stroke-linejoin="miter">
</g>
</g>
</svg>

