<?xml version="1.0" encoding="utf-8"  standalone="no"?>
<svg 
 viewBox="0 0 1280 720"
 xmlns="http://www.w3.org/2000/svg"
 xmlns:xlink="http://www.w3.org/1999/xlink"
>

<title>Gnuplot</title>
<desc>Produced by GNUPLOT 5.0 patchlevel 6 </desc>

<g id="gnuplot_canvas">

<rect x="0" y="0" width="1280" height="720" fill="none"/>
<defs>

	<circle id='gpDot' r='0.5' stroke-width='0.5'/>
	<path id='gpPt0' stroke-width='0.222' stroke='currentColor' d='M-1,0 h2 M0,-1 v2'/>
	<path id='gpPt1' stroke-width='0.222' stroke='currentColor' d='M-1,-1 L1,1 M1,-1 L-1,1'/>
	<path id='gpPt2' stroke-width='0.222' stroke='currentColor' d='M-1,0 L1,0 M0,-1 L0,1 M-1,-1 L1,1 M-1,1 L1,-1'/>
	<rect id='gpPt3' stroke-width='0.222' stroke='currentColor' x='-1' y='-1' width='2' height='2'/>
	<rect id='gpPt4' stroke-width='0.222' stroke='currentColor' fill='currentColor' x='-1' y='-1' width='2' height='2'/>
	<circle id='gpPt5' stroke-width='0.222' stroke='currentColor' cx='0' cy='0' r='1'/>
	<use xlink:href='#gpPt5' id='gpPt6' fill='currentColor' stroke='none'/>
	<path id='gpPt7' stroke-width='0.222' stroke='currentColor' d='M0,-1.33 L-1.33,0.67 L1.33,0.67 z'/>
	<use xlink:href='#gpPt7' id='gpPt8' fill='currentColor' stroke='none'/>
	<use xlink:href='#gpPt7' id='gpPt9' stroke='currentColor' transform='rotate(180)'/>
	<use xlink:href='#gpPt9' id='gpPt10' fill='currentColor' stroke='none'/>
	<use xlink:href='#gpPt3' id='gpPt11' stroke='currentColor' transform='rotate(45)'/>
	<use xlink:href='#gpPt11' id='gpPt12' fill='currentColor' stroke='none'/>
	<path id='gpPt13' stroke-width='0.222' stroke='currentColor' d='M0,1.330 L1.265,0.411 L0.782,-1.067 L-0.782,-1.076 L-1.265,0.411 z'/>
	<use xlink:href='#gpPt13' id='gpPt14' fill='currentColor' stroke='none'/>
	<filter id='textbox' filterUnits='objectBoundingBox' x='0' y='0' height='1' width='1'>
	  <feFlood flood-color='white' flood-opacity='1' result='bgnd'/>
	  <feComposite in='SourceGraphic' in2='bgnd' operator='atop'/>
	</filter>
	<filter id='greybox' filterUnits='objectBoundingBox' x='0' y='0' height='1' width='1'>
	  <feFlood flood-color='lightgrey' flood-opacity='1' result='grey'/>
	  <feComposite in='SourceGraphic' in2='grey' operator='atop'/>
	</filter>
</defs>
<g fill="none" color="white" stroke="currentColor" stroke-width="1.00" stroke-linecap="butt" stroke-linejoin="miter">
</g>
<g fill="none" color="black" stroke="currentColor" stroke-width="1.00" stroke-linecap="butt" stroke-linejoin="miter">
	<path stroke='black'  d='M88.5,662.4 L97.5,662.4  '/>	<g transform="translate(80.2,666.3)" stroke="none" fill="black" font-family="Helvetica" font-size="12.00"  text-anchor="end">
		<text><tspan font-family="Helvetica" > 0</tspan></text>
	</g>
</g>
<g fill="none" color="black" stroke="currentColor" stroke-width="1.00" stroke-linecap="butt" stroke-linejoin="miter">
	<path stroke='black'  d='M88.5,561.0 L97.5,561.0  '/>	<g transform="translate(80.2,564.9)" stroke="none" fill="black" font-family="Helvetica" font-size="12.00"  text-anchor="end">
		<text><tspan font-family="Helvetica" > 0.002</tspan></text>
	</g>
</g>
<g fill="none" color="black" stroke="currentColor" stroke-width="1.00" stroke-linecap="butt" stroke-linejoin="miter">
	<path stroke='black'  d='M88.5,459.6 L97.5,459.6  '/>	<g transform="translate(80.2,463.5)" stroke="none" fill="black" font-family="Helvetica" font-size="12.00"  text-anchor="end">
		<text><tspan font-family="Helvetica" > 0.004</tspan></text>
	</g>
</g>
<g fill="none" color="black" stroke="currentColor" stroke-width="1.00" stroke-linecap="butt" stroke-linejoin="miter">
	<path stroke='black'  d='M88.5,358.2 L97.5,358.2  '/>	<g transform="translate(80.2,362.1)" stroke="none" fill="black" font-family="Helvetica" font-size="12.00"  text-anchor="end">
		<text><tspan font-family="Helvetica" > 0.006</tspan></text>
	</g>
</g>
<g fill="none" color="black" stroke="currentColor" stroke-width="1.00" stroke-linecap="butt" stroke-linejoin="miter">
	<path stroke='black'  d='M88.5,256.9 L97.5,256.9  '/>	<g transform="translate(80.2,260.8)" stroke="none" fill="black" font-family="Helvetica" font-size="12.00"  text-anchor="end">
		<text><tspan font-family="Helvetica" > 0.008</tspan></text>
	</g>
</g>
<g fill="none" color="black" stroke="currentColor" stroke-width="1.00" stroke-linecap="butt" stroke-linejoin="miter">
	<path stroke='black'  d='M88.5,155.5 L97.5,155.5  '/>	<g transform="translate(80.2,159.4)" stroke="none" fill="black" font-family="Helvetica" font-size="12.00"  text-anchor="end">
		<text><tspan font-family="Helvetica" > 0.01</tspan></text>
	</g>
</g>
<g fill="none" color="black" stroke="currentColor" stroke-width="1.00" stroke-linecap="butt" stroke-linejoin="miter">
	<path stroke='black'  d='M88.5,54.1 L97.5,54.1  '/>	<g transform="translate(80.2,58.0)" stroke="none" fill="black" font-family="Helvetica" font-size="12.00"  text-anchor="end">
		<text><tspan font-family="Helvetica" > 0.012</tspan></text>
	</g>
</g>
<g fill="none" color="black" stroke="currentColor" stroke-width="1.00" stroke-linecap="butt" stroke-linejoin="miter">
	<path stroke='black'  d='M172.9,662.4 L172.9,653.4  '/>	<g transform="translate(172.9,684.3)" stroke="none" fill="black" font-family="Helvetica" font-size="12.00"  text-anchor="middle">
		<text><tspan font-family="Helvetica" > 80</tspan></text>
	</g>
</g>
<g fill="none" color="black" stroke="currentColor" stroke-width="1.00" stroke-linecap="butt" stroke-linejoin="miter">
	<path stroke='black'  d='M274.4,662.4 L274.4,653.4  '/>	<g transform="translate(274.4,684.3)" stroke="none" fill="black" font-family="Helvetica" font-size="12.00"  text-anchor="middle">
		<text><tspan font-family="Helvetica" > 100</tspan></text>
	</g>
</g>
<g fill="none" color="black" stroke="currentColor" stroke-width="1.00" stroke-linecap="butt" stroke-linejoin="miter">
	<path stroke='black'  d='M375.8,662.4 L375.8,653.4  '/>	<g transform="translate(375.8,684.3)" stroke="none" fill="black" font-family="Helvetica" font-size="12.00"  text-anchor="middle">
		<text><tspan font-family="Helvetica" > 120</tspan></text>
	</g>
</g>
<g fill="none" color="black" stroke="currentColor" stroke-width="1.00" stroke-linecap="butt" stroke-linejoin="miter">
	<path stroke='black'  d='M477.2,662.4 L477.2,653.4  '/>	<g transform="translate(477.2,684.3)" stroke="none" fill="black" font-family="Helvetica" font-size="12.00"  text-anchor="middle">
		<text><tspan font-family="Helvetica" > 140</tspan></text>
	</g>
</g>
<g fill="none" color="black" stroke="currentColor" stroke-width="1.00" stroke-linecap="butt" stroke-linejoin="miter">
	<path stroke='black'  d='M578.7,662.4 L578.7,653.4  '/>	<g transform="translate(578.7,684.3)" stroke="none" fill="black" font-family="Helvetica" font-size="12.00"  text-anchor="middle">
		<text><tspan font-family="Helvetica" > 160</tspan></text>
	</g>
</g>
<g fill="none" color="black" stroke="currentColor" stroke-width="1.00" stroke-linecap="butt" stroke-linejoin="miter">
	<path stroke='black'  d='M680.1,662.4 L680.1,653.4  '/>	<g transform="translate(680.1,684.3)" stroke="none" fill="black" font-family="Helvetica" font-size="12.00"  text-anchor="middle">
		<text><tspan font-family="Helvetica" > 180</tspan></text>
	</g>
</g>
<g fill="none" color="black" stroke="currentColor" stroke-width="1.00" stroke-linecap="butt" stroke-linejoin="miter">
	<path stroke='black'  d='M781.5,662.4 L781.5,653.4  '/>	<g transform="translate(781.5,684.3)" stroke="none" fill="black" font-family="Helvetica" font-size="12.00"  text-anchor="middle">
		<text><tspan font-family="Helvetica" > 200</tspan></text>
	</g>
</g>
<g fill="none" color="black" stroke="currentColor" stroke-width="1.00" stroke-linecap="butt" stroke-linejoin="miter">
	<path stroke='black'  d='M883.0,662.4 L883.0,653.4  '/>	<g transform="translate(883.0,684.3)" stroke="none" fill="black" font-family="Helvetica" font-size="12.00"  text-anchor="middle">
		<text><tspan font-family="Helvetica" > 220</tspan></text>
	</g>
</g>
<g fill="none" color="black" stroke="currentColor" stroke-width="1.00" stroke-linecap="butt" stroke-linejoin="miter">
	<path stroke='black'  d='M984.4,662.4 L984.4,653.4  '/>	<g transform="translate(984.4,684.3)" stroke="none" fill="black" font-family="Helvetica" font-size="12.00"  text-anchor="middle">
		<text><tspan font-family="Helvetica" > 240</tspan></text>
	</g>
</g>
<g fill="none" color="black" stroke="currentColor" stroke-width="1.00" stroke-linecap="butt" stroke-linejoin="miter">
</g>
<g fill="none" color="black" stroke="currentColor" stroke-width="1.00" stroke-linecap="butt" stroke-linejoin="miter">
	<path stroke='black'  d='M88.5,54.1 L88.5,662.4 L1013.6,662.4 L1013.6,54.1 L88.5,54.1 Z  '/></g>
<g fill="none" color="black" stroke="currentColor" stroke-width="1.00" stroke-linecap="butt" stroke-linejoin="miter">
	<g transform="translate(17.0,358.3) rotate(270)" stroke="none" fill="black" font-family="Helvetica" font-size="12.00"  text-anchor="middle">
		<text><tspan font-family="Helvetica" >Density (a.u.)</tspan></text>
	</g>
</g>
<g fill="none" color="black" stroke="currentColor" stroke-width="1.00" stroke-linecap="butt" stroke-linejoin="miter">
	<g transform="translate(551.0,711.3)" stroke="none" fill="black" font-family="Helvetica" font-size="12.00"  text-anchor="middle">
		<text><tspan font-family="Helvetica" >Average time (us)</tspan></text>
	</g>
</g>
<g fill="none" color="black" stroke="currentColor" stroke-width="1.00" stroke-linecap="butt" stroke-linejoin="miter">
	<g transform="translate(551.0,31.0)" stroke="none" fill="black" font-family="Helvetica" font-size="12.00"  text-anchor="middle">
		<text><tspan font-family="Helvetica" >language: python/parse error: rust/examples/ast.rs: SD</tspan></text>
	</g>
</g>
	<g id="gnuplot_plot_1" ><title>Bootstrap distribution</title>
<g fill="none" color="white" stroke="black" stroke-width="2.00" stroke-linecap="butt" stroke-linejoin="miter">
</g>
<g fill="none" color="black" stroke="currentColor" stroke-width="2.00" stroke-linecap="butt" stroke-linejoin="miter">
	<g transform="translate(1089.0,67.0)" stroke="none" fill="black" font-family="Helvetica" font-size="12.00"  text-anchor="start">
		<text><tspan font-family="Helvetica" >Bootstrap distribution</tspan></text>
	</g>
</g>
<g fill="none" color="black" stroke="currentColor" stroke-width="2.00" stroke-linecap="butt" stroke-linejoin="miter">
	<path stroke='rgb( 31, 120, 180)'  d='M1038.5,63.1 L1080.7,63.1 M88.5,631.5 L90.4,630.2 L92.2,628.9 L94.1,627.6 L95.9,626.3 L97.8,624.9
		L99.6,623.6 L101.5,622.1 L103.3,620.7 L105.2,619.2 L107.0,617.7 L108.9,616.2 L110.7,614.7 L112.6,613.1
		L114.5,611.5 L116.3,609.9 L118.2,608.3 L120.0,606.7 L121.9,605.1 L123.7,603.4 L125.6,601.7 L127.4,600.1
		L129.3,598.4 L131.1,596.8 L133.0,595.1 L134.8,593.4 L136.7,591.8 L138.6,590.1 L140.4,588.4 L142.3,586.8
		L144.1,585.1 L146.0,583.4 L147.8,581.8 L149.7,580.1 L151.5,578.4 L153.4,576.7 L155.2,575.0 L157.1,573.3
		L158.9,571.6 L160.8,569.9 L162.7,568.2 L164.5,566.5 L166.4,564.7 L168.2,563.0 L170.1,561.3 L171.9,559.6
		L173.8,557.9 L175.6,556.2 L177.5,554.5 L179.3,552.9 L181.2,551.2 L183.0,549.6 L184.9,548.0 L186.8,546.4
		L188.6,544.9 L190.5,543.3 L192.3,541.8 L194.2,540.3 L196.0,538.8 L197.9,537.3 L199.7,535.9 L201.6,534.4
		L203.4,533.0 L205.3,531.6 L207.2,530.3 L209.0,528.9 L210.9,527.6 L212.7,526.4 L214.6,525.1 L216.4,523.9
		L218.3,522.7 L220.1,521.6 L222.0,520.5 L223.8,519.5 L225.7,518.5 L227.5,517.5 L229.4,516.6 L231.3,515.7
		L233.1,514.8 L235.0,514.0 L236.8,513.1 L238.7,512.3 L240.5,511.5 L242.4,510.7 L244.2,509.9 L246.1,509.1
		L247.9,508.3 L249.8,507.4 L251.6,506.5 L253.5,505.6 L255.4,504.7 L257.2,503.7 L259.1,502.7 L260.9,501.7
		L262.8,500.7 L264.6,499.6 L266.5,498.5 L268.3,497.3 L270.2,496.1 L272.0,494.9 L273.9,493.7 L275.7,492.4
		L277.6,491.1 L279.5,489.8 L281.3,488.4 L283.2,487.0 L285.0,485.6 L286.9,484.1 L288.7,482.5 L290.6,480.9
		L292.4,479.3 L294.3,477.6 L296.1,475.8 L298.0,473.9 L299.8,472.0 L301.7,470.0 L303.6,467.9 L305.4,465.7
		L307.3,463.4 L309.1,461.0 L311.0,458.5 L312.8,455.9 L314.7,453.2 L316.5,450.3 L318.4,447.3 L320.2,444.2
		L322.1,441.0 L323.9,437.6 L325.8,434.2 L327.7,430.5 L329.5,426.8 L331.4,422.9 L333.2,419.0 L335.1,414.9
		L336.9,410.7 L338.8,406.5 L340.6,402.1 L342.5,397.7 L344.3,393.2 L346.2,388.6 L348.0,384.0 L349.9,379.3
		L351.8,374.6 L353.6,369.9 L355.5,365.2 L357.3,360.4 L359.2,355.6 L361.0,350.8 L362.9,346.0 L364.7,341.2
		L366.6,336.4 L368.4,331.7 L370.3,326.9 L372.1,322.2 L374.0,317.5 L375.9,312.8 L377.7,308.2 L379.6,303.6
		L381.4,299.1 L383.3,294.7 L385.1,290.4 L387.0,286.2 L388.8,282.1 L390.7,278.1 L392.5,274.2 L394.4,270.5
		L396.2,266.9 L398.1,263.5 L400.0,260.2 L401.8,257.1 L403.7,254.1 L405.5,251.4 L407.4,248.7 L409.2,246.3
		L411.1,244.0 L412.9,241.9 L414.8,239.9 L416.6,238.0 L418.5,236.3 L420.3,234.7 L422.2,233.2 L424.1,231.8
		L425.9,230.5 L427.8,229.3 L429.6,228.1 L431.5,227.1 L433.3,226.0 L435.2,225.1 L437.0,224.2 L438.9,223.3
		L440.7,222.5 L442.6,221.7 L444.5,221.0 L446.3,220.3 L448.2,219.6 L450.0,219.0 L451.9,218.5 L453.7,218.0
		L455.6,217.6 L457.4,217.3 L459.3,217.0 L461.1,216.9 L463.0,216.8 L464.8,216.8 L466.7,216.9 L468.6,217.1
		L470.4,217.3 L472.3,217.7 L474.1,218.1 L476.0,218.6 L477.8,219.1 L479.7,219.7 L481.5,220.3 L483.4,220.9
		L485.2,221.4 L487.1,221.9 L488.9,222.3 L490.8,222.6 L492.7,222.8 L494.5,222.8 L496.4,222.6 L498.2,222.3
		L500.1,221.7 L501.9,221.0 L503.8,219.9 L505.6,218.6 L507.5,217.1 L509.3,215.3 L511.2,213.2 L513.0,210.8
		L514.9,208.2 L516.8,205.4 L518.6,202.3 L520.5,199.0 L522.3,195.5 L524.2,191.8 L526.0,187.9 L527.9,183.9
		L529.7,179.9 L531.6,175.7 L533.4,171.5 L535.3,167.3 L537.1,163.1 L539.0,159.0 L540.9,154.9 L542.7,151.0
		L544.6,147.2 L546.4,143.5 L548.3,140.0 L550.1,136.8 L552.0,133.7 L553.8,130.9 L555.7,128.3 L557.5,126.0
		L559.4,123.9 L561.2,122.1 L563.1,120.5 L565.0,119.3 L566.8,118.2 L568.7,117.4 L570.5,116.9 L572.4,116.6
		L574.2,116.5 L576.1,116.6 L577.9,117.0 L579.8,117.5 L581.6,118.3 L583.5,119.2 L585.3,120.3 L587.2,121.6
		L589.1,123.1 L590.9,124.7 L592.8,126.5 L594.6,128.5 L596.5,130.7 L598.3,133.0 L600.2,135.4 L602.0,138.0
		L603.9,140.7 L605.7,143.6 L607.6,146.6 L609.4,149.6 L611.3,152.8 L613.2,156.1 L615.0,159.4 L616.9,162.7
		L618.7,166.1 L620.6,169.4 L622.4,172.8 L624.3,176.1 L626.1,179.3 L628.0,182.5 L629.8,185.6 L631.7,188.5
		L633.5,191.3 L635.4,193.9 L637.3,196.4 L639.1,198.6 L641.0,200.7 L642.8,202.6 L644.7,204.3 L646.5,205.8
		L648.4,207.1 L650.2,208.2 L652.1,209.2 L653.9,210.0 L655.8,210.6 L657.6,211.1 L659.5,211.4 L661.4,211.7
		L663.2,211.9 L665.1,212.1 L666.9,212.2 L668.8,212.4 L670.6,212.5 L672.5,212.7 L674.3,212.9 L676.2,213.2
		L678.0,213.6 L679.9,214.1 L681.8,214.8 L683.6,215.5 L685.5,216.5 L687.3,217.5 L689.2,218.8 L691.0,220.2
		L692.9,221.8 L694.7,223.5 L696.6,225.4 L698.4,227.5 L700.3,229.7 L702.1,232.1 L704.0,234.6 L705.9,237.3
		L707.7,240.1 L709.6,243.0 L711.4,246.1 L713.3,249.2 L715.1,252.5 L717.0,255.9 L718.8,259.4 L720.7,262.9
		L722.5,266.5 L724.4,270.3 L726.2,274.1 L728.1,277.9 L730.0,281.9 L731.8,285.9 L733.7,290.0 L735.5,294.1
		L737.4,298.3 L739.2,302.6 L741.1,306.9 L742.9,311.2 L744.8,315.5 L746.6,319.9 L748.5,324.2 L750.3,328.5
		L752.2,332.8 L754.1,337.1 L755.9,341.2 L757.8,345.3 L759.6,349.3 L761.5,353.2 L763.3,356.9 L765.2,360.6
		L767.0,364.1 L768.9,367.4 L770.7,370.6 L772.6,373.7 L774.4,376.6 L776.3,379.4 L778.2,382.0 L780.0,384.5
		L781.9,386.9 L783.7,389.2 L785.6,391.4 L787.4,393.5 L789.3,395.6 L791.1,397.6 L793.0,399.6 L794.8,401.5
		L796.7,403.5 L798.5,405.5 L800.4,407.5 L802.3,409.5 L804.1,411.5 L806.0,413.6 L807.8,415.8 L809.7,418.0
		L811.5,420.3 L813.4,422.6 L815.2,425.0 L817.1,427.5 L818.9,430.1 L820.8,432.7 L822.6,435.4 L824.5,438.2
		L826.4,441.0 L828.2,443.9 L830.1,446.8 L831.9,449.8 L833.8,452.9 L835.6,455.9 L837.5,459.0 L839.3,462.1
		L841.2,465.3 L843.0,468.4 L844.9,471.6 L846.7,474.8 L848.6,477.9 L850.5,481.1 L852.3,484.3 L854.2,487.4
		L856.0,490.6 L857.9,493.7 L859.7,496.8 L861.6,499.9 L863.4,502.9 L865.3,505.9 L867.1,508.8 L869.0,511.7
		L870.8,514.5 L872.7,517.3 L874.6,520.0 L876.4,522.6 L878.3,525.1 L880.1,527.6 L882.0,530.0 L883.8,532.3
		L885.7,534.5 L887.5,536.6 L889.4,538.7 L891.2,540.7 L893.1,542.6 L894.9,544.4 L896.8,546.2 L898.7,548.0
		L900.5,549.7 L902.4,551.4 L904.2,553.0 L906.1,554.6 L907.9,556.2 L909.8,557.8 L911.6,559.4 L913.5,561.0
		L915.3,562.5 L917.2,564.1 L919.1,565.7 L920.9,567.3 L922.8,568.9 L924.6,570.4 L926.5,572.0 L928.3,573.6
		L930.2,575.2 L932.0,576.8 L933.9,578.4 L935.7,580.0 L937.6,581.5 L939.4,583.1 L941.3,584.7 L943.2,586.3
		L945.0,587.8 L946.9,589.4 L948.7,590.9 L950.6,592.4 L952.4,594.0 L954.3,595.5 L956.1,597.0 L958.0,598.5
		L959.8,600.0 L961.7,601.5 L963.5,603.0 L965.4,604.4 L967.3,605.9 L969.1,607.3 L971.0,608.7 L972.8,610.1
		L974.7,611.4 L976.5,612.7 L978.4,613.9 L980.2,615.2 L982.1,616.3 L983.9,617.5 L985.8,618.6 L987.6,619.6
		L989.5,620.6 L991.4,621.6 L993.2,622.5 L995.1,623.4 L996.9,624.3 L998.8,625.1 L1000.6,625.9 L1002.5,626.7
		L1004.3,627.4 L1006.2,628.1 L1008.0,628.9 L1009.9,629.6 L1011.7,630.3 L1013.6,631.0  '/></g>
	</g>
	<g id="gnuplot_plot_2" ><title>Confidence interval</title>
<g fill="none" color="white" stroke="rgb( 31, 120, 180)" stroke-width="1.00" stroke-linecap="butt" stroke-linejoin="miter">
</g>
<g fill="none" color="black" stroke="currentColor" stroke-width="1.00" stroke-linecap="butt" stroke-linejoin="miter">
	<g transform="translate(1089.0,85.0)" stroke="none" fill="black" font-family="Helvetica" font-size="12.00"  text-anchor="start">
		<text><tspan font-family="Helvetica" >Confidence interval</tspan></text>
	</g>
</g>
<g fill="none" color="black" stroke="currentColor" stroke-width="1.00" stroke-linecap="butt" stroke-linejoin="miter">
	<g stroke='none' shape-rendering='crispEdges'>
		<polygon fill = 'rgb( 31, 120, 180)' fill-opacity = '0.250000' points = '1038.5,85.6 1080.7,85.6 1080.7,76.6 1038.5,76.6 '/>
		<polygon fill = 'rgb( 31, 120, 180)' fill-opacity = '0.250000' points = '173.8,557.9 173.8,662.4 175.6,662.4 175.6,556.2 '/>
		<polygon fill = 'rgb( 31, 120, 180)' fill-opacity = '0.250000' points = '175.6,556.2 175.6,662.4 177.5,662.4 177.5,554.5 '/>
		<polygon fill = 'rgb( 31, 120, 180)' fill-opacity = '0.250000' points = '177.5,554.5 177.5,662.4 179.3,662.4 179.3,552.9 '/>
		<polygon fill = 'rgb( 31, 120, 180)' fill-opacity = '0.250000' points = '179.3,552.9 179.3,662.4 181.2,662.4 181.2,551.2 '/>
		<polygon fill = 'rgb( 31, 120, 180)' fill-opacity = '0.250000' points = '181.2,551.2 181.2,662.4 183.0,662.4 183.0,549.6 '/>
		<polygon fill = 'rgb( 31, 120, 180)' fill-opacity = '0.250000' points = '183.0,549.6 183.0,662.4 184.9,662.4 184.9,548.0 '/>
		<polygon fill = 'rgb( 31, 120, 180)' fill-opacity = '0.250000' points = '184.9,548.0 184.9,662.4 186.8,662.4 186.8,546.4 '/>
		<polygon fill = 'rgb( 31, 120, 180)' fill-opacity = '0.250000' points = '186.8,546.4 186.8,662.4 188.6,662.4 188.6,544.9 '/>
		<polygon fill = 'rgb( 31, 120, 180)' fill-opacity = '0.250000' points = '188.6,544.9 188.6,662.4 190.5,662.4 190.5,543.3 '/>
		<polygon fill = 'rgb( 31, 120, 180)' fill-opacity = '0.250000' points = '190.5,543.3 190.5,662.4 192.3,662.4 192.3,541.8 '/>
		<polygon fill = 'rgb( 31, 120, 180)' fill-opacity = '0.250000' points = '192.3,541.8 192.3,662.4 194.2,662.4 194.2,540.3 '/>
		<polygon fill = 'rgb( 31, 120, 180)' fill-opacity = '0.250000' points = '194.2,540.3 194.2,662.4 196.0,662.4 196.0,538.8 '/>
		<polygon fill = 'rgb( 31, 120, 180)' fill-opacity = '0.250000' points = '196.0,538.8 196.0,662.4 197.9,662.4 197.9,537.3 '/>
		<polygon fill = 'rgb( 31, 120, 180)' fill-opacity = '0.250000' points = '197.9,537.3 197.9,662.4 199.7,662.4 199.7,535.9 '/>
		<polygon fill = 'rgb( 31, 120, 180)' fill-opacity = '0.250000' points = '199.7,535.9 199.7,662.4 201.6,662.4 201.6,534.4 '/>
		<polygon fill = 'rgb( 31, 120, 180)' fill-opacity = '0.250000' points = '201.6,534.4 201.6,662.4 203.4,662.4 203.4,533.0 '/>
		<polygon fill = 'rgb( 31, 120, 180)' fill-opacity = '0.250000' points = '203.4,533.0 203.4,662.4 205.3,662.4 205.3,531.6 '/>
		<polygon fill = 'rgb( 31, 120, 180)' fill-opacity = '0.250000' points = '205.3,531.6 205.3,662.4 207.2,662.4 207.2,530.3 '/>
		<polygon fill = 'rgb( 31, 120, 180)' fill-opacity = '0.250000' points = '207.2,530.3 207.2,662.4 209.0,662.4 209.0,528.9 '/>
		<polygon fill = 'rgb( 31, 120, 180)' fill-opacity = '0.250000' points = '209.0,528.9 209.0,662.4 210.9,662.4 210.9,527.6 '/>
		<polygon fill = 'rgb( 31, 120, 180)' fill-opacity = '0.250000' points = '210.9,527.6 210.9,662.4 212.7,662.4 212.7,526.4 '/>
		<polygon fill = 'rgb( 31, 120, 180)' fill-opacity = '0.250000' points = '212.7,526.4 212.7,662.4 214.6,662.4 214.6,525.1 '/>
		<polygon fill = 'rgb( 31, 120, 180)' fill-opacity = '0.250000' points = '214.6,525.1 214.6,662.4 216.4,662.4 216.4,523.9 '/>
		<polygon fill = 'rgb( 31, 120, 180)' fill-opacity = '0.250000' points = '216.4,523.9 216.4,662.4 218.3,662.4 218.3,522.7 '/>
		<polygon fill = 'rgb( 31, 120, 180)' fill-opacity = '0.250000' points = '218.3,522.7 218.3,662.4 220.1,662.4 220.1,521.6 '/>
		<polygon fill = 'rgb( 31, 120, 180)' fill-opacity = '0.250000' points = '220.1,521.6 220.1,662.4 222.0,662.4 222.0,520.5 '/>
		<polygon fill = 'rgb( 31, 120, 180)' fill-opacity = '0.250000' points = '222.0,520.5 222.0,662.4 223.8,662.4 223.8,519.5 '/>
		<polygon fill = 'rgb( 31, 120, 180)' fill-opacity = '0.250000' points = '223.8,519.5 223.8,662.4 225.7,662.4 225.7,518.5 '/>
		<polygon fill = 'rgb( 31, 120, 180)' fill-opacity = '0.250000' points = '225.7,518.5 225.7,662.4 227.5,662.4 227.5,517.5 '/>
		<polygon fill = 'rgb( 31, 120, 180)' fill-opacity = '0.250000' points = '227.5,517.5 227.5,662.4 229.4,662.4 229.4,516.6 '/>
		<polygon fill = 'rgb( 31, 120, 180)' fill-opacity = '0.250000' points = '229.4,516.6 229.4,662.4 231.3,662.4 231.3,515.7 '/>
		<polygon fill = 'rgb( 31, 120, 180)' fill-opacity = '0.250000' points = '231.3,515.7 231.3,662.4 233.1,662.4 233.1,514.8 '/>
		<polygon fill = 'rgb( 31, 120, 180)' fill-opacity = '0.250000' points = '233.1,514.8 233.1,662.4 235.0,662.4 235.0,514.0 '/>
		<polygon fill = 'rgb( 31, 120, 180)' fill-opacity = '0.250000' points = '235.0,514.0 235.0,662.4 236.8,662.4 236.8,513.1 '/>
		<polygon fill = 'rgb( 31, 120, 180)' fill-opacity = '0.250000' points = '236.8,513.1 236.8,662.4 238.7,662.4 238.7,512.3 '/>
		<polygon fill = 'rgb( 31, 120, 180)' fill-opacity = '0.250000' points = '238.7,512.3 238.7,662.4 240.5,662.4 240.5,511.5 '/>
		<polygon fill = 'rgb( 31, 120, 180)' fill-opacity = '0.250000' points = '240.5,511.5 240.5,662.4 242.4,662.4 242.4,510.7 '/>
		<polygon fill = 'rgb( 31, 120, 180)' fill-opacity = '0.250000' points = '242.4,510.7 242.4,662.4 244.2,662.4 244.2,509.9 '/>
		<polygon fill = 'rgb( 31, 120, 180)' fill-opacity = '0.250000' points = '244.2,509.9 244.2,662.4 246.1,662.4 246.1,509.1 '/>
		<polygon fill = 'rgb( 31, 120, 180)' fill-opacity = '0.250000' points = '246.1,509.1 246.1,662.4 247.9,662.4 247.9,508.3 '/>
		<polygon fill = 'rgb( 31, 120, 180)' fill-opacity = '0.250000' points = '247.9,508.3 247.9,662.4 249.8,662.4 249.8,507.4 '/>
		<polygon fill = 'rgb( 31, 120, 180)' fill-opacity = '0.250000' points = '249.8,507.4 249.8,662.4 251.6,662.4 251.6,506.5 '/>
		<polygon fill = 'rgb( 31, 120, 180)' fill-opacity = '0.250000' points = '251.6,506.5 251.6,662.4 253.5,662.4 253.5,505.6 '/>
		<polygon fill = 'rgb( 31, 120, 180)' fill-opacity = '0.250000' points = '253.5,505.6 253.5,662.4 255.4,662.4 255.4,504.7 '/>
		<polygon fill = 'rgb( 31, 120, 180)' fill-opacity = '0.250000' points = '255.4,504.7 255.4,662.4 257.2,662.4 257.2,503.7 '/>
		<polygon fill = 'rgb( 31, 120, 180)' fill-opacity = '0.250000' points = '257.2,503.7 257.2,662.4 259.1,662.4 259.1,502.7 '/>
		<polygon fill = 'rgb( 31, 120, 180)' fill-opacity = '0.250000' points = '259.1,502.7 259.1,662.4 260.9,662.4 260.9,501.7 '/>
		<polygon fill = 'rgb( 31, 120, 180)' fill-opacity = '0.250000' points = '260.9,501.7 260.9,662.4 262.8,662.4 262.8,500.7 '/>
		<polygon fill = 'rgb( 31, 120, 180)' fill-opacity = '0.250000' points = '262.8,500.7 262.8,662.4 264.6,662.4 264.6,499.6 '/>
		<polygon fill = 'rgb( 31, 120, 180)' fill-opacity = '0.250000' points = '264.6,499.6 264.6,662.4 266.5,662.4 266.5,498.5 '/>
		<polygon fill = 'rgb( 31, 120, 180)' fill-opacity = '0.250000' points = '266.5,498.5 266.5,662.4 268.3,662.4 268.3,497.3 '/>
		<polygon fill = 'rgb( 31, 120, 180)' fill-opacity = '0.250000' points = '268.3,497.3 268.3,662.4 270.2,662.4 270.2,496.1 '/>
		<polygon fill = 'rgb( 31, 120, 180)' fill-opacity = '0.250000' points = '270.2,496.1 270.2,662.4 272.0,662.4 272.0,494.9 '/>
		<polygon fill = 'rgb( 31, 120, 180)' fill-opacity = '0.250000' points = '272.0,494.9 272.0,662.4 273.9,662.4 273.9,493.7 '/>
		<polygon fill = 'rgb( 31, 120, 180)' fill-opacity = '0.250000' points = '273.9,493.7 273.9,662.4 275.7,662.4 275.7,492.4 '/>
		<polygon fill = 'rgb( 31, 120, 180)' fill-opacity = '0.250000' points = '275.7,492.4 275.7,662.4 277.6,662.4 277.6,491.1 '/>
		<polygon fill = 'rgb( 31, 120, 180)' fill-opacity = '0.250000' points = '277.6,491.1 277.6,662.4 279.5,662.4 279.5,489.8 '/>
		<polygon fill = 'rgb( 31, 120, 180)' fill-opacity = '0.250000' points = '279.5,489.8 279.5,662.4 281.3,662.4 281.3,488.4 '/>
		<polygon fill = 'rgb( 31, 120, 180)' fill-opacity = '0.250000' points = '281.3,488.4 281.3,662.4 283.2,662.4 283.2,487.0 '/>
		<polygon fill = 'rgb( 31, 120, 180)' fill-opacity = '0.250000' points = '283.2,487.0 283.2,662.4 285.0,662.4 285.0,485.6 '/>
		<polygon fill = 'rgb( 31, 120, 180)' fill-opacity = '0.250000' points = '285.0,485.6 285.0,662.4 286.9,662.4 286.9,484.1 '/>
		<polygon fill = 'rgb( 31, 120, 180)' fill-opacity = '0.250000' points = '286.9,484.1 286.9,662.4 288.7,662.4 288.7,482.5 '/>
		<polygon fill = 'rgb( 31, 120, 180)' fill-opacity = '0.250000' points = '288.7,482.5 288.7,662.4 290.6,662.4 290.6,480.9 '/>
		<polygon fill = 'rgb( 31, 120, 180)' fill-opacity = '0.250000' points = '290.6,480.9 290.6,662.4 292.4,662.4 292.4,479.3 '/>
		<polygon fill = 'rgb( 31, 120, 180)' fill-opacity = '0.250000' points = '292.4,479.3 292.4,662.4 294.3,662.4 294.3,477.6 '/>
		<polygon fill = 'rgb( 31, 120, 180)' fill-opacity = '0.250000' points = '294.3,477.6 294.3,662.4 296.1,662.4 296.1,475.8 '/>
		<polygon fill = 'rgb( 31, 120, 180)' fill-opacity = '0.250000' points = '296.1,475.8 296.1,662.4 298.0,662.4 298.0,473.9 '/>
		<polygon fill = 'rgb( 31, 120, 180)' fill-opacity = '0.250000' points = '298.0,473.9 298.0,662.4 299.8,662.4 299.8,472.0 '/>
		<polygon fill = 'rgb( 31, 120, 180)' fill-opacity = '0.250000' points = '299.8,472.0 299.8,662.4 301.7,662.4 301.7,470.0 '/>
		<polygon fill = 'rgb( 31, 120, 180)' fill-opacity = '0.250000' points = '301.7,470.0 301.7,662.4 303.6,662.4 303.6,467.9 '/>
		<polygon fill = 'rgb( 31, 120, 180)' fill-opacity = '0.250000' points = '303.6,467.9 303.6,662.4 305.4,662.4 305.4,465.7 '/>
		<polygon fill = 'rgb( 31, 120, 180)' fill-opacity = '0.250000' points = '305.4,465.7 305.4,662.4 307.3,662.4 307.3,463.4 '/>
		<polygon fill = 'rgb( 31, 120, 180)' fill-opacity = '0.250000' points = '307.3,463.4 307.3,662.4 309.1,662.4 309.1,461.0 '/>
		<polygon fill = 'rgb( 31, 120, 180)' fill-opacity = '0.250000' points = '309.1,461.0 309.1,662.4 311.0,662.4 311.0,458.5 '/>
		<polygon fill = 'rgb( 31, 120, 180)' fill-opacity = '0.250000' points = '311.0,458.5 311.0,662.4 312.8,662.4 312.8,455.9 '/>
		<polygon fill = 'rgb( 31, 120, 180)' fill-opacity = '0.250000' points = '312.8,455.9 312.8,662.4 314.7,662.4 314.7,453.2 '/>
		<polygon fill = 'rgb( 31, 120, 180)' fill-opacity = '0.250000' points = '314.7,453.2 314.7,662.4 316.5,662.4 316.5,450.3 '/>
		<polygon fill = 'rgb( 31, 120, 180)' fill-opacity = '0.250000' points = '316.5,450.3 316.5,662.4 318.4,662.4 318.4,447.3 '/>
		<polygon fill = 'rgb( 31, 120, 180)' fill-opacity = '0.250000' points = '318.4,447.3 318.4,662.4 320.2,662.4 320.2,444.2 '/>
		<polygon fill = 'rgb( 31, 120, 180)' fill-opacity = '0.250000' points = '320.2,444.2 320.2,662.4 322.1,662.4 322.1,441.0 '/>
		<polygon fill = 'rgb( 31, 120, 180)' fill-opacity = '0.250000' points = '322.1,441.0 322.1,662.4 323.9,662.4 323.9,437.6 '/>
		<polygon fill = 'rgb( 31, 120, 180)' fill-opacity = '0.250000' points = '323.9,437.6 323.9,662.4 325.8,662.4 325.8,434.2 '/>
		<polygon fill = 'rgb( 31, 120, 180)' fill-opacity = '0.250000' points = '325.8,434.2 325.8,662.4 327.7,662.4 327.7,430.5 '/>
		<polygon fill = 'rgb( 31, 120, 180)' fill-opacity = '0.250000' points = '327.7,430.5 327.7,662.4 329.5,662.4 329.5,426.8 '/>
		<polygon fill = 'rgb( 31, 120, 180)' fill-opacity = '0.250000' points = '329.5,426.8 329.5,662.4 331.4,662.4 331.4,422.9 '/>
		<polygon fill = 'rgb( 31, 120, 180)' fill-opacity = '0.250000' points = '331.4,422.9 331.4,662.4 333.2,662.4 333.2,419.0 '/>
		<polygon fill = 'rgb( 31, 120, 180)' fill-opacity = '0.250000' points = '333.2,419.0 333.2,662.4 335.1,662.4 335.1,414.9 '/>
		<polygon fill = 'rgb( 31, 120, 180)' fill-opacity = '0.250000' points = '335.1,414.9 335.1,662.4 336.9,662.4 336.9,410.7 '/>
		<polygon fill = 'rgb( 31, 120, 180)' fill-opacity = '0.250000' points = '336.9,410.7 336.9,662.4 338.8,662.4 338.8,406.5 '/>
		<polygon fill = 'rgb( 31, 120, 180)' fill-opacity = '0.250000' points = '338.8,406.5 338.8,662.4 340.6,662.4 340.6,402.1 '/>
		<polygon fill = 'rgb( 31, 120, 180)' fill-opacity = '0.250000' points = '340.6,402.1 340.6,662.4 342.5,662.4 342.5,397.7 '/>
		<polygon fill = 'rgb( 31, 120, 180)' fill-opacity = '0.250000' points = '342.5,397.7 342.5,662.4 344.3,662.4 344.3,393.2 '/>
		<polygon fill = 'rgb( 31, 120, 180)' fill-opacity = '0.250000' points = '344.3,393.2 344.3,662.4 346.2,662.4 346.2,388.6 '/>
		<polygon fill = 'rgb( 31, 120, 180)' fill-opacity = '0.250000' points = '346.2,388.6 346.2,662.4 348.0,662.4 348.0,384.0 '/>
		<polygon fill = 'rgb( 31, 120, 180)' fill-opacity = '0.250000' points = '348.0,384.0 348.0,662.4 349.9,662.4 349.9,379.3 '/>
		<polygon fill = 'rgb( 31, 120, 180)' fill-opacity = '0.250000' points = '349.9,379.3 349.9,662.4 351.8,662.4 351.8,374.6 '/>
		<polygon fill = 'rgb( 31, 120, 180)' fill-opacity = '0.250000' points = '351.8,374.6 351.8,662.4 353.6,662.4 353.6,369.9 '/>
		<polygon fill = 'rgb( 31, 120, 180)' fill-opacity = '0.250000' points = '353.6,369.9 353.6,662.4 355.5,662.4 355.5,365.2 '/>
		<polygon fill = 'rgb( 31, 120, 180)' fill-opacity = '0.250000' points = '355.5,365.2 355.5,662.4 357.3,662.4 357.3,360.4 '/>
		<polygon fill = 'rgb( 31, 120, 180)' fill-opacity = '0.250000' points = '357.3,360.4 357.3,662.4 359.2,662.4 359.2,355.6 '/>
		<polygon fill = 'rgb( 31, 120, 180)' fill-opacity = '0.250000' points = '359.2,355.6 359.2,662.4 361.0,662.4 361.0,350.8 '/>
		<polygon fill = 'rgb( 31, 120, 180)' fill-opacity = '0.250000' points = '361.0,350.8 361.0,662.4 362.9,662.4 362.9,346.0 '/>
		<polygon fill = 'rgb( 31, 120, 180)' fill-opacity = '0.250000' points = '362.9,346.0 362.9,662.4 364.7,662.4 364.7,341.2 '/>
		<polygon fill = 'rgb( 31, 120, 180)' fill-opacity = '0.250000' points = '364.7,341.2 364.7,662.4 366.6,662.4 366.6,336.4 '/>
		<polygon fill = 'rgb( 31, 120, 180)' fill-opacity = '0.250000' points = '366.6,336.4 366.6,662.4 368.4,662.4 368.4,331.7 '/>
		<polygon fill = 'rgb( 31, 120, 180)' fill-opacity = '0.250000' points = '368.4,331.7 368.4,662.4 370.3,662.4 370.3,326.9 '/>
		<polygon fill = 'rgb( 31, 120, 180)' fill-opacity = '0.250000' points = '370.3,326.9 370.3,662.4 372.1,662.4 372.1,322.2 '/>
		<polygon fill = 'rgb( 31, 120, 180)' fill-opacity = '0.250000' points = '372.1,322.2 372.1,662.4 374.0,662.4 374.0,317.5 '/>
		<polygon fill = 'rgb( 31, 120, 180)' fill-opacity = '0.250000' points = '374.0,317.5 374.0,662.4 375.9,662.4 375.9,312.8 '/>
		<polygon fill = 'rgb( 31, 120, 180)' fill-opacity = '0.250000' points = '375.9,312.8 375.9,662.4 377.7,662.4 377.7,308.2 '/>
		<polygon fill = 'rgb( 31, 120, 180)' fill-opacity = '0.250000' points = '377.7,308.2 377.7,662.4 379.6,662.4 379.6,303.6 '/>
		<polygon fill = 'rgb( 31, 120, 180)' fill-opacity = '0.250000' points = '379.6,303.6 379.6,662.4 381.4,662.4 381.4,299.1 '/>
		<polygon fill = 'rgb( 31, 120, 180)' fill-opacity = '0.250000' points = '381.4,299.1 381.4,662.4 383.3,662.4 383.3,294.7 '/>
		<polygon fill = 'rgb( 31, 120, 180)' fill-opacity = '0.250000' points = '383.3,294.7 383.3,662.4 385.1,662.4 385.1,290.4 '/>
		<polygon fill = 'rgb( 31, 120, 180)' fill-opacity = '0.250000' points = '385.1,290.4 385.1,662.4 387.0,662.4 387.0,286.2 '/>
		<polygon fill = 'rgb( 31, 120, 180)' fill-opacity = '0.250000' points = '387.0,286.2 387.0,662.4 388.8,662.4 388.8,282.1 '/>
		<polygon fill = 'rgb( 31, 120, 180)' fill-opacity = '0.250000' points = '388.8,282.1 388.8,662.4 390.7,662.4 390.7,278.1 '/>
		<polygon fill = 'rgb( 31, 120, 180)' fill-opacity = '0.250000' points = '390.7,278.1 390.7,662.4 392.5,662.4 392.5,274.2 '/>
		<polygon fill = 'rgb( 31, 120, 180)' fill-opacity = '0.250000' points = '392.5,274.2 392.5,662.4 394.4,662.4 394.4,270.5 '/>
		<polygon fill = 'rgb( 31, 120, 180)' fill-opacity = '0.250000' points = '394.4,270.5 394.4,662.4 396.2,662.4 396.2,266.9 '/>
		<polygon fill = 'rgb( 31, 120, 180)' fill-opacity = '0.250000' points = '396.2,266.9 396.2,662.4 398.1,662.4 398.1,263.5 '/>
		<polygon fill = 'rgb( 31, 120, 180)' fill-opacity = '0.250000' points = '398.1,263.5 398.1,662.4 400.0,662.4 400.0,260.2 '/>
		<polygon fill = 'rgb( 31, 120, 180)' fill-opacity = '0.250000' points = '400.0,260.2 400.0,662.4 401.8,662.4 401.8,257.1 '/>
		<polygon fill = 'rgb( 31, 120, 180)' fill-opacity = '0.250000' points = '401.8,257.1 401.8,662.4 403.7,662.4 403.7,254.1 '/>
		<polygon fill = 'rgb( 31, 120, 180)' fill-opacity = '0.250000' points = '403.7,254.1 403.7,662.4 405.5,662.4 405.5,251.4 '/>
		<polygon fill = 'rgb( 31, 120, 180)' fill-opacity = '0.250000' points = '405.5,251.4 405.5,662.4 407.4,662.4 407.4,248.7 '/>
		<polygon fill = 'rgb( 31, 120, 180)' fill-opacity = '0.250000' points = '407.4,248.7 407.4,662.4 409.2,662.4 409.2,246.3 '/>
		<polygon fill = 'rgb( 31, 120, 180)' fill-opacity = '0.250000' points = '409.2,246.3 409.2,662.4 411.1,662.4 411.1,244.0 '/>
		<polygon fill = 'rgb( 31, 120, 180)' fill-opacity = '0.250000' points = '411.1,244.0 411.1,662.4 412.9,662.4 412.9,241.9 '/>
		<polygon fill = 'rgb( 31, 120, 180)' fill-opacity = '0.250000' points = '412.9,241.9 412.9,662.4 414.8,662.4 414.8,239.9 '/>
		<polygon fill = 'rgb( 31, 120, 180)' fill-opacity = '0.250000' points = '414.8,239.9 414.8,662.4 416.6,662.4 416.6,238.0 '/>
		<polygon fill = 'rgb( 31, 120, 180)' fill-opacity = '0.250000' points = '416.6,238.0 416.6,662.4 418.5,662.4 418.5,236.3 '/>
		<polygon fill = 'rgb( 31, 120, 180)' fill-opacity = '0.250000' points = '418.5,236.3 418.5,662.4 420.3,662.4 420.3,234.7 '/>
		<polygon fill = 'rgb( 31, 120, 180)' fill-opacity = '0.250000' points = '420.3,234.7 420.3,662.4 422.2,662.4 422.2,233.2 '/>
		<polygon fill = 'rgb( 31, 120, 180)' fill-opacity = '0.250000' points = '422.2,233.2 422.2,662.4 424.1,662.4 424.1,231.8 '/>
		<polygon fill = 'rgb( 31, 120, 180)' fill-opacity = '0.250000' points = '424.1,231.8 424.1,662.4 425.9,662.4 425.9,230.5 '/>
		<polygon fill = 'rgb( 31, 120, 180)' fill-opacity = '0.250000' points = '425.9,230.5 425.9,662.4 427.8,662.4 427.8,229.3 '/>
		<polygon fill = 'rgb( 31, 120, 180)' fill-opacity = '0.250000' points = '427.8,229.3 427.8,662.4 429.6,662.4 429.6,228.1 '/>
		<polygon fill = 'rgb( 31, 120, 180)' fill-opacity = '0.250000' points = '429.6,228.1 429.6,662.4 431.5,662.4 431.5,227.1 '/>
		<polygon fill = 'rgb( 31, 120, 180)' fill-opacity = '0.250000' points = '431.5,227.1 431.5,662.4 433.3,662.4 433.3,226.0 '/>
		<polygon fill = 'rgb( 31, 120, 180)' fill-opacity = '0.250000' points = '433.3,226.0 433.3,662.4 435.2,662.4 435.2,225.1 '/>
		<polygon fill = 'rgb( 31, 120, 180)' fill-opacity = '0.250000' points = '435.2,225.1 435.2,662.4 437.0,662.4 437.0,224.2 '/>
		<polygon fill = 'rgb( 31, 120, 180)' fill-opacity = '0.250000' points = '437.0,224.2 437.0,662.4 438.9,662.4 438.9,223.3 '/>
		<polygon fill = 'rgb( 31, 120, 180)' fill-opacity = '0.250000' points = '438.9,223.3 438.9,662.4 440.7,662.4 440.7,222.5 '/>
		<polygon fill = 'rgb( 31, 120, 180)' fill-opacity = '0.250000' points = '440.7,222.5 440.7,662.4 442.6,662.4 442.6,221.7 '/>
		<polygon fill = 'rgb( 31, 120, 180)' fill-opacity = '0.250000' points = '442.6,221.7 442.6,662.4 444.5,662.4 444.5,221.0 '/>
		<polygon fill = 'rgb( 31, 120, 180)' fill-opacity = '0.250000' points = '444.5,221.0 444.5,662.4 446.3,662.4 446.3,220.3 '/>
		<polygon fill = 'rgb( 31, 120, 180)' fill-opacity = '0.250000' points = '446.3,220.3 446.3,662.4 448.2,662.4 448.2,219.6 '/>
		<polygon fill = 'rgb( 31, 120, 180)' fill-opacity = '0.250000' points = '448.2,219.6 448.2,662.4 450.0,662.4 450.0,219.0 '/>
		<polygon fill = 'rgb( 31, 120, 180)' fill-opacity = '0.250000' points = '450.0,219.0 450.0,662.4 451.9,662.4 451.9,218.5 '/>
		<polygon fill = 'rgb( 31, 120, 180)' fill-opacity = '0.250000' points = '451.9,218.5 451.9,662.4 453.7,662.4 453.7,218.0 '/>
		<polygon fill = 'rgb( 31, 120, 180)' fill-opacity = '0.250000' points = '453.7,218.0 453.7,662.4 455.6,662.4 455.6,217.6 '/>
		<polygon fill = 'rgb( 31, 120, 180)' fill-opacity = '0.250000' points = '455.6,217.6 455.6,662.4 457.4,662.4 457.4,217.3 '/>
		<polygon fill = 'rgb( 31, 120, 180)' fill-opacity = '0.250000' points = '457.4,217.3 457.4,662.4 459.3,662.4 459.3,217.0 '/>
		<polygon fill = 'rgb( 31, 120, 180)' fill-opacity = '0.250000' points = '459.3,217.0 459.3,662.4 461.1,662.4 461.1,216.9 '/>
		<polygon fill = 'rgb( 31, 120, 180)' fill-opacity = '0.250000' points = '461.1,216.9 461.1,662.4 463.0,662.4 463.0,216.8 '/>
		<polygon fill = 'rgb( 31, 120, 180)' fill-opacity = '0.250000' points = '463.0,216.8 463.0,662.4 464.8,662.4 464.8,216.8 '/>
		<polygon fill = 'rgb( 31, 120, 180)' fill-opacity = '0.250000' points = '464.8,216.8 464.8,662.4 466.7,662.4 466.7,216.9 '/>
		<polygon fill = 'rgb( 31, 120, 180)' fill-opacity = '0.250000' points = '466.7,216.9 466.7,662.4 468.6,662.4 468.6,217.1 '/>
		<polygon fill = 'rgb( 31, 120, 180)' fill-opacity = '0.250000' points = '468.6,217.1 468.6,662.4 470.4,662.4 470.4,217.3 '/>
		<polygon fill = 'rgb( 31, 120, 180)' fill-opacity = '0.250000' points = '470.4,217.3 470.4,662.4 472.3,662.4 472.3,217.7 '/>
		<polygon fill = 'rgb( 31, 120, 180)' fill-opacity = '0.250000' points = '472.3,217.7 472.3,662.4 474.1,662.4 474.1,218.1 '/>
		<polygon fill = 'rgb( 31, 120, 180)' fill-opacity = '0.250000' points = '474.1,218.1 474.1,662.4 476.0,662.4 476.0,218.6 '/>
		<polygon fill = 'rgb( 31, 120, 180)' fill-opacity = '0.250000' points = '476.0,218.6 476.0,662.4 477.8,662.4 477.8,219.1 '/>
		<polygon fill = 'rgb( 31, 120, 180)' fill-opacity = '0.250000' points = '477.8,219.1 477.8,662.4 479.7,662.4 479.7,219.7 '/>
		<polygon fill = 'rgb( 31, 120, 180)' fill-opacity = '0.250000' points = '479.7,219.7 479.7,662.4 481.5,662.4 481.5,220.3 '/>
		<polygon fill = 'rgb( 31, 120, 180)' fill-opacity = '0.250000' points = '481.5,220.3 481.5,662.4 483.4,662.4 483.4,220.9 '/>
		<polygon fill = 'rgb( 31, 120, 180)' fill-opacity = '0.250000' points = '483.4,220.9 483.4,662.4 485.2,662.4 485.2,221.4 '/>
		<polygon fill = 'rgb( 31, 120, 180)' fill-opacity = '0.250000' points = '485.2,221.4 485.2,662.4 487.1,662.4 487.1,221.9 '/>
		<polygon fill = 'rgb( 31, 120, 180)' fill-opacity = '0.250000' points = '487.1,221.9 487.1,662.4 488.9,662.4 488.9,222.3 '/>
		<polygon fill = 'rgb( 31, 120, 180)' fill-opacity = '0.250000' points = '488.9,222.3 488.9,662.4 490.8,662.4 490.8,222.6 '/>
		<polygon fill = 'rgb( 31, 120, 180)' fill-opacity = '0.250000' points = '490.8,222.6 490.8,662.4 492.7,662.4 492.7,222.8 '/>
		<polygon fill = 'rgb( 31, 120, 180)' fill-opacity = '0.250000' points = '492.7,222.8 492.7,662.4 494.5,662.4 494.5,222.8 '/>
		<polygon fill = 'rgb( 31, 120, 180)' fill-opacity = '0.250000' points = '494.5,222.8 494.5,662.4 496.4,662.4 496.4,222.6 '/>
		<polygon fill = 'rgb( 31, 120, 180)' fill-opacity = '0.250000' points = '496.4,222.6 496.4,662.4 498.2,662.4 498.2,222.3 '/>
		<polygon fill = 'rgb( 31, 120, 180)' fill-opacity = '0.250000' points = '498.2,222.3 498.2,662.4 500.1,662.4 500.1,221.7 '/>
		<polygon fill = 'rgb( 31, 120, 180)' fill-opacity = '0.250000' points = '500.1,221.7 500.1,662.4 501.9,662.4 501.9,221.0 '/>
		<polygon fill = 'rgb( 31, 120, 180)' fill-opacity = '0.250000' points = '501.9,221.0 501.9,662.4 503.8,662.4 503.8,219.9 '/>
		<polygon fill = 'rgb( 31, 120, 180)' fill-opacity = '0.250000' points = '503.8,219.9 503.8,662.4 505.6,662.4 505.6,218.6 '/>
		<polygon fill = 'rgb( 31, 120, 180)' fill-opacity = '0.250000' points = '505.6,218.6 505.6,662.4 507.5,662.4 507.5,217.1 '/>
		<polygon fill = 'rgb( 31, 120, 180)' fill-opacity = '0.250000' points = '507.5,217.1 507.5,662.4 509.3,662.4 509.3,215.3 '/>
		<polygon fill = 'rgb( 31, 120, 180)' fill-opacity = '0.250000' points = '509.3,215.3 509.3,662.4 511.2,662.4 511.2,213.2 '/>
		<polygon fill = 'rgb( 31, 120, 180)' fill-opacity = '0.250000' points = '511.2,213.2 511.2,662.4 513.0,662.4 513.0,210.8 '/>
		<polygon fill = 'rgb( 31, 120, 180)' fill-opacity = '0.250000' points = '513.0,210.8 513.0,662.4 514.9,662.4 514.9,208.2 '/>
		<polygon fill = 'rgb( 31, 120, 180)' fill-opacity = '0.250000' points = '514.9,208.2 514.9,662.4 516.8,662.4 516.8,205.4 '/>
		<polygon fill = 'rgb( 31, 120, 180)' fill-opacity = '0.250000' points = '516.8,205.4 516.8,662.4 518.6,662.4 518.6,202.3 '/>
		<polygon fill = 'rgb( 31, 120, 180)' fill-opacity = '0.250000' points = '518.6,202.3 518.6,662.4 520.5,662.4 520.5,199.0 '/>
		<polygon fill = 'rgb( 31, 120, 180)' fill-opacity = '0.250000' points = '520.5,199.0 520.5,662.4 522.3,662.4 522.3,195.5 '/>
		<polygon fill = 'rgb( 31, 120, 180)' fill-opacity = '0.250000' points = '522.3,195.5 522.3,662.4 524.2,662.4 524.2,191.8 '/>
		<polygon fill = 'rgb( 31, 120, 180)' fill-opacity = '0.250000' points = '524.2,191.8 524.2,662.4 526.0,662.4 526.0,187.9 '/>
		<polygon fill = 'rgb( 31, 120, 180)' fill-opacity = '0.250000' points = '526.0,187.9 526.0,662.4 527.9,662.4 527.9,183.9 '/>
		<polygon fill = 'rgb( 31, 120, 180)' fill-opacity = '0.250000' points = '527.9,183.9 527.9,662.4 529.7,662.4 529.7,179.9 '/>
		<polygon fill = 'rgb( 31, 120, 180)' fill-opacity = '0.250000' points = '529.7,179.9 529.7,662.4 531.6,662.4 531.6,175.7 '/>
		<polygon fill = 'rgb( 31, 120, 180)' fill-opacity = '0.250000' points = '531.6,175.7 531.6,662.4 533.4,662.4 533.4,171.5 '/>
		<polygon fill = 'rgb( 31, 120, 180)' fill-opacity = '0.250000' points = '533.4,171.5 533.4,662.4 535.3,662.4 535.3,167.3 '/>
		<polygon fill = 'rgb( 31, 120, 180)' fill-opacity = '0.250000' points = '535.3,167.3 535.3,662.4 537.1,662.4 537.1,163.1 '/>
		<polygon fill = 'rgb( 31, 120, 180)' fill-opacity = '0.250000' points = '537.1,163.1 537.1,662.4 539.0,662.4 539.0,159.0 '/>
		<polygon fill = 'rgb( 31, 120, 180)' fill-opacity = '0.250000' points = '539.0,159.0 539.0,662.4 540.9,662.4 540.9,154.9 '/>
		<polygon fill = 'rgb( 31, 120, 180)' fill-opacity = '0.250000' points = '540.9,154.9 540.9,662.4 542.7,662.4 542.7,151.0 '/>
		<polygon fill = 'rgb( 31, 120, 180)' fill-opacity = '0.250000' points = '542.7,151.0 542.7,662.4 544.6,662.4 544.6,147.2 '/>
		<polygon fill = 'rgb( 31, 120, 180)' fill-opacity = '0.250000' points = '544.6,147.2 544.6,662.4 546.4,662.4 546.4,143.5 '/>
		<polygon fill = 'rgb( 31, 120, 180)' fill-opacity = '0.250000' points = '546.4,143.5 546.4,662.4 548.3,662.4 548.3,140.0 '/>
		<polygon fill = 'rgb( 31, 120, 180)' fill-opacity = '0.250000' points = '548.3,140.0 548.3,662.4 550.1,662.4 550.1,136.8 '/>
		<polygon fill = 'rgb( 31, 120, 180)' fill-opacity = '0.250000' points = '550.1,136.8 550.1,662.4 552.0,662.4 552.0,133.7 '/>
		<polygon fill = 'rgb( 31, 120, 180)' fill-opacity = '0.250000' points = '552.0,133.7 552.0,662.4 553.8,662.4 553.8,130.9 '/>
		<polygon fill = 'rgb( 31, 120, 180)' fill-opacity = '0.250000' points = '553.8,130.9 553.8,662.4 555.7,662.4 555.7,128.3 '/>
		<polygon fill = 'rgb( 31, 120, 180)' fill-opacity = '0.250000' points = '555.7,128.3 555.7,662.4 557.5,662.4 557.5,126.0 '/>
		<polygon fill = 'rgb( 31, 120, 180)' fill-opacity = '0.250000' points = '557.5,126.0 557.5,662.4 559.4,662.4 559.4,123.9 '/>
		<polygon fill = 'rgb( 31, 120, 180)' fill-opacity = '0.250000' points = '559.4,123.9 559.4,662.4 561.2,662.4 561.2,122.1 '/>
		<polygon fill = 'rgb( 31, 120, 180)' fill-opacity = '0.250000' points = '561.2,122.1 561.2,662.4 563.1,662.4 563.1,120.5 '/>
		<polygon fill = 'rgb( 31, 120, 180)' fill-opacity = '0.250000' points = '563.1,120.5 563.1,662.4 565.0,662.4 565.0,119.3 '/>
		<polygon fill = 'rgb( 31, 120, 180)' fill-opacity = '0.250000' points = '565.0,119.3 565.0,662.4 566.8,662.4 566.8,118.2 '/>
		<polygon fill = 'rgb( 31, 120, 180)' fill-opacity = '0.250000' points = '566.8,118.2 566.8,662.4 568.7,662.4 568.7,117.4 '/>
		<polygon fill = 'rgb( 31, 120, 180)' fill-opacity = '0.250000' points = '568.7,117.4 568.7,662.4 570.5,662.4 570.5,116.9 '/>
		<polygon fill = 'rgb( 31, 120, 180)' fill-opacity = '0.250000' points = '570.5,116.9 570.5,662.4 572.4,662.4 572.4,116.6 '/>
		<polygon fill = 'rgb( 31, 120, 180)' fill-opacity = '0.250000' points = '572.4,116.6 572.4,662.4 574.2,662.4 574.2,116.5 '/>
		<polygon fill = 'rgb( 31, 120, 180)' fill-opacity = '0.250000' points = '574.2,116.5 574.2,662.4 576.1,662.4 576.1,116.6 '/>
		<polygon fill = 'rgb( 31, 120, 180)' fill-opacity = '0.250000' points = '576.1,116.6 576.1,662.4 577.9,662.4 577.9,117.0 '/>
		<polygon fill = 'rgb( 31, 120, 180)' fill-opacity = '0.250000' points = '577.9,117.0 577.9,662.4 579.8,662.4 579.8,117.5 '/>
		<polygon fill = 'rgb( 31, 120, 180)' fill-opacity = '0.250000' points = '579.8,117.5 579.8,662.4 581.6,662.4 581.6,118.3 '/>
		<polygon fill = 'rgb( 31, 120, 180)' fill-opacity = '0.250000' points = '581.6,118.3 581.6,662.4 583.5,662.4 583.5,119.2 '/>
		<polygon fill = 'rgb( 31, 120, 180)' fill-opacity = '0.250000' points = '583.5,119.2 583.5,662.4 585.3,662.4 585.3,120.3 '/>
		<polygon fill = 'rgb( 31, 120, 180)' fill-opacity = '0.250000' points = '585.3,120.3 585.3,662.4 587.2,662.4 587.2,121.6 '/>
		<polygon fill = 'rgb( 31, 120, 180)' fill-opacity = '0.250000' points = '587.2,121.6 587.2,662.4 589.1,662.4 589.1,123.1 '/>
		<polygon fill = 'rgb( 31, 120, 180)' fill-opacity = '0.250000' points = '589.1,123.1 589.1,662.4 590.9,662.4 590.9,124.7 '/>
		<polygon fill = 'rgb( 31, 120, 180)' fill-opacity = '0.250000' points = '590.9,124.7 590.9,662.4 592.8,662.4 592.8,126.5 '/>
		<polygon fill = 'rgb( 31, 120, 180)' fill-opacity = '0.250000' points = '592.8,126.5 592.8,662.4 594.6,662.4 594.6,128.5 '/>
		<polygon fill = 'rgb( 31, 120, 180)' fill-opacity = '0.250000' points = '594.6,128.5 594.6,662.4 596.5,662.4 596.5,130.7 '/>
		<polygon fill = 'rgb( 31, 120, 180)' fill-opacity = '0.250000' points = '596.5,130.7 596.5,662.4 598.3,662.4 598.3,133.0 '/>
		<polygon fill = 'rgb( 31, 120, 180)' fill-opacity = '0.250000' points = '598.3,133.0 598.3,662.4 600.2,662.4 600.2,135.4 '/>
		<polygon fill = 'rgb( 31, 120, 180)' fill-opacity = '0.250000' points = '600.2,135.4 600.2,662.4 602.0,662.4 602.0,138.0 '/>
		<polygon fill = 'rgb( 31, 120, 180)' fill-opacity = '0.250000' points = '602.0,138.0 602.0,662.4 603.9,662.4 603.9,140.7 '/>
		<polygon fill = 'rgb( 31, 120, 180)' fill-opacity = '0.250000' points = '603.9,140.7 603.9,662.4 605.7,662.4 605.7,143.6 '/>
		<polygon fill = 'rgb( 31, 120, 180)' fill-opacity = '0.250000' points = '605.7,143.6 605.7,662.4 607.6,662.4 607.6,146.6 '/>
		<polygon fill = 'rgb( 31, 120, 180)' fill-opacity = '0.250000' points = '607.6,146.6 607.6,662.4 609.4,662.4 609.4,149.6 '/>
		<polygon fill = 'rgb( 31, 120, 180)' fill-opacity = '0.250000' points = '609.4,149.6 609.4,662.4 611.3,662.4 611.3,152.8 '/>
		<polygon fill = 'rgb( 31, 120, 180)' fill-opacity = '0.250000' points = '611.3,152.8 611.3,662.4 613.2,662.4 613.2,156.1 '/>
		<polygon fill = 'rgb( 31, 120, 180)' fill-opacity = '0.250000' points = '613.2,156.1 613.2,662.4 615.0,662.4 615.0,159.4 '/>
		<polygon fill = 'rgb( 31, 120, 180)' fill-opacity = '0.250000' points = '615.0,159.4 615.0,662.4 616.9,662.4 616.9,162.7 '/>
		<polygon fill = 'rgb( 31, 120, 180)' fill-opacity = '0.250000' points = '616.9,162.7 616.9,662.4 618.7,662.4 618.7,166.1 '/>
		<polygon fill = 'rgb( 31, 120, 180)' fill-opacity = '0.250000' points = '618.7,166.1 618.7,662.4 620.6,662.4 620.6,169.4 '/>
		<polygon fill = 'rgb( 31, 120, 180)' fill-opacity = '0.250000' points = '620.6,169.4 620.6,662.4 622.4,662.4 622.4,172.8 '/>
		<polygon fill = 'rgb( 31, 120, 180)' fill-opacity = '0.250000' points = '622.4,172.8 622.4,662.4 624.3,662.4 624.3,176.1 '/>
		<polygon fill = 'rgb( 31, 120, 180)' fill-opacity = '0.250000' points = '624.3,176.1 624.3,662.4 626.1,662.4 626.1,179.3 '/>
		<polygon fill = 'rgb( 31, 120, 180)' fill-opacity = '0.250000' points = '626.1,179.3 626.1,662.4 628.0,662.4 628.0,182.5 '/>
		<polygon fill = 'rgb( 31, 120, 180)' fill-opacity = '0.250000' points = '628.0,182.5 628.0,662.4 629.8,662.4 629.8,185.6 '/>
		<polygon fill = 'rgb( 31, 120, 180)' fill-opacity = '0.250000' points = '629.8,185.6 629.8,662.4 631.7,662.4 631.7,188.5 '/>
		<polygon fill = 'rgb( 31, 120, 180)' fill-opacity = '0.250000' points = '631.7,188.5 631.7,662.4 633.5,662.4 633.5,191.3 '/>
		<polygon fill = 'rgb( 31, 120, 180)' fill-opacity = '0.250000' points = '633.5,191.3 633.5,662.4 635.4,662.4 635.4,193.9 '/>
		<polygon fill = 'rgb( 31, 120, 180)' fill-opacity = '0.250000' points = '635.4,193.9 635.4,662.4 637.3,662.4 637.3,196.4 '/>
		<polygon fill = 'rgb( 31, 120, 180)' fill-opacity = '0.250000' points = '637.3,196.4 637.3,662.4 639.1,662.4 639.1,198.6 '/>
		<polygon fill = 'rgb( 31, 120, 180)' fill-opacity = '0.250000' points = '639.1,198.6 639.1,662.4 641.0,662.4 641.0,200.7 '/>
		<polygon fill = 'rgb( 31, 120, 180)' fill-opacity = '0.250000' points = '641.0,200.7 641.0,662.4 642.8,662.4 642.8,202.6 '/>
		<polygon fill = 'rgb( 31, 120, 180)' fill-opacity = '0.250000' points = '642.8,202.6 642.8,662.4 644.7,662.4 644.7,204.3 '/>
		<polygon fill = 'rgb( 31, 120, 180)' fill-opacity = '0.250000' points = '644.7,204.3 644.7,662.4 646.5,662.4 646.5,205.8 '/>
		<polygon fill = 'rgb( 31, 120, 180)' fill-opacity = '0.250000' points = '646.5,205.8 646.5,662.4 648.4,662.4 648.4,207.1 '/>
		<polygon fill = 'rgb( 31, 120, 180)' fill-opacity = '0.250000' points = '648.4,207.1 648.4,662.4 650.2,662.4 650.2,208.2 '/>
		<polygon fill = 'rgb( 31, 120, 180)' fill-opacity = '0.250000' points = '650.2,208.2 650.2,662.4 652.1,662.4 652.1,209.2 '/>
		<polygon fill = 'rgb( 31, 120, 180)' fill-opacity = '0.250000' points = '652.1,209.2 652.1,662.4 653.9,662.4 653.9,210.0 '/>
		<polygon fill = 'rgb( 31, 120, 180)' fill-opacity = '0.250000' points = '653.9,210.0 653.9,662.4 655.8,662.4 655.8,210.6 '/>
		<polygon fill = 'rgb( 31, 120, 180)' fill-opacity = '0.250000' points = '655.8,210.6 655.8,662.4 657.6,662.4 657.6,211.1 '/>
		<polygon fill = 'rgb( 31, 120, 180)' fill-opacity = '0.250000' points = '657.6,211.1 657.6,662.4 659.5,662.4 659.5,211.4 '/>
		<polygon fill = 'rgb( 31, 120, 180)' fill-opacity = '0.250000' points = '659.5,211.4 659.5,662.4 661.4,662.4 661.4,211.7 '/>
		<polygon fill = 'rgb( 31, 120, 180)' fill-opacity = '0.250000' points = '661.4,211.7 661.4,662.4 663.2,662.4 663.2,211.9 '/>
		<polygon fill = 'rgb( 31, 120, 180)' fill-opacity = '0.250000' points = '663.2,211.9 663.2,662.4 665.1,662.4 665.1,212.1 '/>
		<polygon fill = 'rgb( 31, 120, 180)' fill-opacity = '0.250000' points = '665.1,212.1 665.1,662.4 666.9,662.4 666.9,212.2 '/>
		<polygon fill = 'rgb( 31, 120, 180)' fill-opacity = '0.250000' points = '666.9,212.2 666.9,662.4 668.8,662.4 668.8,212.4 '/>
		<polygon fill = 'rgb( 31, 120, 180)' fill-opacity = '0.250000' points = '668.8,212.4 668.8,662.4 670.6,662.4 670.6,212.5 '/>
		<polygon fill = 'rgb( 31, 120, 180)' fill-opacity = '0.250000' points = '670.6,212.5 670.6,662.4 672.5,662.4 672.5,212.7 '/>
		<polygon fill = 'rgb( 31, 120, 180)' fill-opacity = '0.250000' points = '672.5,212.7 672.5,662.4 674.3,662.4 674.3,212.9 '/>
		<polygon fill = 'rgb( 31, 120, 180)' fill-opacity = '0.250000' points = '674.3,212.9 674.3,662.4 676.2,662.4 676.2,213.2 '/>
		<polygon fill = 'rgb( 31, 120, 180)' fill-opacity = '0.250000' points = '676.2,213.2 676.2,662.4 678.0,662.4 678.0,213.6 '/>
		<polygon fill = 'rgb( 31, 120, 180)' fill-opacity = '0.250000' points = '678.0,213.6 678.0,662.4 679.9,662.4 679.9,214.1 '/>
		<polygon fill = 'rgb( 31, 120, 180)' fill-opacity = '0.250000' points = '679.9,214.1 679.9,662.4 681.8,662.4 681.8,214.8 '/>
		<polygon fill = 'rgb( 31, 120, 180)' fill-opacity = '0.250000' points = '681.8,214.8 681.8,662.4 683.6,662.4 683.6,215.5 '/>
		<polygon fill = 'rgb( 31, 120, 180)' fill-opacity = '0.250000' points = '683.6,215.5 683.6,662.4 685.5,662.4 685.5,216.5 '/>
		<polygon fill = 'rgb( 31, 120, 180)' fill-opacity = '0.250000' points = '685.5,216.5 685.5,662.4 687.3,662.4 687.3,217.5 '/>
		<polygon fill = 'rgb( 31, 120, 180)' fill-opacity = '0.250000' points = '687.3,217.5 687.3,662.4 689.2,662.4 689.2,218.8 '/>
		<polygon fill = 'rgb( 31, 120, 180)' fill-opacity = '0.250000' points = '689.2,218.8 689.2,662.4 691.0,662.4 691.0,220.2 '/>
		<polygon fill = 'rgb( 31, 120, 180)' fill-opacity = '0.250000' points = '691.0,220.2 691.0,662.4 692.9,662.4 692.9,221.8 '/>
		<polygon fill = 'rgb( 31, 120, 180)' fill-opacity = '0.250000' points = '692.9,221.8 692.9,662.4 694.7,662.4 694.7,223.5 '/>
		<polygon fill = 'rgb( 31, 120, 180)' fill-opacity = '0.250000' points = '694.7,223.5 694.7,662.4 696.6,662.4 696.6,225.4 '/>
		<polygon fill = 'rgb( 31, 120, 180)' fill-opacity = '0.250000' points = '696.6,225.4 696.6,662.4 698.4,662.4 698.4,227.5 '/>
		<polygon fill = 'rgb( 31, 120, 180)' fill-opacity = '0.250000' points = '698.4,227.5 698.4,662.4 700.3,662.4 700.3,229.7 '/>
		<polygon fill = 'rgb( 31, 120, 180)' fill-opacity = '0.250000' points = '700.3,229.7 700.3,662.4 702.1,662.4 702.1,232.1 '/>
		<polygon fill = 'rgb( 31, 120, 180)' fill-opacity = '0.250000' points = '702.1,232.1 702.1,662.4 704.0,662.4 704.0,234.6 '/>
		<polygon fill = 'rgb( 31, 120, 180)' fill-opacity = '0.250000' points = '704.0,234.6 704.0,662.4 705.9,662.4 705.9,237.3 '/>
		<polygon fill = 'rgb( 31, 120, 180)' fill-opacity = '0.250000' points = '705.9,237.3 705.9,662.4 707.7,662.4 707.7,240.1 '/>
		<polygon fill = 'rgb( 31, 120, 180)' fill-opacity = '0.250000' points = '707.7,240.1 707.7,662.4 709.6,662.4 709.6,243.0 '/>
		<polygon fill = 'rgb( 31, 120, 180)' fill-opacity = '0.250000' points = '709.6,243.0 709.6,662.4 711.4,662.4 711.4,246.1 '/>
		<polygon fill = 'rgb( 31, 120, 180)' fill-opacity = '0.250000' points = '711.4,246.1 711.4,662.4 713.3,662.4 713.3,249.2 '/>
		<polygon fill = 'rgb( 31, 120, 180)' fill-opacity = '0.250000' points = '713.3,249.2 713.3,662.4 715.1,662.4 715.1,252.5 '/>
		<polygon fill = 'rgb( 31, 120, 180)' fill-opacity = '0.250000' points = '715.1,252.5 715.1,662.4 717.0,662.4 717.0,255.9 '/>
		<polygon fill = 'rgb( 31, 120, 180)' fill-opacity = '0.250000' points = '717.0,255.9 717.0,662.4 718.8,662.4 718.8,259.4 '/>
		<polygon fill = 'rgb( 31, 120, 180)' fill-opacity = '0.250000' points = '718.8,259.4 718.8,662.4 720.7,662.4 720.7,262.9 '/>
		<polygon fill = 'rgb( 31, 120, 180)' fill-opacity = '0.250000' points = '720.7,262.9 720.7,662.4 722.5,662.4 722.5,266.5 '/>
		<polygon fill = 'rgb( 31, 120, 180)' fill-opacity = '0.250000' points = '722.5,266.5 722.5,662.4 724.4,662.4 724.4,270.3 '/>
		<polygon fill = 'rgb( 31, 120, 180)' fill-opacity = '0.250000' points = '724.4,270.3 724.4,662.4 726.2,662.4 726.2,274.1 '/>
		<polygon fill = 'rgb( 31, 120, 180)' fill-opacity = '0.250000' points = '726.2,274.1 726.2,662.4 728.1,662.4 728.1,277.9 '/>
		<polygon fill = 'rgb( 31, 120, 180)' fill-opacity = '0.250000' points = '728.1,277.9 728.1,662.4 730.0,662.4 730.0,281.9 '/>
		<polygon fill = 'rgb( 31, 120, 180)' fill-opacity = '0.250000' points = '730.0,281.9 730.0,662.4 731.8,662.4 731.8,285.9 '/>
		<polygon fill = 'rgb( 31, 120, 180)' fill-opacity = '0.250000' points = '731.8,285.9 731.8,662.4 733.7,662.4 733.7,290.0 '/>
		<polygon fill = 'rgb( 31, 120, 180)' fill-opacity = '0.250000' points = '733.7,290.0 733.7,662.4 735.5,662.4 735.5,294.1 '/>
		<polygon fill = 'rgb( 31, 120, 180)' fill-opacity = '0.250000' points = '735.5,294.1 735.5,662.4 737.4,662.4 737.4,298.3 '/>
		<polygon fill = 'rgb( 31, 120, 180)' fill-opacity = '0.250000' points = '737.4,298.3 737.4,662.4 739.2,662.4 739.2,302.6 '/>
		<polygon fill = 'rgb( 31, 120, 180)' fill-opacity = '0.250000' points = '739.2,302.6 739.2,662.4 741.1,662.4 741.1,306.9 '/>
		<polygon fill = 'rgb( 31, 120, 180)' fill-opacity = '0.250000' points = '741.1,306.9 741.1,662.4 742.9,662.4 742.9,311.2 '/>
		<polygon fill = 'rgb( 31, 120, 180)' fill-opacity = '0.250000' points = '742.9,311.2 742.9,662.4 744.8,662.4 744.8,315.5 '/>
		<polygon fill = 'rgb( 31, 120, 180)' fill-opacity = '0.250000' points = '744.8,315.5 744.8,662.4 746.6,662.4 746.6,319.9 '/>
		<polygon fill = 'rgb( 31, 120, 180)' fill-opacity = '0.250000' points = '746.6,319.9 746.6,662.4 748.5,662.4 748.5,324.2 '/>
		<polygon fill = 'rgb( 31, 120, 180)' fill-opacity = '0.250000' points = '748.5,324.2 748.5,662.4 750.3,662.4 750.3,328.5 '/>
		<polygon fill = 'rgb( 31, 120, 180)' fill-opacity = '0.250000' points = '750.3,328.5 750.3,662.4 752.2,662.4 752.2,332.8 '/>
		<polygon fill = 'rgb( 31, 120, 180)' fill-opacity = '0.250000' points = '752.2,332.8 752.2,662.4 754.1,662.4 754.1,337.1 '/>
		<polygon fill = 'rgb( 31, 120, 180)' fill-opacity = '0.250000' points = '754.1,337.1 754.1,662.4 755.9,662.4 755.9,341.2 '/>
		<polygon fill = 'rgb( 31, 120, 180)' fill-opacity = '0.250000' points = '755.9,341.2 755.9,662.4 757.8,662.4 757.8,345.3 '/>
		<polygon fill = 'rgb( 31, 120, 180)' fill-opacity = '0.250000' points = '757.8,345.3 757.8,662.4 759.6,662.4 759.6,349.3 '/>
		<polygon fill = 'rgb( 31, 120, 180)' fill-opacity = '0.250000' points = '759.6,349.3 759.6,662.4 761.5,662.4 761.5,353.2 '/>
		<polygon fill = 'rgb( 31, 120, 180)' fill-opacity = '0.250000' points = '761.5,353.2 761.5,662.4 763.3,662.4 763.3,356.9 '/>
		<polygon fill = 'rgb( 31, 120, 180)' fill-opacity = '0.250000' points = '763.3,356.9 763.3,662.4 765.2,662.4 765.2,360.6 '/>
		<polygon fill = 'rgb( 31, 120, 180)' fill-opacity = '0.250000' points = '765.2,360.6 765.2,662.4 767.0,662.4 767.0,364.1 '/>
		<polygon fill = 'rgb( 31, 120, 180)' fill-opacity = '0.250000' points = '767.0,364.1 767.0,662.4 768.9,662.4 768.9,367.4 '/>
		<polygon fill = 'rgb( 31, 120, 180)' fill-opacity = '0.250000' points = '768.9,367.4 768.9,662.4 770.7,662.4 770.7,370.6 '/>
		<polygon fill = 'rgb( 31, 120, 180)' fill-opacity = '0.250000' points = '770.7,370.6 770.7,662.4 772.6,662.4 772.6,373.7 '/>
		<polygon fill = 'rgb( 31, 120, 180)' fill-opacity = '0.250000' points = '772.6,373.7 772.6,662.4 774.4,662.4 774.4,376.6 '/>
		<polygon fill = 'rgb( 31, 120, 180)' fill-opacity = '0.250000' points = '774.4,376.6 774.4,662.4 776.3,662.4 776.3,379.4 '/>
		<polygon fill = 'rgb( 31, 120, 180)' fill-opacity = '0.250000' points = '776.3,379.4 776.3,662.4 778.2,662.4 778.2,382.0 '/>
		<polygon fill = 'rgb( 31, 120, 180)' fill-opacity = '0.250000' points = '778.2,382.0 778.2,662.4 780.0,662.4 780.0,384.5 '/>
		<polygon fill = 'rgb( 31, 120, 180)' fill-opacity = '0.250000' points = '780.0,384.5 780.0,662.4 781.9,662.4 781.9,386.9 '/>
		<polygon fill = 'rgb( 31, 120, 180)' fill-opacity = '0.250000' points = '781.9,386.9 781.9,662.4 783.7,662.4 783.7,389.2 '/>
		<polygon fill = 'rgb( 31, 120, 180)' fill-opacity = '0.250000' points = '783.7,389.2 783.7,662.4 785.6,662.4 785.6,391.4 '/>
		<polygon fill = 'rgb( 31, 120, 180)' fill-opacity = '0.250000' points = '785.6,391.4 785.6,662.4 787.4,662.4 787.4,393.5 '/>
		<polygon fill = 'rgb( 31, 120, 180)' fill-opacity = '0.250000' points = '787.4,393.5 787.4,662.4 789.3,662.4 789.3,395.6 '/>
		<polygon fill = 'rgb( 31, 120, 180)' fill-opacity = '0.250000' points = '789.3,395.6 789.3,662.4 791.1,662.4 791.1,397.6 '/>
		<polygon fill = 'rgb( 31, 120, 180)' fill-opacity = '0.250000' points = '791.1,397.6 791.1,662.4 793.0,662.4 793.0,399.6 '/>
		<polygon fill = 'rgb( 31, 120, 180)' fill-opacity = '0.250000' points = '793.0,399.6 793.0,662.4 794.8,662.4 794.8,401.5 '/>
		<polygon fill = 'rgb( 31, 120, 180)' fill-opacity = '0.250000' points = '794.8,401.5 794.8,662.4 796.7,662.4 796.7,403.5 '/>
		<polygon fill = 'rgb( 31, 120, 180)' fill-opacity = '0.250000' points = '796.7,403.5 796.7,662.4 798.5,662.4 798.5,405.5 '/>
		<polygon fill = 'rgb( 31, 120, 180)' fill-opacity = '0.250000' points = '798.5,405.5 798.5,662.4 800.4,662.4 800.4,407.5 '/>
		<polygon fill = 'rgb( 31, 120, 180)' fill-opacity = '0.250000' points = '800.4,407.5 800.4,662.4 802.3,662.4 802.3,409.5 '/>
		<polygon fill = 'rgb( 31, 120, 180)' fill-opacity = '0.250000' points = '802.3,409.5 802.3,662.4 804.1,662.4 804.1,411.5 '/>
		<polygon fill = 'rgb( 31, 120, 180)' fill-opacity = '0.250000' points = '804.1,411.5 804.1,662.4 806.0,662.4 806.0,413.6 '/>
		<polygon fill = 'rgb( 31, 120, 180)' fill-opacity = '0.250000' points = '806.0,413.6 806.0,662.4 807.8,662.4 807.8,415.8 '/>
		<polygon fill = 'rgb( 31, 120, 180)' fill-opacity = '0.250000' points = '807.8,415.8 807.8,662.4 809.7,662.4 809.7,418.0 '/>
		<polygon fill = 'rgb( 31, 120, 180)' fill-opacity = '0.250000' points = '809.7,418.0 809.7,662.4 811.5,662.4 811.5,420.3 '/>
		<polygon fill = 'rgb( 31, 120, 180)' fill-opacity = '0.250000' points = '811.5,420.3 811.5,662.4 813.4,662.4 813.4,422.6 '/>
		<polygon fill = 'rgb( 31, 120, 180)' fill-opacity = '0.250000' points = '813.4,422.6 813.4,662.4 815.2,662.4 815.2,425.0 '/>
		<polygon fill = 'rgb( 31, 120, 180)' fill-opacity = '0.250000' points = '815.2,425.0 815.2,662.4 817.1,662.4 817.1,427.5 '/>
		<polygon fill = 'rgb( 31, 120, 180)' fill-opacity = '0.250000' points = '817.1,427.5 817.1,662.4 818.9,662.4 818.9,430.1 '/>
		<polygon fill = 'rgb( 31, 120, 180)' fill-opacity = '0.250000' points = '818.9,430.1 818.9,662.4 820.8,662.4 820.8,432.7 '/>
		<polygon fill = 'rgb( 31, 120, 180)' fill-opacity = '0.250000' points = '820.8,432.7 820.8,662.4 822.6,662.4 822.6,435.4 '/>
		<polygon fill = 'rgb( 31, 120, 180)' fill-opacity = '0.250000' points = '822.6,435.4 822.6,662.4 824.5,662.4 824.5,438.2 '/>
		<polygon fill = 'rgb( 31, 120, 180)' fill-opacity = '0.250000' points = '824.5,438.2 824.5,662.4 826.4,662.4 826.4,441.0 '/>
		<polygon fill = 'rgb( 31, 120, 180)' fill-opacity = '0.250000' points = '826.4,441.0 826.4,662.4 828.2,662.4 828.2,443.9 '/>
		<polygon fill = 'rgb( 31, 120, 180)' fill-opacity = '0.250000' points = '828.2,443.9 828.2,662.4 830.1,662.4 830.1,446.8 '/>
		<polygon fill = 'rgb( 31, 120, 180)' fill-opacity = '0.250000' points = '830.1,446.8 830.1,662.4 831.9,662.4 831.9,449.8 '/>
		<polygon fill = 'rgb( 31, 120, 180)' fill-opacity = '0.250000' points = '831.9,449.8 831.9,662.4 833.8,662.4 833.8,452.9 '/>
		<polygon fill = 'rgb( 31, 120, 180)' fill-opacity = '0.250000' points = '833.8,452.9 833.8,662.4 835.6,662.4 835.6,455.9 '/>
		<polygon fill = 'rgb( 31, 120, 180)' fill-opacity = '0.250000' points = '835.6,455.9 835.6,662.4 837.5,662.4 837.5,459.0 '/>
		<polygon fill = 'rgb( 31, 120, 180)' fill-opacity = '0.250000' points = '837.5,459.0 837.5,662.4 839.3,662.4 839.3,462.1 '/>
		<polygon fill = 'rgb( 31, 120, 180)' fill-opacity = '0.250000' points = '839.3,462.1 839.3,662.4 841.2,662.4 841.2,465.3 '/>
		<polygon fill = 'rgb( 31, 120, 180)' fill-opacity = '0.250000' points = '841.2,465.3 841.2,662.4 843.0,662.4 843.0,468.4 '/>
		<polygon fill = 'rgb( 31, 120, 180)' fill-opacity = '0.250000' points = '843.0,468.4 843.0,662.4 844.9,662.4 844.9,471.6 '/>
		<polygon fill = 'rgb( 31, 120, 180)' fill-opacity = '0.250000' points = '844.9,471.6 844.9,662.4 846.7,662.4 846.7,474.8 '/>
		<polygon fill = 'rgb( 31, 120, 180)' fill-opacity = '0.250000' points = '846.7,474.8 846.7,662.4 848.6,662.4 848.6,477.9 '/>
		<polygon fill = 'rgb( 31, 120, 180)' fill-opacity = '0.250000' points = '848.6,477.9 848.6,662.4 850.5,662.4 850.5,481.1 '/>
		<polygon fill = 'rgb( 31, 120, 180)' fill-opacity = '0.250000' points = '850.5,481.1 850.5,662.4 852.3,662.4 852.3,484.3 '/>
		<polygon fill = 'rgb( 31, 120, 180)' fill-opacity = '0.250000' points = '852.3,484.3 852.3,662.4 854.2,662.4 854.2,487.4 '/>
		<polygon fill = 'rgb( 31, 120, 180)' fill-opacity = '0.250000' points = '854.2,487.4 854.2,662.4 856.0,662.4 856.0,490.6 '/>
		<polygon fill = 'rgb( 31, 120, 180)' fill-opacity = '0.250000' points = '856.0,490.6 856.0,662.4 857.9,662.4 857.9,493.7 '/>
		<polygon fill = 'rgb( 31, 120, 180)' fill-opacity = '0.250000' points = '857.9,493.7 857.9,662.4 859.7,662.4 859.7,496.8 '/>
		<polygon fill = 'rgb( 31, 120, 180)' fill-opacity = '0.250000' points = '859.7,496.8 859.7,662.4 861.6,662.4 861.6,499.9 '/>
		<polygon fill = 'rgb( 31, 120, 180)' fill-opacity = '0.250000' points = '861.6,499.9 861.6,662.4 863.4,662.4 863.4,502.9 '/>
		<polygon fill = 'rgb( 31, 120, 180)' fill-opacity = '0.250000' points = '863.4,502.9 863.4,662.4 865.3,662.4 865.3,505.9 '/>
		<polygon fill = 'rgb( 31, 120, 180)' fill-opacity = '0.250000' points = '865.3,505.9 865.3,662.4 867.1,662.4 867.1,508.8 '/>
		<polygon fill = 'rgb( 31, 120, 180)' fill-opacity = '0.250000' points = '867.1,508.8 867.1,662.4 869.0,662.4 869.0,511.7 '/>
		<polygon fill = 'rgb( 31, 120, 180)' fill-opacity = '0.250000' points = '869.0,511.7 869.0,662.4 870.8,662.4 870.8,514.5 '/>
		<polygon fill = 'rgb( 31, 120, 180)' fill-opacity = '0.250000' points = '870.8,514.5 870.8,662.4 872.7,662.4 872.7,517.3 '/>
		<polygon fill = 'rgb( 31, 120, 180)' fill-opacity = '0.250000' points = '872.7,517.3 872.7,662.4 874.6,662.4 874.6,520.0 '/>
		<polygon fill = 'rgb( 31, 120, 180)' fill-opacity = '0.250000' points = '874.6,520.0 874.6,662.4 876.4,662.4 876.4,522.6 '/>
		<polygon fill = 'rgb( 31, 120, 180)' fill-opacity = '0.250000' points = '876.4,522.6 876.4,662.4 878.3,662.4 878.3,525.1 '/>
		<polygon fill = 'rgb( 31, 120, 180)' fill-opacity = '0.250000' points = '878.3,525.1 878.3,662.4 880.1,662.4 880.1,527.6 '/>
		<polygon fill = 'rgb( 31, 120, 180)' fill-opacity = '0.250000' points = '880.1,527.6 880.1,662.4 882.0,662.4 882.0,530.0 '/>
		<polygon fill = 'rgb( 31, 120, 180)' fill-opacity = '0.250000' points = '882.0,530.0 882.0,662.4 883.8,662.4 883.8,532.3 '/>
		<polygon fill = 'rgb( 31, 120, 180)' fill-opacity = '0.250000' points = '883.8,532.3 883.8,662.4 885.7,662.4 885.7,534.5 '/>
		<polygon fill = 'rgb( 31, 120, 180)' fill-opacity = '0.250000' points = '885.7,534.5 885.7,662.4 887.5,662.4 887.5,536.6 '/>
		<polygon fill = 'rgb( 31, 120, 180)' fill-opacity = '0.250000' points = '887.5,536.6 887.5,662.4 889.4,662.4 889.4,538.7 '/>
		<polygon fill = 'rgb( 31, 120, 180)' fill-opacity = '0.250000' points = '889.4,538.7 889.4,662.4 891.2,662.4 891.2,540.7 '/>
		<polygon fill = 'rgb( 31, 120, 180)' fill-opacity = '0.250000' points = '891.2,540.7 891.2,662.4 893.1,662.4 893.1,542.6 '/>
		<polygon fill = 'rgb( 31, 120, 180)' fill-opacity = '0.250000' points = '893.1,542.6 893.1,662.4 894.9,662.4 894.9,544.4 '/>
		<polygon fill = 'rgb( 31, 120, 180)' fill-opacity = '0.250000' points = '894.9,544.4 894.9,662.4 896.8,662.4 896.8,546.2 '/>
		<polygon fill = 'rgb( 31, 120, 180)' fill-opacity = '0.250000' points = '896.8,546.2 896.8,662.4 898.7,662.4 898.7,548.0 '/>
		<polygon fill = 'rgb( 31, 120, 180)' fill-opacity = '0.250000' points = '898.7,548.0 898.7,662.4 900.5,662.4 900.5,549.7 '/>
		<polygon fill = 'rgb( 31, 120, 180)' fill-opacity = '0.250000' points = '900.5,549.7 900.5,662.4 902.4,662.4 902.4,551.4 '/>
		<polygon fill = 'rgb( 31, 120, 180)' fill-opacity = '0.250000' points = '902.4,551.4 902.4,662.4 904.2,662.4 904.2,553.0 '/>
		<polygon fill = 'rgb( 31, 120, 180)' fill-opacity = '0.250000' points = '904.2,553.0 904.2,662.4 906.1,662.4 906.1,554.6 '/>
		<polygon fill = 'rgb( 31, 120, 180)' fill-opacity = '0.250000' points = '906.1,554.6 906.1,662.4 907.9,662.4 907.9,556.2 '/>
		<polygon fill = 'rgb( 31, 120, 180)' fill-opacity = '0.250000' points = '907.9,556.2 907.9,662.4 909.8,662.4 909.8,557.8 '/>
		<polygon fill = 'rgb( 31, 120, 180)' fill-opacity = '0.250000' points = '909.8,557.8 909.8,662.4 911.6,662.4 911.6,559.4 '/>
		<polygon fill = 'rgb( 31, 120, 180)' fill-opacity = '0.250000' points = '911.6,559.4 911.6,662.4 913.5,662.4 913.5,561.0 '/>
		<polygon fill = 'rgb( 31, 120, 180)' fill-opacity = '0.250000' points = '913.5,561.0 913.5,662.4 915.3,662.4 915.3,562.5 '/>
		<polygon fill = 'rgb( 31, 120, 180)' fill-opacity = '0.250000' points = '915.3,562.5 915.3,662.4 917.2,662.4 917.2,564.1 '/>
		<polygon fill = 'rgb( 31, 120, 180)' fill-opacity = '0.250000' points = '917.2,564.1 917.2,662.4 919.1,662.4 919.1,565.7 '/>
		<polygon fill = 'rgb( 31, 120, 180)' fill-opacity = '0.250000' points = '919.1,565.7 919.1,662.4 920.9,662.4 920.9,567.3 '/>
		<polygon fill = 'rgb( 31, 120, 180)' fill-opacity = '0.250000' points = '920.9,567.3 920.9,662.4 922.8,662.4 922.8,568.9 '/>
		<polygon fill = 'rgb( 31, 120, 180)' fill-opacity = '0.250000' points = '922.8,568.9 922.8,662.4 924.6,662.4 924.6,570.4 '/>
		<polygon fill = 'rgb( 31, 120, 180)' fill-opacity = '0.250000' points = '924.6,570.4 924.6,662.4 926.5,662.4 926.5,572.0 '/>
	</g>
</g>
	</g>
	<g id="gnuplot_plot_3" ><title>Point estimate</title>
<g fill="none" color="white" stroke="rgb( 31, 120, 180)" stroke-width="2.00" stroke-linecap="butt" stroke-linejoin="miter">
</g>
<g fill="none" color="black" stroke="currentColor" stroke-width="2.00" stroke-linecap="butt" stroke-linejoin="miter">
	<g transform="translate(1089.0,103.0)" stroke="none" fill="black" font-family="Helvetica" font-size="12.00"  text-anchor="start">
		<text><tspan font-family="Helvetica" >Point estimate</tspan></text>
	</g>
</g>
<g fill="none" color="black" stroke="currentColor" stroke-width="2.00" stroke-linecap="butt" stroke-linejoin="miter">
	<path stroke='rgb( 31, 120, 180)'  d='M1038.5,99.1 L1080.7,99.1 M602.9,662.4 L602.9,139.2  '/></g>
	</g>
<g fill="none" color="black" stroke="currentColor" stroke-width="2.00" stroke-linecap="butt" stroke-linejoin="miter">
</g>
<g fill="none" color="black" stroke="black" stroke-width="1.00" stroke-linecap="butt" stroke-linejoin="miter">
</g>
<g fill="none" color="black" stroke="currentColor" stroke-width="1.00" stroke-linecap="butt" stroke-linejoin="miter">
	<path stroke='black'  d='M88.5,54.1 L88.5,662.4 L1013.6,662.4 L1013.6,54.1 L88.5,54.1 Z  '/></g>
<g fill="none" color="black" stroke="currentColor" stroke-width="1.00" stroke-linecap="butt" stroke-linejoin="miter">
</g>
</g>
</svg>

