<?xml version="1.0" encoding="utf-8"  standalone="no"?>
<svg 
 viewBox="0 0 1280 720"
 xmlns="http://www.w3.org/2000/svg"
 xmlns:xlink="http://www.w3.org/1999/xlink"
>

<title>Gnuplot</title>
<desc>Produced by GNUPLOT 5.0 patchlevel 6 </desc>

<g id="gnuplot_canvas">

<rect x="0" y="0" width="1280" height="720" fill="none"/>
<defs>

	<circle id='gpDot' r='0.5' stroke-width='0.5'/>
	<path id='gpPt0' stroke-width='0.222' stroke='currentColor' d='M-1,0 h2 M0,-1 v2'/>
	<path id='gpPt1' stroke-width='0.222' stroke='currentColor' d='M-1,-1 L1,1 M1,-1 L-1,1'/>
	<path id='gpPt2' stroke-width='0.222' stroke='currentColor' d='M-1,0 L1,0 M0,-1 L0,1 M-1,-1 L1,1 M-1,1 L1,-1'/>
	<rect id='gpPt3' stroke-width='0.222' stroke='currentColor' x='-1' y='-1' width='2' height='2'/>
	<rect id='gpPt4' stroke-width='0.222' stroke='currentColor' fill='currentColor' x='-1' y='-1' width='2' height='2'/>
	<circle id='gpPt5' stroke-width='0.222' stroke='currentColor' cx='0' cy='0' r='1'/>
	<use xlink:href='#gpPt5' id='gpPt6' fill='currentColor' stroke='none'/>
	<path id='gpPt7' stroke-width='0.222' stroke='currentColor' d='M0,-1.33 L-1.33,0.67 L1.33,0.67 z'/>
	<use xlink:href='#gpPt7' id='gpPt8' fill='currentColor' stroke='none'/>
	<use xlink:href='#gpPt7' id='gpPt9' stroke='currentColor' transform='rotate(180)'/>
	<use xlink:href='#gpPt9' id='gpPt10' fill='currentColor' stroke='none'/>
	<use xlink:href='#gpPt3' id='gpPt11' stroke='currentColor' transform='rotate(45)'/>
	<use xlink:href='#gpPt11' id='gpPt12' fill='currentColor' stroke='none'/>
	<path id='gpPt13' stroke-width='0.222' stroke='currentColor' d='M0,1.330 L1.265,0.411 L0.782,-1.067 L-0.782,-1.076 L-1.265,0.411 z'/>
	<use xlink:href='#gpPt13' id='gpPt14' fill='currentColor' stroke='none'/>
	<filter id='textbox' filterUnits='objectBoundingBox' x='0' y='0' height='1' width='1'>
	  <feFlood flood-color='white' flood-opacity='1' result='bgnd'/>
	  <feComposite in='SourceGraphic' in2='bgnd' operator='atop'/>
	</filter>
	<filter id='greybox' filterUnits='objectBoundingBox' x='0' y='0' height='1' width='1'>
	  <feFlood flood-color='lightgrey' flood-opacity='1' result='grey'/>
	  <feComposite in='SourceGraphic' in2='grey' operator='atop'/>
	</filter>
</defs>
<g fill="none" color="white" stroke="currentColor" stroke-width="1.00" stroke-linecap="butt" stroke-linejoin="miter">
</g>
<g fill="none" color="black" stroke="currentColor" stroke-width="1.00" stroke-linecap="butt" stroke-linejoin="miter">
	<path stroke='black'  d='M80.2,662.4 L89.2,662.4  '/>	<g transform="translate(71.9,666.3)" stroke="none" fill="black" font-family="Helvetica" font-size="12.00"  text-anchor="end">
		<text><tspan font-family="Helvetica" > 0</tspan></text>
	</g>
</g>
<g fill="none" color="black" stroke="currentColor" stroke-width="1.00" stroke-linecap="butt" stroke-linejoin="miter">
	<path stroke='black'  d='M80.2,586.4 L89.2,586.4  '/>	<g transform="translate(71.9,590.3)" stroke="none" fill="black" font-family="Helvetica" font-size="12.00"  text-anchor="end">
		<text><tspan font-family="Helvetica" > 0.05</tspan></text>
	</g>
</g>
<g fill="none" color="black" stroke="currentColor" stroke-width="1.00" stroke-linecap="butt" stroke-linejoin="miter">
	<path stroke='black'  d='M80.2,510.3 L89.2,510.3  '/>	<g transform="translate(71.9,514.2)" stroke="none" fill="black" font-family="Helvetica" font-size="12.00"  text-anchor="end">
		<text><tspan font-family="Helvetica" > 0.1</tspan></text>
	</g>
</g>
<g fill="none" color="black" stroke="currentColor" stroke-width="1.00" stroke-linecap="butt" stroke-linejoin="miter">
	<path stroke='black'  d='M80.2,434.3 L89.2,434.3  '/>	<g transform="translate(71.9,438.2)" stroke="none" fill="black" font-family="Helvetica" font-size="12.00"  text-anchor="end">
		<text><tspan font-family="Helvetica" > 0.15</tspan></text>
	</g>
</g>
<g fill="none" color="black" stroke="currentColor" stroke-width="1.00" stroke-linecap="butt" stroke-linejoin="miter">
	<path stroke='black'  d='M80.2,358.2 L89.2,358.2  '/>	<g transform="translate(71.9,362.1)" stroke="none" fill="black" font-family="Helvetica" font-size="12.00"  text-anchor="end">
		<text><tspan font-family="Helvetica" > 0.2</tspan></text>
	</g>
</g>
<g fill="none" color="black" stroke="currentColor" stroke-width="1.00" stroke-linecap="butt" stroke-linejoin="miter">
	<path stroke='black'  d='M80.2,282.2 L89.2,282.2  '/>	<g transform="translate(71.9,286.1)" stroke="none" fill="black" font-family="Helvetica" font-size="12.00"  text-anchor="end">
		<text><tspan font-family="Helvetica" > 0.25</tspan></text>
	</g>
</g>
<g fill="none" color="black" stroke="currentColor" stroke-width="1.00" stroke-linecap="butt" stroke-linejoin="miter">
	<path stroke='black'  d='M80.2,206.2 L89.2,206.2  '/>	<g transform="translate(71.9,210.1)" stroke="none" fill="black" font-family="Helvetica" font-size="12.00"  text-anchor="end">
		<text><tspan font-family="Helvetica" > 0.3</tspan></text>
	</g>
</g>
<g fill="none" color="black" stroke="currentColor" stroke-width="1.00" stroke-linecap="butt" stroke-linejoin="miter">
	<path stroke='black'  d='M80.2,130.1 L89.2,130.1  '/>	<g transform="translate(71.9,134.0)" stroke="none" fill="black" font-family="Helvetica" font-size="12.00"  text-anchor="end">
		<text><tspan font-family="Helvetica" > 0.35</tspan></text>
	</g>
</g>
<g fill="none" color="black" stroke="currentColor" stroke-width="1.00" stroke-linecap="butt" stroke-linejoin="miter">
	<path stroke='black'  d='M80.2,54.1 L89.2,54.1  '/>	<g transform="translate(71.9,58.0)" stroke="none" fill="black" font-family="Helvetica" font-size="12.00"  text-anchor="end">
		<text><tspan font-family="Helvetica" > 0.4</tspan></text>
	</g>
</g>
<g fill="none" color="black" stroke="currentColor" stroke-width="1.00" stroke-linecap="butt" stroke-linejoin="miter">
	<path stroke='black'  d='M113.2,662.4 L113.2,653.4  '/>	<g transform="translate(113.2,684.3)" stroke="none" fill="black" font-family="Helvetica" font-size="12.00"  text-anchor="middle">
		<text><tspan font-family="Helvetica" > 2</tspan></text>
	</g>
</g>
<g fill="none" color="black" stroke="currentColor" stroke-width="1.00" stroke-linecap="butt" stroke-linejoin="miter">
	<path stroke='black'  d='M246.8,662.4 L246.8,653.4  '/>	<g transform="translate(246.8,684.3)" stroke="none" fill="black" font-family="Helvetica" font-size="12.00"  text-anchor="middle">
		<text><tspan font-family="Helvetica" > 3</tspan></text>
	</g>
</g>
<g fill="none" color="black" stroke="currentColor" stroke-width="1.00" stroke-linecap="butt" stroke-linejoin="miter">
	<path stroke='black'  d='M380.3,662.4 L380.3,653.4  '/>	<g transform="translate(380.3,684.3)" stroke="none" fill="black" font-family="Helvetica" font-size="12.00"  text-anchor="middle">
		<text><tspan font-family="Helvetica" > 4</tspan></text>
	</g>
</g>
<g fill="none" color="black" stroke="currentColor" stroke-width="1.00" stroke-linecap="butt" stroke-linejoin="miter">
	<path stroke='black'  d='M513.8,662.4 L513.8,653.4  '/>	<g transform="translate(513.8,684.3)" stroke="none" fill="black" font-family="Helvetica" font-size="12.00"  text-anchor="middle">
		<text><tspan font-family="Helvetica" > 5</tspan></text>
	</g>
</g>
<g fill="none" color="black" stroke="currentColor" stroke-width="1.00" stroke-linecap="butt" stroke-linejoin="miter">
	<path stroke='black'  d='M647.3,662.4 L647.3,653.4  '/>	<g transform="translate(647.3,684.3)" stroke="none" fill="black" font-family="Helvetica" font-size="12.00"  text-anchor="middle">
		<text><tspan font-family="Helvetica" > 6</tspan></text>
	</g>
</g>
<g fill="none" color="black" stroke="currentColor" stroke-width="1.00" stroke-linecap="butt" stroke-linejoin="miter">
	<path stroke='black'  d='M780.8,662.4 L780.8,653.4  '/>	<g transform="translate(780.8,684.3)" stroke="none" fill="black" font-family="Helvetica" font-size="12.00"  text-anchor="middle">
		<text><tspan font-family="Helvetica" > 7</tspan></text>
	</g>
</g>
<g fill="none" color="black" stroke="currentColor" stroke-width="1.00" stroke-linecap="butt" stroke-linejoin="miter">
	<path stroke='black'  d='M914.4,662.4 L914.4,653.4  '/>	<g transform="translate(914.4,684.3)" stroke="none" fill="black" font-family="Helvetica" font-size="12.00"  text-anchor="middle">
		<text><tspan font-family="Helvetica" > 8</tspan></text>
	</g>
</g>
<g fill="none" color="black" stroke="currentColor" stroke-width="1.00" stroke-linecap="butt" stroke-linejoin="miter">
</g>
<g fill="none" color="black" stroke="currentColor" stroke-width="1.00" stroke-linecap="butt" stroke-linejoin="miter">
	<path stroke='black'  d='M80.2,54.1 L80.2,662.4 L1013.6,662.4 L1013.6,54.1 L80.2,54.1 Z  '/></g>
<g fill="none" color="black" stroke="currentColor" stroke-width="1.00" stroke-linecap="butt" stroke-linejoin="miter">
	<g transform="translate(17.0,358.3) rotate(270)" stroke="none" fill="black" font-family="Helvetica" font-size="12.00"  text-anchor="middle">
		<text><tspan font-family="Helvetica" >Density (a.u.)</tspan></text>
	</g>
</g>
<g fill="none" color="black" stroke="currentColor" stroke-width="1.00" stroke-linecap="butt" stroke-linejoin="miter">
	<g transform="translate(546.9,711.3)" stroke="none" fill="black" font-family="Helvetica" font-size="12.00"  text-anchor="middle">
		<text><tspan font-family="Helvetica" >Average time (us)</tspan></text>
	</g>
</g>
<g fill="none" color="black" stroke="currentColor" stroke-width="1.00" stroke-linecap="butt" stroke-linejoin="miter">
	<g transform="translate(546.9,31.0)" stroke="none" fill="black" font-family="Helvetica" font-size="12.00"  text-anchor="middle">
		<text><tspan font-family="Helvetica" >language: ruby/parse error: bash/examples/doc-build.sh: MAD</tspan></text>
	</g>
</g>
	<g id="gnuplot_plot_1" ><title>Bootstrap distribution</title>
<g fill="none" color="white" stroke="black" stroke-width="2.00" stroke-linecap="butt" stroke-linejoin="miter">
</g>
<g fill="none" color="black" stroke="currentColor" stroke-width="2.00" stroke-linecap="butt" stroke-linejoin="miter">
	<g transform="translate(1089.0,67.0)" stroke="none" fill="black" font-family="Helvetica" font-size="12.00"  text-anchor="start">
		<text><tspan font-family="Helvetica" >Bootstrap distribution</tspan></text>
	</g>
</g>
<g fill="none" color="black" stroke="currentColor" stroke-width="2.00" stroke-linecap="butt" stroke-linejoin="miter">
	<path stroke='rgb( 31, 120, 180)'  d='M1038.5,63.1 L1080.7,63.1 M80.2,636.6 L82.1,635.9 L83.9,635.2 L85.8,634.6 L87.7,633.9 L89.6,633.2
		L91.4,632.6 L93.3,631.9 L95.2,631.2 L97.0,630.6 L98.9,629.8 L100.8,629.1 L102.6,628.3 L104.5,627.5
		L106.4,626.6 L108.3,625.7 L110.1,624.7 L112.0,623.6 L113.9,622.4 L115.7,621.2 L117.6,619.8 L119.5,618.3
		L121.4,616.8 L123.2,615.1 L125.1,613.3 L127.0,611.4 L128.8,609.3 L130.7,607.2 L132.6,604.9 L134.4,602.6
		L136.3,600.1 L138.2,597.5 L140.1,594.9 L141.9,592.1 L143.8,589.2 L145.7,586.3 L147.5,583.3 L149.4,580.3
		L151.3,577.2 L153.2,574.0 L155.0,570.9 L156.9,567.7 L158.8,564.6 L160.6,561.5 L162.5,558.4 L164.4,555.4
		L166.2,552.4 L168.1,549.5 L170.0,546.7 L171.9,544.0 L173.7,541.4 L175.6,538.8 L177.5,536.4 L179.3,534.0
		L181.2,531.6 L183.1,529.3 L185.0,526.9 L186.8,524.6 L188.7,522.2 L190.6,519.7 L192.4,517.2 L194.3,514.5
		L196.2,511.7 L198.0,508.7 L199.9,505.6 L201.8,502.4 L203.7,499.0 L205.5,495.4 L207.4,491.7 L209.3,488.0
		L211.1,484.2 L213.0,480.3 L214.9,476.5 L216.7,472.7 L218.6,469.0 L220.5,465.5 L222.4,462.2 L224.2,459.0
		L226.1,456.1 L228.0,453.5 L229.8,451.2 L231.7,449.1 L233.6,447.4 L235.5,445.9 L237.3,444.6 L239.2,443.6
		L241.1,442.6 L242.9,441.8 L244.8,441.0 L246.7,440.1 L248.5,439.1 L250.4,437.9 L252.3,436.3 L254.2,434.4
		L256.0,432.0 L257.9,429.0 L259.8,425.5 L261.6,421.3 L263.5,416.4 L265.4,410.8 L267.3,404.5 L269.1,397.5
		L271.0,389.8 L272.9,381.5 L274.7,372.6 L276.6,363.2 L278.5,353.3 L280.3,343.2 L282.2,332.8 L284.1,322.3
		L286.0,311.7 L287.8,301.2 L289.7,290.9 L291.6,280.9 L293.4,271.1 L295.3,261.8 L297.2,252.9 L299.1,244.4
		L300.9,236.4 L302.8,229.0 L304.7,222.0 L306.5,215.6 L308.4,209.6 L310.3,204.1 L312.1,199.0 L314.0,194.4
		L315.9,190.2 L317.8,186.5 L319.6,183.1 L321.5,180.2 L323.4,177.7 L325.2,175.7 L327.1,174.2 L329.0,173.1
		L330.9,172.6 L332.7,172.6 L334.6,173.2 L336.5,174.2 L338.3,175.9 L340.2,178.0 L342.1,180.7 L343.9,183.8
		L345.8,187.3 L347.7,191.1 L349.6,195.2 L351.4,199.4 L353.3,203.8 L355.2,208.1 L357.0,212.4 L358.9,216.5
		L360.8,220.4 L362.7,224.1 L364.5,227.4 L366.4,230.4 L368.3,233.0 L370.1,235.3 L372.0,237.3 L373.9,239.0
		L375.7,240.5 L377.6,241.8 L379.5,243.0 L381.4,244.2 L383.2,245.5 L385.1,246.8 L387.0,248.3 L388.8,250.0
		L390.7,252.0 L392.6,254.1 L394.5,256.5 L396.3,259.2 L398.2,262.0 L400.1,265.1 L401.9,268.3 L403.8,271.6
		L405.7,275.0 L407.5,278.5 L409.4,282.0 L411.3,285.5 L413.2,289.1 L415.0,292.6 L416.9,296.3 L418.8,299.9
		L420.6,303.7 L422.5,307.6 L424.4,311.6 L426.3,315.8 L428.1,320.1 L430.0,324.7 L431.9,329.4 L433.7,334.4
		L435.6,339.5 L437.5,344.7 L439.3,350.0 L441.2,355.3 L443.1,360.6 L445.0,365.8 L446.8,370.8 L448.7,375.6
		L450.6,380.0 L452.4,384.2 L454.3,388.0 L456.2,391.4 L458.0,394.5 L459.9,397.1 L461.8,399.3 L463.7,401.1
		L465.5,402.6 L467.4,403.8 L469.3,404.8 L471.1,405.5 L473.0,406.0 L474.9,406.3 L476.8,406.6 L478.6,406.7
		L480.5,406.9 L482.4,406.9 L484.2,407.0 L486.1,407.0 L488.0,407.0 L489.8,406.9 L491.7,406.8 L493.6,406.7
		L495.5,406.5 L497.3,406.2 L499.2,405.8 L501.1,405.2 L502.9,404.6 L504.8,403.7 L506.7,402.7 L508.6,401.5
		L510.4,400.2 L512.3,398.6 L514.2,396.8 L516.0,394.8 L517.9,392.5 L519.8,390.0 L521.6,387.3 L523.5,384.3
		L525.4,381.0 L527.3,377.4 L529.1,373.5 L531.0,369.2 L532.9,364.5 L534.7,359.4 L536.6,353.9 L538.5,347.9
		L540.4,341.3 L542.2,334.2 L544.1,326.6 L546.0,318.4 L547.8,309.6 L549.7,300.2 L551.6,290.2 L553.4,279.6
		L555.3,268.5 L557.2,256.9 L559.1,244.8 L560.9,232.4 L562.8,219.6 L564.7,206.7 L566.5,193.7 L568.4,180.8
		L570.3,168.1 L572.2,155.8 L574.0,144.0 L575.9,133.0 L577.8,122.9 L579.6,113.8 L581.5,106.1 L583.4,99.7
		L585.2,94.9 L587.1,91.9 L589.0,90.6 L590.9,91.1 L592.7,93.5 L594.6,97.7 L596.5,103.7 L598.3,111.3
		L600.2,120.5 L602.1,131.1 L604.0,142.9 L605.8,155.6 L607.7,169.1 L609.6,183.1 L611.4,197.4 L613.3,211.7
		L615.2,225.9 L617.0,239.7 L618.9,253.1 L620.8,265.9 L622.7,277.9 L624.5,289.2 L626.4,299.8 L628.3,309.5
		L630.1,318.5 L632.0,326.9 L633.9,334.6 L635.8,341.8 L637.6,348.6 L639.5,355.1 L641.4,361.4 L643.2,367.6
		L645.1,373.7 L647.0,379.9 L648.8,386.2 L650.7,392.7 L652.6,399.4 L654.5,406.2 L656.3,413.2 L658.2,420.4
		L660.1,427.8 L661.9,435.2 L663.8,442.8 L665.7,450.3 L667.5,457.7 L669.4,465.1 L671.3,472.2 L673.2,479.2
		L675.0,485.9 L676.9,492.2 L678.8,498.3 L680.6,503.9 L682.5,509.2 L684.4,514.1 L686.3,518.6 L688.1,522.7
		L690.0,526.4 L691.9,529.8 L693.7,532.8 L695.6,535.5 L697.5,538.0 L699.3,540.2 L701.2,542.2 L703.1,544.1
		L705.0,545.7 L706.8,547.3 L708.7,548.8 L710.6,550.2 L712.4,551.5 L714.3,552.8 L716.2,554.1 L718.1,555.3
		L719.9,556.6 L721.8,557.8 L723.7,559.0 L725.5,560.2 L727.4,561.4 L729.3,562.6 L731.1,563.7 L733.0,564.8
		L734.9,565.8 L736.8,566.8 L738.6,567.8 L740.5,568.6 L742.4,569.4 L744.2,570.2 L746.1,570.8 L748.0,571.5
		L749.9,572.0 L751.7,572.5 L753.6,573.0 L755.5,573.5 L757.3,574.0 L759.2,574.4 L761.1,574.9 L762.9,575.5
		L764.8,576.1 L766.7,576.7 L768.6,577.5 L770.4,578.2 L772.3,579.1 L774.2,580.0 L776.0,580.9 L777.9,581.9
		L779.8,582.9 L781.7,584.0 L783.5,585.0 L785.4,585.9 L787.3,586.9 L789.1,587.8 L791.0,588.6 L792.9,589.4
		L794.7,590.0 L796.6,590.6 L798.5,591.1 L800.4,591.5 L802.2,591.9 L804.1,592.2 L806.0,592.4 L807.8,592.6
		L809.7,592.7 L811.6,592.8 L813.5,592.9 L815.3,592.9 L817.2,593.0 L819.1,593.0 L820.9,593.0 L822.8,593.0
		L824.7,593.0 L826.5,593.0 L828.4,593.0 L830.3,592.9 L832.2,592.8 L834.0,592.7 L835.9,592.5 L837.8,592.3
		L839.6,592.0 L841.5,591.7 L843.4,591.3 L845.3,590.9 L847.1,590.4 L849.0,589.9 L850.9,589.3 L852.7,588.7
		L854.6,588.1 L856.5,587.4 L858.3,586.7 L860.2,585.9 L862.1,585.1 L864.0,584.2 L865.8,583.3 L867.7,582.3
		L869.6,581.3 L871.4,580.3 L873.3,579.2 L875.2,578.2 L877.1,577.1 L878.9,576.0 L880.8,574.9 L882.7,573.9
		L884.5,572.9 L886.4,572.0 L888.3,571.3 L890.1,570.6 L892.0,570.1 L893.9,569.8 L895.8,569.7 L897.6,569.7
		L899.5,570.0 L901.4,570.4 L903.2,571.0 L905.1,571.8 L907.0,572.8 L908.8,573.9 L910.7,575.2 L912.6,576.5
		L914.5,578.0 L916.3,579.5 L918.2,581.1 L920.1,582.7 L921.9,584.3 L923.8,586.0 L925.7,587.6 L927.6,589.3
		L929.4,591.0 L931.3,592.6 L933.2,594.3 L935.0,596.0 L936.9,597.7 L938.8,599.4 L940.6,601.1 L942.5,602.8
		L944.4,604.6 L946.3,606.2 L948.1,607.9 L950.0,609.6 L951.9,611.1 L953.7,612.7 L955.6,614.1 L957.5,615.5
		L959.4,616.8 L961.2,618.0 L963.1,619.1 L965.0,620.1 L966.8,621.0 L968.7,621.8 L970.6,622.5 L972.4,623.2
		L974.3,623.7 L976.2,624.3 L978.1,624.7 L979.9,625.2 L981.8,625.6 L983.7,626.0 L985.5,626.5 L987.4,626.9
		L989.3,627.4 L991.2,627.9 L993.0,628.5 L994.9,629.1 L996.8,629.7 L998.6,630.5 L1000.5,631.2 L1002.4,632.1
		L1004.2,633.0 L1006.1,633.9 L1008.0,635.0 L1009.9,636.0 L1011.7,637.1 L1013.6,638.2  '/></g>
	</g>
	<g id="gnuplot_plot_2" ><title>Confidence interval</title>
<g fill="none" color="white" stroke="rgb( 31, 120, 180)" stroke-width="1.00" stroke-linecap="butt" stroke-linejoin="miter">
</g>
<g fill="none" color="black" stroke="currentColor" stroke-width="1.00" stroke-linecap="butt" stroke-linejoin="miter">
	<g transform="translate(1089.0,85.0)" stroke="none" fill="black" font-family="Helvetica" font-size="12.00"  text-anchor="start">
		<text><tspan font-family="Helvetica" >Confidence interval</tspan></text>
	</g>
</g>
<g fill="none" color="black" stroke="currentColor" stroke-width="1.00" stroke-linecap="butt" stroke-linejoin="miter">
	<g stroke='none' shape-rendering='crispEdges'>
		<polygon fill = 'rgb( 31, 120, 180)' fill-opacity = '0.250000' points = '1038.5,85.6 1080.7,85.6 1080.7,76.6 1038.5,76.6 '/>
		<polygon fill = 'rgb( 31, 120, 180)' fill-opacity = '0.250000' points = '166.2,552.4 166.2,662.4 168.1,662.4 168.1,549.5 '/>
		<polygon fill = 'rgb( 31, 120, 180)' fill-opacity = '0.250000' points = '168.1,549.5 168.1,662.4 170.0,662.4 170.0,546.7 '/>
		<polygon fill = 'rgb( 31, 120, 180)' fill-opacity = '0.250000' points = '170.0,546.7 170.0,662.4 171.9,662.4 171.9,544.0 '/>
		<polygon fill = 'rgb( 31, 120, 180)' fill-opacity = '0.250000' points = '171.9,544.0 171.9,662.4 173.7,662.4 173.7,541.4 '/>
		<polygon fill = 'rgb( 31, 120, 180)' fill-opacity = '0.250000' points = '173.7,541.4 173.7,662.4 175.6,662.4 175.6,538.8 '/>
		<polygon fill = 'rgb( 31, 120, 180)' fill-opacity = '0.250000' points = '175.6,538.8 175.6,662.4 177.5,662.4 177.5,536.4 '/>
		<polygon fill = 'rgb( 31, 120, 180)' fill-opacity = '0.250000' points = '177.5,536.4 177.5,662.4 179.3,662.4 179.3,534.0 '/>
		<polygon fill = 'rgb( 31, 120, 180)' fill-opacity = '0.250000' points = '179.3,534.0 179.3,662.4 181.2,662.4 181.2,531.6 '/>
		<polygon fill = 'rgb( 31, 120, 180)' fill-opacity = '0.250000' points = '181.2,531.6 181.2,662.4 183.1,662.4 183.1,529.3 '/>
		<polygon fill = 'rgb( 31, 120, 180)' fill-opacity = '0.250000' points = '183.1,529.3 183.1,662.4 185.0,662.4 185.0,526.9 '/>
		<polygon fill = 'rgb( 31, 120, 180)' fill-opacity = '0.250000' points = '185.0,526.9 185.0,662.4 186.8,662.4 186.8,524.6 '/>
		<polygon fill = 'rgb( 31, 120, 180)' fill-opacity = '0.250000' points = '186.8,524.6 186.8,662.4 188.7,662.4 188.7,522.2 '/>
		<polygon fill = 'rgb( 31, 120, 180)' fill-opacity = '0.250000' points = '188.7,522.2 188.7,662.4 190.6,662.4 190.6,519.7 '/>
		<polygon fill = 'rgb( 31, 120, 180)' fill-opacity = '0.250000' points = '190.6,519.7 190.6,662.4 192.4,662.4 192.4,517.2 '/>
		<polygon fill = 'rgb( 31, 120, 180)' fill-opacity = '0.250000' points = '192.4,517.2 192.4,662.4 194.3,662.4 194.3,514.5 '/>
		<polygon fill = 'rgb( 31, 120, 180)' fill-opacity = '0.250000' points = '194.3,514.5 194.3,662.4 196.2,662.4 196.2,511.7 '/>
		<polygon fill = 'rgb( 31, 120, 180)' fill-opacity = '0.250000' points = '196.2,511.7 196.2,662.4 198.0,662.4 198.0,508.7 '/>
		<polygon fill = 'rgb( 31, 120, 180)' fill-opacity = '0.250000' points = '198.0,508.7 198.0,662.4 199.9,662.4 199.9,505.6 '/>
		<polygon fill = 'rgb( 31, 120, 180)' fill-opacity = '0.250000' points = '199.9,505.6 199.9,662.4 201.8,662.4 201.8,502.4 '/>
		<polygon fill = 'rgb( 31, 120, 180)' fill-opacity = '0.250000' points = '201.8,502.4 201.8,662.4 203.7,662.4 203.7,499.0 '/>
		<polygon fill = 'rgb( 31, 120, 180)' fill-opacity = '0.250000' points = '203.7,499.0 203.7,662.4 205.5,662.4 205.5,495.4 '/>
		<polygon fill = 'rgb( 31, 120, 180)' fill-opacity = '0.250000' points = '205.5,495.4 205.5,662.4 207.4,662.4 207.4,491.7 '/>
		<polygon fill = 'rgb( 31, 120, 180)' fill-opacity = '0.250000' points = '207.4,491.7 207.4,662.4 209.3,662.4 209.3,488.0 '/>
		<polygon fill = 'rgb( 31, 120, 180)' fill-opacity = '0.250000' points = '209.3,488.0 209.3,662.4 211.1,662.4 211.1,484.2 '/>
		<polygon fill = 'rgb( 31, 120, 180)' fill-opacity = '0.250000' points = '211.1,484.2 211.1,662.4 213.0,662.4 213.0,480.3 '/>
		<polygon fill = 'rgb( 31, 120, 180)' fill-opacity = '0.250000' points = '213.0,480.3 213.0,662.4 214.9,662.4 214.9,476.5 '/>
		<polygon fill = 'rgb( 31, 120, 180)' fill-opacity = '0.250000' points = '214.9,476.5 214.9,662.4 216.7,662.4 216.7,472.7 '/>
		<polygon fill = 'rgb( 31, 120, 180)' fill-opacity = '0.250000' points = '216.7,472.7 216.7,662.4 218.6,662.4 218.6,469.0 '/>
		<polygon fill = 'rgb( 31, 120, 180)' fill-opacity = '0.250000' points = '218.6,469.0 218.6,662.4 220.5,662.4 220.5,465.5 '/>
		<polygon fill = 'rgb( 31, 120, 180)' fill-opacity = '0.250000' points = '220.5,465.5 220.5,662.4 222.4,662.4 222.4,462.2 '/>
		<polygon fill = 'rgb( 31, 120, 180)' fill-opacity = '0.250000' points = '222.4,462.2 222.4,662.4 224.2,662.4 224.2,459.0 '/>
		<polygon fill = 'rgb( 31, 120, 180)' fill-opacity = '0.250000' points = '224.2,459.0 224.2,662.4 226.1,662.4 226.1,456.1 '/>
		<polygon fill = 'rgb( 31, 120, 180)' fill-opacity = '0.250000' points = '226.1,456.1 226.1,662.4 228.0,662.4 228.0,453.5 '/>
		<polygon fill = 'rgb( 31, 120, 180)' fill-opacity = '0.250000' points = '228.0,453.5 228.0,662.4 229.8,662.4 229.8,451.2 '/>
		<polygon fill = 'rgb( 31, 120, 180)' fill-opacity = '0.250000' points = '229.8,451.2 229.8,662.4 231.7,662.4 231.7,449.1 '/>
		<polygon fill = 'rgb( 31, 120, 180)' fill-opacity = '0.250000' points = '231.7,449.1 231.7,662.4 233.6,662.4 233.6,447.4 '/>
		<polygon fill = 'rgb( 31, 120, 180)' fill-opacity = '0.250000' points = '233.6,447.4 233.6,662.4 235.5,662.4 235.5,445.9 '/>
		<polygon fill = 'rgb( 31, 120, 180)' fill-opacity = '0.250000' points = '235.5,445.9 235.5,662.4 237.3,662.4 237.3,444.6 '/>
		<polygon fill = 'rgb( 31, 120, 180)' fill-opacity = '0.250000' points = '237.3,444.6 237.3,662.4 239.2,662.4 239.2,443.6 '/>
		<polygon fill = 'rgb( 31, 120, 180)' fill-opacity = '0.250000' points = '239.2,443.6 239.2,662.4 241.1,662.4 241.1,442.6 '/>
		<polygon fill = 'rgb( 31, 120, 180)' fill-opacity = '0.250000' points = '241.1,442.6 241.1,662.4 242.9,662.4 242.9,441.8 '/>
		<polygon fill = 'rgb( 31, 120, 180)' fill-opacity = '0.250000' points = '242.9,441.8 242.9,662.4 244.8,662.4 244.8,441.0 '/>
		<polygon fill = 'rgb( 31, 120, 180)' fill-opacity = '0.250000' points = '244.8,441.0 244.8,662.4 246.7,662.4 246.7,440.1 '/>
		<polygon fill = 'rgb( 31, 120, 180)' fill-opacity = '0.250000' points = '246.7,440.1 246.7,662.4 248.5,662.4 248.5,439.1 '/>
		<polygon fill = 'rgb( 31, 120, 180)' fill-opacity = '0.250000' points = '248.5,439.1 248.5,662.4 250.4,662.4 250.4,437.9 '/>
		<polygon fill = 'rgb( 31, 120, 180)' fill-opacity = '0.250000' points = '250.4,437.9 250.4,662.4 252.3,662.4 252.3,436.3 '/>
		<polygon fill = 'rgb( 31, 120, 180)' fill-opacity = '0.250000' points = '252.3,436.3 252.3,662.4 254.2,662.4 254.2,434.4 '/>
		<polygon fill = 'rgb( 31, 120, 180)' fill-opacity = '0.250000' points = '254.2,434.4 254.2,662.4 256.0,662.4 256.0,432.0 '/>
		<polygon fill = 'rgb( 31, 120, 180)' fill-opacity = '0.250000' points = '256.0,432.0 256.0,662.4 257.9,662.4 257.9,429.0 '/>
		<polygon fill = 'rgb( 31, 120, 180)' fill-opacity = '0.250000' points = '257.9,429.0 257.9,662.4 259.8,662.4 259.8,425.5 '/>
		<polygon fill = 'rgb( 31, 120, 180)' fill-opacity = '0.250000' points = '259.8,425.5 259.8,662.4 261.6,662.4 261.6,421.3 '/>
		<polygon fill = 'rgb( 31, 120, 180)' fill-opacity = '0.250000' points = '261.6,421.3 261.6,662.4 263.5,662.4 263.5,416.4 '/>
		<polygon fill = 'rgb( 31, 120, 180)' fill-opacity = '0.250000' points = '263.5,416.4 263.5,662.4 265.4,662.4 265.4,410.8 '/>
		<polygon fill = 'rgb( 31, 120, 180)' fill-opacity = '0.250000' points = '265.4,410.8 265.4,662.4 267.3,662.4 267.3,404.5 '/>
		<polygon fill = 'rgb( 31, 120, 180)' fill-opacity = '0.250000' points = '267.3,404.5 267.3,662.4 269.1,662.4 269.1,397.5 '/>
		<polygon fill = 'rgb( 31, 120, 180)' fill-opacity = '0.250000' points = '269.1,397.5 269.1,662.4 271.0,662.4 271.0,389.8 '/>
		<polygon fill = 'rgb( 31, 120, 180)' fill-opacity = '0.250000' points = '271.0,389.8 271.0,662.4 272.9,662.4 272.9,381.5 '/>
		<polygon fill = 'rgb( 31, 120, 180)' fill-opacity = '0.250000' points = '272.9,381.5 272.9,662.4 274.7,662.4 274.7,372.6 '/>
		<polygon fill = 'rgb( 31, 120, 180)' fill-opacity = '0.250000' points = '274.7,372.6 274.7,662.4 276.6,662.4 276.6,363.2 '/>
		<polygon fill = 'rgb( 31, 120, 180)' fill-opacity = '0.250000' points = '276.6,363.2 276.6,662.4 278.5,662.4 278.5,353.3 '/>
		<polygon fill = 'rgb( 31, 120, 180)' fill-opacity = '0.250000' points = '278.5,353.3 278.5,662.4 280.3,662.4 280.3,343.2 '/>
		<polygon fill = 'rgb( 31, 120, 180)' fill-opacity = '0.250000' points = '280.3,343.2 280.3,662.4 282.2,662.4 282.2,332.8 '/>
		<polygon fill = 'rgb( 31, 120, 180)' fill-opacity = '0.250000' points = '282.2,332.8 282.2,662.4 284.1,662.4 284.1,322.3 '/>
		<polygon fill = 'rgb( 31, 120, 180)' fill-opacity = '0.250000' points = '284.1,322.3 284.1,662.4 286.0,662.4 286.0,311.7 '/>
		<polygon fill = 'rgb( 31, 120, 180)' fill-opacity = '0.250000' points = '286.0,311.7 286.0,662.4 287.8,662.4 287.8,301.2 '/>
		<polygon fill = 'rgb( 31, 120, 180)' fill-opacity = '0.250000' points = '287.8,301.2 287.8,662.4 289.7,662.4 289.7,290.9 '/>
		<polygon fill = 'rgb( 31, 120, 180)' fill-opacity = '0.250000' points = '289.7,290.9 289.7,662.4 291.6,662.4 291.6,280.9 '/>
		<polygon fill = 'rgb( 31, 120, 180)' fill-opacity = '0.250000' points = '291.6,280.9 291.6,662.4 293.4,662.4 293.4,271.1 '/>
		<polygon fill = 'rgb( 31, 120, 180)' fill-opacity = '0.250000' points = '293.4,271.1 293.4,662.4 295.3,662.4 295.3,261.8 '/>
		<polygon fill = 'rgb( 31, 120, 180)' fill-opacity = '0.250000' points = '295.3,261.8 295.3,662.4 297.2,662.4 297.2,252.9 '/>
		<polygon fill = 'rgb( 31, 120, 180)' fill-opacity = '0.250000' points = '297.2,252.9 297.2,662.4 299.1,662.4 299.1,244.4 '/>
		<polygon fill = 'rgb( 31, 120, 180)' fill-opacity = '0.250000' points = '299.1,244.4 299.1,662.4 300.9,662.4 300.9,236.4 '/>
		<polygon fill = 'rgb( 31, 120, 180)' fill-opacity = '0.250000' points = '300.9,236.4 300.9,662.4 302.8,662.4 302.8,229.0 '/>
		<polygon fill = 'rgb( 31, 120, 180)' fill-opacity = '0.250000' points = '302.8,229.0 302.8,662.4 304.7,662.4 304.7,222.0 '/>
		<polygon fill = 'rgb( 31, 120, 180)' fill-opacity = '0.250000' points = '304.7,222.0 304.7,662.4 306.5,662.4 306.5,215.6 '/>
		<polygon fill = 'rgb( 31, 120, 180)' fill-opacity = '0.250000' points = '306.5,215.6 306.5,662.4 308.4,662.4 308.4,209.6 '/>
		<polygon fill = 'rgb( 31, 120, 180)' fill-opacity = '0.250000' points = '308.4,209.6 308.4,662.4 310.3,662.4 310.3,204.1 '/>
		<polygon fill = 'rgb( 31, 120, 180)' fill-opacity = '0.250000' points = '310.3,204.1 310.3,662.4 312.1,662.4 312.1,199.0 '/>
		<polygon fill = 'rgb( 31, 120, 180)' fill-opacity = '0.250000' points = '312.1,199.0 312.1,662.4 314.0,662.4 314.0,194.4 '/>
		<polygon fill = 'rgb( 31, 120, 180)' fill-opacity = '0.250000' points = '314.0,194.4 314.0,662.4 315.9,662.4 315.9,190.2 '/>
		<polygon fill = 'rgb( 31, 120, 180)' fill-opacity = '0.250000' points = '315.9,190.2 315.9,662.4 317.8,662.4 317.8,186.5 '/>
		<polygon fill = 'rgb( 31, 120, 180)' fill-opacity = '0.250000' points = '317.8,186.5 317.8,662.4 319.6,662.4 319.6,183.1 '/>
		<polygon fill = 'rgb( 31, 120, 180)' fill-opacity = '0.250000' points = '319.6,183.1 319.6,662.4 321.5,662.4 321.5,180.2 '/>
		<polygon fill = 'rgb( 31, 120, 180)' fill-opacity = '0.250000' points = '321.5,180.2 321.5,662.4 323.4,662.4 323.4,177.7 '/>
		<polygon fill = 'rgb( 31, 120, 180)' fill-opacity = '0.250000' points = '323.4,177.7 323.4,662.4 325.2,662.4 325.2,175.7 '/>
		<polygon fill = 'rgb( 31, 120, 180)' fill-opacity = '0.250000' points = '325.2,175.7 325.2,662.4 327.1,662.4 327.1,174.2 '/>
		<polygon fill = 'rgb( 31, 120, 180)' fill-opacity = '0.250000' points = '327.1,174.2 327.1,662.4 329.0,662.4 329.0,173.1 '/>
		<polygon fill = 'rgb( 31, 120, 180)' fill-opacity = '0.250000' points = '329.0,173.1 329.0,662.4 330.9,662.4 330.9,172.6 '/>
		<polygon fill = 'rgb( 31, 120, 180)' fill-opacity = '0.250000' points = '330.9,172.6 330.9,662.4 332.7,662.4 332.7,172.6 '/>
		<polygon fill = 'rgb( 31, 120, 180)' fill-opacity = '0.250000' points = '332.7,172.6 332.7,662.4 334.6,662.4 334.6,173.2 '/>
		<polygon fill = 'rgb( 31, 120, 180)' fill-opacity = '0.250000' points = '334.6,173.2 334.6,662.4 336.5,662.4 336.5,174.2 '/>
		<polygon fill = 'rgb( 31, 120, 180)' fill-opacity = '0.250000' points = '336.5,174.2 336.5,662.4 338.3,662.4 338.3,175.9 '/>
		<polygon fill = 'rgb( 31, 120, 180)' fill-opacity = '0.250000' points = '338.3,175.9 338.3,662.4 340.2,662.4 340.2,178.0 '/>
		<polygon fill = 'rgb( 31, 120, 180)' fill-opacity = '0.250000' points = '340.2,178.0 340.2,662.4 342.1,662.4 342.1,180.7 '/>
		<polygon fill = 'rgb( 31, 120, 180)' fill-opacity = '0.250000' points = '342.1,180.7 342.1,662.4 343.9,662.4 343.9,183.8 '/>
		<polygon fill = 'rgb( 31, 120, 180)' fill-opacity = '0.250000' points = '343.9,183.8 343.9,662.4 345.8,662.4 345.8,187.3 '/>
		<polygon fill = 'rgb( 31, 120, 180)' fill-opacity = '0.250000' points = '345.8,187.3 345.8,662.4 347.7,662.4 347.7,191.1 '/>
		<polygon fill = 'rgb( 31, 120, 180)' fill-opacity = '0.250000' points = '347.7,191.1 347.7,662.4 349.6,662.4 349.6,195.2 '/>
		<polygon fill = 'rgb( 31, 120, 180)' fill-opacity = '0.250000' points = '349.6,195.2 349.6,662.4 351.4,662.4 351.4,199.4 '/>
		<polygon fill = 'rgb( 31, 120, 180)' fill-opacity = '0.250000' points = '351.4,199.4 351.4,662.4 353.3,662.4 353.3,203.8 '/>
		<polygon fill = 'rgb( 31, 120, 180)' fill-opacity = '0.250000' points = '353.3,203.8 353.3,662.4 355.2,662.4 355.2,208.1 '/>
		<polygon fill = 'rgb( 31, 120, 180)' fill-opacity = '0.250000' points = '355.2,208.1 355.2,662.4 357.0,662.4 357.0,212.4 '/>
		<polygon fill = 'rgb( 31, 120, 180)' fill-opacity = '0.250000' points = '357.0,212.4 357.0,662.4 358.9,662.4 358.9,216.5 '/>
		<polygon fill = 'rgb( 31, 120, 180)' fill-opacity = '0.250000' points = '358.9,216.5 358.9,662.4 360.8,662.4 360.8,220.4 '/>
		<polygon fill = 'rgb( 31, 120, 180)' fill-opacity = '0.250000' points = '360.8,220.4 360.8,662.4 362.7,662.4 362.7,224.1 '/>
		<polygon fill = 'rgb( 31, 120, 180)' fill-opacity = '0.250000' points = '362.7,224.1 362.7,662.4 364.5,662.4 364.5,227.4 '/>
		<polygon fill = 'rgb( 31, 120, 180)' fill-opacity = '0.250000' points = '364.5,227.4 364.5,662.4 366.4,662.4 366.4,230.4 '/>
		<polygon fill = 'rgb( 31, 120, 180)' fill-opacity = '0.250000' points = '366.4,230.4 366.4,662.4 368.3,662.4 368.3,233.0 '/>
		<polygon fill = 'rgb( 31, 120, 180)' fill-opacity = '0.250000' points = '368.3,233.0 368.3,662.4 370.1,662.4 370.1,235.3 '/>
		<polygon fill = 'rgb( 31, 120, 180)' fill-opacity = '0.250000' points = '370.1,235.3 370.1,662.4 372.0,662.4 372.0,237.3 '/>
		<polygon fill = 'rgb( 31, 120, 180)' fill-opacity = '0.250000' points = '372.0,237.3 372.0,662.4 373.9,662.4 373.9,239.0 '/>
		<polygon fill = 'rgb( 31, 120, 180)' fill-opacity = '0.250000' points = '373.9,239.0 373.9,662.4 375.7,662.4 375.7,240.5 '/>
		<polygon fill = 'rgb( 31, 120, 180)' fill-opacity = '0.250000' points = '375.7,240.5 375.7,662.4 377.6,662.4 377.6,241.8 '/>
		<polygon fill = 'rgb( 31, 120, 180)' fill-opacity = '0.250000' points = '377.6,241.8 377.6,662.4 379.5,662.4 379.5,243.0 '/>
		<polygon fill = 'rgb( 31, 120, 180)' fill-opacity = '0.250000' points = '379.5,243.0 379.5,662.4 381.4,662.4 381.4,244.2 '/>
		<polygon fill = 'rgb( 31, 120, 180)' fill-opacity = '0.250000' points = '381.4,244.2 381.4,662.4 383.2,662.4 383.2,245.5 '/>
		<polygon fill = 'rgb( 31, 120, 180)' fill-opacity = '0.250000' points = '383.2,245.5 383.2,662.4 385.1,662.4 385.1,246.8 '/>
		<polygon fill = 'rgb( 31, 120, 180)' fill-opacity = '0.250000' points = '385.1,246.8 385.1,662.4 387.0,662.4 387.0,248.3 '/>
		<polygon fill = 'rgb( 31, 120, 180)' fill-opacity = '0.250000' points = '387.0,248.3 387.0,662.4 388.8,662.4 388.8,250.0 '/>
		<polygon fill = 'rgb( 31, 120, 180)' fill-opacity = '0.250000' points = '388.8,250.0 388.8,662.4 390.7,662.4 390.7,252.0 '/>
		<polygon fill = 'rgb( 31, 120, 180)' fill-opacity = '0.250000' points = '390.7,252.0 390.7,662.4 392.6,662.4 392.6,254.1 '/>
		<polygon fill = 'rgb( 31, 120, 180)' fill-opacity = '0.250000' points = '392.6,254.1 392.6,662.4 394.5,662.4 394.5,256.5 '/>
		<polygon fill = 'rgb( 31, 120, 180)' fill-opacity = '0.250000' points = '394.5,256.5 394.5,662.4 396.3,662.4 396.3,259.2 '/>
		<polygon fill = 'rgb( 31, 120, 180)' fill-opacity = '0.250000' points = '396.3,259.2 396.3,662.4 398.2,662.4 398.2,262.0 '/>
		<polygon fill = 'rgb( 31, 120, 180)' fill-opacity = '0.250000' points = '398.2,262.0 398.2,662.4 400.1,662.4 400.1,265.1 '/>
		<polygon fill = 'rgb( 31, 120, 180)' fill-opacity = '0.250000' points = '400.1,265.1 400.1,662.4 401.9,662.4 401.9,268.3 '/>
		<polygon fill = 'rgb( 31, 120, 180)' fill-opacity = '0.250000' points = '401.9,268.3 401.9,662.4 403.8,662.4 403.8,271.6 '/>
		<polygon fill = 'rgb( 31, 120, 180)' fill-opacity = '0.250000' points = '403.8,271.6 403.8,662.4 405.7,662.4 405.7,275.0 '/>
		<polygon fill = 'rgb( 31, 120, 180)' fill-opacity = '0.250000' points = '405.7,275.0 405.7,662.4 407.5,662.4 407.5,278.5 '/>
		<polygon fill = 'rgb( 31, 120, 180)' fill-opacity = '0.250000' points = '407.5,278.5 407.5,662.4 409.4,662.4 409.4,282.0 '/>
		<polygon fill = 'rgb( 31, 120, 180)' fill-opacity = '0.250000' points = '409.4,282.0 409.4,662.4 411.3,662.4 411.3,285.5 '/>
		<polygon fill = 'rgb( 31, 120, 180)' fill-opacity = '0.250000' points = '411.3,285.5 411.3,662.4 413.2,662.4 413.2,289.1 '/>
		<polygon fill = 'rgb( 31, 120, 180)' fill-opacity = '0.250000' points = '413.2,289.1 413.2,662.4 415.0,662.4 415.0,292.6 '/>
		<polygon fill = 'rgb( 31, 120, 180)' fill-opacity = '0.250000' points = '415.0,292.6 415.0,662.4 416.9,662.4 416.9,296.3 '/>
		<polygon fill = 'rgb( 31, 120, 180)' fill-opacity = '0.250000' points = '416.9,296.3 416.9,662.4 418.8,662.4 418.8,299.9 '/>
		<polygon fill = 'rgb( 31, 120, 180)' fill-opacity = '0.250000' points = '418.8,299.9 418.8,662.4 420.6,662.4 420.6,303.7 '/>
		<polygon fill = 'rgb( 31, 120, 180)' fill-opacity = '0.250000' points = '420.6,303.7 420.6,662.4 422.5,662.4 422.5,307.6 '/>
		<polygon fill = 'rgb( 31, 120, 180)' fill-opacity = '0.250000' points = '422.5,307.6 422.5,662.4 424.4,662.4 424.4,311.6 '/>
		<polygon fill = 'rgb( 31, 120, 180)' fill-opacity = '0.250000' points = '424.4,311.6 424.4,662.4 426.3,662.4 426.3,315.8 '/>
		<polygon fill = 'rgb( 31, 120, 180)' fill-opacity = '0.250000' points = '426.3,315.8 426.3,662.4 428.1,662.4 428.1,320.1 '/>
		<polygon fill = 'rgb( 31, 120, 180)' fill-opacity = '0.250000' points = '428.1,320.1 428.1,662.4 430.0,662.4 430.0,324.7 '/>
		<polygon fill = 'rgb( 31, 120, 180)' fill-opacity = '0.250000' points = '430.0,324.7 430.0,662.4 431.9,662.4 431.9,329.4 '/>
		<polygon fill = 'rgb( 31, 120, 180)' fill-opacity = '0.250000' points = '431.9,329.4 431.9,662.4 433.7,662.4 433.7,334.4 '/>
		<polygon fill = 'rgb( 31, 120, 180)' fill-opacity = '0.250000' points = '433.7,334.4 433.7,662.4 435.6,662.4 435.6,339.5 '/>
		<polygon fill = 'rgb( 31, 120, 180)' fill-opacity = '0.250000' points = '435.6,339.5 435.6,662.4 437.5,662.4 437.5,344.7 '/>
		<polygon fill = 'rgb( 31, 120, 180)' fill-opacity = '0.250000' points = '437.5,344.7 437.5,662.4 439.3,662.4 439.3,350.0 '/>
		<polygon fill = 'rgb( 31, 120, 180)' fill-opacity = '0.250000' points = '439.3,350.0 439.3,662.4 441.2,662.4 441.2,355.3 '/>
		<polygon fill = 'rgb( 31, 120, 180)' fill-opacity = '0.250000' points = '441.2,355.3 441.2,662.4 443.1,662.4 443.1,360.6 '/>
		<polygon fill = 'rgb( 31, 120, 180)' fill-opacity = '0.250000' points = '443.1,360.6 443.1,662.4 445.0,662.4 445.0,365.8 '/>
		<polygon fill = 'rgb( 31, 120, 180)' fill-opacity = '0.250000' points = '445.0,365.8 445.0,662.4 446.8,662.4 446.8,370.8 '/>
		<polygon fill = 'rgb( 31, 120, 180)' fill-opacity = '0.250000' points = '446.8,370.8 446.8,662.4 448.7,662.4 448.7,375.6 '/>
		<polygon fill = 'rgb( 31, 120, 180)' fill-opacity = '0.250000' points = '448.7,375.6 448.7,662.4 450.6,662.4 450.6,380.0 '/>
		<polygon fill = 'rgb( 31, 120, 180)' fill-opacity = '0.250000' points = '450.6,380.0 450.6,662.4 452.4,662.4 452.4,384.2 '/>
		<polygon fill = 'rgb( 31, 120, 180)' fill-opacity = '0.250000' points = '452.4,384.2 452.4,662.4 454.3,662.4 454.3,388.0 '/>
		<polygon fill = 'rgb( 31, 120, 180)' fill-opacity = '0.250000' points = '454.3,388.0 454.3,662.4 456.2,662.4 456.2,391.4 '/>
		<polygon fill = 'rgb( 31, 120, 180)' fill-opacity = '0.250000' points = '456.2,391.4 456.2,662.4 458.0,662.4 458.0,394.5 '/>
		<polygon fill = 'rgb( 31, 120, 180)' fill-opacity = '0.250000' points = '458.0,394.5 458.0,662.4 459.9,662.4 459.9,397.1 '/>
		<polygon fill = 'rgb( 31, 120, 180)' fill-opacity = '0.250000' points = '459.9,397.1 459.9,662.4 461.8,662.4 461.8,399.3 '/>
		<polygon fill = 'rgb( 31, 120, 180)' fill-opacity = '0.250000' points = '461.8,399.3 461.8,662.4 463.7,662.4 463.7,401.1 '/>
		<polygon fill = 'rgb( 31, 120, 180)' fill-opacity = '0.250000' points = '463.7,401.1 463.7,662.4 465.5,662.4 465.5,402.6 '/>
		<polygon fill = 'rgb( 31, 120, 180)' fill-opacity = '0.250000' points = '465.5,402.6 465.5,662.4 467.4,662.4 467.4,403.8 '/>
		<polygon fill = 'rgb( 31, 120, 180)' fill-opacity = '0.250000' points = '467.4,403.8 467.4,662.4 469.3,662.4 469.3,404.8 '/>
		<polygon fill = 'rgb( 31, 120, 180)' fill-opacity = '0.250000' points = '469.3,404.8 469.3,662.4 471.1,662.4 471.1,405.5 '/>
		<polygon fill = 'rgb( 31, 120, 180)' fill-opacity = '0.250000' points = '471.1,405.5 471.1,662.4 473.0,662.4 473.0,406.0 '/>
		<polygon fill = 'rgb( 31, 120, 180)' fill-opacity = '0.250000' points = '473.0,406.0 473.0,662.4 474.9,662.4 474.9,406.3 '/>
		<polygon fill = 'rgb( 31, 120, 180)' fill-opacity = '0.250000' points = '474.9,406.3 474.9,662.4 476.8,662.4 476.8,406.6 '/>
		<polygon fill = 'rgb( 31, 120, 180)' fill-opacity = '0.250000' points = '476.8,406.6 476.8,662.4 478.6,662.4 478.6,406.7 '/>
		<polygon fill = 'rgb( 31, 120, 180)' fill-opacity = '0.250000' points = '478.6,406.7 478.6,662.4 480.5,662.4 480.5,406.9 '/>
		<polygon fill = 'rgb( 31, 120, 180)' fill-opacity = '0.250000' points = '480.5,406.9 480.5,662.4 482.4,662.4 482.4,406.9 '/>
		<polygon fill = 'rgb( 31, 120, 180)' fill-opacity = '0.250000' points = '482.4,406.9 482.4,662.4 484.2,662.4 484.2,407.0 '/>
		<polygon fill = 'rgb( 31, 120, 180)' fill-opacity = '0.250000' points = '484.2,407.0 484.2,662.4 486.1,662.4 486.1,407.0 '/>
		<polygon fill = 'rgb( 31, 120, 180)' fill-opacity = '0.250000' points = '486.1,407.0 486.1,662.4 488.0,662.4 488.0,407.0 '/>
		<polygon fill = 'rgb( 31, 120, 180)' fill-opacity = '0.250000' points = '488.0,407.0 488.0,662.4 489.8,662.4 489.8,406.9 '/>
		<polygon fill = 'rgb( 31, 120, 180)' fill-opacity = '0.250000' points = '489.8,406.9 489.8,662.4 491.7,662.4 491.7,406.8 '/>
		<polygon fill = 'rgb( 31, 120, 180)' fill-opacity = '0.250000' points = '491.7,406.8 491.7,662.4 493.6,662.4 493.6,406.7 '/>
		<polygon fill = 'rgb( 31, 120, 180)' fill-opacity = '0.250000' points = '493.6,406.7 493.6,662.4 495.5,662.4 495.5,406.5 '/>
		<polygon fill = 'rgb( 31, 120, 180)' fill-opacity = '0.250000' points = '495.5,406.5 495.5,662.4 497.3,662.4 497.3,406.2 '/>
		<polygon fill = 'rgb( 31, 120, 180)' fill-opacity = '0.250000' points = '497.3,406.2 497.3,662.4 499.2,662.4 499.2,405.8 '/>
		<polygon fill = 'rgb( 31, 120, 180)' fill-opacity = '0.250000' points = '499.2,405.8 499.2,662.4 501.1,662.4 501.1,405.2 '/>
		<polygon fill = 'rgb( 31, 120, 180)' fill-opacity = '0.250000' points = '501.1,405.2 501.1,662.4 502.9,662.4 502.9,404.6 '/>
		<polygon fill = 'rgb( 31, 120, 180)' fill-opacity = '0.250000' points = '502.9,404.6 502.9,662.4 504.8,662.4 504.8,403.7 '/>
		<polygon fill = 'rgb( 31, 120, 180)' fill-opacity = '0.250000' points = '504.8,403.7 504.8,662.4 506.7,662.4 506.7,402.7 '/>
		<polygon fill = 'rgb( 31, 120, 180)' fill-opacity = '0.250000' points = '506.7,402.7 506.7,662.4 508.6,662.4 508.6,401.5 '/>
		<polygon fill = 'rgb( 31, 120, 180)' fill-opacity = '0.250000' points = '508.6,401.5 508.6,662.4 510.4,662.4 510.4,400.2 '/>
		<polygon fill = 'rgb( 31, 120, 180)' fill-opacity = '0.250000' points = '510.4,400.2 510.4,662.4 512.3,662.4 512.3,398.6 '/>
		<polygon fill = 'rgb( 31, 120, 180)' fill-opacity = '0.250000' points = '512.3,398.6 512.3,662.4 514.2,662.4 514.2,396.8 '/>
		<polygon fill = 'rgb( 31, 120, 180)' fill-opacity = '0.250000' points = '514.2,396.8 514.2,662.4 516.0,662.4 516.0,394.8 '/>
		<polygon fill = 'rgb( 31, 120, 180)' fill-opacity = '0.250000' points = '516.0,394.8 516.0,662.4 517.9,662.4 517.9,392.5 '/>
		<polygon fill = 'rgb( 31, 120, 180)' fill-opacity = '0.250000' points = '517.9,392.5 517.9,662.4 519.8,662.4 519.8,390.0 '/>
		<polygon fill = 'rgb( 31, 120, 180)' fill-opacity = '0.250000' points = '519.8,390.0 519.8,662.4 521.6,662.4 521.6,387.3 '/>
		<polygon fill = 'rgb( 31, 120, 180)' fill-opacity = '0.250000' points = '521.6,387.3 521.6,662.4 523.5,662.4 523.5,384.3 '/>
		<polygon fill = 'rgb( 31, 120, 180)' fill-opacity = '0.250000' points = '523.5,384.3 523.5,662.4 525.4,662.4 525.4,381.0 '/>
		<polygon fill = 'rgb( 31, 120, 180)' fill-opacity = '0.250000' points = '525.4,381.0 525.4,662.4 527.3,662.4 527.3,377.4 '/>
		<polygon fill = 'rgb( 31, 120, 180)' fill-opacity = '0.250000' points = '527.3,377.4 527.3,662.4 529.1,662.4 529.1,373.5 '/>
		<polygon fill = 'rgb( 31, 120, 180)' fill-opacity = '0.250000' points = '529.1,373.5 529.1,662.4 531.0,662.4 531.0,369.2 '/>
		<polygon fill = 'rgb( 31, 120, 180)' fill-opacity = '0.250000' points = '531.0,369.2 531.0,662.4 532.9,662.4 532.9,364.5 '/>
		<polygon fill = 'rgb( 31, 120, 180)' fill-opacity = '0.250000' points = '532.9,364.5 532.9,662.4 534.7,662.4 534.7,359.4 '/>
		<polygon fill = 'rgb( 31, 120, 180)' fill-opacity = '0.250000' points = '534.7,359.4 534.7,662.4 536.6,662.4 536.6,353.9 '/>
		<polygon fill = 'rgb( 31, 120, 180)' fill-opacity = '0.250000' points = '536.6,353.9 536.6,662.4 538.5,662.4 538.5,347.9 '/>
		<polygon fill = 'rgb( 31, 120, 180)' fill-opacity = '0.250000' points = '538.5,347.9 538.5,662.4 540.4,662.4 540.4,341.3 '/>
		<polygon fill = 'rgb( 31, 120, 180)' fill-opacity = '0.250000' points = '540.4,341.3 540.4,662.4 542.2,662.4 542.2,334.2 '/>
		<polygon fill = 'rgb( 31, 120, 180)' fill-opacity = '0.250000' points = '542.2,334.2 542.2,662.4 544.1,662.4 544.1,326.6 '/>
		<polygon fill = 'rgb( 31, 120, 180)' fill-opacity = '0.250000' points = '544.1,326.6 544.1,662.4 546.0,662.4 546.0,318.4 '/>
		<polygon fill = 'rgb( 31, 120, 180)' fill-opacity = '0.250000' points = '546.0,318.4 546.0,662.4 547.8,662.4 547.8,309.6 '/>
		<polygon fill = 'rgb( 31, 120, 180)' fill-opacity = '0.250000' points = '547.8,309.6 547.8,662.4 549.7,662.4 549.7,300.2 '/>
		<polygon fill = 'rgb( 31, 120, 180)' fill-opacity = '0.250000' points = '549.7,300.2 549.7,662.4 551.6,662.4 551.6,290.2 '/>
		<polygon fill = 'rgb( 31, 120, 180)' fill-opacity = '0.250000' points = '551.6,290.2 551.6,662.4 553.4,662.4 553.4,279.6 '/>
		<polygon fill = 'rgb( 31, 120, 180)' fill-opacity = '0.250000' points = '553.4,279.6 553.4,662.4 555.3,662.4 555.3,268.5 '/>
		<polygon fill = 'rgb( 31, 120, 180)' fill-opacity = '0.250000' points = '555.3,268.5 555.3,662.4 557.2,662.4 557.2,256.9 '/>
		<polygon fill = 'rgb( 31, 120, 180)' fill-opacity = '0.250000' points = '557.2,256.9 557.2,662.4 559.1,662.4 559.1,244.8 '/>
		<polygon fill = 'rgb( 31, 120, 180)' fill-opacity = '0.250000' points = '559.1,244.8 559.1,662.4 560.9,662.4 560.9,232.4 '/>
		<polygon fill = 'rgb( 31, 120, 180)' fill-opacity = '0.250000' points = '560.9,232.4 560.9,662.4 562.8,662.4 562.8,219.6 '/>
		<polygon fill = 'rgb( 31, 120, 180)' fill-opacity = '0.250000' points = '562.8,219.6 562.8,662.4 564.7,662.4 564.7,206.7 '/>
		<polygon fill = 'rgb( 31, 120, 180)' fill-opacity = '0.250000' points = '564.7,206.7 564.7,662.4 566.5,662.4 566.5,193.7 '/>
		<polygon fill = 'rgb( 31, 120, 180)' fill-opacity = '0.250000' points = '566.5,193.7 566.5,662.4 568.4,662.4 568.4,180.8 '/>
		<polygon fill = 'rgb( 31, 120, 180)' fill-opacity = '0.250000' points = '568.4,180.8 568.4,662.4 570.3,662.4 570.3,168.1 '/>
		<polygon fill = 'rgb( 31, 120, 180)' fill-opacity = '0.250000' points = '570.3,168.1 570.3,662.4 572.2,662.4 572.2,155.8 '/>
		<polygon fill = 'rgb( 31, 120, 180)' fill-opacity = '0.250000' points = '572.2,155.8 572.2,662.4 574.0,662.4 574.0,144.0 '/>
		<polygon fill = 'rgb( 31, 120, 180)' fill-opacity = '0.250000' points = '574.0,144.0 574.0,662.4 575.9,662.4 575.9,133.0 '/>
		<polygon fill = 'rgb( 31, 120, 180)' fill-opacity = '0.250000' points = '575.9,133.0 575.9,662.4 577.8,662.4 577.8,122.9 '/>
		<polygon fill = 'rgb( 31, 120, 180)' fill-opacity = '0.250000' points = '577.8,122.9 577.8,662.4 579.6,662.4 579.6,113.8 '/>
		<polygon fill = 'rgb( 31, 120, 180)' fill-opacity = '0.250000' points = '579.6,113.8 579.6,662.4 581.5,662.4 581.5,106.1 '/>
		<polygon fill = 'rgb( 31, 120, 180)' fill-opacity = '0.250000' points = '581.5,106.1 581.5,662.4 583.4,662.4 583.4,99.7 '/>
		<polygon fill = 'rgb( 31, 120, 180)' fill-opacity = '0.250000' points = '583.4,99.7 583.4,662.4 585.2,662.4 585.2,94.9 '/>
		<polygon fill = 'rgb( 31, 120, 180)' fill-opacity = '0.250000' points = '585.2,94.9 585.2,662.4 587.1,662.4 587.1,91.9 '/>
		<polygon fill = 'rgb( 31, 120, 180)' fill-opacity = '0.250000' points = '587.1,91.9 587.1,662.4 589.0,662.4 589.0,90.6 '/>
		<polygon fill = 'rgb( 31, 120, 180)' fill-opacity = '0.250000' points = '589.0,90.6 589.0,662.4 590.9,662.4 590.9,91.1 '/>
		<polygon fill = 'rgb( 31, 120, 180)' fill-opacity = '0.250000' points = '590.9,91.1 590.9,662.4 592.7,662.4 592.7,93.5 '/>
		<polygon fill = 'rgb( 31, 120, 180)' fill-opacity = '0.250000' points = '592.7,93.5 592.7,662.4 594.6,662.4 594.6,97.7 '/>
		<polygon fill = 'rgb( 31, 120, 180)' fill-opacity = '0.250000' points = '594.6,97.7 594.6,662.4 596.5,662.4 596.5,103.7 '/>
		<polygon fill = 'rgb( 31, 120, 180)' fill-opacity = '0.250000' points = '596.5,103.7 596.5,662.4 598.3,662.4 598.3,111.3 '/>
		<polygon fill = 'rgb( 31, 120, 180)' fill-opacity = '0.250000' points = '598.3,111.3 598.3,662.4 600.2,662.4 600.2,120.5 '/>
		<polygon fill = 'rgb( 31, 120, 180)' fill-opacity = '0.250000' points = '600.2,120.5 600.2,662.4 602.1,662.4 602.1,131.1 '/>
		<polygon fill = 'rgb( 31, 120, 180)' fill-opacity = '0.250000' points = '602.1,131.1 602.1,662.4 604.0,662.4 604.0,142.9 '/>
		<polygon fill = 'rgb( 31, 120, 180)' fill-opacity = '0.250000' points = '604.0,142.9 604.0,662.4 605.8,662.4 605.8,155.6 '/>
		<polygon fill = 'rgb( 31, 120, 180)' fill-opacity = '0.250000' points = '605.8,155.6 605.8,662.4 607.7,662.4 607.7,169.1 '/>
		<polygon fill = 'rgb( 31, 120, 180)' fill-opacity = '0.250000' points = '607.7,169.1 607.7,662.4 609.6,662.4 609.6,183.1 '/>
		<polygon fill = 'rgb( 31, 120, 180)' fill-opacity = '0.250000' points = '609.6,183.1 609.6,662.4 611.4,662.4 611.4,197.4 '/>
		<polygon fill = 'rgb( 31, 120, 180)' fill-opacity = '0.250000' points = '611.4,197.4 611.4,662.4 613.3,662.4 613.3,211.7 '/>
		<polygon fill = 'rgb( 31, 120, 180)' fill-opacity = '0.250000' points = '613.3,211.7 613.3,662.4 615.2,662.4 615.2,225.9 '/>
		<polygon fill = 'rgb( 31, 120, 180)' fill-opacity = '0.250000' points = '615.2,225.9 615.2,662.4 617.0,662.4 617.0,239.7 '/>
		<polygon fill = 'rgb( 31, 120, 180)' fill-opacity = '0.250000' points = '617.0,239.7 617.0,662.4 618.9,662.4 618.9,253.1 '/>
		<polygon fill = 'rgb( 31, 120, 180)' fill-opacity = '0.250000' points = '618.9,253.1 618.9,662.4 620.8,662.4 620.8,265.9 '/>
		<polygon fill = 'rgb( 31, 120, 180)' fill-opacity = '0.250000' points = '620.8,265.9 620.8,662.4 622.7,662.4 622.7,277.9 '/>
		<polygon fill = 'rgb( 31, 120, 180)' fill-opacity = '0.250000' points = '622.7,277.9 622.7,662.4 624.5,662.4 624.5,289.2 '/>
		<polygon fill = 'rgb( 31, 120, 180)' fill-opacity = '0.250000' points = '624.5,289.2 624.5,662.4 626.4,662.4 626.4,299.8 '/>
		<polygon fill = 'rgb( 31, 120, 180)' fill-opacity = '0.250000' points = '626.4,299.8 626.4,662.4 628.3,662.4 628.3,309.5 '/>
		<polygon fill = 'rgb( 31, 120, 180)' fill-opacity = '0.250000' points = '628.3,309.5 628.3,662.4 630.1,662.4 630.1,318.5 '/>
		<polygon fill = 'rgb( 31, 120, 180)' fill-opacity = '0.250000' points = '630.1,318.5 630.1,662.4 632.0,662.4 632.0,326.9 '/>
		<polygon fill = 'rgb( 31, 120, 180)' fill-opacity = '0.250000' points = '632.0,326.9 632.0,662.4 633.9,662.4 633.9,334.6 '/>
		<polygon fill = 'rgb( 31, 120, 180)' fill-opacity = '0.250000' points = '633.9,334.6 633.9,662.4 635.8,662.4 635.8,341.8 '/>
		<polygon fill = 'rgb( 31, 120, 180)' fill-opacity = '0.250000' points = '635.8,341.8 635.8,662.4 637.6,662.4 637.6,348.6 '/>
		<polygon fill = 'rgb( 31, 120, 180)' fill-opacity = '0.250000' points = '637.6,348.6 637.6,662.4 639.5,662.4 639.5,355.1 '/>
		<polygon fill = 'rgb( 31, 120, 180)' fill-opacity = '0.250000' points = '639.5,355.1 639.5,662.4 641.4,662.4 641.4,361.4 '/>
		<polygon fill = 'rgb( 31, 120, 180)' fill-opacity = '0.250000' points = '641.4,361.4 641.4,662.4 643.2,662.4 643.2,367.6 '/>
		<polygon fill = 'rgb( 31, 120, 180)' fill-opacity = '0.250000' points = '643.2,367.6 643.2,662.4 645.1,662.4 645.1,373.7 '/>
		<polygon fill = 'rgb( 31, 120, 180)' fill-opacity = '0.250000' points = '645.1,373.7 645.1,662.4 647.0,662.4 647.0,379.9 '/>
		<polygon fill = 'rgb( 31, 120, 180)' fill-opacity = '0.250000' points = '647.0,379.9 647.0,662.4 648.8,662.4 648.8,386.2 '/>
		<polygon fill = 'rgb( 31, 120, 180)' fill-opacity = '0.250000' points = '648.8,386.2 648.8,662.4 650.7,662.4 650.7,392.7 '/>
		<polygon fill = 'rgb( 31, 120, 180)' fill-opacity = '0.250000' points = '650.7,392.7 650.7,662.4 652.6,662.4 652.6,399.4 '/>
		<polygon fill = 'rgb( 31, 120, 180)' fill-opacity = '0.250000' points = '652.6,399.4 652.6,662.4 654.5,662.4 654.5,406.2 '/>
		<polygon fill = 'rgb( 31, 120, 180)' fill-opacity = '0.250000' points = '654.5,406.2 654.5,662.4 656.3,662.4 656.3,413.2 '/>
		<polygon fill = 'rgb( 31, 120, 180)' fill-opacity = '0.250000' points = '656.3,413.2 656.3,662.4 658.2,662.4 658.2,420.4 '/>
		<polygon fill = 'rgb( 31, 120, 180)' fill-opacity = '0.250000' points = '658.2,420.4 658.2,662.4 660.1,662.4 660.1,427.8 '/>
		<polygon fill = 'rgb( 31, 120, 180)' fill-opacity = '0.250000' points = '660.1,427.8 660.1,662.4 661.9,662.4 661.9,435.2 '/>
		<polygon fill = 'rgb( 31, 120, 180)' fill-opacity = '0.250000' points = '661.9,435.2 661.9,662.4 663.8,662.4 663.8,442.8 '/>
		<polygon fill = 'rgb( 31, 120, 180)' fill-opacity = '0.250000' points = '663.8,442.8 663.8,662.4 665.7,662.4 665.7,450.3 '/>
		<polygon fill = 'rgb( 31, 120, 180)' fill-opacity = '0.250000' points = '665.7,450.3 665.7,662.4 667.5,662.4 667.5,457.7 '/>
		<polygon fill = 'rgb( 31, 120, 180)' fill-opacity = '0.250000' points = '667.5,457.7 667.5,662.4 669.4,662.4 669.4,465.1 '/>
		<polygon fill = 'rgb( 31, 120, 180)' fill-opacity = '0.250000' points = '669.4,465.1 669.4,662.4 671.3,662.4 671.3,472.2 '/>
		<polygon fill = 'rgb( 31, 120, 180)' fill-opacity = '0.250000' points = '671.3,472.2 671.3,662.4 673.2,662.4 673.2,479.2 '/>
		<polygon fill = 'rgb( 31, 120, 180)' fill-opacity = '0.250000' points = '673.2,479.2 673.2,662.4 675.0,662.4 675.0,485.9 '/>
		<polygon fill = 'rgb( 31, 120, 180)' fill-opacity = '0.250000' points = '675.0,485.9 675.0,662.4 676.9,662.4 676.9,492.2 '/>
		<polygon fill = 'rgb( 31, 120, 180)' fill-opacity = '0.250000' points = '676.9,492.2 676.9,662.4 678.8,662.4 678.8,498.3 '/>
		<polygon fill = 'rgb( 31, 120, 180)' fill-opacity = '0.250000' points = '678.8,498.3 678.8,662.4 680.6,662.4 680.6,503.9 '/>
		<polygon fill = 'rgb( 31, 120, 180)' fill-opacity = '0.250000' points = '680.6,503.9 680.6,662.4 682.5,662.4 682.5,509.2 '/>
		<polygon fill = 'rgb( 31, 120, 180)' fill-opacity = '0.250000' points = '682.5,509.2 682.5,662.4 684.4,662.4 684.4,514.1 '/>
		<polygon fill = 'rgb( 31, 120, 180)' fill-opacity = '0.250000' points = '684.4,514.1 684.4,662.4 686.3,662.4 686.3,518.6 '/>
		<polygon fill = 'rgb( 31, 120, 180)' fill-opacity = '0.250000' points = '686.3,518.6 686.3,662.4 688.1,662.4 688.1,522.7 '/>
		<polygon fill = 'rgb( 31, 120, 180)' fill-opacity = '0.250000' points = '688.1,522.7 688.1,662.4 690.0,662.4 690.0,526.4 '/>
		<polygon fill = 'rgb( 31, 120, 180)' fill-opacity = '0.250000' points = '690.0,526.4 690.0,662.4 691.9,662.4 691.9,529.8 '/>
		<polygon fill = 'rgb( 31, 120, 180)' fill-opacity = '0.250000' points = '691.9,529.8 691.9,662.4 693.7,662.4 693.7,532.8 '/>
		<polygon fill = 'rgb( 31, 120, 180)' fill-opacity = '0.250000' points = '693.7,532.8 693.7,662.4 695.6,662.4 695.6,535.5 '/>
		<polygon fill = 'rgb( 31, 120, 180)' fill-opacity = '0.250000' points = '695.6,535.5 695.6,662.4 697.5,662.4 697.5,538.0 '/>
		<polygon fill = 'rgb( 31, 120, 180)' fill-opacity = '0.250000' points = '697.5,538.0 697.5,662.4 699.3,662.4 699.3,540.2 '/>
		<polygon fill = 'rgb( 31, 120, 180)' fill-opacity = '0.250000' points = '699.3,540.2 699.3,662.4 701.2,662.4 701.2,542.2 '/>
		<polygon fill = 'rgb( 31, 120, 180)' fill-opacity = '0.250000' points = '701.2,542.2 701.2,662.4 703.1,662.4 703.1,544.1 '/>
		<polygon fill = 'rgb( 31, 120, 180)' fill-opacity = '0.250000' points = '703.1,544.1 703.1,662.4 705.0,662.4 705.0,545.7 '/>
		<polygon fill = 'rgb( 31, 120, 180)' fill-opacity = '0.250000' points = '705.0,545.7 705.0,662.4 706.8,662.4 706.8,547.3 '/>
		<polygon fill = 'rgb( 31, 120, 180)' fill-opacity = '0.250000' points = '706.8,547.3 706.8,662.4 708.7,662.4 708.7,548.8 '/>
		<polygon fill = 'rgb( 31, 120, 180)' fill-opacity = '0.250000' points = '708.7,548.8 708.7,662.4 710.6,662.4 710.6,550.2 '/>
		<polygon fill = 'rgb( 31, 120, 180)' fill-opacity = '0.250000' points = '710.6,550.2 710.6,662.4 712.4,662.4 712.4,551.5 '/>
		<polygon fill = 'rgb( 31, 120, 180)' fill-opacity = '0.250000' points = '712.4,551.5 712.4,662.4 714.3,662.4 714.3,552.8 '/>
		<polygon fill = 'rgb( 31, 120, 180)' fill-opacity = '0.250000' points = '714.3,552.8 714.3,662.4 716.2,662.4 716.2,554.1 '/>
		<polygon fill = 'rgb( 31, 120, 180)' fill-opacity = '0.250000' points = '716.2,554.1 716.2,662.4 718.1,662.4 718.1,555.3 '/>
		<polygon fill = 'rgb( 31, 120, 180)' fill-opacity = '0.250000' points = '718.1,555.3 718.1,662.4 719.9,662.4 719.9,556.6 '/>
		<polygon fill = 'rgb( 31, 120, 180)' fill-opacity = '0.250000' points = '719.9,556.6 719.9,662.4 721.8,662.4 721.8,557.8 '/>
		<polygon fill = 'rgb( 31, 120, 180)' fill-opacity = '0.250000' points = '721.8,557.8 721.8,662.4 723.7,662.4 723.7,559.0 '/>
		<polygon fill = 'rgb( 31, 120, 180)' fill-opacity = '0.250000' points = '723.7,559.0 723.7,662.4 725.5,662.4 725.5,560.2 '/>
		<polygon fill = 'rgb( 31, 120, 180)' fill-opacity = '0.250000' points = '725.5,560.2 725.5,662.4 727.4,662.4 727.4,561.4 '/>
		<polygon fill = 'rgb( 31, 120, 180)' fill-opacity = '0.250000' points = '727.4,561.4 727.4,662.4 729.3,662.4 729.3,562.6 '/>
		<polygon fill = 'rgb( 31, 120, 180)' fill-opacity = '0.250000' points = '729.3,562.6 729.3,662.4 731.1,662.4 731.1,563.7 '/>
		<polygon fill = 'rgb( 31, 120, 180)' fill-opacity = '0.250000' points = '731.1,563.7 731.1,662.4 733.0,662.4 733.0,564.8 '/>
		<polygon fill = 'rgb( 31, 120, 180)' fill-opacity = '0.250000' points = '733.0,564.8 733.0,662.4 734.9,662.4 734.9,565.8 '/>
		<polygon fill = 'rgb( 31, 120, 180)' fill-opacity = '0.250000' points = '734.9,565.8 734.9,662.4 736.8,662.4 736.8,566.8 '/>
		<polygon fill = 'rgb( 31, 120, 180)' fill-opacity = '0.250000' points = '736.8,566.8 736.8,662.4 738.6,662.4 738.6,567.8 '/>
		<polygon fill = 'rgb( 31, 120, 180)' fill-opacity = '0.250000' points = '738.6,567.8 738.6,662.4 740.5,662.4 740.5,568.6 '/>
		<polygon fill = 'rgb( 31, 120, 180)' fill-opacity = '0.250000' points = '740.5,568.6 740.5,662.4 742.4,662.4 742.4,569.4 '/>
		<polygon fill = 'rgb( 31, 120, 180)' fill-opacity = '0.250000' points = '742.4,569.4 742.4,662.4 744.2,662.4 744.2,570.2 '/>
		<polygon fill = 'rgb( 31, 120, 180)' fill-opacity = '0.250000' points = '744.2,570.2 744.2,662.4 746.1,662.4 746.1,570.8 '/>
		<polygon fill = 'rgb( 31, 120, 180)' fill-opacity = '0.250000' points = '746.1,570.8 746.1,662.4 748.0,662.4 748.0,571.5 '/>
		<polygon fill = 'rgb( 31, 120, 180)' fill-opacity = '0.250000' points = '748.0,571.5 748.0,662.4 749.9,662.4 749.9,572.0 '/>
		<polygon fill = 'rgb( 31, 120, 180)' fill-opacity = '0.250000' points = '749.9,572.0 749.9,662.4 751.7,662.4 751.7,572.5 '/>
		<polygon fill = 'rgb( 31, 120, 180)' fill-opacity = '0.250000' points = '751.7,572.5 751.7,662.4 753.6,662.4 753.6,573.0 '/>
		<polygon fill = 'rgb( 31, 120, 180)' fill-opacity = '0.250000' points = '753.6,573.0 753.6,662.4 755.5,662.4 755.5,573.5 '/>
		<polygon fill = 'rgb( 31, 120, 180)' fill-opacity = '0.250000' points = '755.5,573.5 755.5,662.4 757.3,662.4 757.3,574.0 '/>
		<polygon fill = 'rgb( 31, 120, 180)' fill-opacity = '0.250000' points = '757.3,574.0 757.3,662.4 759.2,662.4 759.2,574.4 '/>
		<polygon fill = 'rgb( 31, 120, 180)' fill-opacity = '0.250000' points = '759.2,574.4 759.2,662.4 761.1,662.4 761.1,574.9 '/>
		<polygon fill = 'rgb( 31, 120, 180)' fill-opacity = '0.250000' points = '761.1,574.9 761.1,662.4 762.9,662.4 762.9,575.5 '/>
		<polygon fill = 'rgb( 31, 120, 180)' fill-opacity = '0.250000' points = '762.9,575.5 762.9,662.4 764.8,662.4 764.8,576.1 '/>
		<polygon fill = 'rgb( 31, 120, 180)' fill-opacity = '0.250000' points = '764.8,576.1 764.8,662.4 766.7,662.4 766.7,576.7 '/>
		<polygon fill = 'rgb( 31, 120, 180)' fill-opacity = '0.250000' points = '766.7,576.7 766.7,662.4 768.6,662.4 768.6,577.5 '/>
		<polygon fill = 'rgb( 31, 120, 180)' fill-opacity = '0.250000' points = '768.6,577.5 768.6,662.4 770.4,662.4 770.4,578.2 '/>
		<polygon fill = 'rgb( 31, 120, 180)' fill-opacity = '0.250000' points = '770.4,578.2 770.4,662.4 772.3,662.4 772.3,579.1 '/>
		<polygon fill = 'rgb( 31, 120, 180)' fill-opacity = '0.250000' points = '772.3,579.1 772.3,662.4 774.2,662.4 774.2,580.0 '/>
		<polygon fill = 'rgb( 31, 120, 180)' fill-opacity = '0.250000' points = '774.2,580.0 774.2,662.4 776.0,662.4 776.0,580.9 '/>
		<polygon fill = 'rgb( 31, 120, 180)' fill-opacity = '0.250000' points = '776.0,580.9 776.0,662.4 777.9,662.4 777.9,581.9 '/>
		<polygon fill = 'rgb( 31, 120, 180)' fill-opacity = '0.250000' points = '777.9,581.9 777.9,662.4 779.8,662.4 779.8,582.9 '/>
		<polygon fill = 'rgb( 31, 120, 180)' fill-opacity = '0.250000' points = '779.8,582.9 779.8,662.4 781.7,662.4 781.7,584.0 '/>
		<polygon fill = 'rgb( 31, 120, 180)' fill-opacity = '0.250000' points = '781.7,584.0 781.7,662.4 783.5,662.4 783.5,585.0 '/>
		<polygon fill = 'rgb( 31, 120, 180)' fill-opacity = '0.250000' points = '783.5,585.0 783.5,662.4 785.4,662.4 785.4,585.9 '/>
		<polygon fill = 'rgb( 31, 120, 180)' fill-opacity = '0.250000' points = '785.4,585.9 785.4,662.4 787.3,662.4 787.3,586.9 '/>
		<polygon fill = 'rgb( 31, 120, 180)' fill-opacity = '0.250000' points = '787.3,586.9 787.3,662.4 789.1,662.4 789.1,587.8 '/>
		<polygon fill = 'rgb( 31, 120, 180)' fill-opacity = '0.250000' points = '789.1,587.8 789.1,662.4 791.0,662.4 791.0,588.6 '/>
		<polygon fill = 'rgb( 31, 120, 180)' fill-opacity = '0.250000' points = '791.0,588.6 791.0,662.4 792.9,662.4 792.9,589.4 '/>
		<polygon fill = 'rgb( 31, 120, 180)' fill-opacity = '0.250000' points = '792.9,589.4 792.9,662.4 794.7,662.4 794.7,590.0 '/>
		<polygon fill = 'rgb( 31, 120, 180)' fill-opacity = '0.250000' points = '794.7,590.0 794.7,662.4 796.6,662.4 796.6,590.6 '/>
		<polygon fill = 'rgb( 31, 120, 180)' fill-opacity = '0.250000' points = '796.6,590.6 796.6,662.4 798.5,662.4 798.5,591.1 '/>
		<polygon fill = 'rgb( 31, 120, 180)' fill-opacity = '0.250000' points = '798.5,591.1 798.5,662.4 800.4,662.4 800.4,591.5 '/>
		<polygon fill = 'rgb( 31, 120, 180)' fill-opacity = '0.250000' points = '800.4,591.5 800.4,662.4 802.2,662.4 802.2,591.9 '/>
		<polygon fill = 'rgb( 31, 120, 180)' fill-opacity = '0.250000' points = '802.2,591.9 802.2,662.4 804.1,662.4 804.1,592.2 '/>
		<polygon fill = 'rgb( 31, 120, 180)' fill-opacity = '0.250000' points = '804.1,592.2 804.1,662.4 806.0,662.4 806.0,592.4 '/>
		<polygon fill = 'rgb( 31, 120, 180)' fill-opacity = '0.250000' points = '806.0,592.4 806.0,662.4 807.8,662.4 807.8,592.6 '/>
		<polygon fill = 'rgb( 31, 120, 180)' fill-opacity = '0.250000' points = '807.8,592.6 807.8,662.4 809.7,662.4 809.7,592.7 '/>
		<polygon fill = 'rgb( 31, 120, 180)' fill-opacity = '0.250000' points = '809.7,592.7 809.7,662.4 811.6,662.4 811.6,592.8 '/>
		<polygon fill = 'rgb( 31, 120, 180)' fill-opacity = '0.250000' points = '811.6,592.8 811.6,662.4 813.5,662.4 813.5,592.9 '/>
		<polygon fill = 'rgb( 31, 120, 180)' fill-opacity = '0.250000' points = '813.5,592.9 813.5,662.4 815.3,662.4 815.3,592.9 '/>
		<polygon fill = 'rgb( 31, 120, 180)' fill-opacity = '0.250000' points = '815.3,592.9 815.3,662.4 817.2,662.4 817.2,593.0 '/>
		<polygon fill = 'rgb( 31, 120, 180)' fill-opacity = '0.250000' points = '817.2,593.0 817.2,662.4 819.1,662.4 819.1,593.0 '/>
		<polygon fill = 'rgb( 31, 120, 180)' fill-opacity = '0.250000' points = '819.1,593.0 819.1,662.4 820.9,662.4 820.9,593.0 '/>
		<polygon fill = 'rgb( 31, 120, 180)' fill-opacity = '0.250000' points = '820.9,593.0 820.9,662.4 822.8,662.4 822.8,593.0 '/>
		<polygon fill = 'rgb( 31, 120, 180)' fill-opacity = '0.250000' points = '822.8,593.0 822.8,662.4 824.7,662.4 824.7,593.0 '/>
		<polygon fill = 'rgb( 31, 120, 180)' fill-opacity = '0.250000' points = '824.7,593.0 824.7,662.4 826.5,662.4 826.5,593.0 '/>
		<polygon fill = 'rgb( 31, 120, 180)' fill-opacity = '0.250000' points = '826.5,593.0 826.5,662.4 828.4,662.4 828.4,593.0 '/>
		<polygon fill = 'rgb( 31, 120, 180)' fill-opacity = '0.250000' points = '828.4,593.0 828.4,662.4 830.3,662.4 830.3,592.9 '/>
		<polygon fill = 'rgb( 31, 120, 180)' fill-opacity = '0.250000' points = '830.3,592.9 830.3,662.4 832.2,662.4 832.2,592.8 '/>
		<polygon fill = 'rgb( 31, 120, 180)' fill-opacity = '0.250000' points = '832.2,592.8 832.2,662.4 834.0,662.4 834.0,592.7 '/>
		<polygon fill = 'rgb( 31, 120, 180)' fill-opacity = '0.250000' points = '834.0,592.7 834.0,662.4 835.9,662.4 835.9,592.5 '/>
		<polygon fill = 'rgb( 31, 120, 180)' fill-opacity = '0.250000' points = '835.9,592.5 835.9,662.4 837.8,662.4 837.8,592.3 '/>
		<polygon fill = 'rgb( 31, 120, 180)' fill-opacity = '0.250000' points = '837.8,592.3 837.8,662.4 839.6,662.4 839.6,592.0 '/>
		<polygon fill = 'rgb( 31, 120, 180)' fill-opacity = '0.250000' points = '839.6,592.0 839.6,662.4 841.5,662.4 841.5,591.7 '/>
		<polygon fill = 'rgb( 31, 120, 180)' fill-opacity = '0.250000' points = '841.5,591.7 841.5,662.4 843.4,662.4 843.4,591.3 '/>
		<polygon fill = 'rgb( 31, 120, 180)' fill-opacity = '0.250000' points = '843.4,591.3 843.4,662.4 845.3,662.4 845.3,590.9 '/>
		<polygon fill = 'rgb( 31, 120, 180)' fill-opacity = '0.250000' points = '845.3,590.9 845.3,662.4 847.1,662.4 847.1,590.4 '/>
		<polygon fill = 'rgb( 31, 120, 180)' fill-opacity = '0.250000' points = '847.1,590.4 847.1,662.4 849.0,662.4 849.0,589.9 '/>
		<polygon fill = 'rgb( 31, 120, 180)' fill-opacity = '0.250000' points = '849.0,589.9 849.0,662.4 850.9,662.4 850.9,589.3 '/>
		<polygon fill = 'rgb( 31, 120, 180)' fill-opacity = '0.250000' points = '850.9,589.3 850.9,662.4 852.7,662.4 852.7,588.7 '/>
		<polygon fill = 'rgb( 31, 120, 180)' fill-opacity = '0.250000' points = '852.7,588.7 852.7,662.4 854.6,662.4 854.6,588.1 '/>
		<polygon fill = 'rgb( 31, 120, 180)' fill-opacity = '0.250000' points = '854.6,588.1 854.6,662.4 856.5,662.4 856.5,587.4 '/>
		<polygon fill = 'rgb( 31, 120, 180)' fill-opacity = '0.250000' points = '856.5,587.4 856.5,662.4 858.3,662.4 858.3,586.7 '/>
		<polygon fill = 'rgb( 31, 120, 180)' fill-opacity = '0.250000' points = '858.3,586.7 858.3,662.4 860.2,662.4 860.2,585.9 '/>
		<polygon fill = 'rgb( 31, 120, 180)' fill-opacity = '0.250000' points = '860.2,585.9 860.2,662.4 862.1,662.4 862.1,585.1 '/>
		<polygon fill = 'rgb( 31, 120, 180)' fill-opacity = '0.250000' points = '862.1,585.1 862.1,662.4 864.0,662.4 864.0,584.2 '/>
		<polygon fill = 'rgb( 31, 120, 180)' fill-opacity = '0.250000' points = '864.0,584.2 864.0,662.4 865.8,662.4 865.8,583.3 '/>
		<polygon fill = 'rgb( 31, 120, 180)' fill-opacity = '0.250000' points = '865.8,583.3 865.8,662.4 867.7,662.4 867.7,582.3 '/>
		<polygon fill = 'rgb( 31, 120, 180)' fill-opacity = '0.250000' points = '867.7,582.3 867.7,662.4 869.6,662.4 869.6,581.3 '/>
		<polygon fill = 'rgb( 31, 120, 180)' fill-opacity = '0.250000' points = '869.6,581.3 869.6,662.4 871.4,662.4 871.4,580.3 '/>
		<polygon fill = 'rgb( 31, 120, 180)' fill-opacity = '0.250000' points = '871.4,580.3 871.4,662.4 873.3,662.4 873.3,579.2 '/>
		<polygon fill = 'rgb( 31, 120, 180)' fill-opacity = '0.250000' points = '873.3,579.2 873.3,662.4 875.2,662.4 875.2,578.2 '/>
		<polygon fill = 'rgb( 31, 120, 180)' fill-opacity = '0.250000' points = '875.2,578.2 875.2,662.4 877.1,662.4 877.1,577.1 '/>
		<polygon fill = 'rgb( 31, 120, 180)' fill-opacity = '0.250000' points = '877.1,577.1 877.1,662.4 878.9,662.4 878.9,576.0 '/>
		<polygon fill = 'rgb( 31, 120, 180)' fill-opacity = '0.250000' points = '878.9,576.0 878.9,662.4 880.8,662.4 880.8,574.9 '/>
		<polygon fill = 'rgb( 31, 120, 180)' fill-opacity = '0.250000' points = '880.8,574.9 880.8,662.4 882.7,662.4 882.7,573.9 '/>
		<polygon fill = 'rgb( 31, 120, 180)' fill-opacity = '0.250000' points = '882.7,573.9 882.7,662.4 884.5,662.4 884.5,572.9 '/>
		<polygon fill = 'rgb( 31, 120, 180)' fill-opacity = '0.250000' points = '884.5,572.9 884.5,662.4 886.4,662.4 886.4,572.0 '/>
		<polygon fill = 'rgb( 31, 120, 180)' fill-opacity = '0.250000' points = '886.4,572.0 886.4,662.4 888.3,662.4 888.3,571.3 '/>
		<polygon fill = 'rgb( 31, 120, 180)' fill-opacity = '0.250000' points = '888.3,571.3 888.3,662.4 890.1,662.4 890.1,570.6 '/>
		<polygon fill = 'rgb( 31, 120, 180)' fill-opacity = '0.250000' points = '890.1,570.6 890.1,662.4 892.0,662.4 892.0,570.1 '/>
		<polygon fill = 'rgb( 31, 120, 180)' fill-opacity = '0.250000' points = '892.0,570.1 892.0,662.4 893.9,662.4 893.9,569.8 '/>
		<polygon fill = 'rgb( 31, 120, 180)' fill-opacity = '0.250000' points = '893.9,569.8 893.9,662.4 895.8,662.4 895.8,569.7 '/>
		<polygon fill = 'rgb( 31, 120, 180)' fill-opacity = '0.250000' points = '895.8,569.7 895.8,662.4 897.6,662.4 897.6,569.7 '/>
		<polygon fill = 'rgb( 31, 120, 180)' fill-opacity = '0.250000' points = '897.6,569.7 897.6,662.4 899.5,662.4 899.5,570.0 '/>
		<polygon fill = 'rgb( 31, 120, 180)' fill-opacity = '0.250000' points = '899.5,570.0 899.5,662.4 901.4,662.4 901.4,570.4 '/>
		<polygon fill = 'rgb( 31, 120, 180)' fill-opacity = '0.250000' points = '901.4,570.4 901.4,662.4 903.2,662.4 903.2,571.0 '/>
		<polygon fill = 'rgb( 31, 120, 180)' fill-opacity = '0.250000' points = '903.2,571.0 903.2,662.4 905.1,662.4 905.1,571.8 '/>
		<polygon fill = 'rgb( 31, 120, 180)' fill-opacity = '0.250000' points = '905.1,571.8 905.1,662.4 907.0,662.4 907.0,572.8 '/>
		<polygon fill = 'rgb( 31, 120, 180)' fill-opacity = '0.250000' points = '907.0,572.8 907.0,662.4 908.8,662.4 908.8,573.9 '/>
		<polygon fill = 'rgb( 31, 120, 180)' fill-opacity = '0.250000' points = '908.8,573.9 908.8,662.4 910.7,662.4 910.7,575.2 '/>
		<polygon fill = 'rgb( 31, 120, 180)' fill-opacity = '0.250000' points = '910.7,575.2 910.7,662.4 912.6,662.4 912.6,576.5 '/>
		<polygon fill = 'rgb( 31, 120, 180)' fill-opacity = '0.250000' points = '912.6,576.5 912.6,662.4 914.5,662.4 914.5,578.0 '/>
		<polygon fill = 'rgb( 31, 120, 180)' fill-opacity = '0.250000' points = '914.5,578.0 914.5,662.4 916.3,662.4 916.3,579.5 '/>
		<polygon fill = 'rgb( 31, 120, 180)' fill-opacity = '0.250000' points = '916.3,579.5 916.3,662.4 918.2,662.4 918.2,581.1 '/>
		<polygon fill = 'rgb( 31, 120, 180)' fill-opacity = '0.250000' points = '918.2,581.1 918.2,662.4 920.1,662.4 920.1,582.7 '/>
		<polygon fill = 'rgb( 31, 120, 180)' fill-opacity = '0.250000' points = '920.1,582.7 920.1,662.4 921.9,662.4 921.9,584.3 '/>
		<polygon fill = 'rgb( 31, 120, 180)' fill-opacity = '0.250000' points = '921.9,584.3 921.9,662.4 923.8,662.4 923.8,586.0 '/>
		<polygon fill = 'rgb( 31, 120, 180)' fill-opacity = '0.250000' points = '923.8,586.0 923.8,662.4 925.7,662.4 925.7,587.6 '/>
	</g>
</g>
	</g>
	<g id="gnuplot_plot_3" ><title>Point estimate</title>
<g fill="none" color="white" stroke="rgb( 31, 120, 180)" stroke-width="2.00" stroke-linecap="butt" stroke-linejoin="miter">
</g>
<g fill="none" color="black" stroke="currentColor" stroke-width="2.00" stroke-linecap="butt" stroke-linejoin="miter">
	<g transform="translate(1089.0,103.0)" stroke="none" fill="black" font-family="Helvetica" font-size="12.00"  text-anchor="start">
		<text><tspan font-family="Helvetica" >Point estimate</tspan></text>
	</g>
</g>
<g fill="none" color="black" stroke="currentColor" stroke-width="2.00" stroke-linecap="butt" stroke-linejoin="miter">
	<path stroke='rgb( 31, 120, 180)'  d='M1038.5,99.1 L1080.7,99.1 M434.5,662.4 L434.5,336.5  '/></g>
	</g>
<g fill="none" color="black" stroke="currentColor" stroke-width="2.00" stroke-linecap="butt" stroke-linejoin="miter">
</g>
<g fill="none" color="black" stroke="black" stroke-width="1.00" stroke-linecap="butt" stroke-linejoin="miter">
</g>
<g fill="none" color="black" stroke="currentColor" stroke-width="1.00" stroke-linecap="butt" stroke-linejoin="miter">
	<path stroke='black'  d='M80.2,54.1 L80.2,662.4 L1013.6,662.4 L1013.6,54.1 L80.2,54.1 Z  '/></g>
<g fill="none" color="black" stroke="currentColor" stroke-width="1.00" stroke-linecap="butt" stroke-linejoin="miter">
</g>
</g>
</svg>

