<?xml version="1.0" encoding="utf-8"  standalone="no"?>
<svg 
 viewBox="0 0 450 300"
 xmlns="http://www.w3.org/2000/svg"
 xmlns:xlink="http://www.w3.org/1999/xlink"
>

<title>Gnuplot</title>
<desc>Produced by GNUPLOT 5.0 patchlevel 6 </desc>

<g id="gnuplot_canvas">

<rect x="0" y="0" width="450" height="300" fill="none"/>
<defs>

	<circle id='gpDot' r='0.5' stroke-width='0.5'/>
	<path id='gpPt0' stroke-width='0.222' stroke='currentColor' d='M-1,0 h2 M0,-1 v2'/>
	<path id='gpPt1' stroke-width='0.222' stroke='currentColor' d='M-1,-1 L1,1 M1,-1 L-1,1'/>
	<path id='gpPt2' stroke-width='0.222' stroke='currentColor' d='M-1,0 L1,0 M0,-1 L0,1 M-1,-1 L1,1 M-1,1 L1,-1'/>
	<rect id='gpPt3' stroke-width='0.222' stroke='currentColor' x='-1' y='-1' width='2' height='2'/>
	<rect id='gpPt4' stroke-width='0.222' stroke='currentColor' fill='currentColor' x='-1' y='-1' width='2' height='2'/>
	<circle id='gpPt5' stroke-width='0.222' stroke='currentColor' cx='0' cy='0' r='1'/>
	<use xlink:href='#gpPt5' id='gpPt6' fill='currentColor' stroke='none'/>
	<path id='gpPt7' stroke-width='0.222' stroke='currentColor' d='M0,-1.33 L-1.33,0.67 L1.33,0.67 z'/>
	<use xlink:href='#gpPt7' id='gpPt8' fill='currentColor' stroke='none'/>
	<use xlink:href='#gpPt7' id='gpPt9' stroke='currentColor' transform='rotate(180)'/>
	<use xlink:href='#gpPt9' id='gpPt10' fill='currentColor' stroke='none'/>
	<use xlink:href='#gpPt3' id='gpPt11' stroke='currentColor' transform='rotate(45)'/>
	<use xlink:href='#gpPt11' id='gpPt12' fill='currentColor' stroke='none'/>
	<path id='gpPt13' stroke-width='0.222' stroke='currentColor' d='M0,1.330 L1.265,0.411 L0.782,-1.067 L-0.782,-1.076 L-1.265,0.411 z'/>
	<use xlink:href='#gpPt13' id='gpPt14' fill='currentColor' stroke='none'/>
	<filter id='textbox' filterUnits='objectBoundingBox' x='0' y='0' height='1' width='1'>
	  <feFlood flood-color='white' flood-opacity='1' result='bgnd'/>
	  <feComposite in='SourceGraphic' in2='bgnd' operator='atop'/>
	</filter>
	<filter id='greybox' filterUnits='objectBoundingBox' x='0' y='0' height='1' width='1'>
	  <feFlood flood-color='lightgrey' flood-opacity='1' result='grey'/>
	  <feComposite in='SourceGraphic' in2='grey' operator='atop'/>
	</filter>
</defs>
<g fill="none" color="white" stroke="currentColor" stroke-width="1.00" stroke-linecap="butt" stroke-linejoin="miter">
</g>
<g fill="none" color="black" stroke="currentColor" stroke-width="1.00" stroke-linecap="butt" stroke-linejoin="miter">
	<path stroke='black'  d='M96.8,242.4 L105.8,242.4  '/>	<g transform="translate(88.5,246.3)" stroke="none" fill="black" font-family="Helvetica" font-size="12.00"  text-anchor="end">
		<text><tspan font-family="Helvetica" > 0</tspan></text>
	</g>
</g>
<g fill="none" color="black" stroke="currentColor" stroke-width="1.00" stroke-linecap="butt" stroke-linejoin="miter">
	<path stroke='black'  d='M96.8,212.2 L105.8,212.2  '/>	<g transform="translate(88.5,216.1)" stroke="none" fill="black" font-family="Helvetica" font-size="12.00"  text-anchor="end">
		<text><tspan font-family="Helvetica" > 0.0001</tspan></text>
	</g>
</g>
<g fill="none" color="black" stroke="currentColor" stroke-width="1.00" stroke-linecap="butt" stroke-linejoin="miter">
	<path stroke='black'  d='M96.8,181.9 L105.8,181.9  '/>	<g transform="translate(88.5,185.8)" stroke="none" fill="black" font-family="Helvetica" font-size="12.00"  text-anchor="end">
		<text><tspan font-family="Helvetica" > 0.0002</tspan></text>
	</g>
</g>
<g fill="none" color="black" stroke="currentColor" stroke-width="1.00" stroke-linecap="butt" stroke-linejoin="miter">
	<path stroke='black'  d='M96.8,151.7 L105.8,151.7  '/>	<g transform="translate(88.5,155.6)" stroke="none" fill="black" font-family="Helvetica" font-size="12.00"  text-anchor="end">
		<text><tspan font-family="Helvetica" > 0.0003</tspan></text>
	</g>
</g>
<g fill="none" color="black" stroke="currentColor" stroke-width="1.00" stroke-linecap="butt" stroke-linejoin="miter">
	<path stroke='black'  d='M96.8,121.4 L105.8,121.4  '/>	<g transform="translate(88.5,125.3)" stroke="none" fill="black" font-family="Helvetica" font-size="12.00"  text-anchor="end">
		<text><tspan font-family="Helvetica" > 0.0004</tspan></text>
	</g>
</g>
<g fill="none" color="black" stroke="currentColor" stroke-width="1.00" stroke-linecap="butt" stroke-linejoin="miter">
	<path stroke='black'  d='M96.8,91.2 L105.8,91.2  '/>	<g transform="translate(88.5,95.1)" stroke="none" fill="black" font-family="Helvetica" font-size="12.00"  text-anchor="end">
		<text><tspan font-family="Helvetica" > 0.0005</tspan></text>
	</g>
</g>
<g fill="none" color="black" stroke="currentColor" stroke-width="1.00" stroke-linecap="butt" stroke-linejoin="miter">
	<path stroke='black'  d='M96.8,60.9 L105.8,60.9  '/>	<g transform="translate(88.5,64.8)" stroke="none" fill="black" font-family="Helvetica" font-size="12.00"  text-anchor="end">
		<text><tspan font-family="Helvetica" > 0.0006</tspan></text>
	</g>
</g>
<g fill="none" color="black" stroke="currentColor" stroke-width="1.00" stroke-linecap="butt" stroke-linejoin="miter">
	<path stroke='black'  d='M96.8,30.7 L105.8,30.7  '/>	<g transform="translate(88.5,34.6)" stroke="none" fill="black" font-family="Helvetica" font-size="12.00"  text-anchor="end">
		<text><tspan font-family="Helvetica" > 0.0007</tspan></text>
	</g>
</g>
<g fill="none" color="black" stroke="currentColor" stroke-width="1.00" stroke-linecap="butt" stroke-linejoin="miter">
	<path stroke='black'  d='M120.6,242.4 L120.6,233.4  '/>	<g transform="translate(120.6,264.3)" stroke="none" fill="black" font-family="Helvetica" font-size="12.00"  text-anchor="middle">
		<text><tspan font-family="Helvetica" > 88.5</tspan></text>
	</g>
</g>
<g fill="none" color="black" stroke="currentColor" stroke-width="1.00" stroke-linecap="butt" stroke-linejoin="miter">
	<path stroke='black'  d='M159.5,242.4 L159.5,233.4  '/>	<g transform="translate(159.5,264.3)" stroke="none" fill="black" font-family="Helvetica" font-size="12.00"  text-anchor="middle">
		<text><tspan font-family="Helvetica" > 89</tspan></text>
	</g>
</g>
<g fill="none" color="black" stroke="currentColor" stroke-width="1.00" stroke-linecap="butt" stroke-linejoin="miter">
	<path stroke='black'  d='M198.4,242.4 L198.4,233.4  '/>	<g transform="translate(198.4,264.3)" stroke="none" fill="black" font-family="Helvetica" font-size="12.00"  text-anchor="middle">
		<text><tspan font-family="Helvetica" > 89.5</tspan></text>
	</g>
</g>
<g fill="none" color="black" stroke="currentColor" stroke-width="1.00" stroke-linecap="butt" stroke-linejoin="miter">
	<path stroke='black'  d='M237.3,242.4 L237.3,233.4  '/>	<g transform="translate(237.3,264.3)" stroke="none" fill="black" font-family="Helvetica" font-size="12.00"  text-anchor="middle">
		<text><tspan font-family="Helvetica" > 90</tspan></text>
	</g>
</g>
<g fill="none" color="black" stroke="currentColor" stroke-width="1.00" stroke-linecap="butt" stroke-linejoin="miter">
	<path stroke='black'  d='M276.3,242.4 L276.3,233.4  '/>	<g transform="translate(276.3,264.3)" stroke="none" fill="black" font-family="Helvetica" font-size="12.00"  text-anchor="middle">
		<text><tspan font-family="Helvetica" > 90.5</tspan></text>
	</g>
</g>
<g fill="none" color="black" stroke="currentColor" stroke-width="1.00" stroke-linecap="butt" stroke-linejoin="miter">
	<path stroke='black'  d='M315.2,242.4 L315.2,233.4  '/>	<g transform="translate(315.2,264.3)" stroke="none" fill="black" font-family="Helvetica" font-size="12.00"  text-anchor="middle">
		<text><tspan font-family="Helvetica" > 91</tspan></text>
	</g>
</g>
<g fill="none" color="black" stroke="currentColor" stroke-width="1.00" stroke-linecap="butt" stroke-linejoin="miter">
	<path stroke='black'  d='M354.1,242.4 L354.1,233.4  '/>	<g transform="translate(354.1,264.3)" stroke="none" fill="black" font-family="Helvetica" font-size="12.00"  text-anchor="middle">
		<text><tspan font-family="Helvetica" > 91.5</tspan></text>
	</g>
</g>
<g fill="none" color="black" stroke="currentColor" stroke-width="1.00" stroke-linecap="butt" stroke-linejoin="miter">
	<path stroke='black'  d='M393.0,242.4 L393.0,233.4  '/>	<g transform="translate(393.0,264.3)" stroke="none" fill="black" font-family="Helvetica" font-size="12.00"  text-anchor="middle">
		<text><tspan font-family="Helvetica" > 92</tspan></text>
	</g>
</g>
<g fill="none" color="black" stroke="currentColor" stroke-width="1.00" stroke-linecap="butt" stroke-linejoin="miter">
</g>
<g fill="none" color="black" stroke="currentColor" stroke-width="1.00" stroke-linecap="butt" stroke-linejoin="miter">
	<path stroke='black'  d='M96.8,16.7 L96.8,242.4 L425.0,242.4 L425.0,16.7 L96.8,16.7 Z  '/></g>
<g fill="none" color="black" stroke="currentColor" stroke-width="1.00" stroke-linecap="butt" stroke-linejoin="miter">
	<g transform="translate(17.0,129.6) rotate(270)" stroke="none" fill="black" font-family="Helvetica" font-size="12.00"  text-anchor="middle">
		<text><tspan font-family="Helvetica" >Density (a.u.)</tspan></text>
	</g>
</g>
<g fill="none" color="black" stroke="currentColor" stroke-width="1.00" stroke-linecap="butt" stroke-linejoin="miter">
	<g transform="translate(260.9,291.3)" stroke="none" fill="black" font-family="Helvetica" font-size="12.00"  text-anchor="middle">
		<text><tspan font-family="Helvetica" >Average time (us)</tspan></text>
	</g>
</g>
<g fill="none" color="black" stroke="currentColor" stroke-width="1.00" stroke-linecap="butt" stroke-linejoin="miter">
</g>
	<g id="gnuplot_plot_1" ><title>PDF</title>
<g fill="none" color="black" stroke="currentColor" stroke-width="1.00" stroke-linecap="butt" stroke-linejoin="miter">
	<g stroke='none' shape-rendering='crispEdges'>
		<polygon fill = 'rgb( 31, 120, 180)' fill-opacity = '0.250000' points = '96.8,241.7 96.8,242.4 97.5,242.4 97.5,241.6 '/>
		<polygon fill = 'rgb( 31, 120, 180)' fill-opacity = '0.250000' points = '97.5,241.6 97.5,242.4 98.1,242.4 98.1,241.5 '/>
		<polygon fill = 'rgb( 31, 120, 180)' fill-opacity = '0.250000' points = '98.1,241.5 98.1,242.4 98.8,242.4 98.8,241.5 '/>
		<polygon fill = 'rgb( 31, 120, 180)' fill-opacity = '0.250000' points = '98.8,241.5 98.8,242.4 99.4,242.4 99.4,241.4 '/>
		<polygon fill = 'rgb( 31, 120, 180)' fill-opacity = '0.250000' points = '99.4,241.4 99.4,242.4 100.1,242.4 100.1,241.3 '/>
		<polygon fill = 'rgb( 31, 120, 180)' fill-opacity = '0.250000' points = '100.1,241.3 100.1,242.4 100.7,242.4 100.7,241.3 '/>
		<polygon fill = 'rgb( 31, 120, 180)' fill-opacity = '0.250000' points = '100.7,241.3 100.7,242.4 101.4,242.4 101.4,241.2 '/>
		<polygon fill = 'rgb( 31, 120, 180)' fill-opacity = '0.250000' points = '101.4,241.2 101.4,242.4 102.1,242.4 102.1,241.1 '/>
		<polygon fill = 'rgb( 31, 120, 180)' fill-opacity = '0.250000' points = '102.1,241.1 102.1,242.4 102.7,242.4 102.7,241.0 '/>
		<polygon fill = 'rgb( 31, 120, 180)' fill-opacity = '0.250000' points = '102.7,241.0 102.7,242.4 103.4,242.4 103.4,240.9 '/>
		<polygon fill = 'rgb( 31, 120, 180)' fill-opacity = '0.250000' points = '103.4,240.9 103.4,242.4 104.0,242.4 104.0,240.8 '/>
		<polygon fill = 'rgb( 31, 120, 180)' fill-opacity = '0.250000' points = '104.0,240.8 104.0,242.4 104.7,242.4 104.7,240.7 '/>
		<polygon fill = 'rgb( 31, 120, 180)' fill-opacity = '0.250000' points = '104.7,240.7 104.7,242.4 105.4,242.4 105.4,240.6 '/>
		<polygon fill = 'rgb( 31, 120, 180)' fill-opacity = '0.250000' points = '105.4,240.6 105.4,242.4 106.0,242.4 106.0,240.4 '/>
		<polygon fill = 'rgb( 31, 120, 180)' fill-opacity = '0.250000' points = '106.0,240.4 106.0,242.4 106.7,242.4 106.7,240.3 '/>
		<polygon fill = 'rgb( 31, 120, 180)' fill-opacity = '0.250000' points = '106.7,240.3 106.7,242.4 107.3,242.4 107.3,240.2 '/>
		<polygon fill = 'rgb( 31, 120, 180)' fill-opacity = '0.250000' points = '107.3,240.2 107.3,242.4 108.0,242.4 108.0,240.0 '/>
		<polygon fill = 'rgb( 31, 120, 180)' fill-opacity = '0.250000' points = '108.0,240.0 108.0,242.4 108.6,242.4 108.6,239.9 '/>
		<polygon fill = 'rgb( 31, 120, 180)' fill-opacity = '0.250000' points = '108.6,239.9 108.6,242.4 109.3,242.4 109.3,239.7 '/>
		<polygon fill = 'rgb( 31, 120, 180)' fill-opacity = '0.250000' points = '109.3,239.7 109.3,242.4 110.0,242.4 110.0,239.5 '/>
		<polygon fill = 'rgb( 31, 120, 180)' fill-opacity = '0.250000' points = '110.0,239.5 110.0,242.4 110.6,242.4 110.6,239.3 '/>
		<polygon fill = 'rgb( 31, 120, 180)' fill-opacity = '0.250000' points = '110.6,239.3 110.6,242.4 111.3,242.4 111.3,239.1 '/>
		<polygon fill = 'rgb( 31, 120, 180)' fill-opacity = '0.250000' points = '111.3,239.1 111.3,242.4 111.9,242.4 111.9,238.9 '/>
		<polygon fill = 'rgb( 31, 120, 180)' fill-opacity = '0.250000' points = '111.9,238.9 111.9,242.4 112.6,242.4 112.6,238.7 '/>
		<polygon fill = 'rgb( 31, 120, 180)' fill-opacity = '0.250000' points = '112.6,238.7 112.6,242.4 113.2,242.4 113.2,238.5 '/>
		<polygon fill = 'rgb( 31, 120, 180)' fill-opacity = '0.250000' points = '113.2,238.5 113.2,242.4 113.9,242.4 113.9,238.2 '/>
		<polygon fill = 'rgb( 31, 120, 180)' fill-opacity = '0.250000' points = '113.9,238.2 113.9,242.4 114.6,242.4 114.6,238.0 '/>
		<polygon fill = 'rgb( 31, 120, 180)' fill-opacity = '0.250000' points = '114.6,238.0 114.6,242.4 115.2,242.4 115.2,237.7 '/>
		<polygon fill = 'rgb( 31, 120, 180)' fill-opacity = '0.250000' points = '115.2,237.7 115.2,242.4 115.9,242.4 115.9,237.4 '/>
		<polygon fill = 'rgb( 31, 120, 180)' fill-opacity = '0.250000' points = '115.9,237.4 115.9,242.4 116.5,242.4 116.5,237.1 '/>
		<polygon fill = 'rgb( 31, 120, 180)' fill-opacity = '0.250000' points = '116.5,237.1 116.5,242.4 117.2,242.4 117.2,236.8 '/>
		<polygon fill = 'rgb( 31, 120, 180)' fill-opacity = '0.250000' points = '117.2,236.8 117.2,242.4 117.8,242.4 117.8,236.5 '/>
		<polygon fill = 'rgb( 31, 120, 180)' fill-opacity = '0.250000' points = '117.8,236.5 117.8,242.4 118.5,242.4 118.5,236.1 '/>
		<polygon fill = 'rgb( 31, 120, 180)' fill-opacity = '0.250000' points = '118.5,236.1 118.5,242.4 119.2,242.4 119.2,235.8 '/>
		<polygon fill = 'rgb( 31, 120, 180)' fill-opacity = '0.250000' points = '119.2,235.8 119.2,242.4 119.8,242.4 119.8,235.4 '/>
		<polygon fill = 'rgb( 31, 120, 180)' fill-opacity = '0.250000' points = '119.8,235.4 119.8,242.4 120.5,242.4 120.5,235.0 '/>
		<polygon fill = 'rgb( 31, 120, 180)' fill-opacity = '0.250000' points = '120.5,235.0 120.5,242.4 121.1,242.4 121.1,234.6 '/>
		<polygon fill = 'rgb( 31, 120, 180)' fill-opacity = '0.250000' points = '121.1,234.6 121.1,242.4 121.8,242.4 121.8,234.2 '/>
		<polygon fill = 'rgb( 31, 120, 180)' fill-opacity = '0.250000' points = '121.8,234.2 121.8,242.4 122.5,242.4 122.5,233.7 '/>
		<polygon fill = 'rgb( 31, 120, 180)' fill-opacity = '0.250000' points = '122.5,233.7 122.5,242.4 123.1,242.4 123.1,233.2 '/>
		<polygon fill = 'rgb( 31, 120, 180)' fill-opacity = '0.250000' points = '123.1,233.2 123.1,242.4 123.8,242.4 123.8,232.7 '/>
		<polygon fill = 'rgb( 31, 120, 180)' fill-opacity = '0.250000' points = '123.8,232.7 123.8,242.4 124.4,242.4 124.4,232.2 '/>
		<polygon fill = 'rgb( 31, 120, 180)' fill-opacity = '0.250000' points = '124.4,232.2 124.4,242.4 125.1,242.4 125.1,231.7 '/>
		<polygon fill = 'rgb( 31, 120, 180)' fill-opacity = '0.250000' points = '125.1,231.7 125.1,242.4 125.7,242.4 125.7,231.1 '/>
		<polygon fill = 'rgb( 31, 120, 180)' fill-opacity = '0.250000' points = '125.7,231.1 125.7,242.4 126.4,242.4 126.4,230.5 '/>
		<polygon fill = 'rgb( 31, 120, 180)' fill-opacity = '0.250000' points = '126.4,230.5 126.4,242.4 127.1,242.4 127.1,229.9 '/>
		<polygon fill = 'rgb( 31, 120, 180)' fill-opacity = '0.250000' points = '127.1,229.9 127.1,242.4 127.7,242.4 127.7,229.3 '/>
		<polygon fill = 'rgb( 31, 120, 180)' fill-opacity = '0.250000' points = '127.7,229.3 127.7,242.4 128.4,242.4 128.4,228.6 '/>
		<polygon fill = 'rgb( 31, 120, 180)' fill-opacity = '0.250000' points = '128.4,228.6 128.4,242.4 129.0,242.4 129.0,227.9 '/>
		<polygon fill = 'rgb( 31, 120, 180)' fill-opacity = '0.250000' points = '129.0,227.9 129.0,242.4 129.7,242.4 129.7,227.2 '/>
		<polygon fill = 'rgb( 31, 120, 180)' fill-opacity = '0.250000' points = '129.7,227.2 129.7,242.4 130.3,242.4 130.3,226.5 '/>
		<polygon fill = 'rgb( 31, 120, 180)' fill-opacity = '0.250000' points = '130.3,226.5 130.3,242.4 131.0,242.4 131.0,225.7 '/>
		<polygon fill = 'rgb( 31, 120, 180)' fill-opacity = '0.250000' points = '131.0,225.7 131.0,242.4 131.7,242.4 131.7,224.9 '/>
		<polygon fill = 'rgb( 31, 120, 180)' fill-opacity = '0.250000' points = '131.7,224.9 131.7,242.4 132.3,242.4 132.3,224.0 '/>
		<polygon fill = 'rgb( 31, 120, 180)' fill-opacity = '0.250000' points = '132.3,224.0 132.3,242.4 133.0,242.4 133.0,223.2 '/>
		<polygon fill = 'rgb( 31, 120, 180)' fill-opacity = '0.250000' points = '133.0,223.2 133.0,242.4 133.6,242.4 133.6,222.3 '/>
		<polygon fill = 'rgb( 31, 120, 180)' fill-opacity = '0.250000' points = '133.6,222.3 133.6,242.4 134.3,242.4 134.3,221.4 '/>
		<polygon fill = 'rgb( 31, 120, 180)' fill-opacity = '0.250000' points = '134.3,221.4 134.3,242.4 134.9,242.4 134.9,220.4 '/>
		<polygon fill = 'rgb( 31, 120, 180)' fill-opacity = '0.250000' points = '134.9,220.4 134.9,242.4 135.6,242.4 135.6,219.4 '/>
		<polygon fill = 'rgb( 31, 120, 180)' fill-opacity = '0.250000' points = '135.6,219.4 135.6,242.4 136.3,242.4 136.3,218.4 '/>
		<polygon fill = 'rgb( 31, 120, 180)' fill-opacity = '0.250000' points = '136.3,218.4 136.3,242.4 136.9,242.4 136.9,217.3 '/>
		<polygon fill = 'rgb( 31, 120, 180)' fill-opacity = '0.250000' points = '136.9,217.3 136.9,242.4 137.6,242.4 137.6,216.2 '/>
		<polygon fill = 'rgb( 31, 120, 180)' fill-opacity = '0.250000' points = '137.6,216.2 137.6,242.4 138.2,242.4 138.2,215.1 '/>
		<polygon fill = 'rgb( 31, 120, 180)' fill-opacity = '0.250000' points = '138.2,215.1 138.2,242.4 138.9,242.4 138.9,214.0 '/>
		<polygon fill = 'rgb( 31, 120, 180)' fill-opacity = '0.250000' points = '138.9,214.0 138.9,242.4 139.6,242.4 139.6,212.8 '/>
		<polygon fill = 'rgb( 31, 120, 180)' fill-opacity = '0.250000' points = '139.6,212.8 139.6,242.4 140.2,242.4 140.2,211.5 '/>
		<polygon fill = 'rgb( 31, 120, 180)' fill-opacity = '0.250000' points = '140.2,211.5 140.2,242.4 140.9,242.4 140.9,210.3 '/>
		<polygon fill = 'rgb( 31, 120, 180)' fill-opacity = '0.250000' points = '140.9,210.3 140.9,242.4 141.5,242.4 141.5,209.0 '/>
		<polygon fill = 'rgb( 31, 120, 180)' fill-opacity = '0.250000' points = '141.5,209.0 141.5,242.4 142.2,242.4 142.2,207.6 '/>
		<polygon fill = 'rgb( 31, 120, 180)' fill-opacity = '0.250000' points = '142.2,207.6 142.2,242.4 142.8,242.4 142.8,206.2 '/>
		<polygon fill = 'rgb( 31, 120, 180)' fill-opacity = '0.250000' points = '142.8,206.2 142.8,242.4 143.5,242.4 143.5,204.8 '/>
		<polygon fill = 'rgb( 31, 120, 180)' fill-opacity = '0.250000' points = '143.5,204.8 143.5,242.4 144.2,242.4 144.2,203.4 '/>
		<polygon fill = 'rgb( 31, 120, 180)' fill-opacity = '0.250000' points = '144.2,203.4 144.2,242.4 144.8,242.4 144.8,201.9 '/>
		<polygon fill = 'rgb( 31, 120, 180)' fill-opacity = '0.250000' points = '144.8,201.9 144.8,242.4 145.5,242.4 145.5,200.4 '/>
		<polygon fill = 'rgb( 31, 120, 180)' fill-opacity = '0.250000' points = '145.5,200.4 145.5,242.4 146.1,242.4 146.1,198.8 '/>
		<polygon fill = 'rgb( 31, 120, 180)' fill-opacity = '0.250000' points = '146.1,198.8 146.1,242.4 146.8,242.4 146.8,197.2 '/>
		<polygon fill = 'rgb( 31, 120, 180)' fill-opacity = '0.250000' points = '146.8,197.2 146.8,242.4 147.4,242.4 147.4,195.6 '/>
		<polygon fill = 'rgb( 31, 120, 180)' fill-opacity = '0.250000' points = '147.4,195.6 147.4,242.4 148.1,242.4 148.1,193.9 '/>
		<polygon fill = 'rgb( 31, 120, 180)' fill-opacity = '0.250000' points = '148.1,193.9 148.1,242.4 148.8,242.4 148.8,192.2 '/>
		<polygon fill = 'rgb( 31, 120, 180)' fill-opacity = '0.250000' points = '148.8,192.2 148.8,242.4 149.4,242.4 149.4,190.4 '/>
		<polygon fill = 'rgb( 31, 120, 180)' fill-opacity = '0.250000' points = '149.4,190.4 149.4,242.4 150.1,242.4 150.1,188.6 '/>
		<polygon fill = 'rgb( 31, 120, 180)' fill-opacity = '0.250000' points = '150.1,188.6 150.1,242.4 150.7,242.4 150.7,186.8 '/>
		<polygon fill = 'rgb( 31, 120, 180)' fill-opacity = '0.250000' points = '150.7,186.8 150.7,242.4 151.4,242.4 151.4,184.9 '/>
		<polygon fill = 'rgb( 31, 120, 180)' fill-opacity = '0.250000' points = '151.4,184.9 151.4,242.4 152.0,242.4 152.0,183.0 '/>
		<polygon fill = 'rgb( 31, 120, 180)' fill-opacity = '0.250000' points = '152.0,183.0 152.0,242.4 152.7,242.4 152.7,181.1 '/>
		<polygon fill = 'rgb( 31, 120, 180)' fill-opacity = '0.250000' points = '152.7,181.1 152.7,242.4 153.4,242.4 153.4,179.1 '/>
		<polygon fill = 'rgb( 31, 120, 180)' fill-opacity = '0.250000' points = '153.4,179.1 153.4,242.4 154.0,242.4 154.0,177.1 '/>
		<polygon fill = 'rgb( 31, 120, 180)' fill-opacity = '0.250000' points = '154.0,177.1 154.0,242.4 154.7,242.4 154.7,175.1 '/>
		<polygon fill = 'rgb( 31, 120, 180)' fill-opacity = '0.250000' points = '154.7,175.1 154.7,242.4 155.3,242.4 155.3,173.0 '/>
		<polygon fill = 'rgb( 31, 120, 180)' fill-opacity = '0.250000' points = '155.3,173.0 155.3,242.4 156.0,242.4 156.0,170.9 '/>
		<polygon fill = 'rgb( 31, 120, 180)' fill-opacity = '0.250000' points = '156.0,170.9 156.0,242.4 156.7,242.4 156.7,168.8 '/>
		<polygon fill = 'rgb( 31, 120, 180)' fill-opacity = '0.250000' points = '156.7,168.8 156.7,242.4 157.3,242.4 157.3,166.6 '/>
		<polygon fill = 'rgb( 31, 120, 180)' fill-opacity = '0.250000' points = '157.3,166.6 157.3,242.4 158.0,242.4 158.0,164.4 '/>
		<polygon fill = 'rgb( 31, 120, 180)' fill-opacity = '0.250000' points = '158.0,164.4 158.0,242.4 158.6,242.4 158.6,162.2 '/>
		<polygon fill = 'rgb( 31, 120, 180)' fill-opacity = '0.250000' points = '158.6,162.2 158.6,242.4 159.3,242.4 159.3,159.9 '/>
		<polygon fill = 'rgb( 31, 120, 180)' fill-opacity = '0.250000' points = '159.3,159.9 159.3,242.4 159.9,242.4 159.9,157.7 '/>
		<polygon fill = 'rgb( 31, 120, 180)' fill-opacity = '0.250000' points = '159.9,157.7 159.9,242.4 160.6,242.4 160.6,155.4 '/>
		<polygon fill = 'rgb( 31, 120, 180)' fill-opacity = '0.250000' points = '160.6,155.4 160.6,242.4 161.3,242.4 161.3,153.0 '/>
		<polygon fill = 'rgb( 31, 120, 180)' fill-opacity = '0.250000' points = '161.3,153.0 161.3,242.4 161.9,242.4 161.9,150.7 '/>
		<polygon fill = 'rgb( 31, 120, 180)' fill-opacity = '0.250000' points = '161.9,150.7 161.9,242.4 162.6,242.4 162.6,148.3 '/>
		<polygon fill = 'rgb( 31, 120, 180)' fill-opacity = '0.250000' points = '162.6,148.3 162.6,242.4 163.2,242.4 163.2,145.9 '/>
		<polygon fill = 'rgb( 31, 120, 180)' fill-opacity = '0.250000' points = '163.2,145.9 163.2,242.4 163.9,242.4 163.9,143.5 '/>
		<polygon fill = 'rgb( 31, 120, 180)' fill-opacity = '0.250000' points = '163.9,143.5 163.9,242.4 164.5,242.4 164.5,141.0 '/>
		<polygon fill = 'rgb( 31, 120, 180)' fill-opacity = '0.250000' points = '164.5,141.0 164.5,242.4 165.2,242.4 165.2,138.5 '/>
		<polygon fill = 'rgb( 31, 120, 180)' fill-opacity = '0.250000' points = '165.2,138.5 165.2,242.4 165.9,242.4 165.9,136.1 '/>
		<polygon fill = 'rgb( 31, 120, 180)' fill-opacity = '0.250000' points = '165.9,136.1 165.9,242.4 166.5,242.4 166.5,133.6 '/>
		<polygon fill = 'rgb( 31, 120, 180)' fill-opacity = '0.250000' points = '166.5,133.6 166.5,242.4 167.2,242.4 167.2,131.1 '/>
		<polygon fill = 'rgb( 31, 120, 180)' fill-opacity = '0.250000' points = '167.2,131.1 167.2,242.4 167.8,242.4 167.8,128.6 '/>
		<polygon fill = 'rgb( 31, 120, 180)' fill-opacity = '0.250000' points = '167.8,128.6 167.8,242.4 168.5,242.4 168.5,126.0 '/>
		<polygon fill = 'rgb( 31, 120, 180)' fill-opacity = '0.250000' points = '168.5,126.0 168.5,242.4 169.1,242.4 169.1,123.5 '/>
		<polygon fill = 'rgb( 31, 120, 180)' fill-opacity = '0.250000' points = '169.1,123.5 169.1,242.4 169.8,242.4 169.8,121.0 '/>
		<polygon fill = 'rgb( 31, 120, 180)' fill-opacity = '0.250000' points = '169.8,121.0 169.8,242.4 170.5,242.4 170.5,118.4 '/>
		<polygon fill = 'rgb( 31, 120, 180)' fill-opacity = '0.250000' points = '170.5,118.4 170.5,242.4 171.1,242.4 171.1,115.9 '/>
		<polygon fill = 'rgb( 31, 120, 180)' fill-opacity = '0.250000' points = '171.1,115.9 171.1,242.4 171.8,242.4 171.8,113.3 '/>
		<polygon fill = 'rgb( 31, 120, 180)' fill-opacity = '0.250000' points = '171.8,113.3 171.8,242.4 172.4,242.4 172.4,110.7 '/>
		<polygon fill = 'rgb( 31, 120, 180)' fill-opacity = '0.250000' points = '172.4,110.7 172.4,242.4 173.1,242.4 173.1,108.2 '/>
		<polygon fill = 'rgb( 31, 120, 180)' fill-opacity = '0.250000' points = '173.1,108.2 173.1,242.4 173.8,242.4 173.8,105.6 '/>
		<polygon fill = 'rgb( 31, 120, 180)' fill-opacity = '0.250000' points = '173.8,105.6 173.8,242.4 174.4,242.4 174.4,103.1 '/>
		<polygon fill = 'rgb( 31, 120, 180)' fill-opacity = '0.250000' points = '174.4,103.1 174.4,242.4 175.1,242.4 175.1,100.5 '/>
		<polygon fill = 'rgb( 31, 120, 180)' fill-opacity = '0.250000' points = '175.1,100.5 175.1,242.4 175.7,242.4 175.7,98.0 '/>
		<polygon fill = 'rgb( 31, 120, 180)' fill-opacity = '0.250000' points = '175.7,98.0 175.7,242.4 176.4,242.4 176.4,95.5 '/>
		<polygon fill = 'rgb( 31, 120, 180)' fill-opacity = '0.250000' points = '176.4,95.5 176.4,242.4 177.0,242.4 177.0,93.0 '/>
		<polygon fill = 'rgb( 31, 120, 180)' fill-opacity = '0.250000' points = '177.0,93.0 177.0,242.4 177.7,242.4 177.7,90.5 '/>
		<polygon fill = 'rgb( 31, 120, 180)' fill-opacity = '0.250000' points = '177.7,90.5 177.7,242.4 178.4,242.4 178.4,88.0 '/>
		<polygon fill = 'rgb( 31, 120, 180)' fill-opacity = '0.250000' points = '178.4,88.0 178.4,242.4 179.0,242.4 179.0,85.5 '/>
		<polygon fill = 'rgb( 31, 120, 180)' fill-opacity = '0.250000' points = '179.0,85.5 179.0,242.4 179.7,242.4 179.7,83.1 '/>
		<polygon fill = 'rgb( 31, 120, 180)' fill-opacity = '0.250000' points = '179.7,83.1 179.7,242.4 180.3,242.4 180.3,80.7 '/>
		<polygon fill = 'rgb( 31, 120, 180)' fill-opacity = '0.250000' points = '180.3,80.7 180.3,242.4 181.0,242.4 181.0,78.3 '/>
		<polygon fill = 'rgb( 31, 120, 180)' fill-opacity = '0.250000' points = '181.0,78.3 181.0,242.4 181.6,242.4 181.6,75.9 '/>
		<polygon fill = 'rgb( 31, 120, 180)' fill-opacity = '0.250000' points = '181.6,75.9 181.6,242.4 182.3,242.4 182.3,73.5 '/>
		<polygon fill = 'rgb( 31, 120, 180)' fill-opacity = '0.250000' points = '182.3,73.5 182.3,242.4 183.0,242.4 183.0,71.2 '/>
		<polygon fill = 'rgb( 31, 120, 180)' fill-opacity = '0.250000' points = '183.0,71.2 183.0,242.4 183.6,242.4 183.6,68.9 '/>
		<polygon fill = 'rgb( 31, 120, 180)' fill-opacity = '0.250000' points = '183.6,68.9 183.6,242.4 184.3,242.4 184.3,66.7 '/>
		<polygon fill = 'rgb( 31, 120, 180)' fill-opacity = '0.250000' points = '184.3,66.7 184.3,242.4 184.9,242.4 184.9,64.4 '/>
		<polygon fill = 'rgb( 31, 120, 180)' fill-opacity = '0.250000' points = '184.9,64.4 184.9,242.4 185.6,242.4 185.6,62.2 '/>
		<polygon fill = 'rgb( 31, 120, 180)' fill-opacity = '0.250000' points = '185.6,62.2 185.6,242.4 186.2,242.4 186.2,60.1 '/>
		<polygon fill = 'rgb( 31, 120, 180)' fill-opacity = '0.250000' points = '186.2,60.1 186.2,242.4 186.9,242.4 186.9,57.9 '/>
		<polygon fill = 'rgb( 31, 120, 180)' fill-opacity = '0.250000' points = '186.9,57.9 186.9,242.4 187.6,242.4 187.6,55.9 '/>
		<polygon fill = 'rgb( 31, 120, 180)' fill-opacity = '0.250000' points = '187.6,55.9 187.6,242.4 188.2,242.4 188.2,53.8 '/>
		<polygon fill = 'rgb( 31, 120, 180)' fill-opacity = '0.250000' points = '188.2,53.8 188.2,242.4 188.9,242.4 188.9,51.8 '/>
		<polygon fill = 'rgb( 31, 120, 180)' fill-opacity = '0.250000' points = '188.9,51.8 188.9,242.4 189.5,242.4 189.5,49.8 '/>
		<polygon fill = 'rgb( 31, 120, 180)' fill-opacity = '0.250000' points = '189.5,49.8 189.5,242.4 190.2,242.4 190.2,47.9 '/>
		<polygon fill = 'rgb( 31, 120, 180)' fill-opacity = '0.250000' points = '190.2,47.9 190.2,242.4 190.9,242.4 190.9,46.1 '/>
		<polygon fill = 'rgb( 31, 120, 180)' fill-opacity = '0.250000' points = '190.9,46.1 190.9,242.4 191.5,242.4 191.5,44.2 '/>
		<polygon fill = 'rgb( 31, 120, 180)' fill-opacity = '0.250000' points = '191.5,44.2 191.5,242.4 192.2,242.4 192.2,42.5 '/>
		<polygon fill = 'rgb( 31, 120, 180)' fill-opacity = '0.250000' points = '192.2,42.5 192.2,242.4 192.8,242.4 192.8,40.8 '/>
		<polygon fill = 'rgb( 31, 120, 180)' fill-opacity = '0.250000' points = '192.8,40.8 192.8,242.4 193.5,242.4 193.5,39.1 '/>
		<polygon fill = 'rgb( 31, 120, 180)' fill-opacity = '0.250000' points = '193.5,39.1 193.5,242.4 194.1,242.4 194.1,37.5 '/>
		<polygon fill = 'rgb( 31, 120, 180)' fill-opacity = '0.250000' points = '194.1,37.5 194.1,242.4 194.8,242.4 194.8,35.9 '/>
		<polygon fill = 'rgb( 31, 120, 180)' fill-opacity = '0.250000' points = '194.8,35.9 194.8,242.4 195.5,242.4 195.5,34.4 '/>
		<polygon fill = 'rgb( 31, 120, 180)' fill-opacity = '0.250000' points = '195.5,34.4 195.5,242.4 196.1,242.4 196.1,32.9 '/>
		<polygon fill = 'rgb( 31, 120, 180)' fill-opacity = '0.250000' points = '196.1,32.9 196.1,242.4 196.8,242.4 196.8,31.5 '/>
		<polygon fill = 'rgb( 31, 120, 180)' fill-opacity = '0.250000' points = '196.8,31.5 196.8,242.4 197.4,242.4 197.4,30.2 '/>
		<polygon fill = 'rgb( 31, 120, 180)' fill-opacity = '0.250000' points = '197.4,30.2 197.4,242.4 198.1,242.4 198.1,28.9 '/>
		<polygon fill = 'rgb( 31, 120, 180)' fill-opacity = '0.250000' points = '198.1,28.9 198.1,242.4 198.7,242.4 198.7,27.7 '/>
		<polygon fill = 'rgb( 31, 120, 180)' fill-opacity = '0.250000' points = '198.7,27.7 198.7,242.4 199.4,242.4 199.4,26.6 '/>
		<polygon fill = 'rgb( 31, 120, 180)' fill-opacity = '0.250000' points = '199.4,26.6 199.4,242.4 200.1,242.4 200.1,25.5 '/>
		<polygon fill = 'rgb( 31, 120, 180)' fill-opacity = '0.250000' points = '200.1,25.5 200.1,242.4 200.7,242.4 200.7,24.4 '/>
		<polygon fill = 'rgb( 31, 120, 180)' fill-opacity = '0.250000' points = '200.7,24.4 200.7,242.4 201.4,242.4 201.4,23.5 '/>
		<polygon fill = 'rgb( 31, 120, 180)' fill-opacity = '0.250000' points = '201.4,23.5 201.4,242.4 202.0,242.4 202.0,22.6 '/>
		<polygon fill = 'rgb( 31, 120, 180)' fill-opacity = '0.250000' points = '202.0,22.6 202.0,242.4 202.7,242.4 202.7,21.7 '/>
		<polygon fill = 'rgb( 31, 120, 180)' fill-opacity = '0.250000' points = '202.7,21.7 202.7,242.4 203.3,242.4 203.3,20.9 '/>
		<polygon fill = 'rgb( 31, 120, 180)' fill-opacity = '0.250000' points = '203.3,20.9 203.3,242.4 204.0,242.4 204.0,20.2 '/>
		<polygon fill = 'rgb( 31, 120, 180)' fill-opacity = '0.250000' points = '204.0,20.2 204.0,242.4 204.7,242.4 204.7,19.6 '/>
		<polygon fill = 'rgb( 31, 120, 180)' fill-opacity = '0.250000' points = '204.7,19.6 204.7,242.4 205.3,242.4 205.3,19.0 '/>
		<polygon fill = 'rgb( 31, 120, 180)' fill-opacity = '0.250000' points = '205.3,19.0 205.3,242.4 206.0,242.4 206.0,18.5 '/>
		<polygon fill = 'rgb( 31, 120, 180)' fill-opacity = '0.250000' points = '206.0,18.5 206.0,242.4 206.6,242.4 206.6,18.0 '/>
		<polygon fill = 'rgb( 31, 120, 180)' fill-opacity = '0.250000' points = '206.6,18.0 206.6,242.4 207.3,242.4 207.3,17.6 '/>
		<polygon fill = 'rgb( 31, 120, 180)' fill-opacity = '0.250000' points = '207.3,17.6 207.3,242.4 208.0,242.4 208.0,17.3 '/>
		<polygon fill = 'rgb( 31, 120, 180)' fill-opacity = '0.250000' points = '208.0,17.3 208.0,242.4 208.6,242.4 208.6,17.1 '/>
		<polygon fill = 'rgb( 31, 120, 180)' fill-opacity = '0.250000' points = '208.6,17.1 208.6,242.4 209.3,242.4 209.3,16.9 '/>
		<polygon fill = 'rgb( 31, 120, 180)' fill-opacity = '0.250000' points = '209.3,16.9 209.3,242.4 209.9,242.4 209.9,16.8 '/>
		<polygon fill = 'rgb( 31, 120, 180)' fill-opacity = '0.250000' points = '209.9,16.8 209.9,242.4 210.6,242.4 210.6,16.7 '/>
		<polygon fill = 'rgb( 31, 120, 180)' fill-opacity = '0.250000' points = '210.6,16.7 210.6,242.4 211.2,242.4 211.2,16.7 '/>
		<polygon fill = 'rgb( 31, 120, 180)' fill-opacity = '0.250000' points = '211.2,16.7 211.2,242.4 211.9,242.4 211.9,16.8 '/>
		<polygon fill = 'rgb( 31, 120, 180)' fill-opacity = '0.250000' points = '211.9,16.8 211.9,242.4 212.6,242.4 212.6,16.9 '/>
		<polygon fill = 'rgb( 31, 120, 180)' fill-opacity = '0.250000' points = '212.6,16.9 212.6,242.4 213.2,242.4 213.2,17.2 '/>
		<polygon fill = 'rgb( 31, 120, 180)' fill-opacity = '0.250000' points = '213.2,17.2 213.2,242.4 213.9,242.4 213.9,17.4 '/>
		<polygon fill = 'rgb( 31, 120, 180)' fill-opacity = '0.250000' points = '213.9,17.4 213.9,242.4 214.5,242.4 214.5,17.8 '/>
		<polygon fill = 'rgb( 31, 120, 180)' fill-opacity = '0.250000' points = '214.5,17.8 214.5,242.4 215.2,242.4 215.2,18.2 '/>
		<polygon fill = 'rgb( 31, 120, 180)' fill-opacity = '0.250000' points = '215.2,18.2 215.2,242.4 215.8,242.4 215.8,18.6 '/>
		<polygon fill = 'rgb( 31, 120, 180)' fill-opacity = '0.250000' points = '215.8,18.6 215.8,242.4 216.5,242.4 216.5,19.2 '/>
		<polygon fill = 'rgb( 31, 120, 180)' fill-opacity = '0.250000' points = '216.5,19.2 216.5,242.4 217.2,242.4 217.2,19.8 '/>
		<polygon fill = 'rgb( 31, 120, 180)' fill-opacity = '0.250000' points = '217.2,19.8 217.2,242.4 217.8,242.4 217.8,20.4 '/>
		<polygon fill = 'rgb( 31, 120, 180)' fill-opacity = '0.250000' points = '217.8,20.4 217.8,242.4 218.5,242.4 218.5,21.2 '/>
		<polygon fill = 'rgb( 31, 120, 180)' fill-opacity = '0.250000' points = '218.5,21.2 218.5,242.4 219.1,242.4 219.1,21.9 '/>
		<polygon fill = 'rgb( 31, 120, 180)' fill-opacity = '0.250000' points = '219.1,21.9 219.1,242.4 219.8,242.4 219.8,22.8 '/>
		<polygon fill = 'rgb( 31, 120, 180)' fill-opacity = '0.250000' points = '219.8,22.8 219.8,242.4 220.5,242.4 220.5,23.7 '/>
		<polygon fill = 'rgb( 31, 120, 180)' fill-opacity = '0.250000' points = '220.5,23.7 220.5,242.4 221.1,242.4 221.1,24.6 '/>
		<polygon fill = 'rgb( 31, 120, 180)' fill-opacity = '0.250000' points = '221.1,24.6 221.1,242.4 221.8,242.4 221.8,25.7 '/>
		<polygon fill = 'rgb( 31, 120, 180)' fill-opacity = '0.250000' points = '221.8,25.7 221.8,242.4 222.4,242.4 222.4,26.7 '/>
		<polygon fill = 'rgb( 31, 120, 180)' fill-opacity = '0.250000' points = '222.4,26.7 222.4,242.4 223.1,242.4 223.1,27.8 '/>
		<polygon fill = 'rgb( 31, 120, 180)' fill-opacity = '0.250000' points = '223.1,27.8 223.1,242.4 223.7,242.4 223.7,29.0 '/>
		<polygon fill = 'rgb( 31, 120, 180)' fill-opacity = '0.250000' points = '223.7,29.0 223.7,242.4 224.4,242.4 224.4,30.3 '/>
		<polygon fill = 'rgb( 31, 120, 180)' fill-opacity = '0.250000' points = '224.4,30.3 224.4,242.4 225.1,242.4 225.1,31.5 '/>
		<polygon fill = 'rgb( 31, 120, 180)' fill-opacity = '0.250000' points = '225.1,31.5 225.1,242.4 225.7,242.4 225.7,32.9 '/>
		<polygon fill = 'rgb( 31, 120, 180)' fill-opacity = '0.250000' points = '225.7,32.9 225.7,242.4 226.4,242.4 226.4,34.3 '/>
		<polygon fill = 'rgb( 31, 120, 180)' fill-opacity = '0.250000' points = '226.4,34.3 226.4,242.4 227.0,242.4 227.0,35.7 '/>
		<polygon fill = 'rgb( 31, 120, 180)' fill-opacity = '0.250000' points = '227.0,35.7 227.0,242.4 227.7,242.4 227.7,37.2 '/>
		<polygon fill = 'rgb( 31, 120, 180)' fill-opacity = '0.250000' points = '227.7,37.2 227.7,242.4 228.3,242.4 228.3,38.7 '/>
		<polygon fill = 'rgb( 31, 120, 180)' fill-opacity = '0.250000' points = '228.3,38.7 228.3,242.4 229.0,242.4 229.0,40.3 '/>
		<polygon fill = 'rgb( 31, 120, 180)' fill-opacity = '0.250000' points = '229.0,40.3 229.0,242.4 229.7,242.4 229.7,41.9 '/>
		<polygon fill = 'rgb( 31, 120, 180)' fill-opacity = '0.250000' points = '229.7,41.9 229.7,242.4 230.3,242.4 230.3,43.5 '/>
		<polygon fill = 'rgb( 31, 120, 180)' fill-opacity = '0.250000' points = '230.3,43.5 230.3,242.4 231.0,242.4 231.0,45.2 '/>
		<polygon fill = 'rgb( 31, 120, 180)' fill-opacity = '0.250000' points = '231.0,45.2 231.0,242.4 231.6,242.4 231.6,46.9 '/>
		<polygon fill = 'rgb( 31, 120, 180)' fill-opacity = '0.250000' points = '231.6,46.9 231.6,242.4 232.3,242.4 232.3,48.7 '/>
		<polygon fill = 'rgb( 31, 120, 180)' fill-opacity = '0.250000' points = '232.3,48.7 232.3,242.4 232.9,242.4 232.9,50.5 '/>
		<polygon fill = 'rgb( 31, 120, 180)' fill-opacity = '0.250000' points = '232.9,50.5 232.9,242.4 233.6,242.4 233.6,52.3 '/>
		<polygon fill = 'rgb( 31, 120, 180)' fill-opacity = '0.250000' points = '233.6,52.3 233.6,242.4 234.3,242.4 234.3,54.2 '/>
		<polygon fill = 'rgb( 31, 120, 180)' fill-opacity = '0.250000' points = '234.3,54.2 234.3,242.4 234.9,242.4 234.9,56.1 '/>
		<polygon fill = 'rgb( 31, 120, 180)' fill-opacity = '0.250000' points = '234.9,56.1 234.9,242.4 235.6,242.4 235.6,58.0 '/>
		<polygon fill = 'rgb( 31, 120, 180)' fill-opacity = '0.250000' points = '235.6,58.0 235.6,242.4 236.2,242.4 236.2,59.9 '/>
		<polygon fill = 'rgb( 31, 120, 180)' fill-opacity = '0.250000' points = '236.2,59.9 236.2,242.4 236.9,242.4 236.9,61.9 '/>
		<polygon fill = 'rgb( 31, 120, 180)' fill-opacity = '0.250000' points = '236.9,61.9 236.9,242.4 237.6,242.4 237.6,63.9 '/>
		<polygon fill = 'rgb( 31, 120, 180)' fill-opacity = '0.250000' points = '237.6,63.9 237.6,242.4 238.2,242.4 238.2,65.9 '/>
		<polygon fill = 'rgb( 31, 120, 180)' fill-opacity = '0.250000' points = '238.2,65.9 238.2,242.4 238.9,242.4 238.9,68.0 '/>
		<polygon fill = 'rgb( 31, 120, 180)' fill-opacity = '0.250000' points = '238.9,68.0 238.9,242.4 239.5,242.4 239.5,70.0 '/>
		<polygon fill = 'rgb( 31, 120, 180)' fill-opacity = '0.250000' points = '239.5,70.0 239.5,242.4 240.2,242.4 240.2,72.1 '/>
		<polygon fill = 'rgb( 31, 120, 180)' fill-opacity = '0.250000' points = '240.2,72.1 240.2,242.4 240.8,242.4 240.8,74.1 '/>
		<polygon fill = 'rgb( 31, 120, 180)' fill-opacity = '0.250000' points = '240.8,74.1 240.8,242.4 241.5,242.4 241.5,76.2 '/>
		<polygon fill = 'rgb( 31, 120, 180)' fill-opacity = '0.250000' points = '241.5,76.2 241.5,242.4 242.2,242.4 242.2,78.3 '/>
		<polygon fill = 'rgb( 31, 120, 180)' fill-opacity = '0.250000' points = '242.2,78.3 242.2,242.4 242.8,242.4 242.8,80.4 '/>
		<polygon fill = 'rgb( 31, 120, 180)' fill-opacity = '0.250000' points = '242.8,80.4 242.8,242.4 243.5,242.4 243.5,82.6 '/>
		<polygon fill = 'rgb( 31, 120, 180)' fill-opacity = '0.250000' points = '243.5,82.6 243.5,242.4 244.1,242.4 244.1,84.7 '/>
		<polygon fill = 'rgb( 31, 120, 180)' fill-opacity = '0.250000' points = '244.1,84.7 244.1,242.4 244.8,242.4 244.8,86.8 '/>
		<polygon fill = 'rgb( 31, 120, 180)' fill-opacity = '0.250000' points = '244.8,86.8 244.8,242.4 245.4,242.4 245.4,88.9 '/>
		<polygon fill = 'rgb( 31, 120, 180)' fill-opacity = '0.250000' points = '245.4,88.9 245.4,242.4 246.1,242.4 246.1,91.1 '/>
		<polygon fill = 'rgb( 31, 120, 180)' fill-opacity = '0.250000' points = '246.1,91.1 246.1,242.4 246.8,242.4 246.8,93.2 '/>
		<polygon fill = 'rgb( 31, 120, 180)' fill-opacity = '0.250000' points = '246.8,93.2 246.8,242.4 247.4,242.4 247.4,95.3 '/>
		<polygon fill = 'rgb( 31, 120, 180)' fill-opacity = '0.250000' points = '247.4,95.3 247.4,242.4 248.1,242.4 248.1,97.4 '/>
		<polygon fill = 'rgb( 31, 120, 180)' fill-opacity = '0.250000' points = '248.1,97.4 248.1,242.4 248.7,242.4 248.7,99.5 '/>
		<polygon fill = 'rgb( 31, 120, 180)' fill-opacity = '0.250000' points = '248.7,99.5 248.7,242.4 249.4,242.4 249.4,101.6 '/>
		<polygon fill = 'rgb( 31, 120, 180)' fill-opacity = '0.250000' points = '249.4,101.6 249.4,242.4 250.0,242.4 250.0,103.7 '/>
		<polygon fill = 'rgb( 31, 120, 180)' fill-opacity = '0.250000' points = '250.0,103.7 250.0,242.4 250.7,242.4 250.7,105.8 '/>
		<polygon fill = 'rgb( 31, 120, 180)' fill-opacity = '0.250000' points = '250.7,105.8 250.7,242.4 251.4,242.4 251.4,107.9 '/>
		<polygon fill = 'rgb( 31, 120, 180)' fill-opacity = '0.250000' points = '251.4,107.9 251.4,242.4 252.0,242.4 252.0,109.9 '/>
		<polygon fill = 'rgb( 31, 120, 180)' fill-opacity = '0.250000' points = '252.0,109.9 252.0,242.4 252.7,242.4 252.7,111.9 '/>
		<polygon fill = 'rgb( 31, 120, 180)' fill-opacity = '0.250000' points = '252.7,111.9 252.7,242.4 253.3,242.4 253.3,114.0 '/>
		<polygon fill = 'rgb( 31, 120, 180)' fill-opacity = '0.250000' points = '253.3,114.0 253.3,242.4 254.0,242.4 254.0,116.0 '/>
		<polygon fill = 'rgb( 31, 120, 180)' fill-opacity = '0.250000' points = '254.0,116.0 254.0,242.4 254.7,242.4 254.7,117.9 '/>
		<polygon fill = 'rgb( 31, 120, 180)' fill-opacity = '0.250000' points = '254.7,117.9 254.7,242.4 255.3,242.4 255.3,119.9 '/>
		<polygon fill = 'rgb( 31, 120, 180)' fill-opacity = '0.250000' points = '255.3,119.9 255.3,242.4 256.0,242.4 256.0,121.8 '/>
		<polygon fill = 'rgb( 31, 120, 180)' fill-opacity = '0.250000' points = '256.0,121.8 256.0,242.4 256.6,242.4 256.6,123.7 '/>
		<polygon fill = 'rgb( 31, 120, 180)' fill-opacity = '0.250000' points = '256.6,123.7 256.6,242.4 257.3,242.4 257.3,125.6 '/>
		<polygon fill = 'rgb( 31, 120, 180)' fill-opacity = '0.250000' points = '257.3,125.6 257.3,242.4 257.9,242.4 257.9,127.5 '/>
		<polygon fill = 'rgb( 31, 120, 180)' fill-opacity = '0.250000' points = '257.9,127.5 257.9,242.4 258.6,242.4 258.6,129.3 '/>
		<polygon fill = 'rgb( 31, 120, 180)' fill-opacity = '0.250000' points = '258.6,129.3 258.6,242.4 259.3,242.4 259.3,131.1 '/>
		<polygon fill = 'rgb( 31, 120, 180)' fill-opacity = '0.250000' points = '259.3,131.1 259.3,242.4 259.9,242.4 259.9,132.9 '/>
		<polygon fill = 'rgb( 31, 120, 180)' fill-opacity = '0.250000' points = '259.9,132.9 259.9,242.4 260.6,242.4 260.6,134.6 '/>
		<polygon fill = 'rgb( 31, 120, 180)' fill-opacity = '0.250000' points = '260.6,134.6 260.6,242.4 261.2,242.4 261.2,136.3 '/>
		<polygon fill = 'rgb( 31, 120, 180)' fill-opacity = '0.250000' points = '261.2,136.3 261.2,242.4 261.9,242.4 261.9,138.0 '/>
		<polygon fill = 'rgb( 31, 120, 180)' fill-opacity = '0.250000' points = '261.9,138.0 261.9,242.4 262.5,242.4 262.5,139.6 '/>
		<polygon fill = 'rgb( 31, 120, 180)' fill-opacity = '0.250000' points = '262.5,139.6 262.5,242.4 263.2,242.4 263.2,141.2 '/>
		<polygon fill = 'rgb( 31, 120, 180)' fill-opacity = '0.250000' points = '263.2,141.2 263.2,242.4 263.9,242.4 263.9,142.8 '/>
		<polygon fill = 'rgb( 31, 120, 180)' fill-opacity = '0.250000' points = '263.9,142.8 263.9,242.4 264.5,242.4 264.5,144.4 '/>
		<polygon fill = 'rgb( 31, 120, 180)' fill-opacity = '0.250000' points = '264.5,144.4 264.5,242.4 265.2,242.4 265.2,145.9 '/>
		<polygon fill = 'rgb( 31, 120, 180)' fill-opacity = '0.250000' points = '265.2,145.9 265.2,242.4 265.8,242.4 265.8,147.3 '/>
		<polygon fill = 'rgb( 31, 120, 180)' fill-opacity = '0.250000' points = '265.8,147.3 265.8,242.4 266.5,242.4 266.5,148.8 '/>
		<polygon fill = 'rgb( 31, 120, 180)' fill-opacity = '0.250000' points = '266.5,148.8 266.5,242.4 267.1,242.4 267.1,150.2 '/>
		<polygon fill = 'rgb( 31, 120, 180)' fill-opacity = '0.250000' points = '267.1,150.2 267.1,242.4 267.8,242.4 267.8,151.5 '/>
		<polygon fill = 'rgb( 31, 120, 180)' fill-opacity = '0.250000' points = '267.8,151.5 267.8,242.4 268.5,242.4 268.5,152.8 '/>
		<polygon fill = 'rgb( 31, 120, 180)' fill-opacity = '0.250000' points = '268.5,152.8 268.5,242.4 269.1,242.4 269.1,154.1 '/>
		<polygon fill = 'rgb( 31, 120, 180)' fill-opacity = '0.250000' points = '269.1,154.1 269.1,242.4 269.8,242.4 269.8,155.4 '/>
		<polygon fill = 'rgb( 31, 120, 180)' fill-opacity = '0.250000' points = '269.8,155.4 269.8,242.4 270.4,242.4 270.4,156.6 '/>
		<polygon fill = 'rgb( 31, 120, 180)' fill-opacity = '0.250000' points = '270.4,156.6 270.4,242.4 271.1,242.4 271.1,157.7 '/>
		<polygon fill = 'rgb( 31, 120, 180)' fill-opacity = '0.250000' points = '271.1,157.7 271.1,242.4 271.8,242.4 271.8,158.9 '/>
		<polygon fill = 'rgb( 31, 120, 180)' fill-opacity = '0.250000' points = '271.8,158.9 271.8,242.4 272.4,242.4 272.4,160.0 '/>
		<polygon fill = 'rgb( 31, 120, 180)' fill-opacity = '0.250000' points = '272.4,160.0 272.4,242.4 273.1,242.4 273.1,161.0 '/>
		<polygon fill = 'rgb( 31, 120, 180)' fill-opacity = '0.250000' points = '273.1,161.0 273.1,242.4 273.7,242.4 273.7,162.0 '/>
		<polygon fill = 'rgb( 31, 120, 180)' fill-opacity = '0.250000' points = '273.7,162.0 273.7,242.4 274.4,242.4 274.4,163.0 '/>
		<polygon fill = 'rgb( 31, 120, 180)' fill-opacity = '0.250000' points = '274.4,163.0 274.4,242.4 275.0,242.4 275.0,164.0 '/>
		<polygon fill = 'rgb( 31, 120, 180)' fill-opacity = '0.250000' points = '275.0,164.0 275.0,242.4 275.7,242.4 275.7,164.9 '/>
		<polygon fill = 'rgb( 31, 120, 180)' fill-opacity = '0.250000' points = '275.7,164.9 275.7,242.4 276.4,242.4 276.4,165.8 '/>
		<polygon fill = 'rgb( 31, 120, 180)' fill-opacity = '0.250000' points = '276.4,165.8 276.4,242.4 277.0,242.4 277.0,166.6 '/>
		<polygon fill = 'rgb( 31, 120, 180)' fill-opacity = '0.250000' points = '277.0,166.6 277.0,242.4 277.7,242.4 277.7,167.4 '/>
		<polygon fill = 'rgb( 31, 120, 180)' fill-opacity = '0.250000' points = '277.7,167.4 277.7,242.4 278.3,242.4 278.3,168.2 '/>
		<polygon fill = 'rgb( 31, 120, 180)' fill-opacity = '0.250000' points = '278.3,168.2 278.3,242.4 279.0,242.4 279.0,168.9 '/>
		<polygon fill = 'rgb( 31, 120, 180)' fill-opacity = '0.250000' points = '279.0,168.9 279.0,242.4 279.6,242.4 279.6,169.6 '/>
		<polygon fill = 'rgb( 31, 120, 180)' fill-opacity = '0.250000' points = '279.6,169.6 279.6,242.4 280.3,242.4 280.3,170.2 '/>
		<polygon fill = 'rgb( 31, 120, 180)' fill-opacity = '0.250000' points = '280.3,170.2 280.3,242.4 281.0,242.4 281.0,170.9 '/>
		<polygon fill = 'rgb( 31, 120, 180)' fill-opacity = '0.250000' points = '281.0,170.9 281.0,242.4 281.6,242.4 281.6,171.5 '/>
		<polygon fill = 'rgb( 31, 120, 180)' fill-opacity = '0.250000' points = '281.6,171.5 281.6,242.4 282.3,242.4 282.3,172.0 '/>
		<polygon fill = 'rgb( 31, 120, 180)' fill-opacity = '0.250000' points = '282.3,172.0 282.3,242.4 282.9,242.4 282.9,172.6 '/>
		<polygon fill = 'rgb( 31, 120, 180)' fill-opacity = '0.250000' points = '282.9,172.6 282.9,242.4 283.6,242.4 283.6,173.1 '/>
		<polygon fill = 'rgb( 31, 120, 180)' fill-opacity = '0.250000' points = '283.6,173.1 283.6,242.4 284.2,242.4 284.2,173.5 '/>
		<polygon fill = 'rgb( 31, 120, 180)' fill-opacity = '0.250000' points = '284.2,173.5 284.2,242.4 284.9,242.4 284.9,174.0 '/>
		<polygon fill = 'rgb( 31, 120, 180)' fill-opacity = '0.250000' points = '284.9,174.0 284.9,242.4 285.6,242.4 285.6,174.4 '/>
		<polygon fill = 'rgb( 31, 120, 180)' fill-opacity = '0.250000' points = '285.6,174.4 285.6,242.4 286.2,242.4 286.2,174.8 '/>
		<polygon fill = 'rgb( 31, 120, 180)' fill-opacity = '0.250000' points = '286.2,174.8 286.2,242.4 286.9,242.4 286.9,175.2 '/>
		<polygon fill = 'rgb( 31, 120, 180)' fill-opacity = '0.250000' points = '286.9,175.2 286.9,242.4 287.5,242.4 287.5,175.5 '/>
		<polygon fill = 'rgb( 31, 120, 180)' fill-opacity = '0.250000' points = '287.5,175.5 287.5,242.4 288.2,242.4 288.2,175.8 '/>
		<polygon fill = 'rgb( 31, 120, 180)' fill-opacity = '0.250000' points = '288.2,175.8 288.2,242.4 288.9,242.4 288.9,176.1 '/>
		<polygon fill = 'rgb( 31, 120, 180)' fill-opacity = '0.250000' points = '288.9,176.1 288.9,242.4 289.5,242.4 289.5,176.4 '/>
		<polygon fill = 'rgb( 31, 120, 180)' fill-opacity = '0.250000' points = '289.5,176.4 289.5,242.4 290.2,242.4 290.2,176.7 '/>
		<polygon fill = 'rgb( 31, 120, 180)' fill-opacity = '0.250000' points = '290.2,176.7 290.2,242.4 290.8,242.4 290.8,176.9 '/>
		<polygon fill = 'rgb( 31, 120, 180)' fill-opacity = '0.250000' points = '290.8,176.9 290.8,242.4 291.5,242.4 291.5,177.1 '/>
		<polygon fill = 'rgb( 31, 120, 180)' fill-opacity = '0.250000' points = '291.5,177.1 291.5,242.4 292.1,242.4 292.1,177.3 '/>
		<polygon fill = 'rgb( 31, 120, 180)' fill-opacity = '0.250000' points = '292.1,177.3 292.1,242.4 292.8,242.4 292.8,177.5 '/>
		<polygon fill = 'rgb( 31, 120, 180)' fill-opacity = '0.250000' points = '292.8,177.5 292.8,242.4 293.5,242.4 293.5,177.6 '/>
		<polygon fill = 'rgb( 31, 120, 180)' fill-opacity = '0.250000' points = '293.5,177.6 293.5,242.4 294.1,242.4 294.1,177.8 '/>
		<polygon fill = 'rgb( 31, 120, 180)' fill-opacity = '0.250000' points = '294.1,177.8 294.1,242.4 294.8,242.4 294.8,177.9 '/>
		<polygon fill = 'rgb( 31, 120, 180)' fill-opacity = '0.250000' points = '294.8,177.9 294.8,242.4 295.4,242.4 295.4,178.0 '/>
		<polygon fill = 'rgb( 31, 120, 180)' fill-opacity = '0.250000' points = '295.4,178.0 295.4,242.4 296.1,242.4 296.1,178.1 '/>
		<polygon fill = 'rgb( 31, 120, 180)' fill-opacity = '0.250000' points = '296.1,178.1 296.1,242.4 296.7,242.4 296.7,178.2 '/>
		<polygon fill = 'rgb( 31, 120, 180)' fill-opacity = '0.250000' points = '296.7,178.2 296.7,242.4 297.4,242.4 297.4,178.3 '/>
		<polygon fill = 'rgb( 31, 120, 180)' fill-opacity = '0.250000' points = '297.4,178.3 297.4,242.4 298.1,242.4 298.1,178.4 '/>
		<polygon fill = 'rgb( 31, 120, 180)' fill-opacity = '0.250000' points = '298.1,178.4 298.1,242.4 298.7,242.4 298.7,178.4 '/>
		<polygon fill = 'rgb( 31, 120, 180)' fill-opacity = '0.250000' points = '298.7,178.4 298.7,242.4 299.4,242.4 299.4,178.5 '/>
		<polygon fill = 'rgb( 31, 120, 180)' fill-opacity = '0.250000' points = '299.4,178.5 299.4,242.4 300.0,242.4 300.0,178.5 '/>
		<polygon fill = 'rgb( 31, 120, 180)' fill-opacity = '0.250000' points = '300.0,178.5 300.0,242.4 300.7,242.4 300.7,178.6 '/>
		<polygon fill = 'rgb( 31, 120, 180)' fill-opacity = '0.250000' points = '300.7,178.6 300.7,242.4 301.3,242.4 301.3,178.6 '/>
		<polygon fill = 'rgb( 31, 120, 180)' fill-opacity = '0.250000' points = '301.3,178.6 301.3,242.4 302.0,242.4 302.0,178.6 '/>
		<polygon fill = 'rgb( 31, 120, 180)' fill-opacity = '0.250000' points = '302.0,178.6 302.0,242.4 302.7,242.4 302.7,178.6 '/>
		<polygon fill = 'rgb( 31, 120, 180)' fill-opacity = '0.250000' points = '302.7,178.6 302.7,242.4 303.3,242.4 303.3,178.7 '/>
		<polygon fill = 'rgb( 31, 120, 180)' fill-opacity = '0.250000' points = '303.3,178.7 303.3,242.4 304.0,242.4 304.0,178.7 '/>
		<polygon fill = 'rgb( 31, 120, 180)' fill-opacity = '0.250000' points = '304.0,178.7 304.0,242.4 304.6,242.4 304.6,178.7 '/>
		<polygon fill = 'rgb( 31, 120, 180)' fill-opacity = '0.250000' points = '304.6,178.7 304.6,242.4 305.3,242.4 305.3,178.7 '/>
		<polygon fill = 'rgb( 31, 120, 180)' fill-opacity = '0.250000' points = '305.3,178.7 305.3,242.4 306.0,242.4 306.0,178.7 '/>
		<polygon fill = 'rgb( 31, 120, 180)' fill-opacity = '0.250000' points = '306.0,178.7 306.0,242.4 306.6,242.4 306.6,178.8 '/>
		<polygon fill = 'rgb( 31, 120, 180)' fill-opacity = '0.250000' points = '306.6,178.8 306.6,242.4 307.3,242.4 307.3,178.8 '/>
		<polygon fill = 'rgb( 31, 120, 180)' fill-opacity = '0.250000' points = '307.3,178.8 307.3,242.4 307.9,242.4 307.9,178.8 '/>
		<polygon fill = 'rgb( 31, 120, 180)' fill-opacity = '0.250000' points = '307.9,178.8 307.9,242.4 308.6,242.4 308.6,178.9 '/>
		<polygon fill = 'rgb( 31, 120, 180)' fill-opacity = '0.250000' points = '308.6,178.9 308.6,242.4 309.2,242.4 309.2,178.9 '/>
		<polygon fill = 'rgb( 31, 120, 180)' fill-opacity = '0.250000' points = '309.2,178.9 309.2,242.4 309.9,242.4 309.9,178.9 '/>
		<polygon fill = 'rgb( 31, 120, 180)' fill-opacity = '0.250000' points = '309.9,178.9 309.9,242.4 310.6,242.4 310.6,179.0 '/>
		<polygon fill = 'rgb( 31, 120, 180)' fill-opacity = '0.250000' points = '310.6,179.0 310.6,242.4 311.2,242.4 311.2,179.0 '/>
		<polygon fill = 'rgb( 31, 120, 180)' fill-opacity = '0.250000' points = '311.2,179.0 311.2,242.4 311.9,242.4 311.9,179.1 '/>
		<polygon fill = 'rgb( 31, 120, 180)' fill-opacity = '0.250000' points = '311.9,179.1 311.9,242.4 312.5,242.4 312.5,179.1 '/>
		<polygon fill = 'rgb( 31, 120, 180)' fill-opacity = '0.250000' points = '312.5,179.1 312.5,242.4 313.2,242.4 313.2,179.2 '/>
		<polygon fill = 'rgb( 31, 120, 180)' fill-opacity = '0.250000' points = '313.2,179.2 313.2,242.4 313.8,242.4 313.8,179.3 '/>
		<polygon fill = 'rgb( 31, 120, 180)' fill-opacity = '0.250000' points = '313.8,179.3 313.8,242.4 314.5,242.4 314.5,179.4 '/>
		<polygon fill = 'rgb( 31, 120, 180)' fill-opacity = '0.250000' points = '314.5,179.4 314.5,242.4 315.2,242.4 315.2,179.5 '/>
		<polygon fill = 'rgb( 31, 120, 180)' fill-opacity = '0.250000' points = '315.2,179.5 315.2,242.4 315.8,242.4 315.8,179.6 '/>
		<polygon fill = 'rgb( 31, 120, 180)' fill-opacity = '0.250000' points = '315.8,179.6 315.8,242.4 316.5,242.4 316.5,179.7 '/>
		<polygon fill = 'rgb( 31, 120, 180)' fill-opacity = '0.250000' points = '316.5,179.7 316.5,242.4 317.1,242.4 317.1,179.8 '/>
		<polygon fill = 'rgb( 31, 120, 180)' fill-opacity = '0.250000' points = '317.1,179.8 317.1,242.4 317.8,242.4 317.8,180.0 '/>
		<polygon fill = 'rgb( 31, 120, 180)' fill-opacity = '0.250000' points = '317.8,180.0 317.8,242.4 318.5,242.4 318.5,180.1 '/>
		<polygon fill = 'rgb( 31, 120, 180)' fill-opacity = '0.250000' points = '318.5,180.1 318.5,242.4 319.1,242.4 319.1,180.3 '/>
		<polygon fill = 'rgb( 31, 120, 180)' fill-opacity = '0.250000' points = '319.1,180.3 319.1,242.4 319.8,242.4 319.8,180.4 '/>
		<polygon fill = 'rgb( 31, 120, 180)' fill-opacity = '0.250000' points = '319.8,180.4 319.8,242.4 320.4,242.4 320.4,180.6 '/>
		<polygon fill = 'rgb( 31, 120, 180)' fill-opacity = '0.250000' points = '320.4,180.6 320.4,242.4 321.1,242.4 321.1,180.8 '/>
		<polygon fill = 'rgb( 31, 120, 180)' fill-opacity = '0.250000' points = '321.1,180.8 321.1,242.4 321.7,242.4 321.7,181.0 '/>
		<polygon fill = 'rgb( 31, 120, 180)' fill-opacity = '0.250000' points = '321.7,181.0 321.7,242.4 322.4,242.4 322.4,181.2 '/>
		<polygon fill = 'rgb( 31, 120, 180)' fill-opacity = '0.250000' points = '322.4,181.2 322.4,242.4 323.1,242.4 323.1,181.5 '/>
		<polygon fill = 'rgb( 31, 120, 180)' fill-opacity = '0.250000' points = '323.1,181.5 323.1,242.4 323.7,242.4 323.7,181.7 '/>
		<polygon fill = 'rgb( 31, 120, 180)' fill-opacity = '0.250000' points = '323.7,181.7 323.7,242.4 324.4,242.4 324.4,182.0 '/>
		<polygon fill = 'rgb( 31, 120, 180)' fill-opacity = '0.250000' points = '324.4,182.0 324.4,242.4 325.0,242.4 325.0,182.3 '/>
		<polygon fill = 'rgb( 31, 120, 180)' fill-opacity = '0.250000' points = '325.0,182.3 325.0,242.4 325.7,242.4 325.7,182.6 '/>
		<polygon fill = 'rgb( 31, 120, 180)' fill-opacity = '0.250000' points = '325.7,182.6 325.7,242.4 326.3,242.4 326.3,182.9 '/>
		<polygon fill = 'rgb( 31, 120, 180)' fill-opacity = '0.250000' points = '326.3,182.9 326.3,242.4 327.0,242.4 327.0,183.2 '/>
		<polygon fill = 'rgb( 31, 120, 180)' fill-opacity = '0.250000' points = '327.0,183.2 327.0,242.4 327.7,242.4 327.7,183.5 '/>
		<polygon fill = 'rgb( 31, 120, 180)' fill-opacity = '0.250000' points = '327.7,183.5 327.7,242.4 328.3,242.4 328.3,183.8 '/>
		<polygon fill = 'rgb( 31, 120, 180)' fill-opacity = '0.250000' points = '328.3,183.8 328.3,242.4 329.0,242.4 329.0,184.2 '/>
		<polygon fill = 'rgb( 31, 120, 180)' fill-opacity = '0.250000' points = '329.0,184.2 329.0,242.4 329.6,242.4 329.6,184.6 '/>
		<polygon fill = 'rgb( 31, 120, 180)' fill-opacity = '0.250000' points = '329.6,184.6 329.6,242.4 330.3,242.4 330.3,185.0 '/>
		<polygon fill = 'rgb( 31, 120, 180)' fill-opacity = '0.250000' points = '330.3,185.0 330.3,242.4 330.9,242.4 330.9,185.4 '/>
		<polygon fill = 'rgb( 31, 120, 180)' fill-opacity = '0.250000' points = '330.9,185.4 330.9,242.4 331.6,242.4 331.6,185.8 '/>
		<polygon fill = 'rgb( 31, 120, 180)' fill-opacity = '0.250000' points = '331.6,185.8 331.6,242.4 332.3,242.4 332.3,186.2 '/>
		<polygon fill = 'rgb( 31, 120, 180)' fill-opacity = '0.250000' points = '332.3,186.2 332.3,242.4 332.9,242.4 332.9,186.6 '/>
		<polygon fill = 'rgb( 31, 120, 180)' fill-opacity = '0.250000' points = '332.9,186.6 332.9,242.4 333.6,242.4 333.6,187.1 '/>
		<polygon fill = 'rgb( 31, 120, 180)' fill-opacity = '0.250000' points = '333.6,187.1 333.6,242.4 334.2,242.4 334.2,187.6 '/>
		<polygon fill = 'rgb( 31, 120, 180)' fill-opacity = '0.250000' points = '334.2,187.6 334.2,242.4 334.9,242.4 334.9,188.0 '/>
		<polygon fill = 'rgb( 31, 120, 180)' fill-opacity = '0.250000' points = '334.9,188.0 334.9,242.4 335.6,242.4 335.6,188.5 '/>
		<polygon fill = 'rgb( 31, 120, 180)' fill-opacity = '0.250000' points = '335.6,188.5 335.6,242.4 336.2,242.4 336.2,189.0 '/>
		<polygon fill = 'rgb( 31, 120, 180)' fill-opacity = '0.250000' points = '336.2,189.0 336.2,242.4 336.9,242.4 336.9,189.5 '/>
		<polygon fill = 'rgb( 31, 120, 180)' fill-opacity = '0.250000' points = '336.9,189.5 336.9,242.4 337.5,242.4 337.5,190.1 '/>
		<polygon fill = 'rgb( 31, 120, 180)' fill-opacity = '0.250000' points = '337.5,190.1 337.5,242.4 338.2,242.4 338.2,190.6 '/>
		<polygon fill = 'rgb( 31, 120, 180)' fill-opacity = '0.250000' points = '338.2,190.6 338.2,242.4 338.8,242.4 338.8,191.2 '/>
		<polygon fill = 'rgb( 31, 120, 180)' fill-opacity = '0.250000' points = '338.8,191.2 338.8,242.4 339.5,242.4 339.5,191.7 '/>
		<polygon fill = 'rgb( 31, 120, 180)' fill-opacity = '0.250000' points = '339.5,191.7 339.5,242.4 340.2,242.4 340.2,192.3 '/>
		<polygon fill = 'rgb( 31, 120, 180)' fill-opacity = '0.250000' points = '340.2,192.3 340.2,242.4 340.8,242.4 340.8,192.9 '/>
		<polygon fill = 'rgb( 31, 120, 180)' fill-opacity = '0.250000' points = '340.8,192.9 340.8,242.4 341.5,242.4 341.5,193.5 '/>
		<polygon fill = 'rgb( 31, 120, 180)' fill-opacity = '0.250000' points = '341.5,193.5 341.5,242.4 342.1,242.4 342.1,194.1 '/>
		<polygon fill = 'rgb( 31, 120, 180)' fill-opacity = '0.250000' points = '342.1,194.1 342.1,242.4 342.8,242.4 342.8,194.7 '/>
		<polygon fill = 'rgb( 31, 120, 180)' fill-opacity = '0.250000' points = '342.8,194.7 342.8,242.4 343.4,242.4 343.4,195.3 '/>
		<polygon fill = 'rgb( 31, 120, 180)' fill-opacity = '0.250000' points = '343.4,195.3 343.4,242.4 344.1,242.4 344.1,195.9 '/>
		<polygon fill = 'rgb( 31, 120, 180)' fill-opacity = '0.250000' points = '344.1,195.9 344.1,242.4 344.8,242.4 344.8,196.6 '/>
		<polygon fill = 'rgb( 31, 120, 180)' fill-opacity = '0.250000' points = '344.8,196.6 344.8,242.4 345.4,242.4 345.4,197.2 '/>
		<polygon fill = 'rgb( 31, 120, 180)' fill-opacity = '0.250000' points = '345.4,197.2 345.4,242.4 346.1,242.4 346.1,197.9 '/>
		<polygon fill = 'rgb( 31, 120, 180)' fill-opacity = '0.250000' points = '346.1,197.9 346.1,242.4 346.7,242.4 346.7,198.5 '/>
		<polygon fill = 'rgb( 31, 120, 180)' fill-opacity = '0.250000' points = '346.7,198.5 346.7,242.4 347.4,242.4 347.4,199.2 '/>
		<polygon fill = 'rgb( 31, 120, 180)' fill-opacity = '0.250000' points = '347.4,199.2 347.4,242.4 348.0,242.4 348.0,199.9 '/>
		<polygon fill = 'rgb( 31, 120, 180)' fill-opacity = '0.250000' points = '348.0,199.9 348.0,242.4 348.7,242.4 348.7,200.5 '/>
		<polygon fill = 'rgb( 31, 120, 180)' fill-opacity = '0.250000' points = '348.7,200.5 348.7,242.4 349.4,242.4 349.4,201.2 '/>
		<polygon fill = 'rgb( 31, 120, 180)' fill-opacity = '0.250000' points = '349.4,201.2 349.4,242.4 350.0,242.4 350.0,201.9 '/>
		<polygon fill = 'rgb( 31, 120, 180)' fill-opacity = '0.250000' points = '350.0,201.9 350.0,242.4 350.7,242.4 350.7,202.6 '/>
		<polygon fill = 'rgb( 31, 120, 180)' fill-opacity = '0.250000' points = '350.7,202.6 350.7,242.4 351.3,242.4 351.3,203.3 '/>
		<polygon fill = 'rgb( 31, 120, 180)' fill-opacity = '0.250000' points = '351.3,203.3 351.3,242.4 352.0,242.4 352.0,204.0 '/>
		<polygon fill = 'rgb( 31, 120, 180)' fill-opacity = '0.250000' points = '352.0,204.0 352.0,242.4 352.7,242.4 352.7,204.7 '/>
		<polygon fill = 'rgb( 31, 120, 180)' fill-opacity = '0.250000' points = '352.7,204.7 352.7,242.4 353.3,242.4 353.3,205.4 '/>
		<polygon fill = 'rgb( 31, 120, 180)' fill-opacity = '0.250000' points = '353.3,205.4 353.3,242.4 354.0,242.4 354.0,206.1 '/>
		<polygon fill = 'rgb( 31, 120, 180)' fill-opacity = '0.250000' points = '354.0,206.1 354.0,242.4 354.6,242.4 354.6,206.8 '/>
		<polygon fill = 'rgb( 31, 120, 180)' fill-opacity = '0.250000' points = '354.6,206.8 354.6,242.4 355.3,242.4 355.3,207.5 '/>
		<polygon fill = 'rgb( 31, 120, 180)' fill-opacity = '0.250000' points = '355.3,207.5 355.3,242.4 355.9,242.4 355.9,208.2 '/>
		<polygon fill = 'rgb( 31, 120, 180)' fill-opacity = '0.250000' points = '355.9,208.2 355.9,242.4 356.6,242.4 356.6,208.9 '/>
		<polygon fill = 'rgb( 31, 120, 180)' fill-opacity = '0.250000' points = '356.6,208.9 356.6,242.4 357.3,242.4 357.3,209.6 '/>
		<polygon fill = 'rgb( 31, 120, 180)' fill-opacity = '0.250000' points = '357.3,209.6 357.3,242.4 357.9,242.4 357.9,210.3 '/>
		<polygon fill = 'rgb( 31, 120, 180)' fill-opacity = '0.250000' points = '357.9,210.3 357.9,242.4 358.6,242.4 358.6,211.0 '/>
		<polygon fill = 'rgb( 31, 120, 180)' fill-opacity = '0.250000' points = '358.6,211.0 358.6,242.4 359.2,242.4 359.2,211.7 '/>
		<polygon fill = 'rgb( 31, 120, 180)' fill-opacity = '0.250000' points = '359.2,211.7 359.2,242.4 359.9,242.4 359.9,212.4 '/>
		<polygon fill = 'rgb( 31, 120, 180)' fill-opacity = '0.250000' points = '359.9,212.4 359.9,242.4 360.5,242.4 360.5,213.1 '/>
		<polygon fill = 'rgb( 31, 120, 180)' fill-opacity = '0.250000' points = '360.5,213.1 360.5,242.4 361.2,242.4 361.2,213.8 '/>
		<polygon fill = 'rgb( 31, 120, 180)' fill-opacity = '0.250000' points = '361.2,213.8 361.2,242.4 361.9,242.4 361.9,214.5 '/>
		<polygon fill = 'rgb( 31, 120, 180)' fill-opacity = '0.250000' points = '361.9,214.5 361.9,242.4 362.5,242.4 362.5,215.1 '/>
		<polygon fill = 'rgb( 31, 120, 180)' fill-opacity = '0.250000' points = '362.5,215.1 362.5,242.4 363.2,242.4 363.2,215.8 '/>
		<polygon fill = 'rgb( 31, 120, 180)' fill-opacity = '0.250000' points = '363.2,215.8 363.2,242.4 363.8,242.4 363.8,216.5 '/>
		<polygon fill = 'rgb( 31, 120, 180)' fill-opacity = '0.250000' points = '363.8,216.5 363.8,242.4 364.5,242.4 364.5,217.2 '/>
		<polygon fill = 'rgb( 31, 120, 180)' fill-opacity = '0.250000' points = '364.5,217.2 364.5,242.4 365.1,242.4 365.1,217.8 '/>
		<polygon fill = 'rgb( 31, 120, 180)' fill-opacity = '0.250000' points = '365.1,217.8 365.1,242.4 365.8,242.4 365.8,218.5 '/>
		<polygon fill = 'rgb( 31, 120, 180)' fill-opacity = '0.250000' points = '365.8,218.5 365.8,242.4 366.5,242.4 366.5,219.1 '/>
		<polygon fill = 'rgb( 31, 120, 180)' fill-opacity = '0.250000' points = '366.5,219.1 366.5,242.4 367.1,242.4 367.1,219.7 '/>
		<polygon fill = 'rgb( 31, 120, 180)' fill-opacity = '0.250000' points = '367.1,219.7 367.1,242.4 367.8,242.4 367.8,220.4 '/>
		<polygon fill = 'rgb( 31, 120, 180)' fill-opacity = '0.250000' points = '367.8,220.4 367.8,242.4 368.4,242.4 368.4,221.0 '/>
		<polygon fill = 'rgb( 31, 120, 180)' fill-opacity = '0.250000' points = '368.4,221.0 368.4,242.4 369.1,242.4 369.1,221.6 '/>
		<polygon fill = 'rgb( 31, 120, 180)' fill-opacity = '0.250000' points = '369.1,221.6 369.1,242.4 369.8,242.4 369.8,222.2 '/>
		<polygon fill = 'rgb( 31, 120, 180)' fill-opacity = '0.250000' points = '369.8,222.2 369.8,242.4 370.4,242.4 370.4,222.8 '/>
		<polygon fill = 'rgb( 31, 120, 180)' fill-opacity = '0.250000' points = '370.4,222.8 370.4,242.4 371.1,242.4 371.1,223.4 '/>
		<polygon fill = 'rgb( 31, 120, 180)' fill-opacity = '0.250000' points = '371.1,223.4 371.1,242.4 371.7,242.4 371.7,224.0 '/>
		<polygon fill = 'rgb( 31, 120, 180)' fill-opacity = '0.250000' points = '371.7,224.0 371.7,242.4 372.4,242.4 372.4,224.5 '/>
		<polygon fill = 'rgb( 31, 120, 180)' fill-opacity = '0.250000' points = '372.4,224.5 372.4,242.4 373.0,242.4 373.0,225.1 '/>
		<polygon fill = 'rgb( 31, 120, 180)' fill-opacity = '0.250000' points = '373.0,225.1 373.0,242.4 373.7,242.4 373.7,225.6 '/>
		<polygon fill = 'rgb( 31, 120, 180)' fill-opacity = '0.250000' points = '373.7,225.6 373.7,242.4 374.4,242.4 374.4,226.2 '/>
		<polygon fill = 'rgb( 31, 120, 180)' fill-opacity = '0.250000' points = '374.4,226.2 374.4,242.4 375.0,242.4 375.0,226.7 '/>
		<polygon fill = 'rgb( 31, 120, 180)' fill-opacity = '0.250000' points = '375.0,226.7 375.0,242.4 375.7,242.4 375.7,227.2 '/>
		<polygon fill = 'rgb( 31, 120, 180)' fill-opacity = '0.250000' points = '375.7,227.2 375.7,242.4 376.3,242.4 376.3,227.7 '/>
		<polygon fill = 'rgb( 31, 120, 180)' fill-opacity = '0.250000' points = '376.3,227.7 376.3,242.4 377.0,242.4 377.0,228.2 '/>
		<polygon fill = 'rgb( 31, 120, 180)' fill-opacity = '0.250000' points = '377.0,228.2 377.0,242.4 377.6,242.4 377.6,228.7 '/>
		<polygon fill = 'rgb( 31, 120, 180)' fill-opacity = '0.250000' points = '377.6,228.7 377.6,242.4 378.3,242.4 378.3,229.2 '/>
		<polygon fill = 'rgb( 31, 120, 180)' fill-opacity = '0.250000' points = '378.3,229.2 378.3,242.4 379.0,242.4 379.0,229.7 '/>
		<polygon fill = 'rgb( 31, 120, 180)' fill-opacity = '0.250000' points = '379.0,229.7 379.0,242.4 379.6,242.4 379.6,230.1 '/>
		<polygon fill = 'rgb( 31, 120, 180)' fill-opacity = '0.250000' points = '379.6,230.1 379.6,242.4 380.3,242.4 380.3,230.6 '/>
		<polygon fill = 'rgb( 31, 120, 180)' fill-opacity = '0.250000' points = '380.3,230.6 380.3,242.4 380.9,242.4 380.9,231.0 '/>
		<polygon fill = 'rgb( 31, 120, 180)' fill-opacity = '0.250000' points = '380.9,231.0 380.9,242.4 381.6,242.4 381.6,231.4 '/>
		<polygon fill = 'rgb( 31, 120, 180)' fill-opacity = '0.250000' points = '381.6,231.4 381.6,242.4 382.2,242.4 382.2,231.8 '/>
		<polygon fill = 'rgb( 31, 120, 180)' fill-opacity = '0.250000' points = '382.2,231.8 382.2,242.4 382.9,242.4 382.9,232.2 '/>
		<polygon fill = 'rgb( 31, 120, 180)' fill-opacity = '0.250000' points = '382.9,232.2 382.9,242.4 383.6,242.4 383.6,232.6 '/>
		<polygon fill = 'rgb( 31, 120, 180)' fill-opacity = '0.250000' points = '383.6,232.6 383.6,242.4 384.2,242.4 384.2,233.0 '/>
		<polygon fill = 'rgb( 31, 120, 180)' fill-opacity = '0.250000' points = '384.2,233.0 384.2,242.4 384.9,242.4 384.9,233.4 '/>
		<polygon fill = 'rgb( 31, 120, 180)' fill-opacity = '0.250000' points = '384.9,233.4 384.9,242.4 385.5,242.4 385.5,233.7 '/>
		<polygon fill = 'rgb( 31, 120, 180)' fill-opacity = '0.250000' points = '385.5,233.7 385.5,242.4 386.2,242.4 386.2,234.1 '/>
		<polygon fill = 'rgb( 31, 120, 180)' fill-opacity = '0.250000' points = '386.2,234.1 386.2,242.4 386.9,242.4 386.9,234.4 '/>
		<polygon fill = 'rgb( 31, 120, 180)' fill-opacity = '0.250000' points = '386.9,234.4 386.9,242.4 387.5,242.4 387.5,234.8 '/>
		<polygon fill = 'rgb( 31, 120, 180)' fill-opacity = '0.250000' points = '387.5,234.8 387.5,242.4 388.2,242.4 388.2,235.1 '/>
		<polygon fill = 'rgb( 31, 120, 180)' fill-opacity = '0.250000' points = '388.2,235.1 388.2,242.4 388.8,242.4 388.8,235.4 '/>
		<polygon fill = 'rgb( 31, 120, 180)' fill-opacity = '0.250000' points = '388.8,235.4 388.8,242.4 389.5,242.4 389.5,235.7 '/>
		<polygon fill = 'rgb( 31, 120, 180)' fill-opacity = '0.250000' points = '389.5,235.7 389.5,242.4 390.1,242.4 390.1,236.0 '/>
		<polygon fill = 'rgb( 31, 120, 180)' fill-opacity = '0.250000' points = '390.1,236.0 390.1,242.4 390.8,242.4 390.8,236.3 '/>
		<polygon fill = 'rgb( 31, 120, 180)' fill-opacity = '0.250000' points = '390.8,236.3 390.8,242.4 391.5,242.4 391.5,236.5 '/>
		<polygon fill = 'rgb( 31, 120, 180)' fill-opacity = '0.250000' points = '391.5,236.5 391.5,242.4 392.1,242.4 392.1,236.8 '/>
		<polygon fill = 'rgb( 31, 120, 180)' fill-opacity = '0.250000' points = '392.1,236.8 392.1,242.4 392.8,242.4 392.8,237.0 '/>
		<polygon fill = 'rgb( 31, 120, 180)' fill-opacity = '0.250000' points = '392.8,237.0 392.8,242.4 393.4,242.4 393.4,237.3 '/>
		<polygon fill = 'rgb( 31, 120, 180)' fill-opacity = '0.250000' points = '393.4,237.3 393.4,242.4 394.1,242.4 394.1,237.5 '/>
		<polygon fill = 'rgb( 31, 120, 180)' fill-opacity = '0.250000' points = '394.1,237.5 394.1,242.4 394.7,242.4 394.7,237.8 '/>
		<polygon fill = 'rgb( 31, 120, 180)' fill-opacity = '0.250000' points = '394.7,237.8 394.7,242.4 395.4,242.4 395.4,238.0 '/>
		<polygon fill = 'rgb( 31, 120, 180)' fill-opacity = '0.250000' points = '395.4,238.0 395.4,242.4 396.1,242.4 396.1,238.2 '/>
		<polygon fill = 'rgb( 31, 120, 180)' fill-opacity = '0.250000' points = '396.1,238.2 396.1,242.4 396.7,242.4 396.7,238.4 '/>
		<polygon fill = 'rgb( 31, 120, 180)' fill-opacity = '0.250000' points = '396.7,238.4 396.7,242.4 397.4,242.4 397.4,238.6 '/>
		<polygon fill = 'rgb( 31, 120, 180)' fill-opacity = '0.250000' points = '397.4,238.6 397.4,242.4 398.0,242.4 398.0,238.8 '/>
		<polygon fill = 'rgb( 31, 120, 180)' fill-opacity = '0.250000' points = '398.0,238.8 398.0,242.4 398.7,242.4 398.7,238.9 '/>
		<polygon fill = 'rgb( 31, 120, 180)' fill-opacity = '0.250000' points = '398.7,238.9 398.7,242.4 399.3,242.4 399.3,239.1 '/>
		<polygon fill = 'rgb( 31, 120, 180)' fill-opacity = '0.250000' points = '399.3,239.1 399.3,242.4 400.0,242.4 400.0,239.3 '/>
		<polygon fill = 'rgb( 31, 120, 180)' fill-opacity = '0.250000' points = '400.0,239.3 400.0,242.4 400.7,242.4 400.7,239.4 '/>
		<polygon fill = 'rgb( 31, 120, 180)' fill-opacity = '0.250000' points = '400.7,239.4 400.7,242.4 401.3,242.4 401.3,239.6 '/>
		<polygon fill = 'rgb( 31, 120, 180)' fill-opacity = '0.250000' points = '401.3,239.6 401.3,242.4 402.0,242.4 402.0,239.7 '/>
		<polygon fill = 'rgb( 31, 120, 180)' fill-opacity = '0.250000' points = '402.0,239.7 402.0,242.4 402.6,242.4 402.6,239.9 '/>
		<polygon fill = 'rgb( 31, 120, 180)' fill-opacity = '0.250000' points = '402.6,239.9 402.6,242.4 403.3,242.4 403.3,240.0 '/>
		<polygon fill = 'rgb( 31, 120, 180)' fill-opacity = '0.250000' points = '403.3,240.0 403.3,242.4 404.0,242.4 404.0,240.1 '/>
		<polygon fill = 'rgb( 31, 120, 180)' fill-opacity = '0.250000' points = '404.0,240.1 404.0,242.4 404.6,242.4 404.6,240.3 '/>
		<polygon fill = 'rgb( 31, 120, 180)' fill-opacity = '0.250000' points = '404.6,240.3 404.6,242.4 405.3,242.4 405.3,240.4 '/>
		<polygon fill = 'rgb( 31, 120, 180)' fill-opacity = '0.250000' points = '405.3,240.4 405.3,242.4 405.9,242.4 405.9,240.5 '/>
		<polygon fill = 'rgb( 31, 120, 180)' fill-opacity = '0.250000' points = '405.9,240.5 405.9,242.4 406.6,242.4 406.6,240.6 '/>
		<polygon fill = 'rgb( 31, 120, 180)' fill-opacity = '0.250000' points = '406.6,240.6 406.6,242.4 407.2,242.4 407.2,240.7 '/>
		<polygon fill = 'rgb( 31, 120, 180)' fill-opacity = '0.250000' points = '407.2,240.7 407.2,242.4 407.9,242.4 407.9,240.8 '/>
		<polygon fill = 'rgb( 31, 120, 180)' fill-opacity = '0.250000' points = '407.9,240.8 407.9,242.4 408.6,242.4 408.6,240.9 '/>
		<polygon fill = 'rgb( 31, 120, 180)' fill-opacity = '0.250000' points = '408.6,240.9 408.6,242.4 409.2,242.4 409.2,241.0 '/>
		<polygon fill = 'rgb( 31, 120, 180)' fill-opacity = '0.250000' points = '409.2,241.0 409.2,242.4 409.9,242.4 409.9,241.1 '/>
		<polygon fill = 'rgb( 31, 120, 180)' fill-opacity = '0.250000' points = '409.9,241.1 409.9,242.4 410.5,242.4 410.5,241.1 '/>
		<polygon fill = 'rgb( 31, 120, 180)' fill-opacity = '0.250000' points = '410.5,241.1 410.5,242.4 411.2,242.4 411.2,241.2 '/>
		<polygon fill = 'rgb( 31, 120, 180)' fill-opacity = '0.250000' points = '411.2,241.2 411.2,242.4 411.8,242.4 411.8,241.3 '/>
		<polygon fill = 'rgb( 31, 120, 180)' fill-opacity = '0.250000' points = '411.8,241.3 411.8,242.4 412.5,242.4 412.5,241.3 '/>
		<polygon fill = 'rgb( 31, 120, 180)' fill-opacity = '0.250000' points = '412.5,241.3 412.5,242.4 413.2,242.4 413.2,241.4 '/>
		<polygon fill = 'rgb( 31, 120, 180)' fill-opacity = '0.250000' points = '413.2,241.4 413.2,242.4 413.8,242.4 413.8,241.5 '/>
		<polygon fill = 'rgb( 31, 120, 180)' fill-opacity = '0.250000' points = '413.8,241.5 413.8,242.4 414.5,242.4 414.5,241.5 '/>
		<polygon fill = 'rgb( 31, 120, 180)' fill-opacity = '0.250000' points = '414.5,241.5 414.5,242.4 415.1,242.4 415.1,241.6 '/>
		<polygon fill = 'rgb( 31, 120, 180)' fill-opacity = '0.250000' points = '415.1,241.6 415.1,242.4 415.8,242.4 415.8,241.6 '/>
		<polygon fill = 'rgb( 31, 120, 180)' fill-opacity = '0.250000' points = '415.8,241.6 415.8,242.4 416.4,242.4 416.4,241.7 '/>
		<polygon fill = 'rgb( 31, 120, 180)' fill-opacity = '0.250000' points = '416.4,241.7 416.4,242.4 417.1,242.4 417.1,241.7 '/>
		<polygon fill = 'rgb( 31, 120, 180)' fill-opacity = '0.250000' points = '417.1,241.7 417.1,242.4 417.8,242.4 417.8,241.8 '/>
		<polygon fill = 'rgb( 31, 120, 180)' fill-opacity = '0.250000' points = '417.8,241.8 417.8,242.4 418.4,242.4 418.4,241.8 '/>
		<polygon fill = 'rgb( 31, 120, 180)' fill-opacity = '0.250000' points = '418.4,241.8 418.4,242.4 419.1,242.4 419.1,241.8 '/>
		<polygon fill = 'rgb( 31, 120, 180)' fill-opacity = '0.250000' points = '419.1,241.8 419.1,242.4 419.7,242.4 419.7,241.9 '/>
		<polygon fill = 'rgb( 31, 120, 180)' fill-opacity = '0.250000' points = '419.7,241.9 419.7,242.4 420.4,242.4 420.4,241.9 '/>
		<polygon fill = 'rgb( 31, 120, 180)' fill-opacity = '0.250000' points = '420.4,241.9 420.4,242.4 421.1,242.4 421.1,241.9 '/>
		<polygon fill = 'rgb( 31, 120, 180)' fill-opacity = '0.250000' points = '421.1,241.9 421.1,242.4 421.7,242.4 421.7,242.0 '/>
		<polygon fill = 'rgb( 31, 120, 180)' fill-opacity = '0.250000' points = '421.7,242.0 421.7,242.4 422.4,242.4 422.4,242.0 '/>
		<polygon fill = 'rgb( 31, 120, 180)' fill-opacity = '0.250000' points = '422.4,242.0 422.4,242.4 423.0,242.4 423.0,242.0 '/>
		<polygon fill = 'rgb( 31, 120, 180)' fill-opacity = '0.250000' points = '423.0,242.0 423.0,242.4 423.7,242.4 423.7,242.1 '/>
		<polygon fill = 'rgb( 31, 120, 180)' fill-opacity = '0.250000' points = '423.7,242.1 423.7,242.4 424.3,242.4 424.3,242.1 '/>
		<polygon fill = 'rgb( 31, 120, 180)' fill-opacity = '0.250000' points = '424.3,242.1 424.3,242.4 425.0,242.4 425.0,242.1 '/>
	</g>
</g>
	</g>
	<g id="gnuplot_plot_2" ><title>Mean</title>
<g fill="none" color="white" stroke="rgb( 31, 120, 180)" stroke-width="2.00" stroke-linecap="butt" stroke-linejoin="miter">
</g>
<g fill="none" color="black" stroke="currentColor" stroke-width="2.00" stroke-linecap="butt" stroke-linejoin="miter">
	<path stroke='rgb( 31, 120, 180)'  d='M233.2,242.4 L233.2,68.6  '/></g>
	</g>
<g fill="none" color="black" stroke="currentColor" stroke-width="2.00" stroke-linecap="butt" stroke-linejoin="miter">
</g>
<g fill="none" color="black" stroke="black" stroke-width="1.00" stroke-linecap="butt" stroke-linejoin="miter">
</g>
<g fill="none" color="black" stroke="currentColor" stroke-width="1.00" stroke-linecap="butt" stroke-linejoin="miter">
	<path stroke='black'  d='M96.8,16.7 L96.8,242.4 L425.0,242.4 L425.0,16.7 L96.8,16.7 Z  '/></g>
<g fill="none" color="black" stroke="currentColor" stroke-width="1.00" stroke-linecap="butt" stroke-linejoin="miter">
</g>
</g>
</svg>

