<?xml version="1.0" encoding="utf-8"  standalone="no"?>
<svg 
 viewBox="0 0 1280 720"
 xmlns="http://www.w3.org/2000/svg"
 xmlns:xlink="http://www.w3.org/1999/xlink"
>

<title>Gnuplot</title>
<desc>Produced by GNUPLOT 5.0 patchlevel 6 </desc>

<g id="gnuplot_canvas">

<rect x="0" y="0" width="1280" height="720" fill="none"/>
<defs>

	<circle id='gpDot' r='0.5' stroke-width='0.5'/>
	<path id='gpPt0' stroke-width='0.222' stroke='currentColor' d='M-1,0 h2 M0,-1 v2'/>
	<path id='gpPt1' stroke-width='0.222' stroke='currentColor' d='M-1,-1 L1,1 M1,-1 L-1,1'/>
	<path id='gpPt2' stroke-width='0.222' stroke='currentColor' d='M-1,0 L1,0 M0,-1 L0,1 M-1,-1 L1,1 M-1,1 L1,-1'/>
	<rect id='gpPt3' stroke-width='0.222' stroke='currentColor' x='-1' y='-1' width='2' height='2'/>
	<rect id='gpPt4' stroke-width='0.222' stroke='currentColor' fill='currentColor' x='-1' y='-1' width='2' height='2'/>
	<circle id='gpPt5' stroke-width='0.222' stroke='currentColor' cx='0' cy='0' r='1'/>
	<use xlink:href='#gpPt5' id='gpPt6' fill='currentColor' stroke='none'/>
	<path id='gpPt7' stroke-width='0.222' stroke='currentColor' d='M0,-1.33 L-1.33,0.67 L1.33,0.67 z'/>
	<use xlink:href='#gpPt7' id='gpPt8' fill='currentColor' stroke='none'/>
	<use xlink:href='#gpPt7' id='gpPt9' stroke='currentColor' transform='rotate(180)'/>
	<use xlink:href='#gpPt9' id='gpPt10' fill='currentColor' stroke='none'/>
	<use xlink:href='#gpPt3' id='gpPt11' stroke='currentColor' transform='rotate(45)'/>
	<use xlink:href='#gpPt11' id='gpPt12' fill='currentColor' stroke='none'/>
	<path id='gpPt13' stroke-width='0.222' stroke='currentColor' d='M0,1.330 L1.265,0.411 L0.782,-1.067 L-0.782,-1.076 L-1.265,0.411 z'/>
	<use xlink:href='#gpPt13' id='gpPt14' fill='currentColor' stroke='none'/>
	<filter id='textbox' filterUnits='objectBoundingBox' x='0' y='0' height='1' width='1'>
	  <feFlood flood-color='white' flood-opacity='1' result='bgnd'/>
	  <feComposite in='SourceGraphic' in2='bgnd' operator='atop'/>
	</filter>
	<filter id='greybox' filterUnits='objectBoundingBox' x='0' y='0' height='1' width='1'>
	  <feFlood flood-color='lightgrey' flood-opacity='1' result='grey'/>
	  <feComposite in='SourceGraphic' in2='grey' operator='atop'/>
	</filter>
</defs>
<g fill="none" color="white" stroke="currentColor" stroke-width="1.00" stroke-linecap="butt" stroke-linejoin="miter">
</g>
<g fill="none" color="black" stroke="currentColor" stroke-width="1.00" stroke-linecap="butt" stroke-linejoin="miter">
	<path stroke='black'  d='M63.6,662.4 L72.6,662.4  '/>	<g transform="translate(55.3,666.3)" stroke="none" fill="black" font-family="Helvetica" font-size="12.00"  text-anchor="end">
		<text><tspan font-family="Helvetica" > 0</tspan></text>
	</g>
</g>
<g fill="none" color="black" stroke="currentColor" stroke-width="1.00" stroke-linecap="butt" stroke-linejoin="miter">
	<path stroke='black'  d='M63.6,561.0 L72.6,561.0  '/>	<g transform="translate(55.3,564.9)" stroke="none" fill="black" font-family="Helvetica" font-size="12.00"  text-anchor="end">
		<text><tspan font-family="Helvetica" > 2</tspan></text>
	</g>
</g>
<g fill="none" color="black" stroke="currentColor" stroke-width="1.00" stroke-linecap="butt" stroke-linejoin="miter">
	<path stroke='black'  d='M63.6,459.6 L72.6,459.6  '/>	<g transform="translate(55.3,463.5)" stroke="none" fill="black" font-family="Helvetica" font-size="12.00"  text-anchor="end">
		<text><tspan font-family="Helvetica" > 4</tspan></text>
	</g>
</g>
<g fill="none" color="black" stroke="currentColor" stroke-width="1.00" stroke-linecap="butt" stroke-linejoin="miter">
	<path stroke='black'  d='M63.6,358.2 L72.6,358.2  '/>	<g transform="translate(55.3,362.1)" stroke="none" fill="black" font-family="Helvetica" font-size="12.00"  text-anchor="end">
		<text><tspan font-family="Helvetica" > 6</tspan></text>
	</g>
</g>
<g fill="none" color="black" stroke="currentColor" stroke-width="1.00" stroke-linecap="butt" stroke-linejoin="miter">
	<path stroke='black'  d='M63.6,256.9 L72.6,256.9  '/>	<g transform="translate(55.3,260.8)" stroke="none" fill="black" font-family="Helvetica" font-size="12.00"  text-anchor="end">
		<text><tspan font-family="Helvetica" > 8</tspan></text>
	</g>
</g>
<g fill="none" color="black" stroke="currentColor" stroke-width="1.00" stroke-linecap="butt" stroke-linejoin="miter">
	<path stroke='black'  d='M63.6,155.5 L72.6,155.5  '/>	<g transform="translate(55.3,159.4)" stroke="none" fill="black" font-family="Helvetica" font-size="12.00"  text-anchor="end">
		<text><tspan font-family="Helvetica" > 10</tspan></text>
	</g>
</g>
<g fill="none" color="black" stroke="currentColor" stroke-width="1.00" stroke-linecap="butt" stroke-linejoin="miter">
	<path stroke='black'  d='M63.6,54.1 L72.6,54.1  '/>	<g transform="translate(55.3,58.0)" stroke="none" fill="black" font-family="Helvetica" font-size="12.00"  text-anchor="end">
		<text><tspan font-family="Helvetica" > 12</tspan></text>
	</g>
</g>
<g fill="none" color="black" stroke="currentColor" stroke-width="1.00" stroke-linecap="butt" stroke-linejoin="miter">
	<path stroke='black'  d='M111.6,662.4 L111.6,653.4  '/>	<g transform="translate(111.6,684.3)" stroke="none" fill="black" font-family="Helvetica" font-size="12.00"  text-anchor="middle">
		<text><tspan font-family="Helvetica" > 12.4</tspan></text>
	</g>
</g>
<g fill="none" color="black" stroke="currentColor" stroke-width="1.00" stroke-linecap="butt" stroke-linejoin="miter">
	<path stroke='black'  d='M312.2,662.4 L312.2,653.4  '/>	<g transform="translate(312.2,684.3)" stroke="none" fill="black" font-family="Helvetica" font-size="12.00"  text-anchor="middle">
		<text><tspan font-family="Helvetica" > 12.45</tspan></text>
	</g>
</g>
<g fill="none" color="black" stroke="currentColor" stroke-width="1.00" stroke-linecap="butt" stroke-linejoin="miter">
	<path stroke='black'  d='M512.8,662.4 L512.8,653.4  '/>	<g transform="translate(512.8,684.3)" stroke="none" fill="black" font-family="Helvetica" font-size="12.00"  text-anchor="middle">
		<text><tspan font-family="Helvetica" > 12.5</tspan></text>
	</g>
</g>
<g fill="none" color="black" stroke="currentColor" stroke-width="1.00" stroke-linecap="butt" stroke-linejoin="miter">
	<path stroke='black'  d='M713.3,662.4 L713.3,653.4  '/>	<g transform="translate(713.3,684.3)" stroke="none" fill="black" font-family="Helvetica" font-size="12.00"  text-anchor="middle">
		<text><tspan font-family="Helvetica" > 12.55</tspan></text>
	</g>
</g>
<g fill="none" color="black" stroke="currentColor" stroke-width="1.00" stroke-linecap="butt" stroke-linejoin="miter">
	<path stroke='black'  d='M913.9,662.4 L913.9,653.4  '/>	<g transform="translate(913.9,684.3)" stroke="none" fill="black" font-family="Helvetica" font-size="12.00"  text-anchor="middle">
		<text><tspan font-family="Helvetica" > 12.6</tspan></text>
	</g>
</g>
<g fill="none" color="black" stroke="currentColor" stroke-width="1.00" stroke-linecap="butt" stroke-linejoin="miter">
</g>
<g fill="none" color="black" stroke="currentColor" stroke-width="1.00" stroke-linecap="butt" stroke-linejoin="miter">
	<path stroke='black'  d='M63.6,54.1 L63.6,662.4 L1013.6,662.4 L1013.6,54.1 L63.6,54.1 Z  '/></g>
<g fill="none" color="black" stroke="currentColor" stroke-width="1.00" stroke-linecap="butt" stroke-linejoin="miter">
	<g transform="translate(17.0,358.3) rotate(270)" stroke="none" fill="black" font-family="Helvetica" font-size="12.00"  text-anchor="middle">
		<text><tspan font-family="Helvetica" >Density (a.u.)</tspan></text>
	</g>
</g>
<g fill="none" color="black" stroke="currentColor" stroke-width="1.00" stroke-linecap="butt" stroke-linejoin="miter">
	<g transform="translate(538.6,711.3)" stroke="none" fill="black" font-family="Helvetica" font-size="12.00"  text-anchor="middle">
		<text><tspan font-family="Helvetica" >Average time (us)</tspan></text>
	</g>
</g>
<g fill="none" color="black" stroke="currentColor" stroke-width="1.00" stroke-linecap="butt" stroke-linejoin="miter">
	<g transform="translate(538.6,31.0)" stroke="none" fill="black" font-family="Helvetica" font-size="12.00"  text-anchor="middle">
		<text><tspan font-family="Helvetica" >language: json/parse error: python/examples/multiple-newlines.py: slope</tspan></text>
	</g>
</g>
	<g id="gnuplot_plot_1" ><title>Bootstrap distribution</title>
<g fill="none" color="white" stroke="black" stroke-width="2.00" stroke-linecap="butt" stroke-linejoin="miter">
</g>
<g fill="none" color="black" stroke="currentColor" stroke-width="2.00" stroke-linecap="butt" stroke-linejoin="miter">
	<g transform="translate(1089.0,67.0)" stroke="none" fill="black" font-family="Helvetica" font-size="12.00"  text-anchor="start">
		<text><tspan font-family="Helvetica" >Bootstrap distribution</tspan></text>
	</g>
</g>
<g fill="none" color="black" stroke="currentColor" stroke-width="2.00" stroke-linecap="butt" stroke-linejoin="miter">
	<path stroke='rgb( 31, 120, 180)'  d='M1038.5,63.1 L1080.7,63.1 M63.6,651.6 L65.5,650.6 L67.4,649.6 L69.3,648.6 L71.2,647.4 L73.1,646.2
		L75.0,644.9 L76.9,643.5 L78.8,642.1 L80.7,640.5 L82.6,638.9 L84.5,637.1 L86.4,635.2 L88.3,633.3
		L90.3,631.2 L92.2,629.0 L94.1,626.7 L96.0,624.3 L97.9,621.7 L99.8,619.0 L101.7,616.2 L103.6,613.3
		L105.5,610.3 L107.4,607.1 L109.3,603.8 L111.2,600.3 L113.1,596.8 L115.0,593.1 L116.9,589.2 L118.8,585.3
		L120.7,581.3 L122.6,577.1 L124.5,572.8 L126.4,568.4 L128.3,563.9 L130.2,559.2 L132.1,554.5 L134.0,549.7
		L135.9,544.7 L137.8,539.6 L139.8,534.5 L141.7,529.2 L143.6,523.8 L145.5,518.3 L147.4,512.6 L149.3,506.9
		L151.2,501.0 L153.1,495.0 L155.0,488.9 L156.9,482.6 L158.8,476.2 L160.7,469.7 L162.6,463.1 L164.5,456.4
		L166.4,449.6 L168.3,442.6 L170.2,435.6 L172.1,428.4 L174.0,421.2 L175.9,413.9 L177.8,406.6 L179.7,399.2
		L181.6,391.8 L183.5,384.4 L185.4,377.0 L187.3,369.7 L189.3,362.4 L191.2,355.1 L193.1,347.9 L195.0,340.8
		L196.9,333.8 L198.8,327.0 L200.7,320.3 L202.6,313.7 L204.5,307.3 L206.4,301.1 L208.3,295.0 L210.2,289.2
		L212.1,283.5 L214.0,278.1 L215.9,272.9 L217.8,267.9 L219.7,263.1 L221.6,258.6 L223.5,254.4 L225.4,250.4
		L227.3,246.7 L229.2,243.3 L231.1,240.2 L233.0,237.4 L234.9,234.8 L236.8,232.6 L238.8,230.8 L240.7,229.2
		L242.6,228.0 L244.5,227.2 L246.4,226.6 L248.3,226.4 L250.2,226.6 L252.1,227.1 L254.0,228.0 L255.9,229.2
		L257.8,230.7 L259.7,232.5 L261.6,234.7 L263.5,237.2 L265.4,240.0 L267.3,243.1 L269.2,246.4 L271.1,250.1
		L273.0,254.0 L274.9,258.2 L276.8,262.7 L278.7,267.4 L280.6,272.3 L282.5,277.4 L284.4,282.8 L286.3,288.4
		L288.2,294.1 L290.2,300.1 L292.1,306.2 L294.0,312.5 L295.9,318.9 L297.8,325.4 L299.7,332.0 L301.6,338.7
		L303.5,345.5 L305.4,352.4 L307.3,359.3 L309.2,366.2 L311.1,373.1 L313.0,380.0 L314.9,386.9 L316.8,393.7
		L318.7,400.4 L320.6,407.0 L322.5,413.5 L324.4,419.9 L326.3,426.1 L328.2,432.1 L330.1,437.9 L332.0,443.5
		L333.9,448.9 L335.8,454.0 L337.7,458.9 L339.7,463.5 L341.6,467.8 L343.5,471.7 L345.4,475.3 L347.3,478.6
		L349.2,481.5 L351.1,484.1 L353.0,486.2 L354.9,488.0 L356.8,489.4 L358.7,490.3 L360.6,490.9 L362.5,491.0
		L364.4,490.6 L366.3,489.9 L368.2,488.7 L370.1,487.1 L372.0,485.0 L373.9,482.5 L375.8,479.5 L377.7,476.1
		L379.6,472.3 L381.5,468.1 L383.4,463.5 L385.3,458.4 L387.2,453.0 L389.2,447.2 L391.1,441.1 L393.0,434.5
		L394.9,427.7 L396.8,420.6 L398.7,413.1 L400.6,405.4 L402.5,397.4 L404.4,389.2 L406.3,380.8 L408.2,372.2
		L410.1,363.5 L412.0,354.6 L413.9,345.6 L415.8,336.5 L417.7,327.4 L419.6,318.3 L421.5,309.1 L423.4,299.9
		L425.3,290.8 L427.2,281.8 L429.1,272.9 L431.0,264.0 L432.9,255.3 L434.8,246.8 L436.7,238.5 L438.7,230.4
		L440.6,222.5 L442.5,214.8 L444.4,207.5 L446.3,200.4 L448.2,193.7 L450.1,187.3 L452.0,181.3 L453.9,175.7
		L455.8,170.5 L457.7,165.7 L459.6,161.3 L461.5,157.5 L463.4,154.1 L465.3,151.2 L467.2,148.8 L469.1,146.9
		L471.0,145.5 L472.9,144.7 L474.8,144.4 L476.7,144.6 L478.6,145.3 L480.5,146.6 L482.4,148.4 L484.3,150.7
		L486.2,153.5 L488.1,156.8 L490.1,160.6 L492.0,164.8 L493.9,169.5 L495.8,174.6 L497.7,180.0 L499.6,185.9
		L501.5,192.1 L503.4,198.6 L505.3,205.4 L507.2,212.4 L509.1,219.7 L511.0,227.2 L512.9,234.9 L514.8,242.7
		L516.7,250.7 L518.6,258.8 L520.5,266.9 L522.4,275.1 L524.3,283.3 L526.2,291.4 L528.1,299.6 L530.0,307.7
		L531.9,315.7 L533.8,323.6 L535.7,331.4 L537.6,339.0 L539.6,346.5 L541.5,353.8 L543.4,360.9 L545.3,367.8
		L547.2,374.5 L549.1,381.0 L551.0,387.2 L552.9,393.2 L554.8,399.0 L556.7,404.5 L558.6,409.7 L560.5,414.6
		L562.4,419.3 L564.3,423.7 L566.2,427.9 L568.1,431.8 L570.0,435.4 L571.9,438.7 L573.8,441.8 L575.7,444.6
		L577.6,447.1 L579.5,449.4 L581.4,451.5 L583.3,453.3 L585.2,454.9 L587.1,456.2 L589.1,457.3 L591.0,458.2
		L592.9,458.9 L594.8,459.4 L596.7,459.7 L598.6,459.8 L600.5,459.8 L602.4,459.6 L604.3,459.2 L606.2,458.7
		L608.1,458.1 L610.0,457.4 L611.9,456.6 L613.8,455.7 L615.7,454.7 L617.6,453.7 L619.5,452.6 L621.4,451.5
		L623.3,450.3 L625.2,449.2 L627.1,448.0 L629.0,446.9 L630.9,445.8 L632.8,444.7 L634.7,443.6 L636.6,442.7
		L638.5,441.7 L640.5,440.9 L642.4,440.1 L644.3,439.3 L646.2,438.7 L648.1,438.2 L650.0,437.7 L651.9,437.4
		L653.8,437.1 L655.7,437.0 L657.6,437.0 L659.5,437.0 L661.4,437.2 L663.3,437.5 L665.2,438.0 L667.1,438.5
		L669.0,439.2 L670.9,439.9 L672.8,440.8 L674.7,441.8 L676.6,442.9 L678.5,444.1 L680.4,445.4 L682.3,446.8
		L684.2,448.3 L686.1,449.8 L688.0,451.5 L690.0,453.2 L691.9,455.0 L693.8,456.9 L695.7,458.8 L697.6,460.8
		L699.5,462.8 L701.4,464.9 L703.3,467.1 L705.2,469.3 L707.1,471.5 L709.0,473.8 L710.9,476.1 L712.8,478.5
		L714.7,480.9 L716.6,483.3 L718.5,485.7 L720.4,488.2 L722.3,490.7 L724.2,493.2 L726.1,495.7 L728.0,498.2
		L729.9,500.8 L731.8,503.3 L733.7,505.7 L735.6,508.2 L737.5,510.7 L739.5,513.1 L741.4,515.4 L743.3,517.8
		L745.2,520.0 L747.1,522.3 L749.0,524.4 L750.9,526.5 L752.8,528.6 L754.7,530.6 L756.6,532.5 L758.5,534.4
		L760.4,536.2 L762.3,537.9 L764.2,539.6 L766.1,541.2 L768.0,542.8 L769.9,544.3 L771.8,545.8 L773.7,547.2
		L775.6,548.6 L777.5,549.9 L779.4,551.2 L781.3,552.4 L783.2,553.7 L785.1,554.9 L787.0,556.0 L789.0,557.2
		L790.9,558.3 L792.8,559.4 L794.7,560.5 L796.6,561.5 L798.5,562.6 L800.4,563.6 L802.3,564.6 L804.2,565.6
		L806.1,566.6 L808.0,567.6 L809.9,568.5 L811.8,569.5 L813.7,570.4 L815.6,571.4 L817.5,572.3 L819.4,573.2
		L821.3,574.0 L823.2,574.9 L825.1,575.8 L827.0,576.7 L828.9,577.5 L830.8,578.4 L832.7,579.3 L834.6,580.1
		L836.5,581.0 L838.4,581.9 L840.4,582.7 L842.3,583.6 L844.2,584.5 L846.1,585.4 L848.0,586.4 L849.9,587.3
		L851.8,588.2 L853.7,589.2 L855.6,590.2 L857.5,591.2 L859.4,592.2 L861.3,593.2 L863.2,594.2 L865.1,595.2
		L867.0,596.2 L868.9,597.2 L870.8,598.2 L872.7,599.2 L874.6,600.2 L876.5,601.2 L878.4,602.1 L880.3,603.1
		L882.2,604.0 L884.1,604.9 L886.0,605.8 L887.9,606.6 L889.9,607.5 L891.8,608.3 L893.7,609.1 L895.6,609.8
		L897.5,610.6 L899.4,611.3 L901.3,611.9 L903.2,612.6 L905.1,613.2 L907.0,613.8 L908.9,614.4 L910.8,615.0
		L912.7,615.5 L914.6,616.1 L916.5,616.6 L918.4,617.1 L920.3,617.6 L922.2,618.1 L924.1,618.5 L926.0,619.0
		L927.9,619.5 L929.8,619.9 L931.7,620.4 L933.6,620.9 L935.5,621.4 L937.4,621.8 L939.4,622.3 L941.3,622.8
		L943.2,623.3 L945.1,623.8 L947.0,624.3 L948.9,624.8 L950.8,625.3 L952.7,625.8 L954.6,626.4 L956.5,626.9
		L958.4,627.4 L960.3,627.9 L962.2,628.5 L964.1,629.0 L966.0,629.5 L967.9,630.0 L969.8,630.6 L971.7,631.1
		L973.6,631.6 L975.5,632.1 L977.4,632.6 L979.3,633.1 L981.2,633.6 L983.1,634.0 L985.0,634.5 L986.9,634.9
		L988.9,635.4 L990.8,635.8 L992.7,636.2 L994.6,636.6 L996.5,637.0 L998.4,637.3 L1000.3,637.7 L1002.2,638.1
		L1004.1,638.4 L1006.0,638.7 L1007.9,639.1 L1009.8,639.4 L1011.7,639.7 L1013.6,640.0  '/></g>
	</g>
	<g id="gnuplot_plot_2" ><title>Confidence interval</title>
<g fill="none" color="white" stroke="rgb( 31, 120, 180)" stroke-width="1.00" stroke-linecap="butt" stroke-linejoin="miter">
</g>
<g fill="none" color="black" stroke="currentColor" stroke-width="1.00" stroke-linecap="butt" stroke-linejoin="miter">
	<g transform="translate(1089.0,85.0)" stroke="none" fill="black" font-family="Helvetica" font-size="12.00"  text-anchor="start">
		<text><tspan font-family="Helvetica" >Confidence interval</tspan></text>
	</g>
</g>
<g fill="none" color="black" stroke="currentColor" stroke-width="1.00" stroke-linecap="butt" stroke-linejoin="miter">
	<g stroke='none' shape-rendering='crispEdges'>
		<polygon fill = 'rgb( 31, 120, 180)' fill-opacity = '0.250000' points = '1038.5,85.6 1080.7,85.6 1080.7,76.6 1038.5,76.6 '/>
		<polygon fill = 'rgb( 31, 120, 180)' fill-opacity = '0.250000' points = '151.2,501.0 151.2,662.4 153.1,662.4 153.1,495.0 '/>
		<polygon fill = 'rgb( 31, 120, 180)' fill-opacity = '0.250000' points = '153.1,495.0 153.1,662.4 155.0,662.4 155.0,488.9 '/>
		<polygon fill = 'rgb( 31, 120, 180)' fill-opacity = '0.250000' points = '155.0,488.9 155.0,662.4 156.9,662.4 156.9,482.6 '/>
		<polygon fill = 'rgb( 31, 120, 180)' fill-opacity = '0.250000' points = '156.9,482.6 156.9,662.4 158.8,662.4 158.8,476.2 '/>
		<polygon fill = 'rgb( 31, 120, 180)' fill-opacity = '0.250000' points = '158.8,476.2 158.8,662.4 160.7,662.4 160.7,469.7 '/>
		<polygon fill = 'rgb( 31, 120, 180)' fill-opacity = '0.250000' points = '160.7,469.7 160.7,662.4 162.6,662.4 162.6,463.1 '/>
		<polygon fill = 'rgb( 31, 120, 180)' fill-opacity = '0.250000' points = '162.6,463.1 162.6,662.4 164.5,662.4 164.5,456.4 '/>
		<polygon fill = 'rgb( 31, 120, 180)' fill-opacity = '0.250000' points = '164.5,456.4 164.5,662.4 166.4,662.4 166.4,449.6 '/>
		<polygon fill = 'rgb( 31, 120, 180)' fill-opacity = '0.250000' points = '166.4,449.6 166.4,662.4 168.3,662.4 168.3,442.6 '/>
		<polygon fill = 'rgb( 31, 120, 180)' fill-opacity = '0.250000' points = '168.3,442.6 168.3,662.4 170.2,662.4 170.2,435.6 '/>
		<polygon fill = 'rgb( 31, 120, 180)' fill-opacity = '0.250000' points = '170.2,435.6 170.2,662.4 172.1,662.4 172.1,428.4 '/>
		<polygon fill = 'rgb( 31, 120, 180)' fill-opacity = '0.250000' points = '172.1,428.4 172.1,662.4 174.0,662.4 174.0,421.2 '/>
		<polygon fill = 'rgb( 31, 120, 180)' fill-opacity = '0.250000' points = '174.0,421.2 174.0,662.4 175.9,662.4 175.9,413.9 '/>
		<polygon fill = 'rgb( 31, 120, 180)' fill-opacity = '0.250000' points = '175.9,413.9 175.9,662.4 177.8,662.4 177.8,406.6 '/>
		<polygon fill = 'rgb( 31, 120, 180)' fill-opacity = '0.250000' points = '177.8,406.6 177.8,662.4 179.7,662.4 179.7,399.2 '/>
		<polygon fill = 'rgb( 31, 120, 180)' fill-opacity = '0.250000' points = '179.7,399.2 179.7,662.4 181.6,662.4 181.6,391.8 '/>
		<polygon fill = 'rgb( 31, 120, 180)' fill-opacity = '0.250000' points = '181.6,391.8 181.6,662.4 183.5,662.4 183.5,384.4 '/>
		<polygon fill = 'rgb( 31, 120, 180)' fill-opacity = '0.250000' points = '183.5,384.4 183.5,662.4 185.4,662.4 185.4,377.0 '/>
		<polygon fill = 'rgb( 31, 120, 180)' fill-opacity = '0.250000' points = '185.4,377.0 185.4,662.4 187.3,662.4 187.3,369.7 '/>
		<polygon fill = 'rgb( 31, 120, 180)' fill-opacity = '0.250000' points = '187.3,369.7 187.3,662.4 189.3,662.4 189.3,362.4 '/>
		<polygon fill = 'rgb( 31, 120, 180)' fill-opacity = '0.250000' points = '189.3,362.4 189.3,662.4 191.2,662.4 191.2,355.1 '/>
		<polygon fill = 'rgb( 31, 120, 180)' fill-opacity = '0.250000' points = '191.2,355.1 191.2,662.4 193.1,662.4 193.1,347.9 '/>
		<polygon fill = 'rgb( 31, 120, 180)' fill-opacity = '0.250000' points = '193.1,347.9 193.1,662.4 195.0,662.4 195.0,340.8 '/>
		<polygon fill = 'rgb( 31, 120, 180)' fill-opacity = '0.250000' points = '195.0,340.8 195.0,662.4 196.9,662.4 196.9,333.8 '/>
		<polygon fill = 'rgb( 31, 120, 180)' fill-opacity = '0.250000' points = '196.9,333.8 196.9,662.4 198.8,662.4 198.8,327.0 '/>
		<polygon fill = 'rgb( 31, 120, 180)' fill-opacity = '0.250000' points = '198.8,327.0 198.8,662.4 200.7,662.4 200.7,320.3 '/>
		<polygon fill = 'rgb( 31, 120, 180)' fill-opacity = '0.250000' points = '200.7,320.3 200.7,662.4 202.6,662.4 202.6,313.7 '/>
		<polygon fill = 'rgb( 31, 120, 180)' fill-opacity = '0.250000' points = '202.6,313.7 202.6,662.4 204.5,662.4 204.5,307.3 '/>
		<polygon fill = 'rgb( 31, 120, 180)' fill-opacity = '0.250000' points = '204.5,307.3 204.5,662.4 206.4,662.4 206.4,301.1 '/>
		<polygon fill = 'rgb( 31, 120, 180)' fill-opacity = '0.250000' points = '206.4,301.1 206.4,662.4 208.3,662.4 208.3,295.0 '/>
		<polygon fill = 'rgb( 31, 120, 180)' fill-opacity = '0.250000' points = '208.3,295.0 208.3,662.4 210.2,662.4 210.2,289.2 '/>
		<polygon fill = 'rgb( 31, 120, 180)' fill-opacity = '0.250000' points = '210.2,289.2 210.2,662.4 212.1,662.4 212.1,283.5 '/>
		<polygon fill = 'rgb( 31, 120, 180)' fill-opacity = '0.250000' points = '212.1,283.5 212.1,662.4 214.0,662.4 214.0,278.1 '/>
		<polygon fill = 'rgb( 31, 120, 180)' fill-opacity = '0.250000' points = '214.0,278.1 214.0,662.4 215.9,662.4 215.9,272.9 '/>
		<polygon fill = 'rgb( 31, 120, 180)' fill-opacity = '0.250000' points = '215.9,272.9 215.9,662.4 217.8,662.4 217.8,267.9 '/>
		<polygon fill = 'rgb( 31, 120, 180)' fill-opacity = '0.250000' points = '217.8,267.9 217.8,662.4 219.7,662.4 219.7,263.1 '/>
		<polygon fill = 'rgb( 31, 120, 180)' fill-opacity = '0.250000' points = '219.7,263.1 219.7,662.4 221.6,662.4 221.6,258.6 '/>
		<polygon fill = 'rgb( 31, 120, 180)' fill-opacity = '0.250000' points = '221.6,258.6 221.6,662.4 223.5,662.4 223.5,254.4 '/>
		<polygon fill = 'rgb( 31, 120, 180)' fill-opacity = '0.250000' points = '223.5,254.4 223.5,662.4 225.4,662.4 225.4,250.4 '/>
		<polygon fill = 'rgb( 31, 120, 180)' fill-opacity = '0.250000' points = '225.4,250.4 225.4,662.4 227.3,662.4 227.3,246.7 '/>
		<polygon fill = 'rgb( 31, 120, 180)' fill-opacity = '0.250000' points = '227.3,246.7 227.3,662.4 229.2,662.4 229.2,243.3 '/>
		<polygon fill = 'rgb( 31, 120, 180)' fill-opacity = '0.250000' points = '229.2,243.3 229.2,662.4 231.1,662.4 231.1,240.2 '/>
		<polygon fill = 'rgb( 31, 120, 180)' fill-opacity = '0.250000' points = '231.1,240.2 231.1,662.4 233.0,662.4 233.0,237.4 '/>
		<polygon fill = 'rgb( 31, 120, 180)' fill-opacity = '0.250000' points = '233.0,237.4 233.0,662.4 234.9,662.4 234.9,234.8 '/>
		<polygon fill = 'rgb( 31, 120, 180)' fill-opacity = '0.250000' points = '234.9,234.8 234.9,662.4 236.8,662.4 236.8,232.6 '/>
		<polygon fill = 'rgb( 31, 120, 180)' fill-opacity = '0.250000' points = '236.8,232.6 236.8,662.4 238.8,662.4 238.8,230.8 '/>
		<polygon fill = 'rgb( 31, 120, 180)' fill-opacity = '0.250000' points = '238.8,230.8 238.8,662.4 240.7,662.4 240.7,229.2 '/>
		<polygon fill = 'rgb( 31, 120, 180)' fill-opacity = '0.250000' points = '240.7,229.2 240.7,662.4 242.6,662.4 242.6,228.0 '/>
		<polygon fill = 'rgb( 31, 120, 180)' fill-opacity = '0.250000' points = '242.6,228.0 242.6,662.4 244.5,662.4 244.5,227.2 '/>
		<polygon fill = 'rgb( 31, 120, 180)' fill-opacity = '0.250000' points = '244.5,227.2 244.5,662.4 246.4,662.4 246.4,226.6 '/>
		<polygon fill = 'rgb( 31, 120, 180)' fill-opacity = '0.250000' points = '246.4,226.6 246.4,662.4 248.3,662.4 248.3,226.4 '/>
		<polygon fill = 'rgb( 31, 120, 180)' fill-opacity = '0.250000' points = '248.3,226.4 248.3,662.4 250.2,662.4 250.2,226.6 '/>
		<polygon fill = 'rgb( 31, 120, 180)' fill-opacity = '0.250000' points = '250.2,226.6 250.2,662.4 252.1,662.4 252.1,227.1 '/>
		<polygon fill = 'rgb( 31, 120, 180)' fill-opacity = '0.250000' points = '252.1,227.1 252.1,662.4 254.0,662.4 254.0,228.0 '/>
		<polygon fill = 'rgb( 31, 120, 180)' fill-opacity = '0.250000' points = '254.0,228.0 254.0,662.4 255.9,662.4 255.9,229.2 '/>
		<polygon fill = 'rgb( 31, 120, 180)' fill-opacity = '0.250000' points = '255.9,229.2 255.9,662.4 257.8,662.4 257.8,230.7 '/>
		<polygon fill = 'rgb( 31, 120, 180)' fill-opacity = '0.250000' points = '257.8,230.7 257.8,662.4 259.7,662.4 259.7,232.5 '/>
		<polygon fill = 'rgb( 31, 120, 180)' fill-opacity = '0.250000' points = '259.7,232.5 259.7,662.4 261.6,662.4 261.6,234.7 '/>
		<polygon fill = 'rgb( 31, 120, 180)' fill-opacity = '0.250000' points = '261.6,234.7 261.6,662.4 263.5,662.4 263.5,237.2 '/>
		<polygon fill = 'rgb( 31, 120, 180)' fill-opacity = '0.250000' points = '263.5,237.2 263.5,662.4 265.4,662.4 265.4,240.0 '/>
		<polygon fill = 'rgb( 31, 120, 180)' fill-opacity = '0.250000' points = '265.4,240.0 265.4,662.4 267.3,662.4 267.3,243.1 '/>
		<polygon fill = 'rgb( 31, 120, 180)' fill-opacity = '0.250000' points = '267.3,243.1 267.3,662.4 269.2,662.4 269.2,246.4 '/>
		<polygon fill = 'rgb( 31, 120, 180)' fill-opacity = '0.250000' points = '269.2,246.4 269.2,662.4 271.1,662.4 271.1,250.1 '/>
		<polygon fill = 'rgb( 31, 120, 180)' fill-opacity = '0.250000' points = '271.1,250.1 271.1,662.4 273.0,662.4 273.0,254.0 '/>
		<polygon fill = 'rgb( 31, 120, 180)' fill-opacity = '0.250000' points = '273.0,254.0 273.0,662.4 274.9,662.4 274.9,258.2 '/>
		<polygon fill = 'rgb( 31, 120, 180)' fill-opacity = '0.250000' points = '274.9,258.2 274.9,662.4 276.8,662.4 276.8,262.7 '/>
		<polygon fill = 'rgb( 31, 120, 180)' fill-opacity = '0.250000' points = '276.8,262.7 276.8,662.4 278.7,662.4 278.7,267.4 '/>
		<polygon fill = 'rgb( 31, 120, 180)' fill-opacity = '0.250000' points = '278.7,267.4 278.7,662.4 280.6,662.4 280.6,272.3 '/>
		<polygon fill = 'rgb( 31, 120, 180)' fill-opacity = '0.250000' points = '280.6,272.3 280.6,662.4 282.5,662.4 282.5,277.4 '/>
		<polygon fill = 'rgb( 31, 120, 180)' fill-opacity = '0.250000' points = '282.5,277.4 282.5,662.4 284.4,662.4 284.4,282.8 '/>
		<polygon fill = 'rgb( 31, 120, 180)' fill-opacity = '0.250000' points = '284.4,282.8 284.4,662.4 286.3,662.4 286.3,288.4 '/>
		<polygon fill = 'rgb( 31, 120, 180)' fill-opacity = '0.250000' points = '286.3,288.4 286.3,662.4 288.2,662.4 288.2,294.1 '/>
		<polygon fill = 'rgb( 31, 120, 180)' fill-opacity = '0.250000' points = '288.2,294.1 288.2,662.4 290.2,662.4 290.2,300.1 '/>
		<polygon fill = 'rgb( 31, 120, 180)' fill-opacity = '0.250000' points = '290.2,300.1 290.2,662.4 292.1,662.4 292.1,306.2 '/>
		<polygon fill = 'rgb( 31, 120, 180)' fill-opacity = '0.250000' points = '292.1,306.2 292.1,662.4 294.0,662.4 294.0,312.5 '/>
		<polygon fill = 'rgb( 31, 120, 180)' fill-opacity = '0.250000' points = '294.0,312.5 294.0,662.4 295.9,662.4 295.9,318.9 '/>
		<polygon fill = 'rgb( 31, 120, 180)' fill-opacity = '0.250000' points = '295.9,318.9 295.9,662.4 297.8,662.4 297.8,325.4 '/>
		<polygon fill = 'rgb( 31, 120, 180)' fill-opacity = '0.250000' points = '297.8,325.4 297.8,662.4 299.7,662.4 299.7,332.0 '/>
		<polygon fill = 'rgb( 31, 120, 180)' fill-opacity = '0.250000' points = '299.7,332.0 299.7,662.4 301.6,662.4 301.6,338.7 '/>
		<polygon fill = 'rgb( 31, 120, 180)' fill-opacity = '0.250000' points = '301.6,338.7 301.6,662.4 303.5,662.4 303.5,345.5 '/>
		<polygon fill = 'rgb( 31, 120, 180)' fill-opacity = '0.250000' points = '303.5,345.5 303.5,662.4 305.4,662.4 305.4,352.4 '/>
		<polygon fill = 'rgb( 31, 120, 180)' fill-opacity = '0.250000' points = '305.4,352.4 305.4,662.4 307.3,662.4 307.3,359.3 '/>
		<polygon fill = 'rgb( 31, 120, 180)' fill-opacity = '0.250000' points = '307.3,359.3 307.3,662.4 309.2,662.4 309.2,366.2 '/>
		<polygon fill = 'rgb( 31, 120, 180)' fill-opacity = '0.250000' points = '309.2,366.2 309.2,662.4 311.1,662.4 311.1,373.1 '/>
		<polygon fill = 'rgb( 31, 120, 180)' fill-opacity = '0.250000' points = '311.1,373.1 311.1,662.4 313.0,662.4 313.0,380.0 '/>
		<polygon fill = 'rgb( 31, 120, 180)' fill-opacity = '0.250000' points = '313.0,380.0 313.0,662.4 314.9,662.4 314.9,386.9 '/>
		<polygon fill = 'rgb( 31, 120, 180)' fill-opacity = '0.250000' points = '314.9,386.9 314.9,662.4 316.8,662.4 316.8,393.7 '/>
		<polygon fill = 'rgb( 31, 120, 180)' fill-opacity = '0.250000' points = '316.8,393.7 316.8,662.4 318.7,662.4 318.7,400.4 '/>
		<polygon fill = 'rgb( 31, 120, 180)' fill-opacity = '0.250000' points = '318.7,400.4 318.7,662.4 320.6,662.4 320.6,407.0 '/>
		<polygon fill = 'rgb( 31, 120, 180)' fill-opacity = '0.250000' points = '320.6,407.0 320.6,662.4 322.5,662.4 322.5,413.5 '/>
		<polygon fill = 'rgb( 31, 120, 180)' fill-opacity = '0.250000' points = '322.5,413.5 322.5,662.4 324.4,662.4 324.4,419.9 '/>
		<polygon fill = 'rgb( 31, 120, 180)' fill-opacity = '0.250000' points = '324.4,419.9 324.4,662.4 326.3,662.4 326.3,426.1 '/>
		<polygon fill = 'rgb( 31, 120, 180)' fill-opacity = '0.250000' points = '326.3,426.1 326.3,662.4 328.2,662.4 328.2,432.1 '/>
		<polygon fill = 'rgb( 31, 120, 180)' fill-opacity = '0.250000' points = '328.2,432.1 328.2,662.4 330.1,662.4 330.1,437.9 '/>
		<polygon fill = 'rgb( 31, 120, 180)' fill-opacity = '0.250000' points = '330.1,437.9 330.1,662.4 332.0,662.4 332.0,443.5 '/>
		<polygon fill = 'rgb( 31, 120, 180)' fill-opacity = '0.250000' points = '332.0,443.5 332.0,662.4 333.9,662.4 333.9,448.9 '/>
		<polygon fill = 'rgb( 31, 120, 180)' fill-opacity = '0.250000' points = '333.9,448.9 333.9,662.4 335.8,662.4 335.8,454.0 '/>
		<polygon fill = 'rgb( 31, 120, 180)' fill-opacity = '0.250000' points = '335.8,454.0 335.8,662.4 337.7,662.4 337.7,458.9 '/>
		<polygon fill = 'rgb( 31, 120, 180)' fill-opacity = '0.250000' points = '337.7,458.9 337.7,662.4 339.7,662.4 339.7,463.5 '/>
		<polygon fill = 'rgb( 31, 120, 180)' fill-opacity = '0.250000' points = '339.7,463.5 339.7,662.4 341.6,662.4 341.6,467.8 '/>
		<polygon fill = 'rgb( 31, 120, 180)' fill-opacity = '0.250000' points = '341.6,467.8 341.6,662.4 343.5,662.4 343.5,471.7 '/>
		<polygon fill = 'rgb( 31, 120, 180)' fill-opacity = '0.250000' points = '343.5,471.7 343.5,662.4 345.4,662.4 345.4,475.3 '/>
		<polygon fill = 'rgb( 31, 120, 180)' fill-opacity = '0.250000' points = '345.4,475.3 345.4,662.4 347.3,662.4 347.3,478.6 '/>
		<polygon fill = 'rgb( 31, 120, 180)' fill-opacity = '0.250000' points = '347.3,478.6 347.3,662.4 349.2,662.4 349.2,481.5 '/>
		<polygon fill = 'rgb( 31, 120, 180)' fill-opacity = '0.250000' points = '349.2,481.5 349.2,662.4 351.1,662.4 351.1,484.1 '/>
		<polygon fill = 'rgb( 31, 120, 180)' fill-opacity = '0.250000' points = '351.1,484.1 351.1,662.4 353.0,662.4 353.0,486.2 '/>
		<polygon fill = 'rgb( 31, 120, 180)' fill-opacity = '0.250000' points = '353.0,486.2 353.0,662.4 354.9,662.4 354.9,488.0 '/>
		<polygon fill = 'rgb( 31, 120, 180)' fill-opacity = '0.250000' points = '354.9,488.0 354.9,662.4 356.8,662.4 356.8,489.4 '/>
		<polygon fill = 'rgb( 31, 120, 180)' fill-opacity = '0.250000' points = '356.8,489.4 356.8,662.4 358.7,662.4 358.7,490.3 '/>
		<polygon fill = 'rgb( 31, 120, 180)' fill-opacity = '0.250000' points = '358.7,490.3 358.7,662.4 360.6,662.4 360.6,490.9 '/>
		<polygon fill = 'rgb( 31, 120, 180)' fill-opacity = '0.250000' points = '360.6,490.9 360.6,662.4 362.5,662.4 362.5,491.0 '/>
		<polygon fill = 'rgb( 31, 120, 180)' fill-opacity = '0.250000' points = '362.5,491.0 362.5,662.4 364.4,662.4 364.4,490.6 '/>
		<polygon fill = 'rgb( 31, 120, 180)' fill-opacity = '0.250000' points = '364.4,490.6 364.4,662.4 366.3,662.4 366.3,489.9 '/>
		<polygon fill = 'rgb( 31, 120, 180)' fill-opacity = '0.250000' points = '366.3,489.9 366.3,662.4 368.2,662.4 368.2,488.7 '/>
		<polygon fill = 'rgb( 31, 120, 180)' fill-opacity = '0.250000' points = '368.2,488.7 368.2,662.4 370.1,662.4 370.1,487.1 '/>
		<polygon fill = 'rgb( 31, 120, 180)' fill-opacity = '0.250000' points = '370.1,487.1 370.1,662.4 372.0,662.4 372.0,485.0 '/>
		<polygon fill = 'rgb( 31, 120, 180)' fill-opacity = '0.250000' points = '372.0,485.0 372.0,662.4 373.9,662.4 373.9,482.5 '/>
		<polygon fill = 'rgb( 31, 120, 180)' fill-opacity = '0.250000' points = '373.9,482.5 373.9,662.4 375.8,662.4 375.8,479.5 '/>
		<polygon fill = 'rgb( 31, 120, 180)' fill-opacity = '0.250000' points = '375.8,479.5 375.8,662.4 377.7,662.4 377.7,476.1 '/>
		<polygon fill = 'rgb( 31, 120, 180)' fill-opacity = '0.250000' points = '377.7,476.1 377.7,662.4 379.6,662.4 379.6,472.3 '/>
		<polygon fill = 'rgb( 31, 120, 180)' fill-opacity = '0.250000' points = '379.6,472.3 379.6,662.4 381.5,662.4 381.5,468.1 '/>
		<polygon fill = 'rgb( 31, 120, 180)' fill-opacity = '0.250000' points = '381.5,468.1 381.5,662.4 383.4,662.4 383.4,463.5 '/>
		<polygon fill = 'rgb( 31, 120, 180)' fill-opacity = '0.250000' points = '383.4,463.5 383.4,662.4 385.3,662.4 385.3,458.4 '/>
		<polygon fill = 'rgb( 31, 120, 180)' fill-opacity = '0.250000' points = '385.3,458.4 385.3,662.4 387.2,662.4 387.2,453.0 '/>
		<polygon fill = 'rgb( 31, 120, 180)' fill-opacity = '0.250000' points = '387.2,453.0 387.2,662.4 389.2,662.4 389.2,447.2 '/>
		<polygon fill = 'rgb( 31, 120, 180)' fill-opacity = '0.250000' points = '389.2,447.2 389.2,662.4 391.1,662.4 391.1,441.1 '/>
		<polygon fill = 'rgb( 31, 120, 180)' fill-opacity = '0.250000' points = '391.1,441.1 391.1,662.4 393.0,662.4 393.0,434.5 '/>
		<polygon fill = 'rgb( 31, 120, 180)' fill-opacity = '0.250000' points = '393.0,434.5 393.0,662.4 394.9,662.4 394.9,427.7 '/>
		<polygon fill = 'rgb( 31, 120, 180)' fill-opacity = '0.250000' points = '394.9,427.7 394.9,662.4 396.8,662.4 396.8,420.6 '/>
		<polygon fill = 'rgb( 31, 120, 180)' fill-opacity = '0.250000' points = '396.8,420.6 396.8,662.4 398.7,662.4 398.7,413.1 '/>
		<polygon fill = 'rgb( 31, 120, 180)' fill-opacity = '0.250000' points = '398.7,413.1 398.7,662.4 400.6,662.4 400.6,405.4 '/>
		<polygon fill = 'rgb( 31, 120, 180)' fill-opacity = '0.250000' points = '400.6,405.4 400.6,662.4 402.5,662.4 402.5,397.4 '/>
		<polygon fill = 'rgb( 31, 120, 180)' fill-opacity = '0.250000' points = '402.5,397.4 402.5,662.4 404.4,662.4 404.4,389.2 '/>
		<polygon fill = 'rgb( 31, 120, 180)' fill-opacity = '0.250000' points = '404.4,389.2 404.4,662.4 406.3,662.4 406.3,380.8 '/>
		<polygon fill = 'rgb( 31, 120, 180)' fill-opacity = '0.250000' points = '406.3,380.8 406.3,662.4 408.2,662.4 408.2,372.2 '/>
		<polygon fill = 'rgb( 31, 120, 180)' fill-opacity = '0.250000' points = '408.2,372.2 408.2,662.4 410.1,662.4 410.1,363.5 '/>
		<polygon fill = 'rgb( 31, 120, 180)' fill-opacity = '0.250000' points = '410.1,363.5 410.1,662.4 412.0,662.4 412.0,354.6 '/>
		<polygon fill = 'rgb( 31, 120, 180)' fill-opacity = '0.250000' points = '412.0,354.6 412.0,662.4 413.9,662.4 413.9,345.6 '/>
		<polygon fill = 'rgb( 31, 120, 180)' fill-opacity = '0.250000' points = '413.9,345.6 413.9,662.4 415.8,662.4 415.8,336.5 '/>
		<polygon fill = 'rgb( 31, 120, 180)' fill-opacity = '0.250000' points = '415.8,336.5 415.8,662.4 417.7,662.4 417.7,327.4 '/>
		<polygon fill = 'rgb( 31, 120, 180)' fill-opacity = '0.250000' points = '417.7,327.4 417.7,662.4 419.6,662.4 419.6,318.3 '/>
		<polygon fill = 'rgb( 31, 120, 180)' fill-opacity = '0.250000' points = '419.6,318.3 419.6,662.4 421.5,662.4 421.5,309.1 '/>
		<polygon fill = 'rgb( 31, 120, 180)' fill-opacity = '0.250000' points = '421.5,309.1 421.5,662.4 423.4,662.4 423.4,299.9 '/>
		<polygon fill = 'rgb( 31, 120, 180)' fill-opacity = '0.250000' points = '423.4,299.9 423.4,662.4 425.3,662.4 425.3,290.8 '/>
		<polygon fill = 'rgb( 31, 120, 180)' fill-opacity = '0.250000' points = '425.3,290.8 425.3,662.4 427.2,662.4 427.2,281.8 '/>
		<polygon fill = 'rgb( 31, 120, 180)' fill-opacity = '0.250000' points = '427.2,281.8 427.2,662.4 429.1,662.4 429.1,272.9 '/>
		<polygon fill = 'rgb( 31, 120, 180)' fill-opacity = '0.250000' points = '429.1,272.9 429.1,662.4 431.0,662.4 431.0,264.0 '/>
		<polygon fill = 'rgb( 31, 120, 180)' fill-opacity = '0.250000' points = '431.0,264.0 431.0,662.4 432.9,662.4 432.9,255.3 '/>
		<polygon fill = 'rgb( 31, 120, 180)' fill-opacity = '0.250000' points = '432.9,255.3 432.9,662.4 434.8,662.4 434.8,246.8 '/>
		<polygon fill = 'rgb( 31, 120, 180)' fill-opacity = '0.250000' points = '434.8,246.8 434.8,662.4 436.7,662.4 436.7,238.5 '/>
		<polygon fill = 'rgb( 31, 120, 180)' fill-opacity = '0.250000' points = '436.7,238.5 436.7,662.4 438.7,662.4 438.7,230.4 '/>
		<polygon fill = 'rgb( 31, 120, 180)' fill-opacity = '0.250000' points = '438.7,230.4 438.7,662.4 440.6,662.4 440.6,222.5 '/>
		<polygon fill = 'rgb( 31, 120, 180)' fill-opacity = '0.250000' points = '440.6,222.5 440.6,662.4 442.5,662.4 442.5,214.8 '/>
		<polygon fill = 'rgb( 31, 120, 180)' fill-opacity = '0.250000' points = '442.5,214.8 442.5,662.4 444.4,662.4 444.4,207.5 '/>
		<polygon fill = 'rgb( 31, 120, 180)' fill-opacity = '0.250000' points = '444.4,207.5 444.4,662.4 446.3,662.4 446.3,200.4 '/>
		<polygon fill = 'rgb( 31, 120, 180)' fill-opacity = '0.250000' points = '446.3,200.4 446.3,662.4 448.2,662.4 448.2,193.7 '/>
		<polygon fill = 'rgb( 31, 120, 180)' fill-opacity = '0.250000' points = '448.2,193.7 448.2,662.4 450.1,662.4 450.1,187.3 '/>
		<polygon fill = 'rgb( 31, 120, 180)' fill-opacity = '0.250000' points = '450.1,187.3 450.1,662.4 452.0,662.4 452.0,181.3 '/>
		<polygon fill = 'rgb( 31, 120, 180)' fill-opacity = '0.250000' points = '452.0,181.3 452.0,662.4 453.9,662.4 453.9,175.7 '/>
		<polygon fill = 'rgb( 31, 120, 180)' fill-opacity = '0.250000' points = '453.9,175.7 453.9,662.4 455.8,662.4 455.8,170.5 '/>
		<polygon fill = 'rgb( 31, 120, 180)' fill-opacity = '0.250000' points = '455.8,170.5 455.8,662.4 457.7,662.4 457.7,165.7 '/>
		<polygon fill = 'rgb( 31, 120, 180)' fill-opacity = '0.250000' points = '457.7,165.7 457.7,662.4 459.6,662.4 459.6,161.3 '/>
		<polygon fill = 'rgb( 31, 120, 180)' fill-opacity = '0.250000' points = '459.6,161.3 459.6,662.4 461.5,662.4 461.5,157.5 '/>
		<polygon fill = 'rgb( 31, 120, 180)' fill-opacity = '0.250000' points = '461.5,157.5 461.5,662.4 463.4,662.4 463.4,154.1 '/>
		<polygon fill = 'rgb( 31, 120, 180)' fill-opacity = '0.250000' points = '463.4,154.1 463.4,662.4 465.3,662.4 465.3,151.2 '/>
		<polygon fill = 'rgb( 31, 120, 180)' fill-opacity = '0.250000' points = '465.3,151.2 465.3,662.4 467.2,662.4 467.2,148.8 '/>
		<polygon fill = 'rgb( 31, 120, 180)' fill-opacity = '0.250000' points = '467.2,148.8 467.2,662.4 469.1,662.4 469.1,146.9 '/>
		<polygon fill = 'rgb( 31, 120, 180)' fill-opacity = '0.250000' points = '469.1,146.9 469.1,662.4 471.0,662.4 471.0,145.5 '/>
		<polygon fill = 'rgb( 31, 120, 180)' fill-opacity = '0.250000' points = '471.0,145.5 471.0,662.4 472.9,662.4 472.9,144.7 '/>
		<polygon fill = 'rgb( 31, 120, 180)' fill-opacity = '0.250000' points = '472.9,144.7 472.9,662.4 474.8,662.4 474.8,144.4 '/>
		<polygon fill = 'rgb( 31, 120, 180)' fill-opacity = '0.250000' points = '474.8,144.4 474.8,662.4 476.7,662.4 476.7,144.6 '/>
		<polygon fill = 'rgb( 31, 120, 180)' fill-opacity = '0.250000' points = '476.7,144.6 476.7,662.4 478.6,662.4 478.6,145.3 '/>
		<polygon fill = 'rgb( 31, 120, 180)' fill-opacity = '0.250000' points = '478.6,145.3 478.6,662.4 480.5,662.4 480.5,146.6 '/>
		<polygon fill = 'rgb( 31, 120, 180)' fill-opacity = '0.250000' points = '480.5,146.6 480.5,662.4 482.4,662.4 482.4,148.4 '/>
		<polygon fill = 'rgb( 31, 120, 180)' fill-opacity = '0.250000' points = '482.4,148.4 482.4,662.4 484.3,662.4 484.3,150.7 '/>
		<polygon fill = 'rgb( 31, 120, 180)' fill-opacity = '0.250000' points = '484.3,150.7 484.3,662.4 486.2,662.4 486.2,153.5 '/>
		<polygon fill = 'rgb( 31, 120, 180)' fill-opacity = '0.250000' points = '486.2,153.5 486.2,662.4 488.1,662.4 488.1,156.8 '/>
		<polygon fill = 'rgb( 31, 120, 180)' fill-opacity = '0.250000' points = '488.1,156.8 488.1,662.4 490.1,662.4 490.1,160.6 '/>
		<polygon fill = 'rgb( 31, 120, 180)' fill-opacity = '0.250000' points = '490.1,160.6 490.1,662.4 492.0,662.4 492.0,164.8 '/>
		<polygon fill = 'rgb( 31, 120, 180)' fill-opacity = '0.250000' points = '492.0,164.8 492.0,662.4 493.9,662.4 493.9,169.5 '/>
		<polygon fill = 'rgb( 31, 120, 180)' fill-opacity = '0.250000' points = '493.9,169.5 493.9,662.4 495.8,662.4 495.8,174.6 '/>
		<polygon fill = 'rgb( 31, 120, 180)' fill-opacity = '0.250000' points = '495.8,174.6 495.8,662.4 497.7,662.4 497.7,180.0 '/>
		<polygon fill = 'rgb( 31, 120, 180)' fill-opacity = '0.250000' points = '497.7,180.0 497.7,662.4 499.6,662.4 499.6,185.9 '/>
		<polygon fill = 'rgb( 31, 120, 180)' fill-opacity = '0.250000' points = '499.6,185.9 499.6,662.4 501.5,662.4 501.5,192.1 '/>
		<polygon fill = 'rgb( 31, 120, 180)' fill-opacity = '0.250000' points = '501.5,192.1 501.5,662.4 503.4,662.4 503.4,198.6 '/>
		<polygon fill = 'rgb( 31, 120, 180)' fill-opacity = '0.250000' points = '503.4,198.6 503.4,662.4 505.3,662.4 505.3,205.4 '/>
		<polygon fill = 'rgb( 31, 120, 180)' fill-opacity = '0.250000' points = '505.3,205.4 505.3,662.4 507.2,662.4 507.2,212.4 '/>
		<polygon fill = 'rgb( 31, 120, 180)' fill-opacity = '0.250000' points = '507.2,212.4 507.2,662.4 509.1,662.4 509.1,219.7 '/>
		<polygon fill = 'rgb( 31, 120, 180)' fill-opacity = '0.250000' points = '509.1,219.7 509.1,662.4 511.0,662.4 511.0,227.2 '/>
		<polygon fill = 'rgb( 31, 120, 180)' fill-opacity = '0.250000' points = '511.0,227.2 511.0,662.4 512.9,662.4 512.9,234.9 '/>
		<polygon fill = 'rgb( 31, 120, 180)' fill-opacity = '0.250000' points = '512.9,234.9 512.9,662.4 514.8,662.4 514.8,242.7 '/>
		<polygon fill = 'rgb( 31, 120, 180)' fill-opacity = '0.250000' points = '514.8,242.7 514.8,662.4 516.7,662.4 516.7,250.7 '/>
		<polygon fill = 'rgb( 31, 120, 180)' fill-opacity = '0.250000' points = '516.7,250.7 516.7,662.4 518.6,662.4 518.6,258.8 '/>
		<polygon fill = 'rgb( 31, 120, 180)' fill-opacity = '0.250000' points = '518.6,258.8 518.6,662.4 520.5,662.4 520.5,266.9 '/>
		<polygon fill = 'rgb( 31, 120, 180)' fill-opacity = '0.250000' points = '520.5,266.9 520.5,662.4 522.4,662.4 522.4,275.1 '/>
		<polygon fill = 'rgb( 31, 120, 180)' fill-opacity = '0.250000' points = '522.4,275.1 522.4,662.4 524.3,662.4 524.3,283.3 '/>
		<polygon fill = 'rgb( 31, 120, 180)' fill-opacity = '0.250000' points = '524.3,283.3 524.3,662.4 526.2,662.4 526.2,291.4 '/>
		<polygon fill = 'rgb( 31, 120, 180)' fill-opacity = '0.250000' points = '526.2,291.4 526.2,662.4 528.1,662.4 528.1,299.6 '/>
		<polygon fill = 'rgb( 31, 120, 180)' fill-opacity = '0.250000' points = '528.1,299.6 528.1,662.4 530.0,662.4 530.0,307.7 '/>
		<polygon fill = 'rgb( 31, 120, 180)' fill-opacity = '0.250000' points = '530.0,307.7 530.0,662.4 531.9,662.4 531.9,315.7 '/>
		<polygon fill = 'rgb( 31, 120, 180)' fill-opacity = '0.250000' points = '531.9,315.7 531.9,662.4 533.8,662.4 533.8,323.6 '/>
		<polygon fill = 'rgb( 31, 120, 180)' fill-opacity = '0.250000' points = '533.8,323.6 533.8,662.4 535.7,662.4 535.7,331.4 '/>
		<polygon fill = 'rgb( 31, 120, 180)' fill-opacity = '0.250000' points = '535.7,331.4 535.7,662.4 537.6,662.4 537.6,339.0 '/>
		<polygon fill = 'rgb( 31, 120, 180)' fill-opacity = '0.250000' points = '537.6,339.0 537.6,662.4 539.6,662.4 539.6,346.5 '/>
		<polygon fill = 'rgb( 31, 120, 180)' fill-opacity = '0.250000' points = '539.6,346.5 539.6,662.4 541.5,662.4 541.5,353.8 '/>
		<polygon fill = 'rgb( 31, 120, 180)' fill-opacity = '0.250000' points = '541.5,353.8 541.5,662.4 543.4,662.4 543.4,360.9 '/>
		<polygon fill = 'rgb( 31, 120, 180)' fill-opacity = '0.250000' points = '543.4,360.9 543.4,662.4 545.3,662.4 545.3,367.8 '/>
		<polygon fill = 'rgb( 31, 120, 180)' fill-opacity = '0.250000' points = '545.3,367.8 545.3,662.4 547.2,662.4 547.2,374.5 '/>
		<polygon fill = 'rgb( 31, 120, 180)' fill-opacity = '0.250000' points = '547.2,374.5 547.2,662.4 549.1,662.4 549.1,381.0 '/>
		<polygon fill = 'rgb( 31, 120, 180)' fill-opacity = '0.250000' points = '549.1,381.0 549.1,662.4 551.0,662.4 551.0,387.2 '/>
		<polygon fill = 'rgb( 31, 120, 180)' fill-opacity = '0.250000' points = '551.0,387.2 551.0,662.4 552.9,662.4 552.9,393.2 '/>
		<polygon fill = 'rgb( 31, 120, 180)' fill-opacity = '0.250000' points = '552.9,393.2 552.9,662.4 554.8,662.4 554.8,399.0 '/>
		<polygon fill = 'rgb( 31, 120, 180)' fill-opacity = '0.250000' points = '554.8,399.0 554.8,662.4 556.7,662.4 556.7,404.5 '/>
		<polygon fill = 'rgb( 31, 120, 180)' fill-opacity = '0.250000' points = '556.7,404.5 556.7,662.4 558.6,662.4 558.6,409.7 '/>
		<polygon fill = 'rgb( 31, 120, 180)' fill-opacity = '0.250000' points = '558.6,409.7 558.6,662.4 560.5,662.4 560.5,414.6 '/>
		<polygon fill = 'rgb( 31, 120, 180)' fill-opacity = '0.250000' points = '560.5,414.6 560.5,662.4 562.4,662.4 562.4,419.3 '/>
		<polygon fill = 'rgb( 31, 120, 180)' fill-opacity = '0.250000' points = '562.4,419.3 562.4,662.4 564.3,662.4 564.3,423.7 '/>
		<polygon fill = 'rgb( 31, 120, 180)' fill-opacity = '0.250000' points = '564.3,423.7 564.3,662.4 566.2,662.4 566.2,427.9 '/>
		<polygon fill = 'rgb( 31, 120, 180)' fill-opacity = '0.250000' points = '566.2,427.9 566.2,662.4 568.1,662.4 568.1,431.8 '/>
		<polygon fill = 'rgb( 31, 120, 180)' fill-opacity = '0.250000' points = '568.1,431.8 568.1,662.4 570.0,662.4 570.0,435.4 '/>
		<polygon fill = 'rgb( 31, 120, 180)' fill-opacity = '0.250000' points = '570.0,435.4 570.0,662.4 571.9,662.4 571.9,438.7 '/>
		<polygon fill = 'rgb( 31, 120, 180)' fill-opacity = '0.250000' points = '571.9,438.7 571.9,662.4 573.8,662.4 573.8,441.8 '/>
		<polygon fill = 'rgb( 31, 120, 180)' fill-opacity = '0.250000' points = '573.8,441.8 573.8,662.4 575.7,662.4 575.7,444.6 '/>
		<polygon fill = 'rgb( 31, 120, 180)' fill-opacity = '0.250000' points = '575.7,444.6 575.7,662.4 577.6,662.4 577.6,447.1 '/>
		<polygon fill = 'rgb( 31, 120, 180)' fill-opacity = '0.250000' points = '577.6,447.1 577.6,662.4 579.5,662.4 579.5,449.4 '/>
		<polygon fill = 'rgb( 31, 120, 180)' fill-opacity = '0.250000' points = '579.5,449.4 579.5,662.4 581.4,662.4 581.4,451.5 '/>
		<polygon fill = 'rgb( 31, 120, 180)' fill-opacity = '0.250000' points = '581.4,451.5 581.4,662.4 583.3,662.4 583.3,453.3 '/>
		<polygon fill = 'rgb( 31, 120, 180)' fill-opacity = '0.250000' points = '583.3,453.3 583.3,662.4 585.2,662.4 585.2,454.9 '/>
		<polygon fill = 'rgb( 31, 120, 180)' fill-opacity = '0.250000' points = '585.2,454.9 585.2,662.4 587.1,662.4 587.1,456.2 '/>
		<polygon fill = 'rgb( 31, 120, 180)' fill-opacity = '0.250000' points = '587.1,456.2 587.1,662.4 589.1,662.4 589.1,457.3 '/>
		<polygon fill = 'rgb( 31, 120, 180)' fill-opacity = '0.250000' points = '589.1,457.3 589.1,662.4 591.0,662.4 591.0,458.2 '/>
		<polygon fill = 'rgb( 31, 120, 180)' fill-opacity = '0.250000' points = '591.0,458.2 591.0,662.4 592.9,662.4 592.9,458.9 '/>
		<polygon fill = 'rgb( 31, 120, 180)' fill-opacity = '0.250000' points = '592.9,458.9 592.9,662.4 594.8,662.4 594.8,459.4 '/>
		<polygon fill = 'rgb( 31, 120, 180)' fill-opacity = '0.250000' points = '594.8,459.4 594.8,662.4 596.7,662.4 596.7,459.7 '/>
		<polygon fill = 'rgb( 31, 120, 180)' fill-opacity = '0.250000' points = '596.7,459.7 596.7,662.4 598.6,662.4 598.6,459.8 '/>
		<polygon fill = 'rgb( 31, 120, 180)' fill-opacity = '0.250000' points = '598.6,459.8 598.6,662.4 600.5,662.4 600.5,459.8 '/>
		<polygon fill = 'rgb( 31, 120, 180)' fill-opacity = '0.250000' points = '600.5,459.8 600.5,662.4 602.4,662.4 602.4,459.6 '/>
		<polygon fill = 'rgb( 31, 120, 180)' fill-opacity = '0.250000' points = '602.4,459.6 602.4,662.4 604.3,662.4 604.3,459.2 '/>
		<polygon fill = 'rgb( 31, 120, 180)' fill-opacity = '0.250000' points = '604.3,459.2 604.3,662.4 606.2,662.4 606.2,458.7 '/>
		<polygon fill = 'rgb( 31, 120, 180)' fill-opacity = '0.250000' points = '606.2,458.7 606.2,662.4 608.1,662.4 608.1,458.1 '/>
		<polygon fill = 'rgb( 31, 120, 180)' fill-opacity = '0.250000' points = '608.1,458.1 608.1,662.4 610.0,662.4 610.0,457.4 '/>
		<polygon fill = 'rgb( 31, 120, 180)' fill-opacity = '0.250000' points = '610.0,457.4 610.0,662.4 611.9,662.4 611.9,456.6 '/>
		<polygon fill = 'rgb( 31, 120, 180)' fill-opacity = '0.250000' points = '611.9,456.6 611.9,662.4 613.8,662.4 613.8,455.7 '/>
		<polygon fill = 'rgb( 31, 120, 180)' fill-opacity = '0.250000' points = '613.8,455.7 613.8,662.4 615.7,662.4 615.7,454.7 '/>
		<polygon fill = 'rgb( 31, 120, 180)' fill-opacity = '0.250000' points = '615.7,454.7 615.7,662.4 617.6,662.4 617.6,453.7 '/>
		<polygon fill = 'rgb( 31, 120, 180)' fill-opacity = '0.250000' points = '617.6,453.7 617.6,662.4 619.5,662.4 619.5,452.6 '/>
		<polygon fill = 'rgb( 31, 120, 180)' fill-opacity = '0.250000' points = '619.5,452.6 619.5,662.4 621.4,662.4 621.4,451.5 '/>
		<polygon fill = 'rgb( 31, 120, 180)' fill-opacity = '0.250000' points = '621.4,451.5 621.4,662.4 623.3,662.4 623.3,450.3 '/>
		<polygon fill = 'rgb( 31, 120, 180)' fill-opacity = '0.250000' points = '623.3,450.3 623.3,662.4 625.2,662.4 625.2,449.2 '/>
		<polygon fill = 'rgb( 31, 120, 180)' fill-opacity = '0.250000' points = '625.2,449.2 625.2,662.4 627.1,662.4 627.1,448.0 '/>
		<polygon fill = 'rgb( 31, 120, 180)' fill-opacity = '0.250000' points = '627.1,448.0 627.1,662.4 629.0,662.4 629.0,446.9 '/>
		<polygon fill = 'rgb( 31, 120, 180)' fill-opacity = '0.250000' points = '629.0,446.9 629.0,662.4 630.9,662.4 630.9,445.8 '/>
		<polygon fill = 'rgb( 31, 120, 180)' fill-opacity = '0.250000' points = '630.9,445.8 630.9,662.4 632.8,662.4 632.8,444.7 '/>
		<polygon fill = 'rgb( 31, 120, 180)' fill-opacity = '0.250000' points = '632.8,444.7 632.8,662.4 634.7,662.4 634.7,443.6 '/>
		<polygon fill = 'rgb( 31, 120, 180)' fill-opacity = '0.250000' points = '634.7,443.6 634.7,662.4 636.6,662.4 636.6,442.7 '/>
		<polygon fill = 'rgb( 31, 120, 180)' fill-opacity = '0.250000' points = '636.6,442.7 636.6,662.4 638.5,662.4 638.5,441.7 '/>
		<polygon fill = 'rgb( 31, 120, 180)' fill-opacity = '0.250000' points = '638.5,441.7 638.5,662.4 640.5,662.4 640.5,440.9 '/>
		<polygon fill = 'rgb( 31, 120, 180)' fill-opacity = '0.250000' points = '640.5,440.9 640.5,662.4 642.4,662.4 642.4,440.1 '/>
		<polygon fill = 'rgb( 31, 120, 180)' fill-opacity = '0.250000' points = '642.4,440.1 642.4,662.4 644.3,662.4 644.3,439.3 '/>
		<polygon fill = 'rgb( 31, 120, 180)' fill-opacity = '0.250000' points = '644.3,439.3 644.3,662.4 646.2,662.4 646.2,438.7 '/>
		<polygon fill = 'rgb( 31, 120, 180)' fill-opacity = '0.250000' points = '646.2,438.7 646.2,662.4 648.1,662.4 648.1,438.2 '/>
		<polygon fill = 'rgb( 31, 120, 180)' fill-opacity = '0.250000' points = '648.1,438.2 648.1,662.4 650.0,662.4 650.0,437.7 '/>
		<polygon fill = 'rgb( 31, 120, 180)' fill-opacity = '0.250000' points = '650.0,437.7 650.0,662.4 651.9,662.4 651.9,437.4 '/>
		<polygon fill = 'rgb( 31, 120, 180)' fill-opacity = '0.250000' points = '651.9,437.4 651.9,662.4 653.8,662.4 653.8,437.1 '/>
		<polygon fill = 'rgb( 31, 120, 180)' fill-opacity = '0.250000' points = '653.8,437.1 653.8,662.4 655.7,662.4 655.7,437.0 '/>
		<polygon fill = 'rgb( 31, 120, 180)' fill-opacity = '0.250000' points = '655.7,437.0 655.7,662.4 657.6,662.4 657.6,437.0 '/>
		<polygon fill = 'rgb( 31, 120, 180)' fill-opacity = '0.250000' points = '657.6,437.0 657.6,662.4 659.5,662.4 659.5,437.0 '/>
		<polygon fill = 'rgb( 31, 120, 180)' fill-opacity = '0.250000' points = '659.5,437.0 659.5,662.4 661.4,662.4 661.4,437.2 '/>
		<polygon fill = 'rgb( 31, 120, 180)' fill-opacity = '0.250000' points = '661.4,437.2 661.4,662.4 663.3,662.4 663.3,437.5 '/>
		<polygon fill = 'rgb( 31, 120, 180)' fill-opacity = '0.250000' points = '663.3,437.5 663.3,662.4 665.2,662.4 665.2,438.0 '/>
		<polygon fill = 'rgb( 31, 120, 180)' fill-opacity = '0.250000' points = '665.2,438.0 665.2,662.4 667.1,662.4 667.1,438.5 '/>
		<polygon fill = 'rgb( 31, 120, 180)' fill-opacity = '0.250000' points = '667.1,438.5 667.1,662.4 669.0,662.4 669.0,439.2 '/>
		<polygon fill = 'rgb( 31, 120, 180)' fill-opacity = '0.250000' points = '669.0,439.2 669.0,662.4 670.9,662.4 670.9,439.9 '/>
		<polygon fill = 'rgb( 31, 120, 180)' fill-opacity = '0.250000' points = '670.9,439.9 670.9,662.4 672.8,662.4 672.8,440.8 '/>
		<polygon fill = 'rgb( 31, 120, 180)' fill-opacity = '0.250000' points = '672.8,440.8 672.8,662.4 674.7,662.4 674.7,441.8 '/>
		<polygon fill = 'rgb( 31, 120, 180)' fill-opacity = '0.250000' points = '674.7,441.8 674.7,662.4 676.6,662.4 676.6,442.9 '/>
		<polygon fill = 'rgb( 31, 120, 180)' fill-opacity = '0.250000' points = '676.6,442.9 676.6,662.4 678.5,662.4 678.5,444.1 '/>
		<polygon fill = 'rgb( 31, 120, 180)' fill-opacity = '0.250000' points = '678.5,444.1 678.5,662.4 680.4,662.4 680.4,445.4 '/>
		<polygon fill = 'rgb( 31, 120, 180)' fill-opacity = '0.250000' points = '680.4,445.4 680.4,662.4 682.3,662.4 682.3,446.8 '/>
		<polygon fill = 'rgb( 31, 120, 180)' fill-opacity = '0.250000' points = '682.3,446.8 682.3,662.4 684.2,662.4 684.2,448.3 '/>
		<polygon fill = 'rgb( 31, 120, 180)' fill-opacity = '0.250000' points = '684.2,448.3 684.2,662.4 686.1,662.4 686.1,449.8 '/>
		<polygon fill = 'rgb( 31, 120, 180)' fill-opacity = '0.250000' points = '686.1,449.8 686.1,662.4 688.0,662.4 688.0,451.5 '/>
		<polygon fill = 'rgb( 31, 120, 180)' fill-opacity = '0.250000' points = '688.0,451.5 688.0,662.4 690.0,662.4 690.0,453.2 '/>
		<polygon fill = 'rgb( 31, 120, 180)' fill-opacity = '0.250000' points = '690.0,453.2 690.0,662.4 691.9,662.4 691.9,455.0 '/>
		<polygon fill = 'rgb( 31, 120, 180)' fill-opacity = '0.250000' points = '691.9,455.0 691.9,662.4 693.8,662.4 693.8,456.9 '/>
		<polygon fill = 'rgb( 31, 120, 180)' fill-opacity = '0.250000' points = '693.8,456.9 693.8,662.4 695.7,662.4 695.7,458.8 '/>
		<polygon fill = 'rgb( 31, 120, 180)' fill-opacity = '0.250000' points = '695.7,458.8 695.7,662.4 697.6,662.4 697.6,460.8 '/>
		<polygon fill = 'rgb( 31, 120, 180)' fill-opacity = '0.250000' points = '697.6,460.8 697.6,662.4 699.5,662.4 699.5,462.8 '/>
		<polygon fill = 'rgb( 31, 120, 180)' fill-opacity = '0.250000' points = '699.5,462.8 699.5,662.4 701.4,662.4 701.4,464.9 '/>
		<polygon fill = 'rgb( 31, 120, 180)' fill-opacity = '0.250000' points = '701.4,464.9 701.4,662.4 703.3,662.4 703.3,467.1 '/>
		<polygon fill = 'rgb( 31, 120, 180)' fill-opacity = '0.250000' points = '703.3,467.1 703.3,662.4 705.2,662.4 705.2,469.3 '/>
		<polygon fill = 'rgb( 31, 120, 180)' fill-opacity = '0.250000' points = '705.2,469.3 705.2,662.4 707.1,662.4 707.1,471.5 '/>
		<polygon fill = 'rgb( 31, 120, 180)' fill-opacity = '0.250000' points = '707.1,471.5 707.1,662.4 709.0,662.4 709.0,473.8 '/>
		<polygon fill = 'rgb( 31, 120, 180)' fill-opacity = '0.250000' points = '709.0,473.8 709.0,662.4 710.9,662.4 710.9,476.1 '/>
		<polygon fill = 'rgb( 31, 120, 180)' fill-opacity = '0.250000' points = '710.9,476.1 710.9,662.4 712.8,662.4 712.8,478.5 '/>
		<polygon fill = 'rgb( 31, 120, 180)' fill-opacity = '0.250000' points = '712.8,478.5 712.8,662.4 714.7,662.4 714.7,480.9 '/>
		<polygon fill = 'rgb( 31, 120, 180)' fill-opacity = '0.250000' points = '714.7,480.9 714.7,662.4 716.6,662.4 716.6,483.3 '/>
		<polygon fill = 'rgb( 31, 120, 180)' fill-opacity = '0.250000' points = '716.6,483.3 716.6,662.4 718.5,662.4 718.5,485.7 '/>
		<polygon fill = 'rgb( 31, 120, 180)' fill-opacity = '0.250000' points = '718.5,485.7 718.5,662.4 720.4,662.4 720.4,488.2 '/>
		<polygon fill = 'rgb( 31, 120, 180)' fill-opacity = '0.250000' points = '720.4,488.2 720.4,662.4 722.3,662.4 722.3,490.7 '/>
		<polygon fill = 'rgb( 31, 120, 180)' fill-opacity = '0.250000' points = '722.3,490.7 722.3,662.4 724.2,662.4 724.2,493.2 '/>
		<polygon fill = 'rgb( 31, 120, 180)' fill-opacity = '0.250000' points = '724.2,493.2 724.2,662.4 726.1,662.4 726.1,495.7 '/>
		<polygon fill = 'rgb( 31, 120, 180)' fill-opacity = '0.250000' points = '726.1,495.7 726.1,662.4 728.0,662.4 728.0,498.2 '/>
		<polygon fill = 'rgb( 31, 120, 180)' fill-opacity = '0.250000' points = '728.0,498.2 728.0,662.4 729.9,662.4 729.9,500.8 '/>
		<polygon fill = 'rgb( 31, 120, 180)' fill-opacity = '0.250000' points = '729.9,500.8 729.9,662.4 731.8,662.4 731.8,503.3 '/>
		<polygon fill = 'rgb( 31, 120, 180)' fill-opacity = '0.250000' points = '731.8,503.3 731.8,662.4 733.7,662.4 733.7,505.7 '/>
		<polygon fill = 'rgb( 31, 120, 180)' fill-opacity = '0.250000' points = '733.7,505.7 733.7,662.4 735.6,662.4 735.6,508.2 '/>
		<polygon fill = 'rgb( 31, 120, 180)' fill-opacity = '0.250000' points = '735.6,508.2 735.6,662.4 737.5,662.4 737.5,510.7 '/>
		<polygon fill = 'rgb( 31, 120, 180)' fill-opacity = '0.250000' points = '737.5,510.7 737.5,662.4 739.5,662.4 739.5,513.1 '/>
		<polygon fill = 'rgb( 31, 120, 180)' fill-opacity = '0.250000' points = '739.5,513.1 739.5,662.4 741.4,662.4 741.4,515.4 '/>
		<polygon fill = 'rgb( 31, 120, 180)' fill-opacity = '0.250000' points = '741.4,515.4 741.4,662.4 743.3,662.4 743.3,517.8 '/>
		<polygon fill = 'rgb( 31, 120, 180)' fill-opacity = '0.250000' points = '743.3,517.8 743.3,662.4 745.2,662.4 745.2,520.0 '/>
		<polygon fill = 'rgb( 31, 120, 180)' fill-opacity = '0.250000' points = '745.2,520.0 745.2,662.4 747.1,662.4 747.1,522.3 '/>
		<polygon fill = 'rgb( 31, 120, 180)' fill-opacity = '0.250000' points = '747.1,522.3 747.1,662.4 749.0,662.4 749.0,524.4 '/>
		<polygon fill = 'rgb( 31, 120, 180)' fill-opacity = '0.250000' points = '749.0,524.4 749.0,662.4 750.9,662.4 750.9,526.5 '/>
		<polygon fill = 'rgb( 31, 120, 180)' fill-opacity = '0.250000' points = '750.9,526.5 750.9,662.4 752.8,662.4 752.8,528.6 '/>
		<polygon fill = 'rgb( 31, 120, 180)' fill-opacity = '0.250000' points = '752.8,528.6 752.8,662.4 754.7,662.4 754.7,530.6 '/>
		<polygon fill = 'rgb( 31, 120, 180)' fill-opacity = '0.250000' points = '754.7,530.6 754.7,662.4 756.6,662.4 756.6,532.5 '/>
		<polygon fill = 'rgb( 31, 120, 180)' fill-opacity = '0.250000' points = '756.6,532.5 756.6,662.4 758.5,662.4 758.5,534.4 '/>
		<polygon fill = 'rgb( 31, 120, 180)' fill-opacity = '0.250000' points = '758.5,534.4 758.5,662.4 760.4,662.4 760.4,536.2 '/>
		<polygon fill = 'rgb( 31, 120, 180)' fill-opacity = '0.250000' points = '760.4,536.2 760.4,662.4 762.3,662.4 762.3,537.9 '/>
		<polygon fill = 'rgb( 31, 120, 180)' fill-opacity = '0.250000' points = '762.3,537.9 762.3,662.4 764.2,662.4 764.2,539.6 '/>
		<polygon fill = 'rgb( 31, 120, 180)' fill-opacity = '0.250000' points = '764.2,539.6 764.2,662.4 766.1,662.4 766.1,541.2 '/>
		<polygon fill = 'rgb( 31, 120, 180)' fill-opacity = '0.250000' points = '766.1,541.2 766.1,662.4 768.0,662.4 768.0,542.8 '/>
		<polygon fill = 'rgb( 31, 120, 180)' fill-opacity = '0.250000' points = '768.0,542.8 768.0,662.4 769.9,662.4 769.9,544.3 '/>
		<polygon fill = 'rgb( 31, 120, 180)' fill-opacity = '0.250000' points = '769.9,544.3 769.9,662.4 771.8,662.4 771.8,545.8 '/>
		<polygon fill = 'rgb( 31, 120, 180)' fill-opacity = '0.250000' points = '771.8,545.8 771.8,662.4 773.7,662.4 773.7,547.2 '/>
		<polygon fill = 'rgb( 31, 120, 180)' fill-opacity = '0.250000' points = '773.7,547.2 773.7,662.4 775.6,662.4 775.6,548.6 '/>
		<polygon fill = 'rgb( 31, 120, 180)' fill-opacity = '0.250000' points = '775.6,548.6 775.6,662.4 777.5,662.4 777.5,549.9 '/>
		<polygon fill = 'rgb( 31, 120, 180)' fill-opacity = '0.250000' points = '777.5,549.9 777.5,662.4 779.4,662.4 779.4,551.2 '/>
		<polygon fill = 'rgb( 31, 120, 180)' fill-opacity = '0.250000' points = '779.4,551.2 779.4,662.4 781.3,662.4 781.3,552.4 '/>
		<polygon fill = 'rgb( 31, 120, 180)' fill-opacity = '0.250000' points = '781.3,552.4 781.3,662.4 783.2,662.4 783.2,553.7 '/>
		<polygon fill = 'rgb( 31, 120, 180)' fill-opacity = '0.250000' points = '783.2,553.7 783.2,662.4 785.1,662.4 785.1,554.9 '/>
		<polygon fill = 'rgb( 31, 120, 180)' fill-opacity = '0.250000' points = '785.1,554.9 785.1,662.4 787.0,662.4 787.0,556.0 '/>
		<polygon fill = 'rgb( 31, 120, 180)' fill-opacity = '0.250000' points = '787.0,556.0 787.0,662.4 789.0,662.4 789.0,557.2 '/>
		<polygon fill = 'rgb( 31, 120, 180)' fill-opacity = '0.250000' points = '789.0,557.2 789.0,662.4 790.9,662.4 790.9,558.3 '/>
		<polygon fill = 'rgb( 31, 120, 180)' fill-opacity = '0.250000' points = '790.9,558.3 790.9,662.4 792.8,662.4 792.8,559.4 '/>
		<polygon fill = 'rgb( 31, 120, 180)' fill-opacity = '0.250000' points = '792.8,559.4 792.8,662.4 794.7,662.4 794.7,560.5 '/>
		<polygon fill = 'rgb( 31, 120, 180)' fill-opacity = '0.250000' points = '794.7,560.5 794.7,662.4 796.6,662.4 796.6,561.5 '/>
		<polygon fill = 'rgb( 31, 120, 180)' fill-opacity = '0.250000' points = '796.6,561.5 796.6,662.4 798.5,662.4 798.5,562.6 '/>
		<polygon fill = 'rgb( 31, 120, 180)' fill-opacity = '0.250000' points = '798.5,562.6 798.5,662.4 800.4,662.4 800.4,563.6 '/>
		<polygon fill = 'rgb( 31, 120, 180)' fill-opacity = '0.250000' points = '800.4,563.6 800.4,662.4 802.3,662.4 802.3,564.6 '/>
		<polygon fill = 'rgb( 31, 120, 180)' fill-opacity = '0.250000' points = '802.3,564.6 802.3,662.4 804.2,662.4 804.2,565.6 '/>
		<polygon fill = 'rgb( 31, 120, 180)' fill-opacity = '0.250000' points = '804.2,565.6 804.2,662.4 806.1,662.4 806.1,566.6 '/>
		<polygon fill = 'rgb( 31, 120, 180)' fill-opacity = '0.250000' points = '806.1,566.6 806.1,662.4 808.0,662.4 808.0,567.6 '/>
		<polygon fill = 'rgb( 31, 120, 180)' fill-opacity = '0.250000' points = '808.0,567.6 808.0,662.4 809.9,662.4 809.9,568.5 '/>
		<polygon fill = 'rgb( 31, 120, 180)' fill-opacity = '0.250000' points = '809.9,568.5 809.9,662.4 811.8,662.4 811.8,569.5 '/>
		<polygon fill = 'rgb( 31, 120, 180)' fill-opacity = '0.250000' points = '811.8,569.5 811.8,662.4 813.7,662.4 813.7,570.4 '/>
		<polygon fill = 'rgb( 31, 120, 180)' fill-opacity = '0.250000' points = '813.7,570.4 813.7,662.4 815.6,662.4 815.6,571.4 '/>
		<polygon fill = 'rgb( 31, 120, 180)' fill-opacity = '0.250000' points = '815.6,571.4 815.6,662.4 817.5,662.4 817.5,572.3 '/>
		<polygon fill = 'rgb( 31, 120, 180)' fill-opacity = '0.250000' points = '817.5,572.3 817.5,662.4 819.4,662.4 819.4,573.2 '/>
		<polygon fill = 'rgb( 31, 120, 180)' fill-opacity = '0.250000' points = '819.4,573.2 819.4,662.4 821.3,662.4 821.3,574.0 '/>
		<polygon fill = 'rgb( 31, 120, 180)' fill-opacity = '0.250000' points = '821.3,574.0 821.3,662.4 823.2,662.4 823.2,574.9 '/>
		<polygon fill = 'rgb( 31, 120, 180)' fill-opacity = '0.250000' points = '823.2,574.9 823.2,662.4 825.1,662.4 825.1,575.8 '/>
		<polygon fill = 'rgb( 31, 120, 180)' fill-opacity = '0.250000' points = '825.1,575.8 825.1,662.4 827.0,662.4 827.0,576.7 '/>
		<polygon fill = 'rgb( 31, 120, 180)' fill-opacity = '0.250000' points = '827.0,576.7 827.0,662.4 828.9,662.4 828.9,577.5 '/>
		<polygon fill = 'rgb( 31, 120, 180)' fill-opacity = '0.250000' points = '828.9,577.5 828.9,662.4 830.8,662.4 830.8,578.4 '/>
		<polygon fill = 'rgb( 31, 120, 180)' fill-opacity = '0.250000' points = '830.8,578.4 830.8,662.4 832.7,662.4 832.7,579.3 '/>
		<polygon fill = 'rgb( 31, 120, 180)' fill-opacity = '0.250000' points = '832.7,579.3 832.7,662.4 834.6,662.4 834.6,580.1 '/>
		<polygon fill = 'rgb( 31, 120, 180)' fill-opacity = '0.250000' points = '834.6,580.1 834.6,662.4 836.5,662.4 836.5,581.0 '/>
		<polygon fill = 'rgb( 31, 120, 180)' fill-opacity = '0.250000' points = '836.5,581.0 836.5,662.4 838.4,662.4 838.4,581.9 '/>
		<polygon fill = 'rgb( 31, 120, 180)' fill-opacity = '0.250000' points = '838.4,581.9 838.4,662.4 840.4,662.4 840.4,582.7 '/>
		<polygon fill = 'rgb( 31, 120, 180)' fill-opacity = '0.250000' points = '840.4,582.7 840.4,662.4 842.3,662.4 842.3,583.6 '/>
		<polygon fill = 'rgb( 31, 120, 180)' fill-opacity = '0.250000' points = '842.3,583.6 842.3,662.4 844.2,662.4 844.2,584.5 '/>
		<polygon fill = 'rgb( 31, 120, 180)' fill-opacity = '0.250000' points = '844.2,584.5 844.2,662.4 846.1,662.4 846.1,585.4 '/>
		<polygon fill = 'rgb( 31, 120, 180)' fill-opacity = '0.250000' points = '846.1,585.4 846.1,662.4 848.0,662.4 848.0,586.4 '/>
		<polygon fill = 'rgb( 31, 120, 180)' fill-opacity = '0.250000' points = '848.0,586.4 848.0,662.4 849.9,662.4 849.9,587.3 '/>
		<polygon fill = 'rgb( 31, 120, 180)' fill-opacity = '0.250000' points = '849.9,587.3 849.9,662.4 851.8,662.4 851.8,588.2 '/>
		<polygon fill = 'rgb( 31, 120, 180)' fill-opacity = '0.250000' points = '851.8,588.2 851.8,662.4 853.7,662.4 853.7,589.2 '/>
		<polygon fill = 'rgb( 31, 120, 180)' fill-opacity = '0.250000' points = '853.7,589.2 853.7,662.4 855.6,662.4 855.6,590.2 '/>
		<polygon fill = 'rgb( 31, 120, 180)' fill-opacity = '0.250000' points = '855.6,590.2 855.6,662.4 857.5,662.4 857.5,591.2 '/>
		<polygon fill = 'rgb( 31, 120, 180)' fill-opacity = '0.250000' points = '857.5,591.2 857.5,662.4 859.4,662.4 859.4,592.2 '/>
		<polygon fill = 'rgb( 31, 120, 180)' fill-opacity = '0.250000' points = '859.4,592.2 859.4,662.4 861.3,662.4 861.3,593.2 '/>
		<polygon fill = 'rgb( 31, 120, 180)' fill-opacity = '0.250000' points = '861.3,593.2 861.3,662.4 863.2,662.4 863.2,594.2 '/>
		<polygon fill = 'rgb( 31, 120, 180)' fill-opacity = '0.250000' points = '863.2,594.2 863.2,662.4 865.1,662.4 865.1,595.2 '/>
		<polygon fill = 'rgb( 31, 120, 180)' fill-opacity = '0.250000' points = '865.1,595.2 865.1,662.4 867.0,662.4 867.0,596.2 '/>
		<polygon fill = 'rgb( 31, 120, 180)' fill-opacity = '0.250000' points = '867.0,596.2 867.0,662.4 868.9,662.4 868.9,597.2 '/>
		<polygon fill = 'rgb( 31, 120, 180)' fill-opacity = '0.250000' points = '868.9,597.2 868.9,662.4 870.8,662.4 870.8,598.2 '/>
		<polygon fill = 'rgb( 31, 120, 180)' fill-opacity = '0.250000' points = '870.8,598.2 870.8,662.4 872.7,662.4 872.7,599.2 '/>
		<polygon fill = 'rgb( 31, 120, 180)' fill-opacity = '0.250000' points = '872.7,599.2 872.7,662.4 874.6,662.4 874.6,600.2 '/>
		<polygon fill = 'rgb( 31, 120, 180)' fill-opacity = '0.250000' points = '874.6,600.2 874.6,662.4 876.5,662.4 876.5,601.2 '/>
		<polygon fill = 'rgb( 31, 120, 180)' fill-opacity = '0.250000' points = '876.5,601.2 876.5,662.4 878.4,662.4 878.4,602.1 '/>
		<polygon fill = 'rgb( 31, 120, 180)' fill-opacity = '0.250000' points = '878.4,602.1 878.4,662.4 880.3,662.4 880.3,603.1 '/>
		<polygon fill = 'rgb( 31, 120, 180)' fill-opacity = '0.250000' points = '880.3,603.1 880.3,662.4 882.2,662.4 882.2,604.0 '/>
		<polygon fill = 'rgb( 31, 120, 180)' fill-opacity = '0.250000' points = '882.2,604.0 882.2,662.4 884.1,662.4 884.1,604.9 '/>
		<polygon fill = 'rgb( 31, 120, 180)' fill-opacity = '0.250000' points = '884.1,604.9 884.1,662.4 886.0,662.4 886.0,605.8 '/>
		<polygon fill = 'rgb( 31, 120, 180)' fill-opacity = '0.250000' points = '886.0,605.8 886.0,662.4 887.9,662.4 887.9,606.6 '/>
		<polygon fill = 'rgb( 31, 120, 180)' fill-opacity = '0.250000' points = '887.9,606.6 887.9,662.4 889.9,662.4 889.9,607.5 '/>
		<polygon fill = 'rgb( 31, 120, 180)' fill-opacity = '0.250000' points = '889.9,607.5 889.9,662.4 891.8,662.4 891.8,608.3 '/>
		<polygon fill = 'rgb( 31, 120, 180)' fill-opacity = '0.250000' points = '891.8,608.3 891.8,662.4 893.7,662.4 893.7,609.1 '/>
		<polygon fill = 'rgb( 31, 120, 180)' fill-opacity = '0.250000' points = '893.7,609.1 893.7,662.4 895.6,662.4 895.6,609.8 '/>
		<polygon fill = 'rgb( 31, 120, 180)' fill-opacity = '0.250000' points = '895.6,609.8 895.6,662.4 897.5,662.4 897.5,610.6 '/>
		<polygon fill = 'rgb( 31, 120, 180)' fill-opacity = '0.250000' points = '897.5,610.6 897.5,662.4 899.4,662.4 899.4,611.3 '/>
		<polygon fill = 'rgb( 31, 120, 180)' fill-opacity = '0.250000' points = '899.4,611.3 899.4,662.4 901.3,662.4 901.3,611.9 '/>
		<polygon fill = 'rgb( 31, 120, 180)' fill-opacity = '0.250000' points = '901.3,611.9 901.3,662.4 903.2,662.4 903.2,612.6 '/>
		<polygon fill = 'rgb( 31, 120, 180)' fill-opacity = '0.250000' points = '903.2,612.6 903.2,662.4 905.1,662.4 905.1,613.2 '/>
		<polygon fill = 'rgb( 31, 120, 180)' fill-opacity = '0.250000' points = '905.1,613.2 905.1,662.4 907.0,662.4 907.0,613.8 '/>
		<polygon fill = 'rgb( 31, 120, 180)' fill-opacity = '0.250000' points = '907.0,613.8 907.0,662.4 908.9,662.4 908.9,614.4 '/>
		<polygon fill = 'rgb( 31, 120, 180)' fill-opacity = '0.250000' points = '908.9,614.4 908.9,662.4 910.8,662.4 910.8,615.0 '/>
		<polygon fill = 'rgb( 31, 120, 180)' fill-opacity = '0.250000' points = '910.8,615.0 910.8,662.4 912.7,662.4 912.7,615.5 '/>
		<polygon fill = 'rgb( 31, 120, 180)' fill-opacity = '0.250000' points = '912.7,615.5 912.7,662.4 914.6,662.4 914.6,616.1 '/>
		<polygon fill = 'rgb( 31, 120, 180)' fill-opacity = '0.250000' points = '914.6,616.1 914.6,662.4 916.5,662.4 916.5,616.6 '/>
		<polygon fill = 'rgb( 31, 120, 180)' fill-opacity = '0.250000' points = '916.5,616.6 916.5,662.4 918.4,662.4 918.4,617.1 '/>
		<polygon fill = 'rgb( 31, 120, 180)' fill-opacity = '0.250000' points = '918.4,617.1 918.4,662.4 920.3,662.4 920.3,617.6 '/>
		<polygon fill = 'rgb( 31, 120, 180)' fill-opacity = '0.250000' points = '920.3,617.6 920.3,662.4 922.2,662.4 922.2,618.1 '/>
		<polygon fill = 'rgb( 31, 120, 180)' fill-opacity = '0.250000' points = '922.2,618.1 922.2,662.4 924.1,662.4 924.1,618.5 '/>
	</g>
</g>
	</g>
	<g id="gnuplot_plot_3" ><title>Point estimate</title>
<g fill="none" color="white" stroke="rgb( 31, 120, 180)" stroke-width="2.00" stroke-linecap="butt" stroke-linejoin="miter">
</g>
<g fill="none" color="black" stroke="currentColor" stroke-width="2.00" stroke-linecap="butt" stroke-linejoin="miter">
	<g transform="translate(1089.0,103.0)" stroke="none" fill="black" font-family="Helvetica" font-size="12.00"  text-anchor="start">
		<text><tspan font-family="Helvetica" >Point estimate</tspan></text>
	</g>
</g>
<g fill="none" color="black" stroke="currentColor" stroke-width="2.00" stroke-linecap="butt" stroke-linejoin="miter">
	<path stroke='rgb( 31, 120, 180)'  d='M1038.5,99.1 L1080.7,99.1 M472.9,662.4 L472.9,144.7  '/></g>
	</g>
<g fill="none" color="black" stroke="currentColor" stroke-width="2.00" stroke-linecap="butt" stroke-linejoin="miter">
</g>
<g fill="none" color="black" stroke="black" stroke-width="1.00" stroke-linecap="butt" stroke-linejoin="miter">
</g>
<g fill="none" color="black" stroke="currentColor" stroke-width="1.00" stroke-linecap="butt" stroke-linejoin="miter">
	<path stroke='black'  d='M63.6,54.1 L63.6,662.4 L1013.6,662.4 L1013.6,54.1 L63.6,54.1 Z  '/></g>
<g fill="none" color="black" stroke="currentColor" stroke-width="1.00" stroke-linecap="butt" stroke-linejoin="miter">
</g>
</g>
</svg>

