<?xml version="1.0" encoding="utf-8"  standalone="no"?>
<svg 
 viewBox="0 0 1280 720"
 xmlns="http://www.w3.org/2000/svg"
 xmlns:xlink="http://www.w3.org/1999/xlink"
>

<title>Gnuplot</title>
<desc>Produced by GNUPLOT 5.0 patchlevel 6 </desc>

<g id="gnuplot_canvas">

<rect x="0" y="0" width="1280" height="720" fill="none"/>
<defs>

	<circle id='gpDot' r='0.5' stroke-width='0.5'/>
	<path id='gpPt0' stroke-width='0.222' stroke='currentColor' d='M-1,0 h2 M0,-1 v2'/>
	<path id='gpPt1' stroke-width='0.222' stroke='currentColor' d='M-1,-1 L1,1 M1,-1 L-1,1'/>
	<path id='gpPt2' stroke-width='0.222' stroke='currentColor' d='M-1,0 L1,0 M0,-1 L0,1 M-1,-1 L1,1 M-1,1 L1,-1'/>
	<rect id='gpPt3' stroke-width='0.222' stroke='currentColor' x='-1' y='-1' width='2' height='2'/>
	<rect id='gpPt4' stroke-width='0.222' stroke='currentColor' fill='currentColor' x='-1' y='-1' width='2' height='2'/>
	<circle id='gpPt5' stroke-width='0.222' stroke='currentColor' cx='0' cy='0' r='1'/>
	<use xlink:href='#gpPt5' id='gpPt6' fill='currentColor' stroke='none'/>
	<path id='gpPt7' stroke-width='0.222' stroke='currentColor' d='M0,-1.33 L-1.33,0.67 L1.33,0.67 z'/>
	<use xlink:href='#gpPt7' id='gpPt8' fill='currentColor' stroke='none'/>
	<use xlink:href='#gpPt7' id='gpPt9' stroke='currentColor' transform='rotate(180)'/>
	<use xlink:href='#gpPt9' id='gpPt10' fill='currentColor' stroke='none'/>
	<use xlink:href='#gpPt3' id='gpPt11' stroke='currentColor' transform='rotate(45)'/>
	<use xlink:href='#gpPt11' id='gpPt12' fill='currentColor' stroke='none'/>
	<path id='gpPt13' stroke-width='0.222' stroke='currentColor' d='M0,1.330 L1.265,0.411 L0.782,-1.067 L-0.782,-1.076 L-1.265,0.411 z'/>
	<use xlink:href='#gpPt13' id='gpPt14' fill='currentColor' stroke='none'/>
	<filter id='textbox' filterUnits='objectBoundingBox' x='0' y='0' height='1' width='1'>
	  <feFlood flood-color='white' flood-opacity='1' result='bgnd'/>
	  <feComposite in='SourceGraphic' in2='bgnd' operator='atop'/>
	</filter>
	<filter id='greybox' filterUnits='objectBoundingBox' x='0' y='0' height='1' width='1'>
	  <feFlood flood-color='lightgrey' flood-opacity='1' result='grey'/>
	  <feComposite in='SourceGraphic' in2='grey' operator='atop'/>
	</filter>
</defs>
<g fill="none" color="white" stroke="currentColor" stroke-width="1.00" stroke-linecap="butt" stroke-linejoin="miter">
</g>
<g fill="none" color="black" stroke="currentColor" stroke-width="1.00" stroke-linecap="butt" stroke-linejoin="miter">
	<path stroke='black'  d='M71.9,662.4 L80.9,662.4  '/>	<g transform="translate(63.6,666.3)" stroke="none" fill="black" font-family="Helvetica" font-size="12.00"  text-anchor="end">
		<text><tspan font-family="Helvetica" > 0</tspan></text>
	</g>
</g>
<g fill="none" color="black" stroke="currentColor" stroke-width="1.00" stroke-linecap="butt" stroke-linejoin="miter">
	<path stroke='black'  d='M71.9,594.8 L80.9,594.8  '/>	<g transform="translate(63.6,598.7)" stroke="none" fill="black" font-family="Helvetica" font-size="12.00"  text-anchor="end">
		<text><tspan font-family="Helvetica" > 20</tspan></text>
	</g>
</g>
<g fill="none" color="black" stroke="currentColor" stroke-width="1.00" stroke-linecap="butt" stroke-linejoin="miter">
	<path stroke='black'  d='M71.9,527.2 L80.9,527.2  '/>	<g transform="translate(63.6,531.1)" stroke="none" fill="black" font-family="Helvetica" font-size="12.00"  text-anchor="end">
		<text><tspan font-family="Helvetica" > 40</tspan></text>
	</g>
</g>
<g fill="none" color="black" stroke="currentColor" stroke-width="1.00" stroke-linecap="butt" stroke-linejoin="miter">
	<path stroke='black'  d='M71.9,459.6 L80.9,459.6  '/>	<g transform="translate(63.6,463.5)" stroke="none" fill="black" font-family="Helvetica" font-size="12.00"  text-anchor="end">
		<text><tspan font-family="Helvetica" > 60</tspan></text>
	</g>
</g>
<g fill="none" color="black" stroke="currentColor" stroke-width="1.00" stroke-linecap="butt" stroke-linejoin="miter">
	<path stroke='black'  d='M71.9,392.0 L80.9,392.0  '/>	<g transform="translate(63.6,395.9)" stroke="none" fill="black" font-family="Helvetica" font-size="12.00"  text-anchor="end">
		<text><tspan font-family="Helvetica" > 80</tspan></text>
	</g>
</g>
<g fill="none" color="black" stroke="currentColor" stroke-width="1.00" stroke-linecap="butt" stroke-linejoin="miter">
	<path stroke='black'  d='M71.9,324.5 L80.9,324.5  '/>	<g transform="translate(63.6,328.4)" stroke="none" fill="black" font-family="Helvetica" font-size="12.00"  text-anchor="end">
		<text><tspan font-family="Helvetica" > 100</tspan></text>
	</g>
</g>
<g fill="none" color="black" stroke="currentColor" stroke-width="1.00" stroke-linecap="butt" stroke-linejoin="miter">
	<path stroke='black'  d='M71.9,256.9 L80.9,256.9  '/>	<g transform="translate(63.6,260.8)" stroke="none" fill="black" font-family="Helvetica" font-size="12.00"  text-anchor="end">
		<text><tspan font-family="Helvetica" > 120</tspan></text>
	</g>
</g>
<g fill="none" color="black" stroke="currentColor" stroke-width="1.00" stroke-linecap="butt" stroke-linejoin="miter">
	<path stroke='black'  d='M71.9,189.3 L80.9,189.3  '/>	<g transform="translate(63.6,193.2)" stroke="none" fill="black" font-family="Helvetica" font-size="12.00"  text-anchor="end">
		<text><tspan font-family="Helvetica" > 140</tspan></text>
	</g>
</g>
<g fill="none" color="black" stroke="currentColor" stroke-width="1.00" stroke-linecap="butt" stroke-linejoin="miter">
	<path stroke='black'  d='M71.9,121.7 L80.9,121.7  '/>	<g transform="translate(63.6,125.6)" stroke="none" fill="black" font-family="Helvetica" font-size="12.00"  text-anchor="end">
		<text><tspan font-family="Helvetica" > 160</tspan></text>
	</g>
</g>
<g fill="none" color="black" stroke="currentColor" stroke-width="1.00" stroke-linecap="butt" stroke-linejoin="miter">
	<path stroke='black'  d='M71.9,54.1 L80.9,54.1  '/>	<g transform="translate(63.6,58.0)" stroke="none" fill="black" font-family="Helvetica" font-size="12.00"  text-anchor="end">
		<text><tspan font-family="Helvetica" > 180</tspan></text>
	</g>
</g>
<g fill="none" color="black" stroke="currentColor" stroke-width="1.00" stroke-linecap="butt" stroke-linejoin="miter">
	<path stroke='black'  d='M102.7,662.4 L102.7,653.4  '/>	<g transform="translate(102.7,684.3)" stroke="none" fill="black" font-family="Helvetica" font-size="12.00"  text-anchor="middle">
		<text><tspan font-family="Helvetica" >-5.8</tspan></text>
	</g>
</g>
<g fill="none" color="black" stroke="currentColor" stroke-width="1.00" stroke-linecap="butt" stroke-linejoin="miter">
	<path stroke='black'  d='M269.1,662.4 L269.1,653.4  '/>	<g transform="translate(269.1,684.3)" stroke="none" fill="black" font-family="Helvetica" font-size="12.00"  text-anchor="middle">
		<text><tspan font-family="Helvetica" >-5.6</tspan></text>
	</g>
</g>
<g fill="none" color="black" stroke="currentColor" stroke-width="1.00" stroke-linecap="butt" stroke-linejoin="miter">
	<path stroke='black'  d='M435.4,662.4 L435.4,653.4  '/>	<g transform="translate(435.4,684.3)" stroke="none" fill="black" font-family="Helvetica" font-size="12.00"  text-anchor="middle">
		<text><tspan font-family="Helvetica" >-5.4</tspan></text>
	</g>
</g>
<g fill="none" color="black" stroke="currentColor" stroke-width="1.00" stroke-linecap="butt" stroke-linejoin="miter">
	<path stroke='black'  d='M601.7,662.4 L601.7,653.4  '/>	<g transform="translate(601.7,684.3)" stroke="none" fill="black" font-family="Helvetica" font-size="12.00"  text-anchor="middle">
		<text><tspan font-family="Helvetica" >-5.2</tspan></text>
	</g>
</g>
<g fill="none" color="black" stroke="currentColor" stroke-width="1.00" stroke-linecap="butt" stroke-linejoin="miter">
	<path stroke='black'  d='M768.1,662.4 L768.1,653.4  '/>	<g transform="translate(768.1,684.3)" stroke="none" fill="black" font-family="Helvetica" font-size="12.00"  text-anchor="middle">
		<text><tspan font-family="Helvetica" >-5</tspan></text>
	</g>
</g>
<g fill="none" color="black" stroke="currentColor" stroke-width="1.00" stroke-linecap="butt" stroke-linejoin="miter">
	<path stroke='black'  d='M934.4,662.4 L934.4,653.4  '/>	<g transform="translate(934.4,684.3)" stroke="none" fill="black" font-family="Helvetica" font-size="12.00"  text-anchor="middle">
		<text><tspan font-family="Helvetica" >-4.8</tspan></text>
	</g>
</g>
<g fill="none" color="black" stroke="currentColor" stroke-width="1.00" stroke-linecap="butt" stroke-linejoin="miter">
</g>
<g fill="none" color="black" stroke="currentColor" stroke-width="1.00" stroke-linecap="butt" stroke-linejoin="miter">
	<path stroke='black'  d='M71.9,54.1 L71.9,662.4 L1013.6,662.4 L1013.6,54.1 L71.9,54.1 Z  '/></g>
<g fill="none" color="black" stroke="currentColor" stroke-width="1.00" stroke-linecap="butt" stroke-linejoin="miter">
	<g transform="translate(17.0,358.3) rotate(270)" stroke="none" fill="black" font-family="Helvetica" font-size="12.00"  text-anchor="middle">
		<text><tspan font-family="Helvetica" >Density (a.u.)</tspan></text>
	</g>
</g>
<g fill="none" color="black" stroke="currentColor" stroke-width="1.00" stroke-linecap="butt" stroke-linejoin="miter">
	<g transform="translate(542.7,711.3)" stroke="none" fill="black" font-family="Helvetica" font-size="12.00"  text-anchor="middle">
		<text><tspan font-family="Helvetica" >Relative change (%)</tspan></text>
	</g>
</g>
<g fill="none" color="black" stroke="currentColor" stroke-width="1.00" stroke-linecap="butt" stroke-linejoin="miter">
	<g transform="translate(542.7,31.0)" stroke="none" fill="black" font-family="Helvetica" font-size="12.00"  text-anchor="middle">
		<text><tspan font-family="Helvetica" >language: cpp/parse error: c/examples/malloc.c: mean</tspan></text>
	</g>
</g>
	<g id="gnuplot_plot_1" ><title>Bootstrap distribution</title>
<g fill="none" color="white" stroke="black" stroke-width="2.00" stroke-linecap="butt" stroke-linejoin="miter">
</g>
<g fill="none" color="black" stroke="currentColor" stroke-width="2.00" stroke-linecap="butt" stroke-linejoin="miter">
	<g transform="translate(1089.0,67.0)" stroke="none" fill="black" font-family="Helvetica" font-size="12.00"  text-anchor="start">
		<text><tspan font-family="Helvetica" >Bootstrap distribution</tspan></text>
	</g>
</g>
<g fill="none" color="black" stroke="currentColor" stroke-width="2.00" stroke-linecap="butt" stroke-linejoin="miter">
	<path stroke='rgb( 31, 120, 180)'  d='M1038.5,63.1 L1080.7,63.1 M71.9,629.9 L73.8,629.2 L75.7,628.4 L77.6,627.7 L79.4,627.0 L81.3,626.2
		L83.2,625.4 L85.1,624.7 L87.0,623.9 L88.9,623.1 L90.8,622.3 L92.7,621.5 L94.5,620.7 L96.4,619.9
		L98.3,619.1 L100.2,618.3 L102.1,617.5 L104.0,616.6 L105.9,615.7 L107.8,614.8 L109.6,613.9 L111.5,613.0
		L113.4,612.1 L115.3,611.1 L117.2,610.1 L119.1,609.1 L121.0,608.1 L122.9,607.0 L124.7,605.9 L126.6,604.9
		L128.5,603.8 L130.4,602.6 L132.3,601.5 L134.2,600.4 L136.1,599.2 L138.0,598.1 L139.8,596.9 L141.7,595.7
		L143.6,594.6 L145.5,593.4 L147.4,592.2 L149.3,591.0 L151.2,589.8 L153.0,588.6 L154.9,587.3 L156.8,586.1
		L158.7,584.8 L160.6,583.5 L162.5,582.1 L164.4,580.8 L166.3,579.4 L168.1,577.9 L170.0,576.4 L171.9,574.9
		L173.8,573.4 L175.7,571.8 L177.6,570.2 L179.5,568.6 L181.4,566.9 L183.2,565.2 L185.1,563.5 L187.0,561.8
		L188.9,560.0 L190.8,558.3 L192.7,556.5 L194.6,554.7 L196.5,552.9 L198.3,551.1 L200.2,549.3 L202.1,547.5
		L204.0,545.7 L205.9,543.8 L207.8,542.0 L209.7,540.2 L211.6,538.3 L213.4,536.4 L215.3,534.6 L217.2,532.7
		L219.1,530.7 L221.0,528.8 L222.9,526.8 L224.8,524.7 L226.6,522.7 L228.5,520.5 L230.4,518.4 L232.3,516.2
		L234.2,513.9 L236.1,511.6 L238.0,509.3 L239.9,506.9 L241.7,504.5 L243.6,502.1 L245.5,499.6 L247.4,497.1
		L249.3,494.5 L251.2,492.0 L253.1,489.4 L255.0,486.8 L256.8,484.2 L258.7,481.7 L260.6,479.1 L262.5,476.5
		L264.4,473.9 L266.3,471.4 L268.2,468.9 L270.1,466.3 L271.9,463.8 L273.8,461.3 L275.7,458.8 L277.6,456.3
		L279.5,453.9 L281.4,451.4 L283.3,448.9 L285.2,446.5 L287.0,444.0 L288.9,441.5 L290.8,439.1 L292.7,436.6
		L294.6,434.1 L296.5,431.6 L298.4,429.1 L300.2,426.6 L302.1,424.1 L304.0,421.5 L305.9,418.9 L307.8,416.4
		L309.7,413.7 L311.6,411.1 L313.5,408.4 L315.3,405.7 L317.2,403.0 L319.1,400.3 L321.0,397.5 L322.9,394.7
		L324.8,391.9 L326.7,389.0 L328.6,386.1 L330.4,383.2 L332.3,380.2 L334.2,377.2 L336.1,374.2 L338.0,371.1
		L339.9,368.1 L341.8,364.9 L343.7,361.8 L345.5,358.6 L347.4,355.4 L349.3,352.2 L351.2,349.0 L353.1,345.7
		L355.0,342.4 L356.9,339.1 L358.8,335.8 L360.6,332.5 L362.5,329.2 L364.4,325.9 L366.3,322.6 L368.2,319.3
		L370.1,316.0 L372.0,312.7 L373.8,309.4 L375.7,306.1 L377.6,302.8 L379.5,299.6 L381.4,296.4 L383.3,293.2
		L385.2,290.0 L387.1,286.8 L388.9,283.8 L390.8,280.7 L392.7,277.7 L394.6,274.8 L396.5,271.9 L398.4,269.1
		L400.3,266.3 L402.2,263.7 L404.0,261.0 L405.9,258.5 L407.8,256.0 L409.7,253.6 L411.6,251.3 L413.5,248.9
		L415.4,246.7 L417.3,244.4 L419.1,242.2 L421.0,240.0 L422.9,237.8 L424.8,235.5 L426.7,233.2 L428.6,230.9
		L430.5,228.6 L432.4,226.1 L434.2,223.6 L436.1,221.1 L438.0,218.4 L439.9,215.7 L441.8,212.9 L443.7,210.1
		L445.6,207.2 L447.4,204.3 L449.3,201.3 L451.2,198.3 L453.1,195.3 L455.0,192.2 L456.9,189.2 L458.8,186.3
		L460.7,183.3 L462.5,180.4 L464.4,177.6 L466.3,174.8 L468.2,172.0 L470.1,169.4 L472.0,166.8 L473.9,164.2
		L475.8,161.7 L477.6,159.2 L479.5,156.7 L481.4,154.3 L483.3,151.9 L485.2,149.6 L487.1,147.2 L489.0,144.9
		L490.9,142.5 L492.7,140.2 L494.6,137.9 L496.5,135.6 L498.4,133.3 L500.3,131.0 L502.2,128.8 L504.1,126.6
		L506.0,124.5 L507.8,122.4 L509.7,120.4 L511.6,118.5 L513.5,116.7 L515.4,114.9 L517.3,113.3 L519.2,111.7
		L521.0,110.3 L522.9,108.9 L524.8,107.7 L526.7,106.5 L528.6,105.5 L530.5,104.6 L532.4,103.7 L534.3,103.0
		L536.1,102.3 L538.0,101.7 L539.9,101.2 L541.8,100.7 L543.7,100.3 L545.6,99.9 L547.5,99.6 L549.4,99.2
		L551.2,98.9 L553.1,98.7 L555.0,98.4 L556.9,98.2 L558.8,97.9 L560.7,97.7 L562.6,97.5 L564.5,97.3
		L566.3,97.2 L568.2,97.1 L570.1,97.0 L572.0,97.0 L573.9,97.0 L575.8,97.1 L577.7,97.3 L579.5,97.6
		L581.4,97.9 L583.3,98.3 L585.2,98.8 L587.1,99.4 L589.0,100.1 L590.9,100.8 L592.8,101.7 L594.6,102.6
		L596.5,103.5 L598.4,104.5 L600.3,105.6 L602.2,106.7 L604.1,107.9 L606.0,109.0 L607.9,110.2 L609.7,111.4
		L611.6,112.7 L613.5,113.9 L615.4,115.1 L617.3,116.4 L619.2,117.6 L621.1,118.9 L623.0,120.2 L624.8,121.5
		L626.7,122.8 L628.6,124.1 L630.5,125.4 L632.4,126.8 L634.3,128.2 L636.2,129.7 L638.1,131.2 L639.9,132.7
		L641.8,134.3 L643.7,135.9 L645.6,137.6 L647.5,139.4 L649.4,141.2 L651.3,143.0 L653.1,145.0 L655.0,146.9
		L656.9,148.9 L658.8,151.0 L660.7,153.1 L662.6,155.2 L664.5,157.3 L666.4,159.5 L668.2,161.7 L670.1,163.9
		L672.0,166.0 L673.9,168.2 L675.8,170.4 L677.7,172.6 L679.6,174.7 L681.5,176.9 L683.3,179.1 L685.2,181.3
		L687.1,183.5 L689.0,185.7 L690.9,188.0 L692.8,190.3 L694.7,192.7 L696.6,195.2 L698.4,197.7 L700.3,200.3
		L702.2,203.0 L704.1,205.9 L706.0,208.8 L707.9,211.8 L709.8,214.9 L711.7,218.1 L713.5,221.4 L715.4,224.7
		L717.3,228.2 L719.2,231.7 L721.1,235.2 L723.0,238.8 L724.9,242.4 L726.7,246.0 L728.6,249.7 L730.5,253.3
		L732.4,256.9 L734.3,260.5 L736.2,264.1 L738.1,267.6 L740.0,271.1 L741.8,274.6 L743.7,278.0 L745.6,281.4
		L747.5,284.8 L749.4,288.1 L751.3,291.4 L753.2,294.7 L755.1,297.9 L756.9,301.2 L758.8,304.4 L760.7,307.7
		L762.6,310.9 L764.5,314.2 L766.4,317.4 L768.3,320.7 L770.2,324.0 L772.0,327.3 L773.9,330.6 L775.8,334.0
		L777.7,337.3 L779.6,340.7 L781.5,344.2 L783.4,347.6 L785.3,351.1 L787.1,354.7 L789.0,358.2 L790.9,361.7
		L792.8,365.3 L794.7,368.9 L796.6,372.5 L798.5,376.0 L800.3,379.6 L802.2,383.1 L804.1,386.7 L806.0,390.2
		L807.9,393.6 L809.8,397.1 L811.7,400.5 L813.6,403.8 L815.4,407.1 L817.3,410.4 L819.2,413.6 L821.1,416.8
		L823.0,419.9 L824.9,423.0 L826.8,426.1 L828.7,429.1 L830.5,432.0 L832.4,435.0 L834.3,437.8 L836.2,440.7
		L838.1,443.6 L840.0,446.4 L841.9,449.2 L843.8,452.0 L845.6,454.8 L847.5,457.5 L849.4,460.3 L851.3,463.1
		L853.2,465.9 L855.1,468.7 L857.0,471.6 L858.9,474.4 L860.7,477.3 L862.6,480.2 L864.5,483.1 L866.4,486.1
		L868.3,489.1 L870.2,492.1 L872.1,495.1 L873.9,498.2 L875.8,501.3 L877.7,504.3 L879.6,507.4 L881.5,510.5
		L883.4,513.5 L885.3,516.6 L887.2,519.5 L889.0,522.5 L890.9,525.4 L892.8,528.2 L894.7,531.0 L896.6,533.7
		L898.5,536.4 L900.4,538.9 L902.3,541.4 L904.1,543.8 L906.0,546.1 L907.9,548.3 L909.8,550.5 L911.7,552.6
		L913.6,554.6 L915.5,556.6 L917.4,558.5 L919.2,560.4 L921.1,562.2 L923.0,564.0 L924.9,565.8 L926.8,567.5
		L928.7,569.2 L930.6,570.9 L932.5,572.6 L934.3,574.3 L936.2,575.9 L938.1,577.6 L940.0,579.2 L941.9,580.8
		L943.8,582.4 L945.7,584.0 L947.5,585.6 L949.4,587.1 L951.3,588.7 L953.2,590.2 L955.1,591.7 L957.0,593.1
		L958.9,594.6 L960.8,596.0 L962.6,597.4 L964.5,598.8 L966.4,600.1 L968.3,601.4 L970.2,602.7 L972.1,604.0
		L974.0,605.3 L975.9,606.5 L977.7,607.8 L979.6,609.0 L981.5,610.1 L983.4,611.3 L985.3,612.5 L987.2,613.6
		L989.1,614.7 L991.0,615.8 L992.8,616.8 L994.7,617.9 L996.6,618.9 L998.5,619.9 L1000.4,620.9 L1002.3,621.9
		L1004.2,622.8 L1006.1,623.8 L1007.9,624.7 L1009.8,625.6 L1011.7,626.5 L1013.6,627.4  '/></g>
	</g>
	<g id="gnuplot_plot_2" ><title>Confidence interval</title>
<g fill="none" color="white" stroke="rgb( 31, 120, 180)" stroke-width="1.00" stroke-linecap="butt" stroke-linejoin="miter">
</g>
<g fill="none" color="black" stroke="currentColor" stroke-width="1.00" stroke-linecap="butt" stroke-linejoin="miter">
	<g transform="translate(1089.0,85.0)" stroke="none" fill="black" font-family="Helvetica" font-size="12.00"  text-anchor="start">
		<text><tspan font-family="Helvetica" >Confidence interval</tspan></text>
	</g>
</g>
<g fill="none" color="black" stroke="currentColor" stroke-width="1.00" stroke-linecap="butt" stroke-linejoin="miter">
	<g stroke='none' shape-rendering='crispEdges'>
		<polygon fill = 'rgb( 31, 120, 180)' fill-opacity = '0.250000' points = '1038.5,85.6 1080.7,85.6 1080.7,76.6 1038.5,76.6 '/>
		<polygon fill = 'rgb( 31, 120, 180)' fill-opacity = '0.250000' points = '158.7,584.8 158.7,662.4 160.6,662.4 160.6,583.5 '/>
		<polygon fill = 'rgb( 31, 120, 180)' fill-opacity = '0.250000' points = '160.6,583.5 160.6,662.4 162.5,662.4 162.5,582.1 '/>
		<polygon fill = 'rgb( 31, 120, 180)' fill-opacity = '0.250000' points = '162.5,582.1 162.5,662.4 164.4,662.4 164.4,580.8 '/>
		<polygon fill = 'rgb( 31, 120, 180)' fill-opacity = '0.250000' points = '164.4,580.8 164.4,662.4 166.3,662.4 166.3,579.4 '/>
		<polygon fill = 'rgb( 31, 120, 180)' fill-opacity = '0.250000' points = '166.3,579.4 166.3,662.4 168.1,662.4 168.1,577.9 '/>
		<polygon fill = 'rgb( 31, 120, 180)' fill-opacity = '0.250000' points = '168.1,577.9 168.1,662.4 170.0,662.4 170.0,576.4 '/>
		<polygon fill = 'rgb( 31, 120, 180)' fill-opacity = '0.250000' points = '170.0,576.4 170.0,662.4 171.9,662.4 171.9,574.9 '/>
		<polygon fill = 'rgb( 31, 120, 180)' fill-opacity = '0.250000' points = '171.9,574.9 171.9,662.4 173.8,662.4 173.8,573.4 '/>
		<polygon fill = 'rgb( 31, 120, 180)' fill-opacity = '0.250000' points = '173.8,573.4 173.8,662.4 175.7,662.4 175.7,571.8 '/>
		<polygon fill = 'rgb( 31, 120, 180)' fill-opacity = '0.250000' points = '175.7,571.8 175.7,662.4 177.6,662.4 177.6,570.2 '/>
		<polygon fill = 'rgb( 31, 120, 180)' fill-opacity = '0.250000' points = '177.6,570.2 177.6,662.4 179.5,662.4 179.5,568.6 '/>
		<polygon fill = 'rgb( 31, 120, 180)' fill-opacity = '0.250000' points = '179.5,568.6 179.5,662.4 181.4,662.4 181.4,566.9 '/>
		<polygon fill = 'rgb( 31, 120, 180)' fill-opacity = '0.250000' points = '181.4,566.9 181.4,662.4 183.2,662.4 183.2,565.2 '/>
		<polygon fill = 'rgb( 31, 120, 180)' fill-opacity = '0.250000' points = '183.2,565.2 183.2,662.4 185.1,662.4 185.1,563.5 '/>
		<polygon fill = 'rgb( 31, 120, 180)' fill-opacity = '0.250000' points = '185.1,563.5 185.1,662.4 187.0,662.4 187.0,561.8 '/>
		<polygon fill = 'rgb( 31, 120, 180)' fill-opacity = '0.250000' points = '187.0,561.8 187.0,662.4 188.9,662.4 188.9,560.0 '/>
		<polygon fill = 'rgb( 31, 120, 180)' fill-opacity = '0.250000' points = '188.9,560.0 188.9,662.4 190.8,662.4 190.8,558.3 '/>
		<polygon fill = 'rgb( 31, 120, 180)' fill-opacity = '0.250000' points = '190.8,558.3 190.8,662.4 192.7,662.4 192.7,556.5 '/>
		<polygon fill = 'rgb( 31, 120, 180)' fill-opacity = '0.250000' points = '192.7,556.5 192.7,662.4 194.6,662.4 194.6,554.7 '/>
		<polygon fill = 'rgb( 31, 120, 180)' fill-opacity = '0.250000' points = '194.6,554.7 194.6,662.4 196.5,662.4 196.5,552.9 '/>
		<polygon fill = 'rgb( 31, 120, 180)' fill-opacity = '0.250000' points = '196.5,552.9 196.5,662.4 198.3,662.4 198.3,551.1 '/>
		<polygon fill = 'rgb( 31, 120, 180)' fill-opacity = '0.250000' points = '198.3,551.1 198.3,662.4 200.2,662.4 200.2,549.3 '/>
		<polygon fill = 'rgb( 31, 120, 180)' fill-opacity = '0.250000' points = '200.2,549.3 200.2,662.4 202.1,662.4 202.1,547.5 '/>
		<polygon fill = 'rgb( 31, 120, 180)' fill-opacity = '0.250000' points = '202.1,547.5 202.1,662.4 204.0,662.4 204.0,545.7 '/>
		<polygon fill = 'rgb( 31, 120, 180)' fill-opacity = '0.250000' points = '204.0,545.7 204.0,662.4 205.9,662.4 205.9,543.8 '/>
		<polygon fill = 'rgb( 31, 120, 180)' fill-opacity = '0.250000' points = '205.9,543.8 205.9,662.4 207.8,662.4 207.8,542.0 '/>
		<polygon fill = 'rgb( 31, 120, 180)' fill-opacity = '0.250000' points = '207.8,542.0 207.8,662.4 209.7,662.4 209.7,540.2 '/>
		<polygon fill = 'rgb( 31, 120, 180)' fill-opacity = '0.250000' points = '209.7,540.2 209.7,662.4 211.6,662.4 211.6,538.3 '/>
		<polygon fill = 'rgb( 31, 120, 180)' fill-opacity = '0.250000' points = '211.6,538.3 211.6,662.4 213.4,662.4 213.4,536.4 '/>
		<polygon fill = 'rgb( 31, 120, 180)' fill-opacity = '0.250000' points = '213.4,536.4 213.4,662.4 215.3,662.4 215.3,534.6 '/>
		<polygon fill = 'rgb( 31, 120, 180)' fill-opacity = '0.250000' points = '215.3,534.6 215.3,662.4 217.2,662.4 217.2,532.7 '/>
		<polygon fill = 'rgb( 31, 120, 180)' fill-opacity = '0.250000' points = '217.2,532.7 217.2,662.4 219.1,662.4 219.1,530.7 '/>
		<polygon fill = 'rgb( 31, 120, 180)' fill-opacity = '0.250000' points = '219.1,530.7 219.1,662.4 221.0,662.4 221.0,528.8 '/>
		<polygon fill = 'rgb( 31, 120, 180)' fill-opacity = '0.250000' points = '221.0,528.8 221.0,662.4 222.9,662.4 222.9,526.8 '/>
		<polygon fill = 'rgb( 31, 120, 180)' fill-opacity = '0.250000' points = '222.9,526.8 222.9,662.4 224.8,662.4 224.8,524.7 '/>
		<polygon fill = 'rgb( 31, 120, 180)' fill-opacity = '0.250000' points = '224.8,524.7 224.8,662.4 226.6,662.4 226.6,522.7 '/>
		<polygon fill = 'rgb( 31, 120, 180)' fill-opacity = '0.250000' points = '226.6,522.7 226.6,662.4 228.5,662.4 228.5,520.5 '/>
		<polygon fill = 'rgb( 31, 120, 180)' fill-opacity = '0.250000' points = '228.5,520.5 228.5,662.4 230.4,662.4 230.4,518.4 '/>
		<polygon fill = 'rgb( 31, 120, 180)' fill-opacity = '0.250000' points = '230.4,518.4 230.4,662.4 232.3,662.4 232.3,516.2 '/>
		<polygon fill = 'rgb( 31, 120, 180)' fill-opacity = '0.250000' points = '232.3,516.2 232.3,662.4 234.2,662.4 234.2,513.9 '/>
		<polygon fill = 'rgb( 31, 120, 180)' fill-opacity = '0.250000' points = '234.2,513.9 234.2,662.4 236.1,662.4 236.1,511.6 '/>
		<polygon fill = 'rgb( 31, 120, 180)' fill-opacity = '0.250000' points = '236.1,511.6 236.1,662.4 238.0,662.4 238.0,509.3 '/>
		<polygon fill = 'rgb( 31, 120, 180)' fill-opacity = '0.250000' points = '238.0,509.3 238.0,662.4 239.9,662.4 239.9,506.9 '/>
		<polygon fill = 'rgb( 31, 120, 180)' fill-opacity = '0.250000' points = '239.9,506.9 239.9,662.4 241.7,662.4 241.7,504.5 '/>
		<polygon fill = 'rgb( 31, 120, 180)' fill-opacity = '0.250000' points = '241.7,504.5 241.7,662.4 243.6,662.4 243.6,502.1 '/>
		<polygon fill = 'rgb( 31, 120, 180)' fill-opacity = '0.250000' points = '243.6,502.1 243.6,662.4 245.5,662.4 245.5,499.6 '/>
		<polygon fill = 'rgb( 31, 120, 180)' fill-opacity = '0.250000' points = '245.5,499.6 245.5,662.4 247.4,662.4 247.4,497.1 '/>
		<polygon fill = 'rgb( 31, 120, 180)' fill-opacity = '0.250000' points = '247.4,497.1 247.4,662.4 249.3,662.4 249.3,494.5 '/>
		<polygon fill = 'rgb( 31, 120, 180)' fill-opacity = '0.250000' points = '249.3,494.5 249.3,662.4 251.2,662.4 251.2,492.0 '/>
		<polygon fill = 'rgb( 31, 120, 180)' fill-opacity = '0.250000' points = '251.2,492.0 251.2,662.4 253.1,662.4 253.1,489.4 '/>
		<polygon fill = 'rgb( 31, 120, 180)' fill-opacity = '0.250000' points = '253.1,489.4 253.1,662.4 255.0,662.4 255.0,486.8 '/>
		<polygon fill = 'rgb( 31, 120, 180)' fill-opacity = '0.250000' points = '255.0,486.8 255.0,662.4 256.8,662.4 256.8,484.2 '/>
		<polygon fill = 'rgb( 31, 120, 180)' fill-opacity = '0.250000' points = '256.8,484.2 256.8,662.4 258.7,662.4 258.7,481.7 '/>
		<polygon fill = 'rgb( 31, 120, 180)' fill-opacity = '0.250000' points = '258.7,481.7 258.7,662.4 260.6,662.4 260.6,479.1 '/>
		<polygon fill = 'rgb( 31, 120, 180)' fill-opacity = '0.250000' points = '260.6,479.1 260.6,662.4 262.5,662.4 262.5,476.5 '/>
		<polygon fill = 'rgb( 31, 120, 180)' fill-opacity = '0.250000' points = '262.5,476.5 262.5,662.4 264.4,662.4 264.4,473.9 '/>
		<polygon fill = 'rgb( 31, 120, 180)' fill-opacity = '0.250000' points = '264.4,473.9 264.4,662.4 266.3,662.4 266.3,471.4 '/>
		<polygon fill = 'rgb( 31, 120, 180)' fill-opacity = '0.250000' points = '266.3,471.4 266.3,662.4 268.2,662.4 268.2,468.9 '/>
		<polygon fill = 'rgb( 31, 120, 180)' fill-opacity = '0.250000' points = '268.2,468.9 268.2,662.4 270.1,662.4 270.1,466.3 '/>
		<polygon fill = 'rgb( 31, 120, 180)' fill-opacity = '0.250000' points = '270.1,466.3 270.1,662.4 271.9,662.4 271.9,463.8 '/>
		<polygon fill = 'rgb( 31, 120, 180)' fill-opacity = '0.250000' points = '271.9,463.8 271.9,662.4 273.8,662.4 273.8,461.3 '/>
		<polygon fill = 'rgb( 31, 120, 180)' fill-opacity = '0.250000' points = '273.8,461.3 273.8,662.4 275.7,662.4 275.7,458.8 '/>
		<polygon fill = 'rgb( 31, 120, 180)' fill-opacity = '0.250000' points = '275.7,458.8 275.7,662.4 277.6,662.4 277.6,456.3 '/>
		<polygon fill = 'rgb( 31, 120, 180)' fill-opacity = '0.250000' points = '277.6,456.3 277.6,662.4 279.5,662.4 279.5,453.9 '/>
		<polygon fill = 'rgb( 31, 120, 180)' fill-opacity = '0.250000' points = '279.5,453.9 279.5,662.4 281.4,662.4 281.4,451.4 '/>
		<polygon fill = 'rgb( 31, 120, 180)' fill-opacity = '0.250000' points = '281.4,451.4 281.4,662.4 283.3,662.4 283.3,448.9 '/>
		<polygon fill = 'rgb( 31, 120, 180)' fill-opacity = '0.250000' points = '283.3,448.9 283.3,662.4 285.2,662.4 285.2,446.5 '/>
		<polygon fill = 'rgb( 31, 120, 180)' fill-opacity = '0.250000' points = '285.2,446.5 285.2,662.4 287.0,662.4 287.0,444.0 '/>
		<polygon fill = 'rgb( 31, 120, 180)' fill-opacity = '0.250000' points = '287.0,444.0 287.0,662.4 288.9,662.4 288.9,441.5 '/>
		<polygon fill = 'rgb( 31, 120, 180)' fill-opacity = '0.250000' points = '288.9,441.5 288.9,662.4 290.8,662.4 290.8,439.1 '/>
		<polygon fill = 'rgb( 31, 120, 180)' fill-opacity = '0.250000' points = '290.8,439.1 290.8,662.4 292.7,662.4 292.7,436.6 '/>
		<polygon fill = 'rgb( 31, 120, 180)' fill-opacity = '0.250000' points = '292.7,436.6 292.7,662.4 294.6,662.4 294.6,434.1 '/>
		<polygon fill = 'rgb( 31, 120, 180)' fill-opacity = '0.250000' points = '294.6,434.1 294.6,662.4 296.5,662.4 296.5,431.6 '/>
		<polygon fill = 'rgb( 31, 120, 180)' fill-opacity = '0.250000' points = '296.5,431.6 296.5,662.4 298.4,662.4 298.4,429.1 '/>
		<polygon fill = 'rgb( 31, 120, 180)' fill-opacity = '0.250000' points = '298.4,429.1 298.4,662.4 300.2,662.4 300.2,426.6 '/>
		<polygon fill = 'rgb( 31, 120, 180)' fill-opacity = '0.250000' points = '300.2,426.6 300.2,662.4 302.1,662.4 302.1,424.1 '/>
		<polygon fill = 'rgb( 31, 120, 180)' fill-opacity = '0.250000' points = '302.1,424.1 302.1,662.4 304.0,662.4 304.0,421.5 '/>
		<polygon fill = 'rgb( 31, 120, 180)' fill-opacity = '0.250000' points = '304.0,421.5 304.0,662.4 305.9,662.4 305.9,418.9 '/>
		<polygon fill = 'rgb( 31, 120, 180)' fill-opacity = '0.250000' points = '305.9,418.9 305.9,662.4 307.8,662.4 307.8,416.4 '/>
		<polygon fill = 'rgb( 31, 120, 180)' fill-opacity = '0.250000' points = '307.8,416.4 307.8,662.4 309.7,662.4 309.7,413.7 '/>
		<polygon fill = 'rgb( 31, 120, 180)' fill-opacity = '0.250000' points = '309.7,413.7 309.7,662.4 311.6,662.4 311.6,411.1 '/>
		<polygon fill = 'rgb( 31, 120, 180)' fill-opacity = '0.250000' points = '311.6,411.1 311.6,662.4 313.5,662.4 313.5,408.4 '/>
		<polygon fill = 'rgb( 31, 120, 180)' fill-opacity = '0.250000' points = '313.5,408.4 313.5,662.4 315.3,662.4 315.3,405.7 '/>
		<polygon fill = 'rgb( 31, 120, 180)' fill-opacity = '0.250000' points = '315.3,405.7 315.3,662.4 317.2,662.4 317.2,403.0 '/>
		<polygon fill = 'rgb( 31, 120, 180)' fill-opacity = '0.250000' points = '317.2,403.0 317.2,662.4 319.1,662.4 319.1,400.3 '/>
		<polygon fill = 'rgb( 31, 120, 180)' fill-opacity = '0.250000' points = '319.1,400.3 319.1,662.4 321.0,662.4 321.0,397.5 '/>
		<polygon fill = 'rgb( 31, 120, 180)' fill-opacity = '0.250000' points = '321.0,397.5 321.0,662.4 322.9,662.4 322.9,394.7 '/>
		<polygon fill = 'rgb( 31, 120, 180)' fill-opacity = '0.250000' points = '322.9,394.7 322.9,662.4 324.8,662.4 324.8,391.9 '/>
		<polygon fill = 'rgb( 31, 120, 180)' fill-opacity = '0.250000' points = '324.8,391.9 324.8,662.4 326.7,662.4 326.7,389.0 '/>
		<polygon fill = 'rgb( 31, 120, 180)' fill-opacity = '0.250000' points = '326.7,389.0 326.7,662.4 328.6,662.4 328.6,386.1 '/>
		<polygon fill = 'rgb( 31, 120, 180)' fill-opacity = '0.250000' points = '328.6,386.1 328.6,662.4 330.4,662.4 330.4,383.2 '/>
		<polygon fill = 'rgb( 31, 120, 180)' fill-opacity = '0.250000' points = '330.4,383.2 330.4,662.4 332.3,662.4 332.3,380.2 '/>
		<polygon fill = 'rgb( 31, 120, 180)' fill-opacity = '0.250000' points = '332.3,380.2 332.3,662.4 334.2,662.4 334.2,377.2 '/>
		<polygon fill = 'rgb( 31, 120, 180)' fill-opacity = '0.250000' points = '334.2,377.2 334.2,662.4 336.1,662.4 336.1,374.2 '/>
		<polygon fill = 'rgb( 31, 120, 180)' fill-opacity = '0.250000' points = '336.1,374.2 336.1,662.4 338.0,662.4 338.0,371.1 '/>
		<polygon fill = 'rgb( 31, 120, 180)' fill-opacity = '0.250000' points = '338.0,371.1 338.0,662.4 339.9,662.4 339.9,368.1 '/>
		<polygon fill = 'rgb( 31, 120, 180)' fill-opacity = '0.250000' points = '339.9,368.1 339.9,662.4 341.8,662.4 341.8,364.9 '/>
		<polygon fill = 'rgb( 31, 120, 180)' fill-opacity = '0.250000' points = '341.8,364.9 341.8,662.4 343.7,662.4 343.7,361.8 '/>
		<polygon fill = 'rgb( 31, 120, 180)' fill-opacity = '0.250000' points = '343.7,361.8 343.7,662.4 345.5,662.4 345.5,358.6 '/>
		<polygon fill = 'rgb( 31, 120, 180)' fill-opacity = '0.250000' points = '345.5,358.6 345.5,662.4 347.4,662.4 347.4,355.4 '/>
		<polygon fill = 'rgb( 31, 120, 180)' fill-opacity = '0.250000' points = '347.4,355.4 347.4,662.4 349.3,662.4 349.3,352.2 '/>
		<polygon fill = 'rgb( 31, 120, 180)' fill-opacity = '0.250000' points = '349.3,352.2 349.3,662.4 351.2,662.4 351.2,349.0 '/>
		<polygon fill = 'rgb( 31, 120, 180)' fill-opacity = '0.250000' points = '351.2,349.0 351.2,662.4 353.1,662.4 353.1,345.7 '/>
		<polygon fill = 'rgb( 31, 120, 180)' fill-opacity = '0.250000' points = '353.1,345.7 353.1,662.4 355.0,662.4 355.0,342.4 '/>
		<polygon fill = 'rgb( 31, 120, 180)' fill-opacity = '0.250000' points = '355.0,342.4 355.0,662.4 356.9,662.4 356.9,339.1 '/>
		<polygon fill = 'rgb( 31, 120, 180)' fill-opacity = '0.250000' points = '356.9,339.1 356.9,662.4 358.8,662.4 358.8,335.8 '/>
		<polygon fill = 'rgb( 31, 120, 180)' fill-opacity = '0.250000' points = '358.8,335.8 358.8,662.4 360.6,662.4 360.6,332.5 '/>
		<polygon fill = 'rgb( 31, 120, 180)' fill-opacity = '0.250000' points = '360.6,332.5 360.6,662.4 362.5,662.4 362.5,329.2 '/>
		<polygon fill = 'rgb( 31, 120, 180)' fill-opacity = '0.250000' points = '362.5,329.2 362.5,662.4 364.4,662.4 364.4,325.9 '/>
		<polygon fill = 'rgb( 31, 120, 180)' fill-opacity = '0.250000' points = '364.4,325.9 364.4,662.4 366.3,662.4 366.3,322.6 '/>
		<polygon fill = 'rgb( 31, 120, 180)' fill-opacity = '0.250000' points = '366.3,322.6 366.3,662.4 368.2,662.4 368.2,319.3 '/>
		<polygon fill = 'rgb( 31, 120, 180)' fill-opacity = '0.250000' points = '368.2,319.3 368.2,662.4 370.1,662.4 370.1,316.0 '/>
		<polygon fill = 'rgb( 31, 120, 180)' fill-opacity = '0.250000' points = '370.1,316.0 370.1,662.4 372.0,662.4 372.0,312.7 '/>
		<polygon fill = 'rgb( 31, 120, 180)' fill-opacity = '0.250000' points = '372.0,312.7 372.0,662.4 373.8,662.4 373.8,309.4 '/>
		<polygon fill = 'rgb( 31, 120, 180)' fill-opacity = '0.250000' points = '373.8,309.4 373.8,662.4 375.7,662.4 375.7,306.1 '/>
		<polygon fill = 'rgb( 31, 120, 180)' fill-opacity = '0.250000' points = '375.7,306.1 375.7,662.4 377.6,662.4 377.6,302.8 '/>
		<polygon fill = 'rgb( 31, 120, 180)' fill-opacity = '0.250000' points = '377.6,302.8 377.6,662.4 379.5,662.4 379.5,299.6 '/>
		<polygon fill = 'rgb( 31, 120, 180)' fill-opacity = '0.250000' points = '379.5,299.6 379.5,662.4 381.4,662.4 381.4,296.4 '/>
		<polygon fill = 'rgb( 31, 120, 180)' fill-opacity = '0.250000' points = '381.4,296.4 381.4,662.4 383.3,662.4 383.3,293.2 '/>
		<polygon fill = 'rgb( 31, 120, 180)' fill-opacity = '0.250000' points = '383.3,293.2 383.3,662.4 385.2,662.4 385.2,290.0 '/>
		<polygon fill = 'rgb( 31, 120, 180)' fill-opacity = '0.250000' points = '385.2,290.0 385.2,662.4 387.1,662.4 387.1,286.8 '/>
		<polygon fill = 'rgb( 31, 120, 180)' fill-opacity = '0.250000' points = '387.1,286.8 387.1,662.4 388.9,662.4 388.9,283.8 '/>
		<polygon fill = 'rgb( 31, 120, 180)' fill-opacity = '0.250000' points = '388.9,283.8 388.9,662.4 390.8,662.4 390.8,280.7 '/>
		<polygon fill = 'rgb( 31, 120, 180)' fill-opacity = '0.250000' points = '390.8,280.7 390.8,662.4 392.7,662.4 392.7,277.7 '/>
		<polygon fill = 'rgb( 31, 120, 180)' fill-opacity = '0.250000' points = '392.7,277.7 392.7,662.4 394.6,662.4 394.6,274.8 '/>
		<polygon fill = 'rgb( 31, 120, 180)' fill-opacity = '0.250000' points = '394.6,274.8 394.6,662.4 396.5,662.4 396.5,271.9 '/>
		<polygon fill = 'rgb( 31, 120, 180)' fill-opacity = '0.250000' points = '396.5,271.9 396.5,662.4 398.4,662.4 398.4,269.1 '/>
		<polygon fill = 'rgb( 31, 120, 180)' fill-opacity = '0.250000' points = '398.4,269.1 398.4,662.4 400.3,662.4 400.3,266.3 '/>
		<polygon fill = 'rgb( 31, 120, 180)' fill-opacity = '0.250000' points = '400.3,266.3 400.3,662.4 402.2,662.4 402.2,263.7 '/>
		<polygon fill = 'rgb( 31, 120, 180)' fill-opacity = '0.250000' points = '402.2,263.7 402.2,662.4 404.0,662.4 404.0,261.0 '/>
		<polygon fill = 'rgb( 31, 120, 180)' fill-opacity = '0.250000' points = '404.0,261.0 404.0,662.4 405.9,662.4 405.9,258.5 '/>
		<polygon fill = 'rgb( 31, 120, 180)' fill-opacity = '0.250000' points = '405.9,258.5 405.9,662.4 407.8,662.4 407.8,256.0 '/>
		<polygon fill = 'rgb( 31, 120, 180)' fill-opacity = '0.250000' points = '407.8,256.0 407.8,662.4 409.7,662.4 409.7,253.6 '/>
		<polygon fill = 'rgb( 31, 120, 180)' fill-opacity = '0.250000' points = '409.7,253.6 409.7,662.4 411.6,662.4 411.6,251.3 '/>
		<polygon fill = 'rgb( 31, 120, 180)' fill-opacity = '0.250000' points = '411.6,251.3 411.6,662.4 413.5,662.4 413.5,248.9 '/>
		<polygon fill = 'rgb( 31, 120, 180)' fill-opacity = '0.250000' points = '413.5,248.9 413.5,662.4 415.4,662.4 415.4,246.7 '/>
		<polygon fill = 'rgb( 31, 120, 180)' fill-opacity = '0.250000' points = '415.4,246.7 415.4,662.4 417.3,662.4 417.3,244.4 '/>
		<polygon fill = 'rgb( 31, 120, 180)' fill-opacity = '0.250000' points = '417.3,244.4 417.3,662.4 419.1,662.4 419.1,242.2 '/>
		<polygon fill = 'rgb( 31, 120, 180)' fill-opacity = '0.250000' points = '419.1,242.2 419.1,662.4 421.0,662.4 421.0,240.0 '/>
		<polygon fill = 'rgb( 31, 120, 180)' fill-opacity = '0.250000' points = '421.0,240.0 421.0,662.4 422.9,662.4 422.9,237.8 '/>
		<polygon fill = 'rgb( 31, 120, 180)' fill-opacity = '0.250000' points = '422.9,237.8 422.9,662.4 424.8,662.4 424.8,235.5 '/>
		<polygon fill = 'rgb( 31, 120, 180)' fill-opacity = '0.250000' points = '424.8,235.5 424.8,662.4 426.7,662.4 426.7,233.2 '/>
		<polygon fill = 'rgb( 31, 120, 180)' fill-opacity = '0.250000' points = '426.7,233.2 426.7,662.4 428.6,662.4 428.6,230.9 '/>
		<polygon fill = 'rgb( 31, 120, 180)' fill-opacity = '0.250000' points = '428.6,230.9 428.6,662.4 430.5,662.4 430.5,228.6 '/>
		<polygon fill = 'rgb( 31, 120, 180)' fill-opacity = '0.250000' points = '430.5,228.6 430.5,662.4 432.4,662.4 432.4,226.1 '/>
		<polygon fill = 'rgb( 31, 120, 180)' fill-opacity = '0.250000' points = '432.4,226.1 432.4,662.4 434.2,662.4 434.2,223.6 '/>
		<polygon fill = 'rgb( 31, 120, 180)' fill-opacity = '0.250000' points = '434.2,223.6 434.2,662.4 436.1,662.4 436.1,221.1 '/>
		<polygon fill = 'rgb( 31, 120, 180)' fill-opacity = '0.250000' points = '436.1,221.1 436.1,662.4 438.0,662.4 438.0,218.4 '/>
		<polygon fill = 'rgb( 31, 120, 180)' fill-opacity = '0.250000' points = '438.0,218.4 438.0,662.4 439.9,662.4 439.9,215.7 '/>
		<polygon fill = 'rgb( 31, 120, 180)' fill-opacity = '0.250000' points = '439.9,215.7 439.9,662.4 441.8,662.4 441.8,212.9 '/>
		<polygon fill = 'rgb( 31, 120, 180)' fill-opacity = '0.250000' points = '441.8,212.9 441.8,662.4 443.7,662.4 443.7,210.1 '/>
		<polygon fill = 'rgb( 31, 120, 180)' fill-opacity = '0.250000' points = '443.7,210.1 443.7,662.4 445.6,662.4 445.6,207.2 '/>
		<polygon fill = 'rgb( 31, 120, 180)' fill-opacity = '0.250000' points = '445.6,207.2 445.6,662.4 447.4,662.4 447.4,204.3 '/>
		<polygon fill = 'rgb( 31, 120, 180)' fill-opacity = '0.250000' points = '447.4,204.3 447.4,662.4 449.3,662.4 449.3,201.3 '/>
		<polygon fill = 'rgb( 31, 120, 180)' fill-opacity = '0.250000' points = '449.3,201.3 449.3,662.4 451.2,662.4 451.2,198.3 '/>
		<polygon fill = 'rgb( 31, 120, 180)' fill-opacity = '0.250000' points = '451.2,198.3 451.2,662.4 453.1,662.4 453.1,195.3 '/>
		<polygon fill = 'rgb( 31, 120, 180)' fill-opacity = '0.250000' points = '453.1,195.3 453.1,662.4 455.0,662.4 455.0,192.2 '/>
		<polygon fill = 'rgb( 31, 120, 180)' fill-opacity = '0.250000' points = '455.0,192.2 455.0,662.4 456.9,662.4 456.9,189.2 '/>
		<polygon fill = 'rgb( 31, 120, 180)' fill-opacity = '0.250000' points = '456.9,189.2 456.9,662.4 458.8,662.4 458.8,186.3 '/>
		<polygon fill = 'rgb( 31, 120, 180)' fill-opacity = '0.250000' points = '458.8,186.3 458.8,662.4 460.7,662.4 460.7,183.3 '/>
		<polygon fill = 'rgb( 31, 120, 180)' fill-opacity = '0.250000' points = '460.7,183.3 460.7,662.4 462.5,662.4 462.5,180.4 '/>
		<polygon fill = 'rgb( 31, 120, 180)' fill-opacity = '0.250000' points = '462.5,180.4 462.5,662.4 464.4,662.4 464.4,177.6 '/>
		<polygon fill = 'rgb( 31, 120, 180)' fill-opacity = '0.250000' points = '464.4,177.6 464.4,662.4 466.3,662.4 466.3,174.8 '/>
		<polygon fill = 'rgb( 31, 120, 180)' fill-opacity = '0.250000' points = '466.3,174.8 466.3,662.4 468.2,662.4 468.2,172.0 '/>
		<polygon fill = 'rgb( 31, 120, 180)' fill-opacity = '0.250000' points = '468.2,172.0 468.2,662.4 470.1,662.4 470.1,169.4 '/>
		<polygon fill = 'rgb( 31, 120, 180)' fill-opacity = '0.250000' points = '470.1,169.4 470.1,662.4 472.0,662.4 472.0,166.8 '/>
		<polygon fill = 'rgb( 31, 120, 180)' fill-opacity = '0.250000' points = '472.0,166.8 472.0,662.4 473.9,662.4 473.9,164.2 '/>
		<polygon fill = 'rgb( 31, 120, 180)' fill-opacity = '0.250000' points = '473.9,164.2 473.9,662.4 475.8,662.4 475.8,161.7 '/>
		<polygon fill = 'rgb( 31, 120, 180)' fill-opacity = '0.250000' points = '475.8,161.7 475.8,662.4 477.6,662.4 477.6,159.2 '/>
		<polygon fill = 'rgb( 31, 120, 180)' fill-opacity = '0.250000' points = '477.6,159.2 477.6,662.4 479.5,662.4 479.5,156.7 '/>
		<polygon fill = 'rgb( 31, 120, 180)' fill-opacity = '0.250000' points = '479.5,156.7 479.5,662.4 481.4,662.4 481.4,154.3 '/>
		<polygon fill = 'rgb( 31, 120, 180)' fill-opacity = '0.250000' points = '481.4,154.3 481.4,662.4 483.3,662.4 483.3,151.9 '/>
		<polygon fill = 'rgb( 31, 120, 180)' fill-opacity = '0.250000' points = '483.3,151.9 483.3,662.4 485.2,662.4 485.2,149.6 '/>
		<polygon fill = 'rgb( 31, 120, 180)' fill-opacity = '0.250000' points = '485.2,149.6 485.2,662.4 487.1,662.4 487.1,147.2 '/>
		<polygon fill = 'rgb( 31, 120, 180)' fill-opacity = '0.250000' points = '487.1,147.2 487.1,662.4 489.0,662.4 489.0,144.9 '/>
		<polygon fill = 'rgb( 31, 120, 180)' fill-opacity = '0.250000' points = '489.0,144.9 489.0,662.4 490.9,662.4 490.9,142.5 '/>
		<polygon fill = 'rgb( 31, 120, 180)' fill-opacity = '0.250000' points = '490.9,142.5 490.9,662.4 492.7,662.4 492.7,140.2 '/>
		<polygon fill = 'rgb( 31, 120, 180)' fill-opacity = '0.250000' points = '492.7,140.2 492.7,662.4 494.6,662.4 494.6,137.9 '/>
		<polygon fill = 'rgb( 31, 120, 180)' fill-opacity = '0.250000' points = '494.6,137.9 494.6,662.4 496.5,662.4 496.5,135.6 '/>
		<polygon fill = 'rgb( 31, 120, 180)' fill-opacity = '0.250000' points = '496.5,135.6 496.5,662.4 498.4,662.4 498.4,133.3 '/>
		<polygon fill = 'rgb( 31, 120, 180)' fill-opacity = '0.250000' points = '498.4,133.3 498.4,662.4 500.3,662.4 500.3,131.0 '/>
		<polygon fill = 'rgb( 31, 120, 180)' fill-opacity = '0.250000' points = '500.3,131.0 500.3,662.4 502.2,662.4 502.2,128.8 '/>
		<polygon fill = 'rgb( 31, 120, 180)' fill-opacity = '0.250000' points = '502.2,128.8 502.2,662.4 504.1,662.4 504.1,126.6 '/>
		<polygon fill = 'rgb( 31, 120, 180)' fill-opacity = '0.250000' points = '504.1,126.6 504.1,662.4 506.0,662.4 506.0,124.5 '/>
		<polygon fill = 'rgb( 31, 120, 180)' fill-opacity = '0.250000' points = '506.0,124.5 506.0,662.4 507.8,662.4 507.8,122.4 '/>
		<polygon fill = 'rgb( 31, 120, 180)' fill-opacity = '0.250000' points = '507.8,122.4 507.8,662.4 509.7,662.4 509.7,120.4 '/>
		<polygon fill = 'rgb( 31, 120, 180)' fill-opacity = '0.250000' points = '509.7,120.4 509.7,662.4 511.6,662.4 511.6,118.5 '/>
		<polygon fill = 'rgb( 31, 120, 180)' fill-opacity = '0.250000' points = '511.6,118.5 511.6,662.4 513.5,662.4 513.5,116.7 '/>
		<polygon fill = 'rgb( 31, 120, 180)' fill-opacity = '0.250000' points = '513.5,116.7 513.5,662.4 515.4,662.4 515.4,114.9 '/>
		<polygon fill = 'rgb( 31, 120, 180)' fill-opacity = '0.250000' points = '515.4,114.9 515.4,662.4 517.3,662.4 517.3,113.3 '/>
		<polygon fill = 'rgb( 31, 120, 180)' fill-opacity = '0.250000' points = '517.3,113.3 517.3,662.4 519.2,662.4 519.2,111.7 '/>
		<polygon fill = 'rgb( 31, 120, 180)' fill-opacity = '0.250000' points = '519.2,111.7 519.2,662.4 521.0,662.4 521.0,110.3 '/>
		<polygon fill = 'rgb( 31, 120, 180)' fill-opacity = '0.250000' points = '521.0,110.3 521.0,662.4 522.9,662.4 522.9,108.9 '/>
		<polygon fill = 'rgb( 31, 120, 180)' fill-opacity = '0.250000' points = '522.9,108.9 522.9,662.4 524.8,662.4 524.8,107.7 '/>
		<polygon fill = 'rgb( 31, 120, 180)' fill-opacity = '0.250000' points = '524.8,107.7 524.8,662.4 526.7,662.4 526.7,106.5 '/>
		<polygon fill = 'rgb( 31, 120, 180)' fill-opacity = '0.250000' points = '526.7,106.5 526.7,662.4 528.6,662.4 528.6,105.5 '/>
		<polygon fill = 'rgb( 31, 120, 180)' fill-opacity = '0.250000' points = '528.6,105.5 528.6,662.4 530.5,662.4 530.5,104.6 '/>
		<polygon fill = 'rgb( 31, 120, 180)' fill-opacity = '0.250000' points = '530.5,104.6 530.5,662.4 532.4,662.4 532.4,103.7 '/>
		<polygon fill = 'rgb( 31, 120, 180)' fill-opacity = '0.250000' points = '532.4,103.7 532.4,662.4 534.3,662.4 534.3,103.0 '/>
		<polygon fill = 'rgb( 31, 120, 180)' fill-opacity = '0.250000' points = '534.3,103.0 534.3,662.4 536.1,662.4 536.1,102.3 '/>
		<polygon fill = 'rgb( 31, 120, 180)' fill-opacity = '0.250000' points = '536.1,102.3 536.1,662.4 538.0,662.4 538.0,101.7 '/>
		<polygon fill = 'rgb( 31, 120, 180)' fill-opacity = '0.250000' points = '538.0,101.7 538.0,662.4 539.9,662.4 539.9,101.2 '/>
		<polygon fill = 'rgb( 31, 120, 180)' fill-opacity = '0.250000' points = '539.9,101.2 539.9,662.4 541.8,662.4 541.8,100.7 '/>
		<polygon fill = 'rgb( 31, 120, 180)' fill-opacity = '0.250000' points = '541.8,100.7 541.8,662.4 543.7,662.4 543.7,100.3 '/>
		<polygon fill = 'rgb( 31, 120, 180)' fill-opacity = '0.250000' points = '543.7,100.3 543.7,662.4 545.6,662.4 545.6,99.9 '/>
		<polygon fill = 'rgb( 31, 120, 180)' fill-opacity = '0.250000' points = '545.6,99.9 545.6,662.4 547.5,662.4 547.5,99.6 '/>
		<polygon fill = 'rgb( 31, 120, 180)' fill-opacity = '0.250000' points = '547.5,99.6 547.5,662.4 549.4,662.4 549.4,99.2 '/>
		<polygon fill = 'rgb( 31, 120, 180)' fill-opacity = '0.250000' points = '549.4,99.2 549.4,662.4 551.2,662.4 551.2,98.9 '/>
		<polygon fill = 'rgb( 31, 120, 180)' fill-opacity = '0.250000' points = '551.2,98.9 551.2,662.4 553.1,662.4 553.1,98.7 '/>
		<polygon fill = 'rgb( 31, 120, 180)' fill-opacity = '0.250000' points = '553.1,98.7 553.1,662.4 555.0,662.4 555.0,98.4 '/>
		<polygon fill = 'rgb( 31, 120, 180)' fill-opacity = '0.250000' points = '555.0,98.4 555.0,662.4 556.9,662.4 556.9,98.2 '/>
		<polygon fill = 'rgb( 31, 120, 180)' fill-opacity = '0.250000' points = '556.9,98.2 556.9,662.4 558.8,662.4 558.8,97.9 '/>
		<polygon fill = 'rgb( 31, 120, 180)' fill-opacity = '0.250000' points = '558.8,97.9 558.8,662.4 560.7,662.4 560.7,97.7 '/>
		<polygon fill = 'rgb( 31, 120, 180)' fill-opacity = '0.250000' points = '560.7,97.7 560.7,662.4 562.6,662.4 562.6,97.5 '/>
		<polygon fill = 'rgb( 31, 120, 180)' fill-opacity = '0.250000' points = '562.6,97.5 562.6,662.4 564.5,662.4 564.5,97.3 '/>
		<polygon fill = 'rgb( 31, 120, 180)' fill-opacity = '0.250000' points = '564.5,97.3 564.5,662.4 566.3,662.4 566.3,97.2 '/>
		<polygon fill = 'rgb( 31, 120, 180)' fill-opacity = '0.250000' points = '566.3,97.2 566.3,662.4 568.2,662.4 568.2,97.1 '/>
		<polygon fill = 'rgb( 31, 120, 180)' fill-opacity = '0.250000' points = '568.2,97.1 568.2,662.4 570.1,662.4 570.1,97.0 '/>
		<polygon fill = 'rgb( 31, 120, 180)' fill-opacity = '0.250000' points = '570.1,97.0 570.1,662.4 572.0,662.4 572.0,97.0 '/>
		<polygon fill = 'rgb( 31, 120, 180)' fill-opacity = '0.250000' points = '572.0,97.0 572.0,662.4 573.9,662.4 573.9,97.0 '/>
		<polygon fill = 'rgb( 31, 120, 180)' fill-opacity = '0.250000' points = '573.9,97.0 573.9,662.4 575.8,662.4 575.8,97.1 '/>
		<polygon fill = 'rgb( 31, 120, 180)' fill-opacity = '0.250000' points = '575.8,97.1 575.8,662.4 577.7,662.4 577.7,97.3 '/>
		<polygon fill = 'rgb( 31, 120, 180)' fill-opacity = '0.250000' points = '577.7,97.3 577.7,662.4 579.5,662.4 579.5,97.6 '/>
		<polygon fill = 'rgb( 31, 120, 180)' fill-opacity = '0.250000' points = '579.5,97.6 579.5,662.4 581.4,662.4 581.4,97.9 '/>
		<polygon fill = 'rgb( 31, 120, 180)' fill-opacity = '0.250000' points = '581.4,97.9 581.4,662.4 583.3,662.4 583.3,98.3 '/>
		<polygon fill = 'rgb( 31, 120, 180)' fill-opacity = '0.250000' points = '583.3,98.3 583.3,662.4 585.2,662.4 585.2,98.8 '/>
		<polygon fill = 'rgb( 31, 120, 180)' fill-opacity = '0.250000' points = '585.2,98.8 585.2,662.4 587.1,662.4 587.1,99.4 '/>
		<polygon fill = 'rgb( 31, 120, 180)' fill-opacity = '0.250000' points = '587.1,99.4 587.1,662.4 589.0,662.4 589.0,100.1 '/>
		<polygon fill = 'rgb( 31, 120, 180)' fill-opacity = '0.250000' points = '589.0,100.1 589.0,662.4 590.9,662.4 590.9,100.8 '/>
		<polygon fill = 'rgb( 31, 120, 180)' fill-opacity = '0.250000' points = '590.9,100.8 590.9,662.4 592.8,662.4 592.8,101.7 '/>
		<polygon fill = 'rgb( 31, 120, 180)' fill-opacity = '0.250000' points = '592.8,101.7 592.8,662.4 594.6,662.4 594.6,102.6 '/>
		<polygon fill = 'rgb( 31, 120, 180)' fill-opacity = '0.250000' points = '594.6,102.6 594.6,662.4 596.5,662.4 596.5,103.5 '/>
		<polygon fill = 'rgb( 31, 120, 180)' fill-opacity = '0.250000' points = '596.5,103.5 596.5,662.4 598.4,662.4 598.4,104.5 '/>
		<polygon fill = 'rgb( 31, 120, 180)' fill-opacity = '0.250000' points = '598.4,104.5 598.4,662.4 600.3,662.4 600.3,105.6 '/>
		<polygon fill = 'rgb( 31, 120, 180)' fill-opacity = '0.250000' points = '600.3,105.6 600.3,662.4 602.2,662.4 602.2,106.7 '/>
		<polygon fill = 'rgb( 31, 120, 180)' fill-opacity = '0.250000' points = '602.2,106.7 602.2,662.4 604.1,662.4 604.1,107.9 '/>
		<polygon fill = 'rgb( 31, 120, 180)' fill-opacity = '0.250000' points = '604.1,107.9 604.1,662.4 606.0,662.4 606.0,109.0 '/>
		<polygon fill = 'rgb( 31, 120, 180)' fill-opacity = '0.250000' points = '606.0,109.0 606.0,662.4 607.9,662.4 607.9,110.2 '/>
		<polygon fill = 'rgb( 31, 120, 180)' fill-opacity = '0.250000' points = '607.9,110.2 607.9,662.4 609.7,662.4 609.7,111.4 '/>
		<polygon fill = 'rgb( 31, 120, 180)' fill-opacity = '0.250000' points = '609.7,111.4 609.7,662.4 611.6,662.4 611.6,112.7 '/>
		<polygon fill = 'rgb( 31, 120, 180)' fill-opacity = '0.250000' points = '611.6,112.7 611.6,662.4 613.5,662.4 613.5,113.9 '/>
		<polygon fill = 'rgb( 31, 120, 180)' fill-opacity = '0.250000' points = '613.5,113.9 613.5,662.4 615.4,662.4 615.4,115.1 '/>
		<polygon fill = 'rgb( 31, 120, 180)' fill-opacity = '0.250000' points = '615.4,115.1 615.4,662.4 617.3,662.4 617.3,116.4 '/>
		<polygon fill = 'rgb( 31, 120, 180)' fill-opacity = '0.250000' points = '617.3,116.4 617.3,662.4 619.2,662.4 619.2,117.6 '/>
		<polygon fill = 'rgb( 31, 120, 180)' fill-opacity = '0.250000' points = '619.2,117.6 619.2,662.4 621.1,662.4 621.1,118.9 '/>
		<polygon fill = 'rgb( 31, 120, 180)' fill-opacity = '0.250000' points = '621.1,118.9 621.1,662.4 623.0,662.4 623.0,120.2 '/>
		<polygon fill = 'rgb( 31, 120, 180)' fill-opacity = '0.250000' points = '623.0,120.2 623.0,662.4 624.8,662.4 624.8,121.5 '/>
		<polygon fill = 'rgb( 31, 120, 180)' fill-opacity = '0.250000' points = '624.8,121.5 624.8,662.4 626.7,662.4 626.7,122.8 '/>
		<polygon fill = 'rgb( 31, 120, 180)' fill-opacity = '0.250000' points = '626.7,122.8 626.7,662.4 628.6,662.4 628.6,124.1 '/>
		<polygon fill = 'rgb( 31, 120, 180)' fill-opacity = '0.250000' points = '628.6,124.1 628.6,662.4 630.5,662.4 630.5,125.4 '/>
		<polygon fill = 'rgb( 31, 120, 180)' fill-opacity = '0.250000' points = '630.5,125.4 630.5,662.4 632.4,662.4 632.4,126.8 '/>
		<polygon fill = 'rgb( 31, 120, 180)' fill-opacity = '0.250000' points = '632.4,126.8 632.4,662.4 634.3,662.4 634.3,128.2 '/>
		<polygon fill = 'rgb( 31, 120, 180)' fill-opacity = '0.250000' points = '634.3,128.2 634.3,662.4 636.2,662.4 636.2,129.7 '/>
		<polygon fill = 'rgb( 31, 120, 180)' fill-opacity = '0.250000' points = '636.2,129.7 636.2,662.4 638.1,662.4 638.1,131.2 '/>
		<polygon fill = 'rgb( 31, 120, 180)' fill-opacity = '0.250000' points = '638.1,131.2 638.1,662.4 639.9,662.4 639.9,132.7 '/>
		<polygon fill = 'rgb( 31, 120, 180)' fill-opacity = '0.250000' points = '639.9,132.7 639.9,662.4 641.8,662.4 641.8,134.3 '/>
		<polygon fill = 'rgb( 31, 120, 180)' fill-opacity = '0.250000' points = '641.8,134.3 641.8,662.4 643.7,662.4 643.7,135.9 '/>
		<polygon fill = 'rgb( 31, 120, 180)' fill-opacity = '0.250000' points = '643.7,135.9 643.7,662.4 645.6,662.4 645.6,137.6 '/>
		<polygon fill = 'rgb( 31, 120, 180)' fill-opacity = '0.250000' points = '645.6,137.6 645.6,662.4 647.5,662.4 647.5,139.4 '/>
		<polygon fill = 'rgb( 31, 120, 180)' fill-opacity = '0.250000' points = '647.5,139.4 647.5,662.4 649.4,662.4 649.4,141.2 '/>
		<polygon fill = 'rgb( 31, 120, 180)' fill-opacity = '0.250000' points = '649.4,141.2 649.4,662.4 651.3,662.4 651.3,143.0 '/>
		<polygon fill = 'rgb( 31, 120, 180)' fill-opacity = '0.250000' points = '651.3,143.0 651.3,662.4 653.1,662.4 653.1,145.0 '/>
		<polygon fill = 'rgb( 31, 120, 180)' fill-opacity = '0.250000' points = '653.1,145.0 653.1,662.4 655.0,662.4 655.0,146.9 '/>
		<polygon fill = 'rgb( 31, 120, 180)' fill-opacity = '0.250000' points = '655.0,146.9 655.0,662.4 656.9,662.4 656.9,148.9 '/>
		<polygon fill = 'rgb( 31, 120, 180)' fill-opacity = '0.250000' points = '656.9,148.9 656.9,662.4 658.8,662.4 658.8,151.0 '/>
		<polygon fill = 'rgb( 31, 120, 180)' fill-opacity = '0.250000' points = '658.8,151.0 658.8,662.4 660.7,662.4 660.7,153.1 '/>
		<polygon fill = 'rgb( 31, 120, 180)' fill-opacity = '0.250000' points = '660.7,153.1 660.7,662.4 662.6,662.4 662.6,155.2 '/>
		<polygon fill = 'rgb( 31, 120, 180)' fill-opacity = '0.250000' points = '662.6,155.2 662.6,662.4 664.5,662.4 664.5,157.3 '/>
		<polygon fill = 'rgb( 31, 120, 180)' fill-opacity = '0.250000' points = '664.5,157.3 664.5,662.4 666.4,662.4 666.4,159.5 '/>
		<polygon fill = 'rgb( 31, 120, 180)' fill-opacity = '0.250000' points = '666.4,159.5 666.4,662.4 668.2,662.4 668.2,161.7 '/>
		<polygon fill = 'rgb( 31, 120, 180)' fill-opacity = '0.250000' points = '668.2,161.7 668.2,662.4 670.1,662.4 670.1,163.9 '/>
		<polygon fill = 'rgb( 31, 120, 180)' fill-opacity = '0.250000' points = '670.1,163.9 670.1,662.4 672.0,662.4 672.0,166.0 '/>
		<polygon fill = 'rgb( 31, 120, 180)' fill-opacity = '0.250000' points = '672.0,166.0 672.0,662.4 673.9,662.4 673.9,168.2 '/>
		<polygon fill = 'rgb( 31, 120, 180)' fill-opacity = '0.250000' points = '673.9,168.2 673.9,662.4 675.8,662.4 675.8,170.4 '/>
		<polygon fill = 'rgb( 31, 120, 180)' fill-opacity = '0.250000' points = '675.8,170.4 675.8,662.4 677.7,662.4 677.7,172.6 '/>
		<polygon fill = 'rgb( 31, 120, 180)' fill-opacity = '0.250000' points = '677.7,172.6 677.7,662.4 679.6,662.4 679.6,174.7 '/>
		<polygon fill = 'rgb( 31, 120, 180)' fill-opacity = '0.250000' points = '679.6,174.7 679.6,662.4 681.5,662.4 681.5,176.9 '/>
		<polygon fill = 'rgb( 31, 120, 180)' fill-opacity = '0.250000' points = '681.5,176.9 681.5,662.4 683.3,662.4 683.3,179.1 '/>
		<polygon fill = 'rgb( 31, 120, 180)' fill-opacity = '0.250000' points = '683.3,179.1 683.3,662.4 685.2,662.4 685.2,181.3 '/>
		<polygon fill = 'rgb( 31, 120, 180)' fill-opacity = '0.250000' points = '685.2,181.3 685.2,662.4 687.1,662.4 687.1,183.5 '/>
		<polygon fill = 'rgb( 31, 120, 180)' fill-opacity = '0.250000' points = '687.1,183.5 687.1,662.4 689.0,662.4 689.0,185.7 '/>
		<polygon fill = 'rgb( 31, 120, 180)' fill-opacity = '0.250000' points = '689.0,185.7 689.0,662.4 690.9,662.4 690.9,188.0 '/>
		<polygon fill = 'rgb( 31, 120, 180)' fill-opacity = '0.250000' points = '690.9,188.0 690.9,662.4 692.8,662.4 692.8,190.3 '/>
		<polygon fill = 'rgb( 31, 120, 180)' fill-opacity = '0.250000' points = '692.8,190.3 692.8,662.4 694.7,662.4 694.7,192.7 '/>
		<polygon fill = 'rgb( 31, 120, 180)' fill-opacity = '0.250000' points = '694.7,192.7 694.7,662.4 696.6,662.4 696.6,195.2 '/>
		<polygon fill = 'rgb( 31, 120, 180)' fill-opacity = '0.250000' points = '696.6,195.2 696.6,662.4 698.4,662.4 698.4,197.7 '/>
		<polygon fill = 'rgb( 31, 120, 180)' fill-opacity = '0.250000' points = '698.4,197.7 698.4,662.4 700.3,662.4 700.3,200.3 '/>
		<polygon fill = 'rgb( 31, 120, 180)' fill-opacity = '0.250000' points = '700.3,200.3 700.3,662.4 702.2,662.4 702.2,203.0 '/>
		<polygon fill = 'rgb( 31, 120, 180)' fill-opacity = '0.250000' points = '702.2,203.0 702.2,662.4 704.1,662.4 704.1,205.9 '/>
		<polygon fill = 'rgb( 31, 120, 180)' fill-opacity = '0.250000' points = '704.1,205.9 704.1,662.4 706.0,662.4 706.0,208.8 '/>
		<polygon fill = 'rgb( 31, 120, 180)' fill-opacity = '0.250000' points = '706.0,208.8 706.0,662.4 707.9,662.4 707.9,211.8 '/>
		<polygon fill = 'rgb( 31, 120, 180)' fill-opacity = '0.250000' points = '707.9,211.8 707.9,662.4 709.8,662.4 709.8,214.9 '/>
		<polygon fill = 'rgb( 31, 120, 180)' fill-opacity = '0.250000' points = '709.8,214.9 709.8,662.4 711.7,662.4 711.7,218.1 '/>
		<polygon fill = 'rgb( 31, 120, 180)' fill-opacity = '0.250000' points = '711.7,218.1 711.7,662.4 713.5,662.4 713.5,221.4 '/>
		<polygon fill = 'rgb( 31, 120, 180)' fill-opacity = '0.250000' points = '713.5,221.4 713.5,662.4 715.4,662.4 715.4,224.7 '/>
		<polygon fill = 'rgb( 31, 120, 180)' fill-opacity = '0.250000' points = '715.4,224.7 715.4,662.4 717.3,662.4 717.3,228.2 '/>
		<polygon fill = 'rgb( 31, 120, 180)' fill-opacity = '0.250000' points = '717.3,228.2 717.3,662.4 719.2,662.4 719.2,231.7 '/>
		<polygon fill = 'rgb( 31, 120, 180)' fill-opacity = '0.250000' points = '719.2,231.7 719.2,662.4 721.1,662.4 721.1,235.2 '/>
		<polygon fill = 'rgb( 31, 120, 180)' fill-opacity = '0.250000' points = '721.1,235.2 721.1,662.4 723.0,662.4 723.0,238.8 '/>
		<polygon fill = 'rgb( 31, 120, 180)' fill-opacity = '0.250000' points = '723.0,238.8 723.0,662.4 724.9,662.4 724.9,242.4 '/>
		<polygon fill = 'rgb( 31, 120, 180)' fill-opacity = '0.250000' points = '724.9,242.4 724.9,662.4 726.7,662.4 726.7,246.0 '/>
		<polygon fill = 'rgb( 31, 120, 180)' fill-opacity = '0.250000' points = '726.7,246.0 726.7,662.4 728.6,662.4 728.6,249.7 '/>
		<polygon fill = 'rgb( 31, 120, 180)' fill-opacity = '0.250000' points = '728.6,249.7 728.6,662.4 730.5,662.4 730.5,253.3 '/>
		<polygon fill = 'rgb( 31, 120, 180)' fill-opacity = '0.250000' points = '730.5,253.3 730.5,662.4 732.4,662.4 732.4,256.9 '/>
		<polygon fill = 'rgb( 31, 120, 180)' fill-opacity = '0.250000' points = '732.4,256.9 732.4,662.4 734.3,662.4 734.3,260.5 '/>
		<polygon fill = 'rgb( 31, 120, 180)' fill-opacity = '0.250000' points = '734.3,260.5 734.3,662.4 736.2,662.4 736.2,264.1 '/>
		<polygon fill = 'rgb( 31, 120, 180)' fill-opacity = '0.250000' points = '736.2,264.1 736.2,662.4 738.1,662.4 738.1,267.6 '/>
		<polygon fill = 'rgb( 31, 120, 180)' fill-opacity = '0.250000' points = '738.1,267.6 738.1,662.4 740.0,662.4 740.0,271.1 '/>
		<polygon fill = 'rgb( 31, 120, 180)' fill-opacity = '0.250000' points = '740.0,271.1 740.0,662.4 741.8,662.4 741.8,274.6 '/>
		<polygon fill = 'rgb( 31, 120, 180)' fill-opacity = '0.250000' points = '741.8,274.6 741.8,662.4 743.7,662.4 743.7,278.0 '/>
		<polygon fill = 'rgb( 31, 120, 180)' fill-opacity = '0.250000' points = '743.7,278.0 743.7,662.4 745.6,662.4 745.6,281.4 '/>
		<polygon fill = 'rgb( 31, 120, 180)' fill-opacity = '0.250000' points = '745.6,281.4 745.6,662.4 747.5,662.4 747.5,284.8 '/>
		<polygon fill = 'rgb( 31, 120, 180)' fill-opacity = '0.250000' points = '747.5,284.8 747.5,662.4 749.4,662.4 749.4,288.1 '/>
		<polygon fill = 'rgb( 31, 120, 180)' fill-opacity = '0.250000' points = '749.4,288.1 749.4,662.4 751.3,662.4 751.3,291.4 '/>
		<polygon fill = 'rgb( 31, 120, 180)' fill-opacity = '0.250000' points = '751.3,291.4 751.3,662.4 753.2,662.4 753.2,294.7 '/>
		<polygon fill = 'rgb( 31, 120, 180)' fill-opacity = '0.250000' points = '753.2,294.7 753.2,662.4 755.1,662.4 755.1,297.9 '/>
		<polygon fill = 'rgb( 31, 120, 180)' fill-opacity = '0.250000' points = '755.1,297.9 755.1,662.4 756.9,662.4 756.9,301.2 '/>
		<polygon fill = 'rgb( 31, 120, 180)' fill-opacity = '0.250000' points = '756.9,301.2 756.9,662.4 758.8,662.4 758.8,304.4 '/>
		<polygon fill = 'rgb( 31, 120, 180)' fill-opacity = '0.250000' points = '758.8,304.4 758.8,662.4 760.7,662.4 760.7,307.7 '/>
		<polygon fill = 'rgb( 31, 120, 180)' fill-opacity = '0.250000' points = '760.7,307.7 760.7,662.4 762.6,662.4 762.6,310.9 '/>
		<polygon fill = 'rgb( 31, 120, 180)' fill-opacity = '0.250000' points = '762.6,310.9 762.6,662.4 764.5,662.4 764.5,314.2 '/>
		<polygon fill = 'rgb( 31, 120, 180)' fill-opacity = '0.250000' points = '764.5,314.2 764.5,662.4 766.4,662.4 766.4,317.4 '/>
		<polygon fill = 'rgb( 31, 120, 180)' fill-opacity = '0.250000' points = '766.4,317.4 766.4,662.4 768.3,662.4 768.3,320.7 '/>
		<polygon fill = 'rgb( 31, 120, 180)' fill-opacity = '0.250000' points = '768.3,320.7 768.3,662.4 770.2,662.4 770.2,324.0 '/>
		<polygon fill = 'rgb( 31, 120, 180)' fill-opacity = '0.250000' points = '770.2,324.0 770.2,662.4 772.0,662.4 772.0,327.3 '/>
		<polygon fill = 'rgb( 31, 120, 180)' fill-opacity = '0.250000' points = '772.0,327.3 772.0,662.4 773.9,662.4 773.9,330.6 '/>
		<polygon fill = 'rgb( 31, 120, 180)' fill-opacity = '0.250000' points = '773.9,330.6 773.9,662.4 775.8,662.4 775.8,334.0 '/>
		<polygon fill = 'rgb( 31, 120, 180)' fill-opacity = '0.250000' points = '775.8,334.0 775.8,662.4 777.7,662.4 777.7,337.3 '/>
		<polygon fill = 'rgb( 31, 120, 180)' fill-opacity = '0.250000' points = '777.7,337.3 777.7,662.4 779.6,662.4 779.6,340.7 '/>
		<polygon fill = 'rgb( 31, 120, 180)' fill-opacity = '0.250000' points = '779.6,340.7 779.6,662.4 781.5,662.4 781.5,344.2 '/>
		<polygon fill = 'rgb( 31, 120, 180)' fill-opacity = '0.250000' points = '781.5,344.2 781.5,662.4 783.4,662.4 783.4,347.6 '/>
		<polygon fill = 'rgb( 31, 120, 180)' fill-opacity = '0.250000' points = '783.4,347.6 783.4,662.4 785.3,662.4 785.3,351.1 '/>
		<polygon fill = 'rgb( 31, 120, 180)' fill-opacity = '0.250000' points = '785.3,351.1 785.3,662.4 787.1,662.4 787.1,354.7 '/>
		<polygon fill = 'rgb( 31, 120, 180)' fill-opacity = '0.250000' points = '787.1,354.7 787.1,662.4 789.0,662.4 789.0,358.2 '/>
		<polygon fill = 'rgb( 31, 120, 180)' fill-opacity = '0.250000' points = '789.0,358.2 789.0,662.4 790.9,662.4 790.9,361.7 '/>
		<polygon fill = 'rgb( 31, 120, 180)' fill-opacity = '0.250000' points = '790.9,361.7 790.9,662.4 792.8,662.4 792.8,365.3 '/>
		<polygon fill = 'rgb( 31, 120, 180)' fill-opacity = '0.250000' points = '792.8,365.3 792.8,662.4 794.7,662.4 794.7,368.9 '/>
		<polygon fill = 'rgb( 31, 120, 180)' fill-opacity = '0.250000' points = '794.7,368.9 794.7,662.4 796.6,662.4 796.6,372.5 '/>
		<polygon fill = 'rgb( 31, 120, 180)' fill-opacity = '0.250000' points = '796.6,372.5 796.6,662.4 798.5,662.4 798.5,376.0 '/>
		<polygon fill = 'rgb( 31, 120, 180)' fill-opacity = '0.250000' points = '798.5,376.0 798.5,662.4 800.3,662.4 800.3,379.6 '/>
		<polygon fill = 'rgb( 31, 120, 180)' fill-opacity = '0.250000' points = '800.3,379.6 800.3,662.4 802.2,662.4 802.2,383.1 '/>
		<polygon fill = 'rgb( 31, 120, 180)' fill-opacity = '0.250000' points = '802.2,383.1 802.2,662.4 804.1,662.4 804.1,386.7 '/>
		<polygon fill = 'rgb( 31, 120, 180)' fill-opacity = '0.250000' points = '804.1,386.7 804.1,662.4 806.0,662.4 806.0,390.2 '/>
		<polygon fill = 'rgb( 31, 120, 180)' fill-opacity = '0.250000' points = '806.0,390.2 806.0,662.4 807.9,662.4 807.9,393.6 '/>
		<polygon fill = 'rgb( 31, 120, 180)' fill-opacity = '0.250000' points = '807.9,393.6 807.9,662.4 809.8,662.4 809.8,397.1 '/>
		<polygon fill = 'rgb( 31, 120, 180)' fill-opacity = '0.250000' points = '809.8,397.1 809.8,662.4 811.7,662.4 811.7,400.5 '/>
		<polygon fill = 'rgb( 31, 120, 180)' fill-opacity = '0.250000' points = '811.7,400.5 811.7,662.4 813.6,662.4 813.6,403.8 '/>
		<polygon fill = 'rgb( 31, 120, 180)' fill-opacity = '0.250000' points = '813.6,403.8 813.6,662.4 815.4,662.4 815.4,407.1 '/>
		<polygon fill = 'rgb( 31, 120, 180)' fill-opacity = '0.250000' points = '815.4,407.1 815.4,662.4 817.3,662.4 817.3,410.4 '/>
		<polygon fill = 'rgb( 31, 120, 180)' fill-opacity = '0.250000' points = '817.3,410.4 817.3,662.4 819.2,662.4 819.2,413.6 '/>
		<polygon fill = 'rgb( 31, 120, 180)' fill-opacity = '0.250000' points = '819.2,413.6 819.2,662.4 821.1,662.4 821.1,416.8 '/>
		<polygon fill = 'rgb( 31, 120, 180)' fill-opacity = '0.250000' points = '821.1,416.8 821.1,662.4 823.0,662.4 823.0,419.9 '/>
		<polygon fill = 'rgb( 31, 120, 180)' fill-opacity = '0.250000' points = '823.0,419.9 823.0,662.4 824.9,662.4 824.9,423.0 '/>
		<polygon fill = 'rgb( 31, 120, 180)' fill-opacity = '0.250000' points = '824.9,423.0 824.9,662.4 826.8,662.4 826.8,426.1 '/>
		<polygon fill = 'rgb( 31, 120, 180)' fill-opacity = '0.250000' points = '826.8,426.1 826.8,662.4 828.7,662.4 828.7,429.1 '/>
		<polygon fill = 'rgb( 31, 120, 180)' fill-opacity = '0.250000' points = '828.7,429.1 828.7,662.4 830.5,662.4 830.5,432.0 '/>
		<polygon fill = 'rgb( 31, 120, 180)' fill-opacity = '0.250000' points = '830.5,432.0 830.5,662.4 832.4,662.4 832.4,435.0 '/>
		<polygon fill = 'rgb( 31, 120, 180)' fill-opacity = '0.250000' points = '832.4,435.0 832.4,662.4 834.3,662.4 834.3,437.8 '/>
		<polygon fill = 'rgb( 31, 120, 180)' fill-opacity = '0.250000' points = '834.3,437.8 834.3,662.4 836.2,662.4 836.2,440.7 '/>
		<polygon fill = 'rgb( 31, 120, 180)' fill-opacity = '0.250000' points = '836.2,440.7 836.2,662.4 838.1,662.4 838.1,443.6 '/>
		<polygon fill = 'rgb( 31, 120, 180)' fill-opacity = '0.250000' points = '838.1,443.6 838.1,662.4 840.0,662.4 840.0,446.4 '/>
		<polygon fill = 'rgb( 31, 120, 180)' fill-opacity = '0.250000' points = '840.0,446.4 840.0,662.4 841.9,662.4 841.9,449.2 '/>
		<polygon fill = 'rgb( 31, 120, 180)' fill-opacity = '0.250000' points = '841.9,449.2 841.9,662.4 843.8,662.4 843.8,452.0 '/>
		<polygon fill = 'rgb( 31, 120, 180)' fill-opacity = '0.250000' points = '843.8,452.0 843.8,662.4 845.6,662.4 845.6,454.8 '/>
		<polygon fill = 'rgb( 31, 120, 180)' fill-opacity = '0.250000' points = '845.6,454.8 845.6,662.4 847.5,662.4 847.5,457.5 '/>
		<polygon fill = 'rgb( 31, 120, 180)' fill-opacity = '0.250000' points = '847.5,457.5 847.5,662.4 849.4,662.4 849.4,460.3 '/>
		<polygon fill = 'rgb( 31, 120, 180)' fill-opacity = '0.250000' points = '849.4,460.3 849.4,662.4 851.3,662.4 851.3,463.1 '/>
		<polygon fill = 'rgb( 31, 120, 180)' fill-opacity = '0.250000' points = '851.3,463.1 851.3,662.4 853.2,662.4 853.2,465.9 '/>
		<polygon fill = 'rgb( 31, 120, 180)' fill-opacity = '0.250000' points = '853.2,465.9 853.2,662.4 855.1,662.4 855.1,468.7 '/>
		<polygon fill = 'rgb( 31, 120, 180)' fill-opacity = '0.250000' points = '855.1,468.7 855.1,662.4 857.0,662.4 857.0,471.6 '/>
		<polygon fill = 'rgb( 31, 120, 180)' fill-opacity = '0.250000' points = '857.0,471.6 857.0,662.4 858.9,662.4 858.9,474.4 '/>
		<polygon fill = 'rgb( 31, 120, 180)' fill-opacity = '0.250000' points = '858.9,474.4 858.9,662.4 860.7,662.4 860.7,477.3 '/>
		<polygon fill = 'rgb( 31, 120, 180)' fill-opacity = '0.250000' points = '860.7,477.3 860.7,662.4 862.6,662.4 862.6,480.2 '/>
		<polygon fill = 'rgb( 31, 120, 180)' fill-opacity = '0.250000' points = '862.6,480.2 862.6,662.4 864.5,662.4 864.5,483.1 '/>
		<polygon fill = 'rgb( 31, 120, 180)' fill-opacity = '0.250000' points = '864.5,483.1 864.5,662.4 866.4,662.4 866.4,486.1 '/>
		<polygon fill = 'rgb( 31, 120, 180)' fill-opacity = '0.250000' points = '866.4,486.1 866.4,662.4 868.3,662.4 868.3,489.1 '/>
		<polygon fill = 'rgb( 31, 120, 180)' fill-opacity = '0.250000' points = '868.3,489.1 868.3,662.4 870.2,662.4 870.2,492.1 '/>
		<polygon fill = 'rgb( 31, 120, 180)' fill-opacity = '0.250000' points = '870.2,492.1 870.2,662.4 872.1,662.4 872.1,495.1 '/>
		<polygon fill = 'rgb( 31, 120, 180)' fill-opacity = '0.250000' points = '872.1,495.1 872.1,662.4 873.9,662.4 873.9,498.2 '/>
		<polygon fill = 'rgb( 31, 120, 180)' fill-opacity = '0.250000' points = '873.9,498.2 873.9,662.4 875.8,662.4 875.8,501.3 '/>
		<polygon fill = 'rgb( 31, 120, 180)' fill-opacity = '0.250000' points = '875.8,501.3 875.8,662.4 877.7,662.4 877.7,504.3 '/>
		<polygon fill = 'rgb( 31, 120, 180)' fill-opacity = '0.250000' points = '877.7,504.3 877.7,662.4 879.6,662.4 879.6,507.4 '/>
		<polygon fill = 'rgb( 31, 120, 180)' fill-opacity = '0.250000' points = '879.6,507.4 879.6,662.4 881.5,662.4 881.5,510.5 '/>
		<polygon fill = 'rgb( 31, 120, 180)' fill-opacity = '0.250000' points = '881.5,510.5 881.5,662.4 883.4,662.4 883.4,513.5 '/>
		<polygon fill = 'rgb( 31, 120, 180)' fill-opacity = '0.250000' points = '883.4,513.5 883.4,662.4 885.3,662.4 885.3,516.6 '/>
		<polygon fill = 'rgb( 31, 120, 180)' fill-opacity = '0.250000' points = '885.3,516.6 885.3,662.4 887.2,662.4 887.2,519.5 '/>
		<polygon fill = 'rgb( 31, 120, 180)' fill-opacity = '0.250000' points = '887.2,519.5 887.2,662.4 889.0,662.4 889.0,522.5 '/>
		<polygon fill = 'rgb( 31, 120, 180)' fill-opacity = '0.250000' points = '889.0,522.5 889.0,662.4 890.9,662.4 890.9,525.4 '/>
		<polygon fill = 'rgb( 31, 120, 180)' fill-opacity = '0.250000' points = '890.9,525.4 890.9,662.4 892.8,662.4 892.8,528.2 '/>
		<polygon fill = 'rgb( 31, 120, 180)' fill-opacity = '0.250000' points = '892.8,528.2 892.8,662.4 894.7,662.4 894.7,531.0 '/>
		<polygon fill = 'rgb( 31, 120, 180)' fill-opacity = '0.250000' points = '894.7,531.0 894.7,662.4 896.6,662.4 896.6,533.7 '/>
		<polygon fill = 'rgb( 31, 120, 180)' fill-opacity = '0.250000' points = '896.6,533.7 896.6,662.4 898.5,662.4 898.5,536.4 '/>
		<polygon fill = 'rgb( 31, 120, 180)' fill-opacity = '0.250000' points = '898.5,536.4 898.5,662.4 900.4,662.4 900.4,538.9 '/>
		<polygon fill = 'rgb( 31, 120, 180)' fill-opacity = '0.250000' points = '900.4,538.9 900.4,662.4 902.3,662.4 902.3,541.4 '/>
		<polygon fill = 'rgb( 31, 120, 180)' fill-opacity = '0.250000' points = '902.3,541.4 902.3,662.4 904.1,662.4 904.1,543.8 '/>
		<polygon fill = 'rgb( 31, 120, 180)' fill-opacity = '0.250000' points = '904.1,543.8 904.1,662.4 906.0,662.4 906.0,546.1 '/>
		<polygon fill = 'rgb( 31, 120, 180)' fill-opacity = '0.250000' points = '906.0,546.1 906.0,662.4 907.9,662.4 907.9,548.3 '/>
		<polygon fill = 'rgb( 31, 120, 180)' fill-opacity = '0.250000' points = '907.9,548.3 907.9,662.4 909.8,662.4 909.8,550.5 '/>
		<polygon fill = 'rgb( 31, 120, 180)' fill-opacity = '0.250000' points = '909.8,550.5 909.8,662.4 911.7,662.4 911.7,552.6 '/>
		<polygon fill = 'rgb( 31, 120, 180)' fill-opacity = '0.250000' points = '911.7,552.6 911.7,662.4 913.6,662.4 913.6,554.6 '/>
		<polygon fill = 'rgb( 31, 120, 180)' fill-opacity = '0.250000' points = '913.6,554.6 913.6,662.4 915.5,662.4 915.5,556.6 '/>
		<polygon fill = 'rgb( 31, 120, 180)' fill-opacity = '0.250000' points = '915.5,556.6 915.5,662.4 917.4,662.4 917.4,558.5 '/>
		<polygon fill = 'rgb( 31, 120, 180)' fill-opacity = '0.250000' points = '917.4,558.5 917.4,662.4 919.2,662.4 919.2,560.4 '/>
		<polygon fill = 'rgb( 31, 120, 180)' fill-opacity = '0.250000' points = '919.2,560.4 919.2,662.4 921.1,662.4 921.1,562.2 '/>
		<polygon fill = 'rgb( 31, 120, 180)' fill-opacity = '0.250000' points = '921.1,562.2 921.1,662.4 923.0,662.4 923.0,564.0 '/>
		<polygon fill = 'rgb( 31, 120, 180)' fill-opacity = '0.250000' points = '923.0,564.0 923.0,662.4 924.9,662.4 924.9,565.8 '/>
	</g>
</g>
	</g>
	<g id="gnuplot_plot_3" ><title>Point estimate</title>
<g fill="none" color="white" stroke="rgb( 31, 120, 180)" stroke-width="2.00" stroke-linecap="butt" stroke-linejoin="miter">
</g>
<g fill="none" color="black" stroke="currentColor" stroke-width="2.00" stroke-linecap="butt" stroke-linejoin="miter">
	<g transform="translate(1089.0,103.0)" stroke="none" fill="black" font-family="Helvetica" font-size="12.00"  text-anchor="start">
		<text><tspan font-family="Helvetica" >Point estimate</tspan></text>
	</g>
</g>
<g fill="none" color="black" stroke="currentColor" stroke-width="2.00" stroke-linecap="butt" stroke-linejoin="miter">
	<path stroke='rgb( 31, 120, 180)'  d='M1038.5,99.1 L1080.7,99.1 M558.9,662.4 L558.9,97.9  '/></g>
	</g>
	<g id="gnuplot_plot_4" ><title>Noise threshold</title>
<g fill="none" color="white" stroke="rgb( 31, 120, 180)" stroke-width="1.00" stroke-linecap="butt" stroke-linejoin="miter">
</g>
<g fill="none" color="black" stroke="currentColor" stroke-width="1.00" stroke-linecap="butt" stroke-linejoin="miter">
	<g transform="translate(1089.0,121.0)" stroke="none" fill="black" font-family="Helvetica" font-size="12.00"  text-anchor="start">
		<text><tspan font-family="Helvetica" >Noise threshold</tspan></text>
	</g>
</g>
<g fill="none" color="black" stroke="currentColor" stroke-width="1.00" stroke-linecap="butt" stroke-linejoin="miter">
	<g stroke='none' shape-rendering='crispEdges'>
		<polygon fill = 'rgb(227,  26,  28)' fill-opacity = '0.100000' points = '1038.5,121.6 1080.7,121.6 1080.7,112.6 1038.5,112.6 '/>
		<polygon fill = 'rgb(227,  26,  28)' fill-opacity = '0.100000' points = '542.7,54.1 542.7,662.4 542.7,662.4 542.7,54.1 '/>
	</g>
</g>
	</g>
<g fill="none" color="white" stroke="rgb(227,  26,  28)" stroke-width="2.00" stroke-linecap="butt" stroke-linejoin="miter">
</g>
<g fill="none" color="black" stroke="currentColor" stroke-width="2.00" stroke-linecap="butt" stroke-linejoin="miter">
</g>
<g fill="none" color="black" stroke="black" stroke-width="1.00" stroke-linecap="butt" stroke-linejoin="miter">
</g>
<g fill="none" color="black" stroke="currentColor" stroke-width="1.00" stroke-linecap="butt" stroke-linejoin="miter">
	<path stroke='black'  d='M71.9,54.1 L71.9,662.4 L1013.6,662.4 L1013.6,54.1 L71.9,54.1 Z  '/></g>
<g fill="none" color="black" stroke="currentColor" stroke-width="1.00" stroke-linecap="butt" stroke-linejoin="miter">
</g>
</g>
</svg>

