<?xml version="1.0" encoding="utf-8"  standalone="no"?>
<svg 
 viewBox="0 0 1280 720"
 xmlns="http://www.w3.org/2000/svg"
 xmlns:xlink="http://www.w3.org/1999/xlink"
>

<title>Gnuplot</title>
<desc>Produced by GNUPLOT 5.0 patchlevel 6 </desc>

<g id="gnuplot_canvas">

<rect x="0" y="0" width="1280" height="720" fill="none"/>
<defs>

	<circle id='gpDot' r='0.5' stroke-width='0.5'/>
	<path id='gpPt0' stroke-width='0.222' stroke='currentColor' d='M-1,0 h2 M0,-1 v2'/>
	<path id='gpPt1' stroke-width='0.222' stroke='currentColor' d='M-1,-1 L1,1 M1,-1 L-1,1'/>
	<path id='gpPt2' stroke-width='0.222' stroke='currentColor' d='M-1,0 L1,0 M0,-1 L0,1 M-1,-1 L1,1 M-1,1 L1,-1'/>
	<rect id='gpPt3' stroke-width='0.222' stroke='currentColor' x='-1' y='-1' width='2' height='2'/>
	<rect id='gpPt4' stroke-width='0.222' stroke='currentColor' fill='currentColor' x='-1' y='-1' width='2' height='2'/>
	<circle id='gpPt5' stroke-width='0.222' stroke='currentColor' cx='0' cy='0' r='1'/>
	<use xlink:href='#gpPt5' id='gpPt6' fill='currentColor' stroke='none'/>
	<path id='gpPt7' stroke-width='0.222' stroke='currentColor' d='M0,-1.33 L-1.33,0.67 L1.33,0.67 z'/>
	<use xlink:href='#gpPt7' id='gpPt8' fill='currentColor' stroke='none'/>
	<use xlink:href='#gpPt7' id='gpPt9' stroke='currentColor' transform='rotate(180)'/>
	<use xlink:href='#gpPt9' id='gpPt10' fill='currentColor' stroke='none'/>
	<use xlink:href='#gpPt3' id='gpPt11' stroke='currentColor' transform='rotate(45)'/>
	<use xlink:href='#gpPt11' id='gpPt12' fill='currentColor' stroke='none'/>
	<path id='gpPt13' stroke-width='0.222' stroke='currentColor' d='M0,1.330 L1.265,0.411 L0.782,-1.067 L-0.782,-1.076 L-1.265,0.411 z'/>
	<use xlink:href='#gpPt13' id='gpPt14' fill='currentColor' stroke='none'/>
	<filter id='textbox' filterUnits='objectBoundingBox' x='0' y='0' height='1' width='1'>
	  <feFlood flood-color='white' flood-opacity='1' result='bgnd'/>
	  <feComposite in='SourceGraphic' in2='bgnd' operator='atop'/>
	</filter>
	<filter id='greybox' filterUnits='objectBoundingBox' x='0' y='0' height='1' width='1'>
	  <feFlood flood-color='lightgrey' flood-opacity='1' result='grey'/>
	  <feComposite in='SourceGraphic' in2='grey' operator='atop'/>
	</filter>
</defs>
<g fill="none" color="white" stroke="currentColor" stroke-width="1.00" stroke-linecap="butt" stroke-linejoin="miter">
</g>
<g fill="none" color="black" stroke="currentColor" stroke-width="1.00" stroke-linecap="butt" stroke-linejoin="miter">
	<path stroke='black'  d='M63.6,662.4 L72.6,662.4  '/>	<g transform="translate(55.3,666.3)" stroke="none" fill="black" font-family="Helvetica" font-size="12.00"  text-anchor="end">
		<text><tspan font-family="Helvetica" > 0</tspan></text>
	</g>
</g>
<g fill="none" color="black" stroke="currentColor" stroke-width="1.00" stroke-linecap="butt" stroke-linejoin="miter">
	<path stroke='black'  d='M63.6,575.5 L72.6,575.5  '/>	<g transform="translate(55.3,579.4)" stroke="none" fill="black" font-family="Helvetica" font-size="12.00"  text-anchor="end">
		<text><tspan font-family="Helvetica" > 10</tspan></text>
	</g>
</g>
<g fill="none" color="black" stroke="currentColor" stroke-width="1.00" stroke-linecap="butt" stroke-linejoin="miter">
	<path stroke='black'  d='M63.6,488.6 L72.6,488.6  '/>	<g transform="translate(55.3,492.5)" stroke="none" fill="black" font-family="Helvetica" font-size="12.00"  text-anchor="end">
		<text><tspan font-family="Helvetica" > 20</tspan></text>
	</g>
</g>
<g fill="none" color="black" stroke="currentColor" stroke-width="1.00" stroke-linecap="butt" stroke-linejoin="miter">
	<path stroke='black'  d='M63.6,401.7 L72.6,401.7  '/>	<g transform="translate(55.3,405.6)" stroke="none" fill="black" font-family="Helvetica" font-size="12.00"  text-anchor="end">
		<text><tspan font-family="Helvetica" > 30</tspan></text>
	</g>
</g>
<g fill="none" color="black" stroke="currentColor" stroke-width="1.00" stroke-linecap="butt" stroke-linejoin="miter">
	<path stroke='black'  d='M63.6,314.8 L72.6,314.8  '/>	<g transform="translate(55.3,318.7)" stroke="none" fill="black" font-family="Helvetica" font-size="12.00"  text-anchor="end">
		<text><tspan font-family="Helvetica" > 40</tspan></text>
	</g>
</g>
<g fill="none" color="black" stroke="currentColor" stroke-width="1.00" stroke-linecap="butt" stroke-linejoin="miter">
	<path stroke='black'  d='M63.6,227.9 L72.6,227.9  '/>	<g transform="translate(55.3,231.8)" stroke="none" fill="black" font-family="Helvetica" font-size="12.00"  text-anchor="end">
		<text><tspan font-family="Helvetica" > 50</tspan></text>
	</g>
</g>
<g fill="none" color="black" stroke="currentColor" stroke-width="1.00" stroke-linecap="butt" stroke-linejoin="miter">
	<path stroke='black'  d='M63.6,141.0 L72.6,141.0  '/>	<g transform="translate(55.3,144.9)" stroke="none" fill="black" font-family="Helvetica" font-size="12.00"  text-anchor="end">
		<text><tspan font-family="Helvetica" > 60</tspan></text>
	</g>
</g>
<g fill="none" color="black" stroke="currentColor" stroke-width="1.00" stroke-linecap="butt" stroke-linejoin="miter">
	<path stroke='black'  d='M63.6,54.1 L72.6,54.1  '/>	<g transform="translate(55.3,58.0)" stroke="none" fill="black" font-family="Helvetica" font-size="12.00"  text-anchor="end">
		<text><tspan font-family="Helvetica" > 70</tspan></text>
	</g>
</g>
<g fill="none" color="black" stroke="currentColor" stroke-width="1.00" stroke-linecap="butt" stroke-linejoin="miter">
	<path stroke='black'  d='M172.5,662.4 L172.5,653.4  '/>	<g transform="translate(172.5,684.3)" stroke="none" fill="black" font-family="Helvetica" font-size="12.00"  text-anchor="middle">
		<text><tspan font-family="Helvetica" > 3.135</tspan></text>
	</g>
</g>
<g fill="none" color="black" stroke="currentColor" stroke-width="1.00" stroke-linecap="butt" stroke-linejoin="miter">
	<path stroke='black'  d='M341.9,662.4 L341.9,653.4  '/>	<g transform="translate(341.9,684.3)" stroke="none" fill="black" font-family="Helvetica" font-size="12.00"  text-anchor="middle">
		<text><tspan font-family="Helvetica" > 3.14</tspan></text>
	</g>
</g>
<g fill="none" color="black" stroke="currentColor" stroke-width="1.00" stroke-linecap="butt" stroke-linejoin="miter">
	<path stroke='black'  d='M511.3,662.4 L511.3,653.4  '/>	<g transform="translate(511.3,684.3)" stroke="none" fill="black" font-family="Helvetica" font-size="12.00"  text-anchor="middle">
		<text><tspan font-family="Helvetica" > 3.145</tspan></text>
	</g>
</g>
<g fill="none" color="black" stroke="currentColor" stroke-width="1.00" stroke-linecap="butt" stroke-linejoin="miter">
	<path stroke='black'  d='M680.7,662.4 L680.7,653.4  '/>	<g transform="translate(680.7,684.3)" stroke="none" fill="black" font-family="Helvetica" font-size="12.00"  text-anchor="middle">
		<text><tspan font-family="Helvetica" > 3.15</tspan></text>
	</g>
</g>
<g fill="none" color="black" stroke="currentColor" stroke-width="1.00" stroke-linecap="butt" stroke-linejoin="miter">
	<path stroke='black'  d='M850.1,662.4 L850.1,653.4  '/>	<g transform="translate(850.1,684.3)" stroke="none" fill="black" font-family="Helvetica" font-size="12.00"  text-anchor="middle">
		<text><tspan font-family="Helvetica" > 3.155</tspan></text>
	</g>
</g>
<g fill="none" color="black" stroke="currentColor" stroke-width="1.00" stroke-linecap="butt" stroke-linejoin="miter">
</g>
<g fill="none" color="black" stroke="currentColor" stroke-width="1.00" stroke-linecap="butt" stroke-linejoin="miter">
	<path stroke='black'  d='M63.6,54.1 L63.6,662.4 L1013.6,662.4 L1013.6,54.1 L63.6,54.1 Z  '/></g>
<g fill="none" color="black" stroke="currentColor" stroke-width="1.00" stroke-linecap="butt" stroke-linejoin="miter">
	<g transform="translate(17.0,358.3) rotate(270)" stroke="none" fill="black" font-family="Helvetica" font-size="12.00"  text-anchor="middle">
		<text><tspan font-family="Helvetica" >Density (a.u.)</tspan></text>
	</g>
</g>
<g fill="none" color="black" stroke="currentColor" stroke-width="1.00" stroke-linecap="butt" stroke-linejoin="miter">
	<g transform="translate(538.6,711.3)" stroke="none" fill="black" font-family="Helvetica" font-size="12.00"  text-anchor="middle">
		<text><tspan font-family="Helvetica" >Average time (ms)</tspan></text>
	</g>
</g>
<g fill="none" color="black" stroke="currentColor" stroke-width="1.00" stroke-linecap="butt" stroke-linejoin="miter">
	<g transform="translate(538.6,31.0)" stroke="none" fill="black" font-family="Helvetica" font-size="12.00"  text-anchor="middle">
		<text><tspan font-family="Helvetica" >language: go/parse error: c/examples/malloc.c: mean</tspan></text>
	</g>
</g>
	<g id="gnuplot_plot_1" ><title>Bootstrap distribution</title>
<g fill="none" color="white" stroke="black" stroke-width="2.00" stroke-linecap="butt" stroke-linejoin="miter">
</g>
<g fill="none" color="black" stroke="currentColor" stroke-width="2.00" stroke-linecap="butt" stroke-linejoin="miter">
	<g transform="translate(1089.0,67.0)" stroke="none" fill="black" font-family="Helvetica" font-size="12.00"  text-anchor="start">
		<text><tspan font-family="Helvetica" >Bootstrap distribution</tspan></text>
	</g>
</g>
<g fill="none" color="black" stroke="currentColor" stroke-width="2.00" stroke-linecap="butt" stroke-linejoin="miter">
	<path stroke='rgb( 31, 120, 180)'  d='M1038.5,63.1 L1080.7,63.1 M63.6,628.9 L65.5,628.0 L67.4,627.1 L69.3,626.2 L71.2,625.2 L73.1,624.2
		L75.0,623.2 L76.9,622.2 L78.8,621.1 L80.7,620.0 L82.6,618.9 L84.5,617.8 L86.4,616.6 L88.3,615.3
		L90.3,614.1 L92.2,612.8 L94.1,611.4 L96.0,610.0 L97.9,608.5 L99.8,607.0 L101.7,605.5 L103.6,603.8
		L105.5,602.2 L107.4,600.4 L109.3,598.7 L111.2,596.8 L113.1,595.0 L115.0,593.0 L116.9,591.1 L118.8,589.0
		L120.7,587.0 L122.6,584.9 L124.5,582.8 L126.4,580.6 L128.3,578.4 L130.2,576.2 L132.1,574.0 L134.0,571.7
		L135.9,569.4 L137.8,567.1 L139.8,564.8 L141.7,562.5 L143.6,560.1 L145.5,557.7 L147.4,555.3 L149.3,552.9
		L151.2,550.4 L153.1,548.0 L155.0,545.5 L156.9,543.0 L158.8,540.4 L160.7,537.8 L162.6,535.2 L164.5,532.6
		L166.4,529.9 L168.3,527.2 L170.2,524.4 L172.1,521.6 L174.0,518.8 L175.9,515.9 L177.8,513.0 L179.7,510.0
		L181.6,507.0 L183.5,503.9 L185.4,500.8 L187.3,497.6 L189.3,494.3 L191.2,491.0 L193.1,487.7 L195.0,484.2
		L196.9,480.8 L198.8,477.3 L200.7,473.7 L202.6,470.1 L204.5,466.5 L206.4,462.9 L208.3,459.2 L210.2,455.6
		L212.1,451.9 L214.0,448.3 L215.9,444.6 L217.8,441.0 L219.7,437.4 L221.6,433.8 L223.5,430.3 L225.4,426.8
		L227.3,423.3 L229.2,419.8 L231.1,416.3 L233.0,412.9 L234.9,409.4 L236.8,406.0 L238.8,402.5 L240.7,399.0
		L242.6,395.5 L244.5,391.9 L246.4,388.3 L248.3,384.7 L250.2,381.0 L252.1,377.2 L254.0,373.4 L255.9,369.5
		L257.8,365.5 L259.7,361.5 L261.6,357.5 L263.5,353.4 L265.4,349.2 L267.3,345.1 L269.2,340.9 L271.1,336.8
		L273.0,332.6 L274.9,328.5 L276.8,324.3 L278.7,320.3 L280.6,316.2 L282.5,312.2 L284.4,308.3 L286.3,304.5
		L288.2,300.7 L290.2,296.9 L292.1,293.3 L294.0,289.7 L295.9,286.2 L297.8,282.8 L299.7,279.4 L301.6,276.0
		L303.5,272.8 L305.4,269.5 L307.3,266.3 L309.2,263.2 L311.1,260.0 L313.0,256.9 L314.9,253.7 L316.8,250.6
		L318.7,247.5 L320.6,244.3 L322.5,241.1 L324.4,237.8 L326.3,234.6 L328.2,231.3 L330.1,227.9 L332.0,224.5
		L333.9,221.0 L335.8,217.5 L337.7,214.0 L339.7,210.4 L341.6,206.8 L343.5,203.1 L345.4,199.4 L347.3,195.8
		L349.2,192.0 L351.1,188.3 L353.0,184.6 L354.9,180.9 L356.8,177.2 L358.7,173.6 L360.6,170.0 L362.5,166.4
		L364.4,162.9 L366.3,159.4 L368.2,156.1 L370.1,152.8 L372.0,149.5 L373.9,146.4 L375.8,143.4 L377.7,140.4
		L379.6,137.6 L381.5,134.8 L383.4,132.2 L385.3,129.7 L387.2,127.2 L389.2,124.9 L391.1,122.6 L393.0,120.5
		L394.9,118.4 L396.8,116.4 L398.7,114.4 L400.6,112.5 L402.5,110.6 L404.4,108.7 L406.3,106.9 L408.2,105.1
		L410.1,103.3 L412.0,101.5 L413.9,99.7 L415.8,97.9 L417.7,96.1 L419.6,94.4 L421.5,92.6 L423.4,90.9
		L425.3,89.1 L427.2,87.4 L429.1,85.8 L431.0,84.2 L432.9,82.6 L434.8,81.1 L436.7,79.7 L438.7,78.4
		L440.6,77.1 L442.5,75.9 L444.4,74.8 L446.3,73.9 L448.2,72.9 L450.1,72.1 L452.0,71.4 L453.9,70.8
		L455.8,70.3 L457.7,69.8 L459.6,69.5 L461.5,69.2 L463.4,69.0 L465.3,68.9 L467.2,68.9 L469.1,69.0
		L471.0,69.1 L472.9,69.2 L474.8,69.5 L476.7,69.8 L478.6,70.2 L480.5,70.6 L482.4,71.1 L484.3,71.6
		L486.2,72.2 L488.1,72.9 L490.1,73.6 L492.0,74.4 L493.9,75.2 L495.8,76.0 L497.7,76.9 L499.6,77.9
		L501.5,78.9 L503.4,79.9 L505.3,80.9 L507.2,82.0 L509.1,83.1 L511.0,84.3 L512.9,85.4 L514.8,86.6
		L516.7,87.7 L518.6,88.9 L520.5,90.1 L522.4,91.3 L524.3,92.5 L526.2,93.7 L528.1,95.0 L530.0,96.2
		L531.9,97.4 L533.8,98.7 L535.7,100.0 L537.6,101.3 L539.6,102.6 L541.5,104.0 L543.4,105.3 L545.3,106.7
		L547.2,108.2 L549.1,109.6 L551.0,111.1 L552.9,112.6 L554.8,114.2 L556.7,115.8 L558.6,117.4 L560.5,119.0
		L562.4,120.7 L564.3,122.5 L566.2,124.3 L568.1,126.1 L570.0,128.0 L571.9,129.9 L573.8,131.8 L575.7,133.8
		L577.6,135.9 L579.5,138.0 L581.4,140.1 L583.3,142.3 L585.2,144.6 L587.1,146.9 L589.1,149.3 L591.0,151.7
		L592.9,154.2 L594.8,156.7 L596.7,159.3 L598.6,162.0 L600.5,164.7 L602.4,167.4 L604.3,170.3 L606.2,173.1
		L608.1,176.1 L610.0,179.0 L611.9,182.1 L613.8,185.1 L615.7,188.3 L617.6,191.4 L619.5,194.6 L621.4,197.9
		L623.3,201.1 L625.2,204.4 L627.1,207.8 L629.0,211.1 L630.9,214.4 L632.8,217.8 L634.7,221.1 L636.6,224.5
		L638.5,227.8 L640.5,231.1 L642.4,234.4 L644.3,237.6 L646.2,240.8 L648.1,243.9 L650.0,247.1 L651.9,250.1
		L653.8,253.1 L655.7,256.1 L657.6,259.1 L659.5,261.9 L661.4,264.8 L663.3,267.6 L665.2,270.4 L667.1,273.1
		L669.0,275.8 L670.9,278.5 L672.8,281.1 L674.7,283.8 L676.6,286.4 L678.5,289.0 L680.4,291.6 L682.3,294.3
		L684.2,296.9 L686.1,299.6 L688.0,302.3 L690.0,305.0 L691.9,307.8 L693.8,310.7 L695.7,313.6 L697.6,316.5
		L699.5,319.5 L701.4,322.6 L703.3,325.8 L705.2,329.0 L707.1,332.3 L709.0,335.6 L710.9,339.0 L712.8,342.5
		L714.7,346.0 L716.6,349.5 L718.5,353.0 L720.4,356.6 L722.3,360.1 L724.2,363.6 L726.1,367.2 L728.0,370.6
		L729.9,374.1 L731.8,377.5 L733.7,380.9 L735.6,384.2 L737.5,387.5 L739.5,390.8 L741.4,394.0 L743.3,397.1
		L745.2,400.3 L747.1,403.4 L749.0,406.4 L750.9,409.5 L752.8,412.5 L754.7,415.5 L756.6,418.5 L758.5,421.5
		L760.4,424.5 L762.3,427.5 L764.2,430.4 L766.1,433.3 L768.0,436.2 L769.9,439.0 L771.8,441.9 L773.7,444.7
		L775.6,447.4 L777.5,450.1 L779.4,452.8 L781.3,455.4 L783.2,457.9 L785.1,460.4 L787.0,462.8 L789.0,465.2
		L790.9,467.5 L792.8,469.8 L794.7,472.0 L796.6,474.2 L798.5,476.3 L800.4,478.4 L802.3,480.5 L804.2,482.5
		L806.1,484.5 L808.0,486.5 L809.9,488.5 L811.8,490.4 L813.7,492.4 L815.6,494.3 L817.5,496.2 L819.4,498.1
		L821.3,500.1 L823.2,502.0 L825.1,503.9 L827.0,505.8 L828.9,507.7 L830.8,509.5 L832.7,511.4 L834.6,513.2
		L836.5,515.1 L838.4,516.9 L840.4,518.7 L842.3,520.4 L844.2,522.1 L846.1,523.8 L848.0,525.5 L849.9,527.2
		L851.8,528.8 L853.7,530.4 L855.6,532.0 L857.5,533.5 L859.4,535.1 L861.3,536.6 L863.2,538.2 L865.1,539.7
		L867.0,541.2 L868.9,542.7 L870.8,544.2 L872.7,545.8 L874.6,547.3 L876.5,548.8 L878.4,550.4 L880.3,551.9
		L882.2,553.5 L884.1,555.0 L886.0,556.5 L887.9,558.1 L889.9,559.6 L891.8,561.2 L893.7,562.7 L895.6,564.2
		L897.5,565.7 L899.4,567.2 L901.3,568.7 L903.2,570.1 L905.1,571.6 L907.0,573.0 L908.9,574.4 L910.8,575.7
		L912.7,577.1 L914.6,578.4 L916.5,579.7 L918.4,581.0 L920.3,582.3 L922.2,583.6 L924.1,584.8 L926.0,586.1
		L927.9,587.3 L929.8,588.6 L931.7,589.8 L933.6,591.0 L935.5,592.2 L937.4,593.5 L939.4,594.7 L941.3,595.8
		L943.2,597.0 L945.1,598.2 L947.0,599.3 L948.9,600.5 L950.8,601.6 L952.7,602.7 L954.6,603.8 L956.5,604.9
		L958.4,605.9 L960.3,606.9 L962.2,607.9 L964.1,608.9 L966.0,609.9 L967.9,610.8 L969.8,611.7 L971.7,612.6
		L973.6,613.5 L975.5,614.4 L977.4,615.3 L979.3,616.1 L981.2,617.0 L983.1,617.8 L985.0,618.6 L986.9,619.4
		L988.9,620.2 L990.8,621.0 L992.7,621.8 L994.6,622.6 L996.5,623.3 L998.4,624.1 L1000.3,624.8 L1002.2,625.6
		L1004.1,626.3 L1006.0,627.0 L1007.9,627.7 L1009.8,628.4 L1011.7,629.1 L1013.6,629.8  '/></g>
	</g>
	<g id="gnuplot_plot_2" ><title>Confidence interval</title>
<g fill="none" color="white" stroke="rgb( 31, 120, 180)" stroke-width="1.00" stroke-linecap="butt" stroke-linejoin="miter">
</g>
<g fill="none" color="black" stroke="currentColor" stroke-width="1.00" stroke-linecap="butt" stroke-linejoin="miter">
	<g transform="translate(1089.0,85.0)" stroke="none" fill="black" font-family="Helvetica" font-size="12.00"  text-anchor="start">
		<text><tspan font-family="Helvetica" >Confidence interval</tspan></text>
	</g>
</g>
<g fill="none" color="black" stroke="currentColor" stroke-width="1.00" stroke-linecap="butt" stroke-linejoin="miter">
	<g stroke='none' shape-rendering='crispEdges'>
		<polygon fill = 'rgb( 31, 120, 180)' fill-opacity = '0.250000' points = '1038.5,85.6 1080.7,85.6 1080.7,76.6 1038.5,76.6 '/>
		<polygon fill = 'rgb( 31, 120, 180)' fill-opacity = '0.250000' points = '151.2,550.4 151.2,662.4 153.1,662.4 153.1,548.0 '/>
		<polygon fill = 'rgb( 31, 120, 180)' fill-opacity = '0.250000' points = '153.1,548.0 153.1,662.4 155.0,662.4 155.0,545.5 '/>
		<polygon fill = 'rgb( 31, 120, 180)' fill-opacity = '0.250000' points = '155.0,545.5 155.0,662.4 156.9,662.4 156.9,543.0 '/>
		<polygon fill = 'rgb( 31, 120, 180)' fill-opacity = '0.250000' points = '156.9,543.0 156.9,662.4 158.8,662.4 158.8,540.4 '/>
		<polygon fill = 'rgb( 31, 120, 180)' fill-opacity = '0.250000' points = '158.8,540.4 158.8,662.4 160.7,662.4 160.7,537.8 '/>
		<polygon fill = 'rgb( 31, 120, 180)' fill-opacity = '0.250000' points = '160.7,537.8 160.7,662.4 162.6,662.4 162.6,535.2 '/>
		<polygon fill = 'rgb( 31, 120, 180)' fill-opacity = '0.250000' points = '162.6,535.2 162.6,662.4 164.5,662.4 164.5,532.6 '/>
		<polygon fill = 'rgb( 31, 120, 180)' fill-opacity = '0.250000' points = '164.5,532.6 164.5,662.4 166.4,662.4 166.4,529.9 '/>
		<polygon fill = 'rgb( 31, 120, 180)' fill-opacity = '0.250000' points = '166.4,529.9 166.4,662.4 168.3,662.4 168.3,527.2 '/>
		<polygon fill = 'rgb( 31, 120, 180)' fill-opacity = '0.250000' points = '168.3,527.2 168.3,662.4 170.2,662.4 170.2,524.4 '/>
		<polygon fill = 'rgb( 31, 120, 180)' fill-opacity = '0.250000' points = '170.2,524.4 170.2,662.4 172.1,662.4 172.1,521.6 '/>
		<polygon fill = 'rgb( 31, 120, 180)' fill-opacity = '0.250000' points = '172.1,521.6 172.1,662.4 174.0,662.4 174.0,518.8 '/>
		<polygon fill = 'rgb( 31, 120, 180)' fill-opacity = '0.250000' points = '174.0,518.8 174.0,662.4 175.9,662.4 175.9,515.9 '/>
		<polygon fill = 'rgb( 31, 120, 180)' fill-opacity = '0.250000' points = '175.9,515.9 175.9,662.4 177.8,662.4 177.8,513.0 '/>
		<polygon fill = 'rgb( 31, 120, 180)' fill-opacity = '0.250000' points = '177.8,513.0 177.8,662.4 179.7,662.4 179.7,510.0 '/>
		<polygon fill = 'rgb( 31, 120, 180)' fill-opacity = '0.250000' points = '179.7,510.0 179.7,662.4 181.6,662.4 181.6,507.0 '/>
		<polygon fill = 'rgb( 31, 120, 180)' fill-opacity = '0.250000' points = '181.6,507.0 181.6,662.4 183.5,662.4 183.5,503.9 '/>
		<polygon fill = 'rgb( 31, 120, 180)' fill-opacity = '0.250000' points = '183.5,503.9 183.5,662.4 185.4,662.4 185.4,500.8 '/>
		<polygon fill = 'rgb( 31, 120, 180)' fill-opacity = '0.250000' points = '185.4,500.8 185.4,662.4 187.3,662.4 187.3,497.6 '/>
		<polygon fill = 'rgb( 31, 120, 180)' fill-opacity = '0.250000' points = '187.3,497.6 187.3,662.4 189.3,662.4 189.3,494.3 '/>
		<polygon fill = 'rgb( 31, 120, 180)' fill-opacity = '0.250000' points = '189.3,494.3 189.3,662.4 191.2,662.4 191.2,491.0 '/>
		<polygon fill = 'rgb( 31, 120, 180)' fill-opacity = '0.250000' points = '191.2,491.0 191.2,662.4 193.1,662.4 193.1,487.7 '/>
		<polygon fill = 'rgb( 31, 120, 180)' fill-opacity = '0.250000' points = '193.1,487.7 193.1,662.4 195.0,662.4 195.0,484.2 '/>
		<polygon fill = 'rgb( 31, 120, 180)' fill-opacity = '0.250000' points = '195.0,484.2 195.0,662.4 196.9,662.4 196.9,480.8 '/>
		<polygon fill = 'rgb( 31, 120, 180)' fill-opacity = '0.250000' points = '196.9,480.8 196.9,662.4 198.8,662.4 198.8,477.3 '/>
		<polygon fill = 'rgb( 31, 120, 180)' fill-opacity = '0.250000' points = '198.8,477.3 198.8,662.4 200.7,662.4 200.7,473.7 '/>
		<polygon fill = 'rgb( 31, 120, 180)' fill-opacity = '0.250000' points = '200.7,473.7 200.7,662.4 202.6,662.4 202.6,470.1 '/>
		<polygon fill = 'rgb( 31, 120, 180)' fill-opacity = '0.250000' points = '202.6,470.1 202.6,662.4 204.5,662.4 204.5,466.5 '/>
		<polygon fill = 'rgb( 31, 120, 180)' fill-opacity = '0.250000' points = '204.5,466.5 204.5,662.4 206.4,662.4 206.4,462.9 '/>
		<polygon fill = 'rgb( 31, 120, 180)' fill-opacity = '0.250000' points = '206.4,462.9 206.4,662.4 208.3,662.4 208.3,459.2 '/>
		<polygon fill = 'rgb( 31, 120, 180)' fill-opacity = '0.250000' points = '208.3,459.2 208.3,662.4 210.2,662.4 210.2,455.6 '/>
		<polygon fill = 'rgb( 31, 120, 180)' fill-opacity = '0.250000' points = '210.2,455.6 210.2,662.4 212.1,662.4 212.1,451.9 '/>
		<polygon fill = 'rgb( 31, 120, 180)' fill-opacity = '0.250000' points = '212.1,451.9 212.1,662.4 214.0,662.4 214.0,448.3 '/>
		<polygon fill = 'rgb( 31, 120, 180)' fill-opacity = '0.250000' points = '214.0,448.3 214.0,662.4 215.9,662.4 215.9,444.6 '/>
		<polygon fill = 'rgb( 31, 120, 180)' fill-opacity = '0.250000' points = '215.9,444.6 215.9,662.4 217.8,662.4 217.8,441.0 '/>
		<polygon fill = 'rgb( 31, 120, 180)' fill-opacity = '0.250000' points = '217.8,441.0 217.8,662.4 219.7,662.4 219.7,437.4 '/>
		<polygon fill = 'rgb( 31, 120, 180)' fill-opacity = '0.250000' points = '219.7,437.4 219.7,662.4 221.6,662.4 221.6,433.8 '/>
		<polygon fill = 'rgb( 31, 120, 180)' fill-opacity = '0.250000' points = '221.6,433.8 221.6,662.4 223.5,662.4 223.5,430.3 '/>
		<polygon fill = 'rgb( 31, 120, 180)' fill-opacity = '0.250000' points = '223.5,430.3 223.5,662.4 225.4,662.4 225.4,426.8 '/>
		<polygon fill = 'rgb( 31, 120, 180)' fill-opacity = '0.250000' points = '225.4,426.8 225.4,662.4 227.3,662.4 227.3,423.3 '/>
		<polygon fill = 'rgb( 31, 120, 180)' fill-opacity = '0.250000' points = '227.3,423.3 227.3,662.4 229.2,662.4 229.2,419.8 '/>
		<polygon fill = 'rgb( 31, 120, 180)' fill-opacity = '0.250000' points = '229.2,419.8 229.2,662.4 231.1,662.4 231.1,416.3 '/>
		<polygon fill = 'rgb( 31, 120, 180)' fill-opacity = '0.250000' points = '231.1,416.3 231.1,662.4 233.0,662.4 233.0,412.9 '/>
		<polygon fill = 'rgb( 31, 120, 180)' fill-opacity = '0.250000' points = '233.0,412.9 233.0,662.4 234.9,662.4 234.9,409.4 '/>
		<polygon fill = 'rgb( 31, 120, 180)' fill-opacity = '0.250000' points = '234.9,409.4 234.9,662.4 236.8,662.4 236.8,406.0 '/>
		<polygon fill = 'rgb( 31, 120, 180)' fill-opacity = '0.250000' points = '236.8,406.0 236.8,662.4 238.8,662.4 238.8,402.5 '/>
		<polygon fill = 'rgb( 31, 120, 180)' fill-opacity = '0.250000' points = '238.8,402.5 238.8,662.4 240.7,662.4 240.7,399.0 '/>
		<polygon fill = 'rgb( 31, 120, 180)' fill-opacity = '0.250000' points = '240.7,399.0 240.7,662.4 242.6,662.4 242.6,395.5 '/>
		<polygon fill = 'rgb( 31, 120, 180)' fill-opacity = '0.250000' points = '242.6,395.5 242.6,662.4 244.5,662.4 244.5,391.9 '/>
		<polygon fill = 'rgb( 31, 120, 180)' fill-opacity = '0.250000' points = '244.5,391.9 244.5,662.4 246.4,662.4 246.4,388.3 '/>
		<polygon fill = 'rgb( 31, 120, 180)' fill-opacity = '0.250000' points = '246.4,388.3 246.4,662.4 248.3,662.4 248.3,384.7 '/>
		<polygon fill = 'rgb( 31, 120, 180)' fill-opacity = '0.250000' points = '248.3,384.7 248.3,662.4 250.2,662.4 250.2,381.0 '/>
		<polygon fill = 'rgb( 31, 120, 180)' fill-opacity = '0.250000' points = '250.2,381.0 250.2,662.4 252.1,662.4 252.1,377.2 '/>
		<polygon fill = 'rgb( 31, 120, 180)' fill-opacity = '0.250000' points = '252.1,377.2 252.1,662.4 254.0,662.4 254.0,373.4 '/>
		<polygon fill = 'rgb( 31, 120, 180)' fill-opacity = '0.250000' points = '254.0,373.4 254.0,662.4 255.9,662.4 255.9,369.5 '/>
		<polygon fill = 'rgb( 31, 120, 180)' fill-opacity = '0.250000' points = '255.9,369.5 255.9,662.4 257.8,662.4 257.8,365.5 '/>
		<polygon fill = 'rgb( 31, 120, 180)' fill-opacity = '0.250000' points = '257.8,365.5 257.8,662.4 259.7,662.4 259.7,361.5 '/>
		<polygon fill = 'rgb( 31, 120, 180)' fill-opacity = '0.250000' points = '259.7,361.5 259.7,662.4 261.6,662.4 261.6,357.5 '/>
		<polygon fill = 'rgb( 31, 120, 180)' fill-opacity = '0.250000' points = '261.6,357.5 261.6,662.4 263.5,662.4 263.5,353.4 '/>
		<polygon fill = 'rgb( 31, 120, 180)' fill-opacity = '0.250000' points = '263.5,353.4 263.5,662.4 265.4,662.4 265.4,349.2 '/>
		<polygon fill = 'rgb( 31, 120, 180)' fill-opacity = '0.250000' points = '265.4,349.2 265.4,662.4 267.3,662.4 267.3,345.1 '/>
		<polygon fill = 'rgb( 31, 120, 180)' fill-opacity = '0.250000' points = '267.3,345.1 267.3,662.4 269.2,662.4 269.2,340.9 '/>
		<polygon fill = 'rgb( 31, 120, 180)' fill-opacity = '0.250000' points = '269.2,340.9 269.2,662.4 271.1,662.4 271.1,336.8 '/>
		<polygon fill = 'rgb( 31, 120, 180)' fill-opacity = '0.250000' points = '271.1,336.8 271.1,662.4 273.0,662.4 273.0,332.6 '/>
		<polygon fill = 'rgb( 31, 120, 180)' fill-opacity = '0.250000' points = '273.0,332.6 273.0,662.4 274.9,662.4 274.9,328.5 '/>
		<polygon fill = 'rgb( 31, 120, 180)' fill-opacity = '0.250000' points = '274.9,328.5 274.9,662.4 276.8,662.4 276.8,324.3 '/>
		<polygon fill = 'rgb( 31, 120, 180)' fill-opacity = '0.250000' points = '276.8,324.3 276.8,662.4 278.7,662.4 278.7,320.3 '/>
		<polygon fill = 'rgb( 31, 120, 180)' fill-opacity = '0.250000' points = '278.7,320.3 278.7,662.4 280.6,662.4 280.6,316.2 '/>
		<polygon fill = 'rgb( 31, 120, 180)' fill-opacity = '0.250000' points = '280.6,316.2 280.6,662.4 282.5,662.4 282.5,312.2 '/>
		<polygon fill = 'rgb( 31, 120, 180)' fill-opacity = '0.250000' points = '282.5,312.2 282.5,662.4 284.4,662.4 284.4,308.3 '/>
		<polygon fill = 'rgb( 31, 120, 180)' fill-opacity = '0.250000' points = '284.4,308.3 284.4,662.4 286.3,662.4 286.3,304.5 '/>
		<polygon fill = 'rgb( 31, 120, 180)' fill-opacity = '0.250000' points = '286.3,304.5 286.3,662.4 288.2,662.4 288.2,300.7 '/>
		<polygon fill = 'rgb( 31, 120, 180)' fill-opacity = '0.250000' points = '288.2,300.7 288.2,662.4 290.2,662.4 290.2,296.9 '/>
		<polygon fill = 'rgb( 31, 120, 180)' fill-opacity = '0.250000' points = '290.2,296.9 290.2,662.4 292.1,662.4 292.1,293.3 '/>
		<polygon fill = 'rgb( 31, 120, 180)' fill-opacity = '0.250000' points = '292.1,293.3 292.1,662.4 294.0,662.4 294.0,289.7 '/>
		<polygon fill = 'rgb( 31, 120, 180)' fill-opacity = '0.250000' points = '294.0,289.7 294.0,662.4 295.9,662.4 295.9,286.2 '/>
		<polygon fill = 'rgb( 31, 120, 180)' fill-opacity = '0.250000' points = '295.9,286.2 295.9,662.4 297.8,662.4 297.8,282.8 '/>
		<polygon fill = 'rgb( 31, 120, 180)' fill-opacity = '0.250000' points = '297.8,282.8 297.8,662.4 299.7,662.4 299.7,279.4 '/>
		<polygon fill = 'rgb( 31, 120, 180)' fill-opacity = '0.250000' points = '299.7,279.4 299.7,662.4 301.6,662.4 301.6,276.0 '/>
		<polygon fill = 'rgb( 31, 120, 180)' fill-opacity = '0.250000' points = '301.6,276.0 301.6,662.4 303.5,662.4 303.5,272.8 '/>
		<polygon fill = 'rgb( 31, 120, 180)' fill-opacity = '0.250000' points = '303.5,272.8 303.5,662.4 305.4,662.4 305.4,269.5 '/>
		<polygon fill = 'rgb( 31, 120, 180)' fill-opacity = '0.250000' points = '305.4,269.5 305.4,662.4 307.3,662.4 307.3,266.3 '/>
		<polygon fill = 'rgb( 31, 120, 180)' fill-opacity = '0.250000' points = '307.3,266.3 307.3,662.4 309.2,662.4 309.2,263.2 '/>
		<polygon fill = 'rgb( 31, 120, 180)' fill-opacity = '0.250000' points = '309.2,263.2 309.2,662.4 311.1,662.4 311.1,260.0 '/>
		<polygon fill = 'rgb( 31, 120, 180)' fill-opacity = '0.250000' points = '311.1,260.0 311.1,662.4 313.0,662.4 313.0,256.9 '/>
		<polygon fill = 'rgb( 31, 120, 180)' fill-opacity = '0.250000' points = '313.0,256.9 313.0,662.4 314.9,662.4 314.9,253.7 '/>
		<polygon fill = 'rgb( 31, 120, 180)' fill-opacity = '0.250000' points = '314.9,253.7 314.9,662.4 316.8,662.4 316.8,250.6 '/>
		<polygon fill = 'rgb( 31, 120, 180)' fill-opacity = '0.250000' points = '316.8,250.6 316.8,662.4 318.7,662.4 318.7,247.5 '/>
		<polygon fill = 'rgb( 31, 120, 180)' fill-opacity = '0.250000' points = '318.7,247.5 318.7,662.4 320.6,662.4 320.6,244.3 '/>
		<polygon fill = 'rgb( 31, 120, 180)' fill-opacity = '0.250000' points = '320.6,244.3 320.6,662.4 322.5,662.4 322.5,241.1 '/>
		<polygon fill = 'rgb( 31, 120, 180)' fill-opacity = '0.250000' points = '322.5,241.1 322.5,662.4 324.4,662.4 324.4,237.8 '/>
		<polygon fill = 'rgb( 31, 120, 180)' fill-opacity = '0.250000' points = '324.4,237.8 324.4,662.4 326.3,662.4 326.3,234.6 '/>
		<polygon fill = 'rgb( 31, 120, 180)' fill-opacity = '0.250000' points = '326.3,234.6 326.3,662.4 328.2,662.4 328.2,231.3 '/>
		<polygon fill = 'rgb( 31, 120, 180)' fill-opacity = '0.250000' points = '328.2,231.3 328.2,662.4 330.1,662.4 330.1,227.9 '/>
		<polygon fill = 'rgb( 31, 120, 180)' fill-opacity = '0.250000' points = '330.1,227.9 330.1,662.4 332.0,662.4 332.0,224.5 '/>
		<polygon fill = 'rgb( 31, 120, 180)' fill-opacity = '0.250000' points = '332.0,224.5 332.0,662.4 333.9,662.4 333.9,221.0 '/>
		<polygon fill = 'rgb( 31, 120, 180)' fill-opacity = '0.250000' points = '333.9,221.0 333.9,662.4 335.8,662.4 335.8,217.5 '/>
		<polygon fill = 'rgb( 31, 120, 180)' fill-opacity = '0.250000' points = '335.8,217.5 335.8,662.4 337.7,662.4 337.7,214.0 '/>
		<polygon fill = 'rgb( 31, 120, 180)' fill-opacity = '0.250000' points = '337.7,214.0 337.7,662.4 339.7,662.4 339.7,210.4 '/>
		<polygon fill = 'rgb( 31, 120, 180)' fill-opacity = '0.250000' points = '339.7,210.4 339.7,662.4 341.6,662.4 341.6,206.8 '/>
		<polygon fill = 'rgb( 31, 120, 180)' fill-opacity = '0.250000' points = '341.6,206.8 341.6,662.4 343.5,662.4 343.5,203.1 '/>
		<polygon fill = 'rgb( 31, 120, 180)' fill-opacity = '0.250000' points = '343.5,203.1 343.5,662.4 345.4,662.4 345.4,199.4 '/>
		<polygon fill = 'rgb( 31, 120, 180)' fill-opacity = '0.250000' points = '345.4,199.4 345.4,662.4 347.3,662.4 347.3,195.8 '/>
		<polygon fill = 'rgb( 31, 120, 180)' fill-opacity = '0.250000' points = '347.3,195.8 347.3,662.4 349.2,662.4 349.2,192.0 '/>
		<polygon fill = 'rgb( 31, 120, 180)' fill-opacity = '0.250000' points = '349.2,192.0 349.2,662.4 351.1,662.4 351.1,188.3 '/>
		<polygon fill = 'rgb( 31, 120, 180)' fill-opacity = '0.250000' points = '351.1,188.3 351.1,662.4 353.0,662.4 353.0,184.6 '/>
		<polygon fill = 'rgb( 31, 120, 180)' fill-opacity = '0.250000' points = '353.0,184.6 353.0,662.4 354.9,662.4 354.9,180.9 '/>
		<polygon fill = 'rgb( 31, 120, 180)' fill-opacity = '0.250000' points = '354.9,180.9 354.9,662.4 356.8,662.4 356.8,177.2 '/>
		<polygon fill = 'rgb( 31, 120, 180)' fill-opacity = '0.250000' points = '356.8,177.2 356.8,662.4 358.7,662.4 358.7,173.6 '/>
		<polygon fill = 'rgb( 31, 120, 180)' fill-opacity = '0.250000' points = '358.7,173.6 358.7,662.4 360.6,662.4 360.6,170.0 '/>
		<polygon fill = 'rgb( 31, 120, 180)' fill-opacity = '0.250000' points = '360.6,170.0 360.6,662.4 362.5,662.4 362.5,166.4 '/>
		<polygon fill = 'rgb( 31, 120, 180)' fill-opacity = '0.250000' points = '362.5,166.4 362.5,662.4 364.4,662.4 364.4,162.9 '/>
		<polygon fill = 'rgb( 31, 120, 180)' fill-opacity = '0.250000' points = '364.4,162.9 364.4,662.4 366.3,662.4 366.3,159.4 '/>
		<polygon fill = 'rgb( 31, 120, 180)' fill-opacity = '0.250000' points = '366.3,159.4 366.3,662.4 368.2,662.4 368.2,156.1 '/>
		<polygon fill = 'rgb( 31, 120, 180)' fill-opacity = '0.250000' points = '368.2,156.1 368.2,662.4 370.1,662.4 370.1,152.8 '/>
		<polygon fill = 'rgb( 31, 120, 180)' fill-opacity = '0.250000' points = '370.1,152.8 370.1,662.4 372.0,662.4 372.0,149.5 '/>
		<polygon fill = 'rgb( 31, 120, 180)' fill-opacity = '0.250000' points = '372.0,149.5 372.0,662.4 373.9,662.4 373.9,146.4 '/>
		<polygon fill = 'rgb( 31, 120, 180)' fill-opacity = '0.250000' points = '373.9,146.4 373.9,662.4 375.8,662.4 375.8,143.4 '/>
		<polygon fill = 'rgb( 31, 120, 180)' fill-opacity = '0.250000' points = '375.8,143.4 375.8,662.4 377.7,662.4 377.7,140.4 '/>
		<polygon fill = 'rgb( 31, 120, 180)' fill-opacity = '0.250000' points = '377.7,140.4 377.7,662.4 379.6,662.4 379.6,137.6 '/>
		<polygon fill = 'rgb( 31, 120, 180)' fill-opacity = '0.250000' points = '379.6,137.6 379.6,662.4 381.5,662.4 381.5,134.8 '/>
		<polygon fill = 'rgb( 31, 120, 180)' fill-opacity = '0.250000' points = '381.5,134.8 381.5,662.4 383.4,662.4 383.4,132.2 '/>
		<polygon fill = 'rgb( 31, 120, 180)' fill-opacity = '0.250000' points = '383.4,132.2 383.4,662.4 385.3,662.4 385.3,129.7 '/>
		<polygon fill = 'rgb( 31, 120, 180)' fill-opacity = '0.250000' points = '385.3,129.7 385.3,662.4 387.2,662.4 387.2,127.2 '/>
		<polygon fill = 'rgb( 31, 120, 180)' fill-opacity = '0.250000' points = '387.2,127.2 387.2,662.4 389.2,662.4 389.2,124.9 '/>
		<polygon fill = 'rgb( 31, 120, 180)' fill-opacity = '0.250000' points = '389.2,124.9 389.2,662.4 391.1,662.4 391.1,122.6 '/>
		<polygon fill = 'rgb( 31, 120, 180)' fill-opacity = '0.250000' points = '391.1,122.6 391.1,662.4 393.0,662.4 393.0,120.5 '/>
		<polygon fill = 'rgb( 31, 120, 180)' fill-opacity = '0.250000' points = '393.0,120.5 393.0,662.4 394.9,662.4 394.9,118.4 '/>
		<polygon fill = 'rgb( 31, 120, 180)' fill-opacity = '0.250000' points = '394.9,118.4 394.9,662.4 396.8,662.4 396.8,116.4 '/>
		<polygon fill = 'rgb( 31, 120, 180)' fill-opacity = '0.250000' points = '396.8,116.4 396.8,662.4 398.7,662.4 398.7,114.4 '/>
		<polygon fill = 'rgb( 31, 120, 180)' fill-opacity = '0.250000' points = '398.7,114.4 398.7,662.4 400.6,662.4 400.6,112.5 '/>
		<polygon fill = 'rgb( 31, 120, 180)' fill-opacity = '0.250000' points = '400.6,112.5 400.6,662.4 402.5,662.4 402.5,110.6 '/>
		<polygon fill = 'rgb( 31, 120, 180)' fill-opacity = '0.250000' points = '402.5,110.6 402.5,662.4 404.4,662.4 404.4,108.7 '/>
		<polygon fill = 'rgb( 31, 120, 180)' fill-opacity = '0.250000' points = '404.4,108.7 404.4,662.4 406.3,662.4 406.3,106.9 '/>
		<polygon fill = 'rgb( 31, 120, 180)' fill-opacity = '0.250000' points = '406.3,106.9 406.3,662.4 408.2,662.4 408.2,105.1 '/>
		<polygon fill = 'rgb( 31, 120, 180)' fill-opacity = '0.250000' points = '408.2,105.1 408.2,662.4 410.1,662.4 410.1,103.3 '/>
		<polygon fill = 'rgb( 31, 120, 180)' fill-opacity = '0.250000' points = '410.1,103.3 410.1,662.4 412.0,662.4 412.0,101.5 '/>
		<polygon fill = 'rgb( 31, 120, 180)' fill-opacity = '0.250000' points = '412.0,101.5 412.0,662.4 413.9,662.4 413.9,99.7 '/>
		<polygon fill = 'rgb( 31, 120, 180)' fill-opacity = '0.250000' points = '413.9,99.7 413.9,662.4 415.8,662.4 415.8,97.9 '/>
		<polygon fill = 'rgb( 31, 120, 180)' fill-opacity = '0.250000' points = '415.8,97.9 415.8,662.4 417.7,662.4 417.7,96.1 '/>
		<polygon fill = 'rgb( 31, 120, 180)' fill-opacity = '0.250000' points = '417.7,96.1 417.7,662.4 419.6,662.4 419.6,94.4 '/>
		<polygon fill = 'rgb( 31, 120, 180)' fill-opacity = '0.250000' points = '419.6,94.4 419.6,662.4 421.5,662.4 421.5,92.6 '/>
		<polygon fill = 'rgb( 31, 120, 180)' fill-opacity = '0.250000' points = '421.5,92.6 421.5,662.4 423.4,662.4 423.4,90.9 '/>
		<polygon fill = 'rgb( 31, 120, 180)' fill-opacity = '0.250000' points = '423.4,90.9 423.4,662.4 425.3,662.4 425.3,89.1 '/>
		<polygon fill = 'rgb( 31, 120, 180)' fill-opacity = '0.250000' points = '425.3,89.1 425.3,662.4 427.2,662.4 427.2,87.4 '/>
		<polygon fill = 'rgb( 31, 120, 180)' fill-opacity = '0.250000' points = '427.2,87.4 427.2,662.4 429.1,662.4 429.1,85.8 '/>
		<polygon fill = 'rgb( 31, 120, 180)' fill-opacity = '0.250000' points = '429.1,85.8 429.1,662.4 431.0,662.4 431.0,84.2 '/>
		<polygon fill = 'rgb( 31, 120, 180)' fill-opacity = '0.250000' points = '431.0,84.2 431.0,662.4 432.9,662.4 432.9,82.6 '/>
		<polygon fill = 'rgb( 31, 120, 180)' fill-opacity = '0.250000' points = '432.9,82.6 432.9,662.4 434.8,662.4 434.8,81.1 '/>
		<polygon fill = 'rgb( 31, 120, 180)' fill-opacity = '0.250000' points = '434.8,81.1 434.8,662.4 436.7,662.4 436.7,79.7 '/>
		<polygon fill = 'rgb( 31, 120, 180)' fill-opacity = '0.250000' points = '436.7,79.7 436.7,662.4 438.7,662.4 438.7,78.4 '/>
		<polygon fill = 'rgb( 31, 120, 180)' fill-opacity = '0.250000' points = '438.7,78.4 438.7,662.4 440.6,662.4 440.6,77.1 '/>
		<polygon fill = 'rgb( 31, 120, 180)' fill-opacity = '0.250000' points = '440.6,77.1 440.6,662.4 442.5,662.4 442.5,75.9 '/>
		<polygon fill = 'rgb( 31, 120, 180)' fill-opacity = '0.250000' points = '442.5,75.9 442.5,662.4 444.4,662.4 444.4,74.8 '/>
		<polygon fill = 'rgb( 31, 120, 180)' fill-opacity = '0.250000' points = '444.4,74.8 444.4,662.4 446.3,662.4 446.3,73.9 '/>
		<polygon fill = 'rgb( 31, 120, 180)' fill-opacity = '0.250000' points = '446.3,73.9 446.3,662.4 448.2,662.4 448.2,72.9 '/>
		<polygon fill = 'rgb( 31, 120, 180)' fill-opacity = '0.250000' points = '448.2,72.9 448.2,662.4 450.1,662.4 450.1,72.1 '/>
		<polygon fill = 'rgb( 31, 120, 180)' fill-opacity = '0.250000' points = '450.1,72.1 450.1,662.4 452.0,662.4 452.0,71.4 '/>
		<polygon fill = 'rgb( 31, 120, 180)' fill-opacity = '0.250000' points = '452.0,71.4 452.0,662.4 453.9,662.4 453.9,70.8 '/>
		<polygon fill = 'rgb( 31, 120, 180)' fill-opacity = '0.250000' points = '453.9,70.8 453.9,662.4 455.8,662.4 455.8,70.3 '/>
		<polygon fill = 'rgb( 31, 120, 180)' fill-opacity = '0.250000' points = '455.8,70.3 455.8,662.4 457.7,662.4 457.7,69.8 '/>
		<polygon fill = 'rgb( 31, 120, 180)' fill-opacity = '0.250000' points = '457.7,69.8 457.7,662.4 459.6,662.4 459.6,69.5 '/>
		<polygon fill = 'rgb( 31, 120, 180)' fill-opacity = '0.250000' points = '459.6,69.5 459.6,662.4 461.5,662.4 461.5,69.2 '/>
		<polygon fill = 'rgb( 31, 120, 180)' fill-opacity = '0.250000' points = '461.5,69.2 461.5,662.4 463.4,662.4 463.4,69.0 '/>
		<polygon fill = 'rgb( 31, 120, 180)' fill-opacity = '0.250000' points = '463.4,69.0 463.4,662.4 465.3,662.4 465.3,68.9 '/>
		<polygon fill = 'rgb( 31, 120, 180)' fill-opacity = '0.250000' points = '465.3,68.9 465.3,662.4 467.2,662.4 467.2,68.9 '/>
		<polygon fill = 'rgb( 31, 120, 180)' fill-opacity = '0.250000' points = '467.2,68.9 467.2,662.4 469.1,662.4 469.1,69.0 '/>
		<polygon fill = 'rgb( 31, 120, 180)' fill-opacity = '0.250000' points = '469.1,69.0 469.1,662.4 471.0,662.4 471.0,69.1 '/>
		<polygon fill = 'rgb( 31, 120, 180)' fill-opacity = '0.250000' points = '471.0,69.1 471.0,662.4 472.9,662.4 472.9,69.2 '/>
		<polygon fill = 'rgb( 31, 120, 180)' fill-opacity = '0.250000' points = '472.9,69.2 472.9,662.4 474.8,662.4 474.8,69.5 '/>
		<polygon fill = 'rgb( 31, 120, 180)' fill-opacity = '0.250000' points = '474.8,69.5 474.8,662.4 476.7,662.4 476.7,69.8 '/>
		<polygon fill = 'rgb( 31, 120, 180)' fill-opacity = '0.250000' points = '476.7,69.8 476.7,662.4 478.6,662.4 478.6,70.2 '/>
		<polygon fill = 'rgb( 31, 120, 180)' fill-opacity = '0.250000' points = '478.6,70.2 478.6,662.4 480.5,662.4 480.5,70.6 '/>
		<polygon fill = 'rgb( 31, 120, 180)' fill-opacity = '0.250000' points = '480.5,70.6 480.5,662.4 482.4,662.4 482.4,71.1 '/>
		<polygon fill = 'rgb( 31, 120, 180)' fill-opacity = '0.250000' points = '482.4,71.1 482.4,662.4 484.3,662.4 484.3,71.6 '/>
		<polygon fill = 'rgb( 31, 120, 180)' fill-opacity = '0.250000' points = '484.3,71.6 484.3,662.4 486.2,662.4 486.2,72.2 '/>
		<polygon fill = 'rgb( 31, 120, 180)' fill-opacity = '0.250000' points = '486.2,72.2 486.2,662.4 488.1,662.4 488.1,72.9 '/>
		<polygon fill = 'rgb( 31, 120, 180)' fill-opacity = '0.250000' points = '488.1,72.9 488.1,662.4 490.1,662.4 490.1,73.6 '/>
		<polygon fill = 'rgb( 31, 120, 180)' fill-opacity = '0.250000' points = '490.1,73.6 490.1,662.4 492.0,662.4 492.0,74.4 '/>
		<polygon fill = 'rgb( 31, 120, 180)' fill-opacity = '0.250000' points = '492.0,74.4 492.0,662.4 493.9,662.4 493.9,75.2 '/>
		<polygon fill = 'rgb( 31, 120, 180)' fill-opacity = '0.250000' points = '493.9,75.2 493.9,662.4 495.8,662.4 495.8,76.0 '/>
		<polygon fill = 'rgb( 31, 120, 180)' fill-opacity = '0.250000' points = '495.8,76.0 495.8,662.4 497.7,662.4 497.7,76.9 '/>
		<polygon fill = 'rgb( 31, 120, 180)' fill-opacity = '0.250000' points = '497.7,76.9 497.7,662.4 499.6,662.4 499.6,77.9 '/>
		<polygon fill = 'rgb( 31, 120, 180)' fill-opacity = '0.250000' points = '499.6,77.9 499.6,662.4 501.5,662.4 501.5,78.9 '/>
		<polygon fill = 'rgb( 31, 120, 180)' fill-opacity = '0.250000' points = '501.5,78.9 501.5,662.4 503.4,662.4 503.4,79.9 '/>
		<polygon fill = 'rgb( 31, 120, 180)' fill-opacity = '0.250000' points = '503.4,79.9 503.4,662.4 505.3,662.4 505.3,80.9 '/>
		<polygon fill = 'rgb( 31, 120, 180)' fill-opacity = '0.250000' points = '505.3,80.9 505.3,662.4 507.2,662.4 507.2,82.0 '/>
		<polygon fill = 'rgb( 31, 120, 180)' fill-opacity = '0.250000' points = '507.2,82.0 507.2,662.4 509.1,662.4 509.1,83.1 '/>
		<polygon fill = 'rgb( 31, 120, 180)' fill-opacity = '0.250000' points = '509.1,83.1 509.1,662.4 511.0,662.4 511.0,84.3 '/>
		<polygon fill = 'rgb( 31, 120, 180)' fill-opacity = '0.250000' points = '511.0,84.3 511.0,662.4 512.9,662.4 512.9,85.4 '/>
		<polygon fill = 'rgb( 31, 120, 180)' fill-opacity = '0.250000' points = '512.9,85.4 512.9,662.4 514.8,662.4 514.8,86.6 '/>
		<polygon fill = 'rgb( 31, 120, 180)' fill-opacity = '0.250000' points = '514.8,86.6 514.8,662.4 516.7,662.4 516.7,87.7 '/>
		<polygon fill = 'rgb( 31, 120, 180)' fill-opacity = '0.250000' points = '516.7,87.7 516.7,662.4 518.6,662.4 518.6,88.9 '/>
		<polygon fill = 'rgb( 31, 120, 180)' fill-opacity = '0.250000' points = '518.6,88.9 518.6,662.4 520.5,662.4 520.5,90.1 '/>
		<polygon fill = 'rgb( 31, 120, 180)' fill-opacity = '0.250000' points = '520.5,90.1 520.5,662.4 522.4,662.4 522.4,91.3 '/>
		<polygon fill = 'rgb( 31, 120, 180)' fill-opacity = '0.250000' points = '522.4,91.3 522.4,662.4 524.3,662.4 524.3,92.5 '/>
		<polygon fill = 'rgb( 31, 120, 180)' fill-opacity = '0.250000' points = '524.3,92.5 524.3,662.4 526.2,662.4 526.2,93.7 '/>
		<polygon fill = 'rgb( 31, 120, 180)' fill-opacity = '0.250000' points = '526.2,93.7 526.2,662.4 528.1,662.4 528.1,95.0 '/>
		<polygon fill = 'rgb( 31, 120, 180)' fill-opacity = '0.250000' points = '528.1,95.0 528.1,662.4 530.0,662.4 530.0,96.2 '/>
		<polygon fill = 'rgb( 31, 120, 180)' fill-opacity = '0.250000' points = '530.0,96.2 530.0,662.4 531.9,662.4 531.9,97.4 '/>
		<polygon fill = 'rgb( 31, 120, 180)' fill-opacity = '0.250000' points = '531.9,97.4 531.9,662.4 533.8,662.4 533.8,98.7 '/>
		<polygon fill = 'rgb( 31, 120, 180)' fill-opacity = '0.250000' points = '533.8,98.7 533.8,662.4 535.7,662.4 535.7,100.0 '/>
		<polygon fill = 'rgb( 31, 120, 180)' fill-opacity = '0.250000' points = '535.7,100.0 535.7,662.4 537.6,662.4 537.6,101.3 '/>
		<polygon fill = 'rgb( 31, 120, 180)' fill-opacity = '0.250000' points = '537.6,101.3 537.6,662.4 539.6,662.4 539.6,102.6 '/>
		<polygon fill = 'rgb( 31, 120, 180)' fill-opacity = '0.250000' points = '539.6,102.6 539.6,662.4 541.5,662.4 541.5,104.0 '/>
		<polygon fill = 'rgb( 31, 120, 180)' fill-opacity = '0.250000' points = '541.5,104.0 541.5,662.4 543.4,662.4 543.4,105.3 '/>
		<polygon fill = 'rgb( 31, 120, 180)' fill-opacity = '0.250000' points = '543.4,105.3 543.4,662.4 545.3,662.4 545.3,106.7 '/>
		<polygon fill = 'rgb( 31, 120, 180)' fill-opacity = '0.250000' points = '545.3,106.7 545.3,662.4 547.2,662.4 547.2,108.2 '/>
		<polygon fill = 'rgb( 31, 120, 180)' fill-opacity = '0.250000' points = '547.2,108.2 547.2,662.4 549.1,662.4 549.1,109.6 '/>
		<polygon fill = 'rgb( 31, 120, 180)' fill-opacity = '0.250000' points = '549.1,109.6 549.1,662.4 551.0,662.4 551.0,111.1 '/>
		<polygon fill = 'rgb( 31, 120, 180)' fill-opacity = '0.250000' points = '551.0,111.1 551.0,662.4 552.9,662.4 552.9,112.6 '/>
		<polygon fill = 'rgb( 31, 120, 180)' fill-opacity = '0.250000' points = '552.9,112.6 552.9,662.4 554.8,662.4 554.8,114.2 '/>
		<polygon fill = 'rgb( 31, 120, 180)' fill-opacity = '0.250000' points = '554.8,114.2 554.8,662.4 556.7,662.4 556.7,115.8 '/>
		<polygon fill = 'rgb( 31, 120, 180)' fill-opacity = '0.250000' points = '556.7,115.8 556.7,662.4 558.6,662.4 558.6,117.4 '/>
		<polygon fill = 'rgb( 31, 120, 180)' fill-opacity = '0.250000' points = '558.6,117.4 558.6,662.4 560.5,662.4 560.5,119.0 '/>
		<polygon fill = 'rgb( 31, 120, 180)' fill-opacity = '0.250000' points = '560.5,119.0 560.5,662.4 562.4,662.4 562.4,120.7 '/>
		<polygon fill = 'rgb( 31, 120, 180)' fill-opacity = '0.250000' points = '562.4,120.7 562.4,662.4 564.3,662.4 564.3,122.5 '/>
		<polygon fill = 'rgb( 31, 120, 180)' fill-opacity = '0.250000' points = '564.3,122.5 564.3,662.4 566.2,662.4 566.2,124.3 '/>
		<polygon fill = 'rgb( 31, 120, 180)' fill-opacity = '0.250000' points = '566.2,124.3 566.2,662.4 568.1,662.4 568.1,126.1 '/>
		<polygon fill = 'rgb( 31, 120, 180)' fill-opacity = '0.250000' points = '568.1,126.1 568.1,662.4 570.0,662.4 570.0,128.0 '/>
		<polygon fill = 'rgb( 31, 120, 180)' fill-opacity = '0.250000' points = '570.0,128.0 570.0,662.4 571.9,662.4 571.9,129.9 '/>
		<polygon fill = 'rgb( 31, 120, 180)' fill-opacity = '0.250000' points = '571.9,129.9 571.9,662.4 573.8,662.4 573.8,131.8 '/>
		<polygon fill = 'rgb( 31, 120, 180)' fill-opacity = '0.250000' points = '573.8,131.8 573.8,662.4 575.7,662.4 575.7,133.8 '/>
		<polygon fill = 'rgb( 31, 120, 180)' fill-opacity = '0.250000' points = '575.7,133.8 575.7,662.4 577.6,662.4 577.6,135.9 '/>
		<polygon fill = 'rgb( 31, 120, 180)' fill-opacity = '0.250000' points = '577.6,135.9 577.6,662.4 579.5,662.4 579.5,138.0 '/>
		<polygon fill = 'rgb( 31, 120, 180)' fill-opacity = '0.250000' points = '579.5,138.0 579.5,662.4 581.4,662.4 581.4,140.1 '/>
		<polygon fill = 'rgb( 31, 120, 180)' fill-opacity = '0.250000' points = '581.4,140.1 581.4,662.4 583.3,662.4 583.3,142.3 '/>
		<polygon fill = 'rgb( 31, 120, 180)' fill-opacity = '0.250000' points = '583.3,142.3 583.3,662.4 585.2,662.4 585.2,144.6 '/>
		<polygon fill = 'rgb( 31, 120, 180)' fill-opacity = '0.250000' points = '585.2,144.6 585.2,662.4 587.1,662.4 587.1,146.9 '/>
		<polygon fill = 'rgb( 31, 120, 180)' fill-opacity = '0.250000' points = '587.1,146.9 587.1,662.4 589.1,662.4 589.1,149.3 '/>
		<polygon fill = 'rgb( 31, 120, 180)' fill-opacity = '0.250000' points = '589.1,149.3 589.1,662.4 591.0,662.4 591.0,151.7 '/>
		<polygon fill = 'rgb( 31, 120, 180)' fill-opacity = '0.250000' points = '591.0,151.7 591.0,662.4 592.9,662.4 592.9,154.2 '/>
		<polygon fill = 'rgb( 31, 120, 180)' fill-opacity = '0.250000' points = '592.9,154.2 592.9,662.4 594.8,662.4 594.8,156.7 '/>
		<polygon fill = 'rgb( 31, 120, 180)' fill-opacity = '0.250000' points = '594.8,156.7 594.8,662.4 596.7,662.4 596.7,159.3 '/>
		<polygon fill = 'rgb( 31, 120, 180)' fill-opacity = '0.250000' points = '596.7,159.3 596.7,662.4 598.6,662.4 598.6,162.0 '/>
		<polygon fill = 'rgb( 31, 120, 180)' fill-opacity = '0.250000' points = '598.6,162.0 598.6,662.4 600.5,662.4 600.5,164.7 '/>
		<polygon fill = 'rgb( 31, 120, 180)' fill-opacity = '0.250000' points = '600.5,164.7 600.5,662.4 602.4,662.4 602.4,167.4 '/>
		<polygon fill = 'rgb( 31, 120, 180)' fill-opacity = '0.250000' points = '602.4,167.4 602.4,662.4 604.3,662.4 604.3,170.3 '/>
		<polygon fill = 'rgb( 31, 120, 180)' fill-opacity = '0.250000' points = '604.3,170.3 604.3,662.4 606.2,662.4 606.2,173.1 '/>
		<polygon fill = 'rgb( 31, 120, 180)' fill-opacity = '0.250000' points = '606.2,173.1 606.2,662.4 608.1,662.4 608.1,176.1 '/>
		<polygon fill = 'rgb( 31, 120, 180)' fill-opacity = '0.250000' points = '608.1,176.1 608.1,662.4 610.0,662.4 610.0,179.0 '/>
		<polygon fill = 'rgb( 31, 120, 180)' fill-opacity = '0.250000' points = '610.0,179.0 610.0,662.4 611.9,662.4 611.9,182.1 '/>
		<polygon fill = 'rgb( 31, 120, 180)' fill-opacity = '0.250000' points = '611.9,182.1 611.9,662.4 613.8,662.4 613.8,185.1 '/>
		<polygon fill = 'rgb( 31, 120, 180)' fill-opacity = '0.250000' points = '613.8,185.1 613.8,662.4 615.7,662.4 615.7,188.3 '/>
		<polygon fill = 'rgb( 31, 120, 180)' fill-opacity = '0.250000' points = '615.7,188.3 615.7,662.4 617.6,662.4 617.6,191.4 '/>
		<polygon fill = 'rgb( 31, 120, 180)' fill-opacity = '0.250000' points = '617.6,191.4 617.6,662.4 619.5,662.4 619.5,194.6 '/>
		<polygon fill = 'rgb( 31, 120, 180)' fill-opacity = '0.250000' points = '619.5,194.6 619.5,662.4 621.4,662.4 621.4,197.9 '/>
		<polygon fill = 'rgb( 31, 120, 180)' fill-opacity = '0.250000' points = '621.4,197.9 621.4,662.4 623.3,662.4 623.3,201.1 '/>
		<polygon fill = 'rgb( 31, 120, 180)' fill-opacity = '0.250000' points = '623.3,201.1 623.3,662.4 625.2,662.4 625.2,204.4 '/>
		<polygon fill = 'rgb( 31, 120, 180)' fill-opacity = '0.250000' points = '625.2,204.4 625.2,662.4 627.1,662.4 627.1,207.8 '/>
		<polygon fill = 'rgb( 31, 120, 180)' fill-opacity = '0.250000' points = '627.1,207.8 627.1,662.4 629.0,662.4 629.0,211.1 '/>
		<polygon fill = 'rgb( 31, 120, 180)' fill-opacity = '0.250000' points = '629.0,211.1 629.0,662.4 630.9,662.4 630.9,214.4 '/>
		<polygon fill = 'rgb( 31, 120, 180)' fill-opacity = '0.250000' points = '630.9,214.4 630.9,662.4 632.8,662.4 632.8,217.8 '/>
		<polygon fill = 'rgb( 31, 120, 180)' fill-opacity = '0.250000' points = '632.8,217.8 632.8,662.4 634.7,662.4 634.7,221.1 '/>
		<polygon fill = 'rgb( 31, 120, 180)' fill-opacity = '0.250000' points = '634.7,221.1 634.7,662.4 636.6,662.4 636.6,224.5 '/>
		<polygon fill = 'rgb( 31, 120, 180)' fill-opacity = '0.250000' points = '636.6,224.5 636.6,662.4 638.5,662.4 638.5,227.8 '/>
		<polygon fill = 'rgb( 31, 120, 180)' fill-opacity = '0.250000' points = '638.5,227.8 638.5,662.4 640.5,662.4 640.5,231.1 '/>
		<polygon fill = 'rgb( 31, 120, 180)' fill-opacity = '0.250000' points = '640.5,231.1 640.5,662.4 642.4,662.4 642.4,234.4 '/>
		<polygon fill = 'rgb( 31, 120, 180)' fill-opacity = '0.250000' points = '642.4,234.4 642.4,662.4 644.3,662.4 644.3,237.6 '/>
		<polygon fill = 'rgb( 31, 120, 180)' fill-opacity = '0.250000' points = '644.3,237.6 644.3,662.4 646.2,662.4 646.2,240.8 '/>
		<polygon fill = 'rgb( 31, 120, 180)' fill-opacity = '0.250000' points = '646.2,240.8 646.2,662.4 648.1,662.4 648.1,243.9 '/>
		<polygon fill = 'rgb( 31, 120, 180)' fill-opacity = '0.250000' points = '648.1,243.9 648.1,662.4 650.0,662.4 650.0,247.1 '/>
		<polygon fill = 'rgb( 31, 120, 180)' fill-opacity = '0.250000' points = '650.0,247.1 650.0,662.4 651.9,662.4 651.9,250.1 '/>
		<polygon fill = 'rgb( 31, 120, 180)' fill-opacity = '0.250000' points = '651.9,250.1 651.9,662.4 653.8,662.4 653.8,253.1 '/>
		<polygon fill = 'rgb( 31, 120, 180)' fill-opacity = '0.250000' points = '653.8,253.1 653.8,662.4 655.7,662.4 655.7,256.1 '/>
		<polygon fill = 'rgb( 31, 120, 180)' fill-opacity = '0.250000' points = '655.7,256.1 655.7,662.4 657.6,662.4 657.6,259.1 '/>
		<polygon fill = 'rgb( 31, 120, 180)' fill-opacity = '0.250000' points = '657.6,259.1 657.6,662.4 659.5,662.4 659.5,261.9 '/>
		<polygon fill = 'rgb( 31, 120, 180)' fill-opacity = '0.250000' points = '659.5,261.9 659.5,662.4 661.4,662.4 661.4,264.8 '/>
		<polygon fill = 'rgb( 31, 120, 180)' fill-opacity = '0.250000' points = '661.4,264.8 661.4,662.4 663.3,662.4 663.3,267.6 '/>
		<polygon fill = 'rgb( 31, 120, 180)' fill-opacity = '0.250000' points = '663.3,267.6 663.3,662.4 665.2,662.4 665.2,270.4 '/>
		<polygon fill = 'rgb( 31, 120, 180)' fill-opacity = '0.250000' points = '665.2,270.4 665.2,662.4 667.1,662.4 667.1,273.1 '/>
		<polygon fill = 'rgb( 31, 120, 180)' fill-opacity = '0.250000' points = '667.1,273.1 667.1,662.4 669.0,662.4 669.0,275.8 '/>
		<polygon fill = 'rgb( 31, 120, 180)' fill-opacity = '0.250000' points = '669.0,275.8 669.0,662.4 670.9,662.4 670.9,278.5 '/>
		<polygon fill = 'rgb( 31, 120, 180)' fill-opacity = '0.250000' points = '670.9,278.5 670.9,662.4 672.8,662.4 672.8,281.1 '/>
		<polygon fill = 'rgb( 31, 120, 180)' fill-opacity = '0.250000' points = '672.8,281.1 672.8,662.4 674.7,662.4 674.7,283.8 '/>
		<polygon fill = 'rgb( 31, 120, 180)' fill-opacity = '0.250000' points = '674.7,283.8 674.7,662.4 676.6,662.4 676.6,286.4 '/>
		<polygon fill = 'rgb( 31, 120, 180)' fill-opacity = '0.250000' points = '676.6,286.4 676.6,662.4 678.5,662.4 678.5,289.0 '/>
		<polygon fill = 'rgb( 31, 120, 180)' fill-opacity = '0.250000' points = '678.5,289.0 678.5,662.4 680.4,662.4 680.4,291.6 '/>
		<polygon fill = 'rgb( 31, 120, 180)' fill-opacity = '0.250000' points = '680.4,291.6 680.4,662.4 682.3,662.4 682.3,294.3 '/>
		<polygon fill = 'rgb( 31, 120, 180)' fill-opacity = '0.250000' points = '682.3,294.3 682.3,662.4 684.2,662.4 684.2,296.9 '/>
		<polygon fill = 'rgb( 31, 120, 180)' fill-opacity = '0.250000' points = '684.2,296.9 684.2,662.4 686.1,662.4 686.1,299.6 '/>
		<polygon fill = 'rgb( 31, 120, 180)' fill-opacity = '0.250000' points = '686.1,299.6 686.1,662.4 688.0,662.4 688.0,302.3 '/>
		<polygon fill = 'rgb( 31, 120, 180)' fill-opacity = '0.250000' points = '688.0,302.3 688.0,662.4 690.0,662.4 690.0,305.0 '/>
		<polygon fill = 'rgb( 31, 120, 180)' fill-opacity = '0.250000' points = '690.0,305.0 690.0,662.4 691.9,662.4 691.9,307.8 '/>
		<polygon fill = 'rgb( 31, 120, 180)' fill-opacity = '0.250000' points = '691.9,307.8 691.9,662.4 693.8,662.4 693.8,310.7 '/>
		<polygon fill = 'rgb( 31, 120, 180)' fill-opacity = '0.250000' points = '693.8,310.7 693.8,662.4 695.7,662.4 695.7,313.6 '/>
		<polygon fill = 'rgb( 31, 120, 180)' fill-opacity = '0.250000' points = '695.7,313.6 695.7,662.4 697.6,662.4 697.6,316.5 '/>
		<polygon fill = 'rgb( 31, 120, 180)' fill-opacity = '0.250000' points = '697.6,316.5 697.6,662.4 699.5,662.4 699.5,319.5 '/>
		<polygon fill = 'rgb( 31, 120, 180)' fill-opacity = '0.250000' points = '699.5,319.5 699.5,662.4 701.4,662.4 701.4,322.6 '/>
		<polygon fill = 'rgb( 31, 120, 180)' fill-opacity = '0.250000' points = '701.4,322.6 701.4,662.4 703.3,662.4 703.3,325.8 '/>
		<polygon fill = 'rgb( 31, 120, 180)' fill-opacity = '0.250000' points = '703.3,325.8 703.3,662.4 705.2,662.4 705.2,329.0 '/>
		<polygon fill = 'rgb( 31, 120, 180)' fill-opacity = '0.250000' points = '705.2,329.0 705.2,662.4 707.1,662.4 707.1,332.3 '/>
		<polygon fill = 'rgb( 31, 120, 180)' fill-opacity = '0.250000' points = '707.1,332.3 707.1,662.4 709.0,662.4 709.0,335.6 '/>
		<polygon fill = 'rgb( 31, 120, 180)' fill-opacity = '0.250000' points = '709.0,335.6 709.0,662.4 710.9,662.4 710.9,339.0 '/>
		<polygon fill = 'rgb( 31, 120, 180)' fill-opacity = '0.250000' points = '710.9,339.0 710.9,662.4 712.8,662.4 712.8,342.5 '/>
		<polygon fill = 'rgb( 31, 120, 180)' fill-opacity = '0.250000' points = '712.8,342.5 712.8,662.4 714.7,662.4 714.7,346.0 '/>
		<polygon fill = 'rgb( 31, 120, 180)' fill-opacity = '0.250000' points = '714.7,346.0 714.7,662.4 716.6,662.4 716.6,349.5 '/>
		<polygon fill = 'rgb( 31, 120, 180)' fill-opacity = '0.250000' points = '716.6,349.5 716.6,662.4 718.5,662.4 718.5,353.0 '/>
		<polygon fill = 'rgb( 31, 120, 180)' fill-opacity = '0.250000' points = '718.5,353.0 718.5,662.4 720.4,662.4 720.4,356.6 '/>
		<polygon fill = 'rgb( 31, 120, 180)' fill-opacity = '0.250000' points = '720.4,356.6 720.4,662.4 722.3,662.4 722.3,360.1 '/>
		<polygon fill = 'rgb( 31, 120, 180)' fill-opacity = '0.250000' points = '722.3,360.1 722.3,662.4 724.2,662.4 724.2,363.6 '/>
		<polygon fill = 'rgb( 31, 120, 180)' fill-opacity = '0.250000' points = '724.2,363.6 724.2,662.4 726.1,662.4 726.1,367.2 '/>
		<polygon fill = 'rgb( 31, 120, 180)' fill-opacity = '0.250000' points = '726.1,367.2 726.1,662.4 728.0,662.4 728.0,370.6 '/>
		<polygon fill = 'rgb( 31, 120, 180)' fill-opacity = '0.250000' points = '728.0,370.6 728.0,662.4 729.9,662.4 729.9,374.1 '/>
		<polygon fill = 'rgb( 31, 120, 180)' fill-opacity = '0.250000' points = '729.9,374.1 729.9,662.4 731.8,662.4 731.8,377.5 '/>
		<polygon fill = 'rgb( 31, 120, 180)' fill-opacity = '0.250000' points = '731.8,377.5 731.8,662.4 733.7,662.4 733.7,380.9 '/>
		<polygon fill = 'rgb( 31, 120, 180)' fill-opacity = '0.250000' points = '733.7,380.9 733.7,662.4 735.6,662.4 735.6,384.2 '/>
		<polygon fill = 'rgb( 31, 120, 180)' fill-opacity = '0.250000' points = '735.6,384.2 735.6,662.4 737.5,662.4 737.5,387.5 '/>
		<polygon fill = 'rgb( 31, 120, 180)' fill-opacity = '0.250000' points = '737.5,387.5 737.5,662.4 739.5,662.4 739.5,390.8 '/>
		<polygon fill = 'rgb( 31, 120, 180)' fill-opacity = '0.250000' points = '739.5,390.8 739.5,662.4 741.4,662.4 741.4,394.0 '/>
		<polygon fill = 'rgb( 31, 120, 180)' fill-opacity = '0.250000' points = '741.4,394.0 741.4,662.4 743.3,662.4 743.3,397.1 '/>
		<polygon fill = 'rgb( 31, 120, 180)' fill-opacity = '0.250000' points = '743.3,397.1 743.3,662.4 745.2,662.4 745.2,400.3 '/>
		<polygon fill = 'rgb( 31, 120, 180)' fill-opacity = '0.250000' points = '745.2,400.3 745.2,662.4 747.1,662.4 747.1,403.4 '/>
		<polygon fill = 'rgb( 31, 120, 180)' fill-opacity = '0.250000' points = '747.1,403.4 747.1,662.4 749.0,662.4 749.0,406.4 '/>
		<polygon fill = 'rgb( 31, 120, 180)' fill-opacity = '0.250000' points = '749.0,406.4 749.0,662.4 750.9,662.4 750.9,409.5 '/>
		<polygon fill = 'rgb( 31, 120, 180)' fill-opacity = '0.250000' points = '750.9,409.5 750.9,662.4 752.8,662.4 752.8,412.5 '/>
		<polygon fill = 'rgb( 31, 120, 180)' fill-opacity = '0.250000' points = '752.8,412.5 752.8,662.4 754.7,662.4 754.7,415.5 '/>
		<polygon fill = 'rgb( 31, 120, 180)' fill-opacity = '0.250000' points = '754.7,415.5 754.7,662.4 756.6,662.4 756.6,418.5 '/>
		<polygon fill = 'rgb( 31, 120, 180)' fill-opacity = '0.250000' points = '756.6,418.5 756.6,662.4 758.5,662.4 758.5,421.5 '/>
		<polygon fill = 'rgb( 31, 120, 180)' fill-opacity = '0.250000' points = '758.5,421.5 758.5,662.4 760.4,662.4 760.4,424.5 '/>
		<polygon fill = 'rgb( 31, 120, 180)' fill-opacity = '0.250000' points = '760.4,424.5 760.4,662.4 762.3,662.4 762.3,427.5 '/>
		<polygon fill = 'rgb( 31, 120, 180)' fill-opacity = '0.250000' points = '762.3,427.5 762.3,662.4 764.2,662.4 764.2,430.4 '/>
		<polygon fill = 'rgb( 31, 120, 180)' fill-opacity = '0.250000' points = '764.2,430.4 764.2,662.4 766.1,662.4 766.1,433.3 '/>
		<polygon fill = 'rgb( 31, 120, 180)' fill-opacity = '0.250000' points = '766.1,433.3 766.1,662.4 768.0,662.4 768.0,436.2 '/>
		<polygon fill = 'rgb( 31, 120, 180)' fill-opacity = '0.250000' points = '768.0,436.2 768.0,662.4 769.9,662.4 769.9,439.0 '/>
		<polygon fill = 'rgb( 31, 120, 180)' fill-opacity = '0.250000' points = '769.9,439.0 769.9,662.4 771.8,662.4 771.8,441.9 '/>
		<polygon fill = 'rgb( 31, 120, 180)' fill-opacity = '0.250000' points = '771.8,441.9 771.8,662.4 773.7,662.4 773.7,444.7 '/>
		<polygon fill = 'rgb( 31, 120, 180)' fill-opacity = '0.250000' points = '773.7,444.7 773.7,662.4 775.6,662.4 775.6,447.4 '/>
		<polygon fill = 'rgb( 31, 120, 180)' fill-opacity = '0.250000' points = '775.6,447.4 775.6,662.4 777.5,662.4 777.5,450.1 '/>
		<polygon fill = 'rgb( 31, 120, 180)' fill-opacity = '0.250000' points = '777.5,450.1 777.5,662.4 779.4,662.4 779.4,452.8 '/>
		<polygon fill = 'rgb( 31, 120, 180)' fill-opacity = '0.250000' points = '779.4,452.8 779.4,662.4 781.3,662.4 781.3,455.4 '/>
		<polygon fill = 'rgb( 31, 120, 180)' fill-opacity = '0.250000' points = '781.3,455.4 781.3,662.4 783.2,662.4 783.2,457.9 '/>
		<polygon fill = 'rgb( 31, 120, 180)' fill-opacity = '0.250000' points = '783.2,457.9 783.2,662.4 785.1,662.4 785.1,460.4 '/>
		<polygon fill = 'rgb( 31, 120, 180)' fill-opacity = '0.250000' points = '785.1,460.4 785.1,662.4 787.0,662.4 787.0,462.8 '/>
		<polygon fill = 'rgb( 31, 120, 180)' fill-opacity = '0.250000' points = '787.0,462.8 787.0,662.4 789.0,662.4 789.0,465.2 '/>
		<polygon fill = 'rgb( 31, 120, 180)' fill-opacity = '0.250000' points = '789.0,465.2 789.0,662.4 790.9,662.4 790.9,467.5 '/>
		<polygon fill = 'rgb( 31, 120, 180)' fill-opacity = '0.250000' points = '790.9,467.5 790.9,662.4 792.8,662.4 792.8,469.8 '/>
		<polygon fill = 'rgb( 31, 120, 180)' fill-opacity = '0.250000' points = '792.8,469.8 792.8,662.4 794.7,662.4 794.7,472.0 '/>
		<polygon fill = 'rgb( 31, 120, 180)' fill-opacity = '0.250000' points = '794.7,472.0 794.7,662.4 796.6,662.4 796.6,474.2 '/>
		<polygon fill = 'rgb( 31, 120, 180)' fill-opacity = '0.250000' points = '796.6,474.2 796.6,662.4 798.5,662.4 798.5,476.3 '/>
		<polygon fill = 'rgb( 31, 120, 180)' fill-opacity = '0.250000' points = '798.5,476.3 798.5,662.4 800.4,662.4 800.4,478.4 '/>
		<polygon fill = 'rgb( 31, 120, 180)' fill-opacity = '0.250000' points = '800.4,478.4 800.4,662.4 802.3,662.4 802.3,480.5 '/>
		<polygon fill = 'rgb( 31, 120, 180)' fill-opacity = '0.250000' points = '802.3,480.5 802.3,662.4 804.2,662.4 804.2,482.5 '/>
		<polygon fill = 'rgb( 31, 120, 180)' fill-opacity = '0.250000' points = '804.2,482.5 804.2,662.4 806.1,662.4 806.1,484.5 '/>
		<polygon fill = 'rgb( 31, 120, 180)' fill-opacity = '0.250000' points = '806.1,484.5 806.1,662.4 808.0,662.4 808.0,486.5 '/>
		<polygon fill = 'rgb( 31, 120, 180)' fill-opacity = '0.250000' points = '808.0,486.5 808.0,662.4 809.9,662.4 809.9,488.5 '/>
		<polygon fill = 'rgb( 31, 120, 180)' fill-opacity = '0.250000' points = '809.9,488.5 809.9,662.4 811.8,662.4 811.8,490.4 '/>
		<polygon fill = 'rgb( 31, 120, 180)' fill-opacity = '0.250000' points = '811.8,490.4 811.8,662.4 813.7,662.4 813.7,492.4 '/>
		<polygon fill = 'rgb( 31, 120, 180)' fill-opacity = '0.250000' points = '813.7,492.4 813.7,662.4 815.6,662.4 815.6,494.3 '/>
		<polygon fill = 'rgb( 31, 120, 180)' fill-opacity = '0.250000' points = '815.6,494.3 815.6,662.4 817.5,662.4 817.5,496.2 '/>
		<polygon fill = 'rgb( 31, 120, 180)' fill-opacity = '0.250000' points = '817.5,496.2 817.5,662.4 819.4,662.4 819.4,498.1 '/>
		<polygon fill = 'rgb( 31, 120, 180)' fill-opacity = '0.250000' points = '819.4,498.1 819.4,662.4 821.3,662.4 821.3,500.1 '/>
		<polygon fill = 'rgb( 31, 120, 180)' fill-opacity = '0.250000' points = '821.3,500.1 821.3,662.4 823.2,662.4 823.2,502.0 '/>
		<polygon fill = 'rgb( 31, 120, 180)' fill-opacity = '0.250000' points = '823.2,502.0 823.2,662.4 825.1,662.4 825.1,503.9 '/>
		<polygon fill = 'rgb( 31, 120, 180)' fill-opacity = '0.250000' points = '825.1,503.9 825.1,662.4 827.0,662.4 827.0,505.8 '/>
		<polygon fill = 'rgb( 31, 120, 180)' fill-opacity = '0.250000' points = '827.0,505.8 827.0,662.4 828.9,662.4 828.9,507.7 '/>
		<polygon fill = 'rgb( 31, 120, 180)' fill-opacity = '0.250000' points = '828.9,507.7 828.9,662.4 830.8,662.4 830.8,509.5 '/>
		<polygon fill = 'rgb( 31, 120, 180)' fill-opacity = '0.250000' points = '830.8,509.5 830.8,662.4 832.7,662.4 832.7,511.4 '/>
		<polygon fill = 'rgb( 31, 120, 180)' fill-opacity = '0.250000' points = '832.7,511.4 832.7,662.4 834.6,662.4 834.6,513.2 '/>
		<polygon fill = 'rgb( 31, 120, 180)' fill-opacity = '0.250000' points = '834.6,513.2 834.6,662.4 836.5,662.4 836.5,515.1 '/>
		<polygon fill = 'rgb( 31, 120, 180)' fill-opacity = '0.250000' points = '836.5,515.1 836.5,662.4 838.4,662.4 838.4,516.9 '/>
		<polygon fill = 'rgb( 31, 120, 180)' fill-opacity = '0.250000' points = '838.4,516.9 838.4,662.4 840.4,662.4 840.4,518.7 '/>
		<polygon fill = 'rgb( 31, 120, 180)' fill-opacity = '0.250000' points = '840.4,518.7 840.4,662.4 842.3,662.4 842.3,520.4 '/>
		<polygon fill = 'rgb( 31, 120, 180)' fill-opacity = '0.250000' points = '842.3,520.4 842.3,662.4 844.2,662.4 844.2,522.1 '/>
		<polygon fill = 'rgb( 31, 120, 180)' fill-opacity = '0.250000' points = '844.2,522.1 844.2,662.4 846.1,662.4 846.1,523.8 '/>
		<polygon fill = 'rgb( 31, 120, 180)' fill-opacity = '0.250000' points = '846.1,523.8 846.1,662.4 848.0,662.4 848.0,525.5 '/>
		<polygon fill = 'rgb( 31, 120, 180)' fill-opacity = '0.250000' points = '848.0,525.5 848.0,662.4 849.9,662.4 849.9,527.2 '/>
		<polygon fill = 'rgb( 31, 120, 180)' fill-opacity = '0.250000' points = '849.9,527.2 849.9,662.4 851.8,662.4 851.8,528.8 '/>
		<polygon fill = 'rgb( 31, 120, 180)' fill-opacity = '0.250000' points = '851.8,528.8 851.8,662.4 853.7,662.4 853.7,530.4 '/>
		<polygon fill = 'rgb( 31, 120, 180)' fill-opacity = '0.250000' points = '853.7,530.4 853.7,662.4 855.6,662.4 855.6,532.0 '/>
		<polygon fill = 'rgb( 31, 120, 180)' fill-opacity = '0.250000' points = '855.6,532.0 855.6,662.4 857.5,662.4 857.5,533.5 '/>
		<polygon fill = 'rgb( 31, 120, 180)' fill-opacity = '0.250000' points = '857.5,533.5 857.5,662.4 859.4,662.4 859.4,535.1 '/>
		<polygon fill = 'rgb( 31, 120, 180)' fill-opacity = '0.250000' points = '859.4,535.1 859.4,662.4 861.3,662.4 861.3,536.6 '/>
		<polygon fill = 'rgb( 31, 120, 180)' fill-opacity = '0.250000' points = '861.3,536.6 861.3,662.4 863.2,662.4 863.2,538.2 '/>
		<polygon fill = 'rgb( 31, 120, 180)' fill-opacity = '0.250000' points = '863.2,538.2 863.2,662.4 865.1,662.4 865.1,539.7 '/>
		<polygon fill = 'rgb( 31, 120, 180)' fill-opacity = '0.250000' points = '865.1,539.7 865.1,662.4 867.0,662.4 867.0,541.2 '/>
		<polygon fill = 'rgb( 31, 120, 180)' fill-opacity = '0.250000' points = '867.0,541.2 867.0,662.4 868.9,662.4 868.9,542.7 '/>
		<polygon fill = 'rgb( 31, 120, 180)' fill-opacity = '0.250000' points = '868.9,542.7 868.9,662.4 870.8,662.4 870.8,544.2 '/>
		<polygon fill = 'rgb( 31, 120, 180)' fill-opacity = '0.250000' points = '870.8,544.2 870.8,662.4 872.7,662.4 872.7,545.8 '/>
		<polygon fill = 'rgb( 31, 120, 180)' fill-opacity = '0.250000' points = '872.7,545.8 872.7,662.4 874.6,662.4 874.6,547.3 '/>
		<polygon fill = 'rgb( 31, 120, 180)' fill-opacity = '0.250000' points = '874.6,547.3 874.6,662.4 876.5,662.4 876.5,548.8 '/>
		<polygon fill = 'rgb( 31, 120, 180)' fill-opacity = '0.250000' points = '876.5,548.8 876.5,662.4 878.4,662.4 878.4,550.4 '/>
		<polygon fill = 'rgb( 31, 120, 180)' fill-opacity = '0.250000' points = '878.4,550.4 878.4,662.4 880.3,662.4 880.3,551.9 '/>
		<polygon fill = 'rgb( 31, 120, 180)' fill-opacity = '0.250000' points = '880.3,551.9 880.3,662.4 882.2,662.4 882.2,553.5 '/>
		<polygon fill = 'rgb( 31, 120, 180)' fill-opacity = '0.250000' points = '882.2,553.5 882.2,662.4 884.1,662.4 884.1,555.0 '/>
		<polygon fill = 'rgb( 31, 120, 180)' fill-opacity = '0.250000' points = '884.1,555.0 884.1,662.4 886.0,662.4 886.0,556.5 '/>
		<polygon fill = 'rgb( 31, 120, 180)' fill-opacity = '0.250000' points = '886.0,556.5 886.0,662.4 887.9,662.4 887.9,558.1 '/>
		<polygon fill = 'rgb( 31, 120, 180)' fill-opacity = '0.250000' points = '887.9,558.1 887.9,662.4 889.9,662.4 889.9,559.6 '/>
		<polygon fill = 'rgb( 31, 120, 180)' fill-opacity = '0.250000' points = '889.9,559.6 889.9,662.4 891.8,662.4 891.8,561.2 '/>
		<polygon fill = 'rgb( 31, 120, 180)' fill-opacity = '0.250000' points = '891.8,561.2 891.8,662.4 893.7,662.4 893.7,562.7 '/>
		<polygon fill = 'rgb( 31, 120, 180)' fill-opacity = '0.250000' points = '893.7,562.7 893.7,662.4 895.6,662.4 895.6,564.2 '/>
		<polygon fill = 'rgb( 31, 120, 180)' fill-opacity = '0.250000' points = '895.6,564.2 895.6,662.4 897.5,662.4 897.5,565.7 '/>
		<polygon fill = 'rgb( 31, 120, 180)' fill-opacity = '0.250000' points = '897.5,565.7 897.5,662.4 899.4,662.4 899.4,567.2 '/>
		<polygon fill = 'rgb( 31, 120, 180)' fill-opacity = '0.250000' points = '899.4,567.2 899.4,662.4 901.3,662.4 901.3,568.7 '/>
		<polygon fill = 'rgb( 31, 120, 180)' fill-opacity = '0.250000' points = '901.3,568.7 901.3,662.4 903.2,662.4 903.2,570.1 '/>
		<polygon fill = 'rgb( 31, 120, 180)' fill-opacity = '0.250000' points = '903.2,570.1 903.2,662.4 905.1,662.4 905.1,571.6 '/>
		<polygon fill = 'rgb( 31, 120, 180)' fill-opacity = '0.250000' points = '905.1,571.6 905.1,662.4 907.0,662.4 907.0,573.0 '/>
		<polygon fill = 'rgb( 31, 120, 180)' fill-opacity = '0.250000' points = '907.0,573.0 907.0,662.4 908.9,662.4 908.9,574.4 '/>
		<polygon fill = 'rgb( 31, 120, 180)' fill-opacity = '0.250000' points = '908.9,574.4 908.9,662.4 910.8,662.4 910.8,575.7 '/>
		<polygon fill = 'rgb( 31, 120, 180)' fill-opacity = '0.250000' points = '910.8,575.7 910.8,662.4 912.7,662.4 912.7,577.1 '/>
		<polygon fill = 'rgb( 31, 120, 180)' fill-opacity = '0.250000' points = '912.7,577.1 912.7,662.4 914.6,662.4 914.6,578.4 '/>
		<polygon fill = 'rgb( 31, 120, 180)' fill-opacity = '0.250000' points = '914.6,578.4 914.6,662.4 916.5,662.4 916.5,579.7 '/>
		<polygon fill = 'rgb( 31, 120, 180)' fill-opacity = '0.250000' points = '916.5,579.7 916.5,662.4 918.4,662.4 918.4,581.0 '/>
		<polygon fill = 'rgb( 31, 120, 180)' fill-opacity = '0.250000' points = '918.4,581.0 918.4,662.4 920.3,662.4 920.3,582.3 '/>
		<polygon fill = 'rgb( 31, 120, 180)' fill-opacity = '0.250000' points = '920.3,582.3 920.3,662.4 922.2,662.4 922.2,583.6 '/>
		<polygon fill = 'rgb( 31, 120, 180)' fill-opacity = '0.250000' points = '922.2,583.6 922.2,662.4 924.1,662.4 924.1,584.8 '/>
	</g>
</g>
	</g>
	<g id="gnuplot_plot_3" ><title>Point estimate</title>
<g fill="none" color="white" stroke="rgb( 31, 120, 180)" stroke-width="2.00" stroke-linecap="butt" stroke-linejoin="miter">
</g>
<g fill="none" color="black" stroke="currentColor" stroke-width="2.00" stroke-linecap="butt" stroke-linejoin="miter">
	<g transform="translate(1089.0,103.0)" stroke="none" fill="black" font-family="Helvetica" font-size="12.00"  text-anchor="start">
		<text><tspan font-family="Helvetica" >Point estimate</tspan></text>
	</g>
</g>
<g fill="none" color="black" stroke="currentColor" stroke-width="2.00" stroke-linecap="butt" stroke-linejoin="miter">
	<path stroke='rgb( 31, 120, 180)'  d='M1038.5,99.1 L1080.7,99.1 M508.4,662.4 L508.4,82.7  '/></g>
	</g>
<g fill="none" color="black" stroke="currentColor" stroke-width="2.00" stroke-linecap="butt" stroke-linejoin="miter">
</g>
<g fill="none" color="black" stroke="black" stroke-width="1.00" stroke-linecap="butt" stroke-linejoin="miter">
</g>
<g fill="none" color="black" stroke="currentColor" stroke-width="1.00" stroke-linecap="butt" stroke-linejoin="miter">
	<path stroke='black'  d='M63.6,54.1 L63.6,662.4 L1013.6,662.4 L1013.6,54.1 L63.6,54.1 Z  '/></g>
<g fill="none" color="black" stroke="currentColor" stroke-width="1.00" stroke-linecap="butt" stroke-linejoin="miter">
</g>
</g>
</svg>

