<?xml version="1.0" encoding="utf-8"  standalone="no"?>
<svg 
 viewBox="0 0 1280 720"
 xmlns="http://www.w3.org/2000/svg"
 xmlns:xlink="http://www.w3.org/1999/xlink"
>

<title>Gnuplot</title>
<desc>Produced by GNUPLOT 5.0 patchlevel 6 </desc>

<g id="gnuplot_canvas">

<rect x="0" y="0" width="1280" height="720" fill="none"/>
<defs>

	<circle id='gpDot' r='0.5' stroke-width='0.5'/>
	<path id='gpPt0' stroke-width='0.222' stroke='currentColor' d='M-1,0 h2 M0,-1 v2'/>
	<path id='gpPt1' stroke-width='0.222' stroke='currentColor' d='M-1,-1 L1,1 M1,-1 L-1,1'/>
	<path id='gpPt2' stroke-width='0.222' stroke='currentColor' d='M-1,0 L1,0 M0,-1 L0,1 M-1,-1 L1,1 M-1,1 L1,-1'/>
	<rect id='gpPt3' stroke-width='0.222' stroke='currentColor' x='-1' y='-1' width='2' height='2'/>
	<rect id='gpPt4' stroke-width='0.222' stroke='currentColor' fill='currentColor' x='-1' y='-1' width='2' height='2'/>
	<circle id='gpPt5' stroke-width='0.222' stroke='currentColor' cx='0' cy='0' r='1'/>
	<use xlink:href='#gpPt5' id='gpPt6' fill='currentColor' stroke='none'/>
	<path id='gpPt7' stroke-width='0.222' stroke='currentColor' d='M0,-1.33 L-1.33,0.67 L1.33,0.67 z'/>
	<use xlink:href='#gpPt7' id='gpPt8' fill='currentColor' stroke='none'/>
	<use xlink:href='#gpPt7' id='gpPt9' stroke='currentColor' transform='rotate(180)'/>
	<use xlink:href='#gpPt9' id='gpPt10' fill='currentColor' stroke='none'/>
	<use xlink:href='#gpPt3' id='gpPt11' stroke='currentColor' transform='rotate(45)'/>
	<use xlink:href='#gpPt11' id='gpPt12' fill='currentColor' stroke='none'/>
	<path id='gpPt13' stroke-width='0.222' stroke='currentColor' d='M0,1.330 L1.265,0.411 L0.782,-1.067 L-0.782,-1.076 L-1.265,0.411 z'/>
	<use xlink:href='#gpPt13' id='gpPt14' fill='currentColor' stroke='none'/>
	<filter id='textbox' filterUnits='objectBoundingBox' x='0' y='0' height='1' width='1'>
	  <feFlood flood-color='white' flood-opacity='1' result='bgnd'/>
	  <feComposite in='SourceGraphic' in2='bgnd' operator='atop'/>
	</filter>
	<filter id='greybox' filterUnits='objectBoundingBox' x='0' y='0' height='1' width='1'>
	  <feFlood flood-color='lightgrey' flood-opacity='1' result='grey'/>
	  <feComposite in='SourceGraphic' in2='grey' operator='atop'/>
	</filter>
</defs>
<g fill="none" color="white" stroke="currentColor" stroke-width="1.00" stroke-linecap="butt" stroke-linejoin="miter">
</g>
<g fill="none" color="black" stroke="currentColor" stroke-width="1.00" stroke-linecap="butt" stroke-linejoin="miter">
	<path stroke='black'  d='M71.9,662.4 L80.9,662.4  '/>	<g transform="translate(63.6,666.3)" stroke="none" fill="black" font-family="Helvetica" font-size="12.00"  text-anchor="end">
		<text><tspan font-family="Helvetica" > 0</tspan></text>
	</g>
</g>
<g fill="none" color="black" stroke="currentColor" stroke-width="1.00" stroke-linecap="butt" stroke-linejoin="miter">
	<path stroke='black'  d='M71.9,594.8 L80.9,594.8  '/>	<g transform="translate(63.6,598.7)" stroke="none" fill="black" font-family="Helvetica" font-size="12.00"  text-anchor="end">
		<text><tspan font-family="Helvetica" > 0.5</tspan></text>
	</g>
</g>
<g fill="none" color="black" stroke="currentColor" stroke-width="1.00" stroke-linecap="butt" stroke-linejoin="miter">
	<path stroke='black'  d='M71.9,527.2 L80.9,527.2  '/>	<g transform="translate(63.6,531.1)" stroke="none" fill="black" font-family="Helvetica" font-size="12.00"  text-anchor="end">
		<text><tspan font-family="Helvetica" > 1</tspan></text>
	</g>
</g>
<g fill="none" color="black" stroke="currentColor" stroke-width="1.00" stroke-linecap="butt" stroke-linejoin="miter">
	<path stroke='black'  d='M71.9,459.6 L80.9,459.6  '/>	<g transform="translate(63.6,463.5)" stroke="none" fill="black" font-family="Helvetica" font-size="12.00"  text-anchor="end">
		<text><tspan font-family="Helvetica" > 1.5</tspan></text>
	</g>
</g>
<g fill="none" color="black" stroke="currentColor" stroke-width="1.00" stroke-linecap="butt" stroke-linejoin="miter">
	<path stroke='black'  d='M71.9,392.0 L80.9,392.0  '/>	<g transform="translate(63.6,395.9)" stroke="none" fill="black" font-family="Helvetica" font-size="12.00"  text-anchor="end">
		<text><tspan font-family="Helvetica" > 2</tspan></text>
	</g>
</g>
<g fill="none" color="black" stroke="currentColor" stroke-width="1.00" stroke-linecap="butt" stroke-linejoin="miter">
	<path stroke='black'  d='M71.9,324.5 L80.9,324.5  '/>	<g transform="translate(63.6,328.4)" stroke="none" fill="black" font-family="Helvetica" font-size="12.00"  text-anchor="end">
		<text><tspan font-family="Helvetica" > 2.5</tspan></text>
	</g>
</g>
<g fill="none" color="black" stroke="currentColor" stroke-width="1.00" stroke-linecap="butt" stroke-linejoin="miter">
	<path stroke='black'  d='M71.9,256.9 L80.9,256.9  '/>	<g transform="translate(63.6,260.8)" stroke="none" fill="black" font-family="Helvetica" font-size="12.00"  text-anchor="end">
		<text><tspan font-family="Helvetica" > 3</tspan></text>
	</g>
</g>
<g fill="none" color="black" stroke="currentColor" stroke-width="1.00" stroke-linecap="butt" stroke-linejoin="miter">
	<path stroke='black'  d='M71.9,189.3 L80.9,189.3  '/>	<g transform="translate(63.6,193.2)" stroke="none" fill="black" font-family="Helvetica" font-size="12.00"  text-anchor="end">
		<text><tspan font-family="Helvetica" > 3.5</tspan></text>
	</g>
</g>
<g fill="none" color="black" stroke="currentColor" stroke-width="1.00" stroke-linecap="butt" stroke-linejoin="miter">
	<path stroke='black'  d='M71.9,121.7 L80.9,121.7  '/>	<g transform="translate(63.6,125.6)" stroke="none" fill="black" font-family="Helvetica" font-size="12.00"  text-anchor="end">
		<text><tspan font-family="Helvetica" > 4</tspan></text>
	</g>
</g>
<g fill="none" color="black" stroke="currentColor" stroke-width="1.00" stroke-linecap="butt" stroke-linejoin="miter">
	<path stroke='black'  d='M71.9,54.1 L80.9,54.1  '/>	<g transform="translate(63.6,58.0)" stroke="none" fill="black" font-family="Helvetica" font-size="12.00"  text-anchor="end">
		<text><tspan font-family="Helvetica" > 4.5</tspan></text>
	</g>
</g>
<g fill="none" color="black" stroke="currentColor" stroke-width="1.00" stroke-linecap="butt" stroke-linejoin="miter">
	<path stroke='black'  d='M110.7,662.4 L110.7,653.4  '/>	<g transform="translate(110.7,684.3)" stroke="none" fill="black" font-family="Helvetica" font-size="12.00"  text-anchor="middle">
		<text><tspan font-family="Helvetica" > 0.6</tspan></text>
	</g>
</g>
<g fill="none" color="black" stroke="currentColor" stroke-width="1.00" stroke-linecap="butt" stroke-linejoin="miter">
	<path stroke='black'  d='M206.9,662.4 L206.9,653.4  '/>	<g transform="translate(206.9,684.3)" stroke="none" fill="black" font-family="Helvetica" font-size="12.00"  text-anchor="middle">
		<text><tspan font-family="Helvetica" > 0.65</tspan></text>
	</g>
</g>
<g fill="none" color="black" stroke="currentColor" stroke-width="1.00" stroke-linecap="butt" stroke-linejoin="miter">
	<path stroke='black'  d='M303.1,662.4 L303.1,653.4  '/>	<g transform="translate(303.1,684.3)" stroke="none" fill="black" font-family="Helvetica" font-size="12.00"  text-anchor="middle">
		<text><tspan font-family="Helvetica" > 0.7</tspan></text>
	</g>
</g>
<g fill="none" color="black" stroke="currentColor" stroke-width="1.00" stroke-linecap="butt" stroke-linejoin="miter">
	<path stroke='black'  d='M399.4,662.4 L399.4,653.4  '/>	<g transform="translate(399.4,684.3)" stroke="none" fill="black" font-family="Helvetica" font-size="12.00"  text-anchor="middle">
		<text><tspan font-family="Helvetica" > 0.75</tspan></text>
	</g>
</g>
<g fill="none" color="black" stroke="currentColor" stroke-width="1.00" stroke-linecap="butt" stroke-linejoin="miter">
	<path stroke='black'  d='M495.6,662.4 L495.6,653.4  '/>	<g transform="translate(495.6,684.3)" stroke="none" fill="black" font-family="Helvetica" font-size="12.00"  text-anchor="middle">
		<text><tspan font-family="Helvetica" > 0.8</tspan></text>
	</g>
</g>
<g fill="none" color="black" stroke="currentColor" stroke-width="1.00" stroke-linecap="butt" stroke-linejoin="miter">
	<path stroke='black'  d='M591.8,662.4 L591.8,653.4  '/>	<g transform="translate(591.8,684.3)" stroke="none" fill="black" font-family="Helvetica" font-size="12.00"  text-anchor="middle">
		<text><tspan font-family="Helvetica" > 0.85</tspan></text>
	</g>
</g>
<g fill="none" color="black" stroke="currentColor" stroke-width="1.00" stroke-linecap="butt" stroke-linejoin="miter">
	<path stroke='black'  d='M688.0,662.4 L688.0,653.4  '/>	<g transform="translate(688.0,684.3)" stroke="none" fill="black" font-family="Helvetica" font-size="12.00"  text-anchor="middle">
		<text><tspan font-family="Helvetica" > 0.9</tspan></text>
	</g>
</g>
<g fill="none" color="black" stroke="currentColor" stroke-width="1.00" stroke-linecap="butt" stroke-linejoin="miter">
	<path stroke='black'  d='M784.3,662.4 L784.3,653.4  '/>	<g transform="translate(784.3,684.3)" stroke="none" fill="black" font-family="Helvetica" font-size="12.00"  text-anchor="middle">
		<text><tspan font-family="Helvetica" > 0.95</tspan></text>
	</g>
</g>
<g fill="none" color="black" stroke="currentColor" stroke-width="1.00" stroke-linecap="butt" stroke-linejoin="miter">
	<path stroke='black'  d='M880.5,662.4 L880.5,653.4  '/>	<g transform="translate(880.5,684.3)" stroke="none" fill="black" font-family="Helvetica" font-size="12.00"  text-anchor="middle">
		<text><tspan font-family="Helvetica" > 1</tspan></text>
	</g>
</g>
<g fill="none" color="black" stroke="currentColor" stroke-width="1.00" stroke-linecap="butt" stroke-linejoin="miter">
	<path stroke='black'  d='M976.7,662.4 L976.7,653.4  '/>	<g transform="translate(976.7,684.3)" stroke="none" fill="black" font-family="Helvetica" font-size="12.00"  text-anchor="middle">
		<text><tspan font-family="Helvetica" > 1.05</tspan></text>
	</g>
</g>
<g fill="none" color="black" stroke="currentColor" stroke-width="1.00" stroke-linecap="butt" stroke-linejoin="miter">
</g>
<g fill="none" color="black" stroke="currentColor" stroke-width="1.00" stroke-linecap="butt" stroke-linejoin="miter">
	<path stroke='black'  d='M71.9,54.1 L71.9,662.4 L1013.6,662.4 L1013.6,54.1 L71.9,54.1 Z  '/></g>
<g fill="none" color="black" stroke="currentColor" stroke-width="1.00" stroke-linecap="butt" stroke-linejoin="miter">
	<g transform="translate(17.0,358.3) rotate(270)" stroke="none" fill="black" font-family="Helvetica" font-size="12.00"  text-anchor="middle">
		<text><tspan font-family="Helvetica" >Density (a.u.)</tspan></text>
	</g>
</g>
<g fill="none" color="black" stroke="currentColor" stroke-width="1.00" stroke-linecap="butt" stroke-linejoin="miter">
	<g transform="translate(542.7,711.3)" stroke="none" fill="black" font-family="Helvetica" font-size="12.00"  text-anchor="middle">
		<text><tspan font-family="Helvetica" >Average time (us)</tspan></text>
	</g>
</g>
<g fill="none" color="black" stroke="currentColor" stroke-width="1.00" stroke-linecap="butt" stroke-linejoin="miter">
	<g transform="translate(542.7,31.0)" stroke="none" fill="black" font-family="Helvetica" font-size="12.00"  text-anchor="middle">
		<text><tspan font-family="Helvetica" >language: python/parse normal: python/examples/tabs.py: SD</tspan></text>
	</g>
</g>
	<g id="gnuplot_plot_1" ><title>Bootstrap distribution</title>
<g fill="none" color="white" stroke="black" stroke-width="2.00" stroke-linecap="butt" stroke-linejoin="miter">
</g>
<g fill="none" color="black" stroke="currentColor" stroke-width="2.00" stroke-linecap="butt" stroke-linejoin="miter">
	<g transform="translate(1089.0,67.0)" stroke="none" fill="black" font-family="Helvetica" font-size="12.00"  text-anchor="start">
		<text><tspan font-family="Helvetica" >Bootstrap distribution</tspan></text>
	</g>
</g>
<g fill="none" color="black" stroke="currentColor" stroke-width="2.00" stroke-linecap="butt" stroke-linejoin="miter">
	<path stroke='rgb( 31, 120, 180)'  d='M1038.5,63.1 L1080.7,63.1 M71.9,634.8 L73.8,634.3 L75.7,633.7 L77.6,633.1 L79.4,632.5 L81.3,631.8
		L83.2,631.2 L85.1,630.5 L87.0,629.8 L88.9,629.1 L90.8,628.4 L92.7,627.7 L94.5,626.9 L96.4,626.2
		L98.3,625.5 L100.2,624.7 L102.1,624.0 L104.0,623.3 L105.9,622.5 L107.8,621.8 L109.6,621.1 L111.5,620.4
		L113.4,619.7 L115.3,618.9 L117.2,618.2 L119.1,617.5 L121.0,616.8 L122.9,616.1 L124.7,615.3 L126.6,614.6
		L128.5,613.9 L130.4,613.1 L132.3,612.4 L134.2,611.6 L136.1,610.8 L138.0,610.0 L139.8,609.2 L141.7,608.3
		L143.6,607.5 L145.5,606.6 L147.4,605.7 L149.3,604.8 L151.2,603.8 L153.0,602.9 L154.9,601.9 L156.8,600.9
		L158.7,599.8 L160.6,598.8 L162.5,597.7 L164.4,596.6 L166.3,595.5 L168.1,594.4 L170.0,593.3 L171.9,592.1
		L173.8,591.0 L175.7,589.8 L177.6,588.6 L179.5,587.4 L181.4,586.2 L183.2,585.1 L185.1,583.9 L187.0,582.7
		L188.9,581.4 L190.8,580.2 L192.7,579.0 L194.6,577.8 L196.5,576.6 L198.3,575.4 L200.2,574.2 L202.1,573.0
		L204.0,571.8 L205.9,570.5 L207.8,569.3 L209.7,568.1 L211.6,566.9 L213.4,565.6 L215.3,564.4 L217.2,563.1
		L219.1,561.8 L221.0,560.5 L222.9,559.2 L224.8,557.9 L226.6,556.5 L228.5,555.2 L230.4,553.7 L232.3,552.3
		L234.2,550.9 L236.1,549.4 L238.0,547.8 L239.9,546.3 L241.7,544.7 L243.6,543.1 L245.5,541.5 L247.4,539.8
		L249.3,538.2 L251.2,536.5 L253.1,534.8 L255.0,533.1 L256.8,531.4 L258.7,529.6 L260.6,527.9 L262.5,526.2
		L264.4,524.4 L266.3,522.7 L268.2,521.0 L270.1,519.2 L271.9,517.5 L273.8,515.7 L275.7,514.0 L277.6,512.2
		L279.5,510.4 L281.4,508.6 L283.3,506.8 L285.2,505.0 L287.0,503.2 L288.9,501.3 L290.8,499.4 L292.7,497.5
		L294.6,495.5 L296.5,493.5 L298.4,491.4 L300.2,489.3 L302.1,487.2 L304.0,485.0 L305.9,482.7 L307.8,480.4
		L309.7,478.1 L311.6,475.7 L313.5,473.2 L315.3,470.7 L317.2,468.2 L319.1,465.5 L321.0,462.9 L322.9,460.2
		L324.8,457.5 L326.7,454.7 L328.6,451.9 L330.4,449.1 L332.3,446.3 L334.2,443.4 L336.1,440.5 L338.0,437.6
		L339.9,434.7 L341.8,431.8 L343.7,428.8 L345.5,425.9 L347.4,423.0 L349.3,420.1 L351.2,417.2 L353.1,414.3
		L355.0,411.4 L356.9,408.6 L358.8,405.7 L360.6,402.9 L362.5,400.1 L364.4,397.3 L366.3,394.6 L368.2,391.8
		L370.1,389.1 L372.0,386.3 L373.8,383.6 L375.7,380.8 L377.6,378.0 L379.5,375.2 L381.4,372.4 L383.3,369.5
		L385.2,366.6 L387.1,363.7 L388.9,360.7 L390.8,357.7 L392.7,354.7 L394.6,351.6 L396.5,348.5 L398.4,345.3
		L400.3,342.1 L402.2,338.9 L404.0,335.7 L405.9,332.5 L407.8,329.3 L409.7,326.0 L411.6,322.8 L413.5,319.6
		L415.4,316.5 L417.3,313.3 L419.1,310.2 L421.0,307.1 L422.9,304.1 L424.8,301.1 L426.7,298.1 L428.6,295.2
		L430.5,292.3 L432.4,289.4 L434.2,286.6 L436.1,283.8 L438.0,281.0 L439.9,278.3 L441.8,275.6 L443.7,272.9
		L445.6,270.3 L447.4,267.7 L449.3,265.1 L451.2,262.5 L453.1,259.9 L455.0,257.4 L456.9,254.9 L458.8,252.4
		L460.7,249.8 L462.5,247.3 L464.4,244.8 L466.3,242.3 L468.2,239.8 L470.1,237.3 L472.0,234.7 L473.9,232.2
		L475.8,229.6 L477.6,227.0 L479.5,224.4 L481.4,221.7 L483.3,219.1 L485.2,216.4 L487.1,213.7 L489.0,211.0
		L490.9,208.2 L492.7,205.5 L494.6,202.8 L496.5,200.0 L498.4,197.3 L500.3,194.5 L502.2,191.8 L504.1,189.1
		L506.0,186.4 L507.8,183.7 L509.7,181.1 L511.6,178.5 L513.5,175.9 L515.4,173.3 L517.3,170.8 L519.2,168.3
		L521.0,165.8 L522.9,163.4 L524.8,161.0 L526.7,158.7 L528.6,156.4 L530.5,154.2 L532.4,152.0 L534.3,149.9
		L536.1,147.9 L538.0,145.9 L539.9,143.9 L541.8,142.1 L543.7,140.3 L545.6,138.5 L547.5,136.9 L549.4,135.3
		L551.2,133.7 L553.1,132.2 L555.0,130.8 L556.9,129.5 L558.8,128.2 L560.7,126.9 L562.6,125.7 L564.5,124.6
		L566.3,123.5 L568.2,122.4 L570.1,121.5 L572.0,120.5 L573.9,119.6 L575.8,118.8 L577.7,118.1 L579.5,117.4
		L581.4,116.7 L583.3,116.1 L585.2,115.6 L587.1,115.2 L589.0,114.8 L590.9,114.5 L592.8,114.3 L594.6,114.1
		L596.5,114.1 L598.4,114.0 L600.3,114.1 L602.2,114.2 L604.1,114.4 L606.0,114.7 L607.9,115.0 L609.7,115.4
		L611.6,115.9 L613.5,116.4 L615.4,116.9 L617.3,117.5 L619.2,118.1 L621.1,118.8 L623.0,119.5 L624.8,120.2
		L626.7,120.9 L628.6,121.7 L630.5,122.6 L632.4,123.4 L634.3,124.3 L636.2,125.2 L638.1,126.2 L639.9,127.2
		L641.8,128.2 L643.7,129.3 L645.6,130.4 L647.5,131.6 L649.4,132.9 L651.3,134.2 L653.1,135.5 L655.0,137.0
		L656.9,138.5 L658.8,140.1 L660.7,141.7 L662.6,143.5 L664.5,145.3 L666.4,147.2 L668.2,149.1 L670.1,151.1
		L672.0,153.2 L673.9,155.4 L675.8,157.5 L677.7,159.8 L679.6,162.1 L681.5,164.4 L683.3,166.8 L685.2,169.2
		L687.1,171.6 L689.0,174.1 L690.9,176.6 L692.8,179.2 L694.7,181.7 L696.6,184.4 L698.4,187.0 L700.3,189.7
		L702.2,192.5 L704.1,195.3 L706.0,198.2 L707.9,201.1 L709.8,204.1 L711.7,207.1 L713.5,210.1 L715.4,213.2
		L717.3,216.4 L719.2,219.6 L721.1,222.8 L723.0,226.1 L724.9,229.4 L726.7,232.7 L728.6,236.0 L730.5,239.3
		L732.4,242.6 L734.3,245.9 L736.2,249.2 L738.1,252.5 L740.0,255.8 L741.8,259.0 L743.7,262.3 L745.6,265.5
		L747.5,268.7 L749.4,271.9 L751.3,275.1 L753.2,278.3 L755.1,281.6 L756.9,284.8 L758.8,288.1 L760.7,291.3
		L762.6,294.7 L764.5,298.0 L766.4,301.4 L768.3,304.9 L770.2,308.4 L772.0,312.0 L773.9,315.6 L775.8,319.3
		L777.7,323.0 L779.6,326.7 L781.5,330.5 L783.4,334.4 L785.3,338.2 L787.1,342.1 L789.0,346.0 L790.9,349.9
		L792.8,353.7 L794.7,357.6 L796.6,361.5 L798.5,365.3 L800.3,369.1 L802.2,372.8 L804.1,376.5 L806.0,380.2
		L807.9,383.8 L809.8,387.4 L811.7,390.9 L813.6,394.4 L815.4,397.9 L817.3,401.3 L819.2,404.7 L821.1,408.1
		L823.0,411.4 L824.9,414.8 L826.8,418.0 L828.7,421.3 L830.5,424.6 L832.4,427.8 L834.3,431.0 L836.2,434.2
		L838.1,437.3 L840.0,440.4 L841.9,443.5 L843.8,446.6 L845.6,449.6 L847.5,452.6 L849.4,455.6 L851.3,458.5
		L853.2,461.4 L855.1,464.2 L857.0,467.1 L858.9,469.9 L860.7,472.7 L862.6,475.5 L864.5,478.3 L866.4,481.1
		L868.3,483.8 L870.2,486.7 L872.1,489.5 L873.9,492.3 L875.8,495.2 L877.7,498.1 L879.6,501.0 L881.5,504.0
		L883.4,507.0 L885.3,510.0 L887.2,513.0 L889.0,516.0 L890.9,519.1 L892.8,522.1 L894.7,525.1 L896.6,528.1
		L898.5,531.1 L900.4,534.0 L902.3,536.9 L904.1,539.7 L906.0,542.5 L907.9,545.2 L909.8,547.8 L911.7,550.4
		L913.6,552.8 L915.5,555.2 L917.4,557.5 L919.2,559.7 L921.1,561.8 L923.0,563.9 L924.9,565.9 L926.8,567.8
		L928.7,569.6 L930.6,571.4 L932.5,573.2 L934.3,574.9 L936.2,576.6 L938.1,578.3 L940.0,580.0 L941.9,581.6
		L943.8,583.3 L945.7,584.9 L947.5,586.5 L949.4,588.1 L951.3,589.8 L953.2,591.4 L955.1,593.0 L957.0,594.7
		L958.9,596.3 L960.8,597.9 L962.6,599.5 L964.5,601.1 L966.4,602.7 L968.3,604.3 L970.2,605.9 L972.1,607.4
		L974.0,608.9 L975.9,610.4 L977.7,611.8 L979.6,613.2 L981.5,614.6 L983.4,615.9 L985.3,617.2 L987.2,618.4
		L989.1,619.6 L991.0,620.8 L992.8,621.9 L994.7,623.0 L996.6,624.1 L998.5,625.1 L1000.4,626.1 L1002.3,627.1
		L1004.2,628.0 L1006.1,628.9 L1007.9,629.8 L1009.8,630.6 L1011.7,631.5 L1013.6,632.3  '/></g>
	</g>
	<g id="gnuplot_plot_2" ><title>Confidence interval</title>
<g fill="none" color="white" stroke="rgb( 31, 120, 180)" stroke-width="1.00" stroke-linecap="butt" stroke-linejoin="miter">
</g>
<g fill="none" color="black" stroke="currentColor" stroke-width="1.00" stroke-linecap="butt" stroke-linejoin="miter">
	<g transform="translate(1089.0,85.0)" stroke="none" fill="black" font-family="Helvetica" font-size="12.00"  text-anchor="start">
		<text><tspan font-family="Helvetica" >Confidence interval</tspan></text>
	</g>
</g>
<g fill="none" color="black" stroke="currentColor" stroke-width="1.00" stroke-linecap="butt" stroke-linejoin="miter">
	<g stroke='none' shape-rendering='crispEdges'>
		<polygon fill = 'rgb( 31, 120, 180)' fill-opacity = '0.250000' points = '1038.5,85.6 1080.7,85.6 1080.7,76.6 1038.5,76.6 '/>
		<polygon fill = 'rgb( 31, 120, 180)' fill-opacity = '0.250000' points = '158.7,599.8 158.7,662.4 160.6,662.4 160.6,598.8 '/>
		<polygon fill = 'rgb( 31, 120, 180)' fill-opacity = '0.250000' points = '160.6,598.8 160.6,662.4 162.5,662.4 162.5,597.7 '/>
		<polygon fill = 'rgb( 31, 120, 180)' fill-opacity = '0.250000' points = '162.5,597.7 162.5,662.4 164.4,662.4 164.4,596.6 '/>
		<polygon fill = 'rgb( 31, 120, 180)' fill-opacity = '0.250000' points = '164.4,596.6 164.4,662.4 166.3,662.4 166.3,595.5 '/>
		<polygon fill = 'rgb( 31, 120, 180)' fill-opacity = '0.250000' points = '166.3,595.5 166.3,662.4 168.1,662.4 168.1,594.4 '/>
		<polygon fill = 'rgb( 31, 120, 180)' fill-opacity = '0.250000' points = '168.1,594.4 168.1,662.4 170.0,662.4 170.0,593.3 '/>
		<polygon fill = 'rgb( 31, 120, 180)' fill-opacity = '0.250000' points = '170.0,593.3 170.0,662.4 171.9,662.4 171.9,592.1 '/>
		<polygon fill = 'rgb( 31, 120, 180)' fill-opacity = '0.250000' points = '171.9,592.1 171.9,662.4 173.8,662.4 173.8,591.0 '/>
		<polygon fill = 'rgb( 31, 120, 180)' fill-opacity = '0.250000' points = '173.8,591.0 173.8,662.4 175.7,662.4 175.7,589.8 '/>
		<polygon fill = 'rgb( 31, 120, 180)' fill-opacity = '0.250000' points = '175.7,589.8 175.7,662.4 177.6,662.4 177.6,588.6 '/>
		<polygon fill = 'rgb( 31, 120, 180)' fill-opacity = '0.250000' points = '177.6,588.6 177.6,662.4 179.5,662.4 179.5,587.4 '/>
		<polygon fill = 'rgb( 31, 120, 180)' fill-opacity = '0.250000' points = '179.5,587.4 179.5,662.4 181.4,662.4 181.4,586.2 '/>
		<polygon fill = 'rgb( 31, 120, 180)' fill-opacity = '0.250000' points = '181.4,586.2 181.4,662.4 183.2,662.4 183.2,585.1 '/>
		<polygon fill = 'rgb( 31, 120, 180)' fill-opacity = '0.250000' points = '183.2,585.1 183.2,662.4 185.1,662.4 185.1,583.9 '/>
		<polygon fill = 'rgb( 31, 120, 180)' fill-opacity = '0.250000' points = '185.1,583.9 185.1,662.4 187.0,662.4 187.0,582.7 '/>
		<polygon fill = 'rgb( 31, 120, 180)' fill-opacity = '0.250000' points = '187.0,582.7 187.0,662.4 188.9,662.4 188.9,581.4 '/>
		<polygon fill = 'rgb( 31, 120, 180)' fill-opacity = '0.250000' points = '188.9,581.4 188.9,662.4 190.8,662.4 190.8,580.2 '/>
		<polygon fill = 'rgb( 31, 120, 180)' fill-opacity = '0.250000' points = '190.8,580.2 190.8,662.4 192.7,662.4 192.7,579.0 '/>
		<polygon fill = 'rgb( 31, 120, 180)' fill-opacity = '0.250000' points = '192.7,579.0 192.7,662.4 194.6,662.4 194.6,577.8 '/>
		<polygon fill = 'rgb( 31, 120, 180)' fill-opacity = '0.250000' points = '194.6,577.8 194.6,662.4 196.5,662.4 196.5,576.6 '/>
		<polygon fill = 'rgb( 31, 120, 180)' fill-opacity = '0.250000' points = '196.5,576.6 196.5,662.4 198.3,662.4 198.3,575.4 '/>
		<polygon fill = 'rgb( 31, 120, 180)' fill-opacity = '0.250000' points = '198.3,575.4 198.3,662.4 200.2,662.4 200.2,574.2 '/>
		<polygon fill = 'rgb( 31, 120, 180)' fill-opacity = '0.250000' points = '200.2,574.2 200.2,662.4 202.1,662.4 202.1,573.0 '/>
		<polygon fill = 'rgb( 31, 120, 180)' fill-opacity = '0.250000' points = '202.1,573.0 202.1,662.4 204.0,662.4 204.0,571.8 '/>
		<polygon fill = 'rgb( 31, 120, 180)' fill-opacity = '0.250000' points = '204.0,571.8 204.0,662.4 205.9,662.4 205.9,570.5 '/>
		<polygon fill = 'rgb( 31, 120, 180)' fill-opacity = '0.250000' points = '205.9,570.5 205.9,662.4 207.8,662.4 207.8,569.3 '/>
		<polygon fill = 'rgb( 31, 120, 180)' fill-opacity = '0.250000' points = '207.8,569.3 207.8,662.4 209.7,662.4 209.7,568.1 '/>
		<polygon fill = 'rgb( 31, 120, 180)' fill-opacity = '0.250000' points = '209.7,568.1 209.7,662.4 211.6,662.4 211.6,566.9 '/>
		<polygon fill = 'rgb( 31, 120, 180)' fill-opacity = '0.250000' points = '211.6,566.9 211.6,662.4 213.4,662.4 213.4,565.6 '/>
		<polygon fill = 'rgb( 31, 120, 180)' fill-opacity = '0.250000' points = '213.4,565.6 213.4,662.4 215.3,662.4 215.3,564.4 '/>
		<polygon fill = 'rgb( 31, 120, 180)' fill-opacity = '0.250000' points = '215.3,564.4 215.3,662.4 217.2,662.4 217.2,563.1 '/>
		<polygon fill = 'rgb( 31, 120, 180)' fill-opacity = '0.250000' points = '217.2,563.1 217.2,662.4 219.1,662.4 219.1,561.8 '/>
		<polygon fill = 'rgb( 31, 120, 180)' fill-opacity = '0.250000' points = '219.1,561.8 219.1,662.4 221.0,662.4 221.0,560.5 '/>
		<polygon fill = 'rgb( 31, 120, 180)' fill-opacity = '0.250000' points = '221.0,560.5 221.0,662.4 222.9,662.4 222.9,559.2 '/>
		<polygon fill = 'rgb( 31, 120, 180)' fill-opacity = '0.250000' points = '222.9,559.2 222.9,662.4 224.8,662.4 224.8,557.9 '/>
		<polygon fill = 'rgb( 31, 120, 180)' fill-opacity = '0.250000' points = '224.8,557.9 224.8,662.4 226.6,662.4 226.6,556.5 '/>
		<polygon fill = 'rgb( 31, 120, 180)' fill-opacity = '0.250000' points = '226.6,556.5 226.6,662.4 228.5,662.4 228.5,555.2 '/>
		<polygon fill = 'rgb( 31, 120, 180)' fill-opacity = '0.250000' points = '228.5,555.2 228.5,662.4 230.4,662.4 230.4,553.7 '/>
		<polygon fill = 'rgb( 31, 120, 180)' fill-opacity = '0.250000' points = '230.4,553.7 230.4,662.4 232.3,662.4 232.3,552.3 '/>
		<polygon fill = 'rgb( 31, 120, 180)' fill-opacity = '0.250000' points = '232.3,552.3 232.3,662.4 234.2,662.4 234.2,550.9 '/>
		<polygon fill = 'rgb( 31, 120, 180)' fill-opacity = '0.250000' points = '234.2,550.9 234.2,662.4 236.1,662.4 236.1,549.4 '/>
		<polygon fill = 'rgb( 31, 120, 180)' fill-opacity = '0.250000' points = '236.1,549.4 236.1,662.4 238.0,662.4 238.0,547.8 '/>
		<polygon fill = 'rgb( 31, 120, 180)' fill-opacity = '0.250000' points = '238.0,547.8 238.0,662.4 239.9,662.4 239.9,546.3 '/>
		<polygon fill = 'rgb( 31, 120, 180)' fill-opacity = '0.250000' points = '239.9,546.3 239.9,662.4 241.7,662.4 241.7,544.7 '/>
		<polygon fill = 'rgb( 31, 120, 180)' fill-opacity = '0.250000' points = '241.7,544.7 241.7,662.4 243.6,662.4 243.6,543.1 '/>
		<polygon fill = 'rgb( 31, 120, 180)' fill-opacity = '0.250000' points = '243.6,543.1 243.6,662.4 245.5,662.4 245.5,541.5 '/>
		<polygon fill = 'rgb( 31, 120, 180)' fill-opacity = '0.250000' points = '245.5,541.5 245.5,662.4 247.4,662.4 247.4,539.8 '/>
		<polygon fill = 'rgb( 31, 120, 180)' fill-opacity = '0.250000' points = '247.4,539.8 247.4,662.4 249.3,662.4 249.3,538.2 '/>
		<polygon fill = 'rgb( 31, 120, 180)' fill-opacity = '0.250000' points = '249.3,538.2 249.3,662.4 251.2,662.4 251.2,536.5 '/>
		<polygon fill = 'rgb( 31, 120, 180)' fill-opacity = '0.250000' points = '251.2,536.5 251.2,662.4 253.1,662.4 253.1,534.8 '/>
		<polygon fill = 'rgb( 31, 120, 180)' fill-opacity = '0.250000' points = '253.1,534.8 253.1,662.4 255.0,662.4 255.0,533.1 '/>
		<polygon fill = 'rgb( 31, 120, 180)' fill-opacity = '0.250000' points = '255.0,533.1 255.0,662.4 256.8,662.4 256.8,531.4 '/>
		<polygon fill = 'rgb( 31, 120, 180)' fill-opacity = '0.250000' points = '256.8,531.4 256.8,662.4 258.7,662.4 258.7,529.6 '/>
		<polygon fill = 'rgb( 31, 120, 180)' fill-opacity = '0.250000' points = '258.7,529.6 258.7,662.4 260.6,662.4 260.6,527.9 '/>
		<polygon fill = 'rgb( 31, 120, 180)' fill-opacity = '0.250000' points = '260.6,527.9 260.6,662.4 262.5,662.4 262.5,526.2 '/>
		<polygon fill = 'rgb( 31, 120, 180)' fill-opacity = '0.250000' points = '262.5,526.2 262.5,662.4 264.4,662.4 264.4,524.4 '/>
		<polygon fill = 'rgb( 31, 120, 180)' fill-opacity = '0.250000' points = '264.4,524.4 264.4,662.4 266.3,662.4 266.3,522.7 '/>
		<polygon fill = 'rgb( 31, 120, 180)' fill-opacity = '0.250000' points = '266.3,522.7 266.3,662.4 268.2,662.4 268.2,521.0 '/>
		<polygon fill = 'rgb( 31, 120, 180)' fill-opacity = '0.250000' points = '268.2,521.0 268.2,662.4 270.1,662.4 270.1,519.2 '/>
		<polygon fill = 'rgb( 31, 120, 180)' fill-opacity = '0.250000' points = '270.1,519.2 270.1,662.4 271.9,662.4 271.9,517.5 '/>
		<polygon fill = 'rgb( 31, 120, 180)' fill-opacity = '0.250000' points = '271.9,517.5 271.9,662.4 273.8,662.4 273.8,515.7 '/>
		<polygon fill = 'rgb( 31, 120, 180)' fill-opacity = '0.250000' points = '273.8,515.7 273.8,662.4 275.7,662.4 275.7,514.0 '/>
		<polygon fill = 'rgb( 31, 120, 180)' fill-opacity = '0.250000' points = '275.7,514.0 275.7,662.4 277.6,662.4 277.6,512.2 '/>
		<polygon fill = 'rgb( 31, 120, 180)' fill-opacity = '0.250000' points = '277.6,512.2 277.6,662.4 279.5,662.4 279.5,510.4 '/>
		<polygon fill = 'rgb( 31, 120, 180)' fill-opacity = '0.250000' points = '279.5,510.4 279.5,662.4 281.4,662.4 281.4,508.6 '/>
		<polygon fill = 'rgb( 31, 120, 180)' fill-opacity = '0.250000' points = '281.4,508.6 281.4,662.4 283.3,662.4 283.3,506.8 '/>
		<polygon fill = 'rgb( 31, 120, 180)' fill-opacity = '0.250000' points = '283.3,506.8 283.3,662.4 285.2,662.4 285.2,505.0 '/>
		<polygon fill = 'rgb( 31, 120, 180)' fill-opacity = '0.250000' points = '285.2,505.0 285.2,662.4 287.0,662.4 287.0,503.2 '/>
		<polygon fill = 'rgb( 31, 120, 180)' fill-opacity = '0.250000' points = '287.0,503.2 287.0,662.4 288.9,662.4 288.9,501.3 '/>
		<polygon fill = 'rgb( 31, 120, 180)' fill-opacity = '0.250000' points = '288.9,501.3 288.9,662.4 290.8,662.4 290.8,499.4 '/>
		<polygon fill = 'rgb( 31, 120, 180)' fill-opacity = '0.250000' points = '290.8,499.4 290.8,662.4 292.7,662.4 292.7,497.5 '/>
		<polygon fill = 'rgb( 31, 120, 180)' fill-opacity = '0.250000' points = '292.7,497.5 292.7,662.4 294.6,662.4 294.6,495.5 '/>
		<polygon fill = 'rgb( 31, 120, 180)' fill-opacity = '0.250000' points = '294.6,495.5 294.6,662.4 296.5,662.4 296.5,493.5 '/>
		<polygon fill = 'rgb( 31, 120, 180)' fill-opacity = '0.250000' points = '296.5,493.5 296.5,662.4 298.4,662.4 298.4,491.4 '/>
		<polygon fill = 'rgb( 31, 120, 180)' fill-opacity = '0.250000' points = '298.4,491.4 298.4,662.4 300.2,662.4 300.2,489.3 '/>
		<polygon fill = 'rgb( 31, 120, 180)' fill-opacity = '0.250000' points = '300.2,489.3 300.2,662.4 302.1,662.4 302.1,487.2 '/>
		<polygon fill = 'rgb( 31, 120, 180)' fill-opacity = '0.250000' points = '302.1,487.2 302.1,662.4 304.0,662.4 304.0,485.0 '/>
		<polygon fill = 'rgb( 31, 120, 180)' fill-opacity = '0.250000' points = '304.0,485.0 304.0,662.4 305.9,662.4 305.9,482.7 '/>
		<polygon fill = 'rgb( 31, 120, 180)' fill-opacity = '0.250000' points = '305.9,482.7 305.9,662.4 307.8,662.4 307.8,480.4 '/>
		<polygon fill = 'rgb( 31, 120, 180)' fill-opacity = '0.250000' points = '307.8,480.4 307.8,662.4 309.7,662.4 309.7,478.1 '/>
		<polygon fill = 'rgb( 31, 120, 180)' fill-opacity = '0.250000' points = '309.7,478.1 309.7,662.4 311.6,662.4 311.6,475.7 '/>
		<polygon fill = 'rgb( 31, 120, 180)' fill-opacity = '0.250000' points = '311.6,475.7 311.6,662.4 313.5,662.4 313.5,473.2 '/>
		<polygon fill = 'rgb( 31, 120, 180)' fill-opacity = '0.250000' points = '313.5,473.2 313.5,662.4 315.3,662.4 315.3,470.7 '/>
		<polygon fill = 'rgb( 31, 120, 180)' fill-opacity = '0.250000' points = '315.3,470.7 315.3,662.4 317.2,662.4 317.2,468.2 '/>
		<polygon fill = 'rgb( 31, 120, 180)' fill-opacity = '0.250000' points = '317.2,468.2 317.2,662.4 319.1,662.4 319.1,465.5 '/>
		<polygon fill = 'rgb( 31, 120, 180)' fill-opacity = '0.250000' points = '319.1,465.5 319.1,662.4 321.0,662.4 321.0,462.9 '/>
		<polygon fill = 'rgb( 31, 120, 180)' fill-opacity = '0.250000' points = '321.0,462.9 321.0,662.4 322.9,662.4 322.9,460.2 '/>
		<polygon fill = 'rgb( 31, 120, 180)' fill-opacity = '0.250000' points = '322.9,460.2 322.9,662.4 324.8,662.4 324.8,457.5 '/>
		<polygon fill = 'rgb( 31, 120, 180)' fill-opacity = '0.250000' points = '324.8,457.5 324.8,662.4 326.7,662.4 326.7,454.7 '/>
		<polygon fill = 'rgb( 31, 120, 180)' fill-opacity = '0.250000' points = '326.7,454.7 326.7,662.4 328.6,662.4 328.6,451.9 '/>
		<polygon fill = 'rgb( 31, 120, 180)' fill-opacity = '0.250000' points = '328.6,451.9 328.6,662.4 330.4,662.4 330.4,449.1 '/>
		<polygon fill = 'rgb( 31, 120, 180)' fill-opacity = '0.250000' points = '330.4,449.1 330.4,662.4 332.3,662.4 332.3,446.3 '/>
		<polygon fill = 'rgb( 31, 120, 180)' fill-opacity = '0.250000' points = '332.3,446.3 332.3,662.4 334.2,662.4 334.2,443.4 '/>
		<polygon fill = 'rgb( 31, 120, 180)' fill-opacity = '0.250000' points = '334.2,443.4 334.2,662.4 336.1,662.4 336.1,440.5 '/>
		<polygon fill = 'rgb( 31, 120, 180)' fill-opacity = '0.250000' points = '336.1,440.5 336.1,662.4 338.0,662.4 338.0,437.6 '/>
		<polygon fill = 'rgb( 31, 120, 180)' fill-opacity = '0.250000' points = '338.0,437.6 338.0,662.4 339.9,662.4 339.9,434.7 '/>
		<polygon fill = 'rgb( 31, 120, 180)' fill-opacity = '0.250000' points = '339.9,434.7 339.9,662.4 341.8,662.4 341.8,431.8 '/>
		<polygon fill = 'rgb( 31, 120, 180)' fill-opacity = '0.250000' points = '341.8,431.8 341.8,662.4 343.7,662.4 343.7,428.8 '/>
		<polygon fill = 'rgb( 31, 120, 180)' fill-opacity = '0.250000' points = '343.7,428.8 343.7,662.4 345.5,662.4 345.5,425.9 '/>
		<polygon fill = 'rgb( 31, 120, 180)' fill-opacity = '0.250000' points = '345.5,425.9 345.5,662.4 347.4,662.4 347.4,423.0 '/>
		<polygon fill = 'rgb( 31, 120, 180)' fill-opacity = '0.250000' points = '347.4,423.0 347.4,662.4 349.3,662.4 349.3,420.1 '/>
		<polygon fill = 'rgb( 31, 120, 180)' fill-opacity = '0.250000' points = '349.3,420.1 349.3,662.4 351.2,662.4 351.2,417.2 '/>
		<polygon fill = 'rgb( 31, 120, 180)' fill-opacity = '0.250000' points = '351.2,417.2 351.2,662.4 353.1,662.4 353.1,414.3 '/>
		<polygon fill = 'rgb( 31, 120, 180)' fill-opacity = '0.250000' points = '353.1,414.3 353.1,662.4 355.0,662.4 355.0,411.4 '/>
		<polygon fill = 'rgb( 31, 120, 180)' fill-opacity = '0.250000' points = '355.0,411.4 355.0,662.4 356.9,662.4 356.9,408.6 '/>
		<polygon fill = 'rgb( 31, 120, 180)' fill-opacity = '0.250000' points = '356.9,408.6 356.9,662.4 358.8,662.4 358.8,405.7 '/>
		<polygon fill = 'rgb( 31, 120, 180)' fill-opacity = '0.250000' points = '358.8,405.7 358.8,662.4 360.6,662.4 360.6,402.9 '/>
		<polygon fill = 'rgb( 31, 120, 180)' fill-opacity = '0.250000' points = '360.6,402.9 360.6,662.4 362.5,662.4 362.5,400.1 '/>
		<polygon fill = 'rgb( 31, 120, 180)' fill-opacity = '0.250000' points = '362.5,400.1 362.5,662.4 364.4,662.4 364.4,397.3 '/>
		<polygon fill = 'rgb( 31, 120, 180)' fill-opacity = '0.250000' points = '364.4,397.3 364.4,662.4 366.3,662.4 366.3,394.6 '/>
		<polygon fill = 'rgb( 31, 120, 180)' fill-opacity = '0.250000' points = '366.3,394.6 366.3,662.4 368.2,662.4 368.2,391.8 '/>
		<polygon fill = 'rgb( 31, 120, 180)' fill-opacity = '0.250000' points = '368.2,391.8 368.2,662.4 370.1,662.4 370.1,389.1 '/>
		<polygon fill = 'rgb( 31, 120, 180)' fill-opacity = '0.250000' points = '370.1,389.1 370.1,662.4 372.0,662.4 372.0,386.3 '/>
		<polygon fill = 'rgb( 31, 120, 180)' fill-opacity = '0.250000' points = '372.0,386.3 372.0,662.4 373.8,662.4 373.8,383.6 '/>
		<polygon fill = 'rgb( 31, 120, 180)' fill-opacity = '0.250000' points = '373.8,383.6 373.8,662.4 375.7,662.4 375.7,380.8 '/>
		<polygon fill = 'rgb( 31, 120, 180)' fill-opacity = '0.250000' points = '375.7,380.8 375.7,662.4 377.6,662.4 377.6,378.0 '/>
		<polygon fill = 'rgb( 31, 120, 180)' fill-opacity = '0.250000' points = '377.6,378.0 377.6,662.4 379.5,662.4 379.5,375.2 '/>
		<polygon fill = 'rgb( 31, 120, 180)' fill-opacity = '0.250000' points = '379.5,375.2 379.5,662.4 381.4,662.4 381.4,372.4 '/>
		<polygon fill = 'rgb( 31, 120, 180)' fill-opacity = '0.250000' points = '381.4,372.4 381.4,662.4 383.3,662.4 383.3,369.5 '/>
		<polygon fill = 'rgb( 31, 120, 180)' fill-opacity = '0.250000' points = '383.3,369.5 383.3,662.4 385.2,662.4 385.2,366.6 '/>
		<polygon fill = 'rgb( 31, 120, 180)' fill-opacity = '0.250000' points = '385.2,366.6 385.2,662.4 387.1,662.4 387.1,363.7 '/>
		<polygon fill = 'rgb( 31, 120, 180)' fill-opacity = '0.250000' points = '387.1,363.7 387.1,662.4 388.9,662.4 388.9,360.7 '/>
		<polygon fill = 'rgb( 31, 120, 180)' fill-opacity = '0.250000' points = '388.9,360.7 388.9,662.4 390.8,662.4 390.8,357.7 '/>
		<polygon fill = 'rgb( 31, 120, 180)' fill-opacity = '0.250000' points = '390.8,357.7 390.8,662.4 392.7,662.4 392.7,354.7 '/>
		<polygon fill = 'rgb( 31, 120, 180)' fill-opacity = '0.250000' points = '392.7,354.7 392.7,662.4 394.6,662.4 394.6,351.6 '/>
		<polygon fill = 'rgb( 31, 120, 180)' fill-opacity = '0.250000' points = '394.6,351.6 394.6,662.4 396.5,662.4 396.5,348.5 '/>
		<polygon fill = 'rgb( 31, 120, 180)' fill-opacity = '0.250000' points = '396.5,348.5 396.5,662.4 398.4,662.4 398.4,345.3 '/>
		<polygon fill = 'rgb( 31, 120, 180)' fill-opacity = '0.250000' points = '398.4,345.3 398.4,662.4 400.3,662.4 400.3,342.1 '/>
		<polygon fill = 'rgb( 31, 120, 180)' fill-opacity = '0.250000' points = '400.3,342.1 400.3,662.4 402.2,662.4 402.2,338.9 '/>
		<polygon fill = 'rgb( 31, 120, 180)' fill-opacity = '0.250000' points = '402.2,338.9 402.2,662.4 404.0,662.4 404.0,335.7 '/>
		<polygon fill = 'rgb( 31, 120, 180)' fill-opacity = '0.250000' points = '404.0,335.7 404.0,662.4 405.9,662.4 405.9,332.5 '/>
		<polygon fill = 'rgb( 31, 120, 180)' fill-opacity = '0.250000' points = '405.9,332.5 405.9,662.4 407.8,662.4 407.8,329.3 '/>
		<polygon fill = 'rgb( 31, 120, 180)' fill-opacity = '0.250000' points = '407.8,329.3 407.8,662.4 409.7,662.4 409.7,326.0 '/>
		<polygon fill = 'rgb( 31, 120, 180)' fill-opacity = '0.250000' points = '409.7,326.0 409.7,662.4 411.6,662.4 411.6,322.8 '/>
		<polygon fill = 'rgb( 31, 120, 180)' fill-opacity = '0.250000' points = '411.6,322.8 411.6,662.4 413.5,662.4 413.5,319.6 '/>
		<polygon fill = 'rgb( 31, 120, 180)' fill-opacity = '0.250000' points = '413.5,319.6 413.5,662.4 415.4,662.4 415.4,316.5 '/>
		<polygon fill = 'rgb( 31, 120, 180)' fill-opacity = '0.250000' points = '415.4,316.5 415.4,662.4 417.3,662.4 417.3,313.3 '/>
		<polygon fill = 'rgb( 31, 120, 180)' fill-opacity = '0.250000' points = '417.3,313.3 417.3,662.4 419.1,662.4 419.1,310.2 '/>
		<polygon fill = 'rgb( 31, 120, 180)' fill-opacity = '0.250000' points = '419.1,310.2 419.1,662.4 421.0,662.4 421.0,307.1 '/>
		<polygon fill = 'rgb( 31, 120, 180)' fill-opacity = '0.250000' points = '421.0,307.1 421.0,662.4 422.9,662.4 422.9,304.1 '/>
		<polygon fill = 'rgb( 31, 120, 180)' fill-opacity = '0.250000' points = '422.9,304.1 422.9,662.4 424.8,662.4 424.8,301.1 '/>
		<polygon fill = 'rgb( 31, 120, 180)' fill-opacity = '0.250000' points = '424.8,301.1 424.8,662.4 426.7,662.4 426.7,298.1 '/>
		<polygon fill = 'rgb( 31, 120, 180)' fill-opacity = '0.250000' points = '426.7,298.1 426.7,662.4 428.6,662.4 428.6,295.2 '/>
		<polygon fill = 'rgb( 31, 120, 180)' fill-opacity = '0.250000' points = '428.6,295.2 428.6,662.4 430.5,662.4 430.5,292.3 '/>
		<polygon fill = 'rgb( 31, 120, 180)' fill-opacity = '0.250000' points = '430.5,292.3 430.5,662.4 432.4,662.4 432.4,289.4 '/>
		<polygon fill = 'rgb( 31, 120, 180)' fill-opacity = '0.250000' points = '432.4,289.4 432.4,662.4 434.2,662.4 434.2,286.6 '/>
		<polygon fill = 'rgb( 31, 120, 180)' fill-opacity = '0.250000' points = '434.2,286.6 434.2,662.4 436.1,662.4 436.1,283.8 '/>
		<polygon fill = 'rgb( 31, 120, 180)' fill-opacity = '0.250000' points = '436.1,283.8 436.1,662.4 438.0,662.4 438.0,281.0 '/>
		<polygon fill = 'rgb( 31, 120, 180)' fill-opacity = '0.250000' points = '438.0,281.0 438.0,662.4 439.9,662.4 439.9,278.3 '/>
		<polygon fill = 'rgb( 31, 120, 180)' fill-opacity = '0.250000' points = '439.9,278.3 439.9,662.4 441.8,662.4 441.8,275.6 '/>
		<polygon fill = 'rgb( 31, 120, 180)' fill-opacity = '0.250000' points = '441.8,275.6 441.8,662.4 443.7,662.4 443.7,272.9 '/>
		<polygon fill = 'rgb( 31, 120, 180)' fill-opacity = '0.250000' points = '443.7,272.9 443.7,662.4 445.6,662.4 445.6,270.3 '/>
		<polygon fill = 'rgb( 31, 120, 180)' fill-opacity = '0.250000' points = '445.6,270.3 445.6,662.4 447.4,662.4 447.4,267.7 '/>
		<polygon fill = 'rgb( 31, 120, 180)' fill-opacity = '0.250000' points = '447.4,267.7 447.4,662.4 449.3,662.4 449.3,265.1 '/>
		<polygon fill = 'rgb( 31, 120, 180)' fill-opacity = '0.250000' points = '449.3,265.1 449.3,662.4 451.2,662.4 451.2,262.5 '/>
		<polygon fill = 'rgb( 31, 120, 180)' fill-opacity = '0.250000' points = '451.2,262.5 451.2,662.4 453.1,662.4 453.1,259.9 '/>
		<polygon fill = 'rgb( 31, 120, 180)' fill-opacity = '0.250000' points = '453.1,259.9 453.1,662.4 455.0,662.4 455.0,257.4 '/>
		<polygon fill = 'rgb( 31, 120, 180)' fill-opacity = '0.250000' points = '455.0,257.4 455.0,662.4 456.9,662.4 456.9,254.9 '/>
		<polygon fill = 'rgb( 31, 120, 180)' fill-opacity = '0.250000' points = '456.9,254.9 456.9,662.4 458.8,662.4 458.8,252.4 '/>
		<polygon fill = 'rgb( 31, 120, 180)' fill-opacity = '0.250000' points = '458.8,252.4 458.8,662.4 460.7,662.4 460.7,249.8 '/>
		<polygon fill = 'rgb( 31, 120, 180)' fill-opacity = '0.250000' points = '460.7,249.8 460.7,662.4 462.5,662.4 462.5,247.3 '/>
		<polygon fill = 'rgb( 31, 120, 180)' fill-opacity = '0.250000' points = '462.5,247.3 462.5,662.4 464.4,662.4 464.4,244.8 '/>
		<polygon fill = 'rgb( 31, 120, 180)' fill-opacity = '0.250000' points = '464.4,244.8 464.4,662.4 466.3,662.4 466.3,242.3 '/>
		<polygon fill = 'rgb( 31, 120, 180)' fill-opacity = '0.250000' points = '466.3,242.3 466.3,662.4 468.2,662.4 468.2,239.8 '/>
		<polygon fill = 'rgb( 31, 120, 180)' fill-opacity = '0.250000' points = '468.2,239.8 468.2,662.4 470.1,662.4 470.1,237.3 '/>
		<polygon fill = 'rgb( 31, 120, 180)' fill-opacity = '0.250000' points = '470.1,237.3 470.1,662.4 472.0,662.4 472.0,234.7 '/>
		<polygon fill = 'rgb( 31, 120, 180)' fill-opacity = '0.250000' points = '472.0,234.7 472.0,662.4 473.9,662.4 473.9,232.2 '/>
		<polygon fill = 'rgb( 31, 120, 180)' fill-opacity = '0.250000' points = '473.9,232.2 473.9,662.4 475.8,662.4 475.8,229.6 '/>
		<polygon fill = 'rgb( 31, 120, 180)' fill-opacity = '0.250000' points = '475.8,229.6 475.8,662.4 477.6,662.4 477.6,227.0 '/>
		<polygon fill = 'rgb( 31, 120, 180)' fill-opacity = '0.250000' points = '477.6,227.0 477.6,662.4 479.5,662.4 479.5,224.4 '/>
		<polygon fill = 'rgb( 31, 120, 180)' fill-opacity = '0.250000' points = '479.5,224.4 479.5,662.4 481.4,662.4 481.4,221.7 '/>
		<polygon fill = 'rgb( 31, 120, 180)' fill-opacity = '0.250000' points = '481.4,221.7 481.4,662.4 483.3,662.4 483.3,219.1 '/>
		<polygon fill = 'rgb( 31, 120, 180)' fill-opacity = '0.250000' points = '483.3,219.1 483.3,662.4 485.2,662.4 485.2,216.4 '/>
		<polygon fill = 'rgb( 31, 120, 180)' fill-opacity = '0.250000' points = '485.2,216.4 485.2,662.4 487.1,662.4 487.1,213.7 '/>
		<polygon fill = 'rgb( 31, 120, 180)' fill-opacity = '0.250000' points = '487.1,213.7 487.1,662.4 489.0,662.4 489.0,211.0 '/>
		<polygon fill = 'rgb( 31, 120, 180)' fill-opacity = '0.250000' points = '489.0,211.0 489.0,662.4 490.9,662.4 490.9,208.2 '/>
		<polygon fill = 'rgb( 31, 120, 180)' fill-opacity = '0.250000' points = '490.9,208.2 490.9,662.4 492.7,662.4 492.7,205.5 '/>
		<polygon fill = 'rgb( 31, 120, 180)' fill-opacity = '0.250000' points = '492.7,205.5 492.7,662.4 494.6,662.4 494.6,202.8 '/>
		<polygon fill = 'rgb( 31, 120, 180)' fill-opacity = '0.250000' points = '494.6,202.8 494.6,662.4 496.5,662.4 496.5,200.0 '/>
		<polygon fill = 'rgb( 31, 120, 180)' fill-opacity = '0.250000' points = '496.5,200.0 496.5,662.4 498.4,662.4 498.4,197.3 '/>
		<polygon fill = 'rgb( 31, 120, 180)' fill-opacity = '0.250000' points = '498.4,197.3 498.4,662.4 500.3,662.4 500.3,194.5 '/>
		<polygon fill = 'rgb( 31, 120, 180)' fill-opacity = '0.250000' points = '500.3,194.5 500.3,662.4 502.2,662.4 502.2,191.8 '/>
		<polygon fill = 'rgb( 31, 120, 180)' fill-opacity = '0.250000' points = '502.2,191.8 502.2,662.4 504.1,662.4 504.1,189.1 '/>
		<polygon fill = 'rgb( 31, 120, 180)' fill-opacity = '0.250000' points = '504.1,189.1 504.1,662.4 506.0,662.4 506.0,186.4 '/>
		<polygon fill = 'rgb( 31, 120, 180)' fill-opacity = '0.250000' points = '506.0,186.4 506.0,662.4 507.8,662.4 507.8,183.7 '/>
		<polygon fill = 'rgb( 31, 120, 180)' fill-opacity = '0.250000' points = '507.8,183.7 507.8,662.4 509.7,662.4 509.7,181.1 '/>
		<polygon fill = 'rgb( 31, 120, 180)' fill-opacity = '0.250000' points = '509.7,181.1 509.7,662.4 511.6,662.4 511.6,178.5 '/>
		<polygon fill = 'rgb( 31, 120, 180)' fill-opacity = '0.250000' points = '511.6,178.5 511.6,662.4 513.5,662.4 513.5,175.9 '/>
		<polygon fill = 'rgb( 31, 120, 180)' fill-opacity = '0.250000' points = '513.5,175.9 513.5,662.4 515.4,662.4 515.4,173.3 '/>
		<polygon fill = 'rgb( 31, 120, 180)' fill-opacity = '0.250000' points = '515.4,173.3 515.4,662.4 517.3,662.4 517.3,170.8 '/>
		<polygon fill = 'rgb( 31, 120, 180)' fill-opacity = '0.250000' points = '517.3,170.8 517.3,662.4 519.2,662.4 519.2,168.3 '/>
		<polygon fill = 'rgb( 31, 120, 180)' fill-opacity = '0.250000' points = '519.2,168.3 519.2,662.4 521.0,662.4 521.0,165.8 '/>
		<polygon fill = 'rgb( 31, 120, 180)' fill-opacity = '0.250000' points = '521.0,165.8 521.0,662.4 522.9,662.4 522.9,163.4 '/>
		<polygon fill = 'rgb( 31, 120, 180)' fill-opacity = '0.250000' points = '522.9,163.4 522.9,662.4 524.8,662.4 524.8,161.0 '/>
		<polygon fill = 'rgb( 31, 120, 180)' fill-opacity = '0.250000' points = '524.8,161.0 524.8,662.4 526.7,662.4 526.7,158.7 '/>
		<polygon fill = 'rgb( 31, 120, 180)' fill-opacity = '0.250000' points = '526.7,158.7 526.7,662.4 528.6,662.4 528.6,156.4 '/>
		<polygon fill = 'rgb( 31, 120, 180)' fill-opacity = '0.250000' points = '528.6,156.4 528.6,662.4 530.5,662.4 530.5,154.2 '/>
		<polygon fill = 'rgb( 31, 120, 180)' fill-opacity = '0.250000' points = '530.5,154.2 530.5,662.4 532.4,662.4 532.4,152.0 '/>
		<polygon fill = 'rgb( 31, 120, 180)' fill-opacity = '0.250000' points = '532.4,152.0 532.4,662.4 534.3,662.4 534.3,149.9 '/>
		<polygon fill = 'rgb( 31, 120, 180)' fill-opacity = '0.250000' points = '534.3,149.9 534.3,662.4 536.1,662.4 536.1,147.9 '/>
		<polygon fill = 'rgb( 31, 120, 180)' fill-opacity = '0.250000' points = '536.1,147.9 536.1,662.4 538.0,662.4 538.0,145.9 '/>
		<polygon fill = 'rgb( 31, 120, 180)' fill-opacity = '0.250000' points = '538.0,145.9 538.0,662.4 539.9,662.4 539.9,143.9 '/>
		<polygon fill = 'rgb( 31, 120, 180)' fill-opacity = '0.250000' points = '539.9,143.9 539.9,662.4 541.8,662.4 541.8,142.1 '/>
		<polygon fill = 'rgb( 31, 120, 180)' fill-opacity = '0.250000' points = '541.8,142.1 541.8,662.4 543.7,662.4 543.7,140.3 '/>
		<polygon fill = 'rgb( 31, 120, 180)' fill-opacity = '0.250000' points = '543.7,140.3 543.7,662.4 545.6,662.4 545.6,138.5 '/>
		<polygon fill = 'rgb( 31, 120, 180)' fill-opacity = '0.250000' points = '545.6,138.5 545.6,662.4 547.5,662.4 547.5,136.9 '/>
		<polygon fill = 'rgb( 31, 120, 180)' fill-opacity = '0.250000' points = '547.5,136.9 547.5,662.4 549.4,662.4 549.4,135.3 '/>
		<polygon fill = 'rgb( 31, 120, 180)' fill-opacity = '0.250000' points = '549.4,135.3 549.4,662.4 551.2,662.4 551.2,133.7 '/>
		<polygon fill = 'rgb( 31, 120, 180)' fill-opacity = '0.250000' points = '551.2,133.7 551.2,662.4 553.1,662.4 553.1,132.2 '/>
		<polygon fill = 'rgb( 31, 120, 180)' fill-opacity = '0.250000' points = '553.1,132.2 553.1,662.4 555.0,662.4 555.0,130.8 '/>
		<polygon fill = 'rgb( 31, 120, 180)' fill-opacity = '0.250000' points = '555.0,130.8 555.0,662.4 556.9,662.4 556.9,129.5 '/>
		<polygon fill = 'rgb( 31, 120, 180)' fill-opacity = '0.250000' points = '556.9,129.5 556.9,662.4 558.8,662.4 558.8,128.2 '/>
		<polygon fill = 'rgb( 31, 120, 180)' fill-opacity = '0.250000' points = '558.8,128.2 558.8,662.4 560.7,662.4 560.7,126.9 '/>
		<polygon fill = 'rgb( 31, 120, 180)' fill-opacity = '0.250000' points = '560.7,126.9 560.7,662.4 562.6,662.4 562.6,125.7 '/>
		<polygon fill = 'rgb( 31, 120, 180)' fill-opacity = '0.250000' points = '562.6,125.7 562.6,662.4 564.5,662.4 564.5,124.6 '/>
		<polygon fill = 'rgb( 31, 120, 180)' fill-opacity = '0.250000' points = '564.5,124.6 564.5,662.4 566.3,662.4 566.3,123.5 '/>
		<polygon fill = 'rgb( 31, 120, 180)' fill-opacity = '0.250000' points = '566.3,123.5 566.3,662.4 568.2,662.4 568.2,122.4 '/>
		<polygon fill = 'rgb( 31, 120, 180)' fill-opacity = '0.250000' points = '568.2,122.4 568.2,662.4 570.1,662.4 570.1,121.5 '/>
		<polygon fill = 'rgb( 31, 120, 180)' fill-opacity = '0.250000' points = '570.1,121.5 570.1,662.4 572.0,662.4 572.0,120.5 '/>
		<polygon fill = 'rgb( 31, 120, 180)' fill-opacity = '0.250000' points = '572.0,120.5 572.0,662.4 573.9,662.4 573.9,119.6 '/>
		<polygon fill = 'rgb( 31, 120, 180)' fill-opacity = '0.250000' points = '573.9,119.6 573.9,662.4 575.8,662.4 575.8,118.8 '/>
		<polygon fill = 'rgb( 31, 120, 180)' fill-opacity = '0.250000' points = '575.8,118.8 575.8,662.4 577.7,662.4 577.7,118.1 '/>
		<polygon fill = 'rgb( 31, 120, 180)' fill-opacity = '0.250000' points = '577.7,118.1 577.7,662.4 579.5,662.4 579.5,117.4 '/>
		<polygon fill = 'rgb( 31, 120, 180)' fill-opacity = '0.250000' points = '579.5,117.4 579.5,662.4 581.4,662.4 581.4,116.7 '/>
		<polygon fill = 'rgb( 31, 120, 180)' fill-opacity = '0.250000' points = '581.4,116.7 581.4,662.4 583.3,662.4 583.3,116.1 '/>
		<polygon fill = 'rgb( 31, 120, 180)' fill-opacity = '0.250000' points = '583.3,116.1 583.3,662.4 585.2,662.4 585.2,115.6 '/>
		<polygon fill = 'rgb( 31, 120, 180)' fill-opacity = '0.250000' points = '585.2,115.6 585.2,662.4 587.1,662.4 587.1,115.2 '/>
		<polygon fill = 'rgb( 31, 120, 180)' fill-opacity = '0.250000' points = '587.1,115.2 587.1,662.4 589.0,662.4 589.0,114.8 '/>
		<polygon fill = 'rgb( 31, 120, 180)' fill-opacity = '0.250000' points = '589.0,114.8 589.0,662.4 590.9,662.4 590.9,114.5 '/>
		<polygon fill = 'rgb( 31, 120, 180)' fill-opacity = '0.250000' points = '590.9,114.5 590.9,662.4 592.8,662.4 592.8,114.3 '/>
		<polygon fill = 'rgb( 31, 120, 180)' fill-opacity = '0.250000' points = '592.8,114.3 592.8,662.4 594.6,662.4 594.6,114.1 '/>
		<polygon fill = 'rgb( 31, 120, 180)' fill-opacity = '0.250000' points = '594.6,114.1 594.6,662.4 596.5,662.4 596.5,114.1 '/>
		<polygon fill = 'rgb( 31, 120, 180)' fill-opacity = '0.250000' points = '596.5,114.1 596.5,662.4 598.4,662.4 598.4,114.0 '/>
		<polygon fill = 'rgb( 31, 120, 180)' fill-opacity = '0.250000' points = '598.4,114.0 598.4,662.4 600.3,662.4 600.3,114.1 '/>
		<polygon fill = 'rgb( 31, 120, 180)' fill-opacity = '0.250000' points = '600.3,114.1 600.3,662.4 602.2,662.4 602.2,114.2 '/>
		<polygon fill = 'rgb( 31, 120, 180)' fill-opacity = '0.250000' points = '602.2,114.2 602.2,662.4 604.1,662.4 604.1,114.4 '/>
		<polygon fill = 'rgb( 31, 120, 180)' fill-opacity = '0.250000' points = '604.1,114.4 604.1,662.4 606.0,662.4 606.0,114.7 '/>
		<polygon fill = 'rgb( 31, 120, 180)' fill-opacity = '0.250000' points = '606.0,114.7 606.0,662.4 607.9,662.4 607.9,115.0 '/>
		<polygon fill = 'rgb( 31, 120, 180)' fill-opacity = '0.250000' points = '607.9,115.0 607.9,662.4 609.7,662.4 609.7,115.4 '/>
		<polygon fill = 'rgb( 31, 120, 180)' fill-opacity = '0.250000' points = '609.7,115.4 609.7,662.4 611.6,662.4 611.6,115.9 '/>
		<polygon fill = 'rgb( 31, 120, 180)' fill-opacity = '0.250000' points = '611.6,115.9 611.6,662.4 613.5,662.4 613.5,116.4 '/>
		<polygon fill = 'rgb( 31, 120, 180)' fill-opacity = '0.250000' points = '613.5,116.4 613.5,662.4 615.4,662.4 615.4,116.9 '/>
		<polygon fill = 'rgb( 31, 120, 180)' fill-opacity = '0.250000' points = '615.4,116.9 615.4,662.4 617.3,662.4 617.3,117.5 '/>
		<polygon fill = 'rgb( 31, 120, 180)' fill-opacity = '0.250000' points = '617.3,117.5 617.3,662.4 619.2,662.4 619.2,118.1 '/>
		<polygon fill = 'rgb( 31, 120, 180)' fill-opacity = '0.250000' points = '619.2,118.1 619.2,662.4 621.1,662.4 621.1,118.8 '/>
		<polygon fill = 'rgb( 31, 120, 180)' fill-opacity = '0.250000' points = '621.1,118.8 621.1,662.4 623.0,662.4 623.0,119.5 '/>
		<polygon fill = 'rgb( 31, 120, 180)' fill-opacity = '0.250000' points = '623.0,119.5 623.0,662.4 624.8,662.4 624.8,120.2 '/>
		<polygon fill = 'rgb( 31, 120, 180)' fill-opacity = '0.250000' points = '624.8,120.2 624.8,662.4 626.7,662.4 626.7,120.9 '/>
		<polygon fill = 'rgb( 31, 120, 180)' fill-opacity = '0.250000' points = '626.7,120.9 626.7,662.4 628.6,662.4 628.6,121.7 '/>
		<polygon fill = 'rgb( 31, 120, 180)' fill-opacity = '0.250000' points = '628.6,121.7 628.6,662.4 630.5,662.4 630.5,122.6 '/>
		<polygon fill = 'rgb( 31, 120, 180)' fill-opacity = '0.250000' points = '630.5,122.6 630.5,662.4 632.4,662.4 632.4,123.4 '/>
		<polygon fill = 'rgb( 31, 120, 180)' fill-opacity = '0.250000' points = '632.4,123.4 632.4,662.4 634.3,662.4 634.3,124.3 '/>
		<polygon fill = 'rgb( 31, 120, 180)' fill-opacity = '0.250000' points = '634.3,124.3 634.3,662.4 636.2,662.4 636.2,125.2 '/>
		<polygon fill = 'rgb( 31, 120, 180)' fill-opacity = '0.250000' points = '636.2,125.2 636.2,662.4 638.1,662.4 638.1,126.2 '/>
		<polygon fill = 'rgb( 31, 120, 180)' fill-opacity = '0.250000' points = '638.1,126.2 638.1,662.4 639.9,662.4 639.9,127.2 '/>
		<polygon fill = 'rgb( 31, 120, 180)' fill-opacity = '0.250000' points = '639.9,127.2 639.9,662.4 641.8,662.4 641.8,128.2 '/>
		<polygon fill = 'rgb( 31, 120, 180)' fill-opacity = '0.250000' points = '641.8,128.2 641.8,662.4 643.7,662.4 643.7,129.3 '/>
		<polygon fill = 'rgb( 31, 120, 180)' fill-opacity = '0.250000' points = '643.7,129.3 643.7,662.4 645.6,662.4 645.6,130.4 '/>
		<polygon fill = 'rgb( 31, 120, 180)' fill-opacity = '0.250000' points = '645.6,130.4 645.6,662.4 647.5,662.4 647.5,131.6 '/>
		<polygon fill = 'rgb( 31, 120, 180)' fill-opacity = '0.250000' points = '647.5,131.6 647.5,662.4 649.4,662.4 649.4,132.9 '/>
		<polygon fill = 'rgb( 31, 120, 180)' fill-opacity = '0.250000' points = '649.4,132.9 649.4,662.4 651.3,662.4 651.3,134.2 '/>
		<polygon fill = 'rgb( 31, 120, 180)' fill-opacity = '0.250000' points = '651.3,134.2 651.3,662.4 653.1,662.4 653.1,135.5 '/>
		<polygon fill = 'rgb( 31, 120, 180)' fill-opacity = '0.250000' points = '653.1,135.5 653.1,662.4 655.0,662.4 655.0,137.0 '/>
		<polygon fill = 'rgb( 31, 120, 180)' fill-opacity = '0.250000' points = '655.0,137.0 655.0,662.4 656.9,662.4 656.9,138.5 '/>
		<polygon fill = 'rgb( 31, 120, 180)' fill-opacity = '0.250000' points = '656.9,138.5 656.9,662.4 658.8,662.4 658.8,140.1 '/>
		<polygon fill = 'rgb( 31, 120, 180)' fill-opacity = '0.250000' points = '658.8,140.1 658.8,662.4 660.7,662.4 660.7,141.7 '/>
		<polygon fill = 'rgb( 31, 120, 180)' fill-opacity = '0.250000' points = '660.7,141.7 660.7,662.4 662.6,662.4 662.6,143.5 '/>
		<polygon fill = 'rgb( 31, 120, 180)' fill-opacity = '0.250000' points = '662.6,143.5 662.6,662.4 664.5,662.4 664.5,145.3 '/>
		<polygon fill = 'rgb( 31, 120, 180)' fill-opacity = '0.250000' points = '664.5,145.3 664.5,662.4 666.4,662.4 666.4,147.2 '/>
		<polygon fill = 'rgb( 31, 120, 180)' fill-opacity = '0.250000' points = '666.4,147.2 666.4,662.4 668.2,662.4 668.2,149.1 '/>
		<polygon fill = 'rgb( 31, 120, 180)' fill-opacity = '0.250000' points = '668.2,149.1 668.2,662.4 670.1,662.4 670.1,151.1 '/>
		<polygon fill = 'rgb( 31, 120, 180)' fill-opacity = '0.250000' points = '670.1,151.1 670.1,662.4 672.0,662.4 672.0,153.2 '/>
		<polygon fill = 'rgb( 31, 120, 180)' fill-opacity = '0.250000' points = '672.0,153.2 672.0,662.4 673.9,662.4 673.9,155.4 '/>
		<polygon fill = 'rgb( 31, 120, 180)' fill-opacity = '0.250000' points = '673.9,155.4 673.9,662.4 675.8,662.4 675.8,157.5 '/>
		<polygon fill = 'rgb( 31, 120, 180)' fill-opacity = '0.250000' points = '675.8,157.5 675.8,662.4 677.7,662.4 677.7,159.8 '/>
		<polygon fill = 'rgb( 31, 120, 180)' fill-opacity = '0.250000' points = '677.7,159.8 677.7,662.4 679.6,662.4 679.6,162.1 '/>
		<polygon fill = 'rgb( 31, 120, 180)' fill-opacity = '0.250000' points = '679.6,162.1 679.6,662.4 681.5,662.4 681.5,164.4 '/>
		<polygon fill = 'rgb( 31, 120, 180)' fill-opacity = '0.250000' points = '681.5,164.4 681.5,662.4 683.3,662.4 683.3,166.8 '/>
		<polygon fill = 'rgb( 31, 120, 180)' fill-opacity = '0.250000' points = '683.3,166.8 683.3,662.4 685.2,662.4 685.2,169.2 '/>
		<polygon fill = 'rgb( 31, 120, 180)' fill-opacity = '0.250000' points = '685.2,169.2 685.2,662.4 687.1,662.4 687.1,171.6 '/>
		<polygon fill = 'rgb( 31, 120, 180)' fill-opacity = '0.250000' points = '687.1,171.6 687.1,662.4 689.0,662.4 689.0,174.1 '/>
		<polygon fill = 'rgb( 31, 120, 180)' fill-opacity = '0.250000' points = '689.0,174.1 689.0,662.4 690.9,662.4 690.9,176.6 '/>
		<polygon fill = 'rgb( 31, 120, 180)' fill-opacity = '0.250000' points = '690.9,176.6 690.9,662.4 692.8,662.4 692.8,179.2 '/>
		<polygon fill = 'rgb( 31, 120, 180)' fill-opacity = '0.250000' points = '692.8,179.2 692.8,662.4 694.7,662.4 694.7,181.7 '/>
		<polygon fill = 'rgb( 31, 120, 180)' fill-opacity = '0.250000' points = '694.7,181.7 694.7,662.4 696.6,662.4 696.6,184.4 '/>
		<polygon fill = 'rgb( 31, 120, 180)' fill-opacity = '0.250000' points = '696.6,184.4 696.6,662.4 698.4,662.4 698.4,187.0 '/>
		<polygon fill = 'rgb( 31, 120, 180)' fill-opacity = '0.250000' points = '698.4,187.0 698.4,662.4 700.3,662.4 700.3,189.7 '/>
		<polygon fill = 'rgb( 31, 120, 180)' fill-opacity = '0.250000' points = '700.3,189.7 700.3,662.4 702.2,662.4 702.2,192.5 '/>
		<polygon fill = 'rgb( 31, 120, 180)' fill-opacity = '0.250000' points = '702.2,192.5 702.2,662.4 704.1,662.4 704.1,195.3 '/>
		<polygon fill = 'rgb( 31, 120, 180)' fill-opacity = '0.250000' points = '704.1,195.3 704.1,662.4 706.0,662.4 706.0,198.2 '/>
		<polygon fill = 'rgb( 31, 120, 180)' fill-opacity = '0.250000' points = '706.0,198.2 706.0,662.4 707.9,662.4 707.9,201.1 '/>
		<polygon fill = 'rgb( 31, 120, 180)' fill-opacity = '0.250000' points = '707.9,201.1 707.9,662.4 709.8,662.4 709.8,204.1 '/>
		<polygon fill = 'rgb( 31, 120, 180)' fill-opacity = '0.250000' points = '709.8,204.1 709.8,662.4 711.7,662.4 711.7,207.1 '/>
		<polygon fill = 'rgb( 31, 120, 180)' fill-opacity = '0.250000' points = '711.7,207.1 711.7,662.4 713.5,662.4 713.5,210.1 '/>
		<polygon fill = 'rgb( 31, 120, 180)' fill-opacity = '0.250000' points = '713.5,210.1 713.5,662.4 715.4,662.4 715.4,213.2 '/>
		<polygon fill = 'rgb( 31, 120, 180)' fill-opacity = '0.250000' points = '715.4,213.2 715.4,662.4 717.3,662.4 717.3,216.4 '/>
		<polygon fill = 'rgb( 31, 120, 180)' fill-opacity = '0.250000' points = '717.3,216.4 717.3,662.4 719.2,662.4 719.2,219.6 '/>
		<polygon fill = 'rgb( 31, 120, 180)' fill-opacity = '0.250000' points = '719.2,219.6 719.2,662.4 721.1,662.4 721.1,222.8 '/>
		<polygon fill = 'rgb( 31, 120, 180)' fill-opacity = '0.250000' points = '721.1,222.8 721.1,662.4 723.0,662.4 723.0,226.1 '/>
		<polygon fill = 'rgb( 31, 120, 180)' fill-opacity = '0.250000' points = '723.0,226.1 723.0,662.4 724.9,662.4 724.9,229.4 '/>
		<polygon fill = 'rgb( 31, 120, 180)' fill-opacity = '0.250000' points = '724.9,229.4 724.9,662.4 726.7,662.4 726.7,232.7 '/>
		<polygon fill = 'rgb( 31, 120, 180)' fill-opacity = '0.250000' points = '726.7,232.7 726.7,662.4 728.6,662.4 728.6,236.0 '/>
		<polygon fill = 'rgb( 31, 120, 180)' fill-opacity = '0.250000' points = '728.6,236.0 728.6,662.4 730.5,662.4 730.5,239.3 '/>
		<polygon fill = 'rgb( 31, 120, 180)' fill-opacity = '0.250000' points = '730.5,239.3 730.5,662.4 732.4,662.4 732.4,242.6 '/>
		<polygon fill = 'rgb( 31, 120, 180)' fill-opacity = '0.250000' points = '732.4,242.6 732.4,662.4 734.3,662.4 734.3,245.9 '/>
		<polygon fill = 'rgb( 31, 120, 180)' fill-opacity = '0.250000' points = '734.3,245.9 734.3,662.4 736.2,662.4 736.2,249.2 '/>
		<polygon fill = 'rgb( 31, 120, 180)' fill-opacity = '0.250000' points = '736.2,249.2 736.2,662.4 738.1,662.4 738.1,252.5 '/>
		<polygon fill = 'rgb( 31, 120, 180)' fill-opacity = '0.250000' points = '738.1,252.5 738.1,662.4 740.0,662.4 740.0,255.8 '/>
		<polygon fill = 'rgb( 31, 120, 180)' fill-opacity = '0.250000' points = '740.0,255.8 740.0,662.4 741.8,662.4 741.8,259.0 '/>
		<polygon fill = 'rgb( 31, 120, 180)' fill-opacity = '0.250000' points = '741.8,259.0 741.8,662.4 743.7,662.4 743.7,262.3 '/>
		<polygon fill = 'rgb( 31, 120, 180)' fill-opacity = '0.250000' points = '743.7,262.3 743.7,662.4 745.6,662.4 745.6,265.5 '/>
		<polygon fill = 'rgb( 31, 120, 180)' fill-opacity = '0.250000' points = '745.6,265.5 745.6,662.4 747.5,662.4 747.5,268.7 '/>
		<polygon fill = 'rgb( 31, 120, 180)' fill-opacity = '0.250000' points = '747.5,268.7 747.5,662.4 749.4,662.4 749.4,271.9 '/>
		<polygon fill = 'rgb( 31, 120, 180)' fill-opacity = '0.250000' points = '749.4,271.9 749.4,662.4 751.3,662.4 751.3,275.1 '/>
		<polygon fill = 'rgb( 31, 120, 180)' fill-opacity = '0.250000' points = '751.3,275.1 751.3,662.4 753.2,662.4 753.2,278.3 '/>
		<polygon fill = 'rgb( 31, 120, 180)' fill-opacity = '0.250000' points = '753.2,278.3 753.2,662.4 755.1,662.4 755.1,281.6 '/>
		<polygon fill = 'rgb( 31, 120, 180)' fill-opacity = '0.250000' points = '755.1,281.6 755.1,662.4 756.9,662.4 756.9,284.8 '/>
		<polygon fill = 'rgb( 31, 120, 180)' fill-opacity = '0.250000' points = '756.9,284.8 756.9,662.4 758.8,662.4 758.8,288.1 '/>
		<polygon fill = 'rgb( 31, 120, 180)' fill-opacity = '0.250000' points = '758.8,288.1 758.8,662.4 760.7,662.4 760.7,291.3 '/>
		<polygon fill = 'rgb( 31, 120, 180)' fill-opacity = '0.250000' points = '760.7,291.3 760.7,662.4 762.6,662.4 762.6,294.7 '/>
		<polygon fill = 'rgb( 31, 120, 180)' fill-opacity = '0.250000' points = '762.6,294.7 762.6,662.4 764.5,662.4 764.5,298.0 '/>
		<polygon fill = 'rgb( 31, 120, 180)' fill-opacity = '0.250000' points = '764.5,298.0 764.5,662.4 766.4,662.4 766.4,301.4 '/>
		<polygon fill = 'rgb( 31, 120, 180)' fill-opacity = '0.250000' points = '766.4,301.4 766.4,662.4 768.3,662.4 768.3,304.9 '/>
		<polygon fill = 'rgb( 31, 120, 180)' fill-opacity = '0.250000' points = '768.3,304.9 768.3,662.4 770.2,662.4 770.2,308.4 '/>
		<polygon fill = 'rgb( 31, 120, 180)' fill-opacity = '0.250000' points = '770.2,308.4 770.2,662.4 772.0,662.4 772.0,312.0 '/>
		<polygon fill = 'rgb( 31, 120, 180)' fill-opacity = '0.250000' points = '772.0,312.0 772.0,662.4 773.9,662.4 773.9,315.6 '/>
		<polygon fill = 'rgb( 31, 120, 180)' fill-opacity = '0.250000' points = '773.9,315.6 773.9,662.4 775.8,662.4 775.8,319.3 '/>
		<polygon fill = 'rgb( 31, 120, 180)' fill-opacity = '0.250000' points = '775.8,319.3 775.8,662.4 777.7,662.4 777.7,323.0 '/>
		<polygon fill = 'rgb( 31, 120, 180)' fill-opacity = '0.250000' points = '777.7,323.0 777.7,662.4 779.6,662.4 779.6,326.7 '/>
		<polygon fill = 'rgb( 31, 120, 180)' fill-opacity = '0.250000' points = '779.6,326.7 779.6,662.4 781.5,662.4 781.5,330.5 '/>
		<polygon fill = 'rgb( 31, 120, 180)' fill-opacity = '0.250000' points = '781.5,330.5 781.5,662.4 783.4,662.4 783.4,334.4 '/>
		<polygon fill = 'rgb( 31, 120, 180)' fill-opacity = '0.250000' points = '783.4,334.4 783.4,662.4 785.3,662.4 785.3,338.2 '/>
		<polygon fill = 'rgb( 31, 120, 180)' fill-opacity = '0.250000' points = '785.3,338.2 785.3,662.4 787.1,662.4 787.1,342.1 '/>
		<polygon fill = 'rgb( 31, 120, 180)' fill-opacity = '0.250000' points = '787.1,342.1 787.1,662.4 789.0,662.4 789.0,346.0 '/>
		<polygon fill = 'rgb( 31, 120, 180)' fill-opacity = '0.250000' points = '789.0,346.0 789.0,662.4 790.9,662.4 790.9,349.9 '/>
		<polygon fill = 'rgb( 31, 120, 180)' fill-opacity = '0.250000' points = '790.9,349.9 790.9,662.4 792.8,662.4 792.8,353.7 '/>
		<polygon fill = 'rgb( 31, 120, 180)' fill-opacity = '0.250000' points = '792.8,353.7 792.8,662.4 794.7,662.4 794.7,357.6 '/>
		<polygon fill = 'rgb( 31, 120, 180)' fill-opacity = '0.250000' points = '794.7,357.6 794.7,662.4 796.6,662.4 796.6,361.5 '/>
		<polygon fill = 'rgb( 31, 120, 180)' fill-opacity = '0.250000' points = '796.6,361.5 796.6,662.4 798.5,662.4 798.5,365.3 '/>
		<polygon fill = 'rgb( 31, 120, 180)' fill-opacity = '0.250000' points = '798.5,365.3 798.5,662.4 800.3,662.4 800.3,369.1 '/>
		<polygon fill = 'rgb( 31, 120, 180)' fill-opacity = '0.250000' points = '800.3,369.1 800.3,662.4 802.2,662.4 802.2,372.8 '/>
		<polygon fill = 'rgb( 31, 120, 180)' fill-opacity = '0.250000' points = '802.2,372.8 802.2,662.4 804.1,662.4 804.1,376.5 '/>
		<polygon fill = 'rgb( 31, 120, 180)' fill-opacity = '0.250000' points = '804.1,376.5 804.1,662.4 806.0,662.4 806.0,380.2 '/>
		<polygon fill = 'rgb( 31, 120, 180)' fill-opacity = '0.250000' points = '806.0,380.2 806.0,662.4 807.9,662.4 807.9,383.8 '/>
		<polygon fill = 'rgb( 31, 120, 180)' fill-opacity = '0.250000' points = '807.9,383.8 807.9,662.4 809.8,662.4 809.8,387.4 '/>
		<polygon fill = 'rgb( 31, 120, 180)' fill-opacity = '0.250000' points = '809.8,387.4 809.8,662.4 811.7,662.4 811.7,390.9 '/>
		<polygon fill = 'rgb( 31, 120, 180)' fill-opacity = '0.250000' points = '811.7,390.9 811.7,662.4 813.6,662.4 813.6,394.4 '/>
		<polygon fill = 'rgb( 31, 120, 180)' fill-opacity = '0.250000' points = '813.6,394.4 813.6,662.4 815.4,662.4 815.4,397.9 '/>
		<polygon fill = 'rgb( 31, 120, 180)' fill-opacity = '0.250000' points = '815.4,397.9 815.4,662.4 817.3,662.4 817.3,401.3 '/>
		<polygon fill = 'rgb( 31, 120, 180)' fill-opacity = '0.250000' points = '817.3,401.3 817.3,662.4 819.2,662.4 819.2,404.7 '/>
		<polygon fill = 'rgb( 31, 120, 180)' fill-opacity = '0.250000' points = '819.2,404.7 819.2,662.4 821.1,662.4 821.1,408.1 '/>
		<polygon fill = 'rgb( 31, 120, 180)' fill-opacity = '0.250000' points = '821.1,408.1 821.1,662.4 823.0,662.4 823.0,411.4 '/>
		<polygon fill = 'rgb( 31, 120, 180)' fill-opacity = '0.250000' points = '823.0,411.4 823.0,662.4 824.9,662.4 824.9,414.8 '/>
		<polygon fill = 'rgb( 31, 120, 180)' fill-opacity = '0.250000' points = '824.9,414.8 824.9,662.4 826.8,662.4 826.8,418.0 '/>
		<polygon fill = 'rgb( 31, 120, 180)' fill-opacity = '0.250000' points = '826.8,418.0 826.8,662.4 828.7,662.4 828.7,421.3 '/>
		<polygon fill = 'rgb( 31, 120, 180)' fill-opacity = '0.250000' points = '828.7,421.3 828.7,662.4 830.5,662.4 830.5,424.6 '/>
		<polygon fill = 'rgb( 31, 120, 180)' fill-opacity = '0.250000' points = '830.5,424.6 830.5,662.4 832.4,662.4 832.4,427.8 '/>
		<polygon fill = 'rgb( 31, 120, 180)' fill-opacity = '0.250000' points = '832.4,427.8 832.4,662.4 834.3,662.4 834.3,431.0 '/>
		<polygon fill = 'rgb( 31, 120, 180)' fill-opacity = '0.250000' points = '834.3,431.0 834.3,662.4 836.2,662.4 836.2,434.2 '/>
		<polygon fill = 'rgb( 31, 120, 180)' fill-opacity = '0.250000' points = '836.2,434.2 836.2,662.4 838.1,662.4 838.1,437.3 '/>
		<polygon fill = 'rgb( 31, 120, 180)' fill-opacity = '0.250000' points = '838.1,437.3 838.1,662.4 840.0,662.4 840.0,440.4 '/>
		<polygon fill = 'rgb( 31, 120, 180)' fill-opacity = '0.250000' points = '840.0,440.4 840.0,662.4 841.9,662.4 841.9,443.5 '/>
		<polygon fill = 'rgb( 31, 120, 180)' fill-opacity = '0.250000' points = '841.9,443.5 841.9,662.4 843.8,662.4 843.8,446.6 '/>
		<polygon fill = 'rgb( 31, 120, 180)' fill-opacity = '0.250000' points = '843.8,446.6 843.8,662.4 845.6,662.4 845.6,449.6 '/>
		<polygon fill = 'rgb( 31, 120, 180)' fill-opacity = '0.250000' points = '845.6,449.6 845.6,662.4 847.5,662.4 847.5,452.6 '/>
		<polygon fill = 'rgb( 31, 120, 180)' fill-opacity = '0.250000' points = '847.5,452.6 847.5,662.4 849.4,662.4 849.4,455.6 '/>
		<polygon fill = 'rgb( 31, 120, 180)' fill-opacity = '0.250000' points = '849.4,455.6 849.4,662.4 851.3,662.4 851.3,458.5 '/>
		<polygon fill = 'rgb( 31, 120, 180)' fill-opacity = '0.250000' points = '851.3,458.5 851.3,662.4 853.2,662.4 853.2,461.4 '/>
		<polygon fill = 'rgb( 31, 120, 180)' fill-opacity = '0.250000' points = '853.2,461.4 853.2,662.4 855.1,662.4 855.1,464.2 '/>
		<polygon fill = 'rgb( 31, 120, 180)' fill-opacity = '0.250000' points = '855.1,464.2 855.1,662.4 857.0,662.4 857.0,467.1 '/>
		<polygon fill = 'rgb( 31, 120, 180)' fill-opacity = '0.250000' points = '857.0,467.1 857.0,662.4 858.9,662.4 858.9,469.9 '/>
		<polygon fill = 'rgb( 31, 120, 180)' fill-opacity = '0.250000' points = '858.9,469.9 858.9,662.4 860.7,662.4 860.7,472.7 '/>
		<polygon fill = 'rgb( 31, 120, 180)' fill-opacity = '0.250000' points = '860.7,472.7 860.7,662.4 862.6,662.4 862.6,475.5 '/>
		<polygon fill = 'rgb( 31, 120, 180)' fill-opacity = '0.250000' points = '862.6,475.5 862.6,662.4 864.5,662.4 864.5,478.3 '/>
		<polygon fill = 'rgb( 31, 120, 180)' fill-opacity = '0.250000' points = '864.5,478.3 864.5,662.4 866.4,662.4 866.4,481.1 '/>
		<polygon fill = 'rgb( 31, 120, 180)' fill-opacity = '0.250000' points = '866.4,481.1 866.4,662.4 868.3,662.4 868.3,483.8 '/>
		<polygon fill = 'rgb( 31, 120, 180)' fill-opacity = '0.250000' points = '868.3,483.8 868.3,662.4 870.2,662.4 870.2,486.7 '/>
		<polygon fill = 'rgb( 31, 120, 180)' fill-opacity = '0.250000' points = '870.2,486.7 870.2,662.4 872.1,662.4 872.1,489.5 '/>
		<polygon fill = 'rgb( 31, 120, 180)' fill-opacity = '0.250000' points = '872.1,489.5 872.1,662.4 873.9,662.4 873.9,492.3 '/>
		<polygon fill = 'rgb( 31, 120, 180)' fill-opacity = '0.250000' points = '873.9,492.3 873.9,662.4 875.8,662.4 875.8,495.2 '/>
		<polygon fill = 'rgb( 31, 120, 180)' fill-opacity = '0.250000' points = '875.8,495.2 875.8,662.4 877.7,662.4 877.7,498.1 '/>
		<polygon fill = 'rgb( 31, 120, 180)' fill-opacity = '0.250000' points = '877.7,498.1 877.7,662.4 879.6,662.4 879.6,501.0 '/>
		<polygon fill = 'rgb( 31, 120, 180)' fill-opacity = '0.250000' points = '879.6,501.0 879.6,662.4 881.5,662.4 881.5,504.0 '/>
		<polygon fill = 'rgb( 31, 120, 180)' fill-opacity = '0.250000' points = '881.5,504.0 881.5,662.4 883.4,662.4 883.4,507.0 '/>
		<polygon fill = 'rgb( 31, 120, 180)' fill-opacity = '0.250000' points = '883.4,507.0 883.4,662.4 885.3,662.4 885.3,510.0 '/>
		<polygon fill = 'rgb( 31, 120, 180)' fill-opacity = '0.250000' points = '885.3,510.0 885.3,662.4 887.2,662.4 887.2,513.0 '/>
		<polygon fill = 'rgb( 31, 120, 180)' fill-opacity = '0.250000' points = '887.2,513.0 887.2,662.4 889.0,662.4 889.0,516.0 '/>
		<polygon fill = 'rgb( 31, 120, 180)' fill-opacity = '0.250000' points = '889.0,516.0 889.0,662.4 890.9,662.4 890.9,519.1 '/>
		<polygon fill = 'rgb( 31, 120, 180)' fill-opacity = '0.250000' points = '890.9,519.1 890.9,662.4 892.8,662.4 892.8,522.1 '/>
		<polygon fill = 'rgb( 31, 120, 180)' fill-opacity = '0.250000' points = '892.8,522.1 892.8,662.4 894.7,662.4 894.7,525.1 '/>
		<polygon fill = 'rgb( 31, 120, 180)' fill-opacity = '0.250000' points = '894.7,525.1 894.7,662.4 896.6,662.4 896.6,528.1 '/>
		<polygon fill = 'rgb( 31, 120, 180)' fill-opacity = '0.250000' points = '896.6,528.1 896.6,662.4 898.5,662.4 898.5,531.1 '/>
		<polygon fill = 'rgb( 31, 120, 180)' fill-opacity = '0.250000' points = '898.5,531.1 898.5,662.4 900.4,662.4 900.4,534.0 '/>
		<polygon fill = 'rgb( 31, 120, 180)' fill-opacity = '0.250000' points = '900.4,534.0 900.4,662.4 902.3,662.4 902.3,536.9 '/>
		<polygon fill = 'rgb( 31, 120, 180)' fill-opacity = '0.250000' points = '902.3,536.9 902.3,662.4 904.1,662.4 904.1,539.7 '/>
		<polygon fill = 'rgb( 31, 120, 180)' fill-opacity = '0.250000' points = '904.1,539.7 904.1,662.4 906.0,662.4 906.0,542.5 '/>
		<polygon fill = 'rgb( 31, 120, 180)' fill-opacity = '0.250000' points = '906.0,542.5 906.0,662.4 907.9,662.4 907.9,545.2 '/>
		<polygon fill = 'rgb( 31, 120, 180)' fill-opacity = '0.250000' points = '907.9,545.2 907.9,662.4 909.8,662.4 909.8,547.8 '/>
		<polygon fill = 'rgb( 31, 120, 180)' fill-opacity = '0.250000' points = '909.8,547.8 909.8,662.4 911.7,662.4 911.7,550.4 '/>
		<polygon fill = 'rgb( 31, 120, 180)' fill-opacity = '0.250000' points = '911.7,550.4 911.7,662.4 913.6,662.4 913.6,552.8 '/>
		<polygon fill = 'rgb( 31, 120, 180)' fill-opacity = '0.250000' points = '913.6,552.8 913.6,662.4 915.5,662.4 915.5,555.2 '/>
		<polygon fill = 'rgb( 31, 120, 180)' fill-opacity = '0.250000' points = '915.5,555.2 915.5,662.4 917.4,662.4 917.4,557.5 '/>
		<polygon fill = 'rgb( 31, 120, 180)' fill-opacity = '0.250000' points = '917.4,557.5 917.4,662.4 919.2,662.4 919.2,559.7 '/>
		<polygon fill = 'rgb( 31, 120, 180)' fill-opacity = '0.250000' points = '919.2,559.7 919.2,662.4 921.1,662.4 921.1,561.8 '/>
		<polygon fill = 'rgb( 31, 120, 180)' fill-opacity = '0.250000' points = '921.1,561.8 921.1,662.4 923.0,662.4 923.0,563.9 '/>
		<polygon fill = 'rgb( 31, 120, 180)' fill-opacity = '0.250000' points = '923.0,563.9 923.0,662.4 924.9,662.4 924.9,565.9 '/>
	</g>
</g>
	</g>
	<g id="gnuplot_plot_3" ><title>Point estimate</title>
<g fill="none" color="white" stroke="rgb( 31, 120, 180)" stroke-width="2.00" stroke-linecap="butt" stroke-linejoin="miter">
</g>
<g fill="none" color="black" stroke="currentColor" stroke-width="2.00" stroke-linecap="butt" stroke-linejoin="miter">
	<g transform="translate(1089.0,103.0)" stroke="none" fill="black" font-family="Helvetica" font-size="12.00"  text-anchor="start">
		<text><tspan font-family="Helvetica" >Point estimate</tspan></text>
	</g>
</g>
<g fill="none" color="black" stroke="currentColor" stroke-width="2.00" stroke-linecap="butt" stroke-linejoin="miter">
	<path stroke='rgb( 31, 120, 180)'  d='M1038.5,99.1 L1080.7,99.1 M628.1,662.4 L628.1,121.5  '/></g>
	</g>
<g fill="none" color="black" stroke="currentColor" stroke-width="2.00" stroke-linecap="butt" stroke-linejoin="miter">
</g>
<g fill="none" color="black" stroke="black" stroke-width="1.00" stroke-linecap="butt" stroke-linejoin="miter">
</g>
<g fill="none" color="black" stroke="currentColor" stroke-width="1.00" stroke-linecap="butt" stroke-linejoin="miter">
	<path stroke='black'  d='M71.9,54.1 L71.9,662.4 L1013.6,662.4 L1013.6,54.1 L71.9,54.1 Z  '/></g>
<g fill="none" color="black" stroke="currentColor" stroke-width="1.00" stroke-linecap="butt" stroke-linejoin="miter">
</g>
</g>
</svg>

