<?xml version="1.0" encoding="utf-8"  standalone="no"?>
<svg 
 viewBox="0 0 1280 720"
 xmlns="http://www.w3.org/2000/svg"
 xmlns:xlink="http://www.w3.org/1999/xlink"
>

<title>Gnuplot</title>
<desc>Produced by GNUPLOT 5.0 patchlevel 6 </desc>

<g id="gnuplot_canvas">

<rect x="0" y="0" width="1280" height="720" fill="none"/>
<defs>

	<circle id='gpDot' r='0.5' stroke-width='0.5'/>
	<path id='gpPt0' stroke-width='0.222' stroke='currentColor' d='M-1,0 h2 M0,-1 v2'/>
	<path id='gpPt1' stroke-width='0.222' stroke='currentColor' d='M-1,-1 L1,1 M1,-1 L-1,1'/>
	<path id='gpPt2' stroke-width='0.222' stroke='currentColor' d='M-1,0 L1,0 M0,-1 L0,1 M-1,-1 L1,1 M-1,1 L1,-1'/>
	<rect id='gpPt3' stroke-width='0.222' stroke='currentColor' x='-1' y='-1' width='2' height='2'/>
	<rect id='gpPt4' stroke-width='0.222' stroke='currentColor' fill='currentColor' x='-1' y='-1' width='2' height='2'/>
	<circle id='gpPt5' stroke-width='0.222' stroke='currentColor' cx='0' cy='0' r='1'/>
	<use xlink:href='#gpPt5' id='gpPt6' fill='currentColor' stroke='none'/>
	<path id='gpPt7' stroke-width='0.222' stroke='currentColor' d='M0,-1.33 L-1.33,0.67 L1.33,0.67 z'/>
	<use xlink:href='#gpPt7' id='gpPt8' fill='currentColor' stroke='none'/>
	<use xlink:href='#gpPt7' id='gpPt9' stroke='currentColor' transform='rotate(180)'/>
	<use xlink:href='#gpPt9' id='gpPt10' fill='currentColor' stroke='none'/>
	<use xlink:href='#gpPt3' id='gpPt11' stroke='currentColor' transform='rotate(45)'/>
	<use xlink:href='#gpPt11' id='gpPt12' fill='currentColor' stroke='none'/>
	<path id='gpPt13' stroke-width='0.222' stroke='currentColor' d='M0,1.330 L1.265,0.411 L0.782,-1.067 L-0.782,-1.076 L-1.265,0.411 z'/>
	<use xlink:href='#gpPt13' id='gpPt14' fill='currentColor' stroke='none'/>
	<filter id='textbox' filterUnits='objectBoundingBox' x='0' y='0' height='1' width='1'>
	  <feFlood flood-color='white' flood-opacity='1' result='bgnd'/>
	  <feComposite in='SourceGraphic' in2='bgnd' operator='atop'/>
	</filter>
	<filter id='greybox' filterUnits='objectBoundingBox' x='0' y='0' height='1' width='1'>
	  <feFlood flood-color='lightgrey' flood-opacity='1' result='grey'/>
	  <feComposite in='SourceGraphic' in2='grey' operator='atop'/>
	</filter>
</defs>
<g fill="none" color="white" stroke="currentColor" stroke-width="1.00" stroke-linecap="butt" stroke-linejoin="miter">
</g>
<g fill="none" color="black" stroke="currentColor" stroke-width="1.00" stroke-linecap="butt" stroke-linejoin="miter">
	<path stroke='black'  d='M63.6,662.4 L72.6,662.4  '/>	<g transform="translate(55.3,666.3)" stroke="none" fill="black" font-family="Helvetica" font-size="12.00"  text-anchor="end">
		<text><tspan font-family="Helvetica" > 0</tspan></text>
	</g>
</g>
<g fill="none" color="black" stroke="currentColor" stroke-width="1.00" stroke-linecap="butt" stroke-linejoin="miter">
	<path stroke='black'  d='M63.6,601.6 L72.6,601.6  '/>	<g transform="translate(55.3,605.5)" stroke="none" fill="black" font-family="Helvetica" font-size="12.00"  text-anchor="end">
		<text><tspan font-family="Helvetica" > 1</tspan></text>
	</g>
</g>
<g fill="none" color="black" stroke="currentColor" stroke-width="1.00" stroke-linecap="butt" stroke-linejoin="miter">
	<path stroke='black'  d='M63.6,540.7 L72.6,540.7  '/>	<g transform="translate(55.3,544.6)" stroke="none" fill="black" font-family="Helvetica" font-size="12.00"  text-anchor="end">
		<text><tspan font-family="Helvetica" > 2</tspan></text>
	</g>
</g>
<g fill="none" color="black" stroke="currentColor" stroke-width="1.00" stroke-linecap="butt" stroke-linejoin="miter">
	<path stroke='black'  d='M63.6,479.9 L72.6,479.9  '/>	<g transform="translate(55.3,483.8)" stroke="none" fill="black" font-family="Helvetica" font-size="12.00"  text-anchor="end">
		<text><tspan font-family="Helvetica" > 3</tspan></text>
	</g>
</g>
<g fill="none" color="black" stroke="currentColor" stroke-width="1.00" stroke-linecap="butt" stroke-linejoin="miter">
	<path stroke='black'  d='M63.6,419.1 L72.6,419.1  '/>	<g transform="translate(55.3,423.0)" stroke="none" fill="black" font-family="Helvetica" font-size="12.00"  text-anchor="end">
		<text><tspan font-family="Helvetica" > 4</tspan></text>
	</g>
</g>
<g fill="none" color="black" stroke="currentColor" stroke-width="1.00" stroke-linecap="butt" stroke-linejoin="miter">
	<path stroke='black'  d='M63.6,358.2 L72.6,358.2  '/>	<g transform="translate(55.3,362.1)" stroke="none" fill="black" font-family="Helvetica" font-size="12.00"  text-anchor="end">
		<text><tspan font-family="Helvetica" > 5</tspan></text>
	</g>
</g>
<g fill="none" color="black" stroke="currentColor" stroke-width="1.00" stroke-linecap="butt" stroke-linejoin="miter">
	<path stroke='black'  d='M63.6,297.4 L72.6,297.4  '/>	<g transform="translate(55.3,301.3)" stroke="none" fill="black" font-family="Helvetica" font-size="12.00"  text-anchor="end">
		<text><tspan font-family="Helvetica" > 6</tspan></text>
	</g>
</g>
<g fill="none" color="black" stroke="currentColor" stroke-width="1.00" stroke-linecap="butt" stroke-linejoin="miter">
	<path stroke='black'  d='M63.6,236.6 L72.6,236.6  '/>	<g transform="translate(55.3,240.5)" stroke="none" fill="black" font-family="Helvetica" font-size="12.00"  text-anchor="end">
		<text><tspan font-family="Helvetica" > 7</tspan></text>
	</g>
</g>
<g fill="none" color="black" stroke="currentColor" stroke-width="1.00" stroke-linecap="butt" stroke-linejoin="miter">
	<path stroke='black'  d='M63.6,175.8 L72.6,175.8  '/>	<g transform="translate(55.3,179.7)" stroke="none" fill="black" font-family="Helvetica" font-size="12.00"  text-anchor="end">
		<text><tspan font-family="Helvetica" > 8</tspan></text>
	</g>
</g>
<g fill="none" color="black" stroke="currentColor" stroke-width="1.00" stroke-linecap="butt" stroke-linejoin="miter">
	<path stroke='black'  d='M63.6,114.9 L72.6,114.9  '/>	<g transform="translate(55.3,118.8)" stroke="none" fill="black" font-family="Helvetica" font-size="12.00"  text-anchor="end">
		<text><tspan font-family="Helvetica" > 9</tspan></text>
	</g>
</g>
<g fill="none" color="black" stroke="currentColor" stroke-width="1.00" stroke-linecap="butt" stroke-linejoin="miter">
	<path stroke='black'  d='M63.6,54.1 L72.6,54.1  '/>	<g transform="translate(55.3,58.0)" stroke="none" fill="black" font-family="Helvetica" font-size="12.00"  text-anchor="end">
		<text><tspan font-family="Helvetica" > 10</tspan></text>
	</g>
</g>
<g fill="none" color="black" stroke="currentColor" stroke-width="1.00" stroke-linecap="butt" stroke-linejoin="miter">
	<path stroke='black'  d='M196.3,662.4 L196.3,653.4  '/>	<g transform="translate(196.3,684.3)" stroke="none" fill="black" font-family="Helvetica" font-size="12.00"  text-anchor="middle">
		<text><tspan font-family="Helvetica" > 62.8</tspan></text>
	</g>
</g>
<g fill="none" color="black" stroke="currentColor" stroke-width="1.00" stroke-linecap="butt" stroke-linejoin="miter">
	<path stroke='black'  d='M429.7,662.4 L429.7,653.4  '/>	<g transform="translate(429.7,684.3)" stroke="none" fill="black" font-family="Helvetica" font-size="12.00"  text-anchor="middle">
		<text><tspan font-family="Helvetica" > 62.85</tspan></text>
	</g>
</g>
<g fill="none" color="black" stroke="currentColor" stroke-width="1.00" stroke-linecap="butt" stroke-linejoin="miter">
	<path stroke='black'  d='M663.1,662.4 L663.1,653.4  '/>	<g transform="translate(663.1,684.3)" stroke="none" fill="black" font-family="Helvetica" font-size="12.00"  text-anchor="middle">
		<text><tspan font-family="Helvetica" > 62.9</tspan></text>
	</g>
</g>
<g fill="none" color="black" stroke="currentColor" stroke-width="1.00" stroke-linecap="butt" stroke-linejoin="miter">
	<path stroke='black'  d='M896.5,662.4 L896.5,653.4  '/>	<g transform="translate(896.5,684.3)" stroke="none" fill="black" font-family="Helvetica" font-size="12.00"  text-anchor="middle">
		<text><tspan font-family="Helvetica" > 62.95</tspan></text>
	</g>
</g>
<g fill="none" color="black" stroke="currentColor" stroke-width="1.00" stroke-linecap="butt" stroke-linejoin="miter">
</g>
<g fill="none" color="black" stroke="currentColor" stroke-width="1.00" stroke-linecap="butt" stroke-linejoin="miter">
	<path stroke='black'  d='M63.6,54.1 L63.6,662.4 L1013.6,662.4 L1013.6,54.1 L63.6,54.1 Z  '/></g>
<g fill="none" color="black" stroke="currentColor" stroke-width="1.00" stroke-linecap="butt" stroke-linejoin="miter">
	<g transform="translate(17.0,358.3) rotate(270)" stroke="none" fill="black" font-family="Helvetica" font-size="12.00"  text-anchor="middle">
		<text><tspan font-family="Helvetica" >Density (a.u.)</tspan></text>
	</g>
</g>
<g fill="none" color="black" stroke="currentColor" stroke-width="1.00" stroke-linecap="butt" stroke-linejoin="miter">
	<g transform="translate(538.6,711.3)" stroke="none" fill="black" font-family="Helvetica" font-size="12.00"  text-anchor="middle">
		<text><tspan font-family="Helvetica" >Average time (ms)</tspan></text>
	</g>
</g>
<g fill="none" color="black" stroke="currentColor" stroke-width="1.00" stroke-linecap="butt" stroke-linejoin="miter">
	<g transform="translate(538.6,31.0)" stroke="none" fill="black" font-family="Helvetica" font-size="12.00"  text-anchor="middle">
		<text><tspan font-family="Helvetica" >language: go/parse error: javascript/examples/text-editor-component.js: mean</tspan></text>
	</g>
</g>
	<g id="gnuplot_plot_1" ><title>Bootstrap distribution</title>
<g fill="none" color="white" stroke="black" stroke-width="2.00" stroke-linecap="butt" stroke-linejoin="miter">
</g>
<g fill="none" color="black" stroke="currentColor" stroke-width="2.00" stroke-linecap="butt" stroke-linejoin="miter">
	<g transform="translate(1089.0,67.0)" stroke="none" fill="black" font-family="Helvetica" font-size="12.00"  text-anchor="start">
		<text><tspan font-family="Helvetica" >Bootstrap distribution</tspan></text>
	</g>
</g>
<g fill="none" color="black" stroke="currentColor" stroke-width="2.00" stroke-linecap="butt" stroke-linejoin="miter">
	<path stroke='rgb( 31, 120, 180)'  d='M1038.5,63.1 L1080.7,63.1 M63.6,629.9 L65.5,628.7 L67.4,627.5 L69.3,626.3 L71.2,625.0 L73.1,623.7
		L75.0,622.4 L76.9,621.0 L78.8,619.7 L80.7,618.2 L82.6,616.8 L84.5,615.3 L86.4,613.8 L88.3,612.3
		L90.3,610.7 L92.2,609.2 L94.1,607.6 L96.0,606.0 L97.9,604.3 L99.8,602.7 L101.7,601.0 L103.6,599.3
		L105.5,597.6 L107.4,595.9 L109.3,594.2 L111.2,592.4 L113.1,590.7 L115.0,588.9 L116.9,587.1 L118.8,585.3
		L120.7,583.4 L122.6,581.6 L124.5,579.7 L126.4,577.7 L128.3,575.8 L130.2,573.8 L132.1,571.8 L134.0,569.7
		L135.9,567.7 L137.8,565.6 L139.8,563.4 L141.7,561.2 L143.6,559.0 L145.5,556.8 L147.4,554.5 L149.3,552.2
		L151.2,549.8 L153.1,547.5 L155.0,545.1 L156.9,542.6 L158.8,540.2 L160.7,537.7 L162.6,535.1 L164.5,532.5
		L166.4,529.9 L168.3,527.3 L170.2,524.6 L172.1,521.9 L174.0,519.2 L175.9,516.4 L177.8,513.6 L179.7,510.7
		L181.6,507.8 L183.5,504.9 L185.4,501.9 L187.3,498.9 L189.3,495.9 L191.2,492.9 L193.1,489.8 L195.0,486.7
		L196.9,483.6 L198.8,480.5 L200.7,477.4 L202.6,474.3 L204.5,471.1 L206.4,467.9 L208.3,464.8 L210.2,461.6
		L212.1,458.4 L214.0,455.2 L215.9,452.0 L217.8,448.7 L219.7,445.5 L221.6,442.2 L223.5,438.9 L225.4,435.6
		L227.3,432.2 L229.2,428.8 L231.1,425.4 L233.0,421.9 L234.9,418.4 L236.8,414.8 L238.8,411.2 L240.7,407.6
		L242.6,403.9 L244.5,400.2 L246.4,396.4 L248.3,392.6 L250.2,388.8 L252.1,384.9 L254.0,381.1 L255.9,377.1
		L257.8,373.2 L259.7,369.3 L261.6,365.3 L263.5,361.3 L265.4,357.3 L267.3,353.4 L269.2,349.4 L271.1,345.4
		L273.0,341.4 L274.9,337.4 L276.8,333.4 L278.7,329.5 L280.6,325.5 L282.5,321.6 L284.4,317.6 L286.3,313.7
		L288.2,309.8 L290.2,306.0 L292.1,302.1 L294.0,298.3 L295.9,294.5 L297.8,290.7 L299.7,287.0 L301.6,283.2
		L303.5,279.6 L305.4,275.9 L307.3,272.3 L309.2,268.7 L311.1,265.1 L313.0,261.6 L314.9,258.1 L316.8,254.6
		L318.7,251.2 L320.6,247.9 L322.5,244.5 L324.4,241.3 L326.3,238.0 L328.2,234.8 L330.1,231.7 L332.0,228.6
		L333.9,225.5 L335.8,222.5 L337.7,219.5 L339.7,216.6 L341.6,213.7 L343.5,210.8 L345.4,207.9 L347.3,205.0
		L349.2,202.2 L351.1,199.4 L353.0,196.5 L354.9,193.7 L356.8,190.9 L358.7,188.0 L360.6,185.2 L362.5,182.4
		L364.4,179.6 L366.3,176.8 L368.2,174.0 L370.1,171.2 L372.0,168.4 L373.9,165.7 L375.8,163.1 L377.7,160.4
		L379.6,157.9 L381.5,155.5 L383.4,153.1 L385.3,150.8 L387.2,148.6 L389.2,146.5 L391.1,144.5 L393.0,142.7
		L394.9,140.9 L396.8,139.2 L398.7,137.6 L400.6,136.1 L402.5,134.7 L404.4,133.3 L406.3,132.0 L408.2,130.8
		L410.1,129.6 L412.0,128.4 L413.9,127.2 L415.8,126.0 L417.7,124.8 L419.6,123.6 L421.5,122.4 L423.4,121.2
		L425.3,120.0 L427.2,118.7 L429.1,117.5 L431.0,116.2 L432.9,114.9 L434.8,113.7 L436.7,112.4 L438.7,111.2
		L440.6,109.9 L442.5,108.7 L444.4,107.6 L446.3,106.5 L448.2,105.4 L450.1,104.5 L452.0,103.5 L453.9,102.7
		L455.8,102.0 L457.7,101.3 L459.6,100.7 L461.5,100.2 L463.4,99.8 L465.3,99.5 L467.2,99.2 L469.1,99.1
		L471.0,99.0 L472.9,99.0 L474.8,99.0 L476.7,99.1 L478.6,99.3 L480.5,99.5 L482.4,99.8 L484.3,100.1
		L486.2,100.5 L488.1,100.9 L490.1,101.3 L492.0,101.7 L493.9,102.2 L495.8,102.6 L497.7,103.1 L499.6,103.6
		L501.5,104.2 L503.4,104.7 L505.3,105.3 L507.2,105.9 L509.1,106.5 L511.0,107.2 L512.9,107.9 L514.8,108.6
		L516.7,109.4 L518.6,110.2 L520.5,111.0 L522.4,111.9 L524.3,112.9 L526.2,113.8 L528.1,114.8 L530.0,115.9
		L531.9,117.0 L533.8,118.1 L535.7,119.3 L537.6,120.5 L539.6,121.8 L541.5,123.0 L543.4,124.4 L545.3,125.7
		L547.2,127.2 L549.1,128.6 L551.0,130.1 L552.9,131.7 L554.8,133.3 L556.7,135.0 L558.6,136.7 L560.5,138.6
		L562.4,140.4 L564.3,142.4 L566.2,144.4 L568.1,146.5 L570.0,148.6 L571.9,150.9 L573.8,153.1 L575.7,155.5
		L577.6,157.9 L579.5,160.3 L581.4,162.8 L583.3,165.4 L585.2,167.9 L587.1,170.6 L589.1,173.2 L591.0,175.8
		L592.9,178.5 L594.8,181.2 L596.7,183.9 L598.6,186.6 L600.5,189.3 L602.4,192.1 L604.3,194.8 L606.2,197.5
		L608.1,200.2 L610.0,202.9 L611.9,205.6 L613.8,208.3 L615.7,211.0 L617.6,213.7 L619.5,216.4 L621.4,219.0
		L623.3,221.7 L625.2,224.4 L627.1,227.0 L629.0,229.7 L630.9,232.4 L632.8,235.0 L634.7,237.7 L636.6,240.5
		L638.5,243.2 L640.5,246.0 L642.4,248.8 L644.3,251.6 L646.2,254.5 L648.1,257.4 L650.0,260.3 L651.9,263.3
		L653.8,266.3 L655.7,269.3 L657.6,272.4 L659.5,275.5 L661.4,278.6 L663.3,281.7 L665.2,284.8 L667.1,288.0
		L669.0,291.1 L670.9,294.2 L672.8,297.3 L674.7,300.4 L676.6,303.4 L678.5,306.5 L680.4,309.5 L682.3,312.5
		L684.2,315.5 L686.1,318.4 L688.0,321.3 L690.0,324.2 L691.9,327.1 L693.8,329.9 L695.7,332.7 L697.6,335.5
		L699.5,338.3 L701.4,341.0 L703.3,343.8 L705.2,346.5 L707.1,349.2 L709.0,351.9 L710.9,354.6 L712.8,357.3
		L714.7,359.9 L716.6,362.6 L718.5,365.3 L720.4,367.9 L722.3,370.6 L724.2,373.2 L726.1,375.9 L728.0,378.5
		L729.9,381.2 L731.8,383.9 L733.7,386.5 L735.6,389.2 L737.5,391.9 L739.5,394.5 L741.4,397.2 L743.3,399.9
		L745.2,402.6 L747.1,405.3 L749.0,407.9 L750.9,410.6 L752.8,413.3 L754.7,416.0 L756.6,418.7 L758.5,421.4
		L760.4,424.1 L762.3,426.8 L764.2,429.5 L766.1,432.2 L768.0,434.9 L769.9,437.7 L771.8,440.4 L773.7,443.1
		L775.6,445.9 L777.5,448.6 L779.4,451.3 L781.3,454.0 L783.2,456.8 L785.1,459.5 L787.0,462.2 L789.0,464.9
		L790.9,467.5 L792.8,470.1 L794.7,472.8 L796.6,475.3 L798.5,477.9 L800.4,480.4 L802.3,482.8 L804.2,485.2
		L806.1,487.6 L808.0,489.9 L809.9,492.2 L811.8,494.4 L813.7,496.6 L815.6,498.7 L817.5,500.7 L819.4,502.8
		L821.3,504.7 L823.2,506.7 L825.1,508.5 L827.0,510.4 L828.9,512.2 L830.8,514.0 L832.7,515.7 L834.6,517.5
		L836.5,519.2 L838.4,520.9 L840.4,522.6 L842.3,524.3 L844.2,525.9 L846.1,527.6 L848.0,529.3 L849.9,530.9
		L851.8,532.6 L853.7,534.3 L855.6,535.9 L857.5,537.6 L859.4,539.2 L861.3,540.9 L863.2,542.5 L865.1,544.2
		L867.0,545.8 L868.9,547.4 L870.8,549.0 L872.7,550.7 L874.6,552.3 L876.5,553.9 L878.4,555.4 L880.3,557.0
		L882.2,558.6 L884.1,560.2 L886.0,561.7 L887.9,563.3 L889.9,564.8 L891.8,566.3 L893.7,567.8 L895.6,569.3
		L897.5,570.8 L899.4,572.2 L901.3,573.7 L903.2,575.1 L905.1,576.5 L907.0,577.9 L908.9,579.2 L910.8,580.5
		L912.7,581.9 L914.6,583.1 L916.5,584.4 L918.4,585.7 L920.3,586.9 L922.2,588.1 L924.1,589.3 L926.0,590.5
		L927.9,591.7 L929.8,592.9 L931.7,594.0 L933.6,595.1 L935.5,596.3 L937.4,597.4 L939.4,598.4 L941.3,599.5
		L943.2,600.6 L945.1,601.6 L947.0,602.6 L948.9,603.6 L950.8,604.6 L952.7,605.5 L954.6,606.4 L956.5,607.3
		L958.4,608.2 L960.3,609.1 L962.2,609.9 L964.1,610.7 L966.0,611.5 L967.9,612.3 L969.8,613.0 L971.7,613.8
		L973.6,614.5 L975.5,615.3 L977.4,616.0 L979.3,616.7 L981.2,617.4 L983.1,618.1 L985.0,618.8 L986.9,619.5
		L988.9,620.2 L990.8,620.9 L992.7,621.6 L994.6,622.3 L996.5,623.0 L998.4,623.7 L1000.3,624.4 L1002.2,625.1
		L1004.1,625.8 L1006.0,626.4 L1007.9,627.1 L1009.8,627.8 L1011.7,628.5 L1013.6,629.1  '/></g>
	</g>
	<g id="gnuplot_plot_2" ><title>Confidence interval</title>
<g fill="none" color="white" stroke="rgb( 31, 120, 180)" stroke-width="1.00" stroke-linecap="butt" stroke-linejoin="miter">
</g>
<g fill="none" color="black" stroke="currentColor" stroke-width="1.00" stroke-linecap="butt" stroke-linejoin="miter">
	<g transform="translate(1089.0,85.0)" stroke="none" fill="black" font-family="Helvetica" font-size="12.00"  text-anchor="start">
		<text><tspan font-family="Helvetica" >Confidence interval</tspan></text>
	</g>
</g>
<g fill="none" color="black" stroke="currentColor" stroke-width="1.00" stroke-linecap="butt" stroke-linejoin="miter">
	<g stroke='none' shape-rendering='crispEdges'>
		<polygon fill = 'rgb( 31, 120, 180)' fill-opacity = '0.250000' points = '1038.5,85.6 1080.7,85.6 1080.7,76.6 1038.5,76.6 '/>
		<polygon fill = 'rgb( 31, 120, 180)' fill-opacity = '0.250000' points = '151.2,549.8 151.2,662.4 153.1,662.4 153.1,547.5 '/>
		<polygon fill = 'rgb( 31, 120, 180)' fill-opacity = '0.250000' points = '153.1,547.5 153.1,662.4 155.0,662.4 155.0,545.1 '/>
		<polygon fill = 'rgb( 31, 120, 180)' fill-opacity = '0.250000' points = '155.0,545.1 155.0,662.4 156.9,662.4 156.9,542.6 '/>
		<polygon fill = 'rgb( 31, 120, 180)' fill-opacity = '0.250000' points = '156.9,542.6 156.9,662.4 158.8,662.4 158.8,540.2 '/>
		<polygon fill = 'rgb( 31, 120, 180)' fill-opacity = '0.250000' points = '158.8,540.2 158.8,662.4 160.7,662.4 160.7,537.7 '/>
		<polygon fill = 'rgb( 31, 120, 180)' fill-opacity = '0.250000' points = '160.7,537.7 160.7,662.4 162.6,662.4 162.6,535.1 '/>
		<polygon fill = 'rgb( 31, 120, 180)' fill-opacity = '0.250000' points = '162.6,535.1 162.6,662.4 164.5,662.4 164.5,532.5 '/>
		<polygon fill = 'rgb( 31, 120, 180)' fill-opacity = '0.250000' points = '164.5,532.5 164.5,662.4 166.4,662.4 166.4,529.9 '/>
		<polygon fill = 'rgb( 31, 120, 180)' fill-opacity = '0.250000' points = '166.4,529.9 166.4,662.4 168.3,662.4 168.3,527.3 '/>
		<polygon fill = 'rgb( 31, 120, 180)' fill-opacity = '0.250000' points = '168.3,527.3 168.3,662.4 170.2,662.4 170.2,524.6 '/>
		<polygon fill = 'rgb( 31, 120, 180)' fill-opacity = '0.250000' points = '170.2,524.6 170.2,662.4 172.1,662.4 172.1,521.9 '/>
		<polygon fill = 'rgb( 31, 120, 180)' fill-opacity = '0.250000' points = '172.1,521.9 172.1,662.4 174.0,662.4 174.0,519.2 '/>
		<polygon fill = 'rgb( 31, 120, 180)' fill-opacity = '0.250000' points = '174.0,519.2 174.0,662.4 175.9,662.4 175.9,516.4 '/>
		<polygon fill = 'rgb( 31, 120, 180)' fill-opacity = '0.250000' points = '175.9,516.4 175.9,662.4 177.8,662.4 177.8,513.6 '/>
		<polygon fill = 'rgb( 31, 120, 180)' fill-opacity = '0.250000' points = '177.8,513.6 177.8,662.4 179.7,662.4 179.7,510.7 '/>
		<polygon fill = 'rgb( 31, 120, 180)' fill-opacity = '0.250000' points = '179.7,510.7 179.7,662.4 181.6,662.4 181.6,507.8 '/>
		<polygon fill = 'rgb( 31, 120, 180)' fill-opacity = '0.250000' points = '181.6,507.8 181.6,662.4 183.5,662.4 183.5,504.9 '/>
		<polygon fill = 'rgb( 31, 120, 180)' fill-opacity = '0.250000' points = '183.5,504.9 183.5,662.4 185.4,662.4 185.4,501.9 '/>
		<polygon fill = 'rgb( 31, 120, 180)' fill-opacity = '0.250000' points = '185.4,501.9 185.4,662.4 187.3,662.4 187.3,498.9 '/>
		<polygon fill = 'rgb( 31, 120, 180)' fill-opacity = '0.250000' points = '187.3,498.9 187.3,662.4 189.3,662.4 189.3,495.9 '/>
		<polygon fill = 'rgb( 31, 120, 180)' fill-opacity = '0.250000' points = '189.3,495.9 189.3,662.4 191.2,662.4 191.2,492.9 '/>
		<polygon fill = 'rgb( 31, 120, 180)' fill-opacity = '0.250000' points = '191.2,492.9 191.2,662.4 193.1,662.4 193.1,489.8 '/>
		<polygon fill = 'rgb( 31, 120, 180)' fill-opacity = '0.250000' points = '193.1,489.8 193.1,662.4 195.0,662.4 195.0,486.7 '/>
		<polygon fill = 'rgb( 31, 120, 180)' fill-opacity = '0.250000' points = '195.0,486.7 195.0,662.4 196.9,662.4 196.9,483.6 '/>
		<polygon fill = 'rgb( 31, 120, 180)' fill-opacity = '0.250000' points = '196.9,483.6 196.9,662.4 198.8,662.4 198.8,480.5 '/>
		<polygon fill = 'rgb( 31, 120, 180)' fill-opacity = '0.250000' points = '198.8,480.5 198.8,662.4 200.7,662.4 200.7,477.4 '/>
		<polygon fill = 'rgb( 31, 120, 180)' fill-opacity = '0.250000' points = '200.7,477.4 200.7,662.4 202.6,662.4 202.6,474.3 '/>
		<polygon fill = 'rgb( 31, 120, 180)' fill-opacity = '0.250000' points = '202.6,474.3 202.6,662.4 204.5,662.4 204.5,471.1 '/>
		<polygon fill = 'rgb( 31, 120, 180)' fill-opacity = '0.250000' points = '204.5,471.1 204.5,662.4 206.4,662.4 206.4,467.9 '/>
		<polygon fill = 'rgb( 31, 120, 180)' fill-opacity = '0.250000' points = '206.4,467.9 206.4,662.4 208.3,662.4 208.3,464.8 '/>
		<polygon fill = 'rgb( 31, 120, 180)' fill-opacity = '0.250000' points = '208.3,464.8 208.3,662.4 210.2,662.4 210.2,461.6 '/>
		<polygon fill = 'rgb( 31, 120, 180)' fill-opacity = '0.250000' points = '210.2,461.6 210.2,662.4 212.1,662.4 212.1,458.4 '/>
		<polygon fill = 'rgb( 31, 120, 180)' fill-opacity = '0.250000' points = '212.1,458.4 212.1,662.4 214.0,662.4 214.0,455.2 '/>
		<polygon fill = 'rgb( 31, 120, 180)' fill-opacity = '0.250000' points = '214.0,455.2 214.0,662.4 215.9,662.4 215.9,452.0 '/>
		<polygon fill = 'rgb( 31, 120, 180)' fill-opacity = '0.250000' points = '215.9,452.0 215.9,662.4 217.8,662.4 217.8,448.7 '/>
		<polygon fill = 'rgb( 31, 120, 180)' fill-opacity = '0.250000' points = '217.8,448.7 217.8,662.4 219.7,662.4 219.7,445.5 '/>
		<polygon fill = 'rgb( 31, 120, 180)' fill-opacity = '0.250000' points = '219.7,445.5 219.7,662.4 221.6,662.4 221.6,442.2 '/>
		<polygon fill = 'rgb( 31, 120, 180)' fill-opacity = '0.250000' points = '221.6,442.2 221.6,662.4 223.5,662.4 223.5,438.9 '/>
		<polygon fill = 'rgb( 31, 120, 180)' fill-opacity = '0.250000' points = '223.5,438.9 223.5,662.4 225.4,662.4 225.4,435.6 '/>
		<polygon fill = 'rgb( 31, 120, 180)' fill-opacity = '0.250000' points = '225.4,435.6 225.4,662.4 227.3,662.4 227.3,432.2 '/>
		<polygon fill = 'rgb( 31, 120, 180)' fill-opacity = '0.250000' points = '227.3,432.2 227.3,662.4 229.2,662.4 229.2,428.8 '/>
		<polygon fill = 'rgb( 31, 120, 180)' fill-opacity = '0.250000' points = '229.2,428.8 229.2,662.4 231.1,662.4 231.1,425.4 '/>
		<polygon fill = 'rgb( 31, 120, 180)' fill-opacity = '0.250000' points = '231.1,425.4 231.1,662.4 233.0,662.4 233.0,421.9 '/>
		<polygon fill = 'rgb( 31, 120, 180)' fill-opacity = '0.250000' points = '233.0,421.9 233.0,662.4 234.9,662.4 234.9,418.4 '/>
		<polygon fill = 'rgb( 31, 120, 180)' fill-opacity = '0.250000' points = '234.9,418.4 234.9,662.4 236.8,662.4 236.8,414.8 '/>
		<polygon fill = 'rgb( 31, 120, 180)' fill-opacity = '0.250000' points = '236.8,414.8 236.8,662.4 238.8,662.4 238.8,411.2 '/>
		<polygon fill = 'rgb( 31, 120, 180)' fill-opacity = '0.250000' points = '238.8,411.2 238.8,662.4 240.7,662.4 240.7,407.6 '/>
		<polygon fill = 'rgb( 31, 120, 180)' fill-opacity = '0.250000' points = '240.7,407.6 240.7,662.4 242.6,662.4 242.6,403.9 '/>
		<polygon fill = 'rgb( 31, 120, 180)' fill-opacity = '0.250000' points = '242.6,403.9 242.6,662.4 244.5,662.4 244.5,400.2 '/>
		<polygon fill = 'rgb( 31, 120, 180)' fill-opacity = '0.250000' points = '244.5,400.2 244.5,662.4 246.4,662.4 246.4,396.4 '/>
		<polygon fill = 'rgb( 31, 120, 180)' fill-opacity = '0.250000' points = '246.4,396.4 246.4,662.4 248.3,662.4 248.3,392.6 '/>
		<polygon fill = 'rgb( 31, 120, 180)' fill-opacity = '0.250000' points = '248.3,392.6 248.3,662.4 250.2,662.4 250.2,388.8 '/>
		<polygon fill = 'rgb( 31, 120, 180)' fill-opacity = '0.250000' points = '250.2,388.8 250.2,662.4 252.1,662.4 252.1,384.9 '/>
		<polygon fill = 'rgb( 31, 120, 180)' fill-opacity = '0.250000' points = '252.1,384.9 252.1,662.4 254.0,662.4 254.0,381.1 '/>
		<polygon fill = 'rgb( 31, 120, 180)' fill-opacity = '0.250000' points = '254.0,381.1 254.0,662.4 255.9,662.4 255.9,377.1 '/>
		<polygon fill = 'rgb( 31, 120, 180)' fill-opacity = '0.250000' points = '255.9,377.1 255.9,662.4 257.8,662.4 257.8,373.2 '/>
		<polygon fill = 'rgb( 31, 120, 180)' fill-opacity = '0.250000' points = '257.8,373.2 257.8,662.4 259.7,662.4 259.7,369.3 '/>
		<polygon fill = 'rgb( 31, 120, 180)' fill-opacity = '0.250000' points = '259.7,369.3 259.7,662.4 261.6,662.4 261.6,365.3 '/>
		<polygon fill = 'rgb( 31, 120, 180)' fill-opacity = '0.250000' points = '261.6,365.3 261.6,662.4 263.5,662.4 263.5,361.3 '/>
		<polygon fill = 'rgb( 31, 120, 180)' fill-opacity = '0.250000' points = '263.5,361.3 263.5,662.4 265.4,662.4 265.4,357.3 '/>
		<polygon fill = 'rgb( 31, 120, 180)' fill-opacity = '0.250000' points = '265.4,357.3 265.4,662.4 267.3,662.4 267.3,353.4 '/>
		<polygon fill = 'rgb( 31, 120, 180)' fill-opacity = '0.250000' points = '267.3,353.4 267.3,662.4 269.2,662.4 269.2,349.4 '/>
		<polygon fill = 'rgb( 31, 120, 180)' fill-opacity = '0.250000' points = '269.2,349.4 269.2,662.4 271.1,662.4 271.1,345.4 '/>
		<polygon fill = 'rgb( 31, 120, 180)' fill-opacity = '0.250000' points = '271.1,345.4 271.1,662.4 273.0,662.4 273.0,341.4 '/>
		<polygon fill = 'rgb( 31, 120, 180)' fill-opacity = '0.250000' points = '273.0,341.4 273.0,662.4 274.9,662.4 274.9,337.4 '/>
		<polygon fill = 'rgb( 31, 120, 180)' fill-opacity = '0.250000' points = '274.9,337.4 274.9,662.4 276.8,662.4 276.8,333.4 '/>
		<polygon fill = 'rgb( 31, 120, 180)' fill-opacity = '0.250000' points = '276.8,333.4 276.8,662.4 278.7,662.4 278.7,329.5 '/>
		<polygon fill = 'rgb( 31, 120, 180)' fill-opacity = '0.250000' points = '278.7,329.5 278.7,662.4 280.6,662.4 280.6,325.5 '/>
		<polygon fill = 'rgb( 31, 120, 180)' fill-opacity = '0.250000' points = '280.6,325.5 280.6,662.4 282.5,662.4 282.5,321.6 '/>
		<polygon fill = 'rgb( 31, 120, 180)' fill-opacity = '0.250000' points = '282.5,321.6 282.5,662.4 284.4,662.4 284.4,317.6 '/>
		<polygon fill = 'rgb( 31, 120, 180)' fill-opacity = '0.250000' points = '284.4,317.6 284.4,662.4 286.3,662.4 286.3,313.7 '/>
		<polygon fill = 'rgb( 31, 120, 180)' fill-opacity = '0.250000' points = '286.3,313.7 286.3,662.4 288.2,662.4 288.2,309.8 '/>
		<polygon fill = 'rgb( 31, 120, 180)' fill-opacity = '0.250000' points = '288.2,309.8 288.2,662.4 290.2,662.4 290.2,306.0 '/>
		<polygon fill = 'rgb( 31, 120, 180)' fill-opacity = '0.250000' points = '290.2,306.0 290.2,662.4 292.1,662.4 292.1,302.1 '/>
		<polygon fill = 'rgb( 31, 120, 180)' fill-opacity = '0.250000' points = '292.1,302.1 292.1,662.4 294.0,662.4 294.0,298.3 '/>
		<polygon fill = 'rgb( 31, 120, 180)' fill-opacity = '0.250000' points = '294.0,298.3 294.0,662.4 295.9,662.4 295.9,294.5 '/>
		<polygon fill = 'rgb( 31, 120, 180)' fill-opacity = '0.250000' points = '295.9,294.5 295.9,662.4 297.8,662.4 297.8,290.7 '/>
		<polygon fill = 'rgb( 31, 120, 180)' fill-opacity = '0.250000' points = '297.8,290.7 297.8,662.4 299.7,662.4 299.7,287.0 '/>
		<polygon fill = 'rgb( 31, 120, 180)' fill-opacity = '0.250000' points = '299.7,287.0 299.7,662.4 301.6,662.4 301.6,283.2 '/>
		<polygon fill = 'rgb( 31, 120, 180)' fill-opacity = '0.250000' points = '301.6,283.2 301.6,662.4 303.5,662.4 303.5,279.6 '/>
		<polygon fill = 'rgb( 31, 120, 180)' fill-opacity = '0.250000' points = '303.5,279.6 303.5,662.4 305.4,662.4 305.4,275.9 '/>
		<polygon fill = 'rgb( 31, 120, 180)' fill-opacity = '0.250000' points = '305.4,275.9 305.4,662.4 307.3,662.4 307.3,272.3 '/>
		<polygon fill = 'rgb( 31, 120, 180)' fill-opacity = '0.250000' points = '307.3,272.3 307.3,662.4 309.2,662.4 309.2,268.7 '/>
		<polygon fill = 'rgb( 31, 120, 180)' fill-opacity = '0.250000' points = '309.2,268.7 309.2,662.4 311.1,662.4 311.1,265.1 '/>
		<polygon fill = 'rgb( 31, 120, 180)' fill-opacity = '0.250000' points = '311.1,265.1 311.1,662.4 313.0,662.4 313.0,261.6 '/>
		<polygon fill = 'rgb( 31, 120, 180)' fill-opacity = '0.250000' points = '313.0,261.6 313.0,662.4 314.9,662.4 314.9,258.1 '/>
		<polygon fill = 'rgb( 31, 120, 180)' fill-opacity = '0.250000' points = '314.9,258.1 314.9,662.4 316.8,662.4 316.8,254.6 '/>
		<polygon fill = 'rgb( 31, 120, 180)' fill-opacity = '0.250000' points = '316.8,254.6 316.8,662.4 318.7,662.4 318.7,251.2 '/>
		<polygon fill = 'rgb( 31, 120, 180)' fill-opacity = '0.250000' points = '318.7,251.2 318.7,662.4 320.6,662.4 320.6,247.9 '/>
		<polygon fill = 'rgb( 31, 120, 180)' fill-opacity = '0.250000' points = '320.6,247.9 320.6,662.4 322.5,662.4 322.5,244.5 '/>
		<polygon fill = 'rgb( 31, 120, 180)' fill-opacity = '0.250000' points = '322.5,244.5 322.5,662.4 324.4,662.4 324.4,241.3 '/>
		<polygon fill = 'rgb( 31, 120, 180)' fill-opacity = '0.250000' points = '324.4,241.3 324.4,662.4 326.3,662.4 326.3,238.0 '/>
		<polygon fill = 'rgb( 31, 120, 180)' fill-opacity = '0.250000' points = '326.3,238.0 326.3,662.4 328.2,662.4 328.2,234.8 '/>
		<polygon fill = 'rgb( 31, 120, 180)' fill-opacity = '0.250000' points = '328.2,234.8 328.2,662.4 330.1,662.4 330.1,231.7 '/>
		<polygon fill = 'rgb( 31, 120, 180)' fill-opacity = '0.250000' points = '330.1,231.7 330.1,662.4 332.0,662.4 332.0,228.6 '/>
		<polygon fill = 'rgb( 31, 120, 180)' fill-opacity = '0.250000' points = '332.0,228.6 332.0,662.4 333.9,662.4 333.9,225.5 '/>
		<polygon fill = 'rgb( 31, 120, 180)' fill-opacity = '0.250000' points = '333.9,225.5 333.9,662.4 335.8,662.4 335.8,222.5 '/>
		<polygon fill = 'rgb( 31, 120, 180)' fill-opacity = '0.250000' points = '335.8,222.5 335.8,662.4 337.7,662.4 337.7,219.5 '/>
		<polygon fill = 'rgb( 31, 120, 180)' fill-opacity = '0.250000' points = '337.7,219.5 337.7,662.4 339.7,662.4 339.7,216.6 '/>
		<polygon fill = 'rgb( 31, 120, 180)' fill-opacity = '0.250000' points = '339.7,216.6 339.7,662.4 341.6,662.4 341.6,213.7 '/>
		<polygon fill = 'rgb( 31, 120, 180)' fill-opacity = '0.250000' points = '341.6,213.7 341.6,662.4 343.5,662.4 343.5,210.8 '/>
		<polygon fill = 'rgb( 31, 120, 180)' fill-opacity = '0.250000' points = '343.5,210.8 343.5,662.4 345.4,662.4 345.4,207.9 '/>
		<polygon fill = 'rgb( 31, 120, 180)' fill-opacity = '0.250000' points = '345.4,207.9 345.4,662.4 347.3,662.4 347.3,205.0 '/>
		<polygon fill = 'rgb( 31, 120, 180)' fill-opacity = '0.250000' points = '347.3,205.0 347.3,662.4 349.2,662.4 349.2,202.2 '/>
		<polygon fill = 'rgb( 31, 120, 180)' fill-opacity = '0.250000' points = '349.2,202.2 349.2,662.4 351.1,662.4 351.1,199.4 '/>
		<polygon fill = 'rgb( 31, 120, 180)' fill-opacity = '0.250000' points = '351.1,199.4 351.1,662.4 353.0,662.4 353.0,196.5 '/>
		<polygon fill = 'rgb( 31, 120, 180)' fill-opacity = '0.250000' points = '353.0,196.5 353.0,662.4 354.9,662.4 354.9,193.7 '/>
		<polygon fill = 'rgb( 31, 120, 180)' fill-opacity = '0.250000' points = '354.9,193.7 354.9,662.4 356.8,662.4 356.8,190.9 '/>
		<polygon fill = 'rgb( 31, 120, 180)' fill-opacity = '0.250000' points = '356.8,190.9 356.8,662.4 358.7,662.4 358.7,188.0 '/>
		<polygon fill = 'rgb( 31, 120, 180)' fill-opacity = '0.250000' points = '358.7,188.0 358.7,662.4 360.6,662.4 360.6,185.2 '/>
		<polygon fill = 'rgb( 31, 120, 180)' fill-opacity = '0.250000' points = '360.6,185.2 360.6,662.4 362.5,662.4 362.5,182.4 '/>
		<polygon fill = 'rgb( 31, 120, 180)' fill-opacity = '0.250000' points = '362.5,182.4 362.5,662.4 364.4,662.4 364.4,179.6 '/>
		<polygon fill = 'rgb( 31, 120, 180)' fill-opacity = '0.250000' points = '364.4,179.6 364.4,662.4 366.3,662.4 366.3,176.8 '/>
		<polygon fill = 'rgb( 31, 120, 180)' fill-opacity = '0.250000' points = '366.3,176.8 366.3,662.4 368.2,662.4 368.2,174.0 '/>
		<polygon fill = 'rgb( 31, 120, 180)' fill-opacity = '0.250000' points = '368.2,174.0 368.2,662.4 370.1,662.4 370.1,171.2 '/>
		<polygon fill = 'rgb( 31, 120, 180)' fill-opacity = '0.250000' points = '370.1,171.2 370.1,662.4 372.0,662.4 372.0,168.4 '/>
		<polygon fill = 'rgb( 31, 120, 180)' fill-opacity = '0.250000' points = '372.0,168.4 372.0,662.4 373.9,662.4 373.9,165.7 '/>
		<polygon fill = 'rgb( 31, 120, 180)' fill-opacity = '0.250000' points = '373.9,165.7 373.9,662.4 375.8,662.4 375.8,163.1 '/>
		<polygon fill = 'rgb( 31, 120, 180)' fill-opacity = '0.250000' points = '375.8,163.1 375.8,662.4 377.7,662.4 377.7,160.4 '/>
		<polygon fill = 'rgb( 31, 120, 180)' fill-opacity = '0.250000' points = '377.7,160.4 377.7,662.4 379.6,662.4 379.6,157.9 '/>
		<polygon fill = 'rgb( 31, 120, 180)' fill-opacity = '0.250000' points = '379.6,157.9 379.6,662.4 381.5,662.4 381.5,155.5 '/>
		<polygon fill = 'rgb( 31, 120, 180)' fill-opacity = '0.250000' points = '381.5,155.5 381.5,662.4 383.4,662.4 383.4,153.1 '/>
		<polygon fill = 'rgb( 31, 120, 180)' fill-opacity = '0.250000' points = '383.4,153.1 383.4,662.4 385.3,662.4 385.3,150.8 '/>
		<polygon fill = 'rgb( 31, 120, 180)' fill-opacity = '0.250000' points = '385.3,150.8 385.3,662.4 387.2,662.4 387.2,148.6 '/>
		<polygon fill = 'rgb( 31, 120, 180)' fill-opacity = '0.250000' points = '387.2,148.6 387.2,662.4 389.2,662.4 389.2,146.5 '/>
		<polygon fill = 'rgb( 31, 120, 180)' fill-opacity = '0.250000' points = '389.2,146.5 389.2,662.4 391.1,662.4 391.1,144.5 '/>
		<polygon fill = 'rgb( 31, 120, 180)' fill-opacity = '0.250000' points = '391.1,144.5 391.1,662.4 393.0,662.4 393.0,142.7 '/>
		<polygon fill = 'rgb( 31, 120, 180)' fill-opacity = '0.250000' points = '393.0,142.7 393.0,662.4 394.9,662.4 394.9,140.9 '/>
		<polygon fill = 'rgb( 31, 120, 180)' fill-opacity = '0.250000' points = '394.9,140.9 394.9,662.4 396.8,662.4 396.8,139.2 '/>
		<polygon fill = 'rgb( 31, 120, 180)' fill-opacity = '0.250000' points = '396.8,139.2 396.8,662.4 398.7,662.4 398.7,137.6 '/>
		<polygon fill = 'rgb( 31, 120, 180)' fill-opacity = '0.250000' points = '398.7,137.6 398.7,662.4 400.6,662.4 400.6,136.1 '/>
		<polygon fill = 'rgb( 31, 120, 180)' fill-opacity = '0.250000' points = '400.6,136.1 400.6,662.4 402.5,662.4 402.5,134.7 '/>
		<polygon fill = 'rgb( 31, 120, 180)' fill-opacity = '0.250000' points = '402.5,134.7 402.5,662.4 404.4,662.4 404.4,133.3 '/>
		<polygon fill = 'rgb( 31, 120, 180)' fill-opacity = '0.250000' points = '404.4,133.3 404.4,662.4 406.3,662.4 406.3,132.0 '/>
		<polygon fill = 'rgb( 31, 120, 180)' fill-opacity = '0.250000' points = '406.3,132.0 406.3,662.4 408.2,662.4 408.2,130.8 '/>
		<polygon fill = 'rgb( 31, 120, 180)' fill-opacity = '0.250000' points = '408.2,130.8 408.2,662.4 410.1,662.4 410.1,129.6 '/>
		<polygon fill = 'rgb( 31, 120, 180)' fill-opacity = '0.250000' points = '410.1,129.6 410.1,662.4 412.0,662.4 412.0,128.4 '/>
		<polygon fill = 'rgb( 31, 120, 180)' fill-opacity = '0.250000' points = '412.0,128.4 412.0,662.4 413.9,662.4 413.9,127.2 '/>
		<polygon fill = 'rgb( 31, 120, 180)' fill-opacity = '0.250000' points = '413.9,127.2 413.9,662.4 415.8,662.4 415.8,126.0 '/>
		<polygon fill = 'rgb( 31, 120, 180)' fill-opacity = '0.250000' points = '415.8,126.0 415.8,662.4 417.7,662.4 417.7,124.8 '/>
		<polygon fill = 'rgb( 31, 120, 180)' fill-opacity = '0.250000' points = '417.7,124.8 417.7,662.4 419.6,662.4 419.6,123.6 '/>
		<polygon fill = 'rgb( 31, 120, 180)' fill-opacity = '0.250000' points = '419.6,123.6 419.6,662.4 421.5,662.4 421.5,122.4 '/>
		<polygon fill = 'rgb( 31, 120, 180)' fill-opacity = '0.250000' points = '421.5,122.4 421.5,662.4 423.4,662.4 423.4,121.2 '/>
		<polygon fill = 'rgb( 31, 120, 180)' fill-opacity = '0.250000' points = '423.4,121.2 423.4,662.4 425.3,662.4 425.3,120.0 '/>
		<polygon fill = 'rgb( 31, 120, 180)' fill-opacity = '0.250000' points = '425.3,120.0 425.3,662.4 427.2,662.4 427.2,118.7 '/>
		<polygon fill = 'rgb( 31, 120, 180)' fill-opacity = '0.250000' points = '427.2,118.7 427.2,662.4 429.1,662.4 429.1,117.5 '/>
		<polygon fill = 'rgb( 31, 120, 180)' fill-opacity = '0.250000' points = '429.1,117.5 429.1,662.4 431.0,662.4 431.0,116.2 '/>
		<polygon fill = 'rgb( 31, 120, 180)' fill-opacity = '0.250000' points = '431.0,116.2 431.0,662.4 432.9,662.4 432.9,114.9 '/>
		<polygon fill = 'rgb( 31, 120, 180)' fill-opacity = '0.250000' points = '432.9,114.9 432.9,662.4 434.8,662.4 434.8,113.7 '/>
		<polygon fill = 'rgb( 31, 120, 180)' fill-opacity = '0.250000' points = '434.8,113.7 434.8,662.4 436.7,662.4 436.7,112.4 '/>
		<polygon fill = 'rgb( 31, 120, 180)' fill-opacity = '0.250000' points = '436.7,112.4 436.7,662.4 438.7,662.4 438.7,111.2 '/>
		<polygon fill = 'rgb( 31, 120, 180)' fill-opacity = '0.250000' points = '438.7,111.2 438.7,662.4 440.6,662.4 440.6,109.9 '/>
		<polygon fill = 'rgb( 31, 120, 180)' fill-opacity = '0.250000' points = '440.6,109.9 440.6,662.4 442.5,662.4 442.5,108.7 '/>
		<polygon fill = 'rgb( 31, 120, 180)' fill-opacity = '0.250000' points = '442.5,108.7 442.5,662.4 444.4,662.4 444.4,107.6 '/>
		<polygon fill = 'rgb( 31, 120, 180)' fill-opacity = '0.250000' points = '444.4,107.6 444.4,662.4 446.3,662.4 446.3,106.5 '/>
		<polygon fill = 'rgb( 31, 120, 180)' fill-opacity = '0.250000' points = '446.3,106.5 446.3,662.4 448.2,662.4 448.2,105.4 '/>
		<polygon fill = 'rgb( 31, 120, 180)' fill-opacity = '0.250000' points = '448.2,105.4 448.2,662.4 450.1,662.4 450.1,104.5 '/>
		<polygon fill = 'rgb( 31, 120, 180)' fill-opacity = '0.250000' points = '450.1,104.5 450.1,662.4 452.0,662.4 452.0,103.5 '/>
		<polygon fill = 'rgb( 31, 120, 180)' fill-opacity = '0.250000' points = '452.0,103.5 452.0,662.4 453.9,662.4 453.9,102.7 '/>
		<polygon fill = 'rgb( 31, 120, 180)' fill-opacity = '0.250000' points = '453.9,102.7 453.9,662.4 455.8,662.4 455.8,102.0 '/>
		<polygon fill = 'rgb( 31, 120, 180)' fill-opacity = '0.250000' points = '455.8,102.0 455.8,662.4 457.7,662.4 457.7,101.3 '/>
		<polygon fill = 'rgb( 31, 120, 180)' fill-opacity = '0.250000' points = '457.7,101.3 457.7,662.4 459.6,662.4 459.6,100.7 '/>
		<polygon fill = 'rgb( 31, 120, 180)' fill-opacity = '0.250000' points = '459.6,100.7 459.6,662.4 461.5,662.4 461.5,100.2 '/>
		<polygon fill = 'rgb( 31, 120, 180)' fill-opacity = '0.250000' points = '461.5,100.2 461.5,662.4 463.4,662.4 463.4,99.8 '/>
		<polygon fill = 'rgb( 31, 120, 180)' fill-opacity = '0.250000' points = '463.4,99.8 463.4,662.4 465.3,662.4 465.3,99.5 '/>
		<polygon fill = 'rgb( 31, 120, 180)' fill-opacity = '0.250000' points = '465.3,99.5 465.3,662.4 467.2,662.4 467.2,99.2 '/>
		<polygon fill = 'rgb( 31, 120, 180)' fill-opacity = '0.250000' points = '467.2,99.2 467.2,662.4 469.1,662.4 469.1,99.1 '/>
		<polygon fill = 'rgb( 31, 120, 180)' fill-opacity = '0.250000' points = '469.1,99.1 469.1,662.4 471.0,662.4 471.0,99.0 '/>
		<polygon fill = 'rgb( 31, 120, 180)' fill-opacity = '0.250000' points = '471.0,99.0 471.0,662.4 472.9,662.4 472.9,99.0 '/>
		<polygon fill = 'rgb( 31, 120, 180)' fill-opacity = '0.250000' points = '472.9,99.0 472.9,662.4 474.8,662.4 474.8,99.0 '/>
		<polygon fill = 'rgb( 31, 120, 180)' fill-opacity = '0.250000' points = '474.8,99.0 474.8,662.4 476.7,662.4 476.7,99.1 '/>
		<polygon fill = 'rgb( 31, 120, 180)' fill-opacity = '0.250000' points = '476.7,99.1 476.7,662.4 478.6,662.4 478.6,99.3 '/>
		<polygon fill = 'rgb( 31, 120, 180)' fill-opacity = '0.250000' points = '478.6,99.3 478.6,662.4 480.5,662.4 480.5,99.5 '/>
		<polygon fill = 'rgb( 31, 120, 180)' fill-opacity = '0.250000' points = '480.5,99.5 480.5,662.4 482.4,662.4 482.4,99.8 '/>
		<polygon fill = 'rgb( 31, 120, 180)' fill-opacity = '0.250000' points = '482.4,99.8 482.4,662.4 484.3,662.4 484.3,100.1 '/>
		<polygon fill = 'rgb( 31, 120, 180)' fill-opacity = '0.250000' points = '484.3,100.1 484.3,662.4 486.2,662.4 486.2,100.5 '/>
		<polygon fill = 'rgb( 31, 120, 180)' fill-opacity = '0.250000' points = '486.2,100.5 486.2,662.4 488.1,662.4 488.1,100.9 '/>
		<polygon fill = 'rgb( 31, 120, 180)' fill-opacity = '0.250000' points = '488.1,100.9 488.1,662.4 490.1,662.4 490.1,101.3 '/>
		<polygon fill = 'rgb( 31, 120, 180)' fill-opacity = '0.250000' points = '490.1,101.3 490.1,662.4 492.0,662.4 492.0,101.7 '/>
		<polygon fill = 'rgb( 31, 120, 180)' fill-opacity = '0.250000' points = '492.0,101.7 492.0,662.4 493.9,662.4 493.9,102.2 '/>
		<polygon fill = 'rgb( 31, 120, 180)' fill-opacity = '0.250000' points = '493.9,102.2 493.9,662.4 495.8,662.4 495.8,102.6 '/>
		<polygon fill = 'rgb( 31, 120, 180)' fill-opacity = '0.250000' points = '495.8,102.6 495.8,662.4 497.7,662.4 497.7,103.1 '/>
		<polygon fill = 'rgb( 31, 120, 180)' fill-opacity = '0.250000' points = '497.7,103.1 497.7,662.4 499.6,662.4 499.6,103.6 '/>
		<polygon fill = 'rgb( 31, 120, 180)' fill-opacity = '0.250000' points = '499.6,103.6 499.6,662.4 501.5,662.4 501.5,104.2 '/>
		<polygon fill = 'rgb( 31, 120, 180)' fill-opacity = '0.250000' points = '501.5,104.2 501.5,662.4 503.4,662.4 503.4,104.7 '/>
		<polygon fill = 'rgb( 31, 120, 180)' fill-opacity = '0.250000' points = '503.4,104.7 503.4,662.4 505.3,662.4 505.3,105.3 '/>
		<polygon fill = 'rgb( 31, 120, 180)' fill-opacity = '0.250000' points = '505.3,105.3 505.3,662.4 507.2,662.4 507.2,105.9 '/>
		<polygon fill = 'rgb( 31, 120, 180)' fill-opacity = '0.250000' points = '507.2,105.9 507.2,662.4 509.1,662.4 509.1,106.5 '/>
		<polygon fill = 'rgb( 31, 120, 180)' fill-opacity = '0.250000' points = '509.1,106.5 509.1,662.4 511.0,662.4 511.0,107.2 '/>
		<polygon fill = 'rgb( 31, 120, 180)' fill-opacity = '0.250000' points = '511.0,107.2 511.0,662.4 512.9,662.4 512.9,107.9 '/>
		<polygon fill = 'rgb( 31, 120, 180)' fill-opacity = '0.250000' points = '512.9,107.9 512.9,662.4 514.8,662.4 514.8,108.6 '/>
		<polygon fill = 'rgb( 31, 120, 180)' fill-opacity = '0.250000' points = '514.8,108.6 514.8,662.4 516.7,662.4 516.7,109.4 '/>
		<polygon fill = 'rgb( 31, 120, 180)' fill-opacity = '0.250000' points = '516.7,109.4 516.7,662.4 518.6,662.4 518.6,110.2 '/>
		<polygon fill = 'rgb( 31, 120, 180)' fill-opacity = '0.250000' points = '518.6,110.2 518.6,662.4 520.5,662.4 520.5,111.0 '/>
		<polygon fill = 'rgb( 31, 120, 180)' fill-opacity = '0.250000' points = '520.5,111.0 520.5,662.4 522.4,662.4 522.4,111.9 '/>
		<polygon fill = 'rgb( 31, 120, 180)' fill-opacity = '0.250000' points = '522.4,111.9 522.4,662.4 524.3,662.4 524.3,112.9 '/>
		<polygon fill = 'rgb( 31, 120, 180)' fill-opacity = '0.250000' points = '524.3,112.9 524.3,662.4 526.2,662.4 526.2,113.8 '/>
		<polygon fill = 'rgb( 31, 120, 180)' fill-opacity = '0.250000' points = '526.2,113.8 526.2,662.4 528.1,662.4 528.1,114.8 '/>
		<polygon fill = 'rgb( 31, 120, 180)' fill-opacity = '0.250000' points = '528.1,114.8 528.1,662.4 530.0,662.4 530.0,115.9 '/>
		<polygon fill = 'rgb( 31, 120, 180)' fill-opacity = '0.250000' points = '530.0,115.9 530.0,662.4 531.9,662.4 531.9,117.0 '/>
		<polygon fill = 'rgb( 31, 120, 180)' fill-opacity = '0.250000' points = '531.9,117.0 531.9,662.4 533.8,662.4 533.8,118.1 '/>
		<polygon fill = 'rgb( 31, 120, 180)' fill-opacity = '0.250000' points = '533.8,118.1 533.8,662.4 535.7,662.4 535.7,119.3 '/>
		<polygon fill = 'rgb( 31, 120, 180)' fill-opacity = '0.250000' points = '535.7,119.3 535.7,662.4 537.6,662.4 537.6,120.5 '/>
		<polygon fill = 'rgb( 31, 120, 180)' fill-opacity = '0.250000' points = '537.6,120.5 537.6,662.4 539.6,662.4 539.6,121.8 '/>
		<polygon fill = 'rgb( 31, 120, 180)' fill-opacity = '0.250000' points = '539.6,121.8 539.6,662.4 541.5,662.4 541.5,123.0 '/>
		<polygon fill = 'rgb( 31, 120, 180)' fill-opacity = '0.250000' points = '541.5,123.0 541.5,662.4 543.4,662.4 543.4,124.4 '/>
		<polygon fill = 'rgb( 31, 120, 180)' fill-opacity = '0.250000' points = '543.4,124.4 543.4,662.4 545.3,662.4 545.3,125.7 '/>
		<polygon fill = 'rgb( 31, 120, 180)' fill-opacity = '0.250000' points = '545.3,125.7 545.3,662.4 547.2,662.4 547.2,127.2 '/>
		<polygon fill = 'rgb( 31, 120, 180)' fill-opacity = '0.250000' points = '547.2,127.2 547.2,662.4 549.1,662.4 549.1,128.6 '/>
		<polygon fill = 'rgb( 31, 120, 180)' fill-opacity = '0.250000' points = '549.1,128.6 549.1,662.4 551.0,662.4 551.0,130.1 '/>
		<polygon fill = 'rgb( 31, 120, 180)' fill-opacity = '0.250000' points = '551.0,130.1 551.0,662.4 552.9,662.4 552.9,131.7 '/>
		<polygon fill = 'rgb( 31, 120, 180)' fill-opacity = '0.250000' points = '552.9,131.7 552.9,662.4 554.8,662.4 554.8,133.3 '/>
		<polygon fill = 'rgb( 31, 120, 180)' fill-opacity = '0.250000' points = '554.8,133.3 554.8,662.4 556.7,662.4 556.7,135.0 '/>
		<polygon fill = 'rgb( 31, 120, 180)' fill-opacity = '0.250000' points = '556.7,135.0 556.7,662.4 558.6,662.4 558.6,136.7 '/>
		<polygon fill = 'rgb( 31, 120, 180)' fill-opacity = '0.250000' points = '558.6,136.7 558.6,662.4 560.5,662.4 560.5,138.6 '/>
		<polygon fill = 'rgb( 31, 120, 180)' fill-opacity = '0.250000' points = '560.5,138.6 560.5,662.4 562.4,662.4 562.4,140.4 '/>
		<polygon fill = 'rgb( 31, 120, 180)' fill-opacity = '0.250000' points = '562.4,140.4 562.4,662.4 564.3,662.4 564.3,142.4 '/>
		<polygon fill = 'rgb( 31, 120, 180)' fill-opacity = '0.250000' points = '564.3,142.4 564.3,662.4 566.2,662.4 566.2,144.4 '/>
		<polygon fill = 'rgb( 31, 120, 180)' fill-opacity = '0.250000' points = '566.2,144.4 566.2,662.4 568.1,662.4 568.1,146.5 '/>
		<polygon fill = 'rgb( 31, 120, 180)' fill-opacity = '0.250000' points = '568.1,146.5 568.1,662.4 570.0,662.4 570.0,148.6 '/>
		<polygon fill = 'rgb( 31, 120, 180)' fill-opacity = '0.250000' points = '570.0,148.6 570.0,662.4 571.9,662.4 571.9,150.9 '/>
		<polygon fill = 'rgb( 31, 120, 180)' fill-opacity = '0.250000' points = '571.9,150.9 571.9,662.4 573.8,662.4 573.8,153.1 '/>
		<polygon fill = 'rgb( 31, 120, 180)' fill-opacity = '0.250000' points = '573.8,153.1 573.8,662.4 575.7,662.4 575.7,155.5 '/>
		<polygon fill = 'rgb( 31, 120, 180)' fill-opacity = '0.250000' points = '575.7,155.5 575.7,662.4 577.6,662.4 577.6,157.9 '/>
		<polygon fill = 'rgb( 31, 120, 180)' fill-opacity = '0.250000' points = '577.6,157.9 577.6,662.4 579.5,662.4 579.5,160.3 '/>
		<polygon fill = 'rgb( 31, 120, 180)' fill-opacity = '0.250000' points = '579.5,160.3 579.5,662.4 581.4,662.4 581.4,162.8 '/>
		<polygon fill = 'rgb( 31, 120, 180)' fill-opacity = '0.250000' points = '581.4,162.8 581.4,662.4 583.3,662.4 583.3,165.4 '/>
		<polygon fill = 'rgb( 31, 120, 180)' fill-opacity = '0.250000' points = '583.3,165.4 583.3,662.4 585.2,662.4 585.2,167.9 '/>
		<polygon fill = 'rgb( 31, 120, 180)' fill-opacity = '0.250000' points = '585.2,167.9 585.2,662.4 587.1,662.4 587.1,170.6 '/>
		<polygon fill = 'rgb( 31, 120, 180)' fill-opacity = '0.250000' points = '587.1,170.6 587.1,662.4 589.1,662.4 589.1,173.2 '/>
		<polygon fill = 'rgb( 31, 120, 180)' fill-opacity = '0.250000' points = '589.1,173.2 589.1,662.4 591.0,662.4 591.0,175.8 '/>
		<polygon fill = 'rgb( 31, 120, 180)' fill-opacity = '0.250000' points = '591.0,175.8 591.0,662.4 592.9,662.4 592.9,178.5 '/>
		<polygon fill = 'rgb( 31, 120, 180)' fill-opacity = '0.250000' points = '592.9,178.5 592.9,662.4 594.8,662.4 594.8,181.2 '/>
		<polygon fill = 'rgb( 31, 120, 180)' fill-opacity = '0.250000' points = '594.8,181.2 594.8,662.4 596.7,662.4 596.7,183.9 '/>
		<polygon fill = 'rgb( 31, 120, 180)' fill-opacity = '0.250000' points = '596.7,183.9 596.7,662.4 598.6,662.4 598.6,186.6 '/>
		<polygon fill = 'rgb( 31, 120, 180)' fill-opacity = '0.250000' points = '598.6,186.6 598.6,662.4 600.5,662.4 600.5,189.3 '/>
		<polygon fill = 'rgb( 31, 120, 180)' fill-opacity = '0.250000' points = '600.5,189.3 600.5,662.4 602.4,662.4 602.4,192.1 '/>
		<polygon fill = 'rgb( 31, 120, 180)' fill-opacity = '0.250000' points = '602.4,192.1 602.4,662.4 604.3,662.4 604.3,194.8 '/>
		<polygon fill = 'rgb( 31, 120, 180)' fill-opacity = '0.250000' points = '604.3,194.8 604.3,662.4 606.2,662.4 606.2,197.5 '/>
		<polygon fill = 'rgb( 31, 120, 180)' fill-opacity = '0.250000' points = '606.2,197.5 606.2,662.4 608.1,662.4 608.1,200.2 '/>
		<polygon fill = 'rgb( 31, 120, 180)' fill-opacity = '0.250000' points = '608.1,200.2 608.1,662.4 610.0,662.4 610.0,202.9 '/>
		<polygon fill = 'rgb( 31, 120, 180)' fill-opacity = '0.250000' points = '610.0,202.9 610.0,662.4 611.9,662.4 611.9,205.6 '/>
		<polygon fill = 'rgb( 31, 120, 180)' fill-opacity = '0.250000' points = '611.9,205.6 611.9,662.4 613.8,662.4 613.8,208.3 '/>
		<polygon fill = 'rgb( 31, 120, 180)' fill-opacity = '0.250000' points = '613.8,208.3 613.8,662.4 615.7,662.4 615.7,211.0 '/>
		<polygon fill = 'rgb( 31, 120, 180)' fill-opacity = '0.250000' points = '615.7,211.0 615.7,662.4 617.6,662.4 617.6,213.7 '/>
		<polygon fill = 'rgb( 31, 120, 180)' fill-opacity = '0.250000' points = '617.6,213.7 617.6,662.4 619.5,662.4 619.5,216.4 '/>
		<polygon fill = 'rgb( 31, 120, 180)' fill-opacity = '0.250000' points = '619.5,216.4 619.5,662.4 621.4,662.4 621.4,219.0 '/>
		<polygon fill = 'rgb( 31, 120, 180)' fill-opacity = '0.250000' points = '621.4,219.0 621.4,662.4 623.3,662.4 623.3,221.7 '/>
		<polygon fill = 'rgb( 31, 120, 180)' fill-opacity = '0.250000' points = '623.3,221.7 623.3,662.4 625.2,662.4 625.2,224.4 '/>
		<polygon fill = 'rgb( 31, 120, 180)' fill-opacity = '0.250000' points = '625.2,224.4 625.2,662.4 627.1,662.4 627.1,227.0 '/>
		<polygon fill = 'rgb( 31, 120, 180)' fill-opacity = '0.250000' points = '627.1,227.0 627.1,662.4 629.0,662.4 629.0,229.7 '/>
		<polygon fill = 'rgb( 31, 120, 180)' fill-opacity = '0.250000' points = '629.0,229.7 629.0,662.4 630.9,662.4 630.9,232.4 '/>
		<polygon fill = 'rgb( 31, 120, 180)' fill-opacity = '0.250000' points = '630.9,232.4 630.9,662.4 632.8,662.4 632.8,235.0 '/>
		<polygon fill = 'rgb( 31, 120, 180)' fill-opacity = '0.250000' points = '632.8,235.0 632.8,662.4 634.7,662.4 634.7,237.7 '/>
		<polygon fill = 'rgb( 31, 120, 180)' fill-opacity = '0.250000' points = '634.7,237.7 634.7,662.4 636.6,662.4 636.6,240.5 '/>
		<polygon fill = 'rgb( 31, 120, 180)' fill-opacity = '0.250000' points = '636.6,240.5 636.6,662.4 638.5,662.4 638.5,243.2 '/>
		<polygon fill = 'rgb( 31, 120, 180)' fill-opacity = '0.250000' points = '638.5,243.2 638.5,662.4 640.5,662.4 640.5,246.0 '/>
		<polygon fill = 'rgb( 31, 120, 180)' fill-opacity = '0.250000' points = '640.5,246.0 640.5,662.4 642.4,662.4 642.4,248.8 '/>
		<polygon fill = 'rgb( 31, 120, 180)' fill-opacity = '0.250000' points = '642.4,248.8 642.4,662.4 644.3,662.4 644.3,251.6 '/>
		<polygon fill = 'rgb( 31, 120, 180)' fill-opacity = '0.250000' points = '644.3,251.6 644.3,662.4 646.2,662.4 646.2,254.5 '/>
		<polygon fill = 'rgb( 31, 120, 180)' fill-opacity = '0.250000' points = '646.2,254.5 646.2,662.4 648.1,662.4 648.1,257.4 '/>
		<polygon fill = 'rgb( 31, 120, 180)' fill-opacity = '0.250000' points = '648.1,257.4 648.1,662.4 650.0,662.4 650.0,260.3 '/>
		<polygon fill = 'rgb( 31, 120, 180)' fill-opacity = '0.250000' points = '650.0,260.3 650.0,662.4 651.9,662.4 651.9,263.3 '/>
		<polygon fill = 'rgb( 31, 120, 180)' fill-opacity = '0.250000' points = '651.9,263.3 651.9,662.4 653.8,662.4 653.8,266.3 '/>
		<polygon fill = 'rgb( 31, 120, 180)' fill-opacity = '0.250000' points = '653.8,266.3 653.8,662.4 655.7,662.4 655.7,269.3 '/>
		<polygon fill = 'rgb( 31, 120, 180)' fill-opacity = '0.250000' points = '655.7,269.3 655.7,662.4 657.6,662.4 657.6,272.4 '/>
		<polygon fill = 'rgb( 31, 120, 180)' fill-opacity = '0.250000' points = '657.6,272.4 657.6,662.4 659.5,662.4 659.5,275.5 '/>
		<polygon fill = 'rgb( 31, 120, 180)' fill-opacity = '0.250000' points = '659.5,275.5 659.5,662.4 661.4,662.4 661.4,278.6 '/>
		<polygon fill = 'rgb( 31, 120, 180)' fill-opacity = '0.250000' points = '661.4,278.6 661.4,662.4 663.3,662.4 663.3,281.7 '/>
		<polygon fill = 'rgb( 31, 120, 180)' fill-opacity = '0.250000' points = '663.3,281.7 663.3,662.4 665.2,662.4 665.2,284.8 '/>
		<polygon fill = 'rgb( 31, 120, 180)' fill-opacity = '0.250000' points = '665.2,284.8 665.2,662.4 667.1,662.4 667.1,288.0 '/>
		<polygon fill = 'rgb( 31, 120, 180)' fill-opacity = '0.250000' points = '667.1,288.0 667.1,662.4 669.0,662.4 669.0,291.1 '/>
		<polygon fill = 'rgb( 31, 120, 180)' fill-opacity = '0.250000' points = '669.0,291.1 669.0,662.4 670.9,662.4 670.9,294.2 '/>
		<polygon fill = 'rgb( 31, 120, 180)' fill-opacity = '0.250000' points = '670.9,294.2 670.9,662.4 672.8,662.4 672.8,297.3 '/>
		<polygon fill = 'rgb( 31, 120, 180)' fill-opacity = '0.250000' points = '672.8,297.3 672.8,662.4 674.7,662.4 674.7,300.4 '/>
		<polygon fill = 'rgb( 31, 120, 180)' fill-opacity = '0.250000' points = '674.7,300.4 674.7,662.4 676.6,662.4 676.6,303.4 '/>
		<polygon fill = 'rgb( 31, 120, 180)' fill-opacity = '0.250000' points = '676.6,303.4 676.6,662.4 678.5,662.4 678.5,306.5 '/>
		<polygon fill = 'rgb( 31, 120, 180)' fill-opacity = '0.250000' points = '678.5,306.5 678.5,662.4 680.4,662.4 680.4,309.5 '/>
		<polygon fill = 'rgb( 31, 120, 180)' fill-opacity = '0.250000' points = '680.4,309.5 680.4,662.4 682.3,662.4 682.3,312.5 '/>
		<polygon fill = 'rgb( 31, 120, 180)' fill-opacity = '0.250000' points = '682.3,312.5 682.3,662.4 684.2,662.4 684.2,315.5 '/>
		<polygon fill = 'rgb( 31, 120, 180)' fill-opacity = '0.250000' points = '684.2,315.5 684.2,662.4 686.1,662.4 686.1,318.4 '/>
		<polygon fill = 'rgb( 31, 120, 180)' fill-opacity = '0.250000' points = '686.1,318.4 686.1,662.4 688.0,662.4 688.0,321.3 '/>
		<polygon fill = 'rgb( 31, 120, 180)' fill-opacity = '0.250000' points = '688.0,321.3 688.0,662.4 690.0,662.4 690.0,324.2 '/>
		<polygon fill = 'rgb( 31, 120, 180)' fill-opacity = '0.250000' points = '690.0,324.2 690.0,662.4 691.9,662.4 691.9,327.1 '/>
		<polygon fill = 'rgb( 31, 120, 180)' fill-opacity = '0.250000' points = '691.9,327.1 691.9,662.4 693.8,662.4 693.8,329.9 '/>
		<polygon fill = 'rgb( 31, 120, 180)' fill-opacity = '0.250000' points = '693.8,329.9 693.8,662.4 695.7,662.4 695.7,332.7 '/>
		<polygon fill = 'rgb( 31, 120, 180)' fill-opacity = '0.250000' points = '695.7,332.7 695.7,662.4 697.6,662.4 697.6,335.5 '/>
		<polygon fill = 'rgb( 31, 120, 180)' fill-opacity = '0.250000' points = '697.6,335.5 697.6,662.4 699.5,662.4 699.5,338.3 '/>
		<polygon fill = 'rgb( 31, 120, 180)' fill-opacity = '0.250000' points = '699.5,338.3 699.5,662.4 701.4,662.4 701.4,341.0 '/>
		<polygon fill = 'rgb( 31, 120, 180)' fill-opacity = '0.250000' points = '701.4,341.0 701.4,662.4 703.3,662.4 703.3,343.8 '/>
		<polygon fill = 'rgb( 31, 120, 180)' fill-opacity = '0.250000' points = '703.3,343.8 703.3,662.4 705.2,662.4 705.2,346.5 '/>
		<polygon fill = 'rgb( 31, 120, 180)' fill-opacity = '0.250000' points = '705.2,346.5 705.2,662.4 707.1,662.4 707.1,349.2 '/>
		<polygon fill = 'rgb( 31, 120, 180)' fill-opacity = '0.250000' points = '707.1,349.2 707.1,662.4 709.0,662.4 709.0,351.9 '/>
		<polygon fill = 'rgb( 31, 120, 180)' fill-opacity = '0.250000' points = '709.0,351.9 709.0,662.4 710.9,662.4 710.9,354.6 '/>
		<polygon fill = 'rgb( 31, 120, 180)' fill-opacity = '0.250000' points = '710.9,354.6 710.9,662.4 712.8,662.4 712.8,357.3 '/>
		<polygon fill = 'rgb( 31, 120, 180)' fill-opacity = '0.250000' points = '712.8,357.3 712.8,662.4 714.7,662.4 714.7,359.9 '/>
		<polygon fill = 'rgb( 31, 120, 180)' fill-opacity = '0.250000' points = '714.7,359.9 714.7,662.4 716.6,662.4 716.6,362.6 '/>
		<polygon fill = 'rgb( 31, 120, 180)' fill-opacity = '0.250000' points = '716.6,362.6 716.6,662.4 718.5,662.4 718.5,365.3 '/>
		<polygon fill = 'rgb( 31, 120, 180)' fill-opacity = '0.250000' points = '718.5,365.3 718.5,662.4 720.4,662.4 720.4,367.9 '/>
		<polygon fill = 'rgb( 31, 120, 180)' fill-opacity = '0.250000' points = '720.4,367.9 720.4,662.4 722.3,662.4 722.3,370.6 '/>
		<polygon fill = 'rgb( 31, 120, 180)' fill-opacity = '0.250000' points = '722.3,370.6 722.3,662.4 724.2,662.4 724.2,373.2 '/>
		<polygon fill = 'rgb( 31, 120, 180)' fill-opacity = '0.250000' points = '724.2,373.2 724.2,662.4 726.1,662.4 726.1,375.9 '/>
		<polygon fill = 'rgb( 31, 120, 180)' fill-opacity = '0.250000' points = '726.1,375.9 726.1,662.4 728.0,662.4 728.0,378.5 '/>
		<polygon fill = 'rgb( 31, 120, 180)' fill-opacity = '0.250000' points = '728.0,378.5 728.0,662.4 729.9,662.4 729.9,381.2 '/>
		<polygon fill = 'rgb( 31, 120, 180)' fill-opacity = '0.250000' points = '729.9,381.2 729.9,662.4 731.8,662.4 731.8,383.9 '/>
		<polygon fill = 'rgb( 31, 120, 180)' fill-opacity = '0.250000' points = '731.8,383.9 731.8,662.4 733.7,662.4 733.7,386.5 '/>
		<polygon fill = 'rgb( 31, 120, 180)' fill-opacity = '0.250000' points = '733.7,386.5 733.7,662.4 735.6,662.4 735.6,389.2 '/>
		<polygon fill = 'rgb( 31, 120, 180)' fill-opacity = '0.250000' points = '735.6,389.2 735.6,662.4 737.5,662.4 737.5,391.9 '/>
		<polygon fill = 'rgb( 31, 120, 180)' fill-opacity = '0.250000' points = '737.5,391.9 737.5,662.4 739.5,662.4 739.5,394.5 '/>
		<polygon fill = 'rgb( 31, 120, 180)' fill-opacity = '0.250000' points = '739.5,394.5 739.5,662.4 741.4,662.4 741.4,397.2 '/>
		<polygon fill = 'rgb( 31, 120, 180)' fill-opacity = '0.250000' points = '741.4,397.2 741.4,662.4 743.3,662.4 743.3,399.9 '/>
		<polygon fill = 'rgb( 31, 120, 180)' fill-opacity = '0.250000' points = '743.3,399.9 743.3,662.4 745.2,662.4 745.2,402.6 '/>
		<polygon fill = 'rgb( 31, 120, 180)' fill-opacity = '0.250000' points = '745.2,402.6 745.2,662.4 747.1,662.4 747.1,405.3 '/>
		<polygon fill = 'rgb( 31, 120, 180)' fill-opacity = '0.250000' points = '747.1,405.3 747.1,662.4 749.0,662.4 749.0,407.9 '/>
		<polygon fill = 'rgb( 31, 120, 180)' fill-opacity = '0.250000' points = '749.0,407.9 749.0,662.4 750.9,662.4 750.9,410.6 '/>
		<polygon fill = 'rgb( 31, 120, 180)' fill-opacity = '0.250000' points = '750.9,410.6 750.9,662.4 752.8,662.4 752.8,413.3 '/>
		<polygon fill = 'rgb( 31, 120, 180)' fill-opacity = '0.250000' points = '752.8,413.3 752.8,662.4 754.7,662.4 754.7,416.0 '/>
		<polygon fill = 'rgb( 31, 120, 180)' fill-opacity = '0.250000' points = '754.7,416.0 754.7,662.4 756.6,662.4 756.6,418.7 '/>
		<polygon fill = 'rgb( 31, 120, 180)' fill-opacity = '0.250000' points = '756.6,418.7 756.6,662.4 758.5,662.4 758.5,421.4 '/>
		<polygon fill = 'rgb( 31, 120, 180)' fill-opacity = '0.250000' points = '758.5,421.4 758.5,662.4 760.4,662.4 760.4,424.1 '/>
		<polygon fill = 'rgb( 31, 120, 180)' fill-opacity = '0.250000' points = '760.4,424.1 760.4,662.4 762.3,662.4 762.3,426.8 '/>
		<polygon fill = 'rgb( 31, 120, 180)' fill-opacity = '0.250000' points = '762.3,426.8 762.3,662.4 764.2,662.4 764.2,429.5 '/>
		<polygon fill = 'rgb( 31, 120, 180)' fill-opacity = '0.250000' points = '764.2,429.5 764.2,662.4 766.1,662.4 766.1,432.2 '/>
		<polygon fill = 'rgb( 31, 120, 180)' fill-opacity = '0.250000' points = '766.1,432.2 766.1,662.4 768.0,662.4 768.0,434.9 '/>
		<polygon fill = 'rgb( 31, 120, 180)' fill-opacity = '0.250000' points = '768.0,434.9 768.0,662.4 769.9,662.4 769.9,437.7 '/>
		<polygon fill = 'rgb( 31, 120, 180)' fill-opacity = '0.250000' points = '769.9,437.7 769.9,662.4 771.8,662.4 771.8,440.4 '/>
		<polygon fill = 'rgb( 31, 120, 180)' fill-opacity = '0.250000' points = '771.8,440.4 771.8,662.4 773.7,662.4 773.7,443.1 '/>
		<polygon fill = 'rgb( 31, 120, 180)' fill-opacity = '0.250000' points = '773.7,443.1 773.7,662.4 775.6,662.4 775.6,445.9 '/>
		<polygon fill = 'rgb( 31, 120, 180)' fill-opacity = '0.250000' points = '775.6,445.9 775.6,662.4 777.5,662.4 777.5,448.6 '/>
		<polygon fill = 'rgb( 31, 120, 180)' fill-opacity = '0.250000' points = '777.5,448.6 777.5,662.4 779.4,662.4 779.4,451.3 '/>
		<polygon fill = 'rgb( 31, 120, 180)' fill-opacity = '0.250000' points = '779.4,451.3 779.4,662.4 781.3,662.4 781.3,454.0 '/>
		<polygon fill = 'rgb( 31, 120, 180)' fill-opacity = '0.250000' points = '781.3,454.0 781.3,662.4 783.2,662.4 783.2,456.8 '/>
		<polygon fill = 'rgb( 31, 120, 180)' fill-opacity = '0.250000' points = '783.2,456.8 783.2,662.4 785.1,662.4 785.1,459.5 '/>
		<polygon fill = 'rgb( 31, 120, 180)' fill-opacity = '0.250000' points = '785.1,459.5 785.1,662.4 787.0,662.4 787.0,462.2 '/>
		<polygon fill = 'rgb( 31, 120, 180)' fill-opacity = '0.250000' points = '787.0,462.2 787.0,662.4 789.0,662.4 789.0,464.9 '/>
		<polygon fill = 'rgb( 31, 120, 180)' fill-opacity = '0.250000' points = '789.0,464.9 789.0,662.4 790.9,662.4 790.9,467.5 '/>
		<polygon fill = 'rgb( 31, 120, 180)' fill-opacity = '0.250000' points = '790.9,467.5 790.9,662.4 792.8,662.4 792.8,470.1 '/>
		<polygon fill = 'rgb( 31, 120, 180)' fill-opacity = '0.250000' points = '792.8,470.1 792.8,662.4 794.7,662.4 794.7,472.8 '/>
		<polygon fill = 'rgb( 31, 120, 180)' fill-opacity = '0.250000' points = '794.7,472.8 794.7,662.4 796.6,662.4 796.6,475.3 '/>
		<polygon fill = 'rgb( 31, 120, 180)' fill-opacity = '0.250000' points = '796.6,475.3 796.6,662.4 798.5,662.4 798.5,477.9 '/>
		<polygon fill = 'rgb( 31, 120, 180)' fill-opacity = '0.250000' points = '798.5,477.9 798.5,662.4 800.4,662.4 800.4,480.4 '/>
		<polygon fill = 'rgb( 31, 120, 180)' fill-opacity = '0.250000' points = '800.4,480.4 800.4,662.4 802.3,662.4 802.3,482.8 '/>
		<polygon fill = 'rgb( 31, 120, 180)' fill-opacity = '0.250000' points = '802.3,482.8 802.3,662.4 804.2,662.4 804.2,485.2 '/>
		<polygon fill = 'rgb( 31, 120, 180)' fill-opacity = '0.250000' points = '804.2,485.2 804.2,662.4 806.1,662.4 806.1,487.6 '/>
		<polygon fill = 'rgb( 31, 120, 180)' fill-opacity = '0.250000' points = '806.1,487.6 806.1,662.4 808.0,662.4 808.0,489.9 '/>
		<polygon fill = 'rgb( 31, 120, 180)' fill-opacity = '0.250000' points = '808.0,489.9 808.0,662.4 809.9,662.4 809.9,492.2 '/>
		<polygon fill = 'rgb( 31, 120, 180)' fill-opacity = '0.250000' points = '809.9,492.2 809.9,662.4 811.8,662.4 811.8,494.4 '/>
		<polygon fill = 'rgb( 31, 120, 180)' fill-opacity = '0.250000' points = '811.8,494.4 811.8,662.4 813.7,662.4 813.7,496.6 '/>
		<polygon fill = 'rgb( 31, 120, 180)' fill-opacity = '0.250000' points = '813.7,496.6 813.7,662.4 815.6,662.4 815.6,498.7 '/>
		<polygon fill = 'rgb( 31, 120, 180)' fill-opacity = '0.250000' points = '815.6,498.7 815.6,662.4 817.5,662.4 817.5,500.7 '/>
		<polygon fill = 'rgb( 31, 120, 180)' fill-opacity = '0.250000' points = '817.5,500.7 817.5,662.4 819.4,662.4 819.4,502.8 '/>
		<polygon fill = 'rgb( 31, 120, 180)' fill-opacity = '0.250000' points = '819.4,502.8 819.4,662.4 821.3,662.4 821.3,504.7 '/>
		<polygon fill = 'rgb( 31, 120, 180)' fill-opacity = '0.250000' points = '821.3,504.7 821.3,662.4 823.2,662.4 823.2,506.7 '/>
		<polygon fill = 'rgb( 31, 120, 180)' fill-opacity = '0.250000' points = '823.2,506.7 823.2,662.4 825.1,662.4 825.1,508.5 '/>
		<polygon fill = 'rgb( 31, 120, 180)' fill-opacity = '0.250000' points = '825.1,508.5 825.1,662.4 827.0,662.4 827.0,510.4 '/>
		<polygon fill = 'rgb( 31, 120, 180)' fill-opacity = '0.250000' points = '827.0,510.4 827.0,662.4 828.9,662.4 828.9,512.2 '/>
		<polygon fill = 'rgb( 31, 120, 180)' fill-opacity = '0.250000' points = '828.9,512.2 828.9,662.4 830.8,662.4 830.8,514.0 '/>
		<polygon fill = 'rgb( 31, 120, 180)' fill-opacity = '0.250000' points = '830.8,514.0 830.8,662.4 832.7,662.4 832.7,515.7 '/>
		<polygon fill = 'rgb( 31, 120, 180)' fill-opacity = '0.250000' points = '832.7,515.7 832.7,662.4 834.6,662.4 834.6,517.5 '/>
		<polygon fill = 'rgb( 31, 120, 180)' fill-opacity = '0.250000' points = '834.6,517.5 834.6,662.4 836.5,662.4 836.5,519.2 '/>
		<polygon fill = 'rgb( 31, 120, 180)' fill-opacity = '0.250000' points = '836.5,519.2 836.5,662.4 838.4,662.4 838.4,520.9 '/>
		<polygon fill = 'rgb( 31, 120, 180)' fill-opacity = '0.250000' points = '838.4,520.9 838.4,662.4 840.4,662.4 840.4,522.6 '/>
		<polygon fill = 'rgb( 31, 120, 180)' fill-opacity = '0.250000' points = '840.4,522.6 840.4,662.4 842.3,662.4 842.3,524.3 '/>
		<polygon fill = 'rgb( 31, 120, 180)' fill-opacity = '0.250000' points = '842.3,524.3 842.3,662.4 844.2,662.4 844.2,525.9 '/>
		<polygon fill = 'rgb( 31, 120, 180)' fill-opacity = '0.250000' points = '844.2,525.9 844.2,662.4 846.1,662.4 846.1,527.6 '/>
		<polygon fill = 'rgb( 31, 120, 180)' fill-opacity = '0.250000' points = '846.1,527.6 846.1,662.4 848.0,662.4 848.0,529.3 '/>
		<polygon fill = 'rgb( 31, 120, 180)' fill-opacity = '0.250000' points = '848.0,529.3 848.0,662.4 849.9,662.4 849.9,530.9 '/>
		<polygon fill = 'rgb( 31, 120, 180)' fill-opacity = '0.250000' points = '849.9,530.9 849.9,662.4 851.8,662.4 851.8,532.6 '/>
		<polygon fill = 'rgb( 31, 120, 180)' fill-opacity = '0.250000' points = '851.8,532.6 851.8,662.4 853.7,662.4 853.7,534.3 '/>
		<polygon fill = 'rgb( 31, 120, 180)' fill-opacity = '0.250000' points = '853.7,534.3 853.7,662.4 855.6,662.4 855.6,535.9 '/>
		<polygon fill = 'rgb( 31, 120, 180)' fill-opacity = '0.250000' points = '855.6,535.9 855.6,662.4 857.5,662.4 857.5,537.6 '/>
		<polygon fill = 'rgb( 31, 120, 180)' fill-opacity = '0.250000' points = '857.5,537.6 857.5,662.4 859.4,662.4 859.4,539.2 '/>
		<polygon fill = 'rgb( 31, 120, 180)' fill-opacity = '0.250000' points = '859.4,539.2 859.4,662.4 861.3,662.4 861.3,540.9 '/>
		<polygon fill = 'rgb( 31, 120, 180)' fill-opacity = '0.250000' points = '861.3,540.9 861.3,662.4 863.2,662.4 863.2,542.5 '/>
		<polygon fill = 'rgb( 31, 120, 180)' fill-opacity = '0.250000' points = '863.2,542.5 863.2,662.4 865.1,662.4 865.1,544.2 '/>
		<polygon fill = 'rgb( 31, 120, 180)' fill-opacity = '0.250000' points = '865.1,544.2 865.1,662.4 867.0,662.4 867.0,545.8 '/>
		<polygon fill = 'rgb( 31, 120, 180)' fill-opacity = '0.250000' points = '867.0,545.8 867.0,662.4 868.9,662.4 868.9,547.4 '/>
		<polygon fill = 'rgb( 31, 120, 180)' fill-opacity = '0.250000' points = '868.9,547.4 868.9,662.4 870.8,662.4 870.8,549.0 '/>
		<polygon fill = 'rgb( 31, 120, 180)' fill-opacity = '0.250000' points = '870.8,549.0 870.8,662.4 872.7,662.4 872.7,550.7 '/>
		<polygon fill = 'rgb( 31, 120, 180)' fill-opacity = '0.250000' points = '872.7,550.7 872.7,662.4 874.6,662.4 874.6,552.3 '/>
		<polygon fill = 'rgb( 31, 120, 180)' fill-opacity = '0.250000' points = '874.6,552.3 874.6,662.4 876.5,662.4 876.5,553.9 '/>
		<polygon fill = 'rgb( 31, 120, 180)' fill-opacity = '0.250000' points = '876.5,553.9 876.5,662.4 878.4,662.4 878.4,555.4 '/>
		<polygon fill = 'rgb( 31, 120, 180)' fill-opacity = '0.250000' points = '878.4,555.4 878.4,662.4 880.3,662.4 880.3,557.0 '/>
		<polygon fill = 'rgb( 31, 120, 180)' fill-opacity = '0.250000' points = '880.3,557.0 880.3,662.4 882.2,662.4 882.2,558.6 '/>
		<polygon fill = 'rgb( 31, 120, 180)' fill-opacity = '0.250000' points = '882.2,558.6 882.2,662.4 884.1,662.4 884.1,560.2 '/>
		<polygon fill = 'rgb( 31, 120, 180)' fill-opacity = '0.250000' points = '884.1,560.2 884.1,662.4 886.0,662.4 886.0,561.7 '/>
		<polygon fill = 'rgb( 31, 120, 180)' fill-opacity = '0.250000' points = '886.0,561.7 886.0,662.4 887.9,662.4 887.9,563.3 '/>
		<polygon fill = 'rgb( 31, 120, 180)' fill-opacity = '0.250000' points = '887.9,563.3 887.9,662.4 889.9,662.4 889.9,564.8 '/>
		<polygon fill = 'rgb( 31, 120, 180)' fill-opacity = '0.250000' points = '889.9,564.8 889.9,662.4 891.8,662.4 891.8,566.3 '/>
		<polygon fill = 'rgb( 31, 120, 180)' fill-opacity = '0.250000' points = '891.8,566.3 891.8,662.4 893.7,662.4 893.7,567.8 '/>
		<polygon fill = 'rgb( 31, 120, 180)' fill-opacity = '0.250000' points = '893.7,567.8 893.7,662.4 895.6,662.4 895.6,569.3 '/>
		<polygon fill = 'rgb( 31, 120, 180)' fill-opacity = '0.250000' points = '895.6,569.3 895.6,662.4 897.5,662.4 897.5,570.8 '/>
		<polygon fill = 'rgb( 31, 120, 180)' fill-opacity = '0.250000' points = '897.5,570.8 897.5,662.4 899.4,662.4 899.4,572.2 '/>
		<polygon fill = 'rgb( 31, 120, 180)' fill-opacity = '0.250000' points = '899.4,572.2 899.4,662.4 901.3,662.4 901.3,573.7 '/>
		<polygon fill = 'rgb( 31, 120, 180)' fill-opacity = '0.250000' points = '901.3,573.7 901.3,662.4 903.2,662.4 903.2,575.1 '/>
		<polygon fill = 'rgb( 31, 120, 180)' fill-opacity = '0.250000' points = '903.2,575.1 903.2,662.4 905.1,662.4 905.1,576.5 '/>
		<polygon fill = 'rgb( 31, 120, 180)' fill-opacity = '0.250000' points = '905.1,576.5 905.1,662.4 907.0,662.4 907.0,577.9 '/>
		<polygon fill = 'rgb( 31, 120, 180)' fill-opacity = '0.250000' points = '907.0,577.9 907.0,662.4 908.9,662.4 908.9,579.2 '/>
		<polygon fill = 'rgb( 31, 120, 180)' fill-opacity = '0.250000' points = '908.9,579.2 908.9,662.4 910.8,662.4 910.8,580.5 '/>
		<polygon fill = 'rgb( 31, 120, 180)' fill-opacity = '0.250000' points = '910.8,580.5 910.8,662.4 912.7,662.4 912.7,581.9 '/>
		<polygon fill = 'rgb( 31, 120, 180)' fill-opacity = '0.250000' points = '912.7,581.9 912.7,662.4 914.6,662.4 914.6,583.1 '/>
		<polygon fill = 'rgb( 31, 120, 180)' fill-opacity = '0.250000' points = '914.6,583.1 914.6,662.4 916.5,662.4 916.5,584.4 '/>
		<polygon fill = 'rgb( 31, 120, 180)' fill-opacity = '0.250000' points = '916.5,584.4 916.5,662.4 918.4,662.4 918.4,585.7 '/>
		<polygon fill = 'rgb( 31, 120, 180)' fill-opacity = '0.250000' points = '918.4,585.7 918.4,662.4 920.3,662.4 920.3,586.9 '/>
		<polygon fill = 'rgb( 31, 120, 180)' fill-opacity = '0.250000' points = '920.3,586.9 920.3,662.4 922.2,662.4 922.2,588.1 '/>
		<polygon fill = 'rgb( 31, 120, 180)' fill-opacity = '0.250000' points = '922.2,588.1 922.2,662.4 924.1,662.4 924.1,589.3 '/>
	</g>
</g>
	</g>
	<g id="gnuplot_plot_3" ><title>Point estimate</title>
<g fill="none" color="white" stroke="rgb( 31, 120, 180)" stroke-width="2.00" stroke-linecap="butt" stroke-linejoin="miter">
</g>
<g fill="none" color="black" stroke="currentColor" stroke-width="2.00" stroke-linecap="butt" stroke-linejoin="miter">
	<g transform="translate(1089.0,103.0)" stroke="none" fill="black" font-family="Helvetica" font-size="12.00"  text-anchor="start">
		<text><tspan font-family="Helvetica" >Point estimate</tspan></text>
	</g>
</g>
<g fill="none" color="black" stroke="currentColor" stroke-width="2.00" stroke-linecap="butt" stroke-linejoin="miter">
	<path stroke='rgb( 31, 120, 180)'  d='M1038.5,99.1 L1080.7,99.1 M507.7,662.4 L507.7,106.1  '/></g>
	</g>
<g fill="none" color="black" stroke="currentColor" stroke-width="2.00" stroke-linecap="butt" stroke-linejoin="miter">
</g>
<g fill="none" color="black" stroke="black" stroke-width="1.00" stroke-linecap="butt" stroke-linejoin="miter">
</g>
<g fill="none" color="black" stroke="currentColor" stroke-width="1.00" stroke-linecap="butt" stroke-linejoin="miter">
	<path stroke='black'  d='M63.6,54.1 L63.6,662.4 L1013.6,662.4 L1013.6,54.1 L63.6,54.1 Z  '/></g>
<g fill="none" color="black" stroke="currentColor" stroke-width="1.00" stroke-linecap="butt" stroke-linejoin="miter">
</g>
</g>
</svg>

