<?xml version="1.0" encoding="utf-8"  standalone="no"?>
<svg 
 viewBox="0 0 1280 720"
 xmlns="http://www.w3.org/2000/svg"
 xmlns:xlink="http://www.w3.org/1999/xlink"
>

<title>Gnuplot</title>
<desc>Produced by GNUPLOT 5.0 patchlevel 6 </desc>

<g id="gnuplot_canvas">

<rect x="0" y="0" width="1280" height="720" fill="none"/>
<defs>

	<circle id='gpDot' r='0.5' stroke-width='0.5'/>
	<path id='gpPt0' stroke-width='0.222' stroke='currentColor' d='M-1,0 h2 M0,-1 v2'/>
	<path id='gpPt1' stroke-width='0.222' stroke='currentColor' d='M-1,-1 L1,1 M1,-1 L-1,1'/>
	<path id='gpPt2' stroke-width='0.222' stroke='currentColor' d='M-1,0 L1,0 M0,-1 L0,1 M-1,-1 L1,1 M-1,1 L1,-1'/>
	<rect id='gpPt3' stroke-width='0.222' stroke='currentColor' x='-1' y='-1' width='2' height='2'/>
	<rect id='gpPt4' stroke-width='0.222' stroke='currentColor' fill='currentColor' x='-1' y='-1' width='2' height='2'/>
	<circle id='gpPt5' stroke-width='0.222' stroke='currentColor' cx='0' cy='0' r='1'/>
	<use xlink:href='#gpPt5' id='gpPt6' fill='currentColor' stroke='none'/>
	<path id='gpPt7' stroke-width='0.222' stroke='currentColor' d='M0,-1.33 L-1.33,0.67 L1.33,0.67 z'/>
	<use xlink:href='#gpPt7' id='gpPt8' fill='currentColor' stroke='none'/>
	<use xlink:href='#gpPt7' id='gpPt9' stroke='currentColor' transform='rotate(180)'/>
	<use xlink:href='#gpPt9' id='gpPt10' fill='currentColor' stroke='none'/>
	<use xlink:href='#gpPt3' id='gpPt11' stroke='currentColor' transform='rotate(45)'/>
	<use xlink:href='#gpPt11' id='gpPt12' fill='currentColor' stroke='none'/>
	<path id='gpPt13' stroke-width='0.222' stroke='currentColor' d='M0,1.330 L1.265,0.411 L0.782,-1.067 L-0.782,-1.076 L-1.265,0.411 z'/>
	<use xlink:href='#gpPt13' id='gpPt14' fill='currentColor' stroke='none'/>
	<filter id='textbox' filterUnits='objectBoundingBox' x='0' y='0' height='1' width='1'>
	  <feFlood flood-color='white' flood-opacity='1' result='bgnd'/>
	  <feComposite in='SourceGraphic' in2='bgnd' operator='atop'/>
	</filter>
	<filter id='greybox' filterUnits='objectBoundingBox' x='0' y='0' height='1' width='1'>
	  <feFlood flood-color='lightgrey' flood-opacity='1' result='grey'/>
	  <feComposite in='SourceGraphic' in2='grey' operator='atop'/>
	</filter>
</defs>
<g fill="none" color="white" stroke="currentColor" stroke-width="1.00" stroke-linecap="butt" stroke-linejoin="miter">
</g>
<g fill="none" color="black" stroke="currentColor" stroke-width="1.00" stroke-linecap="butt" stroke-linejoin="miter">
	<path stroke='black'  d='M80.2,662.4 L89.2,662.4  '/>	<g transform="translate(71.9,666.3)" stroke="none" fill="black" font-family="Helvetica" font-size="12.00"  text-anchor="end">
		<text><tspan font-family="Helvetica" > 0</tspan></text>
	</g>
</g>
<g fill="none" color="black" stroke="currentColor" stroke-width="1.00" stroke-linecap="butt" stroke-linejoin="miter">
	<path stroke='black'  d='M80.2,601.6 L89.2,601.6  '/>	<g transform="translate(71.9,605.5)" stroke="none" fill="black" font-family="Helvetica" font-size="12.00"  text-anchor="end">
		<text><tspan font-family="Helvetica" > 0.01</tspan></text>
	</g>
</g>
<g fill="none" color="black" stroke="currentColor" stroke-width="1.00" stroke-linecap="butt" stroke-linejoin="miter">
	<path stroke='black'  d='M80.2,540.7 L89.2,540.7  '/>	<g transform="translate(71.9,544.6)" stroke="none" fill="black" font-family="Helvetica" font-size="12.00"  text-anchor="end">
		<text><tspan font-family="Helvetica" > 0.02</tspan></text>
	</g>
</g>
<g fill="none" color="black" stroke="currentColor" stroke-width="1.00" stroke-linecap="butt" stroke-linejoin="miter">
	<path stroke='black'  d='M80.2,479.9 L89.2,479.9  '/>	<g transform="translate(71.9,483.8)" stroke="none" fill="black" font-family="Helvetica" font-size="12.00"  text-anchor="end">
		<text><tspan font-family="Helvetica" > 0.03</tspan></text>
	</g>
</g>
<g fill="none" color="black" stroke="currentColor" stroke-width="1.00" stroke-linecap="butt" stroke-linejoin="miter">
	<path stroke='black'  d='M80.2,419.1 L89.2,419.1  '/>	<g transform="translate(71.9,423.0)" stroke="none" fill="black" font-family="Helvetica" font-size="12.00"  text-anchor="end">
		<text><tspan font-family="Helvetica" > 0.04</tspan></text>
	</g>
</g>
<g fill="none" color="black" stroke="currentColor" stroke-width="1.00" stroke-linecap="butt" stroke-linejoin="miter">
	<path stroke='black'  d='M80.2,358.2 L89.2,358.2  '/>	<g transform="translate(71.9,362.1)" stroke="none" fill="black" font-family="Helvetica" font-size="12.00"  text-anchor="end">
		<text><tspan font-family="Helvetica" > 0.05</tspan></text>
	</g>
</g>
<g fill="none" color="black" stroke="currentColor" stroke-width="1.00" stroke-linecap="butt" stroke-linejoin="miter">
	<path stroke='black'  d='M80.2,297.4 L89.2,297.4  '/>	<g transform="translate(71.9,301.3)" stroke="none" fill="black" font-family="Helvetica" font-size="12.00"  text-anchor="end">
		<text><tspan font-family="Helvetica" > 0.06</tspan></text>
	</g>
</g>
<g fill="none" color="black" stroke="currentColor" stroke-width="1.00" stroke-linecap="butt" stroke-linejoin="miter">
	<path stroke='black'  d='M80.2,236.6 L89.2,236.6  '/>	<g transform="translate(71.9,240.5)" stroke="none" fill="black" font-family="Helvetica" font-size="12.00"  text-anchor="end">
		<text><tspan font-family="Helvetica" > 0.07</tspan></text>
	</g>
</g>
<g fill="none" color="black" stroke="currentColor" stroke-width="1.00" stroke-linecap="butt" stroke-linejoin="miter">
	<path stroke='black'  d='M80.2,175.8 L89.2,175.8  '/>	<g transform="translate(71.9,179.7)" stroke="none" fill="black" font-family="Helvetica" font-size="12.00"  text-anchor="end">
		<text><tspan font-family="Helvetica" > 0.08</tspan></text>
	</g>
</g>
<g fill="none" color="black" stroke="currentColor" stroke-width="1.00" stroke-linecap="butt" stroke-linejoin="miter">
	<path stroke='black'  d='M80.2,114.9 L89.2,114.9  '/>	<g transform="translate(71.9,118.8)" stroke="none" fill="black" font-family="Helvetica" font-size="12.00"  text-anchor="end">
		<text><tspan font-family="Helvetica" > 0.09</tspan></text>
	</g>
</g>
<g fill="none" color="black" stroke="currentColor" stroke-width="1.00" stroke-linecap="butt" stroke-linejoin="miter">
	<path stroke='black'  d='M80.2,54.1 L89.2,54.1  '/>	<g transform="translate(71.9,58.0)" stroke="none" fill="black" font-family="Helvetica" font-size="12.00"  text-anchor="end">
		<text><tspan font-family="Helvetica" > 0.1</tspan></text>
	</g>
</g>
<g fill="none" color="black" stroke="currentColor" stroke-width="1.00" stroke-linecap="butt" stroke-linejoin="miter">
	<path stroke='black'  d='M276.1,662.4 L276.1,653.4  '/>	<g transform="translate(276.1,684.3)" stroke="none" fill="black" font-family="Helvetica" font-size="12.00"  text-anchor="middle">
		<text><tspan font-family="Helvetica" > 10</tspan></text>
	</g>
</g>
<g fill="none" color="black" stroke="currentColor" stroke-width="1.00" stroke-linecap="butt" stroke-linejoin="miter">
	<path stroke='black'  d='M483.5,662.4 L483.5,653.4  '/>	<g transform="translate(483.5,684.3)" stroke="none" fill="black" font-family="Helvetica" font-size="12.00"  text-anchor="middle">
		<text><tspan font-family="Helvetica" > 15</tspan></text>
	</g>
</g>
<g fill="none" color="black" stroke="currentColor" stroke-width="1.00" stroke-linecap="butt" stroke-linejoin="miter">
	<path stroke='black'  d='M690.8,662.4 L690.8,653.4  '/>	<g transform="translate(690.8,684.3)" stroke="none" fill="black" font-family="Helvetica" font-size="12.00"  text-anchor="middle">
		<text><tspan font-family="Helvetica" > 20</tspan></text>
	</g>
</g>
<g fill="none" color="black" stroke="currentColor" stroke-width="1.00" stroke-linecap="butt" stroke-linejoin="miter">
	<path stroke='black'  d='M898.2,662.4 L898.2,653.4  '/>	<g transform="translate(898.2,684.3)" stroke="none" fill="black" font-family="Helvetica" font-size="12.00"  text-anchor="middle">
		<text><tspan font-family="Helvetica" > 25</tspan></text>
	</g>
</g>
<g fill="none" color="black" stroke="currentColor" stroke-width="1.00" stroke-linecap="butt" stroke-linejoin="miter">
</g>
<g fill="none" color="black" stroke="currentColor" stroke-width="1.00" stroke-linecap="butt" stroke-linejoin="miter">
	<path stroke='black'  d='M80.2,54.1 L80.2,662.4 L1013.6,662.4 L1013.6,54.1 L80.2,54.1 Z  '/></g>
<g fill="none" color="black" stroke="currentColor" stroke-width="1.00" stroke-linecap="butt" stroke-linejoin="miter">
	<g transform="translate(17.0,358.3) rotate(270)" stroke="none" fill="black" font-family="Helvetica" font-size="12.00"  text-anchor="middle">
		<text><tspan font-family="Helvetica" >Density (a.u.)</tspan></text>
	</g>
</g>
<g fill="none" color="black" stroke="currentColor" stroke-width="1.00" stroke-linecap="butt" stroke-linejoin="miter">
	<g transform="translate(546.9,711.3)" stroke="none" fill="black" font-family="Helvetica" font-size="12.00"  text-anchor="middle">
		<text><tspan font-family="Helvetica" >Average time (us)</tspan></text>
	</g>
</g>
<g fill="none" color="black" stroke="currentColor" stroke-width="1.00" stroke-linecap="butt" stroke-linejoin="miter">
	<g transform="translate(546.9,31.0)" stroke="none" fill="black" font-family="Helvetica" font-size="12.00"  text-anchor="middle">
		<text><tspan font-family="Helvetica" >language: javascript/parse error: cpp/examples/marker-index.h: SD</tspan></text>
	</g>
</g>
	<g id="gnuplot_plot_1" ><title>Bootstrap distribution</title>
<g fill="none" color="white" stroke="black" stroke-width="2.00" stroke-linecap="butt" stroke-linejoin="miter">
</g>
<g fill="none" color="black" stroke="currentColor" stroke-width="2.00" stroke-linecap="butt" stroke-linejoin="miter">
	<g transform="translate(1089.0,67.0)" stroke="none" fill="black" font-family="Helvetica" font-size="12.00"  text-anchor="start">
		<text><tspan font-family="Helvetica" >Bootstrap distribution</tspan></text>
	</g>
</g>
<g fill="none" color="black" stroke="currentColor" stroke-width="2.00" stroke-linecap="butt" stroke-linejoin="miter">
	<path stroke='rgb( 31, 120, 180)'  d='M1038.5,63.1 L1080.7,63.1 M80.2,654.5 L82.1,653.6 L83.9,652.5 L85.8,651.4 L87.7,650.2 L89.6,648.8
		L91.4,647.3 L93.3,645.7 L95.2,643.9 L97.0,641.9 L98.9,639.8 L100.8,637.5 L102.6,635.1 L104.5,632.4
		L106.4,629.5 L108.3,626.4 L110.1,623.1 L112.0,619.5 L113.9,615.7 L115.7,611.6 L117.6,607.3 L119.5,602.8
		L121.4,597.9 L123.2,592.8 L125.1,587.5 L127.0,581.9 L128.8,576.0 L130.7,569.9 L132.6,563.5 L134.4,556.9
		L136.3,550.0 L138.2,543.0 L140.1,535.8 L141.9,528.4 L143.8,520.8 L145.7,513.2 L147.5,505.4 L149.4,497.5
		L151.3,489.6 L153.2,481.7 L155.0,473.7 L156.9,465.8 L158.8,458.0 L160.6,450.3 L162.5,442.7 L164.4,435.3
		L166.2,428.1 L168.1,421.2 L170.0,414.5 L171.9,408.1 L173.7,402.1 L175.6,396.5 L177.5,391.3 L179.3,386.5
		L181.2,382.2 L183.1,378.3 L185.0,375.0 L186.8,372.2 L188.7,370.0 L190.6,368.3 L192.4,367.3 L194.3,366.8
		L196.2,366.8 L198.0,367.5 L199.9,368.7 L201.8,370.6 L203.7,372.9 L205.5,375.8 L207.4,379.3 L209.3,383.2
		L211.1,387.6 L213.0,392.4 L214.9,397.7 L216.7,403.3 L218.6,409.2 L220.5,415.4 L222.4,421.8 L224.2,428.4
		L226.1,435.1 L228.0,441.9 L229.8,448.7 L231.7,455.5 L233.6,462.2 L235.5,468.8 L237.3,475.2 L239.2,481.3
		L241.1,487.2 L242.9,492.8 L244.8,498.0 L246.7,502.7 L248.5,507.0 L250.4,510.8 L252.3,514.0 L254.2,516.7
		L256.0,518.7 L257.9,520.1 L259.8,520.8 L261.6,520.9 L263.5,520.2 L265.4,518.8 L267.3,516.6 L269.1,513.7
		L271.0,510.0 L272.9,505.7 L274.7,500.5 L276.6,494.7 L278.5,488.1 L280.3,480.9 L282.2,473.0 L284.1,464.5
		L286.0,455.5 L287.8,445.9 L289.7,435.9 L291.6,425.6 L293.4,414.9 L295.3,403.9 L297.2,392.8 L299.1,381.6
		L300.9,370.4 L302.8,359.3 L304.7,348.4 L306.5,337.8 L308.4,327.6 L310.3,317.8 L312.1,308.5 L314.0,299.9
		L315.9,291.9 L317.8,284.8 L319.6,278.5 L321.5,273.1 L323.4,268.7 L325.2,265.2 L327.1,262.8 L329.0,261.4
		L330.9,261.0 L332.7,261.7 L334.6,263.3 L336.5,266.0 L338.3,269.6 L340.2,274.1 L342.1,279.5 L343.9,285.6
		L345.8,292.4 L347.7,299.9 L349.6,307.8 L351.4,316.2 L353.3,324.9 L355.2,333.9 L357.0,343.0 L358.9,352.1
		L360.8,361.2 L362.7,370.2 L364.5,378.9 L366.4,387.3 L368.3,395.4 L370.1,403.0 L372.0,410.1 L373.9,416.7
		L375.7,422.7 L377.6,428.1 L379.5,432.9 L381.4,437.0 L383.2,440.5 L385.1,443.4 L387.0,445.6 L388.8,447.3
		L390.7,448.4 L392.6,449.0 L394.5,449.1 L396.3,448.8 L398.2,448.2 L400.1,447.2 L401.9,446.0 L403.8,444.6
		L405.7,443.0 L407.5,441.4 L409.4,439.8 L411.3,438.2 L413.2,436.7 L415.0,435.4 L416.9,434.2 L418.8,433.2
		L420.6,432.5 L422.5,432.2 L424.4,432.1 L426.3,432.3 L428.1,432.9 L430.0,433.8 L431.9,435.1 L433.7,436.7
		L435.6,438.6 L437.5,440.8 L439.3,443.2 L441.2,445.9 L443.1,448.8 L445.0,451.8 L446.8,454.9 L448.7,458.1
		L450.6,461.2 L452.4,464.3 L454.3,467.2 L456.2,469.9 L458.0,472.3 L459.9,474.4 L461.8,476.2 L463.7,477.4
		L465.5,478.1 L467.4,478.3 L469.3,477.8 L471.1,476.6 L473.0,474.7 L474.9,471.9 L476.8,468.4 L478.6,464.0
		L480.5,458.8 L482.4,452.6 L484.2,445.6 L486.1,437.7 L488.0,428.8 L489.8,419.1 L491.7,408.6 L493.6,397.2
		L495.5,385.1 L497.3,372.3 L499.2,358.8 L501.1,344.7 L502.9,330.1 L504.8,315.2 L506.7,299.9 L508.6,284.3
		L510.4,268.7 L512.3,253.0 L514.2,237.4 L516.0,222.1 L517.9,207.0 L519.8,192.4 L521.6,178.3 L523.5,164.8
		L525.4,152.0 L527.3,140.0 L529.1,128.8 L531.0,118.6 L532.9,109.3 L534.7,101.0 L536.6,93.6 L538.5,87.3
		L540.4,81.9 L542.2,77.5 L544.1,74.0 L546.0,71.3 L547.8,69.4 L549.7,68.2 L551.6,67.7 L553.4,67.7
		L555.3,68.1 L557.2,68.8 L559.1,69.9 L560.9,71.0 L562.8,72.3 L564.7,73.5 L566.5,74.7 L568.4,75.8
		L570.3,76.7 L572.2,77.3 L574.0,77.8 L575.9,78.0 L577.8,78.0 L579.6,77.8 L581.5,77.4 L583.4,76.9
		L585.2,76.3 L587.1,75.6 L589.0,75.1 L590.9,74.6 L592.7,74.3 L594.6,74.3 L596.5,74.7 L598.3,75.4
		L600.2,76.6 L602.1,78.3 L604.0,80.6 L605.8,83.5 L607.7,87.0 L609.6,91.2 L611.4,96.1 L613.3,101.6
		L615.2,107.8 L617.0,114.6 L618.9,121.9 L620.8,129.9 L622.7,138.3 L624.5,147.2 L626.4,156.5 L628.3,166.2
		L630.1,176.1 L632.0,186.2 L633.9,196.4 L635.8,206.7 L637.6,217.1 L639.5,227.3 L641.4,237.5 L643.2,247.6
		L645.1,257.4 L647.0,267.1 L648.8,276.4 L650.7,285.5 L652.6,294.2 L654.5,302.6 L656.3,310.6 L658.2,318.3
		L660.1,325.5 L661.9,332.3 L663.8,338.8 L665.7,344.7 L667.5,350.3 L669.4,355.4 L671.3,360.0 L673.2,364.2
		L675.0,367.9 L676.9,371.1 L678.8,373.8 L680.6,376.1 L682.5,377.8 L684.4,378.9 L686.3,379.6 L688.1,379.7
		L690.0,379.3 L691.9,378.4 L693.7,377.0 L695.6,375.0 L697.5,372.5 L699.3,369.6 L701.2,366.1 L703.1,362.2
		L705.0,357.9 L706.8,353.1 L708.7,348.0 L710.6,342.6 L712.4,336.9 L714.3,330.9 L716.2,324.8 L718.1,318.4
		L719.9,312.0 L721.8,305.6 L723.7,299.1 L725.5,292.7 L727.4,286.4 L729.3,280.2 L731.1,274.3 L733.0,268.7
		L734.9,263.3 L736.8,258.3 L738.6,253.7 L740.5,249.5 L742.4,245.7 L744.2,242.5 L746.1,239.7 L748.0,237.5
		L749.9,235.8 L751.7,234.7 L753.6,234.1 L755.5,234.1 L757.3,234.7 L759.2,235.8 L761.1,237.5 L762.9,239.7
		L764.8,242.4 L766.7,245.6 L768.6,249.3 L770.4,253.4 L772.3,258.0 L774.2,263.0 L776.0,268.3 L777.9,274.0
		L779.8,280.0 L781.7,286.3 L783.5,292.9 L785.4,299.7 L787.3,306.7 L789.1,313.9 L791.0,321.2 L792.9,328.7
		L794.7,336.2 L796.6,343.8 L798.5,351.5 L800.4,359.1 L802.2,366.8 L804.1,374.4 L806.0,381.9 L807.8,389.3
		L809.7,396.7 L811.6,403.8 L813.5,410.9 L815.3,417.7 L817.2,424.4 L819.1,430.8 L820.9,437.0 L822.8,442.9
		L824.7,448.6 L826.5,454.0 L828.4,459.2 L830.3,464.0 L832.2,468.5 L834.0,472.8 L835.9,476.7 L837.8,480.3
		L839.6,483.6 L841.5,486.7 L843.4,489.4 L845.3,491.8 L847.1,494.0 L849.0,495.9 L850.9,497.5 L852.7,498.9
		L854.6,500.1 L856.5,501.0 L858.3,501.8 L860.2,502.4 L862.1,502.9 L864.0,503.2 L865.8,503.5 L867.7,503.6
		L869.6,503.7 L871.4,503.8 L873.3,503.8 L875.2,503.8 L877.1,503.9 L878.9,504.0 L880.8,504.2 L882.7,504.4
		L884.5,504.8 L886.4,505.2 L888.3,505.8 L890.1,506.5 L892.0,507.3 L893.9,508.4 L895.8,509.5 L897.6,510.9
		L899.5,512.4 L901.4,514.0 L903.2,515.9 L905.1,517.9 L907.0,520.0 L908.8,522.3 L910.7,524.8 L912.6,527.4
		L914.5,530.1 L916.3,532.9 L918.2,535.8 L920.1,538.8 L921.9,541.9 L923.8,545.0 L925.7,548.2 L927.6,551.4
		L929.4,554.6 L931.3,557.8 L933.2,561.0 L935.0,564.1 L936.9,567.2 L938.8,570.3 L940.6,573.3 L942.5,576.2
		L944.4,579.0 L946.3,581.8 L948.1,584.4 L950.0,586.9 L951.9,589.4 L953.7,591.7 L955.6,593.9 L957.5,596.0
		L959.4,598.0 L961.2,599.9 L963.1,601.7 L965.0,603.4 L966.8,605.0 L968.7,606.6 L970.6,608.0 L972.4,609.3
		L974.3,610.6 L976.2,611.8 L978.1,612.9 L979.9,614.0 L981.8,615.0 L983.7,616.0 L985.5,616.9 L987.4,617.8
		L989.3,618.7 L991.2,619.5 L993.0,620.3 L994.9,621.0 L996.8,621.8 L998.6,622.5 L1000.5,623.2 L1002.4,623.9
		L1004.2,624.6 L1006.1,625.3 L1008.0,626.0 L1009.9,626.7 L1011.7,627.4 L1013.6,628.2  '/></g>
	</g>
	<g id="gnuplot_plot_2" ><title>Confidence interval</title>
<g fill="none" color="white" stroke="rgb( 31, 120, 180)" stroke-width="1.00" stroke-linecap="butt" stroke-linejoin="miter">
</g>
<g fill="none" color="black" stroke="currentColor" stroke-width="1.00" stroke-linecap="butt" stroke-linejoin="miter">
	<g transform="translate(1089.0,85.0)" stroke="none" fill="black" font-family="Helvetica" font-size="12.00"  text-anchor="start">
		<text><tspan font-family="Helvetica" >Confidence interval</tspan></text>
	</g>
</g>
<g fill="none" color="black" stroke="currentColor" stroke-width="1.00" stroke-linecap="butt" stroke-linejoin="miter">
	<g stroke='none' shape-rendering='crispEdges'>
		<polygon fill = 'rgb( 31, 120, 180)' fill-opacity = '0.250000' points = '1038.5,85.6 1080.7,85.6 1080.7,76.6 1038.5,76.6 '/>
		<polygon fill = 'rgb( 31, 120, 180)' fill-opacity = '0.250000' points = '166.2,428.1 166.2,662.4 168.1,662.4 168.1,421.2 '/>
		<polygon fill = 'rgb( 31, 120, 180)' fill-opacity = '0.250000' points = '168.1,421.2 168.1,662.4 170.0,662.4 170.0,414.5 '/>
		<polygon fill = 'rgb( 31, 120, 180)' fill-opacity = '0.250000' points = '170.0,414.5 170.0,662.4 171.9,662.4 171.9,408.1 '/>
		<polygon fill = 'rgb( 31, 120, 180)' fill-opacity = '0.250000' points = '171.9,408.1 171.9,662.4 173.7,662.4 173.7,402.1 '/>
		<polygon fill = 'rgb( 31, 120, 180)' fill-opacity = '0.250000' points = '173.7,402.1 173.7,662.4 175.6,662.4 175.6,396.5 '/>
		<polygon fill = 'rgb( 31, 120, 180)' fill-opacity = '0.250000' points = '175.6,396.5 175.6,662.4 177.5,662.4 177.5,391.3 '/>
		<polygon fill = 'rgb( 31, 120, 180)' fill-opacity = '0.250000' points = '177.5,391.3 177.5,662.4 179.3,662.4 179.3,386.5 '/>
		<polygon fill = 'rgb( 31, 120, 180)' fill-opacity = '0.250000' points = '179.3,386.5 179.3,662.4 181.2,662.4 181.2,382.2 '/>
		<polygon fill = 'rgb( 31, 120, 180)' fill-opacity = '0.250000' points = '181.2,382.2 181.2,662.4 183.1,662.4 183.1,378.3 '/>
		<polygon fill = 'rgb( 31, 120, 180)' fill-opacity = '0.250000' points = '183.1,378.3 183.1,662.4 185.0,662.4 185.0,375.0 '/>
		<polygon fill = 'rgb( 31, 120, 180)' fill-opacity = '0.250000' points = '185.0,375.0 185.0,662.4 186.8,662.4 186.8,372.2 '/>
		<polygon fill = 'rgb( 31, 120, 180)' fill-opacity = '0.250000' points = '186.8,372.2 186.8,662.4 188.7,662.4 188.7,370.0 '/>
		<polygon fill = 'rgb( 31, 120, 180)' fill-opacity = '0.250000' points = '188.7,370.0 188.7,662.4 190.6,662.4 190.6,368.3 '/>
		<polygon fill = 'rgb( 31, 120, 180)' fill-opacity = '0.250000' points = '190.6,368.3 190.6,662.4 192.4,662.4 192.4,367.3 '/>
		<polygon fill = 'rgb( 31, 120, 180)' fill-opacity = '0.250000' points = '192.4,367.3 192.4,662.4 194.3,662.4 194.3,366.8 '/>
		<polygon fill = 'rgb( 31, 120, 180)' fill-opacity = '0.250000' points = '194.3,366.8 194.3,662.4 196.2,662.4 196.2,366.8 '/>
		<polygon fill = 'rgb( 31, 120, 180)' fill-opacity = '0.250000' points = '196.2,366.8 196.2,662.4 198.0,662.4 198.0,367.5 '/>
		<polygon fill = 'rgb( 31, 120, 180)' fill-opacity = '0.250000' points = '198.0,367.5 198.0,662.4 199.9,662.4 199.9,368.7 '/>
		<polygon fill = 'rgb( 31, 120, 180)' fill-opacity = '0.250000' points = '199.9,368.7 199.9,662.4 201.8,662.4 201.8,370.6 '/>
		<polygon fill = 'rgb( 31, 120, 180)' fill-opacity = '0.250000' points = '201.8,370.6 201.8,662.4 203.7,662.4 203.7,372.9 '/>
		<polygon fill = 'rgb( 31, 120, 180)' fill-opacity = '0.250000' points = '203.7,372.9 203.7,662.4 205.5,662.4 205.5,375.8 '/>
		<polygon fill = 'rgb( 31, 120, 180)' fill-opacity = '0.250000' points = '205.5,375.8 205.5,662.4 207.4,662.4 207.4,379.3 '/>
		<polygon fill = 'rgb( 31, 120, 180)' fill-opacity = '0.250000' points = '207.4,379.3 207.4,662.4 209.3,662.4 209.3,383.2 '/>
		<polygon fill = 'rgb( 31, 120, 180)' fill-opacity = '0.250000' points = '209.3,383.2 209.3,662.4 211.1,662.4 211.1,387.6 '/>
		<polygon fill = 'rgb( 31, 120, 180)' fill-opacity = '0.250000' points = '211.1,387.6 211.1,662.4 213.0,662.4 213.0,392.4 '/>
		<polygon fill = 'rgb( 31, 120, 180)' fill-opacity = '0.250000' points = '213.0,392.4 213.0,662.4 214.9,662.4 214.9,397.7 '/>
		<polygon fill = 'rgb( 31, 120, 180)' fill-opacity = '0.250000' points = '214.9,397.7 214.9,662.4 216.7,662.4 216.7,403.3 '/>
		<polygon fill = 'rgb( 31, 120, 180)' fill-opacity = '0.250000' points = '216.7,403.3 216.7,662.4 218.6,662.4 218.6,409.2 '/>
		<polygon fill = 'rgb( 31, 120, 180)' fill-opacity = '0.250000' points = '218.6,409.2 218.6,662.4 220.5,662.4 220.5,415.4 '/>
		<polygon fill = 'rgb( 31, 120, 180)' fill-opacity = '0.250000' points = '220.5,415.4 220.5,662.4 222.4,662.4 222.4,421.8 '/>
		<polygon fill = 'rgb( 31, 120, 180)' fill-opacity = '0.250000' points = '222.4,421.8 222.4,662.4 224.2,662.4 224.2,428.4 '/>
		<polygon fill = 'rgb( 31, 120, 180)' fill-opacity = '0.250000' points = '224.2,428.4 224.2,662.4 226.1,662.4 226.1,435.1 '/>
		<polygon fill = 'rgb( 31, 120, 180)' fill-opacity = '0.250000' points = '226.1,435.1 226.1,662.4 228.0,662.4 228.0,441.9 '/>
		<polygon fill = 'rgb( 31, 120, 180)' fill-opacity = '0.250000' points = '228.0,441.9 228.0,662.4 229.8,662.4 229.8,448.7 '/>
		<polygon fill = 'rgb( 31, 120, 180)' fill-opacity = '0.250000' points = '229.8,448.7 229.8,662.4 231.7,662.4 231.7,455.5 '/>
		<polygon fill = 'rgb( 31, 120, 180)' fill-opacity = '0.250000' points = '231.7,455.5 231.7,662.4 233.6,662.4 233.6,462.2 '/>
		<polygon fill = 'rgb( 31, 120, 180)' fill-opacity = '0.250000' points = '233.6,462.2 233.6,662.4 235.5,662.4 235.5,468.8 '/>
		<polygon fill = 'rgb( 31, 120, 180)' fill-opacity = '0.250000' points = '235.5,468.8 235.5,662.4 237.3,662.4 237.3,475.2 '/>
		<polygon fill = 'rgb( 31, 120, 180)' fill-opacity = '0.250000' points = '237.3,475.2 237.3,662.4 239.2,662.4 239.2,481.3 '/>
		<polygon fill = 'rgb( 31, 120, 180)' fill-opacity = '0.250000' points = '239.2,481.3 239.2,662.4 241.1,662.4 241.1,487.2 '/>
		<polygon fill = 'rgb( 31, 120, 180)' fill-opacity = '0.250000' points = '241.1,487.2 241.1,662.4 242.9,662.4 242.9,492.8 '/>
		<polygon fill = 'rgb( 31, 120, 180)' fill-opacity = '0.250000' points = '242.9,492.8 242.9,662.4 244.8,662.4 244.8,498.0 '/>
		<polygon fill = 'rgb( 31, 120, 180)' fill-opacity = '0.250000' points = '244.8,498.0 244.8,662.4 246.7,662.4 246.7,502.7 '/>
		<polygon fill = 'rgb( 31, 120, 180)' fill-opacity = '0.250000' points = '246.7,502.7 246.7,662.4 248.5,662.4 248.5,507.0 '/>
		<polygon fill = 'rgb( 31, 120, 180)' fill-opacity = '0.250000' points = '248.5,507.0 248.5,662.4 250.4,662.4 250.4,510.8 '/>
		<polygon fill = 'rgb( 31, 120, 180)' fill-opacity = '0.250000' points = '250.4,510.8 250.4,662.4 252.3,662.4 252.3,514.0 '/>
		<polygon fill = 'rgb( 31, 120, 180)' fill-opacity = '0.250000' points = '252.3,514.0 252.3,662.4 254.2,662.4 254.2,516.7 '/>
		<polygon fill = 'rgb( 31, 120, 180)' fill-opacity = '0.250000' points = '254.2,516.7 254.2,662.4 256.0,662.4 256.0,518.7 '/>
		<polygon fill = 'rgb( 31, 120, 180)' fill-opacity = '0.250000' points = '256.0,518.7 256.0,662.4 257.9,662.4 257.9,520.1 '/>
		<polygon fill = 'rgb( 31, 120, 180)' fill-opacity = '0.250000' points = '257.9,520.1 257.9,662.4 259.8,662.4 259.8,520.8 '/>
		<polygon fill = 'rgb( 31, 120, 180)' fill-opacity = '0.250000' points = '259.8,520.8 259.8,662.4 261.6,662.4 261.6,520.9 '/>
		<polygon fill = 'rgb( 31, 120, 180)' fill-opacity = '0.250000' points = '261.6,520.9 261.6,662.4 263.5,662.4 263.5,520.2 '/>
		<polygon fill = 'rgb( 31, 120, 180)' fill-opacity = '0.250000' points = '263.5,520.2 263.5,662.4 265.4,662.4 265.4,518.8 '/>
		<polygon fill = 'rgb( 31, 120, 180)' fill-opacity = '0.250000' points = '265.4,518.8 265.4,662.4 267.3,662.4 267.3,516.6 '/>
		<polygon fill = 'rgb( 31, 120, 180)' fill-opacity = '0.250000' points = '267.3,516.6 267.3,662.4 269.1,662.4 269.1,513.7 '/>
		<polygon fill = 'rgb( 31, 120, 180)' fill-opacity = '0.250000' points = '269.1,513.7 269.1,662.4 271.0,662.4 271.0,510.0 '/>
		<polygon fill = 'rgb( 31, 120, 180)' fill-opacity = '0.250000' points = '271.0,510.0 271.0,662.4 272.9,662.4 272.9,505.7 '/>
		<polygon fill = 'rgb( 31, 120, 180)' fill-opacity = '0.250000' points = '272.9,505.7 272.9,662.4 274.7,662.4 274.7,500.5 '/>
		<polygon fill = 'rgb( 31, 120, 180)' fill-opacity = '0.250000' points = '274.7,500.5 274.7,662.4 276.6,662.4 276.6,494.7 '/>
		<polygon fill = 'rgb( 31, 120, 180)' fill-opacity = '0.250000' points = '276.6,494.7 276.6,662.4 278.5,662.4 278.5,488.1 '/>
		<polygon fill = 'rgb( 31, 120, 180)' fill-opacity = '0.250000' points = '278.5,488.1 278.5,662.4 280.3,662.4 280.3,480.9 '/>
		<polygon fill = 'rgb( 31, 120, 180)' fill-opacity = '0.250000' points = '280.3,480.9 280.3,662.4 282.2,662.4 282.2,473.0 '/>
		<polygon fill = 'rgb( 31, 120, 180)' fill-opacity = '0.250000' points = '282.2,473.0 282.2,662.4 284.1,662.4 284.1,464.5 '/>
		<polygon fill = 'rgb( 31, 120, 180)' fill-opacity = '0.250000' points = '284.1,464.5 284.1,662.4 286.0,662.4 286.0,455.5 '/>
		<polygon fill = 'rgb( 31, 120, 180)' fill-opacity = '0.250000' points = '286.0,455.5 286.0,662.4 287.8,662.4 287.8,445.9 '/>
		<polygon fill = 'rgb( 31, 120, 180)' fill-opacity = '0.250000' points = '287.8,445.9 287.8,662.4 289.7,662.4 289.7,435.9 '/>
		<polygon fill = 'rgb( 31, 120, 180)' fill-opacity = '0.250000' points = '289.7,435.9 289.7,662.4 291.6,662.4 291.6,425.6 '/>
		<polygon fill = 'rgb( 31, 120, 180)' fill-opacity = '0.250000' points = '291.6,425.6 291.6,662.4 293.4,662.4 293.4,414.9 '/>
		<polygon fill = 'rgb( 31, 120, 180)' fill-opacity = '0.250000' points = '293.4,414.9 293.4,662.4 295.3,662.4 295.3,403.9 '/>
		<polygon fill = 'rgb( 31, 120, 180)' fill-opacity = '0.250000' points = '295.3,403.9 295.3,662.4 297.2,662.4 297.2,392.8 '/>
		<polygon fill = 'rgb( 31, 120, 180)' fill-opacity = '0.250000' points = '297.2,392.8 297.2,662.4 299.1,662.4 299.1,381.6 '/>
		<polygon fill = 'rgb( 31, 120, 180)' fill-opacity = '0.250000' points = '299.1,381.6 299.1,662.4 300.9,662.4 300.9,370.4 '/>
		<polygon fill = 'rgb( 31, 120, 180)' fill-opacity = '0.250000' points = '300.9,370.4 300.9,662.4 302.8,662.4 302.8,359.3 '/>
		<polygon fill = 'rgb( 31, 120, 180)' fill-opacity = '0.250000' points = '302.8,359.3 302.8,662.4 304.7,662.4 304.7,348.4 '/>
		<polygon fill = 'rgb( 31, 120, 180)' fill-opacity = '0.250000' points = '304.7,348.4 304.7,662.4 306.5,662.4 306.5,337.8 '/>
		<polygon fill = 'rgb( 31, 120, 180)' fill-opacity = '0.250000' points = '306.5,337.8 306.5,662.4 308.4,662.4 308.4,327.6 '/>
		<polygon fill = 'rgb( 31, 120, 180)' fill-opacity = '0.250000' points = '308.4,327.6 308.4,662.4 310.3,662.4 310.3,317.8 '/>
		<polygon fill = 'rgb( 31, 120, 180)' fill-opacity = '0.250000' points = '310.3,317.8 310.3,662.4 312.1,662.4 312.1,308.5 '/>
		<polygon fill = 'rgb( 31, 120, 180)' fill-opacity = '0.250000' points = '312.1,308.5 312.1,662.4 314.0,662.4 314.0,299.9 '/>
		<polygon fill = 'rgb( 31, 120, 180)' fill-opacity = '0.250000' points = '314.0,299.9 314.0,662.4 315.9,662.4 315.9,291.9 '/>
		<polygon fill = 'rgb( 31, 120, 180)' fill-opacity = '0.250000' points = '315.9,291.9 315.9,662.4 317.8,662.4 317.8,284.8 '/>
		<polygon fill = 'rgb( 31, 120, 180)' fill-opacity = '0.250000' points = '317.8,284.8 317.8,662.4 319.6,662.4 319.6,278.5 '/>
		<polygon fill = 'rgb( 31, 120, 180)' fill-opacity = '0.250000' points = '319.6,278.5 319.6,662.4 321.5,662.4 321.5,273.1 '/>
		<polygon fill = 'rgb( 31, 120, 180)' fill-opacity = '0.250000' points = '321.5,273.1 321.5,662.4 323.4,662.4 323.4,268.7 '/>
		<polygon fill = 'rgb( 31, 120, 180)' fill-opacity = '0.250000' points = '323.4,268.7 323.4,662.4 325.2,662.4 325.2,265.2 '/>
		<polygon fill = 'rgb( 31, 120, 180)' fill-opacity = '0.250000' points = '325.2,265.2 325.2,662.4 327.1,662.4 327.1,262.8 '/>
		<polygon fill = 'rgb( 31, 120, 180)' fill-opacity = '0.250000' points = '327.1,262.8 327.1,662.4 329.0,662.4 329.0,261.4 '/>
		<polygon fill = 'rgb( 31, 120, 180)' fill-opacity = '0.250000' points = '329.0,261.4 329.0,662.4 330.9,662.4 330.9,261.0 '/>
		<polygon fill = 'rgb( 31, 120, 180)' fill-opacity = '0.250000' points = '330.9,261.0 330.9,662.4 332.7,662.4 332.7,261.7 '/>
		<polygon fill = 'rgb( 31, 120, 180)' fill-opacity = '0.250000' points = '332.7,261.7 332.7,662.4 334.6,662.4 334.6,263.3 '/>
		<polygon fill = 'rgb( 31, 120, 180)' fill-opacity = '0.250000' points = '334.6,263.3 334.6,662.4 336.5,662.4 336.5,266.0 '/>
		<polygon fill = 'rgb( 31, 120, 180)' fill-opacity = '0.250000' points = '336.5,266.0 336.5,662.4 338.3,662.4 338.3,269.6 '/>
		<polygon fill = 'rgb( 31, 120, 180)' fill-opacity = '0.250000' points = '338.3,269.6 338.3,662.4 340.2,662.4 340.2,274.1 '/>
		<polygon fill = 'rgb( 31, 120, 180)' fill-opacity = '0.250000' points = '340.2,274.1 340.2,662.4 342.1,662.4 342.1,279.5 '/>
		<polygon fill = 'rgb( 31, 120, 180)' fill-opacity = '0.250000' points = '342.1,279.5 342.1,662.4 343.9,662.4 343.9,285.6 '/>
		<polygon fill = 'rgb( 31, 120, 180)' fill-opacity = '0.250000' points = '343.9,285.6 343.9,662.4 345.8,662.4 345.8,292.4 '/>
		<polygon fill = 'rgb( 31, 120, 180)' fill-opacity = '0.250000' points = '345.8,292.4 345.8,662.4 347.7,662.4 347.7,299.9 '/>
		<polygon fill = 'rgb( 31, 120, 180)' fill-opacity = '0.250000' points = '347.7,299.9 347.7,662.4 349.6,662.4 349.6,307.8 '/>
		<polygon fill = 'rgb( 31, 120, 180)' fill-opacity = '0.250000' points = '349.6,307.8 349.6,662.4 351.4,662.4 351.4,316.2 '/>
		<polygon fill = 'rgb( 31, 120, 180)' fill-opacity = '0.250000' points = '351.4,316.2 351.4,662.4 353.3,662.4 353.3,324.9 '/>
		<polygon fill = 'rgb( 31, 120, 180)' fill-opacity = '0.250000' points = '353.3,324.9 353.3,662.4 355.2,662.4 355.2,333.9 '/>
		<polygon fill = 'rgb( 31, 120, 180)' fill-opacity = '0.250000' points = '355.2,333.9 355.2,662.4 357.0,662.4 357.0,343.0 '/>
		<polygon fill = 'rgb( 31, 120, 180)' fill-opacity = '0.250000' points = '357.0,343.0 357.0,662.4 358.9,662.4 358.9,352.1 '/>
		<polygon fill = 'rgb( 31, 120, 180)' fill-opacity = '0.250000' points = '358.9,352.1 358.9,662.4 360.8,662.4 360.8,361.2 '/>
		<polygon fill = 'rgb( 31, 120, 180)' fill-opacity = '0.250000' points = '360.8,361.2 360.8,662.4 362.7,662.4 362.7,370.2 '/>
		<polygon fill = 'rgb( 31, 120, 180)' fill-opacity = '0.250000' points = '362.7,370.2 362.7,662.4 364.5,662.4 364.5,378.9 '/>
		<polygon fill = 'rgb( 31, 120, 180)' fill-opacity = '0.250000' points = '364.5,378.9 364.5,662.4 366.4,662.4 366.4,387.3 '/>
		<polygon fill = 'rgb( 31, 120, 180)' fill-opacity = '0.250000' points = '366.4,387.3 366.4,662.4 368.3,662.4 368.3,395.4 '/>
		<polygon fill = 'rgb( 31, 120, 180)' fill-opacity = '0.250000' points = '368.3,395.4 368.3,662.4 370.1,662.4 370.1,403.0 '/>
		<polygon fill = 'rgb( 31, 120, 180)' fill-opacity = '0.250000' points = '370.1,403.0 370.1,662.4 372.0,662.4 372.0,410.1 '/>
		<polygon fill = 'rgb( 31, 120, 180)' fill-opacity = '0.250000' points = '372.0,410.1 372.0,662.4 373.9,662.4 373.9,416.7 '/>
		<polygon fill = 'rgb( 31, 120, 180)' fill-opacity = '0.250000' points = '373.9,416.7 373.9,662.4 375.7,662.4 375.7,422.7 '/>
		<polygon fill = 'rgb( 31, 120, 180)' fill-opacity = '0.250000' points = '375.7,422.7 375.7,662.4 377.6,662.4 377.6,428.1 '/>
		<polygon fill = 'rgb( 31, 120, 180)' fill-opacity = '0.250000' points = '377.6,428.1 377.6,662.4 379.5,662.4 379.5,432.9 '/>
		<polygon fill = 'rgb( 31, 120, 180)' fill-opacity = '0.250000' points = '379.5,432.9 379.5,662.4 381.4,662.4 381.4,437.0 '/>
		<polygon fill = 'rgb( 31, 120, 180)' fill-opacity = '0.250000' points = '381.4,437.0 381.4,662.4 383.2,662.4 383.2,440.5 '/>
		<polygon fill = 'rgb( 31, 120, 180)' fill-opacity = '0.250000' points = '383.2,440.5 383.2,662.4 385.1,662.4 385.1,443.4 '/>
		<polygon fill = 'rgb( 31, 120, 180)' fill-opacity = '0.250000' points = '385.1,443.4 385.1,662.4 387.0,662.4 387.0,445.6 '/>
		<polygon fill = 'rgb( 31, 120, 180)' fill-opacity = '0.250000' points = '387.0,445.6 387.0,662.4 388.8,662.4 388.8,447.3 '/>
		<polygon fill = 'rgb( 31, 120, 180)' fill-opacity = '0.250000' points = '388.8,447.3 388.8,662.4 390.7,662.4 390.7,448.4 '/>
		<polygon fill = 'rgb( 31, 120, 180)' fill-opacity = '0.250000' points = '390.7,448.4 390.7,662.4 392.6,662.4 392.6,449.0 '/>
		<polygon fill = 'rgb( 31, 120, 180)' fill-opacity = '0.250000' points = '392.6,449.0 392.6,662.4 394.5,662.4 394.5,449.1 '/>
		<polygon fill = 'rgb( 31, 120, 180)' fill-opacity = '0.250000' points = '394.5,449.1 394.5,662.4 396.3,662.4 396.3,448.8 '/>
		<polygon fill = 'rgb( 31, 120, 180)' fill-opacity = '0.250000' points = '396.3,448.8 396.3,662.4 398.2,662.4 398.2,448.2 '/>
		<polygon fill = 'rgb( 31, 120, 180)' fill-opacity = '0.250000' points = '398.2,448.2 398.2,662.4 400.1,662.4 400.1,447.2 '/>
		<polygon fill = 'rgb( 31, 120, 180)' fill-opacity = '0.250000' points = '400.1,447.2 400.1,662.4 401.9,662.4 401.9,446.0 '/>
		<polygon fill = 'rgb( 31, 120, 180)' fill-opacity = '0.250000' points = '401.9,446.0 401.9,662.4 403.8,662.4 403.8,444.6 '/>
		<polygon fill = 'rgb( 31, 120, 180)' fill-opacity = '0.250000' points = '403.8,444.6 403.8,662.4 405.7,662.4 405.7,443.0 '/>
		<polygon fill = 'rgb( 31, 120, 180)' fill-opacity = '0.250000' points = '405.7,443.0 405.7,662.4 407.5,662.4 407.5,441.4 '/>
		<polygon fill = 'rgb( 31, 120, 180)' fill-opacity = '0.250000' points = '407.5,441.4 407.5,662.4 409.4,662.4 409.4,439.8 '/>
		<polygon fill = 'rgb( 31, 120, 180)' fill-opacity = '0.250000' points = '409.4,439.8 409.4,662.4 411.3,662.4 411.3,438.2 '/>
		<polygon fill = 'rgb( 31, 120, 180)' fill-opacity = '0.250000' points = '411.3,438.2 411.3,662.4 413.2,662.4 413.2,436.7 '/>
		<polygon fill = 'rgb( 31, 120, 180)' fill-opacity = '0.250000' points = '413.2,436.7 413.2,662.4 415.0,662.4 415.0,435.4 '/>
		<polygon fill = 'rgb( 31, 120, 180)' fill-opacity = '0.250000' points = '415.0,435.4 415.0,662.4 416.9,662.4 416.9,434.2 '/>
		<polygon fill = 'rgb( 31, 120, 180)' fill-opacity = '0.250000' points = '416.9,434.2 416.9,662.4 418.8,662.4 418.8,433.2 '/>
		<polygon fill = 'rgb( 31, 120, 180)' fill-opacity = '0.250000' points = '418.8,433.2 418.8,662.4 420.6,662.4 420.6,432.5 '/>
		<polygon fill = 'rgb( 31, 120, 180)' fill-opacity = '0.250000' points = '420.6,432.5 420.6,662.4 422.5,662.4 422.5,432.2 '/>
		<polygon fill = 'rgb( 31, 120, 180)' fill-opacity = '0.250000' points = '422.5,432.2 422.5,662.4 424.4,662.4 424.4,432.1 '/>
		<polygon fill = 'rgb( 31, 120, 180)' fill-opacity = '0.250000' points = '424.4,432.1 424.4,662.4 426.3,662.4 426.3,432.3 '/>
		<polygon fill = 'rgb( 31, 120, 180)' fill-opacity = '0.250000' points = '426.3,432.3 426.3,662.4 428.1,662.4 428.1,432.9 '/>
		<polygon fill = 'rgb( 31, 120, 180)' fill-opacity = '0.250000' points = '428.1,432.9 428.1,662.4 430.0,662.4 430.0,433.8 '/>
		<polygon fill = 'rgb( 31, 120, 180)' fill-opacity = '0.250000' points = '430.0,433.8 430.0,662.4 431.9,662.4 431.9,435.1 '/>
		<polygon fill = 'rgb( 31, 120, 180)' fill-opacity = '0.250000' points = '431.9,435.1 431.9,662.4 433.7,662.4 433.7,436.7 '/>
		<polygon fill = 'rgb( 31, 120, 180)' fill-opacity = '0.250000' points = '433.7,436.7 433.7,662.4 435.6,662.4 435.6,438.6 '/>
		<polygon fill = 'rgb( 31, 120, 180)' fill-opacity = '0.250000' points = '435.6,438.6 435.6,662.4 437.5,662.4 437.5,440.8 '/>
		<polygon fill = 'rgb( 31, 120, 180)' fill-opacity = '0.250000' points = '437.5,440.8 437.5,662.4 439.3,662.4 439.3,443.2 '/>
		<polygon fill = 'rgb( 31, 120, 180)' fill-opacity = '0.250000' points = '439.3,443.2 439.3,662.4 441.2,662.4 441.2,445.9 '/>
		<polygon fill = 'rgb( 31, 120, 180)' fill-opacity = '0.250000' points = '441.2,445.9 441.2,662.4 443.1,662.4 443.1,448.8 '/>
		<polygon fill = 'rgb( 31, 120, 180)' fill-opacity = '0.250000' points = '443.1,448.8 443.1,662.4 445.0,662.4 445.0,451.8 '/>
		<polygon fill = 'rgb( 31, 120, 180)' fill-opacity = '0.250000' points = '445.0,451.8 445.0,662.4 446.8,662.4 446.8,454.9 '/>
		<polygon fill = 'rgb( 31, 120, 180)' fill-opacity = '0.250000' points = '446.8,454.9 446.8,662.4 448.7,662.4 448.7,458.1 '/>
		<polygon fill = 'rgb( 31, 120, 180)' fill-opacity = '0.250000' points = '448.7,458.1 448.7,662.4 450.6,662.4 450.6,461.2 '/>
		<polygon fill = 'rgb( 31, 120, 180)' fill-opacity = '0.250000' points = '450.6,461.2 450.6,662.4 452.4,662.4 452.4,464.3 '/>
		<polygon fill = 'rgb( 31, 120, 180)' fill-opacity = '0.250000' points = '452.4,464.3 452.4,662.4 454.3,662.4 454.3,467.2 '/>
		<polygon fill = 'rgb( 31, 120, 180)' fill-opacity = '0.250000' points = '454.3,467.2 454.3,662.4 456.2,662.4 456.2,469.9 '/>
		<polygon fill = 'rgb( 31, 120, 180)' fill-opacity = '0.250000' points = '456.2,469.9 456.2,662.4 458.0,662.4 458.0,472.3 '/>
		<polygon fill = 'rgb( 31, 120, 180)' fill-opacity = '0.250000' points = '458.0,472.3 458.0,662.4 459.9,662.4 459.9,474.4 '/>
		<polygon fill = 'rgb( 31, 120, 180)' fill-opacity = '0.250000' points = '459.9,474.4 459.9,662.4 461.8,662.4 461.8,476.2 '/>
		<polygon fill = 'rgb( 31, 120, 180)' fill-opacity = '0.250000' points = '461.8,476.2 461.8,662.4 463.7,662.4 463.7,477.4 '/>
		<polygon fill = 'rgb( 31, 120, 180)' fill-opacity = '0.250000' points = '463.7,477.4 463.7,662.4 465.5,662.4 465.5,478.1 '/>
		<polygon fill = 'rgb( 31, 120, 180)' fill-opacity = '0.250000' points = '465.5,478.1 465.5,662.4 467.4,662.4 467.4,478.3 '/>
		<polygon fill = 'rgb( 31, 120, 180)' fill-opacity = '0.250000' points = '467.4,478.3 467.4,662.4 469.3,662.4 469.3,477.8 '/>
		<polygon fill = 'rgb( 31, 120, 180)' fill-opacity = '0.250000' points = '469.3,477.8 469.3,662.4 471.1,662.4 471.1,476.6 '/>
		<polygon fill = 'rgb( 31, 120, 180)' fill-opacity = '0.250000' points = '471.1,476.6 471.1,662.4 473.0,662.4 473.0,474.7 '/>
		<polygon fill = 'rgb( 31, 120, 180)' fill-opacity = '0.250000' points = '473.0,474.7 473.0,662.4 474.9,662.4 474.9,471.9 '/>
		<polygon fill = 'rgb( 31, 120, 180)' fill-opacity = '0.250000' points = '474.9,471.9 474.9,662.4 476.8,662.4 476.8,468.4 '/>
		<polygon fill = 'rgb( 31, 120, 180)' fill-opacity = '0.250000' points = '476.8,468.4 476.8,662.4 478.6,662.4 478.6,464.0 '/>
		<polygon fill = 'rgb( 31, 120, 180)' fill-opacity = '0.250000' points = '478.6,464.0 478.6,662.4 480.5,662.4 480.5,458.8 '/>
		<polygon fill = 'rgb( 31, 120, 180)' fill-opacity = '0.250000' points = '480.5,458.8 480.5,662.4 482.4,662.4 482.4,452.6 '/>
		<polygon fill = 'rgb( 31, 120, 180)' fill-opacity = '0.250000' points = '482.4,452.6 482.4,662.4 484.2,662.4 484.2,445.6 '/>
		<polygon fill = 'rgb( 31, 120, 180)' fill-opacity = '0.250000' points = '484.2,445.6 484.2,662.4 486.1,662.4 486.1,437.7 '/>
		<polygon fill = 'rgb( 31, 120, 180)' fill-opacity = '0.250000' points = '486.1,437.7 486.1,662.4 488.0,662.4 488.0,428.8 '/>
		<polygon fill = 'rgb( 31, 120, 180)' fill-opacity = '0.250000' points = '488.0,428.8 488.0,662.4 489.8,662.4 489.8,419.1 '/>
		<polygon fill = 'rgb( 31, 120, 180)' fill-opacity = '0.250000' points = '489.8,419.1 489.8,662.4 491.7,662.4 491.7,408.6 '/>
		<polygon fill = 'rgb( 31, 120, 180)' fill-opacity = '0.250000' points = '491.7,408.6 491.7,662.4 493.6,662.4 493.6,397.2 '/>
		<polygon fill = 'rgb( 31, 120, 180)' fill-opacity = '0.250000' points = '493.6,397.2 493.6,662.4 495.5,662.4 495.5,385.1 '/>
		<polygon fill = 'rgb( 31, 120, 180)' fill-opacity = '0.250000' points = '495.5,385.1 495.5,662.4 497.3,662.4 497.3,372.3 '/>
		<polygon fill = 'rgb( 31, 120, 180)' fill-opacity = '0.250000' points = '497.3,372.3 497.3,662.4 499.2,662.4 499.2,358.8 '/>
		<polygon fill = 'rgb( 31, 120, 180)' fill-opacity = '0.250000' points = '499.2,358.8 499.2,662.4 501.1,662.4 501.1,344.7 '/>
		<polygon fill = 'rgb( 31, 120, 180)' fill-opacity = '0.250000' points = '501.1,344.7 501.1,662.4 502.9,662.4 502.9,330.1 '/>
		<polygon fill = 'rgb( 31, 120, 180)' fill-opacity = '0.250000' points = '502.9,330.1 502.9,662.4 504.8,662.4 504.8,315.2 '/>
		<polygon fill = 'rgb( 31, 120, 180)' fill-opacity = '0.250000' points = '504.8,315.2 504.8,662.4 506.7,662.4 506.7,299.9 '/>
		<polygon fill = 'rgb( 31, 120, 180)' fill-opacity = '0.250000' points = '506.7,299.9 506.7,662.4 508.6,662.4 508.6,284.3 '/>
		<polygon fill = 'rgb( 31, 120, 180)' fill-opacity = '0.250000' points = '508.6,284.3 508.6,662.4 510.4,662.4 510.4,268.7 '/>
		<polygon fill = 'rgb( 31, 120, 180)' fill-opacity = '0.250000' points = '510.4,268.7 510.4,662.4 512.3,662.4 512.3,253.0 '/>
		<polygon fill = 'rgb( 31, 120, 180)' fill-opacity = '0.250000' points = '512.3,253.0 512.3,662.4 514.2,662.4 514.2,237.4 '/>
		<polygon fill = 'rgb( 31, 120, 180)' fill-opacity = '0.250000' points = '514.2,237.4 514.2,662.4 516.0,662.4 516.0,222.1 '/>
		<polygon fill = 'rgb( 31, 120, 180)' fill-opacity = '0.250000' points = '516.0,222.1 516.0,662.4 517.9,662.4 517.9,207.0 '/>
		<polygon fill = 'rgb( 31, 120, 180)' fill-opacity = '0.250000' points = '517.9,207.0 517.9,662.4 519.8,662.4 519.8,192.4 '/>
		<polygon fill = 'rgb( 31, 120, 180)' fill-opacity = '0.250000' points = '519.8,192.4 519.8,662.4 521.6,662.4 521.6,178.3 '/>
		<polygon fill = 'rgb( 31, 120, 180)' fill-opacity = '0.250000' points = '521.6,178.3 521.6,662.4 523.5,662.4 523.5,164.8 '/>
		<polygon fill = 'rgb( 31, 120, 180)' fill-opacity = '0.250000' points = '523.5,164.8 523.5,662.4 525.4,662.4 525.4,152.0 '/>
		<polygon fill = 'rgb( 31, 120, 180)' fill-opacity = '0.250000' points = '525.4,152.0 525.4,662.4 527.3,662.4 527.3,140.0 '/>
		<polygon fill = 'rgb( 31, 120, 180)' fill-opacity = '0.250000' points = '527.3,140.0 527.3,662.4 529.1,662.4 529.1,128.8 '/>
		<polygon fill = 'rgb( 31, 120, 180)' fill-opacity = '0.250000' points = '529.1,128.8 529.1,662.4 531.0,662.4 531.0,118.6 '/>
		<polygon fill = 'rgb( 31, 120, 180)' fill-opacity = '0.250000' points = '531.0,118.6 531.0,662.4 532.9,662.4 532.9,109.3 '/>
		<polygon fill = 'rgb( 31, 120, 180)' fill-opacity = '0.250000' points = '532.9,109.3 532.9,662.4 534.7,662.4 534.7,101.0 '/>
		<polygon fill = 'rgb( 31, 120, 180)' fill-opacity = '0.250000' points = '534.7,101.0 534.7,662.4 536.6,662.4 536.6,93.6 '/>
		<polygon fill = 'rgb( 31, 120, 180)' fill-opacity = '0.250000' points = '536.6,93.6 536.6,662.4 538.5,662.4 538.5,87.3 '/>
		<polygon fill = 'rgb( 31, 120, 180)' fill-opacity = '0.250000' points = '538.5,87.3 538.5,662.4 540.4,662.4 540.4,81.9 '/>
		<polygon fill = 'rgb( 31, 120, 180)' fill-opacity = '0.250000' points = '540.4,81.9 540.4,662.4 542.2,662.4 542.2,77.5 '/>
		<polygon fill = 'rgb( 31, 120, 180)' fill-opacity = '0.250000' points = '542.2,77.5 542.2,662.4 544.1,662.4 544.1,74.0 '/>
		<polygon fill = 'rgb( 31, 120, 180)' fill-opacity = '0.250000' points = '544.1,74.0 544.1,662.4 546.0,662.4 546.0,71.3 '/>
		<polygon fill = 'rgb( 31, 120, 180)' fill-opacity = '0.250000' points = '546.0,71.3 546.0,662.4 547.8,662.4 547.8,69.4 '/>
		<polygon fill = 'rgb( 31, 120, 180)' fill-opacity = '0.250000' points = '547.8,69.4 547.8,662.4 549.7,662.4 549.7,68.2 '/>
		<polygon fill = 'rgb( 31, 120, 180)' fill-opacity = '0.250000' points = '549.7,68.2 549.7,662.4 551.6,662.4 551.6,67.7 '/>
		<polygon fill = 'rgb( 31, 120, 180)' fill-opacity = '0.250000' points = '551.6,67.7 551.6,662.4 553.4,662.4 553.4,67.7 '/>
		<polygon fill = 'rgb( 31, 120, 180)' fill-opacity = '0.250000' points = '553.4,67.7 553.4,662.4 555.3,662.4 555.3,68.1 '/>
		<polygon fill = 'rgb( 31, 120, 180)' fill-opacity = '0.250000' points = '555.3,68.1 555.3,662.4 557.2,662.4 557.2,68.8 '/>
		<polygon fill = 'rgb( 31, 120, 180)' fill-opacity = '0.250000' points = '557.2,68.8 557.2,662.4 559.1,662.4 559.1,69.9 '/>
		<polygon fill = 'rgb( 31, 120, 180)' fill-opacity = '0.250000' points = '559.1,69.9 559.1,662.4 560.9,662.4 560.9,71.0 '/>
		<polygon fill = 'rgb( 31, 120, 180)' fill-opacity = '0.250000' points = '560.9,71.0 560.9,662.4 562.8,662.4 562.8,72.3 '/>
		<polygon fill = 'rgb( 31, 120, 180)' fill-opacity = '0.250000' points = '562.8,72.3 562.8,662.4 564.7,662.4 564.7,73.5 '/>
		<polygon fill = 'rgb( 31, 120, 180)' fill-opacity = '0.250000' points = '564.7,73.5 564.7,662.4 566.5,662.4 566.5,74.7 '/>
		<polygon fill = 'rgb( 31, 120, 180)' fill-opacity = '0.250000' points = '566.5,74.7 566.5,662.4 568.4,662.4 568.4,75.8 '/>
		<polygon fill = 'rgb( 31, 120, 180)' fill-opacity = '0.250000' points = '568.4,75.8 568.4,662.4 570.3,662.4 570.3,76.7 '/>
		<polygon fill = 'rgb( 31, 120, 180)' fill-opacity = '0.250000' points = '570.3,76.7 570.3,662.4 572.2,662.4 572.2,77.3 '/>
		<polygon fill = 'rgb( 31, 120, 180)' fill-opacity = '0.250000' points = '572.2,77.3 572.2,662.4 574.0,662.4 574.0,77.8 '/>
		<polygon fill = 'rgb( 31, 120, 180)' fill-opacity = '0.250000' points = '574.0,77.8 574.0,662.4 575.9,662.4 575.9,78.0 '/>
		<polygon fill = 'rgb( 31, 120, 180)' fill-opacity = '0.250000' points = '575.9,78.0 575.9,662.4 577.8,662.4 577.8,78.0 '/>
		<polygon fill = 'rgb( 31, 120, 180)' fill-opacity = '0.250000' points = '577.8,78.0 577.8,662.4 579.6,662.4 579.6,77.8 '/>
		<polygon fill = 'rgb( 31, 120, 180)' fill-opacity = '0.250000' points = '579.6,77.8 579.6,662.4 581.5,662.4 581.5,77.4 '/>
		<polygon fill = 'rgb( 31, 120, 180)' fill-opacity = '0.250000' points = '581.5,77.4 581.5,662.4 583.4,662.4 583.4,76.9 '/>
		<polygon fill = 'rgb( 31, 120, 180)' fill-opacity = '0.250000' points = '583.4,76.9 583.4,662.4 585.2,662.4 585.2,76.3 '/>
		<polygon fill = 'rgb( 31, 120, 180)' fill-opacity = '0.250000' points = '585.2,76.3 585.2,662.4 587.1,662.4 587.1,75.6 '/>
		<polygon fill = 'rgb( 31, 120, 180)' fill-opacity = '0.250000' points = '587.1,75.6 587.1,662.4 589.0,662.4 589.0,75.1 '/>
		<polygon fill = 'rgb( 31, 120, 180)' fill-opacity = '0.250000' points = '589.0,75.1 589.0,662.4 590.9,662.4 590.9,74.6 '/>
		<polygon fill = 'rgb( 31, 120, 180)' fill-opacity = '0.250000' points = '590.9,74.6 590.9,662.4 592.7,662.4 592.7,74.3 '/>
		<polygon fill = 'rgb( 31, 120, 180)' fill-opacity = '0.250000' points = '592.7,74.3 592.7,662.4 594.6,662.4 594.6,74.3 '/>
		<polygon fill = 'rgb( 31, 120, 180)' fill-opacity = '0.250000' points = '594.6,74.3 594.6,662.4 596.5,662.4 596.5,74.7 '/>
		<polygon fill = 'rgb( 31, 120, 180)' fill-opacity = '0.250000' points = '596.5,74.7 596.5,662.4 598.3,662.4 598.3,75.4 '/>
		<polygon fill = 'rgb( 31, 120, 180)' fill-opacity = '0.250000' points = '598.3,75.4 598.3,662.4 600.2,662.4 600.2,76.6 '/>
		<polygon fill = 'rgb( 31, 120, 180)' fill-opacity = '0.250000' points = '600.2,76.6 600.2,662.4 602.1,662.4 602.1,78.3 '/>
		<polygon fill = 'rgb( 31, 120, 180)' fill-opacity = '0.250000' points = '602.1,78.3 602.1,662.4 604.0,662.4 604.0,80.6 '/>
		<polygon fill = 'rgb( 31, 120, 180)' fill-opacity = '0.250000' points = '604.0,80.6 604.0,662.4 605.8,662.4 605.8,83.5 '/>
		<polygon fill = 'rgb( 31, 120, 180)' fill-opacity = '0.250000' points = '605.8,83.5 605.8,662.4 607.7,662.4 607.7,87.0 '/>
		<polygon fill = 'rgb( 31, 120, 180)' fill-opacity = '0.250000' points = '607.7,87.0 607.7,662.4 609.6,662.4 609.6,91.2 '/>
		<polygon fill = 'rgb( 31, 120, 180)' fill-opacity = '0.250000' points = '609.6,91.2 609.6,662.4 611.4,662.4 611.4,96.1 '/>
		<polygon fill = 'rgb( 31, 120, 180)' fill-opacity = '0.250000' points = '611.4,96.1 611.4,662.4 613.3,662.4 613.3,101.6 '/>
		<polygon fill = 'rgb( 31, 120, 180)' fill-opacity = '0.250000' points = '613.3,101.6 613.3,662.4 615.2,662.4 615.2,107.8 '/>
		<polygon fill = 'rgb( 31, 120, 180)' fill-opacity = '0.250000' points = '615.2,107.8 615.2,662.4 617.0,662.4 617.0,114.6 '/>
		<polygon fill = 'rgb( 31, 120, 180)' fill-opacity = '0.250000' points = '617.0,114.6 617.0,662.4 618.9,662.4 618.9,121.9 '/>
		<polygon fill = 'rgb( 31, 120, 180)' fill-opacity = '0.250000' points = '618.9,121.9 618.9,662.4 620.8,662.4 620.8,129.9 '/>
		<polygon fill = 'rgb( 31, 120, 180)' fill-opacity = '0.250000' points = '620.8,129.9 620.8,662.4 622.7,662.4 622.7,138.3 '/>
		<polygon fill = 'rgb( 31, 120, 180)' fill-opacity = '0.250000' points = '622.7,138.3 622.7,662.4 624.5,662.4 624.5,147.2 '/>
		<polygon fill = 'rgb( 31, 120, 180)' fill-opacity = '0.250000' points = '624.5,147.2 624.5,662.4 626.4,662.4 626.4,156.5 '/>
		<polygon fill = 'rgb( 31, 120, 180)' fill-opacity = '0.250000' points = '626.4,156.5 626.4,662.4 628.3,662.4 628.3,166.2 '/>
		<polygon fill = 'rgb( 31, 120, 180)' fill-opacity = '0.250000' points = '628.3,166.2 628.3,662.4 630.1,662.4 630.1,176.1 '/>
		<polygon fill = 'rgb( 31, 120, 180)' fill-opacity = '0.250000' points = '630.1,176.1 630.1,662.4 632.0,662.4 632.0,186.2 '/>
		<polygon fill = 'rgb( 31, 120, 180)' fill-opacity = '0.250000' points = '632.0,186.2 632.0,662.4 633.9,662.4 633.9,196.4 '/>
		<polygon fill = 'rgb( 31, 120, 180)' fill-opacity = '0.250000' points = '633.9,196.4 633.9,662.4 635.8,662.4 635.8,206.7 '/>
		<polygon fill = 'rgb( 31, 120, 180)' fill-opacity = '0.250000' points = '635.8,206.7 635.8,662.4 637.6,662.4 637.6,217.1 '/>
		<polygon fill = 'rgb( 31, 120, 180)' fill-opacity = '0.250000' points = '637.6,217.1 637.6,662.4 639.5,662.4 639.5,227.3 '/>
		<polygon fill = 'rgb( 31, 120, 180)' fill-opacity = '0.250000' points = '639.5,227.3 639.5,662.4 641.4,662.4 641.4,237.5 '/>
		<polygon fill = 'rgb( 31, 120, 180)' fill-opacity = '0.250000' points = '641.4,237.5 641.4,662.4 643.2,662.4 643.2,247.6 '/>
		<polygon fill = 'rgb( 31, 120, 180)' fill-opacity = '0.250000' points = '643.2,247.6 643.2,662.4 645.1,662.4 645.1,257.4 '/>
		<polygon fill = 'rgb( 31, 120, 180)' fill-opacity = '0.250000' points = '645.1,257.4 645.1,662.4 647.0,662.4 647.0,267.1 '/>
		<polygon fill = 'rgb( 31, 120, 180)' fill-opacity = '0.250000' points = '647.0,267.1 647.0,662.4 648.8,662.4 648.8,276.4 '/>
		<polygon fill = 'rgb( 31, 120, 180)' fill-opacity = '0.250000' points = '648.8,276.4 648.8,662.4 650.7,662.4 650.7,285.5 '/>
		<polygon fill = 'rgb( 31, 120, 180)' fill-opacity = '0.250000' points = '650.7,285.5 650.7,662.4 652.6,662.4 652.6,294.2 '/>
		<polygon fill = 'rgb( 31, 120, 180)' fill-opacity = '0.250000' points = '652.6,294.2 652.6,662.4 654.5,662.4 654.5,302.6 '/>
		<polygon fill = 'rgb( 31, 120, 180)' fill-opacity = '0.250000' points = '654.5,302.6 654.5,662.4 656.3,662.4 656.3,310.6 '/>
		<polygon fill = 'rgb( 31, 120, 180)' fill-opacity = '0.250000' points = '656.3,310.6 656.3,662.4 658.2,662.4 658.2,318.3 '/>
		<polygon fill = 'rgb( 31, 120, 180)' fill-opacity = '0.250000' points = '658.2,318.3 658.2,662.4 660.1,662.4 660.1,325.5 '/>
		<polygon fill = 'rgb( 31, 120, 180)' fill-opacity = '0.250000' points = '660.1,325.5 660.1,662.4 661.9,662.4 661.9,332.3 '/>
		<polygon fill = 'rgb( 31, 120, 180)' fill-opacity = '0.250000' points = '661.9,332.3 661.9,662.4 663.8,662.4 663.8,338.8 '/>
		<polygon fill = 'rgb( 31, 120, 180)' fill-opacity = '0.250000' points = '663.8,338.8 663.8,662.4 665.7,662.4 665.7,344.7 '/>
		<polygon fill = 'rgb( 31, 120, 180)' fill-opacity = '0.250000' points = '665.7,344.7 665.7,662.4 667.5,662.4 667.5,350.3 '/>
		<polygon fill = 'rgb( 31, 120, 180)' fill-opacity = '0.250000' points = '667.5,350.3 667.5,662.4 669.4,662.4 669.4,355.4 '/>
		<polygon fill = 'rgb( 31, 120, 180)' fill-opacity = '0.250000' points = '669.4,355.4 669.4,662.4 671.3,662.4 671.3,360.0 '/>
		<polygon fill = 'rgb( 31, 120, 180)' fill-opacity = '0.250000' points = '671.3,360.0 671.3,662.4 673.2,662.4 673.2,364.2 '/>
		<polygon fill = 'rgb( 31, 120, 180)' fill-opacity = '0.250000' points = '673.2,364.2 673.2,662.4 675.0,662.4 675.0,367.9 '/>
		<polygon fill = 'rgb( 31, 120, 180)' fill-opacity = '0.250000' points = '675.0,367.9 675.0,662.4 676.9,662.4 676.9,371.1 '/>
		<polygon fill = 'rgb( 31, 120, 180)' fill-opacity = '0.250000' points = '676.9,371.1 676.9,662.4 678.8,662.4 678.8,373.8 '/>
		<polygon fill = 'rgb( 31, 120, 180)' fill-opacity = '0.250000' points = '678.8,373.8 678.8,662.4 680.6,662.4 680.6,376.1 '/>
		<polygon fill = 'rgb( 31, 120, 180)' fill-opacity = '0.250000' points = '680.6,376.1 680.6,662.4 682.5,662.4 682.5,377.8 '/>
		<polygon fill = 'rgb( 31, 120, 180)' fill-opacity = '0.250000' points = '682.5,377.8 682.5,662.4 684.4,662.4 684.4,378.9 '/>
		<polygon fill = 'rgb( 31, 120, 180)' fill-opacity = '0.250000' points = '684.4,378.9 684.4,662.4 686.3,662.4 686.3,379.6 '/>
		<polygon fill = 'rgb( 31, 120, 180)' fill-opacity = '0.250000' points = '686.3,379.6 686.3,662.4 688.1,662.4 688.1,379.7 '/>
		<polygon fill = 'rgb( 31, 120, 180)' fill-opacity = '0.250000' points = '688.1,379.7 688.1,662.4 690.0,662.4 690.0,379.3 '/>
		<polygon fill = 'rgb( 31, 120, 180)' fill-opacity = '0.250000' points = '690.0,379.3 690.0,662.4 691.9,662.4 691.9,378.4 '/>
		<polygon fill = 'rgb( 31, 120, 180)' fill-opacity = '0.250000' points = '691.9,378.4 691.9,662.4 693.7,662.4 693.7,377.0 '/>
		<polygon fill = 'rgb( 31, 120, 180)' fill-opacity = '0.250000' points = '693.7,377.0 693.7,662.4 695.6,662.4 695.6,375.0 '/>
		<polygon fill = 'rgb( 31, 120, 180)' fill-opacity = '0.250000' points = '695.6,375.0 695.6,662.4 697.5,662.4 697.5,372.5 '/>
		<polygon fill = 'rgb( 31, 120, 180)' fill-opacity = '0.250000' points = '697.5,372.5 697.5,662.4 699.3,662.4 699.3,369.6 '/>
		<polygon fill = 'rgb( 31, 120, 180)' fill-opacity = '0.250000' points = '699.3,369.6 699.3,662.4 701.2,662.4 701.2,366.1 '/>
		<polygon fill = 'rgb( 31, 120, 180)' fill-opacity = '0.250000' points = '701.2,366.1 701.2,662.4 703.1,662.4 703.1,362.2 '/>
		<polygon fill = 'rgb( 31, 120, 180)' fill-opacity = '0.250000' points = '703.1,362.2 703.1,662.4 705.0,662.4 705.0,357.9 '/>
		<polygon fill = 'rgb( 31, 120, 180)' fill-opacity = '0.250000' points = '705.0,357.9 705.0,662.4 706.8,662.4 706.8,353.1 '/>
		<polygon fill = 'rgb( 31, 120, 180)' fill-opacity = '0.250000' points = '706.8,353.1 706.8,662.4 708.7,662.4 708.7,348.0 '/>
		<polygon fill = 'rgb( 31, 120, 180)' fill-opacity = '0.250000' points = '708.7,348.0 708.7,662.4 710.6,662.4 710.6,342.6 '/>
		<polygon fill = 'rgb( 31, 120, 180)' fill-opacity = '0.250000' points = '710.6,342.6 710.6,662.4 712.4,662.4 712.4,336.9 '/>
		<polygon fill = 'rgb( 31, 120, 180)' fill-opacity = '0.250000' points = '712.4,336.9 712.4,662.4 714.3,662.4 714.3,330.9 '/>
		<polygon fill = 'rgb( 31, 120, 180)' fill-opacity = '0.250000' points = '714.3,330.9 714.3,662.4 716.2,662.4 716.2,324.8 '/>
		<polygon fill = 'rgb( 31, 120, 180)' fill-opacity = '0.250000' points = '716.2,324.8 716.2,662.4 718.1,662.4 718.1,318.4 '/>
		<polygon fill = 'rgb( 31, 120, 180)' fill-opacity = '0.250000' points = '718.1,318.4 718.1,662.4 719.9,662.4 719.9,312.0 '/>
		<polygon fill = 'rgb( 31, 120, 180)' fill-opacity = '0.250000' points = '719.9,312.0 719.9,662.4 721.8,662.4 721.8,305.6 '/>
		<polygon fill = 'rgb( 31, 120, 180)' fill-opacity = '0.250000' points = '721.8,305.6 721.8,662.4 723.7,662.4 723.7,299.1 '/>
		<polygon fill = 'rgb( 31, 120, 180)' fill-opacity = '0.250000' points = '723.7,299.1 723.7,662.4 725.5,662.4 725.5,292.7 '/>
		<polygon fill = 'rgb( 31, 120, 180)' fill-opacity = '0.250000' points = '725.5,292.7 725.5,662.4 727.4,662.4 727.4,286.4 '/>
		<polygon fill = 'rgb( 31, 120, 180)' fill-opacity = '0.250000' points = '727.4,286.4 727.4,662.4 729.3,662.4 729.3,280.2 '/>
		<polygon fill = 'rgb( 31, 120, 180)' fill-opacity = '0.250000' points = '729.3,280.2 729.3,662.4 731.1,662.4 731.1,274.3 '/>
		<polygon fill = 'rgb( 31, 120, 180)' fill-opacity = '0.250000' points = '731.1,274.3 731.1,662.4 733.0,662.4 733.0,268.7 '/>
		<polygon fill = 'rgb( 31, 120, 180)' fill-opacity = '0.250000' points = '733.0,268.7 733.0,662.4 734.9,662.4 734.9,263.3 '/>
		<polygon fill = 'rgb( 31, 120, 180)' fill-opacity = '0.250000' points = '734.9,263.3 734.9,662.4 736.8,662.4 736.8,258.3 '/>
		<polygon fill = 'rgb( 31, 120, 180)' fill-opacity = '0.250000' points = '736.8,258.3 736.8,662.4 738.6,662.4 738.6,253.7 '/>
		<polygon fill = 'rgb( 31, 120, 180)' fill-opacity = '0.250000' points = '738.6,253.7 738.6,662.4 740.5,662.4 740.5,249.5 '/>
		<polygon fill = 'rgb( 31, 120, 180)' fill-opacity = '0.250000' points = '740.5,249.5 740.5,662.4 742.4,662.4 742.4,245.7 '/>
		<polygon fill = 'rgb( 31, 120, 180)' fill-opacity = '0.250000' points = '742.4,245.7 742.4,662.4 744.2,662.4 744.2,242.5 '/>
		<polygon fill = 'rgb( 31, 120, 180)' fill-opacity = '0.250000' points = '744.2,242.5 744.2,662.4 746.1,662.4 746.1,239.7 '/>
		<polygon fill = 'rgb( 31, 120, 180)' fill-opacity = '0.250000' points = '746.1,239.7 746.1,662.4 748.0,662.4 748.0,237.5 '/>
		<polygon fill = 'rgb( 31, 120, 180)' fill-opacity = '0.250000' points = '748.0,237.5 748.0,662.4 749.9,662.4 749.9,235.8 '/>
		<polygon fill = 'rgb( 31, 120, 180)' fill-opacity = '0.250000' points = '749.9,235.8 749.9,662.4 751.7,662.4 751.7,234.7 '/>
		<polygon fill = 'rgb( 31, 120, 180)' fill-opacity = '0.250000' points = '751.7,234.7 751.7,662.4 753.6,662.4 753.6,234.1 '/>
		<polygon fill = 'rgb( 31, 120, 180)' fill-opacity = '0.250000' points = '753.6,234.1 753.6,662.4 755.5,662.4 755.5,234.1 '/>
		<polygon fill = 'rgb( 31, 120, 180)' fill-opacity = '0.250000' points = '755.5,234.1 755.5,662.4 757.3,662.4 757.3,234.7 '/>
		<polygon fill = 'rgb( 31, 120, 180)' fill-opacity = '0.250000' points = '757.3,234.7 757.3,662.4 759.2,662.4 759.2,235.8 '/>
		<polygon fill = 'rgb( 31, 120, 180)' fill-opacity = '0.250000' points = '759.2,235.8 759.2,662.4 761.1,662.4 761.1,237.5 '/>
		<polygon fill = 'rgb( 31, 120, 180)' fill-opacity = '0.250000' points = '761.1,237.5 761.1,662.4 762.9,662.4 762.9,239.7 '/>
		<polygon fill = 'rgb( 31, 120, 180)' fill-opacity = '0.250000' points = '762.9,239.7 762.9,662.4 764.8,662.4 764.8,242.4 '/>
		<polygon fill = 'rgb( 31, 120, 180)' fill-opacity = '0.250000' points = '764.8,242.4 764.8,662.4 766.7,662.4 766.7,245.6 '/>
		<polygon fill = 'rgb( 31, 120, 180)' fill-opacity = '0.250000' points = '766.7,245.6 766.7,662.4 768.6,662.4 768.6,249.3 '/>
		<polygon fill = 'rgb( 31, 120, 180)' fill-opacity = '0.250000' points = '768.6,249.3 768.6,662.4 770.4,662.4 770.4,253.4 '/>
		<polygon fill = 'rgb( 31, 120, 180)' fill-opacity = '0.250000' points = '770.4,253.4 770.4,662.4 772.3,662.4 772.3,258.0 '/>
		<polygon fill = 'rgb( 31, 120, 180)' fill-opacity = '0.250000' points = '772.3,258.0 772.3,662.4 774.2,662.4 774.2,263.0 '/>
		<polygon fill = 'rgb( 31, 120, 180)' fill-opacity = '0.250000' points = '774.2,263.0 774.2,662.4 776.0,662.4 776.0,268.3 '/>
		<polygon fill = 'rgb( 31, 120, 180)' fill-opacity = '0.250000' points = '776.0,268.3 776.0,662.4 777.9,662.4 777.9,274.0 '/>
		<polygon fill = 'rgb( 31, 120, 180)' fill-opacity = '0.250000' points = '777.9,274.0 777.9,662.4 779.8,662.4 779.8,280.0 '/>
		<polygon fill = 'rgb( 31, 120, 180)' fill-opacity = '0.250000' points = '779.8,280.0 779.8,662.4 781.7,662.4 781.7,286.3 '/>
		<polygon fill = 'rgb( 31, 120, 180)' fill-opacity = '0.250000' points = '781.7,286.3 781.7,662.4 783.5,662.4 783.5,292.9 '/>
		<polygon fill = 'rgb( 31, 120, 180)' fill-opacity = '0.250000' points = '783.5,292.9 783.5,662.4 785.4,662.4 785.4,299.7 '/>
		<polygon fill = 'rgb( 31, 120, 180)' fill-opacity = '0.250000' points = '785.4,299.7 785.4,662.4 787.3,662.4 787.3,306.7 '/>
		<polygon fill = 'rgb( 31, 120, 180)' fill-opacity = '0.250000' points = '787.3,306.7 787.3,662.4 789.1,662.4 789.1,313.9 '/>
		<polygon fill = 'rgb( 31, 120, 180)' fill-opacity = '0.250000' points = '789.1,313.9 789.1,662.4 791.0,662.4 791.0,321.2 '/>
		<polygon fill = 'rgb( 31, 120, 180)' fill-opacity = '0.250000' points = '791.0,321.2 791.0,662.4 792.9,662.4 792.9,328.7 '/>
		<polygon fill = 'rgb( 31, 120, 180)' fill-opacity = '0.250000' points = '792.9,328.7 792.9,662.4 794.7,662.4 794.7,336.2 '/>
		<polygon fill = 'rgb( 31, 120, 180)' fill-opacity = '0.250000' points = '794.7,336.2 794.7,662.4 796.6,662.4 796.6,343.8 '/>
		<polygon fill = 'rgb( 31, 120, 180)' fill-opacity = '0.250000' points = '796.6,343.8 796.6,662.4 798.5,662.4 798.5,351.5 '/>
		<polygon fill = 'rgb( 31, 120, 180)' fill-opacity = '0.250000' points = '798.5,351.5 798.5,662.4 800.4,662.4 800.4,359.1 '/>
		<polygon fill = 'rgb( 31, 120, 180)' fill-opacity = '0.250000' points = '800.4,359.1 800.4,662.4 802.2,662.4 802.2,366.8 '/>
		<polygon fill = 'rgb( 31, 120, 180)' fill-opacity = '0.250000' points = '802.2,366.8 802.2,662.4 804.1,662.4 804.1,374.4 '/>
		<polygon fill = 'rgb( 31, 120, 180)' fill-opacity = '0.250000' points = '804.1,374.4 804.1,662.4 806.0,662.4 806.0,381.9 '/>
		<polygon fill = 'rgb( 31, 120, 180)' fill-opacity = '0.250000' points = '806.0,381.9 806.0,662.4 807.8,662.4 807.8,389.3 '/>
		<polygon fill = 'rgb( 31, 120, 180)' fill-opacity = '0.250000' points = '807.8,389.3 807.8,662.4 809.7,662.4 809.7,396.7 '/>
		<polygon fill = 'rgb( 31, 120, 180)' fill-opacity = '0.250000' points = '809.7,396.7 809.7,662.4 811.6,662.4 811.6,403.8 '/>
		<polygon fill = 'rgb( 31, 120, 180)' fill-opacity = '0.250000' points = '811.6,403.8 811.6,662.4 813.5,662.4 813.5,410.9 '/>
		<polygon fill = 'rgb( 31, 120, 180)' fill-opacity = '0.250000' points = '813.5,410.9 813.5,662.4 815.3,662.4 815.3,417.7 '/>
		<polygon fill = 'rgb( 31, 120, 180)' fill-opacity = '0.250000' points = '815.3,417.7 815.3,662.4 817.2,662.4 817.2,424.4 '/>
		<polygon fill = 'rgb( 31, 120, 180)' fill-opacity = '0.250000' points = '817.2,424.4 817.2,662.4 819.1,662.4 819.1,430.8 '/>
		<polygon fill = 'rgb( 31, 120, 180)' fill-opacity = '0.250000' points = '819.1,430.8 819.1,662.4 820.9,662.4 820.9,437.0 '/>
		<polygon fill = 'rgb( 31, 120, 180)' fill-opacity = '0.250000' points = '820.9,437.0 820.9,662.4 822.8,662.4 822.8,442.9 '/>
		<polygon fill = 'rgb( 31, 120, 180)' fill-opacity = '0.250000' points = '822.8,442.9 822.8,662.4 824.7,662.4 824.7,448.6 '/>
		<polygon fill = 'rgb( 31, 120, 180)' fill-opacity = '0.250000' points = '824.7,448.6 824.7,662.4 826.5,662.4 826.5,454.0 '/>
		<polygon fill = 'rgb( 31, 120, 180)' fill-opacity = '0.250000' points = '826.5,454.0 826.5,662.4 828.4,662.4 828.4,459.2 '/>
		<polygon fill = 'rgb( 31, 120, 180)' fill-opacity = '0.250000' points = '828.4,459.2 828.4,662.4 830.3,662.4 830.3,464.0 '/>
		<polygon fill = 'rgb( 31, 120, 180)' fill-opacity = '0.250000' points = '830.3,464.0 830.3,662.4 832.2,662.4 832.2,468.5 '/>
		<polygon fill = 'rgb( 31, 120, 180)' fill-opacity = '0.250000' points = '832.2,468.5 832.2,662.4 834.0,662.4 834.0,472.8 '/>
		<polygon fill = 'rgb( 31, 120, 180)' fill-opacity = '0.250000' points = '834.0,472.8 834.0,662.4 835.9,662.4 835.9,476.7 '/>
		<polygon fill = 'rgb( 31, 120, 180)' fill-opacity = '0.250000' points = '835.9,476.7 835.9,662.4 837.8,662.4 837.8,480.3 '/>
		<polygon fill = 'rgb( 31, 120, 180)' fill-opacity = '0.250000' points = '837.8,480.3 837.8,662.4 839.6,662.4 839.6,483.6 '/>
		<polygon fill = 'rgb( 31, 120, 180)' fill-opacity = '0.250000' points = '839.6,483.6 839.6,662.4 841.5,662.4 841.5,486.7 '/>
		<polygon fill = 'rgb( 31, 120, 180)' fill-opacity = '0.250000' points = '841.5,486.7 841.5,662.4 843.4,662.4 843.4,489.4 '/>
		<polygon fill = 'rgb( 31, 120, 180)' fill-opacity = '0.250000' points = '843.4,489.4 843.4,662.4 845.3,662.4 845.3,491.8 '/>
		<polygon fill = 'rgb( 31, 120, 180)' fill-opacity = '0.250000' points = '845.3,491.8 845.3,662.4 847.1,662.4 847.1,494.0 '/>
		<polygon fill = 'rgb( 31, 120, 180)' fill-opacity = '0.250000' points = '847.1,494.0 847.1,662.4 849.0,662.4 849.0,495.9 '/>
		<polygon fill = 'rgb( 31, 120, 180)' fill-opacity = '0.250000' points = '849.0,495.9 849.0,662.4 850.9,662.4 850.9,497.5 '/>
		<polygon fill = 'rgb( 31, 120, 180)' fill-opacity = '0.250000' points = '850.9,497.5 850.9,662.4 852.7,662.4 852.7,498.9 '/>
		<polygon fill = 'rgb( 31, 120, 180)' fill-opacity = '0.250000' points = '852.7,498.9 852.7,662.4 854.6,662.4 854.6,500.1 '/>
		<polygon fill = 'rgb( 31, 120, 180)' fill-opacity = '0.250000' points = '854.6,500.1 854.6,662.4 856.5,662.4 856.5,501.0 '/>
		<polygon fill = 'rgb( 31, 120, 180)' fill-opacity = '0.250000' points = '856.5,501.0 856.5,662.4 858.3,662.4 858.3,501.8 '/>
		<polygon fill = 'rgb( 31, 120, 180)' fill-opacity = '0.250000' points = '858.3,501.8 858.3,662.4 860.2,662.4 860.2,502.4 '/>
		<polygon fill = 'rgb( 31, 120, 180)' fill-opacity = '0.250000' points = '860.2,502.4 860.2,662.4 862.1,662.4 862.1,502.9 '/>
		<polygon fill = 'rgb( 31, 120, 180)' fill-opacity = '0.250000' points = '862.1,502.9 862.1,662.4 864.0,662.4 864.0,503.2 '/>
		<polygon fill = 'rgb( 31, 120, 180)' fill-opacity = '0.250000' points = '864.0,503.2 864.0,662.4 865.8,662.4 865.8,503.5 '/>
		<polygon fill = 'rgb( 31, 120, 180)' fill-opacity = '0.250000' points = '865.8,503.5 865.8,662.4 867.7,662.4 867.7,503.6 '/>
		<polygon fill = 'rgb( 31, 120, 180)' fill-opacity = '0.250000' points = '867.7,503.6 867.7,662.4 869.6,662.4 869.6,503.7 '/>
		<polygon fill = 'rgb( 31, 120, 180)' fill-opacity = '0.250000' points = '869.6,503.7 869.6,662.4 871.4,662.4 871.4,503.8 '/>
		<polygon fill = 'rgb( 31, 120, 180)' fill-opacity = '0.250000' points = '871.4,503.8 871.4,662.4 873.3,662.4 873.3,503.8 '/>
		<polygon fill = 'rgb( 31, 120, 180)' fill-opacity = '0.250000' points = '873.3,503.8 873.3,662.4 875.2,662.4 875.2,503.8 '/>
		<polygon fill = 'rgb( 31, 120, 180)' fill-opacity = '0.250000' points = '875.2,503.8 875.2,662.4 877.1,662.4 877.1,503.9 '/>
		<polygon fill = 'rgb( 31, 120, 180)' fill-opacity = '0.250000' points = '877.1,503.9 877.1,662.4 878.9,662.4 878.9,504.0 '/>
		<polygon fill = 'rgb( 31, 120, 180)' fill-opacity = '0.250000' points = '878.9,504.0 878.9,662.4 880.8,662.4 880.8,504.2 '/>
		<polygon fill = 'rgb( 31, 120, 180)' fill-opacity = '0.250000' points = '880.8,504.2 880.8,662.4 882.7,662.4 882.7,504.4 '/>
		<polygon fill = 'rgb( 31, 120, 180)' fill-opacity = '0.250000' points = '882.7,504.4 882.7,662.4 884.5,662.4 884.5,504.8 '/>
		<polygon fill = 'rgb( 31, 120, 180)' fill-opacity = '0.250000' points = '884.5,504.8 884.5,662.4 886.4,662.4 886.4,505.2 '/>
		<polygon fill = 'rgb( 31, 120, 180)' fill-opacity = '0.250000' points = '886.4,505.2 886.4,662.4 888.3,662.4 888.3,505.8 '/>
		<polygon fill = 'rgb( 31, 120, 180)' fill-opacity = '0.250000' points = '888.3,505.8 888.3,662.4 890.1,662.4 890.1,506.5 '/>
		<polygon fill = 'rgb( 31, 120, 180)' fill-opacity = '0.250000' points = '890.1,506.5 890.1,662.4 892.0,662.4 892.0,507.3 '/>
		<polygon fill = 'rgb( 31, 120, 180)' fill-opacity = '0.250000' points = '892.0,507.3 892.0,662.4 893.9,662.4 893.9,508.4 '/>
		<polygon fill = 'rgb( 31, 120, 180)' fill-opacity = '0.250000' points = '893.9,508.4 893.9,662.4 895.8,662.4 895.8,509.5 '/>
		<polygon fill = 'rgb( 31, 120, 180)' fill-opacity = '0.250000' points = '895.8,509.5 895.8,662.4 897.6,662.4 897.6,510.9 '/>
		<polygon fill = 'rgb( 31, 120, 180)' fill-opacity = '0.250000' points = '897.6,510.9 897.6,662.4 899.5,662.4 899.5,512.4 '/>
		<polygon fill = 'rgb( 31, 120, 180)' fill-opacity = '0.250000' points = '899.5,512.4 899.5,662.4 901.4,662.4 901.4,514.0 '/>
		<polygon fill = 'rgb( 31, 120, 180)' fill-opacity = '0.250000' points = '901.4,514.0 901.4,662.4 903.2,662.4 903.2,515.9 '/>
		<polygon fill = 'rgb( 31, 120, 180)' fill-opacity = '0.250000' points = '903.2,515.9 903.2,662.4 905.1,662.4 905.1,517.9 '/>
		<polygon fill = 'rgb( 31, 120, 180)' fill-opacity = '0.250000' points = '905.1,517.9 905.1,662.4 907.0,662.4 907.0,520.0 '/>
		<polygon fill = 'rgb( 31, 120, 180)' fill-opacity = '0.250000' points = '907.0,520.0 907.0,662.4 908.8,662.4 908.8,522.3 '/>
		<polygon fill = 'rgb( 31, 120, 180)' fill-opacity = '0.250000' points = '908.8,522.3 908.8,662.4 910.7,662.4 910.7,524.8 '/>
		<polygon fill = 'rgb( 31, 120, 180)' fill-opacity = '0.250000' points = '910.7,524.8 910.7,662.4 912.6,662.4 912.6,527.4 '/>
		<polygon fill = 'rgb( 31, 120, 180)' fill-opacity = '0.250000' points = '912.6,527.4 912.6,662.4 914.5,662.4 914.5,530.1 '/>
		<polygon fill = 'rgb( 31, 120, 180)' fill-opacity = '0.250000' points = '914.5,530.1 914.5,662.4 916.3,662.4 916.3,532.9 '/>
		<polygon fill = 'rgb( 31, 120, 180)' fill-opacity = '0.250000' points = '916.3,532.9 916.3,662.4 918.2,662.4 918.2,535.8 '/>
		<polygon fill = 'rgb( 31, 120, 180)' fill-opacity = '0.250000' points = '918.2,535.8 918.2,662.4 920.1,662.4 920.1,538.8 '/>
		<polygon fill = 'rgb( 31, 120, 180)' fill-opacity = '0.250000' points = '920.1,538.8 920.1,662.4 921.9,662.4 921.9,541.9 '/>
		<polygon fill = 'rgb( 31, 120, 180)' fill-opacity = '0.250000' points = '921.9,541.9 921.9,662.4 923.8,662.4 923.8,545.0 '/>
		<polygon fill = 'rgb( 31, 120, 180)' fill-opacity = '0.250000' points = '923.8,545.0 923.8,662.4 925.7,662.4 925.7,548.2 '/>
	</g>
</g>
	</g>
	<g id="gnuplot_plot_3" ><title>Point estimate</title>
<g fill="none" color="white" stroke="rgb( 31, 120, 180)" stroke-width="2.00" stroke-linecap="butt" stroke-linejoin="miter">
</g>
<g fill="none" color="black" stroke="currentColor" stroke-width="2.00" stroke-linecap="butt" stroke-linejoin="miter">
	<g transform="translate(1089.0,103.0)" stroke="none" fill="black" font-family="Helvetica" font-size="12.00"  text-anchor="start">
		<text><tspan font-family="Helvetica" >Point estimate</tspan></text>
	</g>
</g>
<g fill="none" color="black" stroke="currentColor" stroke-width="2.00" stroke-linecap="butt" stroke-linejoin="miter">
	<path stroke='rgb( 31, 120, 180)'  d='M1038.5,99.1 L1080.7,99.1 M601.1,662.4 L601.1,77.4  '/></g>
	</g>
<g fill="none" color="black" stroke="currentColor" stroke-width="2.00" stroke-linecap="butt" stroke-linejoin="miter">
</g>
<g fill="none" color="black" stroke="black" stroke-width="1.00" stroke-linecap="butt" stroke-linejoin="miter">
</g>
<g fill="none" color="black" stroke="currentColor" stroke-width="1.00" stroke-linecap="butt" stroke-linejoin="miter">
	<path stroke='black'  d='M80.2,54.1 L80.2,662.4 L1013.6,662.4 L1013.6,54.1 L80.2,54.1 Z  '/></g>
<g fill="none" color="black" stroke="currentColor" stroke-width="1.00" stroke-linecap="butt" stroke-linejoin="miter">
</g>
</g>
</svg>

