<?xml version="1.0" encoding="utf-8"  standalone="no"?>
<svg 
 viewBox="0 0 1280 720"
 xmlns="http://www.w3.org/2000/svg"
 xmlns:xlink="http://www.w3.org/1999/xlink"
>

<title>Gnuplot</title>
<desc>Produced by GNUPLOT 5.0 patchlevel 6 </desc>

<g id="gnuplot_canvas">

<rect x="0" y="0" width="1280" height="720" fill="none"/>
<defs>

	<circle id='gpDot' r='0.5' stroke-width='0.5'/>
	<path id='gpPt0' stroke-width='0.222' stroke='currentColor' d='M-1,0 h2 M0,-1 v2'/>
	<path id='gpPt1' stroke-width='0.222' stroke='currentColor' d='M-1,-1 L1,1 M1,-1 L-1,1'/>
	<path id='gpPt2' stroke-width='0.222' stroke='currentColor' d='M-1,0 L1,0 M0,-1 L0,1 M-1,-1 L1,1 M-1,1 L1,-1'/>
	<rect id='gpPt3' stroke-width='0.222' stroke='currentColor' x='-1' y='-1' width='2' height='2'/>
	<rect id='gpPt4' stroke-width='0.222' stroke='currentColor' fill='currentColor' x='-1' y='-1' width='2' height='2'/>
	<circle id='gpPt5' stroke-width='0.222' stroke='currentColor' cx='0' cy='0' r='1'/>
	<use xlink:href='#gpPt5' id='gpPt6' fill='currentColor' stroke='none'/>
	<path id='gpPt7' stroke-width='0.222' stroke='currentColor' d='M0,-1.33 L-1.33,0.67 L1.33,0.67 z'/>
	<use xlink:href='#gpPt7' id='gpPt8' fill='currentColor' stroke='none'/>
	<use xlink:href='#gpPt7' id='gpPt9' stroke='currentColor' transform='rotate(180)'/>
	<use xlink:href='#gpPt9' id='gpPt10' fill='currentColor' stroke='none'/>
	<use xlink:href='#gpPt3' id='gpPt11' stroke='currentColor' transform='rotate(45)'/>
	<use xlink:href='#gpPt11' id='gpPt12' fill='currentColor' stroke='none'/>
	<path id='gpPt13' stroke-width='0.222' stroke='currentColor' d='M0,1.330 L1.265,0.411 L0.782,-1.067 L-0.782,-1.076 L-1.265,0.411 z'/>
	<use xlink:href='#gpPt13' id='gpPt14' fill='currentColor' stroke='none'/>
	<filter id='textbox' filterUnits='objectBoundingBox' x='0' y='0' height='1' width='1'>
	  <feFlood flood-color='white' flood-opacity='1' result='bgnd'/>
	  <feComposite in='SourceGraphic' in2='bgnd' operator='atop'/>
	</filter>
	<filter id='greybox' filterUnits='objectBoundingBox' x='0' y='0' height='1' width='1'>
	  <feFlood flood-color='lightgrey' flood-opacity='1' result='grey'/>
	  <feComposite in='SourceGraphic' in2='grey' operator='atop'/>
	</filter>
</defs>
<g fill="none" color="white" stroke="currentColor" stroke-width="1.00" stroke-linecap="butt" stroke-linejoin="miter">
</g>
<g fill="none" color="black" stroke="currentColor" stroke-width="1.00" stroke-linecap="butt" stroke-linejoin="miter">
	<path stroke='black'  d='M88.5,662.4 L97.5,662.4  '/>	<g transform="translate(80.2,666.3)" stroke="none" fill="black" font-family="Helvetica" font-size="12.00"  text-anchor="end">
		<text><tspan font-family="Helvetica" > 0</tspan></text>
	</g>
</g>
<g fill="none" color="black" stroke="currentColor" stroke-width="1.00" stroke-linecap="butt" stroke-linejoin="miter">
	<path stroke='black'  d='M88.5,586.4 L97.5,586.4  '/>	<g transform="translate(80.2,590.3)" stroke="none" fill="black" font-family="Helvetica" font-size="12.00"  text-anchor="end">
		<text><tspan font-family="Helvetica" > 0.001</tspan></text>
	</g>
</g>
<g fill="none" color="black" stroke="currentColor" stroke-width="1.00" stroke-linecap="butt" stroke-linejoin="miter">
	<path stroke='black'  d='M88.5,510.3 L97.5,510.3  '/>	<g transform="translate(80.2,514.2)" stroke="none" fill="black" font-family="Helvetica" font-size="12.00"  text-anchor="end">
		<text><tspan font-family="Helvetica" > 0.002</tspan></text>
	</g>
</g>
<g fill="none" color="black" stroke="currentColor" stroke-width="1.00" stroke-linecap="butt" stroke-linejoin="miter">
	<path stroke='black'  d='M88.5,434.3 L97.5,434.3  '/>	<g transform="translate(80.2,438.2)" stroke="none" fill="black" font-family="Helvetica" font-size="12.00"  text-anchor="end">
		<text><tspan font-family="Helvetica" > 0.003</tspan></text>
	</g>
</g>
<g fill="none" color="black" stroke="currentColor" stroke-width="1.00" stroke-linecap="butt" stroke-linejoin="miter">
	<path stroke='black'  d='M88.5,358.2 L97.5,358.2  '/>	<g transform="translate(80.2,362.1)" stroke="none" fill="black" font-family="Helvetica" font-size="12.00"  text-anchor="end">
		<text><tspan font-family="Helvetica" > 0.004</tspan></text>
	</g>
</g>
<g fill="none" color="black" stroke="currentColor" stroke-width="1.00" stroke-linecap="butt" stroke-linejoin="miter">
	<path stroke='black'  d='M88.5,282.2 L97.5,282.2  '/>	<g transform="translate(80.2,286.1)" stroke="none" fill="black" font-family="Helvetica" font-size="12.00"  text-anchor="end">
		<text><tspan font-family="Helvetica" > 0.005</tspan></text>
	</g>
</g>
<g fill="none" color="black" stroke="currentColor" stroke-width="1.00" stroke-linecap="butt" stroke-linejoin="miter">
	<path stroke='black'  d='M88.5,206.2 L97.5,206.2  '/>	<g transform="translate(80.2,210.1)" stroke="none" fill="black" font-family="Helvetica" font-size="12.00"  text-anchor="end">
		<text><tspan font-family="Helvetica" > 0.006</tspan></text>
	</g>
</g>
<g fill="none" color="black" stroke="currentColor" stroke-width="1.00" stroke-linecap="butt" stroke-linejoin="miter">
	<path stroke='black'  d='M88.5,130.1 L97.5,130.1  '/>	<g transform="translate(80.2,134.0)" stroke="none" fill="black" font-family="Helvetica" font-size="12.00"  text-anchor="end">
		<text><tspan font-family="Helvetica" > 0.007</tspan></text>
	</g>
</g>
<g fill="none" color="black" stroke="currentColor" stroke-width="1.00" stroke-linecap="butt" stroke-linejoin="miter">
	<path stroke='black'  d='M88.5,54.1 L97.5,54.1  '/>	<g transform="translate(80.2,58.0)" stroke="none" fill="black" font-family="Helvetica" font-size="12.00"  text-anchor="end">
		<text><tspan font-family="Helvetica" > 0.008</tspan></text>
	</g>
</g>
<g fill="none" color="black" stroke="currentColor" stroke-width="1.00" stroke-linecap="butt" stroke-linejoin="miter">
	<path stroke='black'  d='M194.9,662.4 L194.9,653.4  '/>	<g transform="translate(194.9,684.3)" stroke="none" fill="black" font-family="Helvetica" font-size="12.00"  text-anchor="middle">
		<text><tspan font-family="Helvetica" > 150</tspan></text>
	</g>
</g>
<g fill="none" color="black" stroke="currentColor" stroke-width="1.00" stroke-linecap="butt" stroke-linejoin="miter">
	<path stroke='black'  d='M354.4,662.4 L354.4,653.4  '/>	<g transform="translate(354.4,684.3)" stroke="none" fill="black" font-family="Helvetica" font-size="12.00"  text-anchor="middle">
		<text><tspan font-family="Helvetica" > 200</tspan></text>
	</g>
</g>
<g fill="none" color="black" stroke="currentColor" stroke-width="1.00" stroke-linecap="butt" stroke-linejoin="miter">
	<path stroke='black'  d='M514.0,662.4 L514.0,653.4  '/>	<g transform="translate(514.0,684.3)" stroke="none" fill="black" font-family="Helvetica" font-size="12.00"  text-anchor="middle">
		<text><tspan font-family="Helvetica" > 250</tspan></text>
	</g>
</g>
<g fill="none" color="black" stroke="currentColor" stroke-width="1.00" stroke-linecap="butt" stroke-linejoin="miter">
	<path stroke='black'  d='M673.6,662.4 L673.6,653.4  '/>	<g transform="translate(673.6,684.3)" stroke="none" fill="black" font-family="Helvetica" font-size="12.00"  text-anchor="middle">
		<text><tspan font-family="Helvetica" > 300</tspan></text>
	</g>
</g>
<g fill="none" color="black" stroke="currentColor" stroke-width="1.00" stroke-linecap="butt" stroke-linejoin="miter">
	<path stroke='black'  d='M833.2,662.4 L833.2,653.4  '/>	<g transform="translate(833.2,684.3)" stroke="none" fill="black" font-family="Helvetica" font-size="12.00"  text-anchor="middle">
		<text><tspan font-family="Helvetica" > 350</tspan></text>
	</g>
</g>
<g fill="none" color="black" stroke="currentColor" stroke-width="1.00" stroke-linecap="butt" stroke-linejoin="miter">
	<path stroke='black'  d='M992.7,662.4 L992.7,653.4  '/>	<g transform="translate(992.7,684.3)" stroke="none" fill="black" font-family="Helvetica" font-size="12.00"  text-anchor="middle">
		<text><tspan font-family="Helvetica" > 400</tspan></text>
	</g>
</g>
<g fill="none" color="black" stroke="currentColor" stroke-width="1.00" stroke-linecap="butt" stroke-linejoin="miter">
</g>
<g fill="none" color="black" stroke="currentColor" stroke-width="1.00" stroke-linecap="butt" stroke-linejoin="miter">
	<path stroke='black'  d='M88.5,54.1 L88.5,662.4 L1013.6,662.4 L1013.6,54.1 L88.5,54.1 Z  '/></g>
<g fill="none" color="black" stroke="currentColor" stroke-width="1.00" stroke-linecap="butt" stroke-linejoin="miter">
	<g transform="translate(17.0,358.3) rotate(270)" stroke="none" fill="black" font-family="Helvetica" font-size="12.00"  text-anchor="middle">
		<text><tspan font-family="Helvetica" >Density (a.u.)</tspan></text>
	</g>
</g>
<g fill="none" color="black" stroke="currentColor" stroke-width="1.00" stroke-linecap="butt" stroke-linejoin="miter">
	<g transform="translate(551.0,711.3)" stroke="none" fill="black" font-family="Helvetica" font-size="12.00"  text-anchor="middle">
		<text><tspan font-family="Helvetica" >Average time (ns)</tspan></text>
	</g>
</g>
<g fill="none" color="black" stroke="currentColor" stroke-width="1.00" stroke-linecap="butt" stroke-linejoin="miter">
	<g transform="translate(551.0,31.0)" stroke="none" fill="black" font-family="Helvetica" font-size="12.00"  text-anchor="middle">
		<text><tspan font-family="Helvetica" >language: cpp/parse error: python/examples/multiple-newlines.py: SD</tspan></text>
	</g>
</g>
	<g id="gnuplot_plot_1" ><title>Bootstrap distribution</title>
<g fill="none" color="white" stroke="black" stroke-width="2.00" stroke-linecap="butt" stroke-linejoin="miter">
</g>
<g fill="none" color="black" stroke="currentColor" stroke-width="2.00" stroke-linecap="butt" stroke-linejoin="miter">
	<g transform="translate(1089.0,67.0)" stroke="none" fill="black" font-family="Helvetica" font-size="12.00"  text-anchor="start">
		<text><tspan font-family="Helvetica" >Bootstrap distribution</tspan></text>
	</g>
</g>
<g fill="none" color="black" stroke="currentColor" stroke-width="2.00" stroke-linecap="butt" stroke-linejoin="miter">
	<path stroke='rgb( 31, 120, 180)'  d='M1038.5,63.1 L1080.7,63.1 M88.5,633.1 L90.4,631.8 L92.2,630.4 L94.1,629.0 L95.9,627.6 L97.8,626.2
		L99.6,624.7 L101.5,623.3 L103.3,621.8 L105.2,620.3 L107.0,618.8 L108.9,617.2 L110.7,615.7 L112.6,614.2
		L114.5,612.6 L116.3,611.1 L118.2,609.5 L120.0,608.0 L121.9,606.5 L123.7,604.9 L125.6,603.4 L127.4,601.9
		L129.3,600.3 L131.1,598.8 L133.0,597.3 L134.8,595.8 L136.7,594.2 L138.6,592.7 L140.4,591.2 L142.3,589.7
		L144.1,588.2 L146.0,586.7 L147.8,585.2 L149.7,583.6 L151.5,582.1 L153.4,580.6 L155.2,579.0 L157.1,577.5
		L158.9,575.9 L160.8,574.3 L162.7,572.7 L164.5,571.1 L166.4,569.5 L168.2,567.8 L170.1,566.1 L171.9,564.4
		L173.8,562.6 L175.6,560.8 L177.5,559.0 L179.3,557.2 L181.2,555.3 L183.0,553.4 L184.9,551.5 L186.8,549.5
		L188.6,547.5 L190.5,545.4 L192.3,543.3 L194.2,541.2 L196.0,539.1 L197.9,536.9 L199.7,534.7 L201.6,532.4
		L203.4,530.2 L205.3,527.8 L207.2,525.4 L209.0,523.0 L210.9,520.6 L212.7,518.0 L214.6,515.5 L216.4,512.8
		L218.3,510.1 L220.1,507.4 L222.0,504.5 L223.8,501.6 L225.7,498.7 L227.5,495.7 L229.4,492.6 L231.3,489.5
		L233.1,486.3 L235.0,483.0 L236.8,479.7 L238.7,476.4 L240.5,473.0 L242.4,469.6 L244.2,466.2 L246.1,462.8
		L247.9,459.3 L249.8,455.9 L251.6,452.5 L253.5,449.1 L255.4,445.7 L257.2,442.3 L259.1,439.0 L260.9,435.7
		L262.8,432.4 L264.6,429.1 L266.5,425.9 L268.3,422.8 L270.2,419.7 L272.0,416.6 L273.9,413.6 L275.7,410.6
		L277.6,407.6 L279.5,404.8 L281.3,401.9 L283.2,399.1 L285.0,396.4 L286.9,393.8 L288.7,391.2 L290.6,388.7
		L292.4,386.2 L294.3,383.8 L296.1,381.6 L298.0,379.3 L299.8,377.2 L301.7,375.2 L303.6,373.3 L305.4,371.4
		L307.3,369.7 L309.1,368.0 L311.0,366.5 L312.8,365.1 L314.7,363.7 L316.5,362.5 L318.4,361.4 L320.2,360.3
		L322.1,359.4 L323.9,358.5 L325.8,357.7 L327.7,357.1 L329.5,356.4 L331.4,355.9 L333.2,355.4 L335.1,355.0
		L336.9,354.7 L338.8,354.4 L340.6,354.1 L342.5,354.0 L344.3,353.8 L346.2,353.7 L348.0,353.7 L349.9,353.7
		L351.8,353.7 L353.6,353.8 L355.5,353.9 L357.3,354.1 L359.2,354.3 L361.0,354.6 L362.9,354.9 L364.7,355.2
		L366.6,355.6 L368.4,356.0 L370.3,356.5 L372.1,357.0 L374.0,357.5 L375.9,358.1 L377.7,358.7 L379.6,359.4
		L381.4,360.1 L383.3,360.9 L385.1,361.7 L387.0,362.6 L388.8,363.5 L390.7,364.4 L392.5,365.4 L394.4,366.5
		L396.2,367.5 L398.1,368.7 L400.0,369.8 L401.8,371.0 L403.7,372.2 L405.5,373.5 L407.4,374.8 L409.2,376.1
		L411.1,377.4 L412.9,378.6 L414.8,379.9 L416.6,381.2 L418.5,382.4 L420.3,383.6 L422.2,384.8 L424.1,385.9
		L425.9,386.9 L427.8,387.9 L429.6,388.7 L431.5,389.5 L433.3,390.1 L435.2,390.6 L437.0,391.0 L438.9,391.3
		L440.7,391.3 L442.6,391.2 L444.5,390.9 L446.3,390.4 L448.2,389.8 L450.0,388.9 L451.9,387.8 L453.7,386.4
		L455.6,384.8 L457.4,383.0 L459.3,381.0 L461.1,378.7 L463.0,376.2 L464.8,373.4 L466.7,370.4 L468.6,367.2
		L470.4,363.8 L472.3,360.1 L474.1,356.2 L476.0,352.2 L477.8,348.0 L479.7,343.6 L481.5,339.0 L483.4,334.3
		L485.2,329.5 L487.1,324.5 L488.9,319.5 L490.8,314.3 L492.7,309.1 L494.5,303.9 L496.4,298.6 L498.2,293.2
		L500.1,287.9 L501.9,282.5 L503.8,277.2 L505.6,271.8 L507.5,266.5 L509.3,261.2 L511.2,256.0 L513.0,250.8
		L514.9,245.7 L516.8,240.6 L518.6,235.6 L520.5,230.7 L522.3,225.8 L524.2,221.0 L526.0,216.2 L527.9,211.6
		L529.7,206.9 L531.6,202.4 L533.4,197.9 L535.3,193.5 L537.1,189.1 L539.0,184.8 L540.9,180.6 L542.7,176.4
		L544.6,172.4 L546.4,168.4 L548.3,164.5 L550.1,160.6 L552.0,156.9 L553.8,153.3 L555.7,149.8 L557.5,146.4
		L559.4,143.2 L561.2,140.1 L563.1,137.2 L565.0,134.5 L566.8,132.0 L568.7,129.6 L570.5,127.5 L572.4,125.6
		L574.2,124.0 L576.1,122.6 L577.9,121.4 L579.8,120.5 L581.6,119.9 L583.5,119.6 L585.3,119.5 L587.2,119.8
		L589.1,120.3 L590.9,121.2 L592.8,122.3 L594.6,123.8 L596.5,125.5 L598.3,127.5 L600.2,129.9 L602.0,132.5
		L603.9,135.4 L605.7,138.5 L607.6,141.9 L609.4,145.5 L611.3,149.4 L613.2,153.5 L615.0,157.8 L616.9,162.2
		L618.7,166.9 L620.6,171.7 L622.4,176.6 L624.3,181.6 L626.1,186.8 L628.0,192.0 L629.8,197.3 L631.7,202.7
		L633.5,208.1 L635.4,213.6 L637.3,219.0 L639.1,224.5 L641.0,229.9 L642.8,235.3 L644.7,240.7 L646.5,246.0
		L648.4,251.3 L650.2,256.5 L652.1,261.5 L653.9,266.5 L655.8,271.3 L657.6,276.0 L659.5,280.6 L661.4,284.9
		L663.2,289.1 L665.1,293.1 L666.9,296.9 L668.8,300.5 L670.6,303.8 L672.5,306.9 L674.3,309.7 L676.2,312.3
		L678.0,314.6 L679.9,316.6 L681.8,318.4 L683.6,319.9 L685.5,321.2 L687.3,322.1 L689.2,322.9 L691.0,323.3
		L692.9,323.6 L694.7,323.6 L696.6,323.4 L698.4,323.0 L700.3,322.4 L702.1,321.6 L704.0,320.7 L705.9,319.6
		L707.7,318.5 L709.6,317.2 L711.4,315.8 L713.3,314.4 L715.1,312.9 L717.0,311.3 L718.8,309.8 L720.7,308.3
		L722.5,306.7 L724.4,305.3 L726.2,303.9 L728.1,302.5 L730.0,301.3 L731.8,300.1 L733.7,299.1 L735.5,298.3
		L737.4,297.5 L739.2,297.0 L741.1,296.6 L742.9,296.4 L744.8,296.5 L746.6,296.7 L748.5,297.1 L750.3,297.8
		L752.2,298.7 L754.1,299.8 L755.9,301.1 L757.8,302.6 L759.6,304.4 L761.5,306.4 L763.3,308.6 L765.2,311.0
		L767.0,313.7 L768.9,316.5 L770.7,319.6 L772.6,322.8 L774.4,326.3 L776.3,329.9 L778.2,333.6 L780.0,337.6
		L781.9,341.7 L783.7,345.9 L785.6,350.3 L787.4,354.7 L789.3,359.3 L791.1,364.0 L793.0,368.7 L794.8,373.5
		L796.7,378.4 L798.5,383.3 L800.4,388.2 L802.3,393.1 L804.1,398.1 L806.0,402.9 L807.8,407.8 L809.7,412.6
		L811.5,417.4 L813.4,422.1 L815.2,426.7 L817.1,431.2 L818.9,435.7 L820.8,440.0 L822.6,444.2 L824.5,448.3
		L826.4,452.3 L828.2,456.1 L830.1,459.8 L831.9,463.4 L833.8,466.9 L835.6,470.2 L837.5,473.3 L839.3,476.4
		L841.2,479.2 L843.0,482.0 L844.9,484.6 L846.7,487.0 L848.6,489.4 L850.5,491.6 L852.3,493.6 L854.2,495.6
		L856.0,497.5 L857.9,499.2 L859.7,500.9 L861.6,502.4 L863.4,503.9 L865.3,505.4 L867.1,506.7 L869.0,508.1
		L870.8,509.3 L872.7,510.6 L874.6,511.9 L876.4,513.1 L878.3,514.3 L880.1,515.6 L882.0,516.9 L883.8,518.2
		L885.7,519.5 L887.5,520.9 L889.4,522.3 L891.2,523.8 L893.1,525.4 L894.9,527.0 L896.8,528.6 L898.7,530.4
		L900.5,532.1 L902.4,534.0 L904.2,535.9 L906.1,537.9 L907.9,539.9 L909.8,542.0 L911.6,544.1 L913.5,546.3
		L915.3,548.4 L917.2,550.7 L919.1,552.9 L920.9,555.2 L922.8,557.5 L924.6,559.8 L926.5,562.1 L928.3,564.4
		L930.2,566.7 L932.0,569.0 L933.9,571.3 L935.7,573.5 L937.6,575.7 L939.4,577.9 L941.3,580.1 L943.2,582.3
		L945.0,584.4 L946.9,586.5 L948.7,588.5 L950.6,590.5 L952.4,592.5 L954.3,594.4 L956.1,596.3 L958.0,598.1
		L959.8,599.9 L961.7,601.7 L963.5,603.4 L965.4,605.0 L967.3,606.7 L969.1,608.2 L971.0,609.8 L972.8,611.3
		L974.7,612.7 L976.5,614.1 L978.4,615.4 L980.2,616.7 L982.1,618.0 L983.9,619.2 L985.8,620.3 L987.6,621.5
		L989.5,622.5 L991.4,623.6 L993.2,624.5 L995.1,625.5 L996.9,626.4 L998.8,627.3 L1000.6,628.1 L1002.5,628.9
		L1004.3,629.7 L1006.2,630.4 L1008.0,631.1 L1009.9,631.8 L1011.7,632.5 L1013.6,633.1  '/></g>
	</g>
	<g id="gnuplot_plot_2" ><title>Confidence interval</title>
<g fill="none" color="white" stroke="rgb( 31, 120, 180)" stroke-width="1.00" stroke-linecap="butt" stroke-linejoin="miter">
</g>
<g fill="none" color="black" stroke="currentColor" stroke-width="1.00" stroke-linecap="butt" stroke-linejoin="miter">
	<g transform="translate(1089.0,85.0)" stroke="none" fill="black" font-family="Helvetica" font-size="12.00"  text-anchor="start">
		<text><tspan font-family="Helvetica" >Confidence interval</tspan></text>
	</g>
</g>
<g fill="none" color="black" stroke="currentColor" stroke-width="1.00" stroke-linecap="butt" stroke-linejoin="miter">
	<g stroke='none' shape-rendering='crispEdges'>
		<polygon fill = 'rgb( 31, 120, 180)' fill-opacity = '0.250000' points = '1038.5,85.6 1080.7,85.6 1080.7,76.6 1038.5,76.6 '/>
		<polygon fill = 'rgb( 31, 120, 180)' fill-opacity = '0.250000' points = '173.8,562.6 173.8,662.4 175.6,662.4 175.6,560.8 '/>
		<polygon fill = 'rgb( 31, 120, 180)' fill-opacity = '0.250000' points = '175.6,560.8 175.6,662.4 177.5,662.4 177.5,559.0 '/>
		<polygon fill = 'rgb( 31, 120, 180)' fill-opacity = '0.250000' points = '177.5,559.0 177.5,662.4 179.3,662.4 179.3,557.2 '/>
		<polygon fill = 'rgb( 31, 120, 180)' fill-opacity = '0.250000' points = '179.3,557.2 179.3,662.4 181.2,662.4 181.2,555.3 '/>
		<polygon fill = 'rgb( 31, 120, 180)' fill-opacity = '0.250000' points = '181.2,555.3 181.2,662.4 183.0,662.4 183.0,553.4 '/>
		<polygon fill = 'rgb( 31, 120, 180)' fill-opacity = '0.250000' points = '183.0,553.4 183.0,662.4 184.9,662.4 184.9,551.5 '/>
		<polygon fill = 'rgb( 31, 120, 180)' fill-opacity = '0.250000' points = '184.9,551.5 184.9,662.4 186.8,662.4 186.8,549.5 '/>
		<polygon fill = 'rgb( 31, 120, 180)' fill-opacity = '0.250000' points = '186.8,549.5 186.8,662.4 188.6,662.4 188.6,547.5 '/>
		<polygon fill = 'rgb( 31, 120, 180)' fill-opacity = '0.250000' points = '188.6,547.5 188.6,662.4 190.5,662.4 190.5,545.4 '/>
		<polygon fill = 'rgb( 31, 120, 180)' fill-opacity = '0.250000' points = '190.5,545.4 190.5,662.4 192.3,662.4 192.3,543.3 '/>
		<polygon fill = 'rgb( 31, 120, 180)' fill-opacity = '0.250000' points = '192.3,543.3 192.3,662.4 194.2,662.4 194.2,541.2 '/>
		<polygon fill = 'rgb( 31, 120, 180)' fill-opacity = '0.250000' points = '194.2,541.2 194.2,662.4 196.0,662.4 196.0,539.1 '/>
		<polygon fill = 'rgb( 31, 120, 180)' fill-opacity = '0.250000' points = '196.0,539.1 196.0,662.4 197.9,662.4 197.9,536.9 '/>
		<polygon fill = 'rgb( 31, 120, 180)' fill-opacity = '0.250000' points = '197.9,536.9 197.9,662.4 199.7,662.4 199.7,534.7 '/>
		<polygon fill = 'rgb( 31, 120, 180)' fill-opacity = '0.250000' points = '199.7,534.7 199.7,662.4 201.6,662.4 201.6,532.4 '/>
		<polygon fill = 'rgb( 31, 120, 180)' fill-opacity = '0.250000' points = '201.6,532.4 201.6,662.4 203.4,662.4 203.4,530.2 '/>
		<polygon fill = 'rgb( 31, 120, 180)' fill-opacity = '0.250000' points = '203.4,530.2 203.4,662.4 205.3,662.4 205.3,527.8 '/>
		<polygon fill = 'rgb( 31, 120, 180)' fill-opacity = '0.250000' points = '205.3,527.8 205.3,662.4 207.2,662.4 207.2,525.4 '/>
		<polygon fill = 'rgb( 31, 120, 180)' fill-opacity = '0.250000' points = '207.2,525.4 207.2,662.4 209.0,662.4 209.0,523.0 '/>
		<polygon fill = 'rgb( 31, 120, 180)' fill-opacity = '0.250000' points = '209.0,523.0 209.0,662.4 210.9,662.4 210.9,520.6 '/>
		<polygon fill = 'rgb( 31, 120, 180)' fill-opacity = '0.250000' points = '210.9,520.6 210.9,662.4 212.7,662.4 212.7,518.0 '/>
		<polygon fill = 'rgb( 31, 120, 180)' fill-opacity = '0.250000' points = '212.7,518.0 212.7,662.4 214.6,662.4 214.6,515.5 '/>
		<polygon fill = 'rgb( 31, 120, 180)' fill-opacity = '0.250000' points = '214.6,515.5 214.6,662.4 216.4,662.4 216.4,512.8 '/>
		<polygon fill = 'rgb( 31, 120, 180)' fill-opacity = '0.250000' points = '216.4,512.8 216.4,662.4 218.3,662.4 218.3,510.1 '/>
		<polygon fill = 'rgb( 31, 120, 180)' fill-opacity = '0.250000' points = '218.3,510.1 218.3,662.4 220.1,662.4 220.1,507.4 '/>
		<polygon fill = 'rgb( 31, 120, 180)' fill-opacity = '0.250000' points = '220.1,507.4 220.1,662.4 222.0,662.4 222.0,504.5 '/>
		<polygon fill = 'rgb( 31, 120, 180)' fill-opacity = '0.250000' points = '222.0,504.5 222.0,662.4 223.8,662.4 223.8,501.6 '/>
		<polygon fill = 'rgb( 31, 120, 180)' fill-opacity = '0.250000' points = '223.8,501.6 223.8,662.4 225.7,662.4 225.7,498.7 '/>
		<polygon fill = 'rgb( 31, 120, 180)' fill-opacity = '0.250000' points = '225.7,498.7 225.7,662.4 227.5,662.4 227.5,495.7 '/>
		<polygon fill = 'rgb( 31, 120, 180)' fill-opacity = '0.250000' points = '227.5,495.7 227.5,662.4 229.4,662.4 229.4,492.6 '/>
		<polygon fill = 'rgb( 31, 120, 180)' fill-opacity = '0.250000' points = '229.4,492.6 229.4,662.4 231.3,662.4 231.3,489.5 '/>
		<polygon fill = 'rgb( 31, 120, 180)' fill-opacity = '0.250000' points = '231.3,489.5 231.3,662.4 233.1,662.4 233.1,486.3 '/>
		<polygon fill = 'rgb( 31, 120, 180)' fill-opacity = '0.250000' points = '233.1,486.3 233.1,662.4 235.0,662.4 235.0,483.0 '/>
		<polygon fill = 'rgb( 31, 120, 180)' fill-opacity = '0.250000' points = '235.0,483.0 235.0,662.4 236.8,662.4 236.8,479.7 '/>
		<polygon fill = 'rgb( 31, 120, 180)' fill-opacity = '0.250000' points = '236.8,479.7 236.8,662.4 238.7,662.4 238.7,476.4 '/>
		<polygon fill = 'rgb( 31, 120, 180)' fill-opacity = '0.250000' points = '238.7,476.4 238.7,662.4 240.5,662.4 240.5,473.0 '/>
		<polygon fill = 'rgb( 31, 120, 180)' fill-opacity = '0.250000' points = '240.5,473.0 240.5,662.4 242.4,662.4 242.4,469.6 '/>
		<polygon fill = 'rgb( 31, 120, 180)' fill-opacity = '0.250000' points = '242.4,469.6 242.4,662.4 244.2,662.4 244.2,466.2 '/>
		<polygon fill = 'rgb( 31, 120, 180)' fill-opacity = '0.250000' points = '244.2,466.2 244.2,662.4 246.1,662.4 246.1,462.8 '/>
		<polygon fill = 'rgb( 31, 120, 180)' fill-opacity = '0.250000' points = '246.1,462.8 246.1,662.4 247.9,662.4 247.9,459.3 '/>
		<polygon fill = 'rgb( 31, 120, 180)' fill-opacity = '0.250000' points = '247.9,459.3 247.9,662.4 249.8,662.4 249.8,455.9 '/>
		<polygon fill = 'rgb( 31, 120, 180)' fill-opacity = '0.250000' points = '249.8,455.9 249.8,662.4 251.6,662.4 251.6,452.5 '/>
		<polygon fill = 'rgb( 31, 120, 180)' fill-opacity = '0.250000' points = '251.6,452.5 251.6,662.4 253.5,662.4 253.5,449.1 '/>
		<polygon fill = 'rgb( 31, 120, 180)' fill-opacity = '0.250000' points = '253.5,449.1 253.5,662.4 255.4,662.4 255.4,445.7 '/>
		<polygon fill = 'rgb( 31, 120, 180)' fill-opacity = '0.250000' points = '255.4,445.7 255.4,662.4 257.2,662.4 257.2,442.3 '/>
		<polygon fill = 'rgb( 31, 120, 180)' fill-opacity = '0.250000' points = '257.2,442.3 257.2,662.4 259.1,662.4 259.1,439.0 '/>
		<polygon fill = 'rgb( 31, 120, 180)' fill-opacity = '0.250000' points = '259.1,439.0 259.1,662.4 260.9,662.4 260.9,435.7 '/>
		<polygon fill = 'rgb( 31, 120, 180)' fill-opacity = '0.250000' points = '260.9,435.7 260.9,662.4 262.8,662.4 262.8,432.4 '/>
		<polygon fill = 'rgb( 31, 120, 180)' fill-opacity = '0.250000' points = '262.8,432.4 262.8,662.4 264.6,662.4 264.6,429.1 '/>
		<polygon fill = 'rgb( 31, 120, 180)' fill-opacity = '0.250000' points = '264.6,429.1 264.6,662.4 266.5,662.4 266.5,425.9 '/>
		<polygon fill = 'rgb( 31, 120, 180)' fill-opacity = '0.250000' points = '266.5,425.9 266.5,662.4 268.3,662.4 268.3,422.8 '/>
		<polygon fill = 'rgb( 31, 120, 180)' fill-opacity = '0.250000' points = '268.3,422.8 268.3,662.4 270.2,662.4 270.2,419.7 '/>
		<polygon fill = 'rgb( 31, 120, 180)' fill-opacity = '0.250000' points = '270.2,419.7 270.2,662.4 272.0,662.4 272.0,416.6 '/>
		<polygon fill = 'rgb( 31, 120, 180)' fill-opacity = '0.250000' points = '272.0,416.6 272.0,662.4 273.9,662.4 273.9,413.6 '/>
		<polygon fill = 'rgb( 31, 120, 180)' fill-opacity = '0.250000' points = '273.9,413.6 273.9,662.4 275.7,662.4 275.7,410.6 '/>
		<polygon fill = 'rgb( 31, 120, 180)' fill-opacity = '0.250000' points = '275.7,410.6 275.7,662.4 277.6,662.4 277.6,407.6 '/>
		<polygon fill = 'rgb( 31, 120, 180)' fill-opacity = '0.250000' points = '277.6,407.6 277.6,662.4 279.5,662.4 279.5,404.8 '/>
		<polygon fill = 'rgb( 31, 120, 180)' fill-opacity = '0.250000' points = '279.5,404.8 279.5,662.4 281.3,662.4 281.3,401.9 '/>
		<polygon fill = 'rgb( 31, 120, 180)' fill-opacity = '0.250000' points = '281.3,401.9 281.3,662.4 283.2,662.4 283.2,399.1 '/>
		<polygon fill = 'rgb( 31, 120, 180)' fill-opacity = '0.250000' points = '283.2,399.1 283.2,662.4 285.0,662.4 285.0,396.4 '/>
		<polygon fill = 'rgb( 31, 120, 180)' fill-opacity = '0.250000' points = '285.0,396.4 285.0,662.4 286.9,662.4 286.9,393.8 '/>
		<polygon fill = 'rgb( 31, 120, 180)' fill-opacity = '0.250000' points = '286.9,393.8 286.9,662.4 288.7,662.4 288.7,391.2 '/>
		<polygon fill = 'rgb( 31, 120, 180)' fill-opacity = '0.250000' points = '288.7,391.2 288.7,662.4 290.6,662.4 290.6,388.7 '/>
		<polygon fill = 'rgb( 31, 120, 180)' fill-opacity = '0.250000' points = '290.6,388.7 290.6,662.4 292.4,662.4 292.4,386.2 '/>
		<polygon fill = 'rgb( 31, 120, 180)' fill-opacity = '0.250000' points = '292.4,386.2 292.4,662.4 294.3,662.4 294.3,383.8 '/>
		<polygon fill = 'rgb( 31, 120, 180)' fill-opacity = '0.250000' points = '294.3,383.8 294.3,662.4 296.1,662.4 296.1,381.6 '/>
		<polygon fill = 'rgb( 31, 120, 180)' fill-opacity = '0.250000' points = '296.1,381.6 296.1,662.4 298.0,662.4 298.0,379.3 '/>
		<polygon fill = 'rgb( 31, 120, 180)' fill-opacity = '0.250000' points = '298.0,379.3 298.0,662.4 299.8,662.4 299.8,377.2 '/>
		<polygon fill = 'rgb( 31, 120, 180)' fill-opacity = '0.250000' points = '299.8,377.2 299.8,662.4 301.7,662.4 301.7,375.2 '/>
		<polygon fill = 'rgb( 31, 120, 180)' fill-opacity = '0.250000' points = '301.7,375.2 301.7,662.4 303.6,662.4 303.6,373.3 '/>
		<polygon fill = 'rgb( 31, 120, 180)' fill-opacity = '0.250000' points = '303.6,373.3 303.6,662.4 305.4,662.4 305.4,371.4 '/>
		<polygon fill = 'rgb( 31, 120, 180)' fill-opacity = '0.250000' points = '305.4,371.4 305.4,662.4 307.3,662.4 307.3,369.7 '/>
		<polygon fill = 'rgb( 31, 120, 180)' fill-opacity = '0.250000' points = '307.3,369.7 307.3,662.4 309.1,662.4 309.1,368.0 '/>
		<polygon fill = 'rgb( 31, 120, 180)' fill-opacity = '0.250000' points = '309.1,368.0 309.1,662.4 311.0,662.4 311.0,366.5 '/>
		<polygon fill = 'rgb( 31, 120, 180)' fill-opacity = '0.250000' points = '311.0,366.5 311.0,662.4 312.8,662.4 312.8,365.1 '/>
		<polygon fill = 'rgb( 31, 120, 180)' fill-opacity = '0.250000' points = '312.8,365.1 312.8,662.4 314.7,662.4 314.7,363.7 '/>
		<polygon fill = 'rgb( 31, 120, 180)' fill-opacity = '0.250000' points = '314.7,363.7 314.7,662.4 316.5,662.4 316.5,362.5 '/>
		<polygon fill = 'rgb( 31, 120, 180)' fill-opacity = '0.250000' points = '316.5,362.5 316.5,662.4 318.4,662.4 318.4,361.4 '/>
		<polygon fill = 'rgb( 31, 120, 180)' fill-opacity = '0.250000' points = '318.4,361.4 318.4,662.4 320.2,662.4 320.2,360.3 '/>
		<polygon fill = 'rgb( 31, 120, 180)' fill-opacity = '0.250000' points = '320.2,360.3 320.2,662.4 322.1,662.4 322.1,359.4 '/>
		<polygon fill = 'rgb( 31, 120, 180)' fill-opacity = '0.250000' points = '322.1,359.4 322.1,662.4 323.9,662.4 323.9,358.5 '/>
		<polygon fill = 'rgb( 31, 120, 180)' fill-opacity = '0.250000' points = '323.9,358.5 323.9,662.4 325.8,662.4 325.8,357.7 '/>
		<polygon fill = 'rgb( 31, 120, 180)' fill-opacity = '0.250000' points = '325.8,357.7 325.8,662.4 327.7,662.4 327.7,357.1 '/>
		<polygon fill = 'rgb( 31, 120, 180)' fill-opacity = '0.250000' points = '327.7,357.1 327.7,662.4 329.5,662.4 329.5,356.4 '/>
		<polygon fill = 'rgb( 31, 120, 180)' fill-opacity = '0.250000' points = '329.5,356.4 329.5,662.4 331.4,662.4 331.4,355.9 '/>
		<polygon fill = 'rgb( 31, 120, 180)' fill-opacity = '0.250000' points = '331.4,355.9 331.4,662.4 333.2,662.4 333.2,355.4 '/>
		<polygon fill = 'rgb( 31, 120, 180)' fill-opacity = '0.250000' points = '333.2,355.4 333.2,662.4 335.1,662.4 335.1,355.0 '/>
		<polygon fill = 'rgb( 31, 120, 180)' fill-opacity = '0.250000' points = '335.1,355.0 335.1,662.4 336.9,662.4 336.9,354.7 '/>
		<polygon fill = 'rgb( 31, 120, 180)' fill-opacity = '0.250000' points = '336.9,354.7 336.9,662.4 338.8,662.4 338.8,354.4 '/>
		<polygon fill = 'rgb( 31, 120, 180)' fill-opacity = '0.250000' points = '338.8,354.4 338.8,662.4 340.6,662.4 340.6,354.1 '/>
		<polygon fill = 'rgb( 31, 120, 180)' fill-opacity = '0.250000' points = '340.6,354.1 340.6,662.4 342.5,662.4 342.5,354.0 '/>
		<polygon fill = 'rgb( 31, 120, 180)' fill-opacity = '0.250000' points = '342.5,354.0 342.5,662.4 344.3,662.4 344.3,353.8 '/>
		<polygon fill = 'rgb( 31, 120, 180)' fill-opacity = '0.250000' points = '344.3,353.8 344.3,662.4 346.2,662.4 346.2,353.7 '/>
		<polygon fill = 'rgb( 31, 120, 180)' fill-opacity = '0.250000' points = '346.2,353.7 346.2,662.4 348.0,662.4 348.0,353.7 '/>
		<polygon fill = 'rgb( 31, 120, 180)' fill-opacity = '0.250000' points = '348.0,353.7 348.0,662.4 349.9,662.4 349.9,353.7 '/>
		<polygon fill = 'rgb( 31, 120, 180)' fill-opacity = '0.250000' points = '349.9,353.7 349.9,662.4 351.8,662.4 351.8,353.7 '/>
		<polygon fill = 'rgb( 31, 120, 180)' fill-opacity = '0.250000' points = '351.8,353.7 351.8,662.4 353.6,662.4 353.6,353.8 '/>
		<polygon fill = 'rgb( 31, 120, 180)' fill-opacity = '0.250000' points = '353.6,353.8 353.6,662.4 355.5,662.4 355.5,353.9 '/>
		<polygon fill = 'rgb( 31, 120, 180)' fill-opacity = '0.250000' points = '355.5,353.9 355.5,662.4 357.3,662.4 357.3,354.1 '/>
		<polygon fill = 'rgb( 31, 120, 180)' fill-opacity = '0.250000' points = '357.3,354.1 357.3,662.4 359.2,662.4 359.2,354.3 '/>
		<polygon fill = 'rgb( 31, 120, 180)' fill-opacity = '0.250000' points = '359.2,354.3 359.2,662.4 361.0,662.4 361.0,354.6 '/>
		<polygon fill = 'rgb( 31, 120, 180)' fill-opacity = '0.250000' points = '361.0,354.6 361.0,662.4 362.9,662.4 362.9,354.9 '/>
		<polygon fill = 'rgb( 31, 120, 180)' fill-opacity = '0.250000' points = '362.9,354.9 362.9,662.4 364.7,662.4 364.7,355.2 '/>
		<polygon fill = 'rgb( 31, 120, 180)' fill-opacity = '0.250000' points = '364.7,355.2 364.7,662.4 366.6,662.4 366.6,355.6 '/>
		<polygon fill = 'rgb( 31, 120, 180)' fill-opacity = '0.250000' points = '366.6,355.6 366.6,662.4 368.4,662.4 368.4,356.0 '/>
		<polygon fill = 'rgb( 31, 120, 180)' fill-opacity = '0.250000' points = '368.4,356.0 368.4,662.4 370.3,662.4 370.3,356.5 '/>
		<polygon fill = 'rgb( 31, 120, 180)' fill-opacity = '0.250000' points = '370.3,356.5 370.3,662.4 372.1,662.4 372.1,357.0 '/>
		<polygon fill = 'rgb( 31, 120, 180)' fill-opacity = '0.250000' points = '372.1,357.0 372.1,662.4 374.0,662.4 374.0,357.5 '/>
		<polygon fill = 'rgb( 31, 120, 180)' fill-opacity = '0.250000' points = '374.0,357.5 374.0,662.4 375.9,662.4 375.9,358.1 '/>
		<polygon fill = 'rgb( 31, 120, 180)' fill-opacity = '0.250000' points = '375.9,358.1 375.9,662.4 377.7,662.4 377.7,358.7 '/>
		<polygon fill = 'rgb( 31, 120, 180)' fill-opacity = '0.250000' points = '377.7,358.7 377.7,662.4 379.6,662.4 379.6,359.4 '/>
		<polygon fill = 'rgb( 31, 120, 180)' fill-opacity = '0.250000' points = '379.6,359.4 379.6,662.4 381.4,662.4 381.4,360.1 '/>
		<polygon fill = 'rgb( 31, 120, 180)' fill-opacity = '0.250000' points = '381.4,360.1 381.4,662.4 383.3,662.4 383.3,360.9 '/>
		<polygon fill = 'rgb( 31, 120, 180)' fill-opacity = '0.250000' points = '383.3,360.9 383.3,662.4 385.1,662.4 385.1,361.7 '/>
		<polygon fill = 'rgb( 31, 120, 180)' fill-opacity = '0.250000' points = '385.1,361.7 385.1,662.4 387.0,662.4 387.0,362.6 '/>
		<polygon fill = 'rgb( 31, 120, 180)' fill-opacity = '0.250000' points = '387.0,362.6 387.0,662.4 388.8,662.4 388.8,363.5 '/>
		<polygon fill = 'rgb( 31, 120, 180)' fill-opacity = '0.250000' points = '388.8,363.5 388.8,662.4 390.7,662.4 390.7,364.4 '/>
		<polygon fill = 'rgb( 31, 120, 180)' fill-opacity = '0.250000' points = '390.7,364.4 390.7,662.4 392.5,662.4 392.5,365.4 '/>
		<polygon fill = 'rgb( 31, 120, 180)' fill-opacity = '0.250000' points = '392.5,365.4 392.5,662.4 394.4,662.4 394.4,366.5 '/>
		<polygon fill = 'rgb( 31, 120, 180)' fill-opacity = '0.250000' points = '394.4,366.5 394.4,662.4 396.2,662.4 396.2,367.5 '/>
		<polygon fill = 'rgb( 31, 120, 180)' fill-opacity = '0.250000' points = '396.2,367.5 396.2,662.4 398.1,662.4 398.1,368.7 '/>
		<polygon fill = 'rgb( 31, 120, 180)' fill-opacity = '0.250000' points = '398.1,368.7 398.1,662.4 400.0,662.4 400.0,369.8 '/>
		<polygon fill = 'rgb( 31, 120, 180)' fill-opacity = '0.250000' points = '400.0,369.8 400.0,662.4 401.8,662.4 401.8,371.0 '/>
		<polygon fill = 'rgb( 31, 120, 180)' fill-opacity = '0.250000' points = '401.8,371.0 401.8,662.4 403.7,662.4 403.7,372.2 '/>
		<polygon fill = 'rgb( 31, 120, 180)' fill-opacity = '0.250000' points = '403.7,372.2 403.7,662.4 405.5,662.4 405.5,373.5 '/>
		<polygon fill = 'rgb( 31, 120, 180)' fill-opacity = '0.250000' points = '405.5,373.5 405.5,662.4 407.4,662.4 407.4,374.8 '/>
		<polygon fill = 'rgb( 31, 120, 180)' fill-opacity = '0.250000' points = '407.4,374.8 407.4,662.4 409.2,662.4 409.2,376.1 '/>
		<polygon fill = 'rgb( 31, 120, 180)' fill-opacity = '0.250000' points = '409.2,376.1 409.2,662.4 411.1,662.4 411.1,377.4 '/>
		<polygon fill = 'rgb( 31, 120, 180)' fill-opacity = '0.250000' points = '411.1,377.4 411.1,662.4 412.9,662.4 412.9,378.6 '/>
		<polygon fill = 'rgb( 31, 120, 180)' fill-opacity = '0.250000' points = '412.9,378.6 412.9,662.4 414.8,662.4 414.8,379.9 '/>
		<polygon fill = 'rgb( 31, 120, 180)' fill-opacity = '0.250000' points = '414.8,379.9 414.8,662.4 416.6,662.4 416.6,381.2 '/>
		<polygon fill = 'rgb( 31, 120, 180)' fill-opacity = '0.250000' points = '416.6,381.2 416.6,662.4 418.5,662.4 418.5,382.4 '/>
		<polygon fill = 'rgb( 31, 120, 180)' fill-opacity = '0.250000' points = '418.5,382.4 418.5,662.4 420.3,662.4 420.3,383.6 '/>
		<polygon fill = 'rgb( 31, 120, 180)' fill-opacity = '0.250000' points = '420.3,383.6 420.3,662.4 422.2,662.4 422.2,384.8 '/>
		<polygon fill = 'rgb( 31, 120, 180)' fill-opacity = '0.250000' points = '422.2,384.8 422.2,662.4 424.1,662.4 424.1,385.9 '/>
		<polygon fill = 'rgb( 31, 120, 180)' fill-opacity = '0.250000' points = '424.1,385.9 424.1,662.4 425.9,662.4 425.9,386.9 '/>
		<polygon fill = 'rgb( 31, 120, 180)' fill-opacity = '0.250000' points = '425.9,386.9 425.9,662.4 427.8,662.4 427.8,387.9 '/>
		<polygon fill = 'rgb( 31, 120, 180)' fill-opacity = '0.250000' points = '427.8,387.9 427.8,662.4 429.6,662.4 429.6,388.7 '/>
		<polygon fill = 'rgb( 31, 120, 180)' fill-opacity = '0.250000' points = '429.6,388.7 429.6,662.4 431.5,662.4 431.5,389.5 '/>
		<polygon fill = 'rgb( 31, 120, 180)' fill-opacity = '0.250000' points = '431.5,389.5 431.5,662.4 433.3,662.4 433.3,390.1 '/>
		<polygon fill = 'rgb( 31, 120, 180)' fill-opacity = '0.250000' points = '433.3,390.1 433.3,662.4 435.2,662.4 435.2,390.6 '/>
		<polygon fill = 'rgb( 31, 120, 180)' fill-opacity = '0.250000' points = '435.2,390.6 435.2,662.4 437.0,662.4 437.0,391.0 '/>
		<polygon fill = 'rgb( 31, 120, 180)' fill-opacity = '0.250000' points = '437.0,391.0 437.0,662.4 438.9,662.4 438.9,391.3 '/>
		<polygon fill = 'rgb( 31, 120, 180)' fill-opacity = '0.250000' points = '438.9,391.3 438.9,662.4 440.7,662.4 440.7,391.3 '/>
		<polygon fill = 'rgb( 31, 120, 180)' fill-opacity = '0.250000' points = '440.7,391.3 440.7,662.4 442.6,662.4 442.6,391.2 '/>
		<polygon fill = 'rgb( 31, 120, 180)' fill-opacity = '0.250000' points = '442.6,391.2 442.6,662.4 444.5,662.4 444.5,390.9 '/>
		<polygon fill = 'rgb( 31, 120, 180)' fill-opacity = '0.250000' points = '444.5,390.9 444.5,662.4 446.3,662.4 446.3,390.4 '/>
		<polygon fill = 'rgb( 31, 120, 180)' fill-opacity = '0.250000' points = '446.3,390.4 446.3,662.4 448.2,662.4 448.2,389.8 '/>
		<polygon fill = 'rgb( 31, 120, 180)' fill-opacity = '0.250000' points = '448.2,389.8 448.2,662.4 450.0,662.4 450.0,388.9 '/>
		<polygon fill = 'rgb( 31, 120, 180)' fill-opacity = '0.250000' points = '450.0,388.9 450.0,662.4 451.9,662.4 451.9,387.8 '/>
		<polygon fill = 'rgb( 31, 120, 180)' fill-opacity = '0.250000' points = '451.9,387.8 451.9,662.4 453.7,662.4 453.7,386.4 '/>
		<polygon fill = 'rgb( 31, 120, 180)' fill-opacity = '0.250000' points = '453.7,386.4 453.7,662.4 455.6,662.4 455.6,384.8 '/>
		<polygon fill = 'rgb( 31, 120, 180)' fill-opacity = '0.250000' points = '455.6,384.8 455.6,662.4 457.4,662.4 457.4,383.0 '/>
		<polygon fill = 'rgb( 31, 120, 180)' fill-opacity = '0.250000' points = '457.4,383.0 457.4,662.4 459.3,662.4 459.3,381.0 '/>
		<polygon fill = 'rgb( 31, 120, 180)' fill-opacity = '0.250000' points = '459.3,381.0 459.3,662.4 461.1,662.4 461.1,378.7 '/>
		<polygon fill = 'rgb( 31, 120, 180)' fill-opacity = '0.250000' points = '461.1,378.7 461.1,662.4 463.0,662.4 463.0,376.2 '/>
		<polygon fill = 'rgb( 31, 120, 180)' fill-opacity = '0.250000' points = '463.0,376.2 463.0,662.4 464.8,662.4 464.8,373.4 '/>
		<polygon fill = 'rgb( 31, 120, 180)' fill-opacity = '0.250000' points = '464.8,373.4 464.8,662.4 466.7,662.4 466.7,370.4 '/>
		<polygon fill = 'rgb( 31, 120, 180)' fill-opacity = '0.250000' points = '466.7,370.4 466.7,662.4 468.6,662.4 468.6,367.2 '/>
		<polygon fill = 'rgb( 31, 120, 180)' fill-opacity = '0.250000' points = '468.6,367.2 468.6,662.4 470.4,662.4 470.4,363.8 '/>
		<polygon fill = 'rgb( 31, 120, 180)' fill-opacity = '0.250000' points = '470.4,363.8 470.4,662.4 472.3,662.4 472.3,360.1 '/>
		<polygon fill = 'rgb( 31, 120, 180)' fill-opacity = '0.250000' points = '472.3,360.1 472.3,662.4 474.1,662.4 474.1,356.2 '/>
		<polygon fill = 'rgb( 31, 120, 180)' fill-opacity = '0.250000' points = '474.1,356.2 474.1,662.4 476.0,662.4 476.0,352.2 '/>
		<polygon fill = 'rgb( 31, 120, 180)' fill-opacity = '0.250000' points = '476.0,352.2 476.0,662.4 477.8,662.4 477.8,348.0 '/>
		<polygon fill = 'rgb( 31, 120, 180)' fill-opacity = '0.250000' points = '477.8,348.0 477.8,662.4 479.7,662.4 479.7,343.6 '/>
		<polygon fill = 'rgb( 31, 120, 180)' fill-opacity = '0.250000' points = '479.7,343.6 479.7,662.4 481.5,662.4 481.5,339.0 '/>
		<polygon fill = 'rgb( 31, 120, 180)' fill-opacity = '0.250000' points = '481.5,339.0 481.5,662.4 483.4,662.4 483.4,334.3 '/>
		<polygon fill = 'rgb( 31, 120, 180)' fill-opacity = '0.250000' points = '483.4,334.3 483.4,662.4 485.2,662.4 485.2,329.5 '/>
		<polygon fill = 'rgb( 31, 120, 180)' fill-opacity = '0.250000' points = '485.2,329.5 485.2,662.4 487.1,662.4 487.1,324.5 '/>
		<polygon fill = 'rgb( 31, 120, 180)' fill-opacity = '0.250000' points = '487.1,324.5 487.1,662.4 488.9,662.4 488.9,319.5 '/>
		<polygon fill = 'rgb( 31, 120, 180)' fill-opacity = '0.250000' points = '488.9,319.5 488.9,662.4 490.8,662.4 490.8,314.3 '/>
		<polygon fill = 'rgb( 31, 120, 180)' fill-opacity = '0.250000' points = '490.8,314.3 490.8,662.4 492.7,662.4 492.7,309.1 '/>
		<polygon fill = 'rgb( 31, 120, 180)' fill-opacity = '0.250000' points = '492.7,309.1 492.7,662.4 494.5,662.4 494.5,303.9 '/>
		<polygon fill = 'rgb( 31, 120, 180)' fill-opacity = '0.250000' points = '494.5,303.9 494.5,662.4 496.4,662.4 496.4,298.6 '/>
		<polygon fill = 'rgb( 31, 120, 180)' fill-opacity = '0.250000' points = '496.4,298.6 496.4,662.4 498.2,662.4 498.2,293.2 '/>
		<polygon fill = 'rgb( 31, 120, 180)' fill-opacity = '0.250000' points = '498.2,293.2 498.2,662.4 500.1,662.4 500.1,287.9 '/>
		<polygon fill = 'rgb( 31, 120, 180)' fill-opacity = '0.250000' points = '500.1,287.9 500.1,662.4 501.9,662.4 501.9,282.5 '/>
		<polygon fill = 'rgb( 31, 120, 180)' fill-opacity = '0.250000' points = '501.9,282.5 501.9,662.4 503.8,662.4 503.8,277.2 '/>
		<polygon fill = 'rgb( 31, 120, 180)' fill-opacity = '0.250000' points = '503.8,277.2 503.8,662.4 505.6,662.4 505.6,271.8 '/>
		<polygon fill = 'rgb( 31, 120, 180)' fill-opacity = '0.250000' points = '505.6,271.8 505.6,662.4 507.5,662.4 507.5,266.5 '/>
		<polygon fill = 'rgb( 31, 120, 180)' fill-opacity = '0.250000' points = '507.5,266.5 507.5,662.4 509.3,662.4 509.3,261.2 '/>
		<polygon fill = 'rgb( 31, 120, 180)' fill-opacity = '0.250000' points = '509.3,261.2 509.3,662.4 511.2,662.4 511.2,256.0 '/>
		<polygon fill = 'rgb( 31, 120, 180)' fill-opacity = '0.250000' points = '511.2,256.0 511.2,662.4 513.0,662.4 513.0,250.8 '/>
		<polygon fill = 'rgb( 31, 120, 180)' fill-opacity = '0.250000' points = '513.0,250.8 513.0,662.4 514.9,662.4 514.9,245.7 '/>
		<polygon fill = 'rgb( 31, 120, 180)' fill-opacity = '0.250000' points = '514.9,245.7 514.9,662.4 516.8,662.4 516.8,240.6 '/>
		<polygon fill = 'rgb( 31, 120, 180)' fill-opacity = '0.250000' points = '516.8,240.6 516.8,662.4 518.6,662.4 518.6,235.6 '/>
		<polygon fill = 'rgb( 31, 120, 180)' fill-opacity = '0.250000' points = '518.6,235.6 518.6,662.4 520.5,662.4 520.5,230.7 '/>
		<polygon fill = 'rgb( 31, 120, 180)' fill-opacity = '0.250000' points = '520.5,230.7 520.5,662.4 522.3,662.4 522.3,225.8 '/>
		<polygon fill = 'rgb( 31, 120, 180)' fill-opacity = '0.250000' points = '522.3,225.8 522.3,662.4 524.2,662.4 524.2,221.0 '/>
		<polygon fill = 'rgb( 31, 120, 180)' fill-opacity = '0.250000' points = '524.2,221.0 524.2,662.4 526.0,662.4 526.0,216.2 '/>
		<polygon fill = 'rgb( 31, 120, 180)' fill-opacity = '0.250000' points = '526.0,216.2 526.0,662.4 527.9,662.4 527.9,211.6 '/>
		<polygon fill = 'rgb( 31, 120, 180)' fill-opacity = '0.250000' points = '527.9,211.6 527.9,662.4 529.7,662.4 529.7,206.9 '/>
		<polygon fill = 'rgb( 31, 120, 180)' fill-opacity = '0.250000' points = '529.7,206.9 529.7,662.4 531.6,662.4 531.6,202.4 '/>
		<polygon fill = 'rgb( 31, 120, 180)' fill-opacity = '0.250000' points = '531.6,202.4 531.6,662.4 533.4,662.4 533.4,197.9 '/>
		<polygon fill = 'rgb( 31, 120, 180)' fill-opacity = '0.250000' points = '533.4,197.9 533.4,662.4 535.3,662.4 535.3,193.5 '/>
		<polygon fill = 'rgb( 31, 120, 180)' fill-opacity = '0.250000' points = '535.3,193.5 535.3,662.4 537.1,662.4 537.1,189.1 '/>
		<polygon fill = 'rgb( 31, 120, 180)' fill-opacity = '0.250000' points = '537.1,189.1 537.1,662.4 539.0,662.4 539.0,184.8 '/>
		<polygon fill = 'rgb( 31, 120, 180)' fill-opacity = '0.250000' points = '539.0,184.8 539.0,662.4 540.9,662.4 540.9,180.6 '/>
		<polygon fill = 'rgb( 31, 120, 180)' fill-opacity = '0.250000' points = '540.9,180.6 540.9,662.4 542.7,662.4 542.7,176.4 '/>
		<polygon fill = 'rgb( 31, 120, 180)' fill-opacity = '0.250000' points = '542.7,176.4 542.7,662.4 544.6,662.4 544.6,172.4 '/>
		<polygon fill = 'rgb( 31, 120, 180)' fill-opacity = '0.250000' points = '544.6,172.4 544.6,662.4 546.4,662.4 546.4,168.4 '/>
		<polygon fill = 'rgb( 31, 120, 180)' fill-opacity = '0.250000' points = '546.4,168.4 546.4,662.4 548.3,662.4 548.3,164.5 '/>
		<polygon fill = 'rgb( 31, 120, 180)' fill-opacity = '0.250000' points = '548.3,164.5 548.3,662.4 550.1,662.4 550.1,160.6 '/>
		<polygon fill = 'rgb( 31, 120, 180)' fill-opacity = '0.250000' points = '550.1,160.6 550.1,662.4 552.0,662.4 552.0,156.9 '/>
		<polygon fill = 'rgb( 31, 120, 180)' fill-opacity = '0.250000' points = '552.0,156.9 552.0,662.4 553.8,662.4 553.8,153.3 '/>
		<polygon fill = 'rgb( 31, 120, 180)' fill-opacity = '0.250000' points = '553.8,153.3 553.8,662.4 555.7,662.4 555.7,149.8 '/>
		<polygon fill = 'rgb( 31, 120, 180)' fill-opacity = '0.250000' points = '555.7,149.8 555.7,662.4 557.5,662.4 557.5,146.4 '/>
		<polygon fill = 'rgb( 31, 120, 180)' fill-opacity = '0.250000' points = '557.5,146.4 557.5,662.4 559.4,662.4 559.4,143.2 '/>
		<polygon fill = 'rgb( 31, 120, 180)' fill-opacity = '0.250000' points = '559.4,143.2 559.4,662.4 561.2,662.4 561.2,140.1 '/>
		<polygon fill = 'rgb( 31, 120, 180)' fill-opacity = '0.250000' points = '561.2,140.1 561.2,662.4 563.1,662.4 563.1,137.2 '/>
		<polygon fill = 'rgb( 31, 120, 180)' fill-opacity = '0.250000' points = '563.1,137.2 563.1,662.4 565.0,662.4 565.0,134.5 '/>
		<polygon fill = 'rgb( 31, 120, 180)' fill-opacity = '0.250000' points = '565.0,134.5 565.0,662.4 566.8,662.4 566.8,132.0 '/>
		<polygon fill = 'rgb( 31, 120, 180)' fill-opacity = '0.250000' points = '566.8,132.0 566.8,662.4 568.7,662.4 568.7,129.6 '/>
		<polygon fill = 'rgb( 31, 120, 180)' fill-opacity = '0.250000' points = '568.7,129.6 568.7,662.4 570.5,662.4 570.5,127.5 '/>
		<polygon fill = 'rgb( 31, 120, 180)' fill-opacity = '0.250000' points = '570.5,127.5 570.5,662.4 572.4,662.4 572.4,125.6 '/>
		<polygon fill = 'rgb( 31, 120, 180)' fill-opacity = '0.250000' points = '572.4,125.6 572.4,662.4 574.2,662.4 574.2,124.0 '/>
		<polygon fill = 'rgb( 31, 120, 180)' fill-opacity = '0.250000' points = '574.2,124.0 574.2,662.4 576.1,662.4 576.1,122.6 '/>
		<polygon fill = 'rgb( 31, 120, 180)' fill-opacity = '0.250000' points = '576.1,122.6 576.1,662.4 577.9,662.4 577.9,121.4 '/>
		<polygon fill = 'rgb( 31, 120, 180)' fill-opacity = '0.250000' points = '577.9,121.4 577.9,662.4 579.8,662.4 579.8,120.5 '/>
		<polygon fill = 'rgb( 31, 120, 180)' fill-opacity = '0.250000' points = '579.8,120.5 579.8,662.4 581.6,662.4 581.6,119.9 '/>
		<polygon fill = 'rgb( 31, 120, 180)' fill-opacity = '0.250000' points = '581.6,119.9 581.6,662.4 583.5,662.4 583.5,119.6 '/>
		<polygon fill = 'rgb( 31, 120, 180)' fill-opacity = '0.250000' points = '583.5,119.6 583.5,662.4 585.3,662.4 585.3,119.5 '/>
		<polygon fill = 'rgb( 31, 120, 180)' fill-opacity = '0.250000' points = '585.3,119.5 585.3,662.4 587.2,662.4 587.2,119.8 '/>
		<polygon fill = 'rgb( 31, 120, 180)' fill-opacity = '0.250000' points = '587.2,119.8 587.2,662.4 589.1,662.4 589.1,120.3 '/>
		<polygon fill = 'rgb( 31, 120, 180)' fill-opacity = '0.250000' points = '589.1,120.3 589.1,662.4 590.9,662.4 590.9,121.2 '/>
		<polygon fill = 'rgb( 31, 120, 180)' fill-opacity = '0.250000' points = '590.9,121.2 590.9,662.4 592.8,662.4 592.8,122.3 '/>
		<polygon fill = 'rgb( 31, 120, 180)' fill-opacity = '0.250000' points = '592.8,122.3 592.8,662.4 594.6,662.4 594.6,123.8 '/>
		<polygon fill = 'rgb( 31, 120, 180)' fill-opacity = '0.250000' points = '594.6,123.8 594.6,662.4 596.5,662.4 596.5,125.5 '/>
		<polygon fill = 'rgb( 31, 120, 180)' fill-opacity = '0.250000' points = '596.5,125.5 596.5,662.4 598.3,662.4 598.3,127.5 '/>
		<polygon fill = 'rgb( 31, 120, 180)' fill-opacity = '0.250000' points = '598.3,127.5 598.3,662.4 600.2,662.4 600.2,129.9 '/>
		<polygon fill = 'rgb( 31, 120, 180)' fill-opacity = '0.250000' points = '600.2,129.9 600.2,662.4 602.0,662.4 602.0,132.5 '/>
		<polygon fill = 'rgb( 31, 120, 180)' fill-opacity = '0.250000' points = '602.0,132.5 602.0,662.4 603.9,662.4 603.9,135.4 '/>
		<polygon fill = 'rgb( 31, 120, 180)' fill-opacity = '0.250000' points = '603.9,135.4 603.9,662.4 605.7,662.4 605.7,138.5 '/>
		<polygon fill = 'rgb( 31, 120, 180)' fill-opacity = '0.250000' points = '605.7,138.5 605.7,662.4 607.6,662.4 607.6,141.9 '/>
		<polygon fill = 'rgb( 31, 120, 180)' fill-opacity = '0.250000' points = '607.6,141.9 607.6,662.4 609.4,662.4 609.4,145.5 '/>
		<polygon fill = 'rgb( 31, 120, 180)' fill-opacity = '0.250000' points = '609.4,145.5 609.4,662.4 611.3,662.4 611.3,149.4 '/>
		<polygon fill = 'rgb( 31, 120, 180)' fill-opacity = '0.250000' points = '611.3,149.4 611.3,662.4 613.2,662.4 613.2,153.5 '/>
		<polygon fill = 'rgb( 31, 120, 180)' fill-opacity = '0.250000' points = '613.2,153.5 613.2,662.4 615.0,662.4 615.0,157.8 '/>
		<polygon fill = 'rgb( 31, 120, 180)' fill-opacity = '0.250000' points = '615.0,157.8 615.0,662.4 616.9,662.4 616.9,162.2 '/>
		<polygon fill = 'rgb( 31, 120, 180)' fill-opacity = '0.250000' points = '616.9,162.2 616.9,662.4 618.7,662.4 618.7,166.9 '/>
		<polygon fill = 'rgb( 31, 120, 180)' fill-opacity = '0.250000' points = '618.7,166.9 618.7,662.4 620.6,662.4 620.6,171.7 '/>
		<polygon fill = 'rgb( 31, 120, 180)' fill-opacity = '0.250000' points = '620.6,171.7 620.6,662.4 622.4,662.4 622.4,176.6 '/>
		<polygon fill = 'rgb( 31, 120, 180)' fill-opacity = '0.250000' points = '622.4,176.6 622.4,662.4 624.3,662.4 624.3,181.6 '/>
		<polygon fill = 'rgb( 31, 120, 180)' fill-opacity = '0.250000' points = '624.3,181.6 624.3,662.4 626.1,662.4 626.1,186.8 '/>
		<polygon fill = 'rgb( 31, 120, 180)' fill-opacity = '0.250000' points = '626.1,186.8 626.1,662.4 628.0,662.4 628.0,192.0 '/>
		<polygon fill = 'rgb( 31, 120, 180)' fill-opacity = '0.250000' points = '628.0,192.0 628.0,662.4 629.8,662.4 629.8,197.3 '/>
		<polygon fill = 'rgb( 31, 120, 180)' fill-opacity = '0.250000' points = '629.8,197.3 629.8,662.4 631.7,662.4 631.7,202.7 '/>
		<polygon fill = 'rgb( 31, 120, 180)' fill-opacity = '0.250000' points = '631.7,202.7 631.7,662.4 633.5,662.4 633.5,208.1 '/>
		<polygon fill = 'rgb( 31, 120, 180)' fill-opacity = '0.250000' points = '633.5,208.1 633.5,662.4 635.4,662.4 635.4,213.6 '/>
		<polygon fill = 'rgb( 31, 120, 180)' fill-opacity = '0.250000' points = '635.4,213.6 635.4,662.4 637.3,662.4 637.3,219.0 '/>
		<polygon fill = 'rgb( 31, 120, 180)' fill-opacity = '0.250000' points = '637.3,219.0 637.3,662.4 639.1,662.4 639.1,224.5 '/>
		<polygon fill = 'rgb( 31, 120, 180)' fill-opacity = '0.250000' points = '639.1,224.5 639.1,662.4 641.0,662.4 641.0,229.9 '/>
		<polygon fill = 'rgb( 31, 120, 180)' fill-opacity = '0.250000' points = '641.0,229.9 641.0,662.4 642.8,662.4 642.8,235.3 '/>
		<polygon fill = 'rgb( 31, 120, 180)' fill-opacity = '0.250000' points = '642.8,235.3 642.8,662.4 644.7,662.4 644.7,240.7 '/>
		<polygon fill = 'rgb( 31, 120, 180)' fill-opacity = '0.250000' points = '644.7,240.7 644.7,662.4 646.5,662.4 646.5,246.0 '/>
		<polygon fill = 'rgb( 31, 120, 180)' fill-opacity = '0.250000' points = '646.5,246.0 646.5,662.4 648.4,662.4 648.4,251.3 '/>
		<polygon fill = 'rgb( 31, 120, 180)' fill-opacity = '0.250000' points = '648.4,251.3 648.4,662.4 650.2,662.4 650.2,256.5 '/>
		<polygon fill = 'rgb( 31, 120, 180)' fill-opacity = '0.250000' points = '650.2,256.5 650.2,662.4 652.1,662.4 652.1,261.5 '/>
		<polygon fill = 'rgb( 31, 120, 180)' fill-opacity = '0.250000' points = '652.1,261.5 652.1,662.4 653.9,662.4 653.9,266.5 '/>
		<polygon fill = 'rgb( 31, 120, 180)' fill-opacity = '0.250000' points = '653.9,266.5 653.9,662.4 655.8,662.4 655.8,271.3 '/>
		<polygon fill = 'rgb( 31, 120, 180)' fill-opacity = '0.250000' points = '655.8,271.3 655.8,662.4 657.6,662.4 657.6,276.0 '/>
		<polygon fill = 'rgb( 31, 120, 180)' fill-opacity = '0.250000' points = '657.6,276.0 657.6,662.4 659.5,662.4 659.5,280.6 '/>
		<polygon fill = 'rgb( 31, 120, 180)' fill-opacity = '0.250000' points = '659.5,280.6 659.5,662.4 661.4,662.4 661.4,284.9 '/>
		<polygon fill = 'rgb( 31, 120, 180)' fill-opacity = '0.250000' points = '661.4,284.9 661.4,662.4 663.2,662.4 663.2,289.1 '/>
		<polygon fill = 'rgb( 31, 120, 180)' fill-opacity = '0.250000' points = '663.2,289.1 663.2,662.4 665.1,662.4 665.1,293.1 '/>
		<polygon fill = 'rgb( 31, 120, 180)' fill-opacity = '0.250000' points = '665.1,293.1 665.1,662.4 666.9,662.4 666.9,296.9 '/>
		<polygon fill = 'rgb( 31, 120, 180)' fill-opacity = '0.250000' points = '666.9,296.9 666.9,662.4 668.8,662.4 668.8,300.5 '/>
		<polygon fill = 'rgb( 31, 120, 180)' fill-opacity = '0.250000' points = '668.8,300.5 668.8,662.4 670.6,662.4 670.6,303.8 '/>
		<polygon fill = 'rgb( 31, 120, 180)' fill-opacity = '0.250000' points = '670.6,303.8 670.6,662.4 672.5,662.4 672.5,306.9 '/>
		<polygon fill = 'rgb( 31, 120, 180)' fill-opacity = '0.250000' points = '672.5,306.9 672.5,662.4 674.3,662.4 674.3,309.7 '/>
		<polygon fill = 'rgb( 31, 120, 180)' fill-opacity = '0.250000' points = '674.3,309.7 674.3,662.4 676.2,662.4 676.2,312.3 '/>
		<polygon fill = 'rgb( 31, 120, 180)' fill-opacity = '0.250000' points = '676.2,312.3 676.2,662.4 678.0,662.4 678.0,314.6 '/>
		<polygon fill = 'rgb( 31, 120, 180)' fill-opacity = '0.250000' points = '678.0,314.6 678.0,662.4 679.9,662.4 679.9,316.6 '/>
		<polygon fill = 'rgb( 31, 120, 180)' fill-opacity = '0.250000' points = '679.9,316.6 679.9,662.4 681.8,662.4 681.8,318.4 '/>
		<polygon fill = 'rgb( 31, 120, 180)' fill-opacity = '0.250000' points = '681.8,318.4 681.8,662.4 683.6,662.4 683.6,319.9 '/>
		<polygon fill = 'rgb( 31, 120, 180)' fill-opacity = '0.250000' points = '683.6,319.9 683.6,662.4 685.5,662.4 685.5,321.2 '/>
		<polygon fill = 'rgb( 31, 120, 180)' fill-opacity = '0.250000' points = '685.5,321.2 685.5,662.4 687.3,662.4 687.3,322.1 '/>
		<polygon fill = 'rgb( 31, 120, 180)' fill-opacity = '0.250000' points = '687.3,322.1 687.3,662.4 689.2,662.4 689.2,322.9 '/>
		<polygon fill = 'rgb( 31, 120, 180)' fill-opacity = '0.250000' points = '689.2,322.9 689.2,662.4 691.0,662.4 691.0,323.3 '/>
		<polygon fill = 'rgb( 31, 120, 180)' fill-opacity = '0.250000' points = '691.0,323.3 691.0,662.4 692.9,662.4 692.9,323.6 '/>
		<polygon fill = 'rgb( 31, 120, 180)' fill-opacity = '0.250000' points = '692.9,323.6 692.9,662.4 694.7,662.4 694.7,323.6 '/>
		<polygon fill = 'rgb( 31, 120, 180)' fill-opacity = '0.250000' points = '694.7,323.6 694.7,662.4 696.6,662.4 696.6,323.4 '/>
		<polygon fill = 'rgb( 31, 120, 180)' fill-opacity = '0.250000' points = '696.6,323.4 696.6,662.4 698.4,662.4 698.4,323.0 '/>
		<polygon fill = 'rgb( 31, 120, 180)' fill-opacity = '0.250000' points = '698.4,323.0 698.4,662.4 700.3,662.4 700.3,322.4 '/>
		<polygon fill = 'rgb( 31, 120, 180)' fill-opacity = '0.250000' points = '700.3,322.4 700.3,662.4 702.1,662.4 702.1,321.6 '/>
		<polygon fill = 'rgb( 31, 120, 180)' fill-opacity = '0.250000' points = '702.1,321.6 702.1,662.4 704.0,662.4 704.0,320.7 '/>
		<polygon fill = 'rgb( 31, 120, 180)' fill-opacity = '0.250000' points = '704.0,320.7 704.0,662.4 705.9,662.4 705.9,319.6 '/>
		<polygon fill = 'rgb( 31, 120, 180)' fill-opacity = '0.250000' points = '705.9,319.6 705.9,662.4 707.7,662.4 707.7,318.5 '/>
		<polygon fill = 'rgb( 31, 120, 180)' fill-opacity = '0.250000' points = '707.7,318.5 707.7,662.4 709.6,662.4 709.6,317.2 '/>
		<polygon fill = 'rgb( 31, 120, 180)' fill-opacity = '0.250000' points = '709.6,317.2 709.6,662.4 711.4,662.4 711.4,315.8 '/>
		<polygon fill = 'rgb( 31, 120, 180)' fill-opacity = '0.250000' points = '711.4,315.8 711.4,662.4 713.3,662.4 713.3,314.4 '/>
		<polygon fill = 'rgb( 31, 120, 180)' fill-opacity = '0.250000' points = '713.3,314.4 713.3,662.4 715.1,662.4 715.1,312.9 '/>
		<polygon fill = 'rgb( 31, 120, 180)' fill-opacity = '0.250000' points = '715.1,312.9 715.1,662.4 717.0,662.4 717.0,311.3 '/>
		<polygon fill = 'rgb( 31, 120, 180)' fill-opacity = '0.250000' points = '717.0,311.3 717.0,662.4 718.8,662.4 718.8,309.8 '/>
		<polygon fill = 'rgb( 31, 120, 180)' fill-opacity = '0.250000' points = '718.8,309.8 718.8,662.4 720.7,662.4 720.7,308.3 '/>
		<polygon fill = 'rgb( 31, 120, 180)' fill-opacity = '0.250000' points = '720.7,308.3 720.7,662.4 722.5,662.4 722.5,306.7 '/>
		<polygon fill = 'rgb( 31, 120, 180)' fill-opacity = '0.250000' points = '722.5,306.7 722.5,662.4 724.4,662.4 724.4,305.3 '/>
		<polygon fill = 'rgb( 31, 120, 180)' fill-opacity = '0.250000' points = '724.4,305.3 724.4,662.4 726.2,662.4 726.2,303.9 '/>
		<polygon fill = 'rgb( 31, 120, 180)' fill-opacity = '0.250000' points = '726.2,303.9 726.2,662.4 728.1,662.4 728.1,302.5 '/>
		<polygon fill = 'rgb( 31, 120, 180)' fill-opacity = '0.250000' points = '728.1,302.5 728.1,662.4 730.0,662.4 730.0,301.3 '/>
		<polygon fill = 'rgb( 31, 120, 180)' fill-opacity = '0.250000' points = '730.0,301.3 730.0,662.4 731.8,662.4 731.8,300.1 '/>
		<polygon fill = 'rgb( 31, 120, 180)' fill-opacity = '0.250000' points = '731.8,300.1 731.8,662.4 733.7,662.4 733.7,299.1 '/>
		<polygon fill = 'rgb( 31, 120, 180)' fill-opacity = '0.250000' points = '733.7,299.1 733.7,662.4 735.5,662.4 735.5,298.3 '/>
		<polygon fill = 'rgb( 31, 120, 180)' fill-opacity = '0.250000' points = '735.5,298.3 735.5,662.4 737.4,662.4 737.4,297.5 '/>
		<polygon fill = 'rgb( 31, 120, 180)' fill-opacity = '0.250000' points = '737.4,297.5 737.4,662.4 739.2,662.4 739.2,297.0 '/>
		<polygon fill = 'rgb( 31, 120, 180)' fill-opacity = '0.250000' points = '739.2,297.0 739.2,662.4 741.1,662.4 741.1,296.6 '/>
		<polygon fill = 'rgb( 31, 120, 180)' fill-opacity = '0.250000' points = '741.1,296.6 741.1,662.4 742.9,662.4 742.9,296.4 '/>
		<polygon fill = 'rgb( 31, 120, 180)' fill-opacity = '0.250000' points = '742.9,296.4 742.9,662.4 744.8,662.4 744.8,296.5 '/>
		<polygon fill = 'rgb( 31, 120, 180)' fill-opacity = '0.250000' points = '744.8,296.5 744.8,662.4 746.6,662.4 746.6,296.7 '/>
		<polygon fill = 'rgb( 31, 120, 180)' fill-opacity = '0.250000' points = '746.6,296.7 746.6,662.4 748.5,662.4 748.5,297.1 '/>
		<polygon fill = 'rgb( 31, 120, 180)' fill-opacity = '0.250000' points = '748.5,297.1 748.5,662.4 750.3,662.4 750.3,297.8 '/>
		<polygon fill = 'rgb( 31, 120, 180)' fill-opacity = '0.250000' points = '750.3,297.8 750.3,662.4 752.2,662.4 752.2,298.7 '/>
		<polygon fill = 'rgb( 31, 120, 180)' fill-opacity = '0.250000' points = '752.2,298.7 752.2,662.4 754.1,662.4 754.1,299.8 '/>
		<polygon fill = 'rgb( 31, 120, 180)' fill-opacity = '0.250000' points = '754.1,299.8 754.1,662.4 755.9,662.4 755.9,301.1 '/>
		<polygon fill = 'rgb( 31, 120, 180)' fill-opacity = '0.250000' points = '755.9,301.1 755.9,662.4 757.8,662.4 757.8,302.6 '/>
		<polygon fill = 'rgb( 31, 120, 180)' fill-opacity = '0.250000' points = '757.8,302.6 757.8,662.4 759.6,662.4 759.6,304.4 '/>
		<polygon fill = 'rgb( 31, 120, 180)' fill-opacity = '0.250000' points = '759.6,304.4 759.6,662.4 761.5,662.4 761.5,306.4 '/>
		<polygon fill = 'rgb( 31, 120, 180)' fill-opacity = '0.250000' points = '761.5,306.4 761.5,662.4 763.3,662.4 763.3,308.6 '/>
		<polygon fill = 'rgb( 31, 120, 180)' fill-opacity = '0.250000' points = '763.3,308.6 763.3,662.4 765.2,662.4 765.2,311.0 '/>
		<polygon fill = 'rgb( 31, 120, 180)' fill-opacity = '0.250000' points = '765.2,311.0 765.2,662.4 767.0,662.4 767.0,313.7 '/>
		<polygon fill = 'rgb( 31, 120, 180)' fill-opacity = '0.250000' points = '767.0,313.7 767.0,662.4 768.9,662.4 768.9,316.5 '/>
		<polygon fill = 'rgb( 31, 120, 180)' fill-opacity = '0.250000' points = '768.9,316.5 768.9,662.4 770.7,662.4 770.7,319.6 '/>
		<polygon fill = 'rgb( 31, 120, 180)' fill-opacity = '0.250000' points = '770.7,319.6 770.7,662.4 772.6,662.4 772.6,322.8 '/>
		<polygon fill = 'rgb( 31, 120, 180)' fill-opacity = '0.250000' points = '772.6,322.8 772.6,662.4 774.4,662.4 774.4,326.3 '/>
		<polygon fill = 'rgb( 31, 120, 180)' fill-opacity = '0.250000' points = '774.4,326.3 774.4,662.4 776.3,662.4 776.3,329.9 '/>
		<polygon fill = 'rgb( 31, 120, 180)' fill-opacity = '0.250000' points = '776.3,329.9 776.3,662.4 778.2,662.4 778.2,333.6 '/>
		<polygon fill = 'rgb( 31, 120, 180)' fill-opacity = '0.250000' points = '778.2,333.6 778.2,662.4 780.0,662.4 780.0,337.6 '/>
		<polygon fill = 'rgb( 31, 120, 180)' fill-opacity = '0.250000' points = '780.0,337.6 780.0,662.4 781.9,662.4 781.9,341.7 '/>
		<polygon fill = 'rgb( 31, 120, 180)' fill-opacity = '0.250000' points = '781.9,341.7 781.9,662.4 783.7,662.4 783.7,345.9 '/>
		<polygon fill = 'rgb( 31, 120, 180)' fill-opacity = '0.250000' points = '783.7,345.9 783.7,662.4 785.6,662.4 785.6,350.3 '/>
		<polygon fill = 'rgb( 31, 120, 180)' fill-opacity = '0.250000' points = '785.6,350.3 785.6,662.4 787.4,662.4 787.4,354.7 '/>
		<polygon fill = 'rgb( 31, 120, 180)' fill-opacity = '0.250000' points = '787.4,354.7 787.4,662.4 789.3,662.4 789.3,359.3 '/>
		<polygon fill = 'rgb( 31, 120, 180)' fill-opacity = '0.250000' points = '789.3,359.3 789.3,662.4 791.1,662.4 791.1,364.0 '/>
		<polygon fill = 'rgb( 31, 120, 180)' fill-opacity = '0.250000' points = '791.1,364.0 791.1,662.4 793.0,662.4 793.0,368.7 '/>
		<polygon fill = 'rgb( 31, 120, 180)' fill-opacity = '0.250000' points = '793.0,368.7 793.0,662.4 794.8,662.4 794.8,373.5 '/>
		<polygon fill = 'rgb( 31, 120, 180)' fill-opacity = '0.250000' points = '794.8,373.5 794.8,662.4 796.7,662.4 796.7,378.4 '/>
		<polygon fill = 'rgb( 31, 120, 180)' fill-opacity = '0.250000' points = '796.7,378.4 796.7,662.4 798.5,662.4 798.5,383.3 '/>
		<polygon fill = 'rgb( 31, 120, 180)' fill-opacity = '0.250000' points = '798.5,383.3 798.5,662.4 800.4,662.4 800.4,388.2 '/>
		<polygon fill = 'rgb( 31, 120, 180)' fill-opacity = '0.250000' points = '800.4,388.2 800.4,662.4 802.3,662.4 802.3,393.1 '/>
		<polygon fill = 'rgb( 31, 120, 180)' fill-opacity = '0.250000' points = '802.3,393.1 802.3,662.4 804.1,662.4 804.1,398.1 '/>
		<polygon fill = 'rgb( 31, 120, 180)' fill-opacity = '0.250000' points = '804.1,398.1 804.1,662.4 806.0,662.4 806.0,402.9 '/>
		<polygon fill = 'rgb( 31, 120, 180)' fill-opacity = '0.250000' points = '806.0,402.9 806.0,662.4 807.8,662.4 807.8,407.8 '/>
		<polygon fill = 'rgb( 31, 120, 180)' fill-opacity = '0.250000' points = '807.8,407.8 807.8,662.4 809.7,662.4 809.7,412.6 '/>
		<polygon fill = 'rgb( 31, 120, 180)' fill-opacity = '0.250000' points = '809.7,412.6 809.7,662.4 811.5,662.4 811.5,417.4 '/>
		<polygon fill = 'rgb( 31, 120, 180)' fill-opacity = '0.250000' points = '811.5,417.4 811.5,662.4 813.4,662.4 813.4,422.1 '/>
		<polygon fill = 'rgb( 31, 120, 180)' fill-opacity = '0.250000' points = '813.4,422.1 813.4,662.4 815.2,662.4 815.2,426.7 '/>
		<polygon fill = 'rgb( 31, 120, 180)' fill-opacity = '0.250000' points = '815.2,426.7 815.2,662.4 817.1,662.4 817.1,431.2 '/>
		<polygon fill = 'rgb( 31, 120, 180)' fill-opacity = '0.250000' points = '817.1,431.2 817.1,662.4 818.9,662.4 818.9,435.7 '/>
		<polygon fill = 'rgb( 31, 120, 180)' fill-opacity = '0.250000' points = '818.9,435.7 818.9,662.4 820.8,662.4 820.8,440.0 '/>
		<polygon fill = 'rgb( 31, 120, 180)' fill-opacity = '0.250000' points = '820.8,440.0 820.8,662.4 822.6,662.4 822.6,444.2 '/>
		<polygon fill = 'rgb( 31, 120, 180)' fill-opacity = '0.250000' points = '822.6,444.2 822.6,662.4 824.5,662.4 824.5,448.3 '/>
		<polygon fill = 'rgb( 31, 120, 180)' fill-opacity = '0.250000' points = '824.5,448.3 824.5,662.4 826.4,662.4 826.4,452.3 '/>
		<polygon fill = 'rgb( 31, 120, 180)' fill-opacity = '0.250000' points = '826.4,452.3 826.4,662.4 828.2,662.4 828.2,456.1 '/>
		<polygon fill = 'rgb( 31, 120, 180)' fill-opacity = '0.250000' points = '828.2,456.1 828.2,662.4 830.1,662.4 830.1,459.8 '/>
		<polygon fill = 'rgb( 31, 120, 180)' fill-opacity = '0.250000' points = '830.1,459.8 830.1,662.4 831.9,662.4 831.9,463.4 '/>
		<polygon fill = 'rgb( 31, 120, 180)' fill-opacity = '0.250000' points = '831.9,463.4 831.9,662.4 833.8,662.4 833.8,466.9 '/>
		<polygon fill = 'rgb( 31, 120, 180)' fill-opacity = '0.250000' points = '833.8,466.9 833.8,662.4 835.6,662.4 835.6,470.2 '/>
		<polygon fill = 'rgb( 31, 120, 180)' fill-opacity = '0.250000' points = '835.6,470.2 835.6,662.4 837.5,662.4 837.5,473.3 '/>
		<polygon fill = 'rgb( 31, 120, 180)' fill-opacity = '0.250000' points = '837.5,473.3 837.5,662.4 839.3,662.4 839.3,476.4 '/>
		<polygon fill = 'rgb( 31, 120, 180)' fill-opacity = '0.250000' points = '839.3,476.4 839.3,662.4 841.2,662.4 841.2,479.2 '/>
		<polygon fill = 'rgb( 31, 120, 180)' fill-opacity = '0.250000' points = '841.2,479.2 841.2,662.4 843.0,662.4 843.0,482.0 '/>
		<polygon fill = 'rgb( 31, 120, 180)' fill-opacity = '0.250000' points = '843.0,482.0 843.0,662.4 844.9,662.4 844.9,484.6 '/>
		<polygon fill = 'rgb( 31, 120, 180)' fill-opacity = '0.250000' points = '844.9,484.6 844.9,662.4 846.7,662.4 846.7,487.0 '/>
		<polygon fill = 'rgb( 31, 120, 180)' fill-opacity = '0.250000' points = '846.7,487.0 846.7,662.4 848.6,662.4 848.6,489.4 '/>
		<polygon fill = 'rgb( 31, 120, 180)' fill-opacity = '0.250000' points = '848.6,489.4 848.6,662.4 850.5,662.4 850.5,491.6 '/>
		<polygon fill = 'rgb( 31, 120, 180)' fill-opacity = '0.250000' points = '850.5,491.6 850.5,662.4 852.3,662.4 852.3,493.6 '/>
		<polygon fill = 'rgb( 31, 120, 180)' fill-opacity = '0.250000' points = '852.3,493.6 852.3,662.4 854.2,662.4 854.2,495.6 '/>
		<polygon fill = 'rgb( 31, 120, 180)' fill-opacity = '0.250000' points = '854.2,495.6 854.2,662.4 856.0,662.4 856.0,497.5 '/>
		<polygon fill = 'rgb( 31, 120, 180)' fill-opacity = '0.250000' points = '856.0,497.5 856.0,662.4 857.9,662.4 857.9,499.2 '/>
		<polygon fill = 'rgb( 31, 120, 180)' fill-opacity = '0.250000' points = '857.9,499.2 857.9,662.4 859.7,662.4 859.7,500.9 '/>
		<polygon fill = 'rgb( 31, 120, 180)' fill-opacity = '0.250000' points = '859.7,500.9 859.7,662.4 861.6,662.4 861.6,502.4 '/>
		<polygon fill = 'rgb( 31, 120, 180)' fill-opacity = '0.250000' points = '861.6,502.4 861.6,662.4 863.4,662.4 863.4,503.9 '/>
		<polygon fill = 'rgb( 31, 120, 180)' fill-opacity = '0.250000' points = '863.4,503.9 863.4,662.4 865.3,662.4 865.3,505.4 '/>
		<polygon fill = 'rgb( 31, 120, 180)' fill-opacity = '0.250000' points = '865.3,505.4 865.3,662.4 867.1,662.4 867.1,506.7 '/>
		<polygon fill = 'rgb( 31, 120, 180)' fill-opacity = '0.250000' points = '867.1,506.7 867.1,662.4 869.0,662.4 869.0,508.1 '/>
		<polygon fill = 'rgb( 31, 120, 180)' fill-opacity = '0.250000' points = '869.0,508.1 869.0,662.4 870.8,662.4 870.8,509.3 '/>
		<polygon fill = 'rgb( 31, 120, 180)' fill-opacity = '0.250000' points = '870.8,509.3 870.8,662.4 872.7,662.4 872.7,510.6 '/>
		<polygon fill = 'rgb( 31, 120, 180)' fill-opacity = '0.250000' points = '872.7,510.6 872.7,662.4 874.6,662.4 874.6,511.9 '/>
		<polygon fill = 'rgb( 31, 120, 180)' fill-opacity = '0.250000' points = '874.6,511.9 874.6,662.4 876.4,662.4 876.4,513.1 '/>
		<polygon fill = 'rgb( 31, 120, 180)' fill-opacity = '0.250000' points = '876.4,513.1 876.4,662.4 878.3,662.4 878.3,514.3 '/>
		<polygon fill = 'rgb( 31, 120, 180)' fill-opacity = '0.250000' points = '878.3,514.3 878.3,662.4 880.1,662.4 880.1,515.6 '/>
		<polygon fill = 'rgb( 31, 120, 180)' fill-opacity = '0.250000' points = '880.1,515.6 880.1,662.4 882.0,662.4 882.0,516.9 '/>
		<polygon fill = 'rgb( 31, 120, 180)' fill-opacity = '0.250000' points = '882.0,516.9 882.0,662.4 883.8,662.4 883.8,518.2 '/>
		<polygon fill = 'rgb( 31, 120, 180)' fill-opacity = '0.250000' points = '883.8,518.2 883.8,662.4 885.7,662.4 885.7,519.5 '/>
		<polygon fill = 'rgb( 31, 120, 180)' fill-opacity = '0.250000' points = '885.7,519.5 885.7,662.4 887.5,662.4 887.5,520.9 '/>
		<polygon fill = 'rgb( 31, 120, 180)' fill-opacity = '0.250000' points = '887.5,520.9 887.5,662.4 889.4,662.4 889.4,522.3 '/>
		<polygon fill = 'rgb( 31, 120, 180)' fill-opacity = '0.250000' points = '889.4,522.3 889.4,662.4 891.2,662.4 891.2,523.8 '/>
		<polygon fill = 'rgb( 31, 120, 180)' fill-opacity = '0.250000' points = '891.2,523.8 891.2,662.4 893.1,662.4 893.1,525.4 '/>
		<polygon fill = 'rgb( 31, 120, 180)' fill-opacity = '0.250000' points = '893.1,525.4 893.1,662.4 894.9,662.4 894.9,527.0 '/>
		<polygon fill = 'rgb( 31, 120, 180)' fill-opacity = '0.250000' points = '894.9,527.0 894.9,662.4 896.8,662.4 896.8,528.6 '/>
		<polygon fill = 'rgb( 31, 120, 180)' fill-opacity = '0.250000' points = '896.8,528.6 896.8,662.4 898.7,662.4 898.7,530.4 '/>
		<polygon fill = 'rgb( 31, 120, 180)' fill-opacity = '0.250000' points = '898.7,530.4 898.7,662.4 900.5,662.4 900.5,532.1 '/>
		<polygon fill = 'rgb( 31, 120, 180)' fill-opacity = '0.250000' points = '900.5,532.1 900.5,662.4 902.4,662.4 902.4,534.0 '/>
		<polygon fill = 'rgb( 31, 120, 180)' fill-opacity = '0.250000' points = '902.4,534.0 902.4,662.4 904.2,662.4 904.2,535.9 '/>
		<polygon fill = 'rgb( 31, 120, 180)' fill-opacity = '0.250000' points = '904.2,535.9 904.2,662.4 906.1,662.4 906.1,537.9 '/>
		<polygon fill = 'rgb( 31, 120, 180)' fill-opacity = '0.250000' points = '906.1,537.9 906.1,662.4 907.9,662.4 907.9,539.9 '/>
		<polygon fill = 'rgb( 31, 120, 180)' fill-opacity = '0.250000' points = '907.9,539.9 907.9,662.4 909.8,662.4 909.8,542.0 '/>
		<polygon fill = 'rgb( 31, 120, 180)' fill-opacity = '0.250000' points = '909.8,542.0 909.8,662.4 911.6,662.4 911.6,544.1 '/>
		<polygon fill = 'rgb( 31, 120, 180)' fill-opacity = '0.250000' points = '911.6,544.1 911.6,662.4 913.5,662.4 913.5,546.3 '/>
		<polygon fill = 'rgb( 31, 120, 180)' fill-opacity = '0.250000' points = '913.5,546.3 913.5,662.4 915.3,662.4 915.3,548.4 '/>
		<polygon fill = 'rgb( 31, 120, 180)' fill-opacity = '0.250000' points = '915.3,548.4 915.3,662.4 917.2,662.4 917.2,550.7 '/>
		<polygon fill = 'rgb( 31, 120, 180)' fill-opacity = '0.250000' points = '917.2,550.7 917.2,662.4 919.1,662.4 919.1,552.9 '/>
		<polygon fill = 'rgb( 31, 120, 180)' fill-opacity = '0.250000' points = '919.1,552.9 919.1,662.4 920.9,662.4 920.9,555.2 '/>
		<polygon fill = 'rgb( 31, 120, 180)' fill-opacity = '0.250000' points = '920.9,555.2 920.9,662.4 922.8,662.4 922.8,557.5 '/>
		<polygon fill = 'rgb( 31, 120, 180)' fill-opacity = '0.250000' points = '922.8,557.5 922.8,662.4 924.6,662.4 924.6,559.8 '/>
		<polygon fill = 'rgb( 31, 120, 180)' fill-opacity = '0.250000' points = '924.6,559.8 924.6,662.4 926.5,662.4 926.5,562.1 '/>
	</g>
</g>
	</g>
	<g id="gnuplot_plot_3" ><title>Point estimate</title>
<g fill="none" color="white" stroke="rgb( 31, 120, 180)" stroke-width="2.00" stroke-linecap="butt" stroke-linejoin="miter">
</g>
<g fill="none" color="black" stroke="currentColor" stroke-width="2.00" stroke-linecap="butt" stroke-linejoin="miter">
	<g transform="translate(1089.0,103.0)" stroke="none" fill="black" font-family="Helvetica" font-size="12.00"  text-anchor="start">
		<text><tspan font-family="Helvetica" >Point estimate</tspan></text>
	</g>
</g>
<g fill="none" color="black" stroke="currentColor" stroke-width="2.00" stroke-linecap="butt" stroke-linejoin="miter">
	<path stroke='rgb( 31, 120, 180)'  d='M1038.5,99.1 L1080.7,99.1 M602.1,662.4 L602.1,132.6  '/></g>
	</g>
<g fill="none" color="black" stroke="currentColor" stroke-width="2.00" stroke-linecap="butt" stroke-linejoin="miter">
</g>
<g fill="none" color="black" stroke="black" stroke-width="1.00" stroke-linecap="butt" stroke-linejoin="miter">
</g>
<g fill="none" color="black" stroke="currentColor" stroke-width="1.00" stroke-linecap="butt" stroke-linejoin="miter">
	<path stroke='black'  d='M88.5,54.1 L88.5,662.4 L1013.6,662.4 L1013.6,54.1 L88.5,54.1 Z  '/></g>
<g fill="none" color="black" stroke="currentColor" stroke-width="1.00" stroke-linecap="butt" stroke-linejoin="miter">
</g>
</g>
</svg>

