<?xml version="1.0" encoding="utf-8"  standalone="no"?>
<svg 
 viewBox="0 0 1280 720"
 xmlns="http://www.w3.org/2000/svg"
 xmlns:xlink="http://www.w3.org/1999/xlink"
>

<title>Gnuplot</title>
<desc>Produced by GNUPLOT 5.0 patchlevel 6 </desc>

<g id="gnuplot_canvas">

<rect x="0" y="0" width="1280" height="720" fill="none"/>
<defs>

	<circle id='gpDot' r='0.5' stroke-width='0.5'/>
	<path id='gpPt0' stroke-width='0.222' stroke='currentColor' d='M-1,0 h2 M0,-1 v2'/>
	<path id='gpPt1' stroke-width='0.222' stroke='currentColor' d='M-1,-1 L1,1 M1,-1 L-1,1'/>
	<path id='gpPt2' stroke-width='0.222' stroke='currentColor' d='M-1,0 L1,0 M0,-1 L0,1 M-1,-1 L1,1 M-1,1 L1,-1'/>
	<rect id='gpPt3' stroke-width='0.222' stroke='currentColor' x='-1' y='-1' width='2' height='2'/>
	<rect id='gpPt4' stroke-width='0.222' stroke='currentColor' fill='currentColor' x='-1' y='-1' width='2' height='2'/>
	<circle id='gpPt5' stroke-width='0.222' stroke='currentColor' cx='0' cy='0' r='1'/>
	<use xlink:href='#gpPt5' id='gpPt6' fill='currentColor' stroke='none'/>
	<path id='gpPt7' stroke-width='0.222' stroke='currentColor' d='M0,-1.33 L-1.33,0.67 L1.33,0.67 z'/>
	<use xlink:href='#gpPt7' id='gpPt8' fill='currentColor' stroke='none'/>
	<use xlink:href='#gpPt7' id='gpPt9' stroke='currentColor' transform='rotate(180)'/>
	<use xlink:href='#gpPt9' id='gpPt10' fill='currentColor' stroke='none'/>
	<use xlink:href='#gpPt3' id='gpPt11' stroke='currentColor' transform='rotate(45)'/>
	<use xlink:href='#gpPt11' id='gpPt12' fill='currentColor' stroke='none'/>
	<path id='gpPt13' stroke-width='0.222' stroke='currentColor' d='M0,1.330 L1.265,0.411 L0.782,-1.067 L-0.782,-1.076 L-1.265,0.411 z'/>
	<use xlink:href='#gpPt13' id='gpPt14' fill='currentColor' stroke='none'/>
	<filter id='textbox' filterUnits='objectBoundingBox' x='0' y='0' height='1' width='1'>
	  <feFlood flood-color='white' flood-opacity='1' result='bgnd'/>
	  <feComposite in='SourceGraphic' in2='bgnd' operator='atop'/>
	</filter>
	<filter id='greybox' filterUnits='objectBoundingBox' x='0' y='0' height='1' width='1'>
	  <feFlood flood-color='lightgrey' flood-opacity='1' result='grey'/>
	  <feComposite in='SourceGraphic' in2='grey' operator='atop'/>
	</filter>
</defs>
<g fill="none" color="white" stroke="currentColor" stroke-width="1.00" stroke-linecap="butt" stroke-linejoin="miter">
</g>
<g fill="none" color="black" stroke="currentColor" stroke-width="1.00" stroke-linecap="butt" stroke-linejoin="miter">
	<path stroke='black'  d='M55.3,662.4 L64.3,662.4  '/>	<g transform="translate(47.0,666.3)" stroke="none" fill="black" font-family="Helvetica" font-size="12.00"  text-anchor="end">
		<text><tspan font-family="Helvetica" > 0</tspan></text>
	</g>
</g>
<g fill="none" color="black" stroke="currentColor" stroke-width="1.00" stroke-linecap="butt" stroke-linejoin="miter">
	<path stroke='black'  d='M55.3,594.8 L64.3,594.8  '/>	<g transform="translate(47.0,598.7)" stroke="none" fill="black" font-family="Helvetica" font-size="12.00"  text-anchor="end">
		<text><tspan font-family="Helvetica" > 1</tspan></text>
	</g>
</g>
<g fill="none" color="black" stroke="currentColor" stroke-width="1.00" stroke-linecap="butt" stroke-linejoin="miter">
	<path stroke='black'  d='M55.3,527.2 L64.3,527.2  '/>	<g transform="translate(47.0,531.1)" stroke="none" fill="black" font-family="Helvetica" font-size="12.00"  text-anchor="end">
		<text><tspan font-family="Helvetica" > 2</tspan></text>
	</g>
</g>
<g fill="none" color="black" stroke="currentColor" stroke-width="1.00" stroke-linecap="butt" stroke-linejoin="miter">
	<path stroke='black'  d='M55.3,459.6 L64.3,459.6  '/>	<g transform="translate(47.0,463.5)" stroke="none" fill="black" font-family="Helvetica" font-size="12.00"  text-anchor="end">
		<text><tspan font-family="Helvetica" > 3</tspan></text>
	</g>
</g>
<g fill="none" color="black" stroke="currentColor" stroke-width="1.00" stroke-linecap="butt" stroke-linejoin="miter">
	<path stroke='black'  d='M55.3,392.0 L64.3,392.0  '/>	<g transform="translate(47.0,395.9)" stroke="none" fill="black" font-family="Helvetica" font-size="12.00"  text-anchor="end">
		<text><tspan font-family="Helvetica" > 4</tspan></text>
	</g>
</g>
<g fill="none" color="black" stroke="currentColor" stroke-width="1.00" stroke-linecap="butt" stroke-linejoin="miter">
	<path stroke='black'  d='M55.3,324.5 L64.3,324.5  '/>	<g transform="translate(47.0,328.4)" stroke="none" fill="black" font-family="Helvetica" font-size="12.00"  text-anchor="end">
		<text><tspan font-family="Helvetica" > 5</tspan></text>
	</g>
</g>
<g fill="none" color="black" stroke="currentColor" stroke-width="1.00" stroke-linecap="butt" stroke-linejoin="miter">
	<path stroke='black'  d='M55.3,256.9 L64.3,256.9  '/>	<g transform="translate(47.0,260.8)" stroke="none" fill="black" font-family="Helvetica" font-size="12.00"  text-anchor="end">
		<text><tspan font-family="Helvetica" > 6</tspan></text>
	</g>
</g>
<g fill="none" color="black" stroke="currentColor" stroke-width="1.00" stroke-linecap="butt" stroke-linejoin="miter">
	<path stroke='black'  d='M55.3,189.3 L64.3,189.3  '/>	<g transform="translate(47.0,193.2)" stroke="none" fill="black" font-family="Helvetica" font-size="12.00"  text-anchor="end">
		<text><tspan font-family="Helvetica" > 7</tspan></text>
	</g>
</g>
<g fill="none" color="black" stroke="currentColor" stroke-width="1.00" stroke-linecap="butt" stroke-linejoin="miter">
	<path stroke='black'  d='M55.3,121.7 L64.3,121.7  '/>	<g transform="translate(47.0,125.6)" stroke="none" fill="black" font-family="Helvetica" font-size="12.00"  text-anchor="end">
		<text><tspan font-family="Helvetica" > 8</tspan></text>
	</g>
</g>
<g fill="none" color="black" stroke="currentColor" stroke-width="1.00" stroke-linecap="butt" stroke-linejoin="miter">
	<path stroke='black'  d='M55.3,54.1 L64.3,54.1  '/>	<g transform="translate(47.0,58.0)" stroke="none" fill="black" font-family="Helvetica" font-size="12.00"  text-anchor="end">
		<text><tspan font-family="Helvetica" > 9</tspan></text>
	</g>
</g>
<g fill="none" color="black" stroke="currentColor" stroke-width="1.00" stroke-linecap="butt" stroke-linejoin="miter">
	<path stroke='black'  d='M164.4,662.4 L164.4,653.4  '/>	<g transform="translate(164.4,684.3)" stroke="none" fill="black" font-family="Helvetica" font-size="12.00"  text-anchor="middle">
		<text><tspan font-family="Helvetica" > 54.3</tspan></text>
	</g>
</g>
<g fill="none" color="black" stroke="currentColor" stroke-width="1.00" stroke-linecap="butt" stroke-linejoin="miter">
	<path stroke='black'  d='M369.8,662.4 L369.8,653.4  '/>	<g transform="translate(369.8,684.3)" stroke="none" fill="black" font-family="Helvetica" font-size="12.00"  text-anchor="middle">
		<text><tspan font-family="Helvetica" > 54.35</tspan></text>
	</g>
</g>
<g fill="none" color="black" stroke="currentColor" stroke-width="1.00" stroke-linecap="butt" stroke-linejoin="miter">
	<path stroke='black'  d='M575.1,662.4 L575.1,653.4  '/>	<g transform="translate(575.1,684.3)" stroke="none" fill="black" font-family="Helvetica" font-size="12.00"  text-anchor="middle">
		<text><tspan font-family="Helvetica" > 54.4</tspan></text>
	</g>
</g>
<g fill="none" color="black" stroke="currentColor" stroke-width="1.00" stroke-linecap="butt" stroke-linejoin="miter">
	<path stroke='black'  d='M780.5,662.4 L780.5,653.4  '/>	<g transform="translate(780.5,684.3)" stroke="none" fill="black" font-family="Helvetica" font-size="12.00"  text-anchor="middle">
		<text><tspan font-family="Helvetica" > 54.45</tspan></text>
	</g>
</g>
<g fill="none" color="black" stroke="currentColor" stroke-width="1.00" stroke-linecap="butt" stroke-linejoin="miter">
	<path stroke='black'  d='M985.8,662.4 L985.8,653.4  '/>	<g transform="translate(985.8,684.3)" stroke="none" fill="black" font-family="Helvetica" font-size="12.00"  text-anchor="middle">
		<text><tspan font-family="Helvetica" > 54.5</tspan></text>
	</g>
</g>
<g fill="none" color="black" stroke="currentColor" stroke-width="1.00" stroke-linecap="butt" stroke-linejoin="miter">
</g>
<g fill="none" color="black" stroke="currentColor" stroke-width="1.00" stroke-linecap="butt" stroke-linejoin="miter">
	<path stroke='black'  d='M55.3,54.1 L55.3,662.4 L1013.6,662.4 L1013.6,54.1 L55.3,54.1 Z  '/></g>
<g fill="none" color="black" stroke="currentColor" stroke-width="1.00" stroke-linecap="butt" stroke-linejoin="miter">
	<g transform="translate(17.0,358.3) rotate(270)" stroke="none" fill="black" font-family="Helvetica" font-size="12.00"  text-anchor="middle">
		<text><tspan font-family="Helvetica" >Density (a.u.)</tspan></text>
	</g>
</g>
<g fill="none" color="black" stroke="currentColor" stroke-width="1.00" stroke-linecap="butt" stroke-linejoin="miter">
	<g transform="translate(534.4,711.3)" stroke="none" fill="black" font-family="Helvetica" font-size="12.00"  text-anchor="middle">
		<text><tspan font-family="Helvetica" >Average time (us)</tspan></text>
	</g>
</g>
<g fill="none" color="black" stroke="currentColor" stroke-width="1.00" stroke-linecap="butt" stroke-linejoin="miter">
	<g transform="translate(534.4,31.0)" stroke="none" fill="black" font-family="Helvetica" font-size="12.00"  text-anchor="middle">
		<text><tspan font-family="Helvetica" >language: cpp/parse error: python/examples/multiple-newlines.py: slope</tspan></text>
	</g>
</g>
	<g id="gnuplot_plot_1" ><title>Bootstrap distribution</title>
<g fill="none" color="white" stroke="black" stroke-width="2.00" stroke-linecap="butt" stroke-linejoin="miter">
</g>
<g fill="none" color="black" stroke="currentColor" stroke-width="2.00" stroke-linecap="butt" stroke-linejoin="miter">
	<g transform="translate(1089.0,67.0)" stroke="none" fill="black" font-family="Helvetica" font-size="12.00"  text-anchor="start">
		<text><tspan font-family="Helvetica" >Bootstrap distribution</tspan></text>
	</g>
</g>
<g fill="none" color="black" stroke="currentColor" stroke-width="2.00" stroke-linecap="butt" stroke-linejoin="miter">
	<path stroke='rgb( 31, 120, 180)'  d='M1038.5,63.1 L1080.7,63.1 M55.3,632.4 L57.2,631.3 L59.1,630.2 L61.1,629.1 L63.0,628.0 L64.9,626.9
		L66.8,625.7 L68.7,624.4 L70.7,623.2 L72.6,621.8 L74.5,620.5 L76.4,619.0 L78.3,617.6 L80.3,616.0
		L82.2,614.4 L84.1,612.8 L86.0,611.1 L87.9,609.3 L89.9,607.5 L91.8,605.6 L93.7,603.6 L95.6,601.6
		L97.5,599.5 L99.5,597.4 L101.4,595.2 L103.3,593.0 L105.2,590.7 L107.2,588.4 L109.1,586.1 L111.0,583.7
		L112.9,581.3 L114.8,578.8 L116.8,576.4 L118.7,573.9 L120.6,571.4 L122.5,568.9 L124.4,566.3 L126.4,563.7
		L128.3,561.1 L130.2,558.5 L132.1,555.8 L134.0,553.2 L136.0,550.4 L137.9,547.6 L139.8,544.8 L141.7,542.0
		L143.6,539.1 L145.6,536.1 L147.5,533.1 L149.4,530.0 L151.3,526.8 L153.2,523.6 L155.2,520.4 L157.1,517.0
		L159.0,513.6 L160.9,510.2 L162.8,506.6 L164.8,503.0 L166.7,499.4 L168.6,495.6 L170.5,491.8 L172.4,488.0
		L174.4,484.1 L176.3,480.1 L178.2,476.1 L180.1,472.0 L182.0,467.9 L184.0,463.7 L185.9,459.5 L187.8,455.3
		L189.7,451.0 L191.7,446.7 L193.6,442.3 L195.5,437.9 L197.4,433.4 L199.3,429.0 L201.3,424.5 L203.2,419.9
		L205.1,415.3 L207.0,410.7 L208.9,406.1 L210.9,401.4 L212.8,396.8 L214.7,392.0 L216.6,387.3 L218.5,382.6
		L220.5,377.8 L222.4,373.0 L224.3,368.2 L226.2,363.5 L228.1,358.7 L230.1,353.9 L232.0,349.1 L233.9,344.4
		L235.8,339.6 L237.7,334.9 L239.7,330.1 L241.6,325.4 L243.5,320.7 L245.4,316.0 L247.3,311.2 L249.3,306.5
		L251.2,301.8 L253.1,297.1 L255.0,292.3 L256.9,287.5 L258.9,282.8 L260.8,278.0 L262.7,273.2 L264.6,268.3
		L266.5,263.5 L268.5,258.7 L270.4,253.8 L272.3,248.9 L274.2,244.1 L276.2,239.3 L278.1,234.5 L280.0,229.7
		L281.9,224.9 L283.8,220.2 L285.8,215.5 L287.7,210.8 L289.6,206.3 L291.5,201.7 L293.4,197.3 L295.4,192.9
		L297.3,188.5 L299.2,184.3 L301.1,180.1 L303.0,176.0 L305.0,171.9 L306.9,168.0 L308.8,164.1 L310.7,160.3
		L312.6,156.6 L314.6,152.9 L316.5,149.4 L318.4,145.9 L320.3,142.5 L322.2,139.2 L324.2,135.9 L326.1,132.8
		L328.0,129.7 L329.9,126.8 L331.8,123.9 L333.8,121.1 L335.7,118.4 L337.6,115.8 L339.5,113.3 L341.4,110.9
		L343.4,108.5 L345.3,106.3 L347.2,104.1 L349.1,102.1 L351.0,100.1 L353.0,98.2 L354.9,96.4 L356.8,94.7
		L358.7,93.0 L360.7,91.4 L362.6,89.9 L364.5,88.5 L366.4,87.1 L368.3,85.8 L370.3,84.5 L372.2,83.4
		L374.1,82.2 L376.0,81.2 L377.9,80.2 L379.9,79.3 L381.8,78.4 L383.7,77.6 L385.6,76.9 L387.5,76.2
		L389.5,75.6 L391.4,75.0 L393.3,74.5 L395.2,74.1 L397.1,73.8 L399.1,73.4 L401.0,73.2 L402.9,73.0
		L404.8,72.9 L406.7,72.8 L408.7,72.8 L410.6,72.9 L412.5,73.0 L414.4,73.2 L416.3,73.5 L418.3,73.8
		L420.2,74.2 L422.1,74.7 L424.0,75.2 L425.9,75.9 L427.9,76.6 L429.8,77.3 L431.7,78.2 L433.6,79.0
		L435.5,80.0 L437.5,81.0 L439.4,82.0 L441.3,83.1 L443.2,84.1 L445.1,85.3 L447.1,86.4 L449.0,87.5
		L450.9,88.7 L452.8,89.8 L454.8,91.0 L456.7,92.1 L458.6,93.3 L460.5,94.5 L462.4,95.7 L464.4,97.0
		L466.3,98.2 L468.2,99.5 L470.1,100.9 L472.0,102.3 L474.0,103.8 L475.9,105.4 L477.8,107.1 L479.7,108.8
		L481.6,110.7 L483.6,112.6 L485.5,114.7 L487.4,116.8 L489.3,119.0 L491.2,121.4 L493.2,123.8 L495.1,126.3
		L497.0,128.9 L498.9,131.5 L500.8,134.2 L502.8,137.0 L504.7,139.8 L506.6,142.6 L508.5,145.4 L510.4,148.2
		L512.4,151.0 L514.3,153.8 L516.2,156.6 L518.1,159.3 L520.0,162.1 L522.0,164.8 L523.9,167.4 L525.8,170.0
		L527.7,172.6 L529.6,175.2 L531.6,177.7 L533.5,180.2 L535.4,182.7 L537.3,185.1 L539.3,187.6 L541.2,190.0
		L543.1,192.4 L545.0,194.9 L546.9,197.3 L548.9,199.8 L550.8,202.3 L552.7,204.9 L554.6,207.5 L556.5,210.1
		L558.5,212.8 L560.4,215.6 L562.3,218.4 L564.2,221.3 L566.1,224.2 L568.1,227.2 L570.0,230.3 L571.9,233.3
		L573.8,236.5 L575.7,239.6 L577.7,242.8 L579.6,246.0 L581.5,249.2 L583.4,252.4 L585.3,255.6 L587.3,258.7
		L589.2,261.9 L591.1,265.0 L593.0,268.1 L594.9,271.2 L596.9,274.2 L598.8,277.2 L600.7,280.2 L602.6,283.1
		L604.5,286.0 L606.5,288.9 L608.4,291.8 L610.3,294.6 L612.2,297.4 L614.1,300.3 L616.1,303.1 L618.0,305.9
		L619.9,308.7 L621.8,311.5 L623.8,314.4 L625.7,317.2 L627.6,320.1 L629.5,323.0 L631.4,325.9 L633.4,328.8
		L635.3,331.8 L637.2,334.8 L639.1,337.8 L641.0,340.8 L643.0,343.9 L644.9,346.9 L646.8,350.0 L648.7,353.1
		L650.6,356.1 L652.6,359.2 L654.5,362.3 L656.4,365.3 L658.3,368.4 L660.2,371.4 L662.2,374.3 L664.1,377.3
		L666.0,380.2 L667.9,383.0 L669.8,385.8 L671.8,388.6 L673.7,391.4 L675.6,394.1 L677.5,396.7 L679.4,399.3
		L681.4,401.9 L683.3,404.5 L685.2,407.0 L687.1,409.5 L689.0,412.0 L691.0,414.5 L692.9,417.0 L694.8,419.5
		L696.7,422.0 L698.6,424.5 L700.6,427.0 L702.5,429.4 L704.4,431.9 L706.3,434.4 L708.2,436.9 L710.2,439.4
		L712.1,441.9 L714.0,444.3 L715.9,446.8 L717.9,449.2 L719.8,451.7 L721.7,454.1 L723.6,456.5 L725.5,458.9
		L727.5,461.2 L729.4,463.6 L731.3,465.9 L733.2,468.2 L735.1,470.5 L737.1,472.7 L739.0,474.9 L740.9,477.1
		L742.8,479.3 L744.7,481.4 L746.7,483.6 L748.6,485.7 L750.5,487.7 L752.4,489.8 L754.3,491.8 L756.3,493.8
		L758.2,495.8 L760.1,497.7 L762.0,499.6 L763.9,501.5 L765.9,503.4 L767.8,505.2 L769.7,507.1 L771.6,508.9
		L773.5,510.6 L775.5,512.4 L777.4,514.1 L779.3,515.9 L781.2,517.6 L783.1,519.3 L785.1,520.9 L787.0,522.6
		L788.9,524.3 L790.8,525.9 L792.7,527.6 L794.7,529.2 L796.6,530.8 L798.5,532.4 L800.4,534.1 L802.4,535.7
		L804.3,537.3 L806.2,538.9 L808.1,540.5 L810.0,542.1 L812.0,543.6 L813.9,545.2 L815.8,546.8 L817.7,548.3
		L819.6,549.9 L821.6,551.4 L823.5,553.0 L825.4,554.5 L827.3,556.0 L829.2,557.5 L831.2,558.9 L833.1,560.4
		L835.0,561.8 L836.9,563.3 L838.8,564.7 L840.8,566.0 L842.7,567.4 L844.6,568.7 L846.5,570.0 L848.4,571.3
		L850.4,572.6 L852.3,573.9 L854.2,575.1 L856.1,576.3 L858.0,577.5 L860.0,578.7 L861.9,579.8 L863.8,580.9
		L865.7,582.0 L867.6,583.1 L869.6,584.2 L871.5,585.2 L873.4,586.3 L875.3,587.3 L877.2,588.2 L879.2,589.2
		L881.1,590.1 L883.0,591.0 L884.9,591.9 L886.9,592.8 L888.8,593.7 L890.7,594.5 L892.6,595.3 L894.5,596.1
		L896.5,596.9 L898.4,597.7 L900.3,598.4 L902.2,599.2 L904.1,599.9 L906.1,600.6 L908.0,601.3 L909.9,602.0
		L911.8,602.7 L913.7,603.4 L915.7,604.1 L917.6,604.7 L919.5,605.4 L921.4,606.1 L923.3,606.8 L925.3,607.5
		L927.2,608.2 L929.1,608.9 L931.0,609.6 L932.9,610.3 L934.9,611.0 L936.8,611.8 L938.7,612.5 L940.6,613.3
		L942.5,614.0 L944.5,614.8 L946.4,615.5 L948.3,616.3 L950.2,617.1 L952.1,617.8 L954.1,618.6 L956.0,619.3
		L957.9,620.0 L959.8,620.7 L961.7,621.4 L963.7,622.1 L965.6,622.7 L967.5,623.3 L969.4,623.9 L971.4,624.5
		L973.3,625.0 L975.2,625.5 L977.1,626.0 L979.0,626.5 L981.0,626.9 L982.9,627.3 L984.8,627.7 L986.7,628.1
		L988.6,628.5 L990.6,628.8 L992.5,629.2 L994.4,629.5 L996.3,629.9 L998.2,630.3 L1000.2,630.6 L1002.1,631.0
		L1004.0,631.4 L1005.9,631.8 L1007.8,632.2 L1009.8,632.7 L1011.7,633.1 L1013.6,633.5  '/></g>
	</g>
	<g id="gnuplot_plot_2" ><title>Confidence interval</title>
<g fill="none" color="white" stroke="rgb( 31, 120, 180)" stroke-width="1.00" stroke-linecap="butt" stroke-linejoin="miter">
</g>
<g fill="none" color="black" stroke="currentColor" stroke-width="1.00" stroke-linecap="butt" stroke-linejoin="miter">
	<g transform="translate(1089.0,85.0)" stroke="none" fill="black" font-family="Helvetica" font-size="12.00"  text-anchor="start">
		<text><tspan font-family="Helvetica" >Confidence interval</tspan></text>
	</g>
</g>
<g fill="none" color="black" stroke="currentColor" stroke-width="1.00" stroke-linecap="butt" stroke-linejoin="miter">
	<g stroke='none' shape-rendering='crispEdges'>
		<polygon fill = 'rgb( 31, 120, 180)' fill-opacity = '0.250000' points = '1038.5,85.6 1080.7,85.6 1080.7,76.6 1038.5,76.6 '/>
		<polygon fill = 'rgb( 31, 120, 180)' fill-opacity = '0.250000' points = '143.6,539.1 143.6,662.4 145.6,662.4 145.6,536.1 '/>
		<polygon fill = 'rgb( 31, 120, 180)' fill-opacity = '0.250000' points = '145.6,536.1 145.6,662.4 147.5,662.4 147.5,533.1 '/>
		<polygon fill = 'rgb( 31, 120, 180)' fill-opacity = '0.250000' points = '147.5,533.1 147.5,662.4 149.4,662.4 149.4,530.0 '/>
		<polygon fill = 'rgb( 31, 120, 180)' fill-opacity = '0.250000' points = '149.4,530.0 149.4,662.4 151.3,662.4 151.3,526.8 '/>
		<polygon fill = 'rgb( 31, 120, 180)' fill-opacity = '0.250000' points = '151.3,526.8 151.3,662.4 153.2,662.4 153.2,523.6 '/>
		<polygon fill = 'rgb( 31, 120, 180)' fill-opacity = '0.250000' points = '153.2,523.6 153.2,662.4 155.2,662.4 155.2,520.4 '/>
		<polygon fill = 'rgb( 31, 120, 180)' fill-opacity = '0.250000' points = '155.2,520.4 155.2,662.4 157.1,662.4 157.1,517.0 '/>
		<polygon fill = 'rgb( 31, 120, 180)' fill-opacity = '0.250000' points = '157.1,517.0 157.1,662.4 159.0,662.4 159.0,513.6 '/>
		<polygon fill = 'rgb( 31, 120, 180)' fill-opacity = '0.250000' points = '159.0,513.6 159.0,662.4 160.9,662.4 160.9,510.2 '/>
		<polygon fill = 'rgb( 31, 120, 180)' fill-opacity = '0.250000' points = '160.9,510.2 160.9,662.4 162.8,662.4 162.8,506.6 '/>
		<polygon fill = 'rgb( 31, 120, 180)' fill-opacity = '0.250000' points = '162.8,506.6 162.8,662.4 164.8,662.4 164.8,503.0 '/>
		<polygon fill = 'rgb( 31, 120, 180)' fill-opacity = '0.250000' points = '164.8,503.0 164.8,662.4 166.7,662.4 166.7,499.4 '/>
		<polygon fill = 'rgb( 31, 120, 180)' fill-opacity = '0.250000' points = '166.7,499.4 166.7,662.4 168.6,662.4 168.6,495.6 '/>
		<polygon fill = 'rgb( 31, 120, 180)' fill-opacity = '0.250000' points = '168.6,495.6 168.6,662.4 170.5,662.4 170.5,491.8 '/>
		<polygon fill = 'rgb( 31, 120, 180)' fill-opacity = '0.250000' points = '170.5,491.8 170.5,662.4 172.4,662.4 172.4,488.0 '/>
		<polygon fill = 'rgb( 31, 120, 180)' fill-opacity = '0.250000' points = '172.4,488.0 172.4,662.4 174.4,662.4 174.4,484.1 '/>
		<polygon fill = 'rgb( 31, 120, 180)' fill-opacity = '0.250000' points = '174.4,484.1 174.4,662.4 176.3,662.4 176.3,480.1 '/>
		<polygon fill = 'rgb( 31, 120, 180)' fill-opacity = '0.250000' points = '176.3,480.1 176.3,662.4 178.2,662.4 178.2,476.1 '/>
		<polygon fill = 'rgb( 31, 120, 180)' fill-opacity = '0.250000' points = '178.2,476.1 178.2,662.4 180.1,662.4 180.1,472.0 '/>
		<polygon fill = 'rgb( 31, 120, 180)' fill-opacity = '0.250000' points = '180.1,472.0 180.1,662.4 182.0,662.4 182.0,467.9 '/>
		<polygon fill = 'rgb( 31, 120, 180)' fill-opacity = '0.250000' points = '182.0,467.9 182.0,662.4 184.0,662.4 184.0,463.7 '/>
		<polygon fill = 'rgb( 31, 120, 180)' fill-opacity = '0.250000' points = '184.0,463.7 184.0,662.4 185.9,662.4 185.9,459.5 '/>
		<polygon fill = 'rgb( 31, 120, 180)' fill-opacity = '0.250000' points = '185.9,459.5 185.9,662.4 187.8,662.4 187.8,455.3 '/>
		<polygon fill = 'rgb( 31, 120, 180)' fill-opacity = '0.250000' points = '187.8,455.3 187.8,662.4 189.7,662.4 189.7,451.0 '/>
		<polygon fill = 'rgb( 31, 120, 180)' fill-opacity = '0.250000' points = '189.7,451.0 189.7,662.4 191.7,662.4 191.7,446.7 '/>
		<polygon fill = 'rgb( 31, 120, 180)' fill-opacity = '0.250000' points = '191.7,446.7 191.7,662.4 193.6,662.4 193.6,442.3 '/>
		<polygon fill = 'rgb( 31, 120, 180)' fill-opacity = '0.250000' points = '193.6,442.3 193.6,662.4 195.5,662.4 195.5,437.9 '/>
		<polygon fill = 'rgb( 31, 120, 180)' fill-opacity = '0.250000' points = '195.5,437.9 195.5,662.4 197.4,662.4 197.4,433.4 '/>
		<polygon fill = 'rgb( 31, 120, 180)' fill-opacity = '0.250000' points = '197.4,433.4 197.4,662.4 199.3,662.4 199.3,429.0 '/>
		<polygon fill = 'rgb( 31, 120, 180)' fill-opacity = '0.250000' points = '199.3,429.0 199.3,662.4 201.3,662.4 201.3,424.5 '/>
		<polygon fill = 'rgb( 31, 120, 180)' fill-opacity = '0.250000' points = '201.3,424.5 201.3,662.4 203.2,662.4 203.2,419.9 '/>
		<polygon fill = 'rgb( 31, 120, 180)' fill-opacity = '0.250000' points = '203.2,419.9 203.2,662.4 205.1,662.4 205.1,415.3 '/>
		<polygon fill = 'rgb( 31, 120, 180)' fill-opacity = '0.250000' points = '205.1,415.3 205.1,662.4 207.0,662.4 207.0,410.7 '/>
		<polygon fill = 'rgb( 31, 120, 180)' fill-opacity = '0.250000' points = '207.0,410.7 207.0,662.4 208.9,662.4 208.9,406.1 '/>
		<polygon fill = 'rgb( 31, 120, 180)' fill-opacity = '0.250000' points = '208.9,406.1 208.9,662.4 210.9,662.4 210.9,401.4 '/>
		<polygon fill = 'rgb( 31, 120, 180)' fill-opacity = '0.250000' points = '210.9,401.4 210.9,662.4 212.8,662.4 212.8,396.8 '/>
		<polygon fill = 'rgb( 31, 120, 180)' fill-opacity = '0.250000' points = '212.8,396.8 212.8,662.4 214.7,662.4 214.7,392.0 '/>
		<polygon fill = 'rgb( 31, 120, 180)' fill-opacity = '0.250000' points = '214.7,392.0 214.7,662.4 216.6,662.4 216.6,387.3 '/>
		<polygon fill = 'rgb( 31, 120, 180)' fill-opacity = '0.250000' points = '216.6,387.3 216.6,662.4 218.5,662.4 218.5,382.6 '/>
		<polygon fill = 'rgb( 31, 120, 180)' fill-opacity = '0.250000' points = '218.5,382.6 218.5,662.4 220.5,662.4 220.5,377.8 '/>
		<polygon fill = 'rgb( 31, 120, 180)' fill-opacity = '0.250000' points = '220.5,377.8 220.5,662.4 222.4,662.4 222.4,373.0 '/>
		<polygon fill = 'rgb( 31, 120, 180)' fill-opacity = '0.250000' points = '222.4,373.0 222.4,662.4 224.3,662.4 224.3,368.2 '/>
		<polygon fill = 'rgb( 31, 120, 180)' fill-opacity = '0.250000' points = '224.3,368.2 224.3,662.4 226.2,662.4 226.2,363.5 '/>
		<polygon fill = 'rgb( 31, 120, 180)' fill-opacity = '0.250000' points = '226.2,363.5 226.2,662.4 228.1,662.4 228.1,358.7 '/>
		<polygon fill = 'rgb( 31, 120, 180)' fill-opacity = '0.250000' points = '228.1,358.7 228.1,662.4 230.1,662.4 230.1,353.9 '/>
		<polygon fill = 'rgb( 31, 120, 180)' fill-opacity = '0.250000' points = '230.1,353.9 230.1,662.4 232.0,662.4 232.0,349.1 '/>
		<polygon fill = 'rgb( 31, 120, 180)' fill-opacity = '0.250000' points = '232.0,349.1 232.0,662.4 233.9,662.4 233.9,344.4 '/>
		<polygon fill = 'rgb( 31, 120, 180)' fill-opacity = '0.250000' points = '233.9,344.4 233.9,662.4 235.8,662.4 235.8,339.6 '/>
		<polygon fill = 'rgb( 31, 120, 180)' fill-opacity = '0.250000' points = '235.8,339.6 235.8,662.4 237.7,662.4 237.7,334.9 '/>
		<polygon fill = 'rgb( 31, 120, 180)' fill-opacity = '0.250000' points = '237.7,334.9 237.7,662.4 239.7,662.4 239.7,330.1 '/>
		<polygon fill = 'rgb( 31, 120, 180)' fill-opacity = '0.250000' points = '239.7,330.1 239.7,662.4 241.6,662.4 241.6,325.4 '/>
		<polygon fill = 'rgb( 31, 120, 180)' fill-opacity = '0.250000' points = '241.6,325.4 241.6,662.4 243.5,662.4 243.5,320.7 '/>
		<polygon fill = 'rgb( 31, 120, 180)' fill-opacity = '0.250000' points = '243.5,320.7 243.5,662.4 245.4,662.4 245.4,316.0 '/>
		<polygon fill = 'rgb( 31, 120, 180)' fill-opacity = '0.250000' points = '245.4,316.0 245.4,662.4 247.3,662.4 247.3,311.2 '/>
		<polygon fill = 'rgb( 31, 120, 180)' fill-opacity = '0.250000' points = '247.3,311.2 247.3,662.4 249.3,662.4 249.3,306.5 '/>
		<polygon fill = 'rgb( 31, 120, 180)' fill-opacity = '0.250000' points = '249.3,306.5 249.3,662.4 251.2,662.4 251.2,301.8 '/>
		<polygon fill = 'rgb( 31, 120, 180)' fill-opacity = '0.250000' points = '251.2,301.8 251.2,662.4 253.1,662.4 253.1,297.1 '/>
		<polygon fill = 'rgb( 31, 120, 180)' fill-opacity = '0.250000' points = '253.1,297.1 253.1,662.4 255.0,662.4 255.0,292.3 '/>
		<polygon fill = 'rgb( 31, 120, 180)' fill-opacity = '0.250000' points = '255.0,292.3 255.0,662.4 256.9,662.4 256.9,287.5 '/>
		<polygon fill = 'rgb( 31, 120, 180)' fill-opacity = '0.250000' points = '256.9,287.5 256.9,662.4 258.9,662.4 258.9,282.8 '/>
		<polygon fill = 'rgb( 31, 120, 180)' fill-opacity = '0.250000' points = '258.9,282.8 258.9,662.4 260.8,662.4 260.8,278.0 '/>
		<polygon fill = 'rgb( 31, 120, 180)' fill-opacity = '0.250000' points = '260.8,278.0 260.8,662.4 262.7,662.4 262.7,273.2 '/>
		<polygon fill = 'rgb( 31, 120, 180)' fill-opacity = '0.250000' points = '262.7,273.2 262.7,662.4 264.6,662.4 264.6,268.3 '/>
		<polygon fill = 'rgb( 31, 120, 180)' fill-opacity = '0.250000' points = '264.6,268.3 264.6,662.4 266.5,662.4 266.5,263.5 '/>
		<polygon fill = 'rgb( 31, 120, 180)' fill-opacity = '0.250000' points = '266.5,263.5 266.5,662.4 268.5,662.4 268.5,258.7 '/>
		<polygon fill = 'rgb( 31, 120, 180)' fill-opacity = '0.250000' points = '268.5,258.7 268.5,662.4 270.4,662.4 270.4,253.8 '/>
		<polygon fill = 'rgb( 31, 120, 180)' fill-opacity = '0.250000' points = '270.4,253.8 270.4,662.4 272.3,662.4 272.3,248.9 '/>
		<polygon fill = 'rgb( 31, 120, 180)' fill-opacity = '0.250000' points = '272.3,248.9 272.3,662.4 274.2,662.4 274.2,244.1 '/>
		<polygon fill = 'rgb( 31, 120, 180)' fill-opacity = '0.250000' points = '274.2,244.1 274.2,662.4 276.2,662.4 276.2,239.3 '/>
		<polygon fill = 'rgb( 31, 120, 180)' fill-opacity = '0.250000' points = '276.2,239.3 276.2,662.4 278.1,662.4 278.1,234.5 '/>
		<polygon fill = 'rgb( 31, 120, 180)' fill-opacity = '0.250000' points = '278.1,234.5 278.1,662.4 280.0,662.4 280.0,229.7 '/>
		<polygon fill = 'rgb( 31, 120, 180)' fill-opacity = '0.250000' points = '280.0,229.7 280.0,662.4 281.9,662.4 281.9,224.9 '/>
		<polygon fill = 'rgb( 31, 120, 180)' fill-opacity = '0.250000' points = '281.9,224.9 281.9,662.4 283.8,662.4 283.8,220.2 '/>
		<polygon fill = 'rgb( 31, 120, 180)' fill-opacity = '0.250000' points = '283.8,220.2 283.8,662.4 285.8,662.4 285.8,215.5 '/>
		<polygon fill = 'rgb( 31, 120, 180)' fill-opacity = '0.250000' points = '285.8,215.5 285.8,662.4 287.7,662.4 287.7,210.8 '/>
		<polygon fill = 'rgb( 31, 120, 180)' fill-opacity = '0.250000' points = '287.7,210.8 287.7,662.4 289.6,662.4 289.6,206.3 '/>
		<polygon fill = 'rgb( 31, 120, 180)' fill-opacity = '0.250000' points = '289.6,206.3 289.6,662.4 291.5,662.4 291.5,201.7 '/>
		<polygon fill = 'rgb( 31, 120, 180)' fill-opacity = '0.250000' points = '291.5,201.7 291.5,662.4 293.4,662.4 293.4,197.3 '/>
		<polygon fill = 'rgb( 31, 120, 180)' fill-opacity = '0.250000' points = '293.4,197.3 293.4,662.4 295.4,662.4 295.4,192.9 '/>
		<polygon fill = 'rgb( 31, 120, 180)' fill-opacity = '0.250000' points = '295.4,192.9 295.4,662.4 297.3,662.4 297.3,188.5 '/>
		<polygon fill = 'rgb( 31, 120, 180)' fill-opacity = '0.250000' points = '297.3,188.5 297.3,662.4 299.2,662.4 299.2,184.3 '/>
		<polygon fill = 'rgb( 31, 120, 180)' fill-opacity = '0.250000' points = '299.2,184.3 299.2,662.4 301.1,662.4 301.1,180.1 '/>
		<polygon fill = 'rgb( 31, 120, 180)' fill-opacity = '0.250000' points = '301.1,180.1 301.1,662.4 303.0,662.4 303.0,176.0 '/>
		<polygon fill = 'rgb( 31, 120, 180)' fill-opacity = '0.250000' points = '303.0,176.0 303.0,662.4 305.0,662.4 305.0,171.9 '/>
		<polygon fill = 'rgb( 31, 120, 180)' fill-opacity = '0.250000' points = '305.0,171.9 305.0,662.4 306.9,662.4 306.9,168.0 '/>
		<polygon fill = 'rgb( 31, 120, 180)' fill-opacity = '0.250000' points = '306.9,168.0 306.9,662.4 308.8,662.4 308.8,164.1 '/>
		<polygon fill = 'rgb( 31, 120, 180)' fill-opacity = '0.250000' points = '308.8,164.1 308.8,662.4 310.7,662.4 310.7,160.3 '/>
		<polygon fill = 'rgb( 31, 120, 180)' fill-opacity = '0.250000' points = '310.7,160.3 310.7,662.4 312.6,662.4 312.6,156.6 '/>
		<polygon fill = 'rgb( 31, 120, 180)' fill-opacity = '0.250000' points = '312.6,156.6 312.6,662.4 314.6,662.4 314.6,152.9 '/>
		<polygon fill = 'rgb( 31, 120, 180)' fill-opacity = '0.250000' points = '314.6,152.9 314.6,662.4 316.5,662.4 316.5,149.4 '/>
		<polygon fill = 'rgb( 31, 120, 180)' fill-opacity = '0.250000' points = '316.5,149.4 316.5,662.4 318.4,662.4 318.4,145.9 '/>
		<polygon fill = 'rgb( 31, 120, 180)' fill-opacity = '0.250000' points = '318.4,145.9 318.4,662.4 320.3,662.4 320.3,142.5 '/>
		<polygon fill = 'rgb( 31, 120, 180)' fill-opacity = '0.250000' points = '320.3,142.5 320.3,662.4 322.2,662.4 322.2,139.2 '/>
		<polygon fill = 'rgb( 31, 120, 180)' fill-opacity = '0.250000' points = '322.2,139.2 322.2,662.4 324.2,662.4 324.2,135.9 '/>
		<polygon fill = 'rgb( 31, 120, 180)' fill-opacity = '0.250000' points = '324.2,135.9 324.2,662.4 326.1,662.4 326.1,132.8 '/>
		<polygon fill = 'rgb( 31, 120, 180)' fill-opacity = '0.250000' points = '326.1,132.8 326.1,662.4 328.0,662.4 328.0,129.7 '/>
		<polygon fill = 'rgb( 31, 120, 180)' fill-opacity = '0.250000' points = '328.0,129.7 328.0,662.4 329.9,662.4 329.9,126.8 '/>
		<polygon fill = 'rgb( 31, 120, 180)' fill-opacity = '0.250000' points = '329.9,126.8 329.9,662.4 331.8,662.4 331.8,123.9 '/>
		<polygon fill = 'rgb( 31, 120, 180)' fill-opacity = '0.250000' points = '331.8,123.9 331.8,662.4 333.8,662.4 333.8,121.1 '/>
		<polygon fill = 'rgb( 31, 120, 180)' fill-opacity = '0.250000' points = '333.8,121.1 333.8,662.4 335.7,662.4 335.7,118.4 '/>
		<polygon fill = 'rgb( 31, 120, 180)' fill-opacity = '0.250000' points = '335.7,118.4 335.7,662.4 337.6,662.4 337.6,115.8 '/>
		<polygon fill = 'rgb( 31, 120, 180)' fill-opacity = '0.250000' points = '337.6,115.8 337.6,662.4 339.5,662.4 339.5,113.3 '/>
		<polygon fill = 'rgb( 31, 120, 180)' fill-opacity = '0.250000' points = '339.5,113.3 339.5,662.4 341.4,662.4 341.4,110.9 '/>
		<polygon fill = 'rgb( 31, 120, 180)' fill-opacity = '0.250000' points = '341.4,110.9 341.4,662.4 343.4,662.4 343.4,108.5 '/>
		<polygon fill = 'rgb( 31, 120, 180)' fill-opacity = '0.250000' points = '343.4,108.5 343.4,662.4 345.3,662.4 345.3,106.3 '/>
		<polygon fill = 'rgb( 31, 120, 180)' fill-opacity = '0.250000' points = '345.3,106.3 345.3,662.4 347.2,662.4 347.2,104.1 '/>
		<polygon fill = 'rgb( 31, 120, 180)' fill-opacity = '0.250000' points = '347.2,104.1 347.2,662.4 349.1,662.4 349.1,102.1 '/>
		<polygon fill = 'rgb( 31, 120, 180)' fill-opacity = '0.250000' points = '349.1,102.1 349.1,662.4 351.0,662.4 351.0,100.1 '/>
		<polygon fill = 'rgb( 31, 120, 180)' fill-opacity = '0.250000' points = '351.0,100.1 351.0,662.4 353.0,662.4 353.0,98.2 '/>
		<polygon fill = 'rgb( 31, 120, 180)' fill-opacity = '0.250000' points = '353.0,98.2 353.0,662.4 354.9,662.4 354.9,96.4 '/>
		<polygon fill = 'rgb( 31, 120, 180)' fill-opacity = '0.250000' points = '354.9,96.4 354.9,662.4 356.8,662.4 356.8,94.7 '/>
		<polygon fill = 'rgb( 31, 120, 180)' fill-opacity = '0.250000' points = '356.8,94.7 356.8,662.4 358.7,662.4 358.7,93.0 '/>
		<polygon fill = 'rgb( 31, 120, 180)' fill-opacity = '0.250000' points = '358.7,93.0 358.7,662.4 360.7,662.4 360.7,91.4 '/>
		<polygon fill = 'rgb( 31, 120, 180)' fill-opacity = '0.250000' points = '360.7,91.4 360.7,662.4 362.6,662.4 362.6,89.9 '/>
		<polygon fill = 'rgb( 31, 120, 180)' fill-opacity = '0.250000' points = '362.6,89.9 362.6,662.4 364.5,662.4 364.5,88.5 '/>
		<polygon fill = 'rgb( 31, 120, 180)' fill-opacity = '0.250000' points = '364.5,88.5 364.5,662.4 366.4,662.4 366.4,87.1 '/>
		<polygon fill = 'rgb( 31, 120, 180)' fill-opacity = '0.250000' points = '366.4,87.1 366.4,662.4 368.3,662.4 368.3,85.8 '/>
		<polygon fill = 'rgb( 31, 120, 180)' fill-opacity = '0.250000' points = '368.3,85.8 368.3,662.4 370.3,662.4 370.3,84.5 '/>
		<polygon fill = 'rgb( 31, 120, 180)' fill-opacity = '0.250000' points = '370.3,84.5 370.3,662.4 372.2,662.4 372.2,83.4 '/>
		<polygon fill = 'rgb( 31, 120, 180)' fill-opacity = '0.250000' points = '372.2,83.4 372.2,662.4 374.1,662.4 374.1,82.2 '/>
		<polygon fill = 'rgb( 31, 120, 180)' fill-opacity = '0.250000' points = '374.1,82.2 374.1,662.4 376.0,662.4 376.0,81.2 '/>
		<polygon fill = 'rgb( 31, 120, 180)' fill-opacity = '0.250000' points = '376.0,81.2 376.0,662.4 377.9,662.4 377.9,80.2 '/>
		<polygon fill = 'rgb( 31, 120, 180)' fill-opacity = '0.250000' points = '377.9,80.2 377.9,662.4 379.9,662.4 379.9,79.3 '/>
		<polygon fill = 'rgb( 31, 120, 180)' fill-opacity = '0.250000' points = '379.9,79.3 379.9,662.4 381.8,662.4 381.8,78.4 '/>
		<polygon fill = 'rgb( 31, 120, 180)' fill-opacity = '0.250000' points = '381.8,78.4 381.8,662.4 383.7,662.4 383.7,77.6 '/>
		<polygon fill = 'rgb( 31, 120, 180)' fill-opacity = '0.250000' points = '383.7,77.6 383.7,662.4 385.6,662.4 385.6,76.9 '/>
		<polygon fill = 'rgb( 31, 120, 180)' fill-opacity = '0.250000' points = '385.6,76.9 385.6,662.4 387.5,662.4 387.5,76.2 '/>
		<polygon fill = 'rgb( 31, 120, 180)' fill-opacity = '0.250000' points = '387.5,76.2 387.5,662.4 389.5,662.4 389.5,75.6 '/>
		<polygon fill = 'rgb( 31, 120, 180)' fill-opacity = '0.250000' points = '389.5,75.6 389.5,662.4 391.4,662.4 391.4,75.0 '/>
		<polygon fill = 'rgb( 31, 120, 180)' fill-opacity = '0.250000' points = '391.4,75.0 391.4,662.4 393.3,662.4 393.3,74.5 '/>
		<polygon fill = 'rgb( 31, 120, 180)' fill-opacity = '0.250000' points = '393.3,74.5 393.3,662.4 395.2,662.4 395.2,74.1 '/>
		<polygon fill = 'rgb( 31, 120, 180)' fill-opacity = '0.250000' points = '395.2,74.1 395.2,662.4 397.1,662.4 397.1,73.8 '/>
		<polygon fill = 'rgb( 31, 120, 180)' fill-opacity = '0.250000' points = '397.1,73.8 397.1,662.4 399.1,662.4 399.1,73.4 '/>
		<polygon fill = 'rgb( 31, 120, 180)' fill-opacity = '0.250000' points = '399.1,73.4 399.1,662.4 401.0,662.4 401.0,73.2 '/>
		<polygon fill = 'rgb( 31, 120, 180)' fill-opacity = '0.250000' points = '401.0,73.2 401.0,662.4 402.9,662.4 402.9,73.0 '/>
		<polygon fill = 'rgb( 31, 120, 180)' fill-opacity = '0.250000' points = '402.9,73.0 402.9,662.4 404.8,662.4 404.8,72.9 '/>
		<polygon fill = 'rgb( 31, 120, 180)' fill-opacity = '0.250000' points = '404.8,72.9 404.8,662.4 406.7,662.4 406.7,72.8 '/>
		<polygon fill = 'rgb( 31, 120, 180)' fill-opacity = '0.250000' points = '406.7,72.8 406.7,662.4 408.7,662.4 408.7,72.8 '/>
		<polygon fill = 'rgb( 31, 120, 180)' fill-opacity = '0.250000' points = '408.7,72.8 408.7,662.4 410.6,662.4 410.6,72.9 '/>
		<polygon fill = 'rgb( 31, 120, 180)' fill-opacity = '0.250000' points = '410.6,72.9 410.6,662.4 412.5,662.4 412.5,73.0 '/>
		<polygon fill = 'rgb( 31, 120, 180)' fill-opacity = '0.250000' points = '412.5,73.0 412.5,662.4 414.4,662.4 414.4,73.2 '/>
		<polygon fill = 'rgb( 31, 120, 180)' fill-opacity = '0.250000' points = '414.4,73.2 414.4,662.4 416.3,662.4 416.3,73.5 '/>
		<polygon fill = 'rgb( 31, 120, 180)' fill-opacity = '0.250000' points = '416.3,73.5 416.3,662.4 418.3,662.4 418.3,73.8 '/>
		<polygon fill = 'rgb( 31, 120, 180)' fill-opacity = '0.250000' points = '418.3,73.8 418.3,662.4 420.2,662.4 420.2,74.2 '/>
		<polygon fill = 'rgb( 31, 120, 180)' fill-opacity = '0.250000' points = '420.2,74.2 420.2,662.4 422.1,662.4 422.1,74.7 '/>
		<polygon fill = 'rgb( 31, 120, 180)' fill-opacity = '0.250000' points = '422.1,74.7 422.1,662.4 424.0,662.4 424.0,75.2 '/>
		<polygon fill = 'rgb( 31, 120, 180)' fill-opacity = '0.250000' points = '424.0,75.2 424.0,662.4 425.9,662.4 425.9,75.9 '/>
		<polygon fill = 'rgb( 31, 120, 180)' fill-opacity = '0.250000' points = '425.9,75.9 425.9,662.4 427.9,662.4 427.9,76.6 '/>
		<polygon fill = 'rgb( 31, 120, 180)' fill-opacity = '0.250000' points = '427.9,76.6 427.9,662.4 429.8,662.4 429.8,77.3 '/>
		<polygon fill = 'rgb( 31, 120, 180)' fill-opacity = '0.250000' points = '429.8,77.3 429.8,662.4 431.7,662.4 431.7,78.2 '/>
		<polygon fill = 'rgb( 31, 120, 180)' fill-opacity = '0.250000' points = '431.7,78.2 431.7,662.4 433.6,662.4 433.6,79.0 '/>
		<polygon fill = 'rgb( 31, 120, 180)' fill-opacity = '0.250000' points = '433.6,79.0 433.6,662.4 435.5,662.4 435.5,80.0 '/>
		<polygon fill = 'rgb( 31, 120, 180)' fill-opacity = '0.250000' points = '435.5,80.0 435.5,662.4 437.5,662.4 437.5,81.0 '/>
		<polygon fill = 'rgb( 31, 120, 180)' fill-opacity = '0.250000' points = '437.5,81.0 437.5,662.4 439.4,662.4 439.4,82.0 '/>
		<polygon fill = 'rgb( 31, 120, 180)' fill-opacity = '0.250000' points = '439.4,82.0 439.4,662.4 441.3,662.4 441.3,83.1 '/>
		<polygon fill = 'rgb( 31, 120, 180)' fill-opacity = '0.250000' points = '441.3,83.1 441.3,662.4 443.2,662.4 443.2,84.1 '/>
		<polygon fill = 'rgb( 31, 120, 180)' fill-opacity = '0.250000' points = '443.2,84.1 443.2,662.4 445.1,662.4 445.1,85.3 '/>
		<polygon fill = 'rgb( 31, 120, 180)' fill-opacity = '0.250000' points = '445.1,85.3 445.1,662.4 447.1,662.4 447.1,86.4 '/>
		<polygon fill = 'rgb( 31, 120, 180)' fill-opacity = '0.250000' points = '447.1,86.4 447.1,662.4 449.0,662.4 449.0,87.5 '/>
		<polygon fill = 'rgb( 31, 120, 180)' fill-opacity = '0.250000' points = '449.0,87.5 449.0,662.4 450.9,662.4 450.9,88.7 '/>
		<polygon fill = 'rgb( 31, 120, 180)' fill-opacity = '0.250000' points = '450.9,88.7 450.9,662.4 452.8,662.4 452.8,89.8 '/>
		<polygon fill = 'rgb( 31, 120, 180)' fill-opacity = '0.250000' points = '452.8,89.8 452.8,662.4 454.8,662.4 454.8,91.0 '/>
		<polygon fill = 'rgb( 31, 120, 180)' fill-opacity = '0.250000' points = '454.8,91.0 454.8,662.4 456.7,662.4 456.7,92.1 '/>
		<polygon fill = 'rgb( 31, 120, 180)' fill-opacity = '0.250000' points = '456.7,92.1 456.7,662.4 458.6,662.4 458.6,93.3 '/>
		<polygon fill = 'rgb( 31, 120, 180)' fill-opacity = '0.250000' points = '458.6,93.3 458.6,662.4 460.5,662.4 460.5,94.5 '/>
		<polygon fill = 'rgb( 31, 120, 180)' fill-opacity = '0.250000' points = '460.5,94.5 460.5,662.4 462.4,662.4 462.4,95.7 '/>
		<polygon fill = 'rgb( 31, 120, 180)' fill-opacity = '0.250000' points = '462.4,95.7 462.4,662.4 464.4,662.4 464.4,97.0 '/>
		<polygon fill = 'rgb( 31, 120, 180)' fill-opacity = '0.250000' points = '464.4,97.0 464.4,662.4 466.3,662.4 466.3,98.2 '/>
		<polygon fill = 'rgb( 31, 120, 180)' fill-opacity = '0.250000' points = '466.3,98.2 466.3,662.4 468.2,662.4 468.2,99.5 '/>
		<polygon fill = 'rgb( 31, 120, 180)' fill-opacity = '0.250000' points = '468.2,99.5 468.2,662.4 470.1,662.4 470.1,100.9 '/>
		<polygon fill = 'rgb( 31, 120, 180)' fill-opacity = '0.250000' points = '470.1,100.9 470.1,662.4 472.0,662.4 472.0,102.3 '/>
		<polygon fill = 'rgb( 31, 120, 180)' fill-opacity = '0.250000' points = '472.0,102.3 472.0,662.4 474.0,662.4 474.0,103.8 '/>
		<polygon fill = 'rgb( 31, 120, 180)' fill-opacity = '0.250000' points = '474.0,103.8 474.0,662.4 475.9,662.4 475.9,105.4 '/>
		<polygon fill = 'rgb( 31, 120, 180)' fill-opacity = '0.250000' points = '475.9,105.4 475.9,662.4 477.8,662.4 477.8,107.1 '/>
		<polygon fill = 'rgb( 31, 120, 180)' fill-opacity = '0.250000' points = '477.8,107.1 477.8,662.4 479.7,662.4 479.7,108.8 '/>
		<polygon fill = 'rgb( 31, 120, 180)' fill-opacity = '0.250000' points = '479.7,108.8 479.7,662.4 481.6,662.4 481.6,110.7 '/>
		<polygon fill = 'rgb( 31, 120, 180)' fill-opacity = '0.250000' points = '481.6,110.7 481.6,662.4 483.6,662.4 483.6,112.6 '/>
		<polygon fill = 'rgb( 31, 120, 180)' fill-opacity = '0.250000' points = '483.6,112.6 483.6,662.4 485.5,662.4 485.5,114.7 '/>
		<polygon fill = 'rgb( 31, 120, 180)' fill-opacity = '0.250000' points = '485.5,114.7 485.5,662.4 487.4,662.4 487.4,116.8 '/>
		<polygon fill = 'rgb( 31, 120, 180)' fill-opacity = '0.250000' points = '487.4,116.8 487.4,662.4 489.3,662.4 489.3,119.0 '/>
		<polygon fill = 'rgb( 31, 120, 180)' fill-opacity = '0.250000' points = '489.3,119.0 489.3,662.4 491.2,662.4 491.2,121.4 '/>
		<polygon fill = 'rgb( 31, 120, 180)' fill-opacity = '0.250000' points = '491.2,121.4 491.2,662.4 493.2,662.4 493.2,123.8 '/>
		<polygon fill = 'rgb( 31, 120, 180)' fill-opacity = '0.250000' points = '493.2,123.8 493.2,662.4 495.1,662.4 495.1,126.3 '/>
		<polygon fill = 'rgb( 31, 120, 180)' fill-opacity = '0.250000' points = '495.1,126.3 495.1,662.4 497.0,662.4 497.0,128.9 '/>
		<polygon fill = 'rgb( 31, 120, 180)' fill-opacity = '0.250000' points = '497.0,128.9 497.0,662.4 498.9,662.4 498.9,131.5 '/>
		<polygon fill = 'rgb( 31, 120, 180)' fill-opacity = '0.250000' points = '498.9,131.5 498.9,662.4 500.8,662.4 500.8,134.2 '/>
		<polygon fill = 'rgb( 31, 120, 180)' fill-opacity = '0.250000' points = '500.8,134.2 500.8,662.4 502.8,662.4 502.8,137.0 '/>
		<polygon fill = 'rgb( 31, 120, 180)' fill-opacity = '0.250000' points = '502.8,137.0 502.8,662.4 504.7,662.4 504.7,139.8 '/>
		<polygon fill = 'rgb( 31, 120, 180)' fill-opacity = '0.250000' points = '504.7,139.8 504.7,662.4 506.6,662.4 506.6,142.6 '/>
		<polygon fill = 'rgb( 31, 120, 180)' fill-opacity = '0.250000' points = '506.6,142.6 506.6,662.4 508.5,662.4 508.5,145.4 '/>
		<polygon fill = 'rgb( 31, 120, 180)' fill-opacity = '0.250000' points = '508.5,145.4 508.5,662.4 510.4,662.4 510.4,148.2 '/>
		<polygon fill = 'rgb( 31, 120, 180)' fill-opacity = '0.250000' points = '510.4,148.2 510.4,662.4 512.4,662.4 512.4,151.0 '/>
		<polygon fill = 'rgb( 31, 120, 180)' fill-opacity = '0.250000' points = '512.4,151.0 512.4,662.4 514.3,662.4 514.3,153.8 '/>
		<polygon fill = 'rgb( 31, 120, 180)' fill-opacity = '0.250000' points = '514.3,153.8 514.3,662.4 516.2,662.4 516.2,156.6 '/>
		<polygon fill = 'rgb( 31, 120, 180)' fill-opacity = '0.250000' points = '516.2,156.6 516.2,662.4 518.1,662.4 518.1,159.3 '/>
		<polygon fill = 'rgb( 31, 120, 180)' fill-opacity = '0.250000' points = '518.1,159.3 518.1,662.4 520.0,662.4 520.0,162.1 '/>
		<polygon fill = 'rgb( 31, 120, 180)' fill-opacity = '0.250000' points = '520.0,162.1 520.0,662.4 522.0,662.4 522.0,164.8 '/>
		<polygon fill = 'rgb( 31, 120, 180)' fill-opacity = '0.250000' points = '522.0,164.8 522.0,662.4 523.9,662.4 523.9,167.4 '/>
		<polygon fill = 'rgb( 31, 120, 180)' fill-opacity = '0.250000' points = '523.9,167.4 523.9,662.4 525.8,662.4 525.8,170.0 '/>
		<polygon fill = 'rgb( 31, 120, 180)' fill-opacity = '0.250000' points = '525.8,170.0 525.8,662.4 527.7,662.4 527.7,172.6 '/>
		<polygon fill = 'rgb( 31, 120, 180)' fill-opacity = '0.250000' points = '527.7,172.6 527.7,662.4 529.6,662.4 529.6,175.2 '/>
		<polygon fill = 'rgb( 31, 120, 180)' fill-opacity = '0.250000' points = '529.6,175.2 529.6,662.4 531.6,662.4 531.6,177.7 '/>
		<polygon fill = 'rgb( 31, 120, 180)' fill-opacity = '0.250000' points = '531.6,177.7 531.6,662.4 533.5,662.4 533.5,180.2 '/>
		<polygon fill = 'rgb( 31, 120, 180)' fill-opacity = '0.250000' points = '533.5,180.2 533.5,662.4 535.4,662.4 535.4,182.7 '/>
		<polygon fill = 'rgb( 31, 120, 180)' fill-opacity = '0.250000' points = '535.4,182.7 535.4,662.4 537.3,662.4 537.3,185.1 '/>
		<polygon fill = 'rgb( 31, 120, 180)' fill-opacity = '0.250000' points = '537.3,185.1 537.3,662.4 539.3,662.4 539.3,187.6 '/>
		<polygon fill = 'rgb( 31, 120, 180)' fill-opacity = '0.250000' points = '539.3,187.6 539.3,662.4 541.2,662.4 541.2,190.0 '/>
		<polygon fill = 'rgb( 31, 120, 180)' fill-opacity = '0.250000' points = '541.2,190.0 541.2,662.4 543.1,662.4 543.1,192.4 '/>
		<polygon fill = 'rgb( 31, 120, 180)' fill-opacity = '0.250000' points = '543.1,192.4 543.1,662.4 545.0,662.4 545.0,194.9 '/>
		<polygon fill = 'rgb( 31, 120, 180)' fill-opacity = '0.250000' points = '545.0,194.9 545.0,662.4 546.9,662.4 546.9,197.3 '/>
		<polygon fill = 'rgb( 31, 120, 180)' fill-opacity = '0.250000' points = '546.9,197.3 546.9,662.4 548.9,662.4 548.9,199.8 '/>
		<polygon fill = 'rgb( 31, 120, 180)' fill-opacity = '0.250000' points = '548.9,199.8 548.9,662.4 550.8,662.4 550.8,202.3 '/>
		<polygon fill = 'rgb( 31, 120, 180)' fill-opacity = '0.250000' points = '550.8,202.3 550.8,662.4 552.7,662.4 552.7,204.9 '/>
		<polygon fill = 'rgb( 31, 120, 180)' fill-opacity = '0.250000' points = '552.7,204.9 552.7,662.4 554.6,662.4 554.6,207.5 '/>
		<polygon fill = 'rgb( 31, 120, 180)' fill-opacity = '0.250000' points = '554.6,207.5 554.6,662.4 556.5,662.4 556.5,210.1 '/>
		<polygon fill = 'rgb( 31, 120, 180)' fill-opacity = '0.250000' points = '556.5,210.1 556.5,662.4 558.5,662.4 558.5,212.8 '/>
		<polygon fill = 'rgb( 31, 120, 180)' fill-opacity = '0.250000' points = '558.5,212.8 558.5,662.4 560.4,662.4 560.4,215.6 '/>
		<polygon fill = 'rgb( 31, 120, 180)' fill-opacity = '0.250000' points = '560.4,215.6 560.4,662.4 562.3,662.4 562.3,218.4 '/>
		<polygon fill = 'rgb( 31, 120, 180)' fill-opacity = '0.250000' points = '562.3,218.4 562.3,662.4 564.2,662.4 564.2,221.3 '/>
		<polygon fill = 'rgb( 31, 120, 180)' fill-opacity = '0.250000' points = '564.2,221.3 564.2,662.4 566.1,662.4 566.1,224.2 '/>
		<polygon fill = 'rgb( 31, 120, 180)' fill-opacity = '0.250000' points = '566.1,224.2 566.1,662.4 568.1,662.4 568.1,227.2 '/>
		<polygon fill = 'rgb( 31, 120, 180)' fill-opacity = '0.250000' points = '568.1,227.2 568.1,662.4 570.0,662.4 570.0,230.3 '/>
		<polygon fill = 'rgb( 31, 120, 180)' fill-opacity = '0.250000' points = '570.0,230.3 570.0,662.4 571.9,662.4 571.9,233.3 '/>
		<polygon fill = 'rgb( 31, 120, 180)' fill-opacity = '0.250000' points = '571.9,233.3 571.9,662.4 573.8,662.4 573.8,236.5 '/>
		<polygon fill = 'rgb( 31, 120, 180)' fill-opacity = '0.250000' points = '573.8,236.5 573.8,662.4 575.7,662.4 575.7,239.6 '/>
		<polygon fill = 'rgb( 31, 120, 180)' fill-opacity = '0.250000' points = '575.7,239.6 575.7,662.4 577.7,662.4 577.7,242.8 '/>
		<polygon fill = 'rgb( 31, 120, 180)' fill-opacity = '0.250000' points = '577.7,242.8 577.7,662.4 579.6,662.4 579.6,246.0 '/>
		<polygon fill = 'rgb( 31, 120, 180)' fill-opacity = '0.250000' points = '579.6,246.0 579.6,662.4 581.5,662.4 581.5,249.2 '/>
		<polygon fill = 'rgb( 31, 120, 180)' fill-opacity = '0.250000' points = '581.5,249.2 581.5,662.4 583.4,662.4 583.4,252.4 '/>
		<polygon fill = 'rgb( 31, 120, 180)' fill-opacity = '0.250000' points = '583.4,252.4 583.4,662.4 585.3,662.4 585.3,255.6 '/>
		<polygon fill = 'rgb( 31, 120, 180)' fill-opacity = '0.250000' points = '585.3,255.6 585.3,662.4 587.3,662.4 587.3,258.7 '/>
		<polygon fill = 'rgb( 31, 120, 180)' fill-opacity = '0.250000' points = '587.3,258.7 587.3,662.4 589.2,662.4 589.2,261.9 '/>
		<polygon fill = 'rgb( 31, 120, 180)' fill-opacity = '0.250000' points = '589.2,261.9 589.2,662.4 591.1,662.4 591.1,265.0 '/>
		<polygon fill = 'rgb( 31, 120, 180)' fill-opacity = '0.250000' points = '591.1,265.0 591.1,662.4 593.0,662.4 593.0,268.1 '/>
		<polygon fill = 'rgb( 31, 120, 180)' fill-opacity = '0.250000' points = '593.0,268.1 593.0,662.4 594.9,662.4 594.9,271.2 '/>
		<polygon fill = 'rgb( 31, 120, 180)' fill-opacity = '0.250000' points = '594.9,271.2 594.9,662.4 596.9,662.4 596.9,274.2 '/>
		<polygon fill = 'rgb( 31, 120, 180)' fill-opacity = '0.250000' points = '596.9,274.2 596.9,662.4 598.8,662.4 598.8,277.2 '/>
		<polygon fill = 'rgb( 31, 120, 180)' fill-opacity = '0.250000' points = '598.8,277.2 598.8,662.4 600.7,662.4 600.7,280.2 '/>
		<polygon fill = 'rgb( 31, 120, 180)' fill-opacity = '0.250000' points = '600.7,280.2 600.7,662.4 602.6,662.4 602.6,283.1 '/>
		<polygon fill = 'rgb( 31, 120, 180)' fill-opacity = '0.250000' points = '602.6,283.1 602.6,662.4 604.5,662.4 604.5,286.0 '/>
		<polygon fill = 'rgb( 31, 120, 180)' fill-opacity = '0.250000' points = '604.5,286.0 604.5,662.4 606.5,662.4 606.5,288.9 '/>
		<polygon fill = 'rgb( 31, 120, 180)' fill-opacity = '0.250000' points = '606.5,288.9 606.5,662.4 608.4,662.4 608.4,291.8 '/>
		<polygon fill = 'rgb( 31, 120, 180)' fill-opacity = '0.250000' points = '608.4,291.8 608.4,662.4 610.3,662.4 610.3,294.6 '/>
		<polygon fill = 'rgb( 31, 120, 180)' fill-opacity = '0.250000' points = '610.3,294.6 610.3,662.4 612.2,662.4 612.2,297.4 '/>
		<polygon fill = 'rgb( 31, 120, 180)' fill-opacity = '0.250000' points = '612.2,297.4 612.2,662.4 614.1,662.4 614.1,300.3 '/>
		<polygon fill = 'rgb( 31, 120, 180)' fill-opacity = '0.250000' points = '614.1,300.3 614.1,662.4 616.1,662.4 616.1,303.1 '/>
		<polygon fill = 'rgb( 31, 120, 180)' fill-opacity = '0.250000' points = '616.1,303.1 616.1,662.4 618.0,662.4 618.0,305.9 '/>
		<polygon fill = 'rgb( 31, 120, 180)' fill-opacity = '0.250000' points = '618.0,305.9 618.0,662.4 619.9,662.4 619.9,308.7 '/>
		<polygon fill = 'rgb( 31, 120, 180)' fill-opacity = '0.250000' points = '619.9,308.7 619.9,662.4 621.8,662.4 621.8,311.5 '/>
		<polygon fill = 'rgb( 31, 120, 180)' fill-opacity = '0.250000' points = '621.8,311.5 621.8,662.4 623.8,662.4 623.8,314.4 '/>
		<polygon fill = 'rgb( 31, 120, 180)' fill-opacity = '0.250000' points = '623.8,314.4 623.8,662.4 625.7,662.4 625.7,317.2 '/>
		<polygon fill = 'rgb( 31, 120, 180)' fill-opacity = '0.250000' points = '625.7,317.2 625.7,662.4 627.6,662.4 627.6,320.1 '/>
		<polygon fill = 'rgb( 31, 120, 180)' fill-opacity = '0.250000' points = '627.6,320.1 627.6,662.4 629.5,662.4 629.5,323.0 '/>
		<polygon fill = 'rgb( 31, 120, 180)' fill-opacity = '0.250000' points = '629.5,323.0 629.5,662.4 631.4,662.4 631.4,325.9 '/>
		<polygon fill = 'rgb( 31, 120, 180)' fill-opacity = '0.250000' points = '631.4,325.9 631.4,662.4 633.4,662.4 633.4,328.8 '/>
		<polygon fill = 'rgb( 31, 120, 180)' fill-opacity = '0.250000' points = '633.4,328.8 633.4,662.4 635.3,662.4 635.3,331.8 '/>
		<polygon fill = 'rgb( 31, 120, 180)' fill-opacity = '0.250000' points = '635.3,331.8 635.3,662.4 637.2,662.4 637.2,334.8 '/>
		<polygon fill = 'rgb( 31, 120, 180)' fill-opacity = '0.250000' points = '637.2,334.8 637.2,662.4 639.1,662.4 639.1,337.8 '/>
		<polygon fill = 'rgb( 31, 120, 180)' fill-opacity = '0.250000' points = '639.1,337.8 639.1,662.4 641.0,662.4 641.0,340.8 '/>
		<polygon fill = 'rgb( 31, 120, 180)' fill-opacity = '0.250000' points = '641.0,340.8 641.0,662.4 643.0,662.4 643.0,343.9 '/>
		<polygon fill = 'rgb( 31, 120, 180)' fill-opacity = '0.250000' points = '643.0,343.9 643.0,662.4 644.9,662.4 644.9,346.9 '/>
		<polygon fill = 'rgb( 31, 120, 180)' fill-opacity = '0.250000' points = '644.9,346.9 644.9,662.4 646.8,662.4 646.8,350.0 '/>
		<polygon fill = 'rgb( 31, 120, 180)' fill-opacity = '0.250000' points = '646.8,350.0 646.8,662.4 648.7,662.4 648.7,353.1 '/>
		<polygon fill = 'rgb( 31, 120, 180)' fill-opacity = '0.250000' points = '648.7,353.1 648.7,662.4 650.6,662.4 650.6,356.1 '/>
		<polygon fill = 'rgb( 31, 120, 180)' fill-opacity = '0.250000' points = '650.6,356.1 650.6,662.4 652.6,662.4 652.6,359.2 '/>
		<polygon fill = 'rgb( 31, 120, 180)' fill-opacity = '0.250000' points = '652.6,359.2 652.6,662.4 654.5,662.4 654.5,362.3 '/>
		<polygon fill = 'rgb( 31, 120, 180)' fill-opacity = '0.250000' points = '654.5,362.3 654.5,662.4 656.4,662.4 656.4,365.3 '/>
		<polygon fill = 'rgb( 31, 120, 180)' fill-opacity = '0.250000' points = '656.4,365.3 656.4,662.4 658.3,662.4 658.3,368.4 '/>
		<polygon fill = 'rgb( 31, 120, 180)' fill-opacity = '0.250000' points = '658.3,368.4 658.3,662.4 660.2,662.4 660.2,371.4 '/>
		<polygon fill = 'rgb( 31, 120, 180)' fill-opacity = '0.250000' points = '660.2,371.4 660.2,662.4 662.2,662.4 662.2,374.3 '/>
		<polygon fill = 'rgb( 31, 120, 180)' fill-opacity = '0.250000' points = '662.2,374.3 662.2,662.4 664.1,662.4 664.1,377.3 '/>
		<polygon fill = 'rgb( 31, 120, 180)' fill-opacity = '0.250000' points = '664.1,377.3 664.1,662.4 666.0,662.4 666.0,380.2 '/>
		<polygon fill = 'rgb( 31, 120, 180)' fill-opacity = '0.250000' points = '666.0,380.2 666.0,662.4 667.9,662.4 667.9,383.0 '/>
		<polygon fill = 'rgb( 31, 120, 180)' fill-opacity = '0.250000' points = '667.9,383.0 667.9,662.4 669.8,662.4 669.8,385.8 '/>
		<polygon fill = 'rgb( 31, 120, 180)' fill-opacity = '0.250000' points = '669.8,385.8 669.8,662.4 671.8,662.4 671.8,388.6 '/>
		<polygon fill = 'rgb( 31, 120, 180)' fill-opacity = '0.250000' points = '671.8,388.6 671.8,662.4 673.7,662.4 673.7,391.4 '/>
		<polygon fill = 'rgb( 31, 120, 180)' fill-opacity = '0.250000' points = '673.7,391.4 673.7,662.4 675.6,662.4 675.6,394.1 '/>
		<polygon fill = 'rgb( 31, 120, 180)' fill-opacity = '0.250000' points = '675.6,394.1 675.6,662.4 677.5,662.4 677.5,396.7 '/>
		<polygon fill = 'rgb( 31, 120, 180)' fill-opacity = '0.250000' points = '677.5,396.7 677.5,662.4 679.4,662.4 679.4,399.3 '/>
		<polygon fill = 'rgb( 31, 120, 180)' fill-opacity = '0.250000' points = '679.4,399.3 679.4,662.4 681.4,662.4 681.4,401.9 '/>
		<polygon fill = 'rgb( 31, 120, 180)' fill-opacity = '0.250000' points = '681.4,401.9 681.4,662.4 683.3,662.4 683.3,404.5 '/>
		<polygon fill = 'rgb( 31, 120, 180)' fill-opacity = '0.250000' points = '683.3,404.5 683.3,662.4 685.2,662.4 685.2,407.0 '/>
		<polygon fill = 'rgb( 31, 120, 180)' fill-opacity = '0.250000' points = '685.2,407.0 685.2,662.4 687.1,662.4 687.1,409.5 '/>
		<polygon fill = 'rgb( 31, 120, 180)' fill-opacity = '0.250000' points = '687.1,409.5 687.1,662.4 689.0,662.4 689.0,412.0 '/>
		<polygon fill = 'rgb( 31, 120, 180)' fill-opacity = '0.250000' points = '689.0,412.0 689.0,662.4 691.0,662.4 691.0,414.5 '/>
		<polygon fill = 'rgb( 31, 120, 180)' fill-opacity = '0.250000' points = '691.0,414.5 691.0,662.4 692.9,662.4 692.9,417.0 '/>
		<polygon fill = 'rgb( 31, 120, 180)' fill-opacity = '0.250000' points = '692.9,417.0 692.9,662.4 694.8,662.4 694.8,419.5 '/>
		<polygon fill = 'rgb( 31, 120, 180)' fill-opacity = '0.250000' points = '694.8,419.5 694.8,662.4 696.7,662.4 696.7,422.0 '/>
		<polygon fill = 'rgb( 31, 120, 180)' fill-opacity = '0.250000' points = '696.7,422.0 696.7,662.4 698.6,662.4 698.6,424.5 '/>
		<polygon fill = 'rgb( 31, 120, 180)' fill-opacity = '0.250000' points = '698.6,424.5 698.6,662.4 700.6,662.4 700.6,427.0 '/>
		<polygon fill = 'rgb( 31, 120, 180)' fill-opacity = '0.250000' points = '700.6,427.0 700.6,662.4 702.5,662.4 702.5,429.4 '/>
		<polygon fill = 'rgb( 31, 120, 180)' fill-opacity = '0.250000' points = '702.5,429.4 702.5,662.4 704.4,662.4 704.4,431.9 '/>
		<polygon fill = 'rgb( 31, 120, 180)' fill-opacity = '0.250000' points = '704.4,431.9 704.4,662.4 706.3,662.4 706.3,434.4 '/>
		<polygon fill = 'rgb( 31, 120, 180)' fill-opacity = '0.250000' points = '706.3,434.4 706.3,662.4 708.2,662.4 708.2,436.9 '/>
		<polygon fill = 'rgb( 31, 120, 180)' fill-opacity = '0.250000' points = '708.2,436.9 708.2,662.4 710.2,662.4 710.2,439.4 '/>
		<polygon fill = 'rgb( 31, 120, 180)' fill-opacity = '0.250000' points = '710.2,439.4 710.2,662.4 712.1,662.4 712.1,441.9 '/>
		<polygon fill = 'rgb( 31, 120, 180)' fill-opacity = '0.250000' points = '712.1,441.9 712.1,662.4 714.0,662.4 714.0,444.3 '/>
		<polygon fill = 'rgb( 31, 120, 180)' fill-opacity = '0.250000' points = '714.0,444.3 714.0,662.4 715.9,662.4 715.9,446.8 '/>
		<polygon fill = 'rgb( 31, 120, 180)' fill-opacity = '0.250000' points = '715.9,446.8 715.9,662.4 717.9,662.4 717.9,449.2 '/>
		<polygon fill = 'rgb( 31, 120, 180)' fill-opacity = '0.250000' points = '717.9,449.2 717.9,662.4 719.8,662.4 719.8,451.7 '/>
		<polygon fill = 'rgb( 31, 120, 180)' fill-opacity = '0.250000' points = '719.8,451.7 719.8,662.4 721.7,662.4 721.7,454.1 '/>
		<polygon fill = 'rgb( 31, 120, 180)' fill-opacity = '0.250000' points = '721.7,454.1 721.7,662.4 723.6,662.4 723.6,456.5 '/>
		<polygon fill = 'rgb( 31, 120, 180)' fill-opacity = '0.250000' points = '723.6,456.5 723.6,662.4 725.5,662.4 725.5,458.9 '/>
		<polygon fill = 'rgb( 31, 120, 180)' fill-opacity = '0.250000' points = '725.5,458.9 725.5,662.4 727.5,662.4 727.5,461.2 '/>
		<polygon fill = 'rgb( 31, 120, 180)' fill-opacity = '0.250000' points = '727.5,461.2 727.5,662.4 729.4,662.4 729.4,463.6 '/>
		<polygon fill = 'rgb( 31, 120, 180)' fill-opacity = '0.250000' points = '729.4,463.6 729.4,662.4 731.3,662.4 731.3,465.9 '/>
		<polygon fill = 'rgb( 31, 120, 180)' fill-opacity = '0.250000' points = '731.3,465.9 731.3,662.4 733.2,662.4 733.2,468.2 '/>
		<polygon fill = 'rgb( 31, 120, 180)' fill-opacity = '0.250000' points = '733.2,468.2 733.2,662.4 735.1,662.4 735.1,470.5 '/>
		<polygon fill = 'rgb( 31, 120, 180)' fill-opacity = '0.250000' points = '735.1,470.5 735.1,662.4 737.1,662.4 737.1,472.7 '/>
		<polygon fill = 'rgb( 31, 120, 180)' fill-opacity = '0.250000' points = '737.1,472.7 737.1,662.4 739.0,662.4 739.0,474.9 '/>
		<polygon fill = 'rgb( 31, 120, 180)' fill-opacity = '0.250000' points = '739.0,474.9 739.0,662.4 740.9,662.4 740.9,477.1 '/>
		<polygon fill = 'rgb( 31, 120, 180)' fill-opacity = '0.250000' points = '740.9,477.1 740.9,662.4 742.8,662.4 742.8,479.3 '/>
		<polygon fill = 'rgb( 31, 120, 180)' fill-opacity = '0.250000' points = '742.8,479.3 742.8,662.4 744.7,662.4 744.7,481.4 '/>
		<polygon fill = 'rgb( 31, 120, 180)' fill-opacity = '0.250000' points = '744.7,481.4 744.7,662.4 746.7,662.4 746.7,483.6 '/>
		<polygon fill = 'rgb( 31, 120, 180)' fill-opacity = '0.250000' points = '746.7,483.6 746.7,662.4 748.6,662.4 748.6,485.7 '/>
		<polygon fill = 'rgb( 31, 120, 180)' fill-opacity = '0.250000' points = '748.6,485.7 748.6,662.4 750.5,662.4 750.5,487.7 '/>
		<polygon fill = 'rgb( 31, 120, 180)' fill-opacity = '0.250000' points = '750.5,487.7 750.5,662.4 752.4,662.4 752.4,489.8 '/>
		<polygon fill = 'rgb( 31, 120, 180)' fill-opacity = '0.250000' points = '752.4,489.8 752.4,662.4 754.3,662.4 754.3,491.8 '/>
		<polygon fill = 'rgb( 31, 120, 180)' fill-opacity = '0.250000' points = '754.3,491.8 754.3,662.4 756.3,662.4 756.3,493.8 '/>
		<polygon fill = 'rgb( 31, 120, 180)' fill-opacity = '0.250000' points = '756.3,493.8 756.3,662.4 758.2,662.4 758.2,495.8 '/>
		<polygon fill = 'rgb( 31, 120, 180)' fill-opacity = '0.250000' points = '758.2,495.8 758.2,662.4 760.1,662.4 760.1,497.7 '/>
		<polygon fill = 'rgb( 31, 120, 180)' fill-opacity = '0.250000' points = '760.1,497.7 760.1,662.4 762.0,662.4 762.0,499.6 '/>
		<polygon fill = 'rgb( 31, 120, 180)' fill-opacity = '0.250000' points = '762.0,499.6 762.0,662.4 763.9,662.4 763.9,501.5 '/>
		<polygon fill = 'rgb( 31, 120, 180)' fill-opacity = '0.250000' points = '763.9,501.5 763.9,662.4 765.9,662.4 765.9,503.4 '/>
		<polygon fill = 'rgb( 31, 120, 180)' fill-opacity = '0.250000' points = '765.9,503.4 765.9,662.4 767.8,662.4 767.8,505.2 '/>
		<polygon fill = 'rgb( 31, 120, 180)' fill-opacity = '0.250000' points = '767.8,505.2 767.8,662.4 769.7,662.4 769.7,507.1 '/>
		<polygon fill = 'rgb( 31, 120, 180)' fill-opacity = '0.250000' points = '769.7,507.1 769.7,662.4 771.6,662.4 771.6,508.9 '/>
		<polygon fill = 'rgb( 31, 120, 180)' fill-opacity = '0.250000' points = '771.6,508.9 771.6,662.4 773.5,662.4 773.5,510.6 '/>
		<polygon fill = 'rgb( 31, 120, 180)' fill-opacity = '0.250000' points = '773.5,510.6 773.5,662.4 775.5,662.4 775.5,512.4 '/>
		<polygon fill = 'rgb( 31, 120, 180)' fill-opacity = '0.250000' points = '775.5,512.4 775.5,662.4 777.4,662.4 777.4,514.1 '/>
		<polygon fill = 'rgb( 31, 120, 180)' fill-opacity = '0.250000' points = '777.4,514.1 777.4,662.4 779.3,662.4 779.3,515.9 '/>
		<polygon fill = 'rgb( 31, 120, 180)' fill-opacity = '0.250000' points = '779.3,515.9 779.3,662.4 781.2,662.4 781.2,517.6 '/>
		<polygon fill = 'rgb( 31, 120, 180)' fill-opacity = '0.250000' points = '781.2,517.6 781.2,662.4 783.1,662.4 783.1,519.3 '/>
		<polygon fill = 'rgb( 31, 120, 180)' fill-opacity = '0.250000' points = '783.1,519.3 783.1,662.4 785.1,662.4 785.1,520.9 '/>
		<polygon fill = 'rgb( 31, 120, 180)' fill-opacity = '0.250000' points = '785.1,520.9 785.1,662.4 787.0,662.4 787.0,522.6 '/>
		<polygon fill = 'rgb( 31, 120, 180)' fill-opacity = '0.250000' points = '787.0,522.6 787.0,662.4 788.9,662.4 788.9,524.3 '/>
		<polygon fill = 'rgb( 31, 120, 180)' fill-opacity = '0.250000' points = '788.9,524.3 788.9,662.4 790.8,662.4 790.8,525.9 '/>
		<polygon fill = 'rgb( 31, 120, 180)' fill-opacity = '0.250000' points = '790.8,525.9 790.8,662.4 792.7,662.4 792.7,527.6 '/>
		<polygon fill = 'rgb( 31, 120, 180)' fill-opacity = '0.250000' points = '792.7,527.6 792.7,662.4 794.7,662.4 794.7,529.2 '/>
		<polygon fill = 'rgb( 31, 120, 180)' fill-opacity = '0.250000' points = '794.7,529.2 794.7,662.4 796.6,662.4 796.6,530.8 '/>
		<polygon fill = 'rgb( 31, 120, 180)' fill-opacity = '0.250000' points = '796.6,530.8 796.6,662.4 798.5,662.4 798.5,532.4 '/>
		<polygon fill = 'rgb( 31, 120, 180)' fill-opacity = '0.250000' points = '798.5,532.4 798.5,662.4 800.4,662.4 800.4,534.1 '/>
		<polygon fill = 'rgb( 31, 120, 180)' fill-opacity = '0.250000' points = '800.4,534.1 800.4,662.4 802.4,662.4 802.4,535.7 '/>
		<polygon fill = 'rgb( 31, 120, 180)' fill-opacity = '0.250000' points = '802.4,535.7 802.4,662.4 804.3,662.4 804.3,537.3 '/>
		<polygon fill = 'rgb( 31, 120, 180)' fill-opacity = '0.250000' points = '804.3,537.3 804.3,662.4 806.2,662.4 806.2,538.9 '/>
		<polygon fill = 'rgb( 31, 120, 180)' fill-opacity = '0.250000' points = '806.2,538.9 806.2,662.4 808.1,662.4 808.1,540.5 '/>
		<polygon fill = 'rgb( 31, 120, 180)' fill-opacity = '0.250000' points = '808.1,540.5 808.1,662.4 810.0,662.4 810.0,542.1 '/>
		<polygon fill = 'rgb( 31, 120, 180)' fill-opacity = '0.250000' points = '810.0,542.1 810.0,662.4 812.0,662.4 812.0,543.6 '/>
		<polygon fill = 'rgb( 31, 120, 180)' fill-opacity = '0.250000' points = '812.0,543.6 812.0,662.4 813.9,662.4 813.9,545.2 '/>
		<polygon fill = 'rgb( 31, 120, 180)' fill-opacity = '0.250000' points = '813.9,545.2 813.9,662.4 815.8,662.4 815.8,546.8 '/>
		<polygon fill = 'rgb( 31, 120, 180)' fill-opacity = '0.250000' points = '815.8,546.8 815.8,662.4 817.7,662.4 817.7,548.3 '/>
		<polygon fill = 'rgb( 31, 120, 180)' fill-opacity = '0.250000' points = '817.7,548.3 817.7,662.4 819.6,662.4 819.6,549.9 '/>
		<polygon fill = 'rgb( 31, 120, 180)' fill-opacity = '0.250000' points = '819.6,549.9 819.6,662.4 821.6,662.4 821.6,551.4 '/>
		<polygon fill = 'rgb( 31, 120, 180)' fill-opacity = '0.250000' points = '821.6,551.4 821.6,662.4 823.5,662.4 823.5,553.0 '/>
		<polygon fill = 'rgb( 31, 120, 180)' fill-opacity = '0.250000' points = '823.5,553.0 823.5,662.4 825.4,662.4 825.4,554.5 '/>
		<polygon fill = 'rgb( 31, 120, 180)' fill-opacity = '0.250000' points = '825.4,554.5 825.4,662.4 827.3,662.4 827.3,556.0 '/>
		<polygon fill = 'rgb( 31, 120, 180)' fill-opacity = '0.250000' points = '827.3,556.0 827.3,662.4 829.2,662.4 829.2,557.5 '/>
		<polygon fill = 'rgb( 31, 120, 180)' fill-opacity = '0.250000' points = '829.2,557.5 829.2,662.4 831.2,662.4 831.2,558.9 '/>
		<polygon fill = 'rgb( 31, 120, 180)' fill-opacity = '0.250000' points = '831.2,558.9 831.2,662.4 833.1,662.4 833.1,560.4 '/>
		<polygon fill = 'rgb( 31, 120, 180)' fill-opacity = '0.250000' points = '833.1,560.4 833.1,662.4 835.0,662.4 835.0,561.8 '/>
		<polygon fill = 'rgb( 31, 120, 180)' fill-opacity = '0.250000' points = '835.0,561.8 835.0,662.4 836.9,662.4 836.9,563.3 '/>
		<polygon fill = 'rgb( 31, 120, 180)' fill-opacity = '0.250000' points = '836.9,563.3 836.9,662.4 838.8,662.4 838.8,564.7 '/>
		<polygon fill = 'rgb( 31, 120, 180)' fill-opacity = '0.250000' points = '838.8,564.7 838.8,662.4 840.8,662.4 840.8,566.0 '/>
		<polygon fill = 'rgb( 31, 120, 180)' fill-opacity = '0.250000' points = '840.8,566.0 840.8,662.4 842.7,662.4 842.7,567.4 '/>
		<polygon fill = 'rgb( 31, 120, 180)' fill-opacity = '0.250000' points = '842.7,567.4 842.7,662.4 844.6,662.4 844.6,568.7 '/>
		<polygon fill = 'rgb( 31, 120, 180)' fill-opacity = '0.250000' points = '844.6,568.7 844.6,662.4 846.5,662.4 846.5,570.0 '/>
		<polygon fill = 'rgb( 31, 120, 180)' fill-opacity = '0.250000' points = '846.5,570.0 846.5,662.4 848.4,662.4 848.4,571.3 '/>
		<polygon fill = 'rgb( 31, 120, 180)' fill-opacity = '0.250000' points = '848.4,571.3 848.4,662.4 850.4,662.4 850.4,572.6 '/>
		<polygon fill = 'rgb( 31, 120, 180)' fill-opacity = '0.250000' points = '850.4,572.6 850.4,662.4 852.3,662.4 852.3,573.9 '/>
		<polygon fill = 'rgb( 31, 120, 180)' fill-opacity = '0.250000' points = '852.3,573.9 852.3,662.4 854.2,662.4 854.2,575.1 '/>
		<polygon fill = 'rgb( 31, 120, 180)' fill-opacity = '0.250000' points = '854.2,575.1 854.2,662.4 856.1,662.4 856.1,576.3 '/>
		<polygon fill = 'rgb( 31, 120, 180)' fill-opacity = '0.250000' points = '856.1,576.3 856.1,662.4 858.0,662.4 858.0,577.5 '/>
		<polygon fill = 'rgb( 31, 120, 180)' fill-opacity = '0.250000' points = '858.0,577.5 858.0,662.4 860.0,662.4 860.0,578.7 '/>
		<polygon fill = 'rgb( 31, 120, 180)' fill-opacity = '0.250000' points = '860.0,578.7 860.0,662.4 861.9,662.4 861.9,579.8 '/>
		<polygon fill = 'rgb( 31, 120, 180)' fill-opacity = '0.250000' points = '861.9,579.8 861.9,662.4 863.8,662.4 863.8,580.9 '/>
		<polygon fill = 'rgb( 31, 120, 180)' fill-opacity = '0.250000' points = '863.8,580.9 863.8,662.4 865.7,662.4 865.7,582.0 '/>
		<polygon fill = 'rgb( 31, 120, 180)' fill-opacity = '0.250000' points = '865.7,582.0 865.7,662.4 867.6,662.4 867.6,583.1 '/>
		<polygon fill = 'rgb( 31, 120, 180)' fill-opacity = '0.250000' points = '867.6,583.1 867.6,662.4 869.6,662.4 869.6,584.2 '/>
		<polygon fill = 'rgb( 31, 120, 180)' fill-opacity = '0.250000' points = '869.6,584.2 869.6,662.4 871.5,662.4 871.5,585.2 '/>
		<polygon fill = 'rgb( 31, 120, 180)' fill-opacity = '0.250000' points = '871.5,585.2 871.5,662.4 873.4,662.4 873.4,586.3 '/>
		<polygon fill = 'rgb( 31, 120, 180)' fill-opacity = '0.250000' points = '873.4,586.3 873.4,662.4 875.3,662.4 875.3,587.3 '/>
		<polygon fill = 'rgb( 31, 120, 180)' fill-opacity = '0.250000' points = '875.3,587.3 875.3,662.4 877.2,662.4 877.2,588.2 '/>
		<polygon fill = 'rgb( 31, 120, 180)' fill-opacity = '0.250000' points = '877.2,588.2 877.2,662.4 879.2,662.4 879.2,589.2 '/>
		<polygon fill = 'rgb( 31, 120, 180)' fill-opacity = '0.250000' points = '879.2,589.2 879.2,662.4 881.1,662.4 881.1,590.1 '/>
		<polygon fill = 'rgb( 31, 120, 180)' fill-opacity = '0.250000' points = '881.1,590.1 881.1,662.4 883.0,662.4 883.0,591.0 '/>
		<polygon fill = 'rgb( 31, 120, 180)' fill-opacity = '0.250000' points = '883.0,591.0 883.0,662.4 884.9,662.4 884.9,591.9 '/>
		<polygon fill = 'rgb( 31, 120, 180)' fill-opacity = '0.250000' points = '884.9,591.9 884.9,662.4 886.9,662.4 886.9,592.8 '/>
		<polygon fill = 'rgb( 31, 120, 180)' fill-opacity = '0.250000' points = '886.9,592.8 886.9,662.4 888.8,662.4 888.8,593.7 '/>
		<polygon fill = 'rgb( 31, 120, 180)' fill-opacity = '0.250000' points = '888.8,593.7 888.8,662.4 890.7,662.4 890.7,594.5 '/>
		<polygon fill = 'rgb( 31, 120, 180)' fill-opacity = '0.250000' points = '890.7,594.5 890.7,662.4 892.6,662.4 892.6,595.3 '/>
		<polygon fill = 'rgb( 31, 120, 180)' fill-opacity = '0.250000' points = '892.6,595.3 892.6,662.4 894.5,662.4 894.5,596.1 '/>
		<polygon fill = 'rgb( 31, 120, 180)' fill-opacity = '0.250000' points = '894.5,596.1 894.5,662.4 896.5,662.4 896.5,596.9 '/>
		<polygon fill = 'rgb( 31, 120, 180)' fill-opacity = '0.250000' points = '896.5,596.9 896.5,662.4 898.4,662.4 898.4,597.7 '/>
		<polygon fill = 'rgb( 31, 120, 180)' fill-opacity = '0.250000' points = '898.4,597.7 898.4,662.4 900.3,662.4 900.3,598.4 '/>
		<polygon fill = 'rgb( 31, 120, 180)' fill-opacity = '0.250000' points = '900.3,598.4 900.3,662.4 902.2,662.4 902.2,599.2 '/>
		<polygon fill = 'rgb( 31, 120, 180)' fill-opacity = '0.250000' points = '902.2,599.2 902.2,662.4 904.1,662.4 904.1,599.9 '/>
		<polygon fill = 'rgb( 31, 120, 180)' fill-opacity = '0.250000' points = '904.1,599.9 904.1,662.4 906.1,662.4 906.1,600.6 '/>
		<polygon fill = 'rgb( 31, 120, 180)' fill-opacity = '0.250000' points = '906.1,600.6 906.1,662.4 908.0,662.4 908.0,601.3 '/>
		<polygon fill = 'rgb( 31, 120, 180)' fill-opacity = '0.250000' points = '908.0,601.3 908.0,662.4 909.9,662.4 909.9,602.0 '/>
		<polygon fill = 'rgb( 31, 120, 180)' fill-opacity = '0.250000' points = '909.9,602.0 909.9,662.4 911.8,662.4 911.8,602.7 '/>
		<polygon fill = 'rgb( 31, 120, 180)' fill-opacity = '0.250000' points = '911.8,602.7 911.8,662.4 913.7,662.4 913.7,603.4 '/>
		<polygon fill = 'rgb( 31, 120, 180)' fill-opacity = '0.250000' points = '913.7,603.4 913.7,662.4 915.7,662.4 915.7,604.1 '/>
		<polygon fill = 'rgb( 31, 120, 180)' fill-opacity = '0.250000' points = '915.7,604.1 915.7,662.4 917.6,662.4 917.6,604.7 '/>
		<polygon fill = 'rgb( 31, 120, 180)' fill-opacity = '0.250000' points = '917.6,604.7 917.6,662.4 919.5,662.4 919.5,605.4 '/>
		<polygon fill = 'rgb( 31, 120, 180)' fill-opacity = '0.250000' points = '919.5,605.4 919.5,662.4 921.4,662.4 921.4,606.1 '/>
		<polygon fill = 'rgb( 31, 120, 180)' fill-opacity = '0.250000' points = '921.4,606.1 921.4,662.4 923.3,662.4 923.3,606.8 '/>
	</g>
</g>
	</g>
	<g id="gnuplot_plot_3" ><title>Point estimate</title>
<g fill="none" color="white" stroke="rgb( 31, 120, 180)" stroke-width="2.00" stroke-linecap="butt" stroke-linejoin="miter">
</g>
<g fill="none" color="black" stroke="currentColor" stroke-width="2.00" stroke-linecap="butt" stroke-linejoin="miter">
	<g transform="translate(1089.0,103.0)" stroke="none" fill="black" font-family="Helvetica" font-size="12.00"  text-anchor="start">
		<text><tspan font-family="Helvetica" >Point estimate</tspan></text>
	</g>
</g>
<g fill="none" color="black" stroke="currentColor" stroke-width="2.00" stroke-linecap="butt" stroke-linejoin="miter">
	<path stroke='rgb( 31, 120, 180)'  d='M1038.5,99.1 L1080.7,99.1 M466.1,662.4 L466.1,98.1  '/></g>
	</g>
<g fill="none" color="black" stroke="currentColor" stroke-width="2.00" stroke-linecap="butt" stroke-linejoin="miter">
</g>
<g fill="none" color="black" stroke="black" stroke-width="1.00" stroke-linecap="butt" stroke-linejoin="miter">
</g>
<g fill="none" color="black" stroke="currentColor" stroke-width="1.00" stroke-linecap="butt" stroke-linejoin="miter">
	<path stroke='black'  d='M55.3,54.1 L55.3,662.4 L1013.6,662.4 L1013.6,54.1 L55.3,54.1 Z  '/></g>
<g fill="none" color="black" stroke="currentColor" stroke-width="1.00" stroke-linecap="butt" stroke-linejoin="miter">
</g>
</g>
</svg>

