<?xml version="1.0" encoding="utf-8"  standalone="no"?>
<svg 
 viewBox="0 0 1280 720"
 xmlns="http://www.w3.org/2000/svg"
 xmlns:xlink="http://www.w3.org/1999/xlink"
>

<title>Gnuplot</title>
<desc>Produced by GNUPLOT 5.0 patchlevel 6 </desc>

<g id="gnuplot_canvas">

<rect x="0" y="0" width="1280" height="720" fill="none"/>
<defs>

	<circle id='gpDot' r='0.5' stroke-width='0.5'/>
	<path id='gpPt0' stroke-width='0.222' stroke='currentColor' d='M-1,0 h2 M0,-1 v2'/>
	<path id='gpPt1' stroke-width='0.222' stroke='currentColor' d='M-1,-1 L1,1 M1,-1 L-1,1'/>
	<path id='gpPt2' stroke-width='0.222' stroke='currentColor' d='M-1,0 L1,0 M0,-1 L0,1 M-1,-1 L1,1 M-1,1 L1,-1'/>
	<rect id='gpPt3' stroke-width='0.222' stroke='currentColor' x='-1' y='-1' width='2' height='2'/>
	<rect id='gpPt4' stroke-width='0.222' stroke='currentColor' fill='currentColor' x='-1' y='-1' width='2' height='2'/>
	<circle id='gpPt5' stroke-width='0.222' stroke='currentColor' cx='0' cy='0' r='1'/>
	<use xlink:href='#gpPt5' id='gpPt6' fill='currentColor' stroke='none'/>
	<path id='gpPt7' stroke-width='0.222' stroke='currentColor' d='M0,-1.33 L-1.33,0.67 L1.33,0.67 z'/>
	<use xlink:href='#gpPt7' id='gpPt8' fill='currentColor' stroke='none'/>
	<use xlink:href='#gpPt7' id='gpPt9' stroke='currentColor' transform='rotate(180)'/>
	<use xlink:href='#gpPt9' id='gpPt10' fill='currentColor' stroke='none'/>
	<use xlink:href='#gpPt3' id='gpPt11' stroke='currentColor' transform='rotate(45)'/>
	<use xlink:href='#gpPt11' id='gpPt12' fill='currentColor' stroke='none'/>
	<path id='gpPt13' stroke-width='0.222' stroke='currentColor' d='M0,1.330 L1.265,0.411 L0.782,-1.067 L-0.782,-1.076 L-1.265,0.411 z'/>
	<use xlink:href='#gpPt13' id='gpPt14' fill='currentColor' stroke='none'/>
	<filter id='textbox' filterUnits='objectBoundingBox' x='0' y='0' height='1' width='1'>
	  <feFlood flood-color='white' flood-opacity='1' result='bgnd'/>
	  <feComposite in='SourceGraphic' in2='bgnd' operator='atop'/>
	</filter>
	<filter id='greybox' filterUnits='objectBoundingBox' x='0' y='0' height='1' width='1'>
	  <feFlood flood-color='lightgrey' flood-opacity='1' result='grey'/>
	  <feComposite in='SourceGraphic' in2='grey' operator='atop'/>
	</filter>
</defs>
<g fill="none" color="white" stroke="currentColor" stroke-width="1.00" stroke-linecap="butt" stroke-linejoin="miter">
</g>
<g fill="none" color="black" stroke="currentColor" stroke-width="1.00" stroke-linecap="butt" stroke-linejoin="miter">
	<path stroke='black'  d='M80.2,662.4 L89.2,662.4  '/>	<g transform="translate(71.9,666.3)" stroke="none" fill="black" font-family="Helvetica" font-size="12.00"  text-anchor="end">
		<text><tspan font-family="Helvetica" > 0</tspan></text>
	</g>
</g>
<g fill="none" color="black" stroke="currentColor" stroke-width="1.00" stroke-linecap="butt" stroke-linejoin="miter">
	<path stroke='black'  d='M80.2,575.5 L89.2,575.5  '/>	<g transform="translate(71.9,579.4)" stroke="none" fill="black" font-family="Helvetica" font-size="12.00"  text-anchor="end">
		<text><tspan font-family="Helvetica" > 0.01</tspan></text>
	</g>
</g>
<g fill="none" color="black" stroke="currentColor" stroke-width="1.00" stroke-linecap="butt" stroke-linejoin="miter">
	<path stroke='black'  d='M80.2,488.6 L89.2,488.6  '/>	<g transform="translate(71.9,492.5)" stroke="none" fill="black" font-family="Helvetica" font-size="12.00"  text-anchor="end">
		<text><tspan font-family="Helvetica" > 0.02</tspan></text>
	</g>
</g>
<g fill="none" color="black" stroke="currentColor" stroke-width="1.00" stroke-linecap="butt" stroke-linejoin="miter">
	<path stroke='black'  d='M80.2,401.7 L89.2,401.7  '/>	<g transform="translate(71.9,405.6)" stroke="none" fill="black" font-family="Helvetica" font-size="12.00"  text-anchor="end">
		<text><tspan font-family="Helvetica" > 0.03</tspan></text>
	</g>
</g>
<g fill="none" color="black" stroke="currentColor" stroke-width="1.00" stroke-linecap="butt" stroke-linejoin="miter">
	<path stroke='black'  d='M80.2,314.8 L89.2,314.8  '/>	<g transform="translate(71.9,318.7)" stroke="none" fill="black" font-family="Helvetica" font-size="12.00"  text-anchor="end">
		<text><tspan font-family="Helvetica" > 0.04</tspan></text>
	</g>
</g>
<g fill="none" color="black" stroke="currentColor" stroke-width="1.00" stroke-linecap="butt" stroke-linejoin="miter">
	<path stroke='black'  d='M80.2,227.9 L89.2,227.9  '/>	<g transform="translate(71.9,231.8)" stroke="none" fill="black" font-family="Helvetica" font-size="12.00"  text-anchor="end">
		<text><tspan font-family="Helvetica" > 0.05</tspan></text>
	</g>
</g>
<g fill="none" color="black" stroke="currentColor" stroke-width="1.00" stroke-linecap="butt" stroke-linejoin="miter">
	<path stroke='black'  d='M80.2,141.0 L89.2,141.0  '/>	<g transform="translate(71.9,144.9)" stroke="none" fill="black" font-family="Helvetica" font-size="12.00"  text-anchor="end">
		<text><tspan font-family="Helvetica" > 0.06</tspan></text>
	</g>
</g>
<g fill="none" color="black" stroke="currentColor" stroke-width="1.00" stroke-linecap="butt" stroke-linejoin="miter">
	<path stroke='black'  d='M80.2,54.1 L89.2,54.1  '/>	<g transform="translate(71.9,58.0)" stroke="none" fill="black" font-family="Helvetica" font-size="12.00"  text-anchor="end">
		<text><tspan font-family="Helvetica" > 0.07</tspan></text>
	</g>
</g>
<g fill="none" color="black" stroke="currentColor" stroke-width="1.00" stroke-linecap="butt" stroke-linejoin="miter">
	<path stroke='black'  d='M118.6,662.4 L118.6,653.4  '/>	<g transform="translate(118.6,684.3)" stroke="none" fill="black" font-family="Helvetica" font-size="12.00"  text-anchor="middle">
		<text><tspan font-family="Helvetica" > 10</tspan></text>
	</g>
</g>
<g fill="none" color="black" stroke="currentColor" stroke-width="1.00" stroke-linecap="butt" stroke-linejoin="miter">
	<path stroke='black'  d='M240.3,662.4 L240.3,653.4  '/>	<g transform="translate(240.3,684.3)" stroke="none" fill="black" font-family="Helvetica" font-size="12.00"  text-anchor="middle">
		<text><tspan font-family="Helvetica" > 15</tspan></text>
	</g>
</g>
<g fill="none" color="black" stroke="currentColor" stroke-width="1.00" stroke-linecap="butt" stroke-linejoin="miter">
	<path stroke='black'  d='M362.0,662.4 L362.0,653.4  '/>	<g transform="translate(362.0,684.3)" stroke="none" fill="black" font-family="Helvetica" font-size="12.00"  text-anchor="middle">
		<text><tspan font-family="Helvetica" > 20</tspan></text>
	</g>
</g>
<g fill="none" color="black" stroke="currentColor" stroke-width="1.00" stroke-linecap="butt" stroke-linejoin="miter">
	<path stroke='black'  d='M483.6,662.4 L483.6,653.4  '/>	<g transform="translate(483.6,684.3)" stroke="none" fill="black" font-family="Helvetica" font-size="12.00"  text-anchor="middle">
		<text><tspan font-family="Helvetica" > 25</tspan></text>
	</g>
</g>
<g fill="none" color="black" stroke="currentColor" stroke-width="1.00" stroke-linecap="butt" stroke-linejoin="miter">
	<path stroke='black'  d='M605.3,662.4 L605.3,653.4  '/>	<g transform="translate(605.3,684.3)" stroke="none" fill="black" font-family="Helvetica" font-size="12.00"  text-anchor="middle">
		<text><tspan font-family="Helvetica" > 30</tspan></text>
	</g>
</g>
<g fill="none" color="black" stroke="currentColor" stroke-width="1.00" stroke-linecap="butt" stroke-linejoin="miter">
	<path stroke='black'  d='M727.0,662.4 L727.0,653.4  '/>	<g transform="translate(727.0,684.3)" stroke="none" fill="black" font-family="Helvetica" font-size="12.00"  text-anchor="middle">
		<text><tspan font-family="Helvetica" > 35</tspan></text>
	</g>
</g>
<g fill="none" color="black" stroke="currentColor" stroke-width="1.00" stroke-linecap="butt" stroke-linejoin="miter">
	<path stroke='black'  d='M848.7,662.4 L848.7,653.4  '/>	<g transform="translate(848.7,684.3)" stroke="none" fill="black" font-family="Helvetica" font-size="12.00"  text-anchor="middle">
		<text><tspan font-family="Helvetica" > 40</tspan></text>
	</g>
</g>
<g fill="none" color="black" stroke="currentColor" stroke-width="1.00" stroke-linecap="butt" stroke-linejoin="miter">
	<path stroke='black'  d='M970.3,662.4 L970.3,653.4  '/>	<g transform="translate(970.3,684.3)" stroke="none" fill="black" font-family="Helvetica" font-size="12.00"  text-anchor="middle">
		<text><tspan font-family="Helvetica" > 45</tspan></text>
	</g>
</g>
<g fill="none" color="black" stroke="currentColor" stroke-width="1.00" stroke-linecap="butt" stroke-linejoin="miter">
</g>
<g fill="none" color="black" stroke="currentColor" stroke-width="1.00" stroke-linecap="butt" stroke-linejoin="miter">
	<path stroke='black'  d='M80.2,54.1 L80.2,662.4 L1013.6,662.4 L1013.6,54.1 L80.2,54.1 Z  '/></g>
<g fill="none" color="black" stroke="currentColor" stroke-width="1.00" stroke-linecap="butt" stroke-linejoin="miter">
	<g transform="translate(17.0,358.3) rotate(270)" stroke="none" fill="black" font-family="Helvetica" font-size="12.00"  text-anchor="middle">
		<text><tspan font-family="Helvetica" >Density (a.u.)</tspan></text>
	</g>
</g>
<g fill="none" color="black" stroke="currentColor" stroke-width="1.00" stroke-linecap="butt" stroke-linejoin="miter">
	<g transform="translate(546.9,711.3)" stroke="none" fill="black" font-family="Helvetica" font-size="12.00"  text-anchor="middle">
		<text><tspan font-family="Helvetica" >Average time (us)</tspan></text>
	</g>
</g>
<g fill="none" color="black" stroke="currentColor" stroke-width="1.00" stroke-linecap="butt" stroke-linejoin="miter">
	<g transform="translate(546.9,31.0)" stroke="none" fill="black" font-family="Helvetica" font-size="12.00"  text-anchor="middle">
		<text><tspan font-family="Helvetica" >language: rust/parse error: c/examples/cluster.c: MAD</tspan></text>
	</g>
</g>
	<g id="gnuplot_plot_1" ><title>Bootstrap distribution</title>
<g fill="none" color="white" stroke="black" stroke-width="2.00" stroke-linecap="butt" stroke-linejoin="miter">
</g>
<g fill="none" color="black" stroke="currentColor" stroke-width="2.00" stroke-linecap="butt" stroke-linejoin="miter">
	<g transform="translate(1089.0,67.0)" stroke="none" fill="black" font-family="Helvetica" font-size="12.00"  text-anchor="start">
		<text><tspan font-family="Helvetica" >Bootstrap distribution</tspan></text>
	</g>
</g>
<g fill="none" color="black" stroke="currentColor" stroke-width="2.00" stroke-linecap="butt" stroke-linejoin="miter">
	<path stroke='rgb( 31, 120, 180)'  d='M1038.5,63.1 L1080.7,63.1 M80.2,654.1 L82.1,653.6 L83.9,653.0 L85.8,652.3 L87.7,651.5 L89.6,650.5
		L91.4,649.5 L93.3,648.3 L95.2,647.0 L97.0,645.6 L98.9,644.1 L100.8,642.4 L102.6,640.6 L104.5,638.8
		L106.4,636.8 L108.3,634.7 L110.1,632.5 L112.0,630.1 L113.9,627.7 L115.7,625.2 L117.6,622.6 L119.5,620.0
		L121.4,617.2 L123.2,614.4 L125.1,611.5 L127.0,608.5 L128.8,605.5 L130.7,602.5 L132.6,599.4 L134.4,596.4
		L136.3,593.3 L138.2,590.2 L140.1,587.2 L141.9,584.2 L143.8,581.2 L145.7,578.3 L147.5,575.5 L149.4,572.7
		L151.3,569.9 L153.2,567.3 L155.0,564.6 L156.9,562.0 L158.8,559.5 L160.6,556.9 L162.5,554.2 L164.4,551.5
		L166.2,548.8 L168.1,545.9 L170.0,542.8 L171.9,539.7 L173.7,536.3 L175.6,532.8 L177.5,529.0 L179.3,525.1
		L181.2,521.0 L183.1,516.8 L185.0,512.5 L186.8,508.1 L188.7,503.6 L190.6,499.2 L192.4,494.9 L194.3,490.8
		L196.2,486.9 L198.0,483.2 L199.9,479.8 L201.8,476.8 L203.7,474.3 L205.5,472.2 L207.4,470.5 L209.3,469.3
		L211.1,468.6 L213.0,468.3 L214.9,468.5 L216.7,469.0 L218.6,469.8 L220.5,471.0 L222.4,472.3 L224.2,473.7
		L226.1,475.2 L228.0,476.7 L229.8,477.9 L231.7,479.0 L233.6,479.8 L235.5,480.2 L237.3,480.2 L239.2,479.6
		L241.1,478.5 L242.9,476.8 L244.8,474.5 L246.7,471.6 L248.5,468.1 L250.4,464.0 L252.3,459.3 L254.2,454.1
		L256.0,448.4 L257.9,442.3 L259.8,435.8 L261.6,429.1 L263.5,422.2 L265.4,415.1 L267.3,408.0 L269.1,400.8
		L271.0,393.7 L272.9,386.7 L274.7,379.8 L276.6,373.1 L278.5,366.5 L280.3,360.2 L282.2,354.1 L284.1,348.3
		L286.0,342.8 L287.8,337.6 L289.7,332.8 L291.6,328.3 L293.4,324.1 L295.3,320.5 L297.2,317.2 L299.1,314.4
		L300.9,312.1 L302.8,310.3 L304.7,309.0 L306.5,308.2 L308.4,307.8 L310.3,308.0 L312.1,308.6 L314.0,309.6
		L315.9,310.9 L317.8,312.6 L319.6,314.5 L321.5,316.5 L323.4,318.6 L325.2,320.6 L327.1,322.5 L329.0,324.2
		L330.9,325.6 L332.7,326.5 L334.6,326.8 L336.5,326.6 L338.3,325.5 L340.2,323.7 L342.1,320.9 L343.9,317.1
		L345.8,312.2 L347.7,306.3 L349.6,299.2 L351.4,291.0 L353.3,281.8 L355.2,271.5 L357.0,260.3 L358.9,248.2
		L360.8,235.5 L362.7,222.3 L364.5,208.7 L366.4,195.0 L368.3,181.3 L370.1,168.0 L372.0,155.1 L373.9,143.0
		L375.7,131.8 L377.6,121.7 L379.5,112.9 L381.4,105.4 L383.2,99.4 L385.1,94.9 L387.0,91.9 L388.8,90.4
		L390.7,90.3 L392.6,91.6 L394.5,94.1 L396.3,97.7 L398.2,102.1 L400.1,107.2 L401.9,112.9 L403.8,118.8
		L405.7,124.9 L407.5,130.8 L409.4,136.5 L411.3,141.7 L413.2,146.3 L415.0,150.2 L416.9,153.3 L418.8,155.5
		L420.6,156.8 L422.5,157.1 L424.4,156.4 L426.3,154.8 L428.1,152.3 L430.0,149.0 L431.9,145.0 L433.7,140.3
		L435.6,135.1 L437.5,129.7 L439.3,124.0 L441.2,118.4 L443.1,112.9 L445.0,107.9 L446.8,103.4 L448.7,99.6
		L450.6,96.8 L452.4,95.1 L454.3,94.6 L456.2,95.4 L458.0,97.6 L459.9,101.3 L461.8,106.5 L463.7,113.1
		L465.5,121.2 L467.4,130.6 L469.3,141.2 L471.1,152.9 L473.0,165.6 L474.9,178.9 L476.8,192.8 L478.6,207.0
		L480.5,221.3 L482.4,235.5 L484.2,249.3 L486.1,262.7 L488.0,275.3 L489.8,287.0 L491.7,297.7 L493.6,307.1
		L495.5,315.2 L497.3,321.9 L499.2,327.1 L501.1,330.8 L502.9,332.8 L504.8,333.3 L506.7,332.3 L508.6,329.8
		L510.4,325.9 L512.3,320.7 L514.2,314.4 L516.0,307.1 L517.9,299.1 L519.8,290.4 L521.6,281.3 L523.5,272.1
		L525.4,263.0 L527.3,254.2 L529.1,245.9 L531.0,238.3 L532.9,231.7 L534.7,226.1 L536.6,221.7 L538.5,218.6
		L540.4,216.9 L542.2,216.6 L544.1,217.7 L546.0,220.2 L547.8,224.0 L549.7,229.0 L551.6,235.1 L553.4,242.1
		L555.3,249.9 L557.2,258.3 L559.1,267.1 L560.9,276.3 L562.8,285.5 L564.7,294.8 L566.5,303.9 L568.4,312.7
		L570.3,321.2 L572.2,329.3 L574.0,337.0 L575.9,344.1 L577.8,350.7 L579.6,356.8 L581.5,362.4 L583.4,367.6
		L585.2,372.3 L587.1,376.7 L589.0,380.7 L590.9,384.4 L592.7,387.8 L594.6,391.0 L596.5,394.0 L598.3,396.9
		L600.2,399.6 L602.1,402.3 L604.0,404.8 L605.8,407.3 L607.7,409.7 L609.6,412.0 L611.4,414.3 L613.3,416.6
		L615.2,418.8 L617.0,421.1 L618.9,423.3 L620.8,425.5 L622.7,427.7 L624.5,430.0 L626.4,432.2 L628.3,434.6
		L630.1,436.9 L632.0,439.3 L633.9,441.9 L635.8,444.5 L637.6,447.2 L639.5,450.0 L641.4,452.9 L643.2,456.0
		L645.1,459.2 L647.0,462.5 L648.8,465.8 L650.7,469.3 L652.6,472.7 L654.5,476.2 L656.3,479.6 L658.2,483.0
		L660.1,486.1 L661.9,489.1 L663.8,491.8 L665.7,494.1 L667.5,496.1 L669.4,497.7 L671.3,498.8 L673.2,499.4
		L675.0,499.5 L676.9,499.1 L678.8,498.2 L680.6,496.8 L682.5,494.9 L684.4,492.6 L686.3,490.0 L688.1,487.1
		L690.0,483.9 L691.9,480.6 L693.7,477.1 L695.6,473.6 L697.5,470.2 L699.3,466.8 L701.2,463.5 L703.1,460.5
		L705.0,457.6 L706.8,455.0 L708.7,452.7 L710.6,450.7 L712.4,449.1 L714.3,447.7 L716.2,446.7 L718.1,446.0
		L719.9,445.6 L721.8,445.6 L723.7,446.0 L725.5,446.6 L727.4,447.6 L729.3,449.0 L731.1,450.7 L733.0,452.7
		L734.9,455.1 L736.8,457.9 L738.6,461.0 L740.5,464.4 L742.4,468.2 L744.2,472.3 L746.1,476.7 L748.0,481.3
		L749.9,486.2 L751.7,491.3 L753.6,496.5 L755.5,501.8 L757.3,507.2 L759.2,512.5 L761.1,517.9 L762.9,523.1
		L764.8,528.2 L766.7,533.1 L768.6,537.8 L770.4,542.2 L772.3,546.3 L774.2,550.1 L776.0,553.5 L777.9,556.6
		L779.8,559.4 L781.7,561.8 L783.5,563.9 L785.4,565.6 L787.3,567.0 L789.1,568.1 L791.0,568.9 L792.9,569.4
		L794.7,569.7 L796.6,569.8 L798.5,569.7 L800.4,569.5 L802.2,569.1 L804.1,568.8 L806.0,568.4 L807.8,568.0
		L809.7,567.6 L811.6,567.4 L813.5,567.3 L815.3,567.3 L817.2,567.5 L819.1,567.9 L820.9,568.5 L822.8,569.3
		L824.7,570.3 L826.5,571.4 L828.4,572.8 L830.3,574.3 L832.2,575.9 L834.0,577.6 L835.9,579.5 L837.8,581.4
		L839.6,583.4 L841.5,585.4 L843.4,587.4 L845.3,589.5 L847.1,591.5 L849.0,593.6 L850.9,595.6 L852.7,597.6
		L854.6,599.5 L856.5,601.5 L858.3,603.4 L860.2,605.3 L862.1,607.2 L864.0,609.0 L865.8,610.8 L867.7,612.6
		L869.6,614.3 L871.4,616.0 L873.3,617.7 L875.2,619.2 L877.1,620.8 L878.9,622.2 L880.8,623.5 L882.7,624.8
		L884.5,626.0 L886.4,627.0 L888.3,628.0 L890.1,628.9 L892.0,629.6 L893.9,630.3 L895.8,630.8 L897.6,631.2
		L899.5,631.6 L901.4,631.9 L903.2,632.0 L905.1,632.2 L907.0,632.2 L908.8,632.3 L910.7,632.3 L912.6,632.3
		L914.5,632.2 L916.3,632.2 L918.2,632.2 L920.1,632.2 L921.9,632.2 L923.8,632.2 L925.7,632.2 L927.6,632.3
		L929.4,632.4 L931.3,632.5 L933.2,632.5 L935.0,632.6 L936.9,632.7 L938.8,632.8 L940.6,632.9 L942.5,632.9
		L944.4,633.0 L946.3,633.0 L948.1,633.0 L950.0,633.1 L951.9,633.1 L953.7,633.1 L955.6,633.1 L957.5,633.1
		L959.4,633.1 L961.2,633.1 L963.1,633.2 L965.0,633.2 L966.8,633.3 L968.7,633.4 L970.6,633.6 L972.4,633.7
		L974.3,633.9 L976.2,634.1 L978.1,634.3 L979.9,634.5 L981.8,634.7 L983.7,635.0 L985.5,635.2 L987.4,635.5
		L989.3,635.7 L991.2,636.0 L993.0,636.2 L994.9,636.5 L996.8,636.8 L998.6,637.0 L1000.5,637.3 L1002.4,637.6
		L1004.2,637.8 L1006.1,638.1 L1008.0,638.4 L1009.9,638.7 L1011.7,639.0 L1013.6,639.3  '/></g>
	</g>
	<g id="gnuplot_plot_2" ><title>Confidence interval</title>
<g fill="none" color="white" stroke="rgb( 31, 120, 180)" stroke-width="1.00" stroke-linecap="butt" stroke-linejoin="miter">
</g>
<g fill="none" color="black" stroke="currentColor" stroke-width="1.00" stroke-linecap="butt" stroke-linejoin="miter">
	<g transform="translate(1089.0,85.0)" stroke="none" fill="black" font-family="Helvetica" font-size="12.00"  text-anchor="start">
		<text><tspan font-family="Helvetica" >Confidence interval</tspan></text>
	</g>
</g>
<g fill="none" color="black" stroke="currentColor" stroke-width="1.00" stroke-linecap="butt" stroke-linejoin="miter">
	<g stroke='none' shape-rendering='crispEdges'>
		<polygon fill = 'rgb( 31, 120, 180)' fill-opacity = '0.250000' points = '1038.5,85.6 1080.7,85.6 1080.7,76.6 1038.5,76.6 '/>
		<polygon fill = 'rgb( 31, 120, 180)' fill-opacity = '0.250000' points = '166.2,548.8 166.2,662.4 168.1,662.4 168.1,545.9 '/>
		<polygon fill = 'rgb( 31, 120, 180)' fill-opacity = '0.250000' points = '168.1,545.9 168.1,662.4 170.0,662.4 170.0,542.8 '/>
		<polygon fill = 'rgb( 31, 120, 180)' fill-opacity = '0.250000' points = '170.0,542.8 170.0,662.4 171.9,662.4 171.9,539.7 '/>
		<polygon fill = 'rgb( 31, 120, 180)' fill-opacity = '0.250000' points = '171.9,539.7 171.9,662.4 173.7,662.4 173.7,536.3 '/>
		<polygon fill = 'rgb( 31, 120, 180)' fill-opacity = '0.250000' points = '173.7,536.3 173.7,662.4 175.6,662.4 175.6,532.8 '/>
		<polygon fill = 'rgb( 31, 120, 180)' fill-opacity = '0.250000' points = '175.6,532.8 175.6,662.4 177.5,662.4 177.5,529.0 '/>
		<polygon fill = 'rgb( 31, 120, 180)' fill-opacity = '0.250000' points = '177.5,529.0 177.5,662.4 179.3,662.4 179.3,525.1 '/>
		<polygon fill = 'rgb( 31, 120, 180)' fill-opacity = '0.250000' points = '179.3,525.1 179.3,662.4 181.2,662.4 181.2,521.0 '/>
		<polygon fill = 'rgb( 31, 120, 180)' fill-opacity = '0.250000' points = '181.2,521.0 181.2,662.4 183.1,662.4 183.1,516.8 '/>
		<polygon fill = 'rgb( 31, 120, 180)' fill-opacity = '0.250000' points = '183.1,516.8 183.1,662.4 185.0,662.4 185.0,512.5 '/>
		<polygon fill = 'rgb( 31, 120, 180)' fill-opacity = '0.250000' points = '185.0,512.5 185.0,662.4 186.8,662.4 186.8,508.1 '/>
		<polygon fill = 'rgb( 31, 120, 180)' fill-opacity = '0.250000' points = '186.8,508.1 186.8,662.4 188.7,662.4 188.7,503.6 '/>
		<polygon fill = 'rgb( 31, 120, 180)' fill-opacity = '0.250000' points = '188.7,503.6 188.7,662.4 190.6,662.4 190.6,499.2 '/>
		<polygon fill = 'rgb( 31, 120, 180)' fill-opacity = '0.250000' points = '190.6,499.2 190.6,662.4 192.4,662.4 192.4,494.9 '/>
		<polygon fill = 'rgb( 31, 120, 180)' fill-opacity = '0.250000' points = '192.4,494.9 192.4,662.4 194.3,662.4 194.3,490.8 '/>
		<polygon fill = 'rgb( 31, 120, 180)' fill-opacity = '0.250000' points = '194.3,490.8 194.3,662.4 196.2,662.4 196.2,486.9 '/>
		<polygon fill = 'rgb( 31, 120, 180)' fill-opacity = '0.250000' points = '196.2,486.9 196.2,662.4 198.0,662.4 198.0,483.2 '/>
		<polygon fill = 'rgb( 31, 120, 180)' fill-opacity = '0.250000' points = '198.0,483.2 198.0,662.4 199.9,662.4 199.9,479.8 '/>
		<polygon fill = 'rgb( 31, 120, 180)' fill-opacity = '0.250000' points = '199.9,479.8 199.9,662.4 201.8,662.4 201.8,476.8 '/>
		<polygon fill = 'rgb( 31, 120, 180)' fill-opacity = '0.250000' points = '201.8,476.8 201.8,662.4 203.7,662.4 203.7,474.3 '/>
		<polygon fill = 'rgb( 31, 120, 180)' fill-opacity = '0.250000' points = '203.7,474.3 203.7,662.4 205.5,662.4 205.5,472.2 '/>
		<polygon fill = 'rgb( 31, 120, 180)' fill-opacity = '0.250000' points = '205.5,472.2 205.5,662.4 207.4,662.4 207.4,470.5 '/>
		<polygon fill = 'rgb( 31, 120, 180)' fill-opacity = '0.250000' points = '207.4,470.5 207.4,662.4 209.3,662.4 209.3,469.3 '/>
		<polygon fill = 'rgb( 31, 120, 180)' fill-opacity = '0.250000' points = '209.3,469.3 209.3,662.4 211.1,662.4 211.1,468.6 '/>
		<polygon fill = 'rgb( 31, 120, 180)' fill-opacity = '0.250000' points = '211.1,468.6 211.1,662.4 213.0,662.4 213.0,468.3 '/>
		<polygon fill = 'rgb( 31, 120, 180)' fill-opacity = '0.250000' points = '213.0,468.3 213.0,662.4 214.9,662.4 214.9,468.5 '/>
		<polygon fill = 'rgb( 31, 120, 180)' fill-opacity = '0.250000' points = '214.9,468.5 214.9,662.4 216.7,662.4 216.7,469.0 '/>
		<polygon fill = 'rgb( 31, 120, 180)' fill-opacity = '0.250000' points = '216.7,469.0 216.7,662.4 218.6,662.4 218.6,469.8 '/>
		<polygon fill = 'rgb( 31, 120, 180)' fill-opacity = '0.250000' points = '218.6,469.8 218.6,662.4 220.5,662.4 220.5,471.0 '/>
		<polygon fill = 'rgb( 31, 120, 180)' fill-opacity = '0.250000' points = '220.5,471.0 220.5,662.4 222.4,662.4 222.4,472.3 '/>
		<polygon fill = 'rgb( 31, 120, 180)' fill-opacity = '0.250000' points = '222.4,472.3 222.4,662.4 224.2,662.4 224.2,473.7 '/>
		<polygon fill = 'rgb( 31, 120, 180)' fill-opacity = '0.250000' points = '224.2,473.7 224.2,662.4 226.1,662.4 226.1,475.2 '/>
		<polygon fill = 'rgb( 31, 120, 180)' fill-opacity = '0.250000' points = '226.1,475.2 226.1,662.4 228.0,662.4 228.0,476.7 '/>
		<polygon fill = 'rgb( 31, 120, 180)' fill-opacity = '0.250000' points = '228.0,476.7 228.0,662.4 229.8,662.4 229.8,477.9 '/>
		<polygon fill = 'rgb( 31, 120, 180)' fill-opacity = '0.250000' points = '229.8,477.9 229.8,662.4 231.7,662.4 231.7,479.0 '/>
		<polygon fill = 'rgb( 31, 120, 180)' fill-opacity = '0.250000' points = '231.7,479.0 231.7,662.4 233.6,662.4 233.6,479.8 '/>
		<polygon fill = 'rgb( 31, 120, 180)' fill-opacity = '0.250000' points = '233.6,479.8 233.6,662.4 235.5,662.4 235.5,480.2 '/>
		<polygon fill = 'rgb( 31, 120, 180)' fill-opacity = '0.250000' points = '235.5,480.2 235.5,662.4 237.3,662.4 237.3,480.2 '/>
		<polygon fill = 'rgb( 31, 120, 180)' fill-opacity = '0.250000' points = '237.3,480.2 237.3,662.4 239.2,662.4 239.2,479.6 '/>
		<polygon fill = 'rgb( 31, 120, 180)' fill-opacity = '0.250000' points = '239.2,479.6 239.2,662.4 241.1,662.4 241.1,478.5 '/>
		<polygon fill = 'rgb( 31, 120, 180)' fill-opacity = '0.250000' points = '241.1,478.5 241.1,662.4 242.9,662.4 242.9,476.8 '/>
		<polygon fill = 'rgb( 31, 120, 180)' fill-opacity = '0.250000' points = '242.9,476.8 242.9,662.4 244.8,662.4 244.8,474.5 '/>
		<polygon fill = 'rgb( 31, 120, 180)' fill-opacity = '0.250000' points = '244.8,474.5 244.8,662.4 246.7,662.4 246.7,471.6 '/>
		<polygon fill = 'rgb( 31, 120, 180)' fill-opacity = '0.250000' points = '246.7,471.6 246.7,662.4 248.5,662.4 248.5,468.1 '/>
		<polygon fill = 'rgb( 31, 120, 180)' fill-opacity = '0.250000' points = '248.5,468.1 248.5,662.4 250.4,662.4 250.4,464.0 '/>
		<polygon fill = 'rgb( 31, 120, 180)' fill-opacity = '0.250000' points = '250.4,464.0 250.4,662.4 252.3,662.4 252.3,459.3 '/>
		<polygon fill = 'rgb( 31, 120, 180)' fill-opacity = '0.250000' points = '252.3,459.3 252.3,662.4 254.2,662.4 254.2,454.1 '/>
		<polygon fill = 'rgb( 31, 120, 180)' fill-opacity = '0.250000' points = '254.2,454.1 254.2,662.4 256.0,662.4 256.0,448.4 '/>
		<polygon fill = 'rgb( 31, 120, 180)' fill-opacity = '0.250000' points = '256.0,448.4 256.0,662.4 257.9,662.4 257.9,442.3 '/>
		<polygon fill = 'rgb( 31, 120, 180)' fill-opacity = '0.250000' points = '257.9,442.3 257.9,662.4 259.8,662.4 259.8,435.8 '/>
		<polygon fill = 'rgb( 31, 120, 180)' fill-opacity = '0.250000' points = '259.8,435.8 259.8,662.4 261.6,662.4 261.6,429.1 '/>
		<polygon fill = 'rgb( 31, 120, 180)' fill-opacity = '0.250000' points = '261.6,429.1 261.6,662.4 263.5,662.4 263.5,422.2 '/>
		<polygon fill = 'rgb( 31, 120, 180)' fill-opacity = '0.250000' points = '263.5,422.2 263.5,662.4 265.4,662.4 265.4,415.1 '/>
		<polygon fill = 'rgb( 31, 120, 180)' fill-opacity = '0.250000' points = '265.4,415.1 265.4,662.4 267.3,662.4 267.3,408.0 '/>
		<polygon fill = 'rgb( 31, 120, 180)' fill-opacity = '0.250000' points = '267.3,408.0 267.3,662.4 269.1,662.4 269.1,400.8 '/>
		<polygon fill = 'rgb( 31, 120, 180)' fill-opacity = '0.250000' points = '269.1,400.8 269.1,662.4 271.0,662.4 271.0,393.7 '/>
		<polygon fill = 'rgb( 31, 120, 180)' fill-opacity = '0.250000' points = '271.0,393.7 271.0,662.4 272.9,662.4 272.9,386.7 '/>
		<polygon fill = 'rgb( 31, 120, 180)' fill-opacity = '0.250000' points = '272.9,386.7 272.9,662.4 274.7,662.4 274.7,379.8 '/>
		<polygon fill = 'rgb( 31, 120, 180)' fill-opacity = '0.250000' points = '274.7,379.8 274.7,662.4 276.6,662.4 276.6,373.1 '/>
		<polygon fill = 'rgb( 31, 120, 180)' fill-opacity = '0.250000' points = '276.6,373.1 276.6,662.4 278.5,662.4 278.5,366.5 '/>
		<polygon fill = 'rgb( 31, 120, 180)' fill-opacity = '0.250000' points = '278.5,366.5 278.5,662.4 280.3,662.4 280.3,360.2 '/>
		<polygon fill = 'rgb( 31, 120, 180)' fill-opacity = '0.250000' points = '280.3,360.2 280.3,662.4 282.2,662.4 282.2,354.1 '/>
		<polygon fill = 'rgb( 31, 120, 180)' fill-opacity = '0.250000' points = '282.2,354.1 282.2,662.4 284.1,662.4 284.1,348.3 '/>
		<polygon fill = 'rgb( 31, 120, 180)' fill-opacity = '0.250000' points = '284.1,348.3 284.1,662.4 286.0,662.4 286.0,342.8 '/>
		<polygon fill = 'rgb( 31, 120, 180)' fill-opacity = '0.250000' points = '286.0,342.8 286.0,662.4 287.8,662.4 287.8,337.6 '/>
		<polygon fill = 'rgb( 31, 120, 180)' fill-opacity = '0.250000' points = '287.8,337.6 287.8,662.4 289.7,662.4 289.7,332.8 '/>
		<polygon fill = 'rgb( 31, 120, 180)' fill-opacity = '0.250000' points = '289.7,332.8 289.7,662.4 291.6,662.4 291.6,328.3 '/>
		<polygon fill = 'rgb( 31, 120, 180)' fill-opacity = '0.250000' points = '291.6,328.3 291.6,662.4 293.4,662.4 293.4,324.1 '/>
		<polygon fill = 'rgb( 31, 120, 180)' fill-opacity = '0.250000' points = '293.4,324.1 293.4,662.4 295.3,662.4 295.3,320.5 '/>
		<polygon fill = 'rgb( 31, 120, 180)' fill-opacity = '0.250000' points = '295.3,320.5 295.3,662.4 297.2,662.4 297.2,317.2 '/>
		<polygon fill = 'rgb( 31, 120, 180)' fill-opacity = '0.250000' points = '297.2,317.2 297.2,662.4 299.1,662.4 299.1,314.4 '/>
		<polygon fill = 'rgb( 31, 120, 180)' fill-opacity = '0.250000' points = '299.1,314.4 299.1,662.4 300.9,662.4 300.9,312.1 '/>
		<polygon fill = 'rgb( 31, 120, 180)' fill-opacity = '0.250000' points = '300.9,312.1 300.9,662.4 302.8,662.4 302.8,310.3 '/>
		<polygon fill = 'rgb( 31, 120, 180)' fill-opacity = '0.250000' points = '302.8,310.3 302.8,662.4 304.7,662.4 304.7,309.0 '/>
		<polygon fill = 'rgb( 31, 120, 180)' fill-opacity = '0.250000' points = '304.7,309.0 304.7,662.4 306.5,662.4 306.5,308.2 '/>
		<polygon fill = 'rgb( 31, 120, 180)' fill-opacity = '0.250000' points = '306.5,308.2 306.5,662.4 308.4,662.4 308.4,307.8 '/>
		<polygon fill = 'rgb( 31, 120, 180)' fill-opacity = '0.250000' points = '308.4,307.8 308.4,662.4 310.3,662.4 310.3,308.0 '/>
		<polygon fill = 'rgb( 31, 120, 180)' fill-opacity = '0.250000' points = '310.3,308.0 310.3,662.4 312.1,662.4 312.1,308.6 '/>
		<polygon fill = 'rgb( 31, 120, 180)' fill-opacity = '0.250000' points = '312.1,308.6 312.1,662.4 314.0,662.4 314.0,309.6 '/>
		<polygon fill = 'rgb( 31, 120, 180)' fill-opacity = '0.250000' points = '314.0,309.6 314.0,662.4 315.9,662.4 315.9,310.9 '/>
		<polygon fill = 'rgb( 31, 120, 180)' fill-opacity = '0.250000' points = '315.9,310.9 315.9,662.4 317.8,662.4 317.8,312.6 '/>
		<polygon fill = 'rgb( 31, 120, 180)' fill-opacity = '0.250000' points = '317.8,312.6 317.8,662.4 319.6,662.4 319.6,314.5 '/>
		<polygon fill = 'rgb( 31, 120, 180)' fill-opacity = '0.250000' points = '319.6,314.5 319.6,662.4 321.5,662.4 321.5,316.5 '/>
		<polygon fill = 'rgb( 31, 120, 180)' fill-opacity = '0.250000' points = '321.5,316.5 321.5,662.4 323.4,662.4 323.4,318.6 '/>
		<polygon fill = 'rgb( 31, 120, 180)' fill-opacity = '0.250000' points = '323.4,318.6 323.4,662.4 325.2,662.4 325.2,320.6 '/>
		<polygon fill = 'rgb( 31, 120, 180)' fill-opacity = '0.250000' points = '325.2,320.6 325.2,662.4 327.1,662.4 327.1,322.5 '/>
		<polygon fill = 'rgb( 31, 120, 180)' fill-opacity = '0.250000' points = '327.1,322.5 327.1,662.4 329.0,662.4 329.0,324.2 '/>
		<polygon fill = 'rgb( 31, 120, 180)' fill-opacity = '0.250000' points = '329.0,324.2 329.0,662.4 330.9,662.4 330.9,325.6 '/>
		<polygon fill = 'rgb( 31, 120, 180)' fill-opacity = '0.250000' points = '330.9,325.6 330.9,662.4 332.7,662.4 332.7,326.5 '/>
		<polygon fill = 'rgb( 31, 120, 180)' fill-opacity = '0.250000' points = '332.7,326.5 332.7,662.4 334.6,662.4 334.6,326.8 '/>
		<polygon fill = 'rgb( 31, 120, 180)' fill-opacity = '0.250000' points = '334.6,326.8 334.6,662.4 336.5,662.4 336.5,326.6 '/>
		<polygon fill = 'rgb( 31, 120, 180)' fill-opacity = '0.250000' points = '336.5,326.6 336.5,662.4 338.3,662.4 338.3,325.5 '/>
		<polygon fill = 'rgb( 31, 120, 180)' fill-opacity = '0.250000' points = '338.3,325.5 338.3,662.4 340.2,662.4 340.2,323.7 '/>
		<polygon fill = 'rgb( 31, 120, 180)' fill-opacity = '0.250000' points = '340.2,323.7 340.2,662.4 342.1,662.4 342.1,320.9 '/>
		<polygon fill = 'rgb( 31, 120, 180)' fill-opacity = '0.250000' points = '342.1,320.9 342.1,662.4 343.9,662.4 343.9,317.1 '/>
		<polygon fill = 'rgb( 31, 120, 180)' fill-opacity = '0.250000' points = '343.9,317.1 343.9,662.4 345.8,662.4 345.8,312.2 '/>
		<polygon fill = 'rgb( 31, 120, 180)' fill-opacity = '0.250000' points = '345.8,312.2 345.8,662.4 347.7,662.4 347.7,306.3 '/>
		<polygon fill = 'rgb( 31, 120, 180)' fill-opacity = '0.250000' points = '347.7,306.3 347.7,662.4 349.6,662.4 349.6,299.2 '/>
		<polygon fill = 'rgb( 31, 120, 180)' fill-opacity = '0.250000' points = '349.6,299.2 349.6,662.4 351.4,662.4 351.4,291.0 '/>
		<polygon fill = 'rgb( 31, 120, 180)' fill-opacity = '0.250000' points = '351.4,291.0 351.4,662.4 353.3,662.4 353.3,281.8 '/>
		<polygon fill = 'rgb( 31, 120, 180)' fill-opacity = '0.250000' points = '353.3,281.8 353.3,662.4 355.2,662.4 355.2,271.5 '/>
		<polygon fill = 'rgb( 31, 120, 180)' fill-opacity = '0.250000' points = '355.2,271.5 355.2,662.4 357.0,662.4 357.0,260.3 '/>
		<polygon fill = 'rgb( 31, 120, 180)' fill-opacity = '0.250000' points = '357.0,260.3 357.0,662.4 358.9,662.4 358.9,248.2 '/>
		<polygon fill = 'rgb( 31, 120, 180)' fill-opacity = '0.250000' points = '358.9,248.2 358.9,662.4 360.8,662.4 360.8,235.5 '/>
		<polygon fill = 'rgb( 31, 120, 180)' fill-opacity = '0.250000' points = '360.8,235.5 360.8,662.4 362.7,662.4 362.7,222.3 '/>
		<polygon fill = 'rgb( 31, 120, 180)' fill-opacity = '0.250000' points = '362.7,222.3 362.7,662.4 364.5,662.4 364.5,208.7 '/>
		<polygon fill = 'rgb( 31, 120, 180)' fill-opacity = '0.250000' points = '364.5,208.7 364.5,662.4 366.4,662.4 366.4,195.0 '/>
		<polygon fill = 'rgb( 31, 120, 180)' fill-opacity = '0.250000' points = '366.4,195.0 366.4,662.4 368.3,662.4 368.3,181.3 '/>
		<polygon fill = 'rgb( 31, 120, 180)' fill-opacity = '0.250000' points = '368.3,181.3 368.3,662.4 370.1,662.4 370.1,168.0 '/>
		<polygon fill = 'rgb( 31, 120, 180)' fill-opacity = '0.250000' points = '370.1,168.0 370.1,662.4 372.0,662.4 372.0,155.1 '/>
		<polygon fill = 'rgb( 31, 120, 180)' fill-opacity = '0.250000' points = '372.0,155.1 372.0,662.4 373.9,662.4 373.9,143.0 '/>
		<polygon fill = 'rgb( 31, 120, 180)' fill-opacity = '0.250000' points = '373.9,143.0 373.9,662.4 375.7,662.4 375.7,131.8 '/>
		<polygon fill = 'rgb( 31, 120, 180)' fill-opacity = '0.250000' points = '375.7,131.8 375.7,662.4 377.6,662.4 377.6,121.7 '/>
		<polygon fill = 'rgb( 31, 120, 180)' fill-opacity = '0.250000' points = '377.6,121.7 377.6,662.4 379.5,662.4 379.5,112.9 '/>
		<polygon fill = 'rgb( 31, 120, 180)' fill-opacity = '0.250000' points = '379.5,112.9 379.5,662.4 381.4,662.4 381.4,105.4 '/>
		<polygon fill = 'rgb( 31, 120, 180)' fill-opacity = '0.250000' points = '381.4,105.4 381.4,662.4 383.2,662.4 383.2,99.4 '/>
		<polygon fill = 'rgb( 31, 120, 180)' fill-opacity = '0.250000' points = '383.2,99.4 383.2,662.4 385.1,662.4 385.1,94.9 '/>
		<polygon fill = 'rgb( 31, 120, 180)' fill-opacity = '0.250000' points = '385.1,94.9 385.1,662.4 387.0,662.4 387.0,91.9 '/>
		<polygon fill = 'rgb( 31, 120, 180)' fill-opacity = '0.250000' points = '387.0,91.9 387.0,662.4 388.8,662.4 388.8,90.4 '/>
		<polygon fill = 'rgb( 31, 120, 180)' fill-opacity = '0.250000' points = '388.8,90.4 388.8,662.4 390.7,662.4 390.7,90.3 '/>
		<polygon fill = 'rgb( 31, 120, 180)' fill-opacity = '0.250000' points = '390.7,90.3 390.7,662.4 392.6,662.4 392.6,91.6 '/>
		<polygon fill = 'rgb( 31, 120, 180)' fill-opacity = '0.250000' points = '392.6,91.6 392.6,662.4 394.5,662.4 394.5,94.1 '/>
		<polygon fill = 'rgb( 31, 120, 180)' fill-opacity = '0.250000' points = '394.5,94.1 394.5,662.4 396.3,662.4 396.3,97.7 '/>
		<polygon fill = 'rgb( 31, 120, 180)' fill-opacity = '0.250000' points = '396.3,97.7 396.3,662.4 398.2,662.4 398.2,102.1 '/>
		<polygon fill = 'rgb( 31, 120, 180)' fill-opacity = '0.250000' points = '398.2,102.1 398.2,662.4 400.1,662.4 400.1,107.2 '/>
		<polygon fill = 'rgb( 31, 120, 180)' fill-opacity = '0.250000' points = '400.1,107.2 400.1,662.4 401.9,662.4 401.9,112.9 '/>
		<polygon fill = 'rgb( 31, 120, 180)' fill-opacity = '0.250000' points = '401.9,112.9 401.9,662.4 403.8,662.4 403.8,118.8 '/>
		<polygon fill = 'rgb( 31, 120, 180)' fill-opacity = '0.250000' points = '403.8,118.8 403.8,662.4 405.7,662.4 405.7,124.9 '/>
		<polygon fill = 'rgb( 31, 120, 180)' fill-opacity = '0.250000' points = '405.7,124.9 405.7,662.4 407.5,662.4 407.5,130.8 '/>
		<polygon fill = 'rgb( 31, 120, 180)' fill-opacity = '0.250000' points = '407.5,130.8 407.5,662.4 409.4,662.4 409.4,136.5 '/>
		<polygon fill = 'rgb( 31, 120, 180)' fill-opacity = '0.250000' points = '409.4,136.5 409.4,662.4 411.3,662.4 411.3,141.7 '/>
		<polygon fill = 'rgb( 31, 120, 180)' fill-opacity = '0.250000' points = '411.3,141.7 411.3,662.4 413.2,662.4 413.2,146.3 '/>
		<polygon fill = 'rgb( 31, 120, 180)' fill-opacity = '0.250000' points = '413.2,146.3 413.2,662.4 415.0,662.4 415.0,150.2 '/>
		<polygon fill = 'rgb( 31, 120, 180)' fill-opacity = '0.250000' points = '415.0,150.2 415.0,662.4 416.9,662.4 416.9,153.3 '/>
		<polygon fill = 'rgb( 31, 120, 180)' fill-opacity = '0.250000' points = '416.9,153.3 416.9,662.4 418.8,662.4 418.8,155.5 '/>
		<polygon fill = 'rgb( 31, 120, 180)' fill-opacity = '0.250000' points = '418.8,155.5 418.8,662.4 420.6,662.4 420.6,156.8 '/>
		<polygon fill = 'rgb( 31, 120, 180)' fill-opacity = '0.250000' points = '420.6,156.8 420.6,662.4 422.5,662.4 422.5,157.1 '/>
		<polygon fill = 'rgb( 31, 120, 180)' fill-opacity = '0.250000' points = '422.5,157.1 422.5,662.4 424.4,662.4 424.4,156.4 '/>
		<polygon fill = 'rgb( 31, 120, 180)' fill-opacity = '0.250000' points = '424.4,156.4 424.4,662.4 426.3,662.4 426.3,154.8 '/>
		<polygon fill = 'rgb( 31, 120, 180)' fill-opacity = '0.250000' points = '426.3,154.8 426.3,662.4 428.1,662.4 428.1,152.3 '/>
		<polygon fill = 'rgb( 31, 120, 180)' fill-opacity = '0.250000' points = '428.1,152.3 428.1,662.4 430.0,662.4 430.0,149.0 '/>
		<polygon fill = 'rgb( 31, 120, 180)' fill-opacity = '0.250000' points = '430.0,149.0 430.0,662.4 431.9,662.4 431.9,145.0 '/>
		<polygon fill = 'rgb( 31, 120, 180)' fill-opacity = '0.250000' points = '431.9,145.0 431.9,662.4 433.7,662.4 433.7,140.3 '/>
		<polygon fill = 'rgb( 31, 120, 180)' fill-opacity = '0.250000' points = '433.7,140.3 433.7,662.4 435.6,662.4 435.6,135.1 '/>
		<polygon fill = 'rgb( 31, 120, 180)' fill-opacity = '0.250000' points = '435.6,135.1 435.6,662.4 437.5,662.4 437.5,129.7 '/>
		<polygon fill = 'rgb( 31, 120, 180)' fill-opacity = '0.250000' points = '437.5,129.7 437.5,662.4 439.3,662.4 439.3,124.0 '/>
		<polygon fill = 'rgb( 31, 120, 180)' fill-opacity = '0.250000' points = '439.3,124.0 439.3,662.4 441.2,662.4 441.2,118.4 '/>
		<polygon fill = 'rgb( 31, 120, 180)' fill-opacity = '0.250000' points = '441.2,118.4 441.2,662.4 443.1,662.4 443.1,112.9 '/>
		<polygon fill = 'rgb( 31, 120, 180)' fill-opacity = '0.250000' points = '443.1,112.9 443.1,662.4 445.0,662.4 445.0,107.9 '/>
		<polygon fill = 'rgb( 31, 120, 180)' fill-opacity = '0.250000' points = '445.0,107.9 445.0,662.4 446.8,662.4 446.8,103.4 '/>
		<polygon fill = 'rgb( 31, 120, 180)' fill-opacity = '0.250000' points = '446.8,103.4 446.8,662.4 448.7,662.4 448.7,99.6 '/>
		<polygon fill = 'rgb( 31, 120, 180)' fill-opacity = '0.250000' points = '448.7,99.6 448.7,662.4 450.6,662.4 450.6,96.8 '/>
		<polygon fill = 'rgb( 31, 120, 180)' fill-opacity = '0.250000' points = '450.6,96.8 450.6,662.4 452.4,662.4 452.4,95.1 '/>
		<polygon fill = 'rgb( 31, 120, 180)' fill-opacity = '0.250000' points = '452.4,95.1 452.4,662.4 454.3,662.4 454.3,94.6 '/>
		<polygon fill = 'rgb( 31, 120, 180)' fill-opacity = '0.250000' points = '454.3,94.6 454.3,662.4 456.2,662.4 456.2,95.4 '/>
		<polygon fill = 'rgb( 31, 120, 180)' fill-opacity = '0.250000' points = '456.2,95.4 456.2,662.4 458.0,662.4 458.0,97.6 '/>
		<polygon fill = 'rgb( 31, 120, 180)' fill-opacity = '0.250000' points = '458.0,97.6 458.0,662.4 459.9,662.4 459.9,101.3 '/>
		<polygon fill = 'rgb( 31, 120, 180)' fill-opacity = '0.250000' points = '459.9,101.3 459.9,662.4 461.8,662.4 461.8,106.5 '/>
		<polygon fill = 'rgb( 31, 120, 180)' fill-opacity = '0.250000' points = '461.8,106.5 461.8,662.4 463.7,662.4 463.7,113.1 '/>
		<polygon fill = 'rgb( 31, 120, 180)' fill-opacity = '0.250000' points = '463.7,113.1 463.7,662.4 465.5,662.4 465.5,121.2 '/>
		<polygon fill = 'rgb( 31, 120, 180)' fill-opacity = '0.250000' points = '465.5,121.2 465.5,662.4 467.4,662.4 467.4,130.6 '/>
		<polygon fill = 'rgb( 31, 120, 180)' fill-opacity = '0.250000' points = '467.4,130.6 467.4,662.4 469.3,662.4 469.3,141.2 '/>
		<polygon fill = 'rgb( 31, 120, 180)' fill-opacity = '0.250000' points = '469.3,141.2 469.3,662.4 471.1,662.4 471.1,152.9 '/>
		<polygon fill = 'rgb( 31, 120, 180)' fill-opacity = '0.250000' points = '471.1,152.9 471.1,662.4 473.0,662.4 473.0,165.6 '/>
		<polygon fill = 'rgb( 31, 120, 180)' fill-opacity = '0.250000' points = '473.0,165.6 473.0,662.4 474.9,662.4 474.9,178.9 '/>
		<polygon fill = 'rgb( 31, 120, 180)' fill-opacity = '0.250000' points = '474.9,178.9 474.9,662.4 476.8,662.4 476.8,192.8 '/>
		<polygon fill = 'rgb( 31, 120, 180)' fill-opacity = '0.250000' points = '476.8,192.8 476.8,662.4 478.6,662.4 478.6,207.0 '/>
		<polygon fill = 'rgb( 31, 120, 180)' fill-opacity = '0.250000' points = '478.6,207.0 478.6,662.4 480.5,662.4 480.5,221.3 '/>
		<polygon fill = 'rgb( 31, 120, 180)' fill-opacity = '0.250000' points = '480.5,221.3 480.5,662.4 482.4,662.4 482.4,235.5 '/>
		<polygon fill = 'rgb( 31, 120, 180)' fill-opacity = '0.250000' points = '482.4,235.5 482.4,662.4 484.2,662.4 484.2,249.3 '/>
		<polygon fill = 'rgb( 31, 120, 180)' fill-opacity = '0.250000' points = '484.2,249.3 484.2,662.4 486.1,662.4 486.1,262.7 '/>
		<polygon fill = 'rgb( 31, 120, 180)' fill-opacity = '0.250000' points = '486.1,262.7 486.1,662.4 488.0,662.4 488.0,275.3 '/>
		<polygon fill = 'rgb( 31, 120, 180)' fill-opacity = '0.250000' points = '488.0,275.3 488.0,662.4 489.8,662.4 489.8,287.0 '/>
		<polygon fill = 'rgb( 31, 120, 180)' fill-opacity = '0.250000' points = '489.8,287.0 489.8,662.4 491.7,662.4 491.7,297.7 '/>
		<polygon fill = 'rgb( 31, 120, 180)' fill-opacity = '0.250000' points = '491.7,297.7 491.7,662.4 493.6,662.4 493.6,307.1 '/>
		<polygon fill = 'rgb( 31, 120, 180)' fill-opacity = '0.250000' points = '493.6,307.1 493.6,662.4 495.5,662.4 495.5,315.2 '/>
		<polygon fill = 'rgb( 31, 120, 180)' fill-opacity = '0.250000' points = '495.5,315.2 495.5,662.4 497.3,662.4 497.3,321.9 '/>
		<polygon fill = 'rgb( 31, 120, 180)' fill-opacity = '0.250000' points = '497.3,321.9 497.3,662.4 499.2,662.4 499.2,327.1 '/>
		<polygon fill = 'rgb( 31, 120, 180)' fill-opacity = '0.250000' points = '499.2,327.1 499.2,662.4 501.1,662.4 501.1,330.8 '/>
		<polygon fill = 'rgb( 31, 120, 180)' fill-opacity = '0.250000' points = '501.1,330.8 501.1,662.4 502.9,662.4 502.9,332.8 '/>
		<polygon fill = 'rgb( 31, 120, 180)' fill-opacity = '0.250000' points = '502.9,332.8 502.9,662.4 504.8,662.4 504.8,333.3 '/>
		<polygon fill = 'rgb( 31, 120, 180)' fill-opacity = '0.250000' points = '504.8,333.3 504.8,662.4 506.7,662.4 506.7,332.3 '/>
		<polygon fill = 'rgb( 31, 120, 180)' fill-opacity = '0.250000' points = '506.7,332.3 506.7,662.4 508.6,662.4 508.6,329.8 '/>
		<polygon fill = 'rgb( 31, 120, 180)' fill-opacity = '0.250000' points = '508.6,329.8 508.6,662.4 510.4,662.4 510.4,325.9 '/>
		<polygon fill = 'rgb( 31, 120, 180)' fill-opacity = '0.250000' points = '510.4,325.9 510.4,662.4 512.3,662.4 512.3,320.7 '/>
		<polygon fill = 'rgb( 31, 120, 180)' fill-opacity = '0.250000' points = '512.3,320.7 512.3,662.4 514.2,662.4 514.2,314.4 '/>
		<polygon fill = 'rgb( 31, 120, 180)' fill-opacity = '0.250000' points = '514.2,314.4 514.2,662.4 516.0,662.4 516.0,307.1 '/>
		<polygon fill = 'rgb( 31, 120, 180)' fill-opacity = '0.250000' points = '516.0,307.1 516.0,662.4 517.9,662.4 517.9,299.1 '/>
		<polygon fill = 'rgb( 31, 120, 180)' fill-opacity = '0.250000' points = '517.9,299.1 517.9,662.4 519.8,662.4 519.8,290.4 '/>
		<polygon fill = 'rgb( 31, 120, 180)' fill-opacity = '0.250000' points = '519.8,290.4 519.8,662.4 521.6,662.4 521.6,281.3 '/>
		<polygon fill = 'rgb( 31, 120, 180)' fill-opacity = '0.250000' points = '521.6,281.3 521.6,662.4 523.5,662.4 523.5,272.1 '/>
		<polygon fill = 'rgb( 31, 120, 180)' fill-opacity = '0.250000' points = '523.5,272.1 523.5,662.4 525.4,662.4 525.4,263.0 '/>
		<polygon fill = 'rgb( 31, 120, 180)' fill-opacity = '0.250000' points = '525.4,263.0 525.4,662.4 527.3,662.4 527.3,254.2 '/>
		<polygon fill = 'rgb( 31, 120, 180)' fill-opacity = '0.250000' points = '527.3,254.2 527.3,662.4 529.1,662.4 529.1,245.9 '/>
		<polygon fill = 'rgb( 31, 120, 180)' fill-opacity = '0.250000' points = '529.1,245.9 529.1,662.4 531.0,662.4 531.0,238.3 '/>
		<polygon fill = 'rgb( 31, 120, 180)' fill-opacity = '0.250000' points = '531.0,238.3 531.0,662.4 532.9,662.4 532.9,231.7 '/>
		<polygon fill = 'rgb( 31, 120, 180)' fill-opacity = '0.250000' points = '532.9,231.7 532.9,662.4 534.7,662.4 534.7,226.1 '/>
		<polygon fill = 'rgb( 31, 120, 180)' fill-opacity = '0.250000' points = '534.7,226.1 534.7,662.4 536.6,662.4 536.6,221.7 '/>
		<polygon fill = 'rgb( 31, 120, 180)' fill-opacity = '0.250000' points = '536.6,221.7 536.6,662.4 538.5,662.4 538.5,218.6 '/>
		<polygon fill = 'rgb( 31, 120, 180)' fill-opacity = '0.250000' points = '538.5,218.6 538.5,662.4 540.4,662.4 540.4,216.9 '/>
		<polygon fill = 'rgb( 31, 120, 180)' fill-opacity = '0.250000' points = '540.4,216.9 540.4,662.4 542.2,662.4 542.2,216.6 '/>
		<polygon fill = 'rgb( 31, 120, 180)' fill-opacity = '0.250000' points = '542.2,216.6 542.2,662.4 544.1,662.4 544.1,217.7 '/>
		<polygon fill = 'rgb( 31, 120, 180)' fill-opacity = '0.250000' points = '544.1,217.7 544.1,662.4 546.0,662.4 546.0,220.2 '/>
		<polygon fill = 'rgb( 31, 120, 180)' fill-opacity = '0.250000' points = '546.0,220.2 546.0,662.4 547.8,662.4 547.8,224.0 '/>
		<polygon fill = 'rgb( 31, 120, 180)' fill-opacity = '0.250000' points = '547.8,224.0 547.8,662.4 549.7,662.4 549.7,229.0 '/>
		<polygon fill = 'rgb( 31, 120, 180)' fill-opacity = '0.250000' points = '549.7,229.0 549.7,662.4 551.6,662.4 551.6,235.1 '/>
		<polygon fill = 'rgb( 31, 120, 180)' fill-opacity = '0.250000' points = '551.6,235.1 551.6,662.4 553.4,662.4 553.4,242.1 '/>
		<polygon fill = 'rgb( 31, 120, 180)' fill-opacity = '0.250000' points = '553.4,242.1 553.4,662.4 555.3,662.4 555.3,249.9 '/>
		<polygon fill = 'rgb( 31, 120, 180)' fill-opacity = '0.250000' points = '555.3,249.9 555.3,662.4 557.2,662.4 557.2,258.3 '/>
		<polygon fill = 'rgb( 31, 120, 180)' fill-opacity = '0.250000' points = '557.2,258.3 557.2,662.4 559.1,662.4 559.1,267.1 '/>
		<polygon fill = 'rgb( 31, 120, 180)' fill-opacity = '0.250000' points = '559.1,267.1 559.1,662.4 560.9,662.4 560.9,276.3 '/>
		<polygon fill = 'rgb( 31, 120, 180)' fill-opacity = '0.250000' points = '560.9,276.3 560.9,662.4 562.8,662.4 562.8,285.5 '/>
		<polygon fill = 'rgb( 31, 120, 180)' fill-opacity = '0.250000' points = '562.8,285.5 562.8,662.4 564.7,662.4 564.7,294.8 '/>
		<polygon fill = 'rgb( 31, 120, 180)' fill-opacity = '0.250000' points = '564.7,294.8 564.7,662.4 566.5,662.4 566.5,303.9 '/>
		<polygon fill = 'rgb( 31, 120, 180)' fill-opacity = '0.250000' points = '566.5,303.9 566.5,662.4 568.4,662.4 568.4,312.7 '/>
		<polygon fill = 'rgb( 31, 120, 180)' fill-opacity = '0.250000' points = '568.4,312.7 568.4,662.4 570.3,662.4 570.3,321.2 '/>
		<polygon fill = 'rgb( 31, 120, 180)' fill-opacity = '0.250000' points = '570.3,321.2 570.3,662.4 572.2,662.4 572.2,329.3 '/>
		<polygon fill = 'rgb( 31, 120, 180)' fill-opacity = '0.250000' points = '572.2,329.3 572.2,662.4 574.0,662.4 574.0,337.0 '/>
		<polygon fill = 'rgb( 31, 120, 180)' fill-opacity = '0.250000' points = '574.0,337.0 574.0,662.4 575.9,662.4 575.9,344.1 '/>
		<polygon fill = 'rgb( 31, 120, 180)' fill-opacity = '0.250000' points = '575.9,344.1 575.9,662.4 577.8,662.4 577.8,350.7 '/>
		<polygon fill = 'rgb( 31, 120, 180)' fill-opacity = '0.250000' points = '577.8,350.7 577.8,662.4 579.6,662.4 579.6,356.8 '/>
		<polygon fill = 'rgb( 31, 120, 180)' fill-opacity = '0.250000' points = '579.6,356.8 579.6,662.4 581.5,662.4 581.5,362.4 '/>
		<polygon fill = 'rgb( 31, 120, 180)' fill-opacity = '0.250000' points = '581.5,362.4 581.5,662.4 583.4,662.4 583.4,367.6 '/>
		<polygon fill = 'rgb( 31, 120, 180)' fill-opacity = '0.250000' points = '583.4,367.6 583.4,662.4 585.2,662.4 585.2,372.3 '/>
		<polygon fill = 'rgb( 31, 120, 180)' fill-opacity = '0.250000' points = '585.2,372.3 585.2,662.4 587.1,662.4 587.1,376.7 '/>
		<polygon fill = 'rgb( 31, 120, 180)' fill-opacity = '0.250000' points = '587.1,376.7 587.1,662.4 589.0,662.4 589.0,380.7 '/>
		<polygon fill = 'rgb( 31, 120, 180)' fill-opacity = '0.250000' points = '589.0,380.7 589.0,662.4 590.9,662.4 590.9,384.4 '/>
		<polygon fill = 'rgb( 31, 120, 180)' fill-opacity = '0.250000' points = '590.9,384.4 590.9,662.4 592.7,662.4 592.7,387.8 '/>
		<polygon fill = 'rgb( 31, 120, 180)' fill-opacity = '0.250000' points = '592.7,387.8 592.7,662.4 594.6,662.4 594.6,391.0 '/>
		<polygon fill = 'rgb( 31, 120, 180)' fill-opacity = '0.250000' points = '594.6,391.0 594.6,662.4 596.5,662.4 596.5,394.0 '/>
		<polygon fill = 'rgb( 31, 120, 180)' fill-opacity = '0.250000' points = '596.5,394.0 596.5,662.4 598.3,662.4 598.3,396.9 '/>
		<polygon fill = 'rgb( 31, 120, 180)' fill-opacity = '0.250000' points = '598.3,396.9 598.3,662.4 600.2,662.4 600.2,399.6 '/>
		<polygon fill = 'rgb( 31, 120, 180)' fill-opacity = '0.250000' points = '600.2,399.6 600.2,662.4 602.1,662.4 602.1,402.3 '/>
		<polygon fill = 'rgb( 31, 120, 180)' fill-opacity = '0.250000' points = '602.1,402.3 602.1,662.4 604.0,662.4 604.0,404.8 '/>
		<polygon fill = 'rgb( 31, 120, 180)' fill-opacity = '0.250000' points = '604.0,404.8 604.0,662.4 605.8,662.4 605.8,407.3 '/>
		<polygon fill = 'rgb( 31, 120, 180)' fill-opacity = '0.250000' points = '605.8,407.3 605.8,662.4 607.7,662.4 607.7,409.7 '/>
		<polygon fill = 'rgb( 31, 120, 180)' fill-opacity = '0.250000' points = '607.7,409.7 607.7,662.4 609.6,662.4 609.6,412.0 '/>
		<polygon fill = 'rgb( 31, 120, 180)' fill-opacity = '0.250000' points = '609.6,412.0 609.6,662.4 611.4,662.4 611.4,414.3 '/>
		<polygon fill = 'rgb( 31, 120, 180)' fill-opacity = '0.250000' points = '611.4,414.3 611.4,662.4 613.3,662.4 613.3,416.6 '/>
		<polygon fill = 'rgb( 31, 120, 180)' fill-opacity = '0.250000' points = '613.3,416.6 613.3,662.4 615.2,662.4 615.2,418.8 '/>
		<polygon fill = 'rgb( 31, 120, 180)' fill-opacity = '0.250000' points = '615.2,418.8 615.2,662.4 617.0,662.4 617.0,421.1 '/>
		<polygon fill = 'rgb( 31, 120, 180)' fill-opacity = '0.250000' points = '617.0,421.1 617.0,662.4 618.9,662.4 618.9,423.3 '/>
		<polygon fill = 'rgb( 31, 120, 180)' fill-opacity = '0.250000' points = '618.9,423.3 618.9,662.4 620.8,662.4 620.8,425.5 '/>
		<polygon fill = 'rgb( 31, 120, 180)' fill-opacity = '0.250000' points = '620.8,425.5 620.8,662.4 622.7,662.4 622.7,427.7 '/>
		<polygon fill = 'rgb( 31, 120, 180)' fill-opacity = '0.250000' points = '622.7,427.7 622.7,662.4 624.5,662.4 624.5,430.0 '/>
		<polygon fill = 'rgb( 31, 120, 180)' fill-opacity = '0.250000' points = '624.5,430.0 624.5,662.4 626.4,662.4 626.4,432.2 '/>
		<polygon fill = 'rgb( 31, 120, 180)' fill-opacity = '0.250000' points = '626.4,432.2 626.4,662.4 628.3,662.4 628.3,434.6 '/>
		<polygon fill = 'rgb( 31, 120, 180)' fill-opacity = '0.250000' points = '628.3,434.6 628.3,662.4 630.1,662.4 630.1,436.9 '/>
		<polygon fill = 'rgb( 31, 120, 180)' fill-opacity = '0.250000' points = '630.1,436.9 630.1,662.4 632.0,662.4 632.0,439.3 '/>
		<polygon fill = 'rgb( 31, 120, 180)' fill-opacity = '0.250000' points = '632.0,439.3 632.0,662.4 633.9,662.4 633.9,441.9 '/>
		<polygon fill = 'rgb( 31, 120, 180)' fill-opacity = '0.250000' points = '633.9,441.9 633.9,662.4 635.8,662.4 635.8,444.5 '/>
		<polygon fill = 'rgb( 31, 120, 180)' fill-opacity = '0.250000' points = '635.8,444.5 635.8,662.4 637.6,662.4 637.6,447.2 '/>
		<polygon fill = 'rgb( 31, 120, 180)' fill-opacity = '0.250000' points = '637.6,447.2 637.6,662.4 639.5,662.4 639.5,450.0 '/>
		<polygon fill = 'rgb( 31, 120, 180)' fill-opacity = '0.250000' points = '639.5,450.0 639.5,662.4 641.4,662.4 641.4,452.9 '/>
		<polygon fill = 'rgb( 31, 120, 180)' fill-opacity = '0.250000' points = '641.4,452.9 641.4,662.4 643.2,662.4 643.2,456.0 '/>
		<polygon fill = 'rgb( 31, 120, 180)' fill-opacity = '0.250000' points = '643.2,456.0 643.2,662.4 645.1,662.4 645.1,459.2 '/>
		<polygon fill = 'rgb( 31, 120, 180)' fill-opacity = '0.250000' points = '645.1,459.2 645.1,662.4 647.0,662.4 647.0,462.5 '/>
		<polygon fill = 'rgb( 31, 120, 180)' fill-opacity = '0.250000' points = '647.0,462.5 647.0,662.4 648.8,662.4 648.8,465.8 '/>
		<polygon fill = 'rgb( 31, 120, 180)' fill-opacity = '0.250000' points = '648.8,465.8 648.8,662.4 650.7,662.4 650.7,469.3 '/>
		<polygon fill = 'rgb( 31, 120, 180)' fill-opacity = '0.250000' points = '650.7,469.3 650.7,662.4 652.6,662.4 652.6,472.7 '/>
		<polygon fill = 'rgb( 31, 120, 180)' fill-opacity = '0.250000' points = '652.6,472.7 652.6,662.4 654.5,662.4 654.5,476.2 '/>
		<polygon fill = 'rgb( 31, 120, 180)' fill-opacity = '0.250000' points = '654.5,476.2 654.5,662.4 656.3,662.4 656.3,479.6 '/>
		<polygon fill = 'rgb( 31, 120, 180)' fill-opacity = '0.250000' points = '656.3,479.6 656.3,662.4 658.2,662.4 658.2,483.0 '/>
		<polygon fill = 'rgb( 31, 120, 180)' fill-opacity = '0.250000' points = '658.2,483.0 658.2,662.4 660.1,662.4 660.1,486.1 '/>
		<polygon fill = 'rgb( 31, 120, 180)' fill-opacity = '0.250000' points = '660.1,486.1 660.1,662.4 661.9,662.4 661.9,489.1 '/>
		<polygon fill = 'rgb( 31, 120, 180)' fill-opacity = '0.250000' points = '661.9,489.1 661.9,662.4 663.8,662.4 663.8,491.8 '/>
		<polygon fill = 'rgb( 31, 120, 180)' fill-opacity = '0.250000' points = '663.8,491.8 663.8,662.4 665.7,662.4 665.7,494.1 '/>
		<polygon fill = 'rgb( 31, 120, 180)' fill-opacity = '0.250000' points = '665.7,494.1 665.7,662.4 667.5,662.4 667.5,496.1 '/>
		<polygon fill = 'rgb( 31, 120, 180)' fill-opacity = '0.250000' points = '667.5,496.1 667.5,662.4 669.4,662.4 669.4,497.7 '/>
		<polygon fill = 'rgb( 31, 120, 180)' fill-opacity = '0.250000' points = '669.4,497.7 669.4,662.4 671.3,662.4 671.3,498.8 '/>
		<polygon fill = 'rgb( 31, 120, 180)' fill-opacity = '0.250000' points = '671.3,498.8 671.3,662.4 673.2,662.4 673.2,499.4 '/>
		<polygon fill = 'rgb( 31, 120, 180)' fill-opacity = '0.250000' points = '673.2,499.4 673.2,662.4 675.0,662.4 675.0,499.5 '/>
		<polygon fill = 'rgb( 31, 120, 180)' fill-opacity = '0.250000' points = '675.0,499.5 675.0,662.4 676.9,662.4 676.9,499.1 '/>
		<polygon fill = 'rgb( 31, 120, 180)' fill-opacity = '0.250000' points = '676.9,499.1 676.9,662.4 678.8,662.4 678.8,498.2 '/>
		<polygon fill = 'rgb( 31, 120, 180)' fill-opacity = '0.250000' points = '678.8,498.2 678.8,662.4 680.6,662.4 680.6,496.8 '/>
		<polygon fill = 'rgb( 31, 120, 180)' fill-opacity = '0.250000' points = '680.6,496.8 680.6,662.4 682.5,662.4 682.5,494.9 '/>
		<polygon fill = 'rgb( 31, 120, 180)' fill-opacity = '0.250000' points = '682.5,494.9 682.5,662.4 684.4,662.4 684.4,492.6 '/>
		<polygon fill = 'rgb( 31, 120, 180)' fill-opacity = '0.250000' points = '684.4,492.6 684.4,662.4 686.3,662.4 686.3,490.0 '/>
		<polygon fill = 'rgb( 31, 120, 180)' fill-opacity = '0.250000' points = '686.3,490.0 686.3,662.4 688.1,662.4 688.1,487.1 '/>
		<polygon fill = 'rgb( 31, 120, 180)' fill-opacity = '0.250000' points = '688.1,487.1 688.1,662.4 690.0,662.4 690.0,483.9 '/>
		<polygon fill = 'rgb( 31, 120, 180)' fill-opacity = '0.250000' points = '690.0,483.9 690.0,662.4 691.9,662.4 691.9,480.6 '/>
		<polygon fill = 'rgb( 31, 120, 180)' fill-opacity = '0.250000' points = '691.9,480.6 691.9,662.4 693.7,662.4 693.7,477.1 '/>
		<polygon fill = 'rgb( 31, 120, 180)' fill-opacity = '0.250000' points = '693.7,477.1 693.7,662.4 695.6,662.4 695.6,473.6 '/>
		<polygon fill = 'rgb( 31, 120, 180)' fill-opacity = '0.250000' points = '695.6,473.6 695.6,662.4 697.5,662.4 697.5,470.2 '/>
		<polygon fill = 'rgb( 31, 120, 180)' fill-opacity = '0.250000' points = '697.5,470.2 697.5,662.4 699.3,662.4 699.3,466.8 '/>
		<polygon fill = 'rgb( 31, 120, 180)' fill-opacity = '0.250000' points = '699.3,466.8 699.3,662.4 701.2,662.4 701.2,463.5 '/>
		<polygon fill = 'rgb( 31, 120, 180)' fill-opacity = '0.250000' points = '701.2,463.5 701.2,662.4 703.1,662.4 703.1,460.5 '/>
		<polygon fill = 'rgb( 31, 120, 180)' fill-opacity = '0.250000' points = '703.1,460.5 703.1,662.4 705.0,662.4 705.0,457.6 '/>
		<polygon fill = 'rgb( 31, 120, 180)' fill-opacity = '0.250000' points = '705.0,457.6 705.0,662.4 706.8,662.4 706.8,455.0 '/>
		<polygon fill = 'rgb( 31, 120, 180)' fill-opacity = '0.250000' points = '706.8,455.0 706.8,662.4 708.7,662.4 708.7,452.7 '/>
		<polygon fill = 'rgb( 31, 120, 180)' fill-opacity = '0.250000' points = '708.7,452.7 708.7,662.4 710.6,662.4 710.6,450.7 '/>
		<polygon fill = 'rgb( 31, 120, 180)' fill-opacity = '0.250000' points = '710.6,450.7 710.6,662.4 712.4,662.4 712.4,449.1 '/>
		<polygon fill = 'rgb( 31, 120, 180)' fill-opacity = '0.250000' points = '712.4,449.1 712.4,662.4 714.3,662.4 714.3,447.7 '/>
		<polygon fill = 'rgb( 31, 120, 180)' fill-opacity = '0.250000' points = '714.3,447.7 714.3,662.4 716.2,662.4 716.2,446.7 '/>
		<polygon fill = 'rgb( 31, 120, 180)' fill-opacity = '0.250000' points = '716.2,446.7 716.2,662.4 718.1,662.4 718.1,446.0 '/>
		<polygon fill = 'rgb( 31, 120, 180)' fill-opacity = '0.250000' points = '718.1,446.0 718.1,662.4 719.9,662.4 719.9,445.6 '/>
		<polygon fill = 'rgb( 31, 120, 180)' fill-opacity = '0.250000' points = '719.9,445.6 719.9,662.4 721.8,662.4 721.8,445.6 '/>
		<polygon fill = 'rgb( 31, 120, 180)' fill-opacity = '0.250000' points = '721.8,445.6 721.8,662.4 723.7,662.4 723.7,446.0 '/>
		<polygon fill = 'rgb( 31, 120, 180)' fill-opacity = '0.250000' points = '723.7,446.0 723.7,662.4 725.5,662.4 725.5,446.6 '/>
		<polygon fill = 'rgb( 31, 120, 180)' fill-opacity = '0.250000' points = '725.5,446.6 725.5,662.4 727.4,662.4 727.4,447.6 '/>
		<polygon fill = 'rgb( 31, 120, 180)' fill-opacity = '0.250000' points = '727.4,447.6 727.4,662.4 729.3,662.4 729.3,449.0 '/>
		<polygon fill = 'rgb( 31, 120, 180)' fill-opacity = '0.250000' points = '729.3,449.0 729.3,662.4 731.1,662.4 731.1,450.7 '/>
		<polygon fill = 'rgb( 31, 120, 180)' fill-opacity = '0.250000' points = '731.1,450.7 731.1,662.4 733.0,662.4 733.0,452.7 '/>
		<polygon fill = 'rgb( 31, 120, 180)' fill-opacity = '0.250000' points = '733.0,452.7 733.0,662.4 734.9,662.4 734.9,455.1 '/>
		<polygon fill = 'rgb( 31, 120, 180)' fill-opacity = '0.250000' points = '734.9,455.1 734.9,662.4 736.8,662.4 736.8,457.9 '/>
		<polygon fill = 'rgb( 31, 120, 180)' fill-opacity = '0.250000' points = '736.8,457.9 736.8,662.4 738.6,662.4 738.6,461.0 '/>
		<polygon fill = 'rgb( 31, 120, 180)' fill-opacity = '0.250000' points = '738.6,461.0 738.6,662.4 740.5,662.4 740.5,464.4 '/>
		<polygon fill = 'rgb( 31, 120, 180)' fill-opacity = '0.250000' points = '740.5,464.4 740.5,662.4 742.4,662.4 742.4,468.2 '/>
		<polygon fill = 'rgb( 31, 120, 180)' fill-opacity = '0.250000' points = '742.4,468.2 742.4,662.4 744.2,662.4 744.2,472.3 '/>
		<polygon fill = 'rgb( 31, 120, 180)' fill-opacity = '0.250000' points = '744.2,472.3 744.2,662.4 746.1,662.4 746.1,476.7 '/>
		<polygon fill = 'rgb( 31, 120, 180)' fill-opacity = '0.250000' points = '746.1,476.7 746.1,662.4 748.0,662.4 748.0,481.3 '/>
		<polygon fill = 'rgb( 31, 120, 180)' fill-opacity = '0.250000' points = '748.0,481.3 748.0,662.4 749.9,662.4 749.9,486.2 '/>
		<polygon fill = 'rgb( 31, 120, 180)' fill-opacity = '0.250000' points = '749.9,486.2 749.9,662.4 751.7,662.4 751.7,491.3 '/>
		<polygon fill = 'rgb( 31, 120, 180)' fill-opacity = '0.250000' points = '751.7,491.3 751.7,662.4 753.6,662.4 753.6,496.5 '/>
		<polygon fill = 'rgb( 31, 120, 180)' fill-opacity = '0.250000' points = '753.6,496.5 753.6,662.4 755.5,662.4 755.5,501.8 '/>
		<polygon fill = 'rgb( 31, 120, 180)' fill-opacity = '0.250000' points = '755.5,501.8 755.5,662.4 757.3,662.4 757.3,507.2 '/>
		<polygon fill = 'rgb( 31, 120, 180)' fill-opacity = '0.250000' points = '757.3,507.2 757.3,662.4 759.2,662.4 759.2,512.5 '/>
		<polygon fill = 'rgb( 31, 120, 180)' fill-opacity = '0.250000' points = '759.2,512.5 759.2,662.4 761.1,662.4 761.1,517.9 '/>
		<polygon fill = 'rgb( 31, 120, 180)' fill-opacity = '0.250000' points = '761.1,517.9 761.1,662.4 762.9,662.4 762.9,523.1 '/>
		<polygon fill = 'rgb( 31, 120, 180)' fill-opacity = '0.250000' points = '762.9,523.1 762.9,662.4 764.8,662.4 764.8,528.2 '/>
		<polygon fill = 'rgb( 31, 120, 180)' fill-opacity = '0.250000' points = '764.8,528.2 764.8,662.4 766.7,662.4 766.7,533.1 '/>
		<polygon fill = 'rgb( 31, 120, 180)' fill-opacity = '0.250000' points = '766.7,533.1 766.7,662.4 768.6,662.4 768.6,537.8 '/>
		<polygon fill = 'rgb( 31, 120, 180)' fill-opacity = '0.250000' points = '768.6,537.8 768.6,662.4 770.4,662.4 770.4,542.2 '/>
		<polygon fill = 'rgb( 31, 120, 180)' fill-opacity = '0.250000' points = '770.4,542.2 770.4,662.4 772.3,662.4 772.3,546.3 '/>
		<polygon fill = 'rgb( 31, 120, 180)' fill-opacity = '0.250000' points = '772.3,546.3 772.3,662.4 774.2,662.4 774.2,550.1 '/>
		<polygon fill = 'rgb( 31, 120, 180)' fill-opacity = '0.250000' points = '774.2,550.1 774.2,662.4 776.0,662.4 776.0,553.5 '/>
		<polygon fill = 'rgb( 31, 120, 180)' fill-opacity = '0.250000' points = '776.0,553.5 776.0,662.4 777.9,662.4 777.9,556.6 '/>
		<polygon fill = 'rgb( 31, 120, 180)' fill-opacity = '0.250000' points = '777.9,556.6 777.9,662.4 779.8,662.4 779.8,559.4 '/>
		<polygon fill = 'rgb( 31, 120, 180)' fill-opacity = '0.250000' points = '779.8,559.4 779.8,662.4 781.7,662.4 781.7,561.8 '/>
		<polygon fill = 'rgb( 31, 120, 180)' fill-opacity = '0.250000' points = '781.7,561.8 781.7,662.4 783.5,662.4 783.5,563.9 '/>
		<polygon fill = 'rgb( 31, 120, 180)' fill-opacity = '0.250000' points = '783.5,563.9 783.5,662.4 785.4,662.4 785.4,565.6 '/>
		<polygon fill = 'rgb( 31, 120, 180)' fill-opacity = '0.250000' points = '785.4,565.6 785.4,662.4 787.3,662.4 787.3,567.0 '/>
		<polygon fill = 'rgb( 31, 120, 180)' fill-opacity = '0.250000' points = '787.3,567.0 787.3,662.4 789.1,662.4 789.1,568.1 '/>
		<polygon fill = 'rgb( 31, 120, 180)' fill-opacity = '0.250000' points = '789.1,568.1 789.1,662.4 791.0,662.4 791.0,568.9 '/>
		<polygon fill = 'rgb( 31, 120, 180)' fill-opacity = '0.250000' points = '791.0,568.9 791.0,662.4 792.9,662.4 792.9,569.4 '/>
		<polygon fill = 'rgb( 31, 120, 180)' fill-opacity = '0.250000' points = '792.9,569.4 792.9,662.4 794.7,662.4 794.7,569.7 '/>
		<polygon fill = 'rgb( 31, 120, 180)' fill-opacity = '0.250000' points = '794.7,569.7 794.7,662.4 796.6,662.4 796.6,569.8 '/>
		<polygon fill = 'rgb( 31, 120, 180)' fill-opacity = '0.250000' points = '796.6,569.8 796.6,662.4 798.5,662.4 798.5,569.7 '/>
		<polygon fill = 'rgb( 31, 120, 180)' fill-opacity = '0.250000' points = '798.5,569.7 798.5,662.4 800.4,662.4 800.4,569.5 '/>
		<polygon fill = 'rgb( 31, 120, 180)' fill-opacity = '0.250000' points = '800.4,569.5 800.4,662.4 802.2,662.4 802.2,569.1 '/>
		<polygon fill = 'rgb( 31, 120, 180)' fill-opacity = '0.250000' points = '802.2,569.1 802.2,662.4 804.1,662.4 804.1,568.8 '/>
		<polygon fill = 'rgb( 31, 120, 180)' fill-opacity = '0.250000' points = '804.1,568.8 804.1,662.4 806.0,662.4 806.0,568.4 '/>
		<polygon fill = 'rgb( 31, 120, 180)' fill-opacity = '0.250000' points = '806.0,568.4 806.0,662.4 807.8,662.4 807.8,568.0 '/>
		<polygon fill = 'rgb( 31, 120, 180)' fill-opacity = '0.250000' points = '807.8,568.0 807.8,662.4 809.7,662.4 809.7,567.6 '/>
		<polygon fill = 'rgb( 31, 120, 180)' fill-opacity = '0.250000' points = '809.7,567.6 809.7,662.4 811.6,662.4 811.6,567.4 '/>
		<polygon fill = 'rgb( 31, 120, 180)' fill-opacity = '0.250000' points = '811.6,567.4 811.6,662.4 813.5,662.4 813.5,567.3 '/>
		<polygon fill = 'rgb( 31, 120, 180)' fill-opacity = '0.250000' points = '813.5,567.3 813.5,662.4 815.3,662.4 815.3,567.3 '/>
		<polygon fill = 'rgb( 31, 120, 180)' fill-opacity = '0.250000' points = '815.3,567.3 815.3,662.4 817.2,662.4 817.2,567.5 '/>
		<polygon fill = 'rgb( 31, 120, 180)' fill-opacity = '0.250000' points = '817.2,567.5 817.2,662.4 819.1,662.4 819.1,567.9 '/>
		<polygon fill = 'rgb( 31, 120, 180)' fill-opacity = '0.250000' points = '819.1,567.9 819.1,662.4 820.9,662.4 820.9,568.5 '/>
		<polygon fill = 'rgb( 31, 120, 180)' fill-opacity = '0.250000' points = '820.9,568.5 820.9,662.4 822.8,662.4 822.8,569.3 '/>
		<polygon fill = 'rgb( 31, 120, 180)' fill-opacity = '0.250000' points = '822.8,569.3 822.8,662.4 824.7,662.4 824.7,570.3 '/>
		<polygon fill = 'rgb( 31, 120, 180)' fill-opacity = '0.250000' points = '824.7,570.3 824.7,662.4 826.5,662.4 826.5,571.4 '/>
		<polygon fill = 'rgb( 31, 120, 180)' fill-opacity = '0.250000' points = '826.5,571.4 826.5,662.4 828.4,662.4 828.4,572.8 '/>
		<polygon fill = 'rgb( 31, 120, 180)' fill-opacity = '0.250000' points = '828.4,572.8 828.4,662.4 830.3,662.4 830.3,574.3 '/>
		<polygon fill = 'rgb( 31, 120, 180)' fill-opacity = '0.250000' points = '830.3,574.3 830.3,662.4 832.2,662.4 832.2,575.9 '/>
		<polygon fill = 'rgb( 31, 120, 180)' fill-opacity = '0.250000' points = '832.2,575.9 832.2,662.4 834.0,662.4 834.0,577.6 '/>
		<polygon fill = 'rgb( 31, 120, 180)' fill-opacity = '0.250000' points = '834.0,577.6 834.0,662.4 835.9,662.4 835.9,579.5 '/>
		<polygon fill = 'rgb( 31, 120, 180)' fill-opacity = '0.250000' points = '835.9,579.5 835.9,662.4 837.8,662.4 837.8,581.4 '/>
		<polygon fill = 'rgb( 31, 120, 180)' fill-opacity = '0.250000' points = '837.8,581.4 837.8,662.4 839.6,662.4 839.6,583.4 '/>
		<polygon fill = 'rgb( 31, 120, 180)' fill-opacity = '0.250000' points = '839.6,583.4 839.6,662.4 841.5,662.4 841.5,585.4 '/>
		<polygon fill = 'rgb( 31, 120, 180)' fill-opacity = '0.250000' points = '841.5,585.4 841.5,662.4 843.4,662.4 843.4,587.4 '/>
		<polygon fill = 'rgb( 31, 120, 180)' fill-opacity = '0.250000' points = '843.4,587.4 843.4,662.4 845.3,662.4 845.3,589.5 '/>
		<polygon fill = 'rgb( 31, 120, 180)' fill-opacity = '0.250000' points = '845.3,589.5 845.3,662.4 847.1,662.4 847.1,591.5 '/>
		<polygon fill = 'rgb( 31, 120, 180)' fill-opacity = '0.250000' points = '847.1,591.5 847.1,662.4 849.0,662.4 849.0,593.6 '/>
		<polygon fill = 'rgb( 31, 120, 180)' fill-opacity = '0.250000' points = '849.0,593.6 849.0,662.4 850.9,662.4 850.9,595.6 '/>
		<polygon fill = 'rgb( 31, 120, 180)' fill-opacity = '0.250000' points = '850.9,595.6 850.9,662.4 852.7,662.4 852.7,597.6 '/>
		<polygon fill = 'rgb( 31, 120, 180)' fill-opacity = '0.250000' points = '852.7,597.6 852.7,662.4 854.6,662.4 854.6,599.5 '/>
		<polygon fill = 'rgb( 31, 120, 180)' fill-opacity = '0.250000' points = '854.6,599.5 854.6,662.4 856.5,662.4 856.5,601.5 '/>
		<polygon fill = 'rgb( 31, 120, 180)' fill-opacity = '0.250000' points = '856.5,601.5 856.5,662.4 858.3,662.4 858.3,603.4 '/>
		<polygon fill = 'rgb( 31, 120, 180)' fill-opacity = '0.250000' points = '858.3,603.4 858.3,662.4 860.2,662.4 860.2,605.3 '/>
		<polygon fill = 'rgb( 31, 120, 180)' fill-opacity = '0.250000' points = '860.2,605.3 860.2,662.4 862.1,662.4 862.1,607.2 '/>
		<polygon fill = 'rgb( 31, 120, 180)' fill-opacity = '0.250000' points = '862.1,607.2 862.1,662.4 864.0,662.4 864.0,609.0 '/>
		<polygon fill = 'rgb( 31, 120, 180)' fill-opacity = '0.250000' points = '864.0,609.0 864.0,662.4 865.8,662.4 865.8,610.8 '/>
		<polygon fill = 'rgb( 31, 120, 180)' fill-opacity = '0.250000' points = '865.8,610.8 865.8,662.4 867.7,662.4 867.7,612.6 '/>
		<polygon fill = 'rgb( 31, 120, 180)' fill-opacity = '0.250000' points = '867.7,612.6 867.7,662.4 869.6,662.4 869.6,614.3 '/>
		<polygon fill = 'rgb( 31, 120, 180)' fill-opacity = '0.250000' points = '869.6,614.3 869.6,662.4 871.4,662.4 871.4,616.0 '/>
		<polygon fill = 'rgb( 31, 120, 180)' fill-opacity = '0.250000' points = '871.4,616.0 871.4,662.4 873.3,662.4 873.3,617.7 '/>
		<polygon fill = 'rgb( 31, 120, 180)' fill-opacity = '0.250000' points = '873.3,617.7 873.3,662.4 875.2,662.4 875.2,619.2 '/>
		<polygon fill = 'rgb( 31, 120, 180)' fill-opacity = '0.250000' points = '875.2,619.2 875.2,662.4 877.1,662.4 877.1,620.8 '/>
		<polygon fill = 'rgb( 31, 120, 180)' fill-opacity = '0.250000' points = '877.1,620.8 877.1,662.4 878.9,662.4 878.9,622.2 '/>
		<polygon fill = 'rgb( 31, 120, 180)' fill-opacity = '0.250000' points = '878.9,622.2 878.9,662.4 880.8,662.4 880.8,623.5 '/>
		<polygon fill = 'rgb( 31, 120, 180)' fill-opacity = '0.250000' points = '880.8,623.5 880.8,662.4 882.7,662.4 882.7,624.8 '/>
		<polygon fill = 'rgb( 31, 120, 180)' fill-opacity = '0.250000' points = '882.7,624.8 882.7,662.4 884.5,662.4 884.5,626.0 '/>
		<polygon fill = 'rgb( 31, 120, 180)' fill-opacity = '0.250000' points = '884.5,626.0 884.5,662.4 886.4,662.4 886.4,627.0 '/>
		<polygon fill = 'rgb( 31, 120, 180)' fill-opacity = '0.250000' points = '886.4,627.0 886.4,662.4 888.3,662.4 888.3,628.0 '/>
		<polygon fill = 'rgb( 31, 120, 180)' fill-opacity = '0.250000' points = '888.3,628.0 888.3,662.4 890.1,662.4 890.1,628.9 '/>
		<polygon fill = 'rgb( 31, 120, 180)' fill-opacity = '0.250000' points = '890.1,628.9 890.1,662.4 892.0,662.4 892.0,629.6 '/>
		<polygon fill = 'rgb( 31, 120, 180)' fill-opacity = '0.250000' points = '892.0,629.6 892.0,662.4 893.9,662.4 893.9,630.3 '/>
		<polygon fill = 'rgb( 31, 120, 180)' fill-opacity = '0.250000' points = '893.9,630.3 893.9,662.4 895.8,662.4 895.8,630.8 '/>
		<polygon fill = 'rgb( 31, 120, 180)' fill-opacity = '0.250000' points = '895.8,630.8 895.8,662.4 897.6,662.4 897.6,631.2 '/>
		<polygon fill = 'rgb( 31, 120, 180)' fill-opacity = '0.250000' points = '897.6,631.2 897.6,662.4 899.5,662.4 899.5,631.6 '/>
		<polygon fill = 'rgb( 31, 120, 180)' fill-opacity = '0.250000' points = '899.5,631.6 899.5,662.4 901.4,662.4 901.4,631.9 '/>
		<polygon fill = 'rgb( 31, 120, 180)' fill-opacity = '0.250000' points = '901.4,631.9 901.4,662.4 903.2,662.4 903.2,632.0 '/>
		<polygon fill = 'rgb( 31, 120, 180)' fill-opacity = '0.250000' points = '903.2,632.0 903.2,662.4 905.1,662.4 905.1,632.2 '/>
		<polygon fill = 'rgb( 31, 120, 180)' fill-opacity = '0.250000' points = '905.1,632.2 905.1,662.4 907.0,662.4 907.0,632.2 '/>
		<polygon fill = 'rgb( 31, 120, 180)' fill-opacity = '0.250000' points = '907.0,632.2 907.0,662.4 908.8,662.4 908.8,632.3 '/>
		<polygon fill = 'rgb( 31, 120, 180)' fill-opacity = '0.250000' points = '908.8,632.3 908.8,662.4 910.7,662.4 910.7,632.3 '/>
		<polygon fill = 'rgb( 31, 120, 180)' fill-opacity = '0.250000' points = '910.7,632.3 910.7,662.4 912.6,662.4 912.6,632.3 '/>
		<polygon fill = 'rgb( 31, 120, 180)' fill-opacity = '0.250000' points = '912.6,632.3 912.6,662.4 914.5,662.4 914.5,632.2 '/>
		<polygon fill = 'rgb( 31, 120, 180)' fill-opacity = '0.250000' points = '914.5,632.2 914.5,662.4 916.3,662.4 916.3,632.2 '/>
		<polygon fill = 'rgb( 31, 120, 180)' fill-opacity = '0.250000' points = '916.3,632.2 916.3,662.4 918.2,662.4 918.2,632.2 '/>
		<polygon fill = 'rgb( 31, 120, 180)' fill-opacity = '0.250000' points = '918.2,632.2 918.2,662.4 920.1,662.4 920.1,632.2 '/>
		<polygon fill = 'rgb( 31, 120, 180)' fill-opacity = '0.250000' points = '920.1,632.2 920.1,662.4 921.9,662.4 921.9,632.2 '/>
		<polygon fill = 'rgb( 31, 120, 180)' fill-opacity = '0.250000' points = '921.9,632.2 921.9,662.4 923.8,662.4 923.8,632.2 '/>
		<polygon fill = 'rgb( 31, 120, 180)' fill-opacity = '0.250000' points = '923.8,632.2 923.8,662.4 925.7,662.4 925.7,632.2 '/>
	</g>
</g>
	</g>
	<g id="gnuplot_plot_3" ><title>Point estimate</title>
<g fill="none" color="white" stroke="rgb( 31, 120, 180)" stroke-width="2.00" stroke-linecap="butt" stroke-linejoin="miter">
</g>
<g fill="none" color="black" stroke="currentColor" stroke-width="2.00" stroke-linecap="butt" stroke-linejoin="miter">
	<g transform="translate(1089.0,103.0)" stroke="none" fill="black" font-family="Helvetica" font-size="12.00"  text-anchor="start">
		<text><tspan font-family="Helvetica" >Point estimate</tspan></text>
	</g>
</g>
<g fill="none" color="black" stroke="currentColor" stroke-width="2.00" stroke-linecap="butt" stroke-linejoin="miter">
	<path stroke='rgb( 31, 120, 180)'  d='M1038.5,99.1 L1080.7,99.1 M538.4,662.4 L538.4,218.7  '/></g>
	</g>
<g fill="none" color="black" stroke="currentColor" stroke-width="2.00" stroke-linecap="butt" stroke-linejoin="miter">
</g>
<g fill="none" color="black" stroke="black" stroke-width="1.00" stroke-linecap="butt" stroke-linejoin="miter">
</g>
<g fill="none" color="black" stroke="currentColor" stroke-width="1.00" stroke-linecap="butt" stroke-linejoin="miter">
	<path stroke='black'  d='M80.2,54.1 L80.2,662.4 L1013.6,662.4 L1013.6,54.1 L80.2,54.1 Z  '/></g>
<g fill="none" color="black" stroke="currentColor" stroke-width="1.00" stroke-linecap="butt" stroke-linejoin="miter">
</g>
</g>
</svg>

