<?xml version="1.0" encoding="utf-8"  standalone="no"?>
<svg 
 viewBox="0 0 1280 720"
 xmlns="http://www.w3.org/2000/svg"
 xmlns:xlink="http://www.w3.org/1999/xlink"
>

<title>Gnuplot</title>
<desc>Produced by GNUPLOT 5.0 patchlevel 6 </desc>

<g id="gnuplot_canvas">

<rect x="0" y="0" width="1280" height="720" fill="none"/>
<defs>

	<circle id='gpDot' r='0.5' stroke-width='0.5'/>
	<path id='gpPt0' stroke-width='0.222' stroke='currentColor' d='M-1,0 h2 M0,-1 v2'/>
	<path id='gpPt1' stroke-width='0.222' stroke='currentColor' d='M-1,-1 L1,1 M1,-1 L-1,1'/>
	<path id='gpPt2' stroke-width='0.222' stroke='currentColor' d='M-1,0 L1,0 M0,-1 L0,1 M-1,-1 L1,1 M-1,1 L1,-1'/>
	<rect id='gpPt3' stroke-width='0.222' stroke='currentColor' x='-1' y='-1' width='2' height='2'/>
	<rect id='gpPt4' stroke-width='0.222' stroke='currentColor' fill='currentColor' x='-1' y='-1' width='2' height='2'/>
	<circle id='gpPt5' stroke-width='0.222' stroke='currentColor' cx='0' cy='0' r='1'/>
	<use xlink:href='#gpPt5' id='gpPt6' fill='currentColor' stroke='none'/>
	<path id='gpPt7' stroke-width='0.222' stroke='currentColor' d='M0,-1.33 L-1.33,0.67 L1.33,0.67 z'/>
	<use xlink:href='#gpPt7' id='gpPt8' fill='currentColor' stroke='none'/>
	<use xlink:href='#gpPt7' id='gpPt9' stroke='currentColor' transform='rotate(180)'/>
	<use xlink:href='#gpPt9' id='gpPt10' fill='currentColor' stroke='none'/>
	<use xlink:href='#gpPt3' id='gpPt11' stroke='currentColor' transform='rotate(45)'/>
	<use xlink:href='#gpPt11' id='gpPt12' fill='currentColor' stroke='none'/>
	<path id='gpPt13' stroke-width='0.222' stroke='currentColor' d='M0,1.330 L1.265,0.411 L0.782,-1.067 L-0.782,-1.076 L-1.265,0.411 z'/>
	<use xlink:href='#gpPt13' id='gpPt14' fill='currentColor' stroke='none'/>
	<filter id='textbox' filterUnits='objectBoundingBox' x='0' y='0' height='1' width='1'>
	  <feFlood flood-color='white' flood-opacity='1' result='bgnd'/>
	  <feComposite in='SourceGraphic' in2='bgnd' operator='atop'/>
	</filter>
	<filter id='greybox' filterUnits='objectBoundingBox' x='0' y='0' height='1' width='1'>
	  <feFlood flood-color='lightgrey' flood-opacity='1' result='grey'/>
	  <feComposite in='SourceGraphic' in2='grey' operator='atop'/>
	</filter>
</defs>
<g fill="none" color="white" stroke="currentColor" stroke-width="1.00" stroke-linecap="butt" stroke-linejoin="miter">
</g>
<g fill="none" color="black" stroke="currentColor" stroke-width="1.00" stroke-linecap="butt" stroke-linejoin="miter">
	<path stroke='black'  d='M96.8,662.4 L105.8,662.4  '/>	<g transform="translate(88.5,666.3)" stroke="none" fill="black" font-family="Helvetica" font-size="12.00"  text-anchor="end">
		<text><tspan font-family="Helvetica" > 0</tspan></text>
	</g>
</g>
<g fill="none" color="black" stroke="currentColor" stroke-width="1.00" stroke-linecap="butt" stroke-linejoin="miter">
	<path stroke='black'  d='M96.8,601.6 L105.8,601.6  '/>	<g transform="translate(88.5,605.5)" stroke="none" fill="black" font-family="Helvetica" font-size="12.00"  text-anchor="end">
		<text><tspan font-family="Helvetica" > 0.0005</tspan></text>
	</g>
</g>
<g fill="none" color="black" stroke="currentColor" stroke-width="1.00" stroke-linecap="butt" stroke-linejoin="miter">
	<path stroke='black'  d='M96.8,540.7 L105.8,540.7  '/>	<g transform="translate(88.5,544.6)" stroke="none" fill="black" font-family="Helvetica" font-size="12.00"  text-anchor="end">
		<text><tspan font-family="Helvetica" > 0.001</tspan></text>
	</g>
</g>
<g fill="none" color="black" stroke="currentColor" stroke-width="1.00" stroke-linecap="butt" stroke-linejoin="miter">
	<path stroke='black'  d='M96.8,479.9 L105.8,479.9  '/>	<g transform="translate(88.5,483.8)" stroke="none" fill="black" font-family="Helvetica" font-size="12.00"  text-anchor="end">
		<text><tspan font-family="Helvetica" > 0.0015</tspan></text>
	</g>
</g>
<g fill="none" color="black" stroke="currentColor" stroke-width="1.00" stroke-linecap="butt" stroke-linejoin="miter">
	<path stroke='black'  d='M96.8,419.1 L105.8,419.1  '/>	<g transform="translate(88.5,423.0)" stroke="none" fill="black" font-family="Helvetica" font-size="12.00"  text-anchor="end">
		<text><tspan font-family="Helvetica" > 0.002</tspan></text>
	</g>
</g>
<g fill="none" color="black" stroke="currentColor" stroke-width="1.00" stroke-linecap="butt" stroke-linejoin="miter">
	<path stroke='black'  d='M96.8,358.2 L105.8,358.2  '/>	<g transform="translate(88.5,362.1)" stroke="none" fill="black" font-family="Helvetica" font-size="12.00"  text-anchor="end">
		<text><tspan font-family="Helvetica" > 0.0025</tspan></text>
	</g>
</g>
<g fill="none" color="black" stroke="currentColor" stroke-width="1.00" stroke-linecap="butt" stroke-linejoin="miter">
	<path stroke='black'  d='M96.8,297.4 L105.8,297.4  '/>	<g transform="translate(88.5,301.3)" stroke="none" fill="black" font-family="Helvetica" font-size="12.00"  text-anchor="end">
		<text><tspan font-family="Helvetica" > 0.003</tspan></text>
	</g>
</g>
<g fill="none" color="black" stroke="currentColor" stroke-width="1.00" stroke-linecap="butt" stroke-linejoin="miter">
	<path stroke='black'  d='M96.8,236.6 L105.8,236.6  '/>	<g transform="translate(88.5,240.5)" stroke="none" fill="black" font-family="Helvetica" font-size="12.00"  text-anchor="end">
		<text><tspan font-family="Helvetica" > 0.0035</tspan></text>
	</g>
</g>
<g fill="none" color="black" stroke="currentColor" stroke-width="1.00" stroke-linecap="butt" stroke-linejoin="miter">
	<path stroke='black'  d='M96.8,175.8 L105.8,175.8  '/>	<g transform="translate(88.5,179.7)" stroke="none" fill="black" font-family="Helvetica" font-size="12.00"  text-anchor="end">
		<text><tspan font-family="Helvetica" > 0.004</tspan></text>
	</g>
</g>
<g fill="none" color="black" stroke="currentColor" stroke-width="1.00" stroke-linecap="butt" stroke-linejoin="miter">
	<path stroke='black'  d='M96.8,114.9 L105.8,114.9  '/>	<g transform="translate(88.5,118.8)" stroke="none" fill="black" font-family="Helvetica" font-size="12.00"  text-anchor="end">
		<text><tspan font-family="Helvetica" > 0.0045</tspan></text>
	</g>
</g>
<g fill="none" color="black" stroke="currentColor" stroke-width="1.00" stroke-linecap="butt" stroke-linejoin="miter">
	<path stroke='black'  d='M96.8,54.1 L105.8,54.1  '/>	<g transform="translate(88.5,58.0)" stroke="none" fill="black" font-family="Helvetica" font-size="12.00"  text-anchor="end">
		<text><tspan font-family="Helvetica" > 0.005</tspan></text>
	</g>
</g>
<g fill="none" color="black" stroke="currentColor" stroke-width="1.00" stroke-linecap="butt" stroke-linejoin="miter">
	<path stroke='black'  d='M133.0,662.4 L133.0,653.4  '/>	<g transform="translate(133.0,684.3)" stroke="none" fill="black" font-family="Helvetica" font-size="12.00"  text-anchor="middle">
		<text><tspan font-family="Helvetica" > 50</tspan></text>
	</g>
</g>
<g fill="none" color="black" stroke="currentColor" stroke-width="1.00" stroke-linecap="butt" stroke-linejoin="miter">
	<path stroke='black'  d='M255.0,662.4 L255.0,653.4  '/>	<g transform="translate(255.0,684.3)" stroke="none" fill="black" font-family="Helvetica" font-size="12.00"  text-anchor="middle">
		<text><tspan font-family="Helvetica" > 100</tspan></text>
	</g>
</g>
<g fill="none" color="black" stroke="currentColor" stroke-width="1.00" stroke-linecap="butt" stroke-linejoin="miter">
	<path stroke='black'  d='M377.1,662.4 L377.1,653.4  '/>	<g transform="translate(377.1,684.3)" stroke="none" fill="black" font-family="Helvetica" font-size="12.00"  text-anchor="middle">
		<text><tspan font-family="Helvetica" > 150</tspan></text>
	</g>
</g>
<g fill="none" color="black" stroke="currentColor" stroke-width="1.00" stroke-linecap="butt" stroke-linejoin="miter">
	<path stroke='black'  d='M499.2,662.4 L499.2,653.4  '/>	<g transform="translate(499.2,684.3)" stroke="none" fill="black" font-family="Helvetica" font-size="12.00"  text-anchor="middle">
		<text><tspan font-family="Helvetica" > 200</tspan></text>
	</g>
</g>
<g fill="none" color="black" stroke="currentColor" stroke-width="1.00" stroke-linecap="butt" stroke-linejoin="miter">
	<path stroke='black'  d='M621.3,662.4 L621.3,653.4  '/>	<g transform="translate(621.3,684.3)" stroke="none" fill="black" font-family="Helvetica" font-size="12.00"  text-anchor="middle">
		<text><tspan font-family="Helvetica" > 250</tspan></text>
	</g>
</g>
<g fill="none" color="black" stroke="currentColor" stroke-width="1.00" stroke-linecap="butt" stroke-linejoin="miter">
	<path stroke='black'  d='M743.3,662.4 L743.3,653.4  '/>	<g transform="translate(743.3,684.3)" stroke="none" fill="black" font-family="Helvetica" font-size="12.00"  text-anchor="middle">
		<text><tspan font-family="Helvetica" > 300</tspan></text>
	</g>
</g>
<g fill="none" color="black" stroke="currentColor" stroke-width="1.00" stroke-linecap="butt" stroke-linejoin="miter">
	<path stroke='black'  d='M865.4,662.4 L865.4,653.4  '/>	<g transform="translate(865.4,684.3)" stroke="none" fill="black" font-family="Helvetica" font-size="12.00"  text-anchor="middle">
		<text><tspan font-family="Helvetica" > 350</tspan></text>
	</g>
</g>
<g fill="none" color="black" stroke="currentColor" stroke-width="1.00" stroke-linecap="butt" stroke-linejoin="miter">
	<path stroke='black'  d='M987.5,662.4 L987.5,653.4  '/>	<g transform="translate(987.5,684.3)" stroke="none" fill="black" font-family="Helvetica" font-size="12.00"  text-anchor="middle">
		<text><tspan font-family="Helvetica" > 400</tspan></text>
	</g>
</g>
<g fill="none" color="black" stroke="currentColor" stroke-width="1.00" stroke-linecap="butt" stroke-linejoin="miter">
</g>
<g fill="none" color="black" stroke="currentColor" stroke-width="1.00" stroke-linecap="butt" stroke-linejoin="miter">
	<path stroke='black'  d='M96.8,54.1 L96.8,662.4 L1013.6,662.4 L1013.6,54.1 L96.8,54.1 Z  '/></g>
<g fill="none" color="black" stroke="currentColor" stroke-width="1.00" stroke-linecap="butt" stroke-linejoin="miter">
	<g transform="translate(17.0,358.3) rotate(270)" stroke="none" fill="black" font-family="Helvetica" font-size="12.00"  text-anchor="middle">
		<text><tspan font-family="Helvetica" >Density (a.u.)</tspan></text>
	</g>
</g>
<g fill="none" color="black" stroke="currentColor" stroke-width="1.00" stroke-linecap="butt" stroke-linejoin="miter">
	<g transform="translate(555.2,711.3)" stroke="none" fill="black" font-family="Helvetica" font-size="12.00"  text-anchor="middle">
		<text><tspan font-family="Helvetica" >Average time (us)</tspan></text>
	</g>
</g>
<g fill="none" color="black" stroke="currentColor" stroke-width="1.00" stroke-linecap="butt" stroke-linejoin="miter">
	<g transform="translate(555.2,31.0)" stroke="none" fill="black" font-family="Helvetica" font-size="12.00"  text-anchor="middle">
		<text><tspan font-family="Helvetica" >language: html/parse error: javascript/examples/text-editor-component.js: MAD</tspan></text>
	</g>
</g>
	<g id="gnuplot_plot_1" ><title>Bootstrap distribution</title>
<g fill="none" color="white" stroke="black" stroke-width="2.00" stroke-linecap="butt" stroke-linejoin="miter">
</g>
<g fill="none" color="black" stroke="currentColor" stroke-width="2.00" stroke-linecap="butt" stroke-linejoin="miter">
	<g transform="translate(1089.0,67.0)" stroke="none" fill="black" font-family="Helvetica" font-size="12.00"  text-anchor="start">
		<text><tspan font-family="Helvetica" >Bootstrap distribution</tspan></text>
	</g>
</g>
<g fill="none" color="black" stroke="currentColor" stroke-width="2.00" stroke-linecap="butt" stroke-linejoin="miter">
	<path stroke='rgb( 31, 120, 180)'  d='M1038.5,63.1 L1080.7,63.1 M96.8,647.9 L98.6,646.6 L100.5,645.2 L102.3,643.6 L104.1,642.0 L106.0,640.3
		L107.8,638.4 L109.7,636.4 L111.5,634.3 L113.3,632.0 L115.2,629.6 L117.0,627.0 L118.8,624.2 L120.7,621.3
		L122.5,618.1 L124.4,614.7 L126.2,611.1 L128.0,607.3 L129.9,603.2 L131.7,598.9 L133.5,594.3 L135.4,589.5
		L137.2,584.4 L139.1,579.1 L140.9,573.6 L142.7,567.8 L144.6,561.8 L146.4,555.6 L148.2,549.2 L150.1,542.6
		L151.9,535.8 L153.8,528.9 L155.6,521.8 L157.4,514.6 L159.3,507.4 L161.1,500.0 L162.9,492.5 L164.8,485.0
		L166.6,477.5 L168.5,469.9 L170.3,462.2 L172.1,454.5 L174.0,446.8 L175.8,439.1 L177.6,431.3 L179.5,423.5
		L181.3,415.7 L183.2,407.9 L185.0,400.1 L186.8,392.3 L188.7,384.5 L190.5,376.8 L192.3,369.1 L194.2,361.6
		L196.0,354.2 L197.9,346.9 L199.7,339.9 L201.5,333.1 L203.4,326.5 L205.2,320.3 L207.0,314.4 L208.9,308.9
		L210.7,303.7 L212.5,299.0 L214.4,294.6 L216.2,290.7 L218.1,287.2 L219.9,284.0 L221.7,281.2 L223.6,278.8
		L225.4,276.6 L227.2,274.7 L229.1,273.0 L230.9,271.4 L232.8,270.0 L234.6,268.5 L236.4,267.1 L238.3,265.6
		L240.1,264.1 L241.9,262.4 L243.8,260.5 L245.6,258.5 L247.5,256.3 L249.3,253.9 L251.1,251.4 L253.0,248.7
		L254.8,246.0 L256.6,243.2 L258.5,240.5 L260.3,237.9 L262.2,235.4 L264.0,233.3 L265.8,231.5 L267.7,230.2
		L269.5,229.4 L271.3,229.2 L273.2,229.6 L275.0,230.7 L276.9,232.5 L278.7,235.1 L280.5,238.4 L282.4,242.5
		L284.2,247.2 L286.0,252.5 L287.9,258.3 L289.7,264.6 L291.6,271.4 L293.4,278.4 L295.2,285.6 L297.1,293.0
		L298.9,300.4 L300.7,307.7 L302.6,315.0 L304.4,322.2 L306.2,329.2 L308.1,335.9 L309.9,342.4 L311.8,348.7
		L313.6,354.8 L315.4,360.6 L317.3,366.2 L319.1,371.6 L320.9,376.7 L322.8,381.8 L324.6,386.6 L326.5,391.3
		L328.3,395.8 L330.1,400.1 L332.0,404.3 L333.8,408.3 L335.6,412.1 L337.5,415.7 L339.3,419.0 L341.2,422.1
		L343.0,424.9 L344.8,427.4 L346.7,429.6 L348.5,431.4 L350.3,432.9 L352.2,433.9 L354.0,434.6 L355.9,434.9
		L357.7,434.8 L359.5,434.2 L361.4,433.3 L363.2,432.0 L365.0,430.2 L366.9,428.1 L368.7,425.6 L370.6,422.7
		L372.4,419.5 L374.2,415.9 L376.1,411.9 L377.9,407.6 L379.7,402.9 L381.6,397.9 L383.4,392.4 L385.3,386.6
		L387.1,380.4 L388.9,373.8 L390.8,366.8 L392.6,359.4 L394.4,351.5 L396.3,343.3 L398.1,334.6 L400.0,325.5
		L401.8,316.2 L403.6,306.5 L405.5,296.6 L407.3,286.6 L409.1,276.5 L411.0,266.4 L412.8,256.5 L414.6,246.8
		L416.5,237.4 L418.3,228.6 L420.2,220.3 L422.0,212.7 L423.8,205.8 L425.7,199.8 L427.5,194.6 L429.3,190.3
		L431.2,186.9 L433.0,184.4 L434.9,182.7 L436.7,181.7 L438.5,181.5 L440.4,181.8 L442.2,182.6 L444.0,183.8
		L445.9,185.2 L447.7,186.7 L449.6,188.2 L451.4,189.6 L453.2,190.9 L455.1,191.8 L456.9,192.5 L458.7,192.8
		L460.6,192.7 L462.4,192.2 L464.3,191.3 L466.1,190.1 L467.9,188.6 L469.8,186.7 L471.6,184.7 L473.4,182.5
		L475.3,180.2 L477.1,177.9 L479.0,175.5 L480.8,173.3 L482.6,171.1 L484.5,169.1 L486.3,167.3 L488.1,165.6
		L490.0,164.1 L491.8,162.8 L493.7,161.6 L495.5,160.6 L497.3,159.8 L499.2,159.0 L501.0,158.4 L502.8,157.8
		L504.7,157.3 L506.5,156.9 L508.3,156.6 L510.2,156.4 L512.0,156.3 L513.9,156.3 L515.7,156.6 L517.5,157.0
		L519.4,157.7 L521.2,158.8 L523.0,160.2 L524.9,162.0 L526.7,164.1 L528.6,166.8 L530.4,169.9 L532.2,173.4
		L534.1,177.4 L535.9,181.7 L537.7,186.5 L539.6,191.5 L541.4,196.8 L543.3,202.4 L545.1,208.0 L546.9,213.7
		L548.8,219.3 L550.6,224.9 L552.4,230.3 L554.3,235.5 L556.1,240.4 L558.0,244.9 L559.8,249.1 L561.6,252.8
		L563.5,256.2 L565.3,259.1 L567.1,261.6 L569.0,263.6 L570.8,265.3 L572.7,266.6 L574.5,267.5 L576.3,268.0
		L578.2,268.3 L580.0,268.2 L581.8,267.9 L583.7,267.4 L585.5,266.7 L587.4,265.7 L589.2,264.7 L591.0,263.4
		L592.9,262.0 L594.7,260.5 L596.5,258.9 L598.4,257.2 L600.2,255.4 L602.1,253.6 L603.9,251.7 L605.7,249.7
		L607.6,247.8 L609.4,245.8 L611.2,243.8 L613.1,241.9 L614.9,240.0 L616.7,238.2 L618.6,236.4 L620.4,234.7
		L622.3,233.1 L624.1,231.5 L625.9,230.0 L627.8,228.5 L629.6,227.1 L631.4,225.6 L633.3,224.1 L635.1,222.5
		L637.0,220.8 L638.8,218.9 L640.6,216.8 L642.5,214.5 L644.3,211.8 L646.1,208.9 L648.0,205.5 L649.8,201.9
		L651.7,197.8 L653.5,193.4 L655.3,188.7 L657.2,183.6 L659.0,178.4 L660.8,173.0 L662.7,167.5 L664.5,162.0
		L666.4,156.6 L668.2,151.4 L670.0,146.5 L671.9,142.0 L673.7,137.9 L675.5,134.5 L677.4,131.6 L679.2,129.4
		L681.1,127.8 L682.9,127.0 L684.7,126.7 L686.6,127.1 L688.4,128.0 L690.2,129.3 L692.1,131.0 L693.9,133.0
		L695.8,135.1 L697.6,137.2 L699.4,139.2 L701.3,140.9 L703.1,142.4 L704.9,143.5 L706.8,144.1 L708.6,144.2
		L710.4,143.8 L712.3,142.9 L714.1,141.4 L716.0,139.4 L717.8,137.0 L719.6,134.2 L721.5,131.1 L723.3,127.7
		L725.1,124.3 L727.0,120.8 L728.8,117.3 L730.7,114.0 L732.5,110.9 L734.3,108.0 L736.2,105.6 L738.0,103.5
		L739.8,101.9 L741.7,100.8 L743.5,100.2 L745.4,100.2 L747.2,100.7 L749.0,101.7 L750.9,103.4 L752.7,105.5
		L754.5,108.3 L756.4,111.6 L758.2,115.4 L760.1,119.7 L761.9,124.6 L763.7,130.0 L765.6,136.0 L767.4,142.4
		L769.2,149.3 L771.1,156.7 L772.9,164.5 L774.8,172.7 L776.6,181.4 L778.4,190.4 L780.3,199.7 L782.1,209.3
		L783.9,219.2 L785.8,229.2 L787.6,239.5 L789.5,249.8 L791.3,260.3 L793.1,270.8 L795.0,281.3 L796.8,291.8
		L798.6,302.3 L800.5,312.8 L802.3,323.1 L804.2,333.4 L806.0,343.6 L807.8,353.7 L809.7,363.7 L811.5,373.6
		L813.3,383.3 L815.2,392.9 L817.0,402.3 L818.8,411.5 L820.7,420.5 L822.5,429.3 L824.4,437.8 L826.2,446.1
		L828.0,454.0 L829.9,461.6 L831.7,468.9 L833.5,475.8 L835.4,482.3 L837.2,488.3 L839.1,494.0 L840.9,499.2
		L842.7,504.1 L844.6,508.5 L846.4,512.5 L848.2,516.1 L850.1,519.4 L851.9,522.3 L853.8,524.9 L855.6,527.2
		L857.4,529.3 L859.3,531.2 L861.1,532.9 L862.9,534.4 L864.8,535.8 L866.6,537.2 L868.5,538.4 L870.3,539.6
		L872.1,540.9 L874.0,542.1 L875.8,543.3 L877.6,544.6 L879.5,545.9 L881.3,547.3 L883.2,548.8 L885.0,550.3
		L886.8,551.9 L888.7,553.6 L890.5,555.4 L892.3,557.2 L894.2,559.2 L896.0,561.1 L897.9,563.2 L899.7,565.2
		L901.5,567.3 L903.4,569.4 L905.2,571.5 L907.0,573.6 L908.9,575.7 L910.7,577.7 L912.5,579.6 L914.4,581.5
		L916.2,583.3 L918.1,584.9 L919.9,586.5 L921.7,587.9 L923.6,589.2 L925.4,590.4 L927.2,591.4 L929.1,592.3
		L930.9,593.1 L932.8,593.7 L934.6,594.1 L936.4,594.5 L938.3,594.7 L940.1,594.8 L941.9,594.8 L943.8,594.8
		L945.6,594.6 L947.5,594.4 L949.3,594.2 L951.1,594.0 L953.0,593.7 L954.8,593.5 L956.6,593.2 L958.5,593.1
		L960.3,592.9 L962.2,592.9 L964.0,592.9 L965.8,593.0 L967.7,593.2 L969.5,593.5 L971.3,593.9 L973.2,594.4
		L975.0,595.0 L976.9,595.6 L978.7,596.4 L980.5,597.2 L982.4,598.0 L984.2,598.9 L986.0,599.9 L987.9,600.9
		L989.7,601.9 L991.6,602.9 L993.4,604.0 L995.2,605.0 L997.1,606.1 L998.9,607.2 L1000.7,608.3 L1002.6,609.4
		L1004.4,610.5 L1006.3,611.6 L1008.1,612.7 L1009.9,613.9 L1011.8,615.0 L1013.6,616.2  '/></g>
	</g>
	<g id="gnuplot_plot_2" ><title>Confidence interval</title>
<g fill="none" color="white" stroke="rgb( 31, 120, 180)" stroke-width="1.00" stroke-linecap="butt" stroke-linejoin="miter">
</g>
<g fill="none" color="black" stroke="currentColor" stroke-width="1.00" stroke-linecap="butt" stroke-linejoin="miter">
	<g transform="translate(1089.0,85.0)" stroke="none" fill="black" font-family="Helvetica" font-size="12.00"  text-anchor="start">
		<text><tspan font-family="Helvetica" >Confidence interval</tspan></text>
	</g>
</g>
<g fill="none" color="black" stroke="currentColor" stroke-width="1.00" stroke-linecap="butt" stroke-linejoin="miter">
	<g stroke='none' shape-rendering='crispEdges'>
		<polygon fill = 'rgb( 31, 120, 180)' fill-opacity = '0.250000' points = '1038.5,85.6 1080.7,85.6 1080.7,76.6 1038.5,76.6 '/>
		<polygon fill = 'rgb( 31, 120, 180)' fill-opacity = '0.250000' points = '181.3,415.7 181.3,662.4 183.2,662.4 183.2,407.9 '/>
		<polygon fill = 'rgb( 31, 120, 180)' fill-opacity = '0.250000' points = '183.2,407.9 183.2,662.4 185.0,662.4 185.0,400.1 '/>
		<polygon fill = 'rgb( 31, 120, 180)' fill-opacity = '0.250000' points = '185.0,400.1 185.0,662.4 186.8,662.4 186.8,392.3 '/>
		<polygon fill = 'rgb( 31, 120, 180)' fill-opacity = '0.250000' points = '186.8,392.3 186.8,662.4 188.7,662.4 188.7,384.5 '/>
		<polygon fill = 'rgb( 31, 120, 180)' fill-opacity = '0.250000' points = '188.7,384.5 188.7,662.4 190.5,662.4 190.5,376.8 '/>
		<polygon fill = 'rgb( 31, 120, 180)' fill-opacity = '0.250000' points = '190.5,376.8 190.5,662.4 192.3,662.4 192.3,369.1 '/>
		<polygon fill = 'rgb( 31, 120, 180)' fill-opacity = '0.250000' points = '192.3,369.1 192.3,662.4 194.2,662.4 194.2,361.6 '/>
		<polygon fill = 'rgb( 31, 120, 180)' fill-opacity = '0.250000' points = '194.2,361.6 194.2,662.4 196.0,662.4 196.0,354.2 '/>
		<polygon fill = 'rgb( 31, 120, 180)' fill-opacity = '0.250000' points = '196.0,354.2 196.0,662.4 197.9,662.4 197.9,346.9 '/>
		<polygon fill = 'rgb( 31, 120, 180)' fill-opacity = '0.250000' points = '197.9,346.9 197.9,662.4 199.7,662.4 199.7,339.9 '/>
		<polygon fill = 'rgb( 31, 120, 180)' fill-opacity = '0.250000' points = '199.7,339.9 199.7,662.4 201.5,662.4 201.5,333.1 '/>
		<polygon fill = 'rgb( 31, 120, 180)' fill-opacity = '0.250000' points = '201.5,333.1 201.5,662.4 203.4,662.4 203.4,326.5 '/>
		<polygon fill = 'rgb( 31, 120, 180)' fill-opacity = '0.250000' points = '203.4,326.5 203.4,662.4 205.2,662.4 205.2,320.3 '/>
		<polygon fill = 'rgb( 31, 120, 180)' fill-opacity = '0.250000' points = '205.2,320.3 205.2,662.4 207.0,662.4 207.0,314.4 '/>
		<polygon fill = 'rgb( 31, 120, 180)' fill-opacity = '0.250000' points = '207.0,314.4 207.0,662.4 208.9,662.4 208.9,308.9 '/>
		<polygon fill = 'rgb( 31, 120, 180)' fill-opacity = '0.250000' points = '208.9,308.9 208.9,662.4 210.7,662.4 210.7,303.7 '/>
		<polygon fill = 'rgb( 31, 120, 180)' fill-opacity = '0.250000' points = '210.7,303.7 210.7,662.4 212.5,662.4 212.5,299.0 '/>
		<polygon fill = 'rgb( 31, 120, 180)' fill-opacity = '0.250000' points = '212.5,299.0 212.5,662.4 214.4,662.4 214.4,294.6 '/>
		<polygon fill = 'rgb( 31, 120, 180)' fill-opacity = '0.250000' points = '214.4,294.6 214.4,662.4 216.2,662.4 216.2,290.7 '/>
		<polygon fill = 'rgb( 31, 120, 180)' fill-opacity = '0.250000' points = '216.2,290.7 216.2,662.4 218.1,662.4 218.1,287.2 '/>
		<polygon fill = 'rgb( 31, 120, 180)' fill-opacity = '0.250000' points = '218.1,287.2 218.1,662.4 219.9,662.4 219.9,284.0 '/>
		<polygon fill = 'rgb( 31, 120, 180)' fill-opacity = '0.250000' points = '219.9,284.0 219.9,662.4 221.7,662.4 221.7,281.2 '/>
		<polygon fill = 'rgb( 31, 120, 180)' fill-opacity = '0.250000' points = '221.7,281.2 221.7,662.4 223.6,662.4 223.6,278.8 '/>
		<polygon fill = 'rgb( 31, 120, 180)' fill-opacity = '0.250000' points = '223.6,278.8 223.6,662.4 225.4,662.4 225.4,276.6 '/>
		<polygon fill = 'rgb( 31, 120, 180)' fill-opacity = '0.250000' points = '225.4,276.6 225.4,662.4 227.2,662.4 227.2,274.7 '/>
		<polygon fill = 'rgb( 31, 120, 180)' fill-opacity = '0.250000' points = '227.2,274.7 227.2,662.4 229.1,662.4 229.1,273.0 '/>
		<polygon fill = 'rgb( 31, 120, 180)' fill-opacity = '0.250000' points = '229.1,273.0 229.1,662.4 230.9,662.4 230.9,271.4 '/>
		<polygon fill = 'rgb( 31, 120, 180)' fill-opacity = '0.250000' points = '230.9,271.4 230.9,662.4 232.8,662.4 232.8,270.0 '/>
		<polygon fill = 'rgb( 31, 120, 180)' fill-opacity = '0.250000' points = '232.8,270.0 232.8,662.4 234.6,662.4 234.6,268.5 '/>
		<polygon fill = 'rgb( 31, 120, 180)' fill-opacity = '0.250000' points = '234.6,268.5 234.6,662.4 236.4,662.4 236.4,267.1 '/>
		<polygon fill = 'rgb( 31, 120, 180)' fill-opacity = '0.250000' points = '236.4,267.1 236.4,662.4 238.3,662.4 238.3,265.6 '/>
		<polygon fill = 'rgb( 31, 120, 180)' fill-opacity = '0.250000' points = '238.3,265.6 238.3,662.4 240.1,662.4 240.1,264.1 '/>
		<polygon fill = 'rgb( 31, 120, 180)' fill-opacity = '0.250000' points = '240.1,264.1 240.1,662.4 241.9,662.4 241.9,262.4 '/>
		<polygon fill = 'rgb( 31, 120, 180)' fill-opacity = '0.250000' points = '241.9,262.4 241.9,662.4 243.8,662.4 243.8,260.5 '/>
		<polygon fill = 'rgb( 31, 120, 180)' fill-opacity = '0.250000' points = '243.8,260.5 243.8,662.4 245.6,662.4 245.6,258.5 '/>
		<polygon fill = 'rgb( 31, 120, 180)' fill-opacity = '0.250000' points = '245.6,258.5 245.6,662.4 247.5,662.4 247.5,256.3 '/>
		<polygon fill = 'rgb( 31, 120, 180)' fill-opacity = '0.250000' points = '247.5,256.3 247.5,662.4 249.3,662.4 249.3,253.9 '/>
		<polygon fill = 'rgb( 31, 120, 180)' fill-opacity = '0.250000' points = '249.3,253.9 249.3,662.4 251.1,662.4 251.1,251.4 '/>
		<polygon fill = 'rgb( 31, 120, 180)' fill-opacity = '0.250000' points = '251.1,251.4 251.1,662.4 253.0,662.4 253.0,248.7 '/>
		<polygon fill = 'rgb( 31, 120, 180)' fill-opacity = '0.250000' points = '253.0,248.7 253.0,662.4 254.8,662.4 254.8,246.0 '/>
		<polygon fill = 'rgb( 31, 120, 180)' fill-opacity = '0.250000' points = '254.8,246.0 254.8,662.4 256.6,662.4 256.6,243.2 '/>
		<polygon fill = 'rgb( 31, 120, 180)' fill-opacity = '0.250000' points = '256.6,243.2 256.6,662.4 258.5,662.4 258.5,240.5 '/>
		<polygon fill = 'rgb( 31, 120, 180)' fill-opacity = '0.250000' points = '258.5,240.5 258.5,662.4 260.3,662.4 260.3,237.9 '/>
		<polygon fill = 'rgb( 31, 120, 180)' fill-opacity = '0.250000' points = '260.3,237.9 260.3,662.4 262.2,662.4 262.2,235.4 '/>
		<polygon fill = 'rgb( 31, 120, 180)' fill-opacity = '0.250000' points = '262.2,235.4 262.2,662.4 264.0,662.4 264.0,233.3 '/>
		<polygon fill = 'rgb( 31, 120, 180)' fill-opacity = '0.250000' points = '264.0,233.3 264.0,662.4 265.8,662.4 265.8,231.5 '/>
		<polygon fill = 'rgb( 31, 120, 180)' fill-opacity = '0.250000' points = '265.8,231.5 265.8,662.4 267.7,662.4 267.7,230.2 '/>
		<polygon fill = 'rgb( 31, 120, 180)' fill-opacity = '0.250000' points = '267.7,230.2 267.7,662.4 269.5,662.4 269.5,229.4 '/>
		<polygon fill = 'rgb( 31, 120, 180)' fill-opacity = '0.250000' points = '269.5,229.4 269.5,662.4 271.3,662.4 271.3,229.2 '/>
		<polygon fill = 'rgb( 31, 120, 180)' fill-opacity = '0.250000' points = '271.3,229.2 271.3,662.4 273.2,662.4 273.2,229.6 '/>
		<polygon fill = 'rgb( 31, 120, 180)' fill-opacity = '0.250000' points = '273.2,229.6 273.2,662.4 275.0,662.4 275.0,230.7 '/>
		<polygon fill = 'rgb( 31, 120, 180)' fill-opacity = '0.250000' points = '275.0,230.7 275.0,662.4 276.9,662.4 276.9,232.5 '/>
		<polygon fill = 'rgb( 31, 120, 180)' fill-opacity = '0.250000' points = '276.9,232.5 276.9,662.4 278.7,662.4 278.7,235.1 '/>
		<polygon fill = 'rgb( 31, 120, 180)' fill-opacity = '0.250000' points = '278.7,235.1 278.7,662.4 280.5,662.4 280.5,238.4 '/>
		<polygon fill = 'rgb( 31, 120, 180)' fill-opacity = '0.250000' points = '280.5,238.4 280.5,662.4 282.4,662.4 282.4,242.5 '/>
		<polygon fill = 'rgb( 31, 120, 180)' fill-opacity = '0.250000' points = '282.4,242.5 282.4,662.4 284.2,662.4 284.2,247.2 '/>
		<polygon fill = 'rgb( 31, 120, 180)' fill-opacity = '0.250000' points = '284.2,247.2 284.2,662.4 286.0,662.4 286.0,252.5 '/>
		<polygon fill = 'rgb( 31, 120, 180)' fill-opacity = '0.250000' points = '286.0,252.5 286.0,662.4 287.9,662.4 287.9,258.3 '/>
		<polygon fill = 'rgb( 31, 120, 180)' fill-opacity = '0.250000' points = '287.9,258.3 287.9,662.4 289.7,662.4 289.7,264.6 '/>
		<polygon fill = 'rgb( 31, 120, 180)' fill-opacity = '0.250000' points = '289.7,264.6 289.7,662.4 291.6,662.4 291.6,271.4 '/>
		<polygon fill = 'rgb( 31, 120, 180)' fill-opacity = '0.250000' points = '291.6,271.4 291.6,662.4 293.4,662.4 293.4,278.4 '/>
		<polygon fill = 'rgb( 31, 120, 180)' fill-opacity = '0.250000' points = '293.4,278.4 293.4,662.4 295.2,662.4 295.2,285.6 '/>
		<polygon fill = 'rgb( 31, 120, 180)' fill-opacity = '0.250000' points = '295.2,285.6 295.2,662.4 297.1,662.4 297.1,293.0 '/>
		<polygon fill = 'rgb( 31, 120, 180)' fill-opacity = '0.250000' points = '297.1,293.0 297.1,662.4 298.9,662.4 298.9,300.4 '/>
		<polygon fill = 'rgb( 31, 120, 180)' fill-opacity = '0.250000' points = '298.9,300.4 298.9,662.4 300.7,662.4 300.7,307.7 '/>
		<polygon fill = 'rgb( 31, 120, 180)' fill-opacity = '0.250000' points = '300.7,307.7 300.7,662.4 302.6,662.4 302.6,315.0 '/>
		<polygon fill = 'rgb( 31, 120, 180)' fill-opacity = '0.250000' points = '302.6,315.0 302.6,662.4 304.4,662.4 304.4,322.2 '/>
		<polygon fill = 'rgb( 31, 120, 180)' fill-opacity = '0.250000' points = '304.4,322.2 304.4,662.4 306.2,662.4 306.2,329.2 '/>
		<polygon fill = 'rgb( 31, 120, 180)' fill-opacity = '0.250000' points = '306.2,329.2 306.2,662.4 308.1,662.4 308.1,335.9 '/>
		<polygon fill = 'rgb( 31, 120, 180)' fill-opacity = '0.250000' points = '308.1,335.9 308.1,662.4 309.9,662.4 309.9,342.4 '/>
		<polygon fill = 'rgb( 31, 120, 180)' fill-opacity = '0.250000' points = '309.9,342.4 309.9,662.4 311.8,662.4 311.8,348.7 '/>
		<polygon fill = 'rgb( 31, 120, 180)' fill-opacity = '0.250000' points = '311.8,348.7 311.8,662.4 313.6,662.4 313.6,354.8 '/>
		<polygon fill = 'rgb( 31, 120, 180)' fill-opacity = '0.250000' points = '313.6,354.8 313.6,662.4 315.4,662.4 315.4,360.6 '/>
		<polygon fill = 'rgb( 31, 120, 180)' fill-opacity = '0.250000' points = '315.4,360.6 315.4,662.4 317.3,662.4 317.3,366.2 '/>
		<polygon fill = 'rgb( 31, 120, 180)' fill-opacity = '0.250000' points = '317.3,366.2 317.3,662.4 319.1,662.4 319.1,371.6 '/>
		<polygon fill = 'rgb( 31, 120, 180)' fill-opacity = '0.250000' points = '319.1,371.6 319.1,662.4 320.9,662.4 320.9,376.7 '/>
		<polygon fill = 'rgb( 31, 120, 180)' fill-opacity = '0.250000' points = '320.9,376.7 320.9,662.4 322.8,662.4 322.8,381.8 '/>
		<polygon fill = 'rgb( 31, 120, 180)' fill-opacity = '0.250000' points = '322.8,381.8 322.8,662.4 324.6,662.4 324.6,386.6 '/>
		<polygon fill = 'rgb( 31, 120, 180)' fill-opacity = '0.250000' points = '324.6,386.6 324.6,662.4 326.5,662.4 326.5,391.3 '/>
		<polygon fill = 'rgb( 31, 120, 180)' fill-opacity = '0.250000' points = '326.5,391.3 326.5,662.4 328.3,662.4 328.3,395.8 '/>
		<polygon fill = 'rgb( 31, 120, 180)' fill-opacity = '0.250000' points = '328.3,395.8 328.3,662.4 330.1,662.4 330.1,400.1 '/>
		<polygon fill = 'rgb( 31, 120, 180)' fill-opacity = '0.250000' points = '330.1,400.1 330.1,662.4 332.0,662.4 332.0,404.3 '/>
		<polygon fill = 'rgb( 31, 120, 180)' fill-opacity = '0.250000' points = '332.0,404.3 332.0,662.4 333.8,662.4 333.8,408.3 '/>
		<polygon fill = 'rgb( 31, 120, 180)' fill-opacity = '0.250000' points = '333.8,408.3 333.8,662.4 335.6,662.4 335.6,412.1 '/>
		<polygon fill = 'rgb( 31, 120, 180)' fill-opacity = '0.250000' points = '335.6,412.1 335.6,662.4 337.5,662.4 337.5,415.7 '/>
		<polygon fill = 'rgb( 31, 120, 180)' fill-opacity = '0.250000' points = '337.5,415.7 337.5,662.4 339.3,662.4 339.3,419.0 '/>
		<polygon fill = 'rgb( 31, 120, 180)' fill-opacity = '0.250000' points = '339.3,419.0 339.3,662.4 341.2,662.4 341.2,422.1 '/>
		<polygon fill = 'rgb( 31, 120, 180)' fill-opacity = '0.250000' points = '341.2,422.1 341.2,662.4 343.0,662.4 343.0,424.9 '/>
		<polygon fill = 'rgb( 31, 120, 180)' fill-opacity = '0.250000' points = '343.0,424.9 343.0,662.4 344.8,662.4 344.8,427.4 '/>
		<polygon fill = 'rgb( 31, 120, 180)' fill-opacity = '0.250000' points = '344.8,427.4 344.8,662.4 346.7,662.4 346.7,429.6 '/>
		<polygon fill = 'rgb( 31, 120, 180)' fill-opacity = '0.250000' points = '346.7,429.6 346.7,662.4 348.5,662.4 348.5,431.4 '/>
		<polygon fill = 'rgb( 31, 120, 180)' fill-opacity = '0.250000' points = '348.5,431.4 348.5,662.4 350.3,662.4 350.3,432.9 '/>
		<polygon fill = 'rgb( 31, 120, 180)' fill-opacity = '0.250000' points = '350.3,432.9 350.3,662.4 352.2,662.4 352.2,433.9 '/>
		<polygon fill = 'rgb( 31, 120, 180)' fill-opacity = '0.250000' points = '352.2,433.9 352.2,662.4 354.0,662.4 354.0,434.6 '/>
		<polygon fill = 'rgb( 31, 120, 180)' fill-opacity = '0.250000' points = '354.0,434.6 354.0,662.4 355.9,662.4 355.9,434.9 '/>
		<polygon fill = 'rgb( 31, 120, 180)' fill-opacity = '0.250000' points = '355.9,434.9 355.9,662.4 357.7,662.4 357.7,434.8 '/>
		<polygon fill = 'rgb( 31, 120, 180)' fill-opacity = '0.250000' points = '357.7,434.8 357.7,662.4 359.5,662.4 359.5,434.2 '/>
		<polygon fill = 'rgb( 31, 120, 180)' fill-opacity = '0.250000' points = '359.5,434.2 359.5,662.4 361.4,662.4 361.4,433.3 '/>
		<polygon fill = 'rgb( 31, 120, 180)' fill-opacity = '0.250000' points = '361.4,433.3 361.4,662.4 363.2,662.4 363.2,432.0 '/>
		<polygon fill = 'rgb( 31, 120, 180)' fill-opacity = '0.250000' points = '363.2,432.0 363.2,662.4 365.0,662.4 365.0,430.2 '/>
		<polygon fill = 'rgb( 31, 120, 180)' fill-opacity = '0.250000' points = '365.0,430.2 365.0,662.4 366.9,662.4 366.9,428.1 '/>
		<polygon fill = 'rgb( 31, 120, 180)' fill-opacity = '0.250000' points = '366.9,428.1 366.9,662.4 368.7,662.4 368.7,425.6 '/>
		<polygon fill = 'rgb( 31, 120, 180)' fill-opacity = '0.250000' points = '368.7,425.6 368.7,662.4 370.6,662.4 370.6,422.7 '/>
		<polygon fill = 'rgb( 31, 120, 180)' fill-opacity = '0.250000' points = '370.6,422.7 370.6,662.4 372.4,662.4 372.4,419.5 '/>
		<polygon fill = 'rgb( 31, 120, 180)' fill-opacity = '0.250000' points = '372.4,419.5 372.4,662.4 374.2,662.4 374.2,415.9 '/>
		<polygon fill = 'rgb( 31, 120, 180)' fill-opacity = '0.250000' points = '374.2,415.9 374.2,662.4 376.1,662.4 376.1,411.9 '/>
		<polygon fill = 'rgb( 31, 120, 180)' fill-opacity = '0.250000' points = '376.1,411.9 376.1,662.4 377.9,662.4 377.9,407.6 '/>
		<polygon fill = 'rgb( 31, 120, 180)' fill-opacity = '0.250000' points = '377.9,407.6 377.9,662.4 379.7,662.4 379.7,402.9 '/>
		<polygon fill = 'rgb( 31, 120, 180)' fill-opacity = '0.250000' points = '379.7,402.9 379.7,662.4 381.6,662.4 381.6,397.9 '/>
		<polygon fill = 'rgb( 31, 120, 180)' fill-opacity = '0.250000' points = '381.6,397.9 381.6,662.4 383.4,662.4 383.4,392.4 '/>
		<polygon fill = 'rgb( 31, 120, 180)' fill-opacity = '0.250000' points = '383.4,392.4 383.4,662.4 385.3,662.4 385.3,386.6 '/>
		<polygon fill = 'rgb( 31, 120, 180)' fill-opacity = '0.250000' points = '385.3,386.6 385.3,662.4 387.1,662.4 387.1,380.4 '/>
		<polygon fill = 'rgb( 31, 120, 180)' fill-opacity = '0.250000' points = '387.1,380.4 387.1,662.4 388.9,662.4 388.9,373.8 '/>
		<polygon fill = 'rgb( 31, 120, 180)' fill-opacity = '0.250000' points = '388.9,373.8 388.9,662.4 390.8,662.4 390.8,366.8 '/>
		<polygon fill = 'rgb( 31, 120, 180)' fill-opacity = '0.250000' points = '390.8,366.8 390.8,662.4 392.6,662.4 392.6,359.4 '/>
		<polygon fill = 'rgb( 31, 120, 180)' fill-opacity = '0.250000' points = '392.6,359.4 392.6,662.4 394.4,662.4 394.4,351.5 '/>
		<polygon fill = 'rgb( 31, 120, 180)' fill-opacity = '0.250000' points = '394.4,351.5 394.4,662.4 396.3,662.4 396.3,343.3 '/>
		<polygon fill = 'rgb( 31, 120, 180)' fill-opacity = '0.250000' points = '396.3,343.3 396.3,662.4 398.1,662.4 398.1,334.6 '/>
		<polygon fill = 'rgb( 31, 120, 180)' fill-opacity = '0.250000' points = '398.1,334.6 398.1,662.4 400.0,662.4 400.0,325.5 '/>
		<polygon fill = 'rgb( 31, 120, 180)' fill-opacity = '0.250000' points = '400.0,325.5 400.0,662.4 401.8,662.4 401.8,316.2 '/>
		<polygon fill = 'rgb( 31, 120, 180)' fill-opacity = '0.250000' points = '401.8,316.2 401.8,662.4 403.6,662.4 403.6,306.5 '/>
		<polygon fill = 'rgb( 31, 120, 180)' fill-opacity = '0.250000' points = '403.6,306.5 403.6,662.4 405.5,662.4 405.5,296.6 '/>
		<polygon fill = 'rgb( 31, 120, 180)' fill-opacity = '0.250000' points = '405.5,296.6 405.5,662.4 407.3,662.4 407.3,286.6 '/>
		<polygon fill = 'rgb( 31, 120, 180)' fill-opacity = '0.250000' points = '407.3,286.6 407.3,662.4 409.1,662.4 409.1,276.5 '/>
		<polygon fill = 'rgb( 31, 120, 180)' fill-opacity = '0.250000' points = '409.1,276.5 409.1,662.4 411.0,662.4 411.0,266.4 '/>
		<polygon fill = 'rgb( 31, 120, 180)' fill-opacity = '0.250000' points = '411.0,266.4 411.0,662.4 412.8,662.4 412.8,256.5 '/>
		<polygon fill = 'rgb( 31, 120, 180)' fill-opacity = '0.250000' points = '412.8,256.5 412.8,662.4 414.6,662.4 414.6,246.8 '/>
		<polygon fill = 'rgb( 31, 120, 180)' fill-opacity = '0.250000' points = '414.6,246.8 414.6,662.4 416.5,662.4 416.5,237.4 '/>
		<polygon fill = 'rgb( 31, 120, 180)' fill-opacity = '0.250000' points = '416.5,237.4 416.5,662.4 418.3,662.4 418.3,228.6 '/>
		<polygon fill = 'rgb( 31, 120, 180)' fill-opacity = '0.250000' points = '418.3,228.6 418.3,662.4 420.2,662.4 420.2,220.3 '/>
		<polygon fill = 'rgb( 31, 120, 180)' fill-opacity = '0.250000' points = '420.2,220.3 420.2,662.4 422.0,662.4 422.0,212.7 '/>
		<polygon fill = 'rgb( 31, 120, 180)' fill-opacity = '0.250000' points = '422.0,212.7 422.0,662.4 423.8,662.4 423.8,205.8 '/>
		<polygon fill = 'rgb( 31, 120, 180)' fill-opacity = '0.250000' points = '423.8,205.8 423.8,662.4 425.7,662.4 425.7,199.8 '/>
		<polygon fill = 'rgb( 31, 120, 180)' fill-opacity = '0.250000' points = '425.7,199.8 425.7,662.4 427.5,662.4 427.5,194.6 '/>
		<polygon fill = 'rgb( 31, 120, 180)' fill-opacity = '0.250000' points = '427.5,194.6 427.5,662.4 429.3,662.4 429.3,190.3 '/>
		<polygon fill = 'rgb( 31, 120, 180)' fill-opacity = '0.250000' points = '429.3,190.3 429.3,662.4 431.2,662.4 431.2,186.9 '/>
		<polygon fill = 'rgb( 31, 120, 180)' fill-opacity = '0.250000' points = '431.2,186.9 431.2,662.4 433.0,662.4 433.0,184.4 '/>
		<polygon fill = 'rgb( 31, 120, 180)' fill-opacity = '0.250000' points = '433.0,184.4 433.0,662.4 434.9,662.4 434.9,182.7 '/>
		<polygon fill = 'rgb( 31, 120, 180)' fill-opacity = '0.250000' points = '434.9,182.7 434.9,662.4 436.7,662.4 436.7,181.7 '/>
		<polygon fill = 'rgb( 31, 120, 180)' fill-opacity = '0.250000' points = '436.7,181.7 436.7,662.4 438.5,662.4 438.5,181.5 '/>
		<polygon fill = 'rgb( 31, 120, 180)' fill-opacity = '0.250000' points = '438.5,181.5 438.5,662.4 440.4,662.4 440.4,181.8 '/>
		<polygon fill = 'rgb( 31, 120, 180)' fill-opacity = '0.250000' points = '440.4,181.8 440.4,662.4 442.2,662.4 442.2,182.6 '/>
		<polygon fill = 'rgb( 31, 120, 180)' fill-opacity = '0.250000' points = '442.2,182.6 442.2,662.4 444.0,662.4 444.0,183.8 '/>
		<polygon fill = 'rgb( 31, 120, 180)' fill-opacity = '0.250000' points = '444.0,183.8 444.0,662.4 445.9,662.4 445.9,185.2 '/>
		<polygon fill = 'rgb( 31, 120, 180)' fill-opacity = '0.250000' points = '445.9,185.2 445.9,662.4 447.7,662.4 447.7,186.7 '/>
		<polygon fill = 'rgb( 31, 120, 180)' fill-opacity = '0.250000' points = '447.7,186.7 447.7,662.4 449.6,662.4 449.6,188.2 '/>
		<polygon fill = 'rgb( 31, 120, 180)' fill-opacity = '0.250000' points = '449.6,188.2 449.6,662.4 451.4,662.4 451.4,189.6 '/>
		<polygon fill = 'rgb( 31, 120, 180)' fill-opacity = '0.250000' points = '451.4,189.6 451.4,662.4 453.2,662.4 453.2,190.9 '/>
		<polygon fill = 'rgb( 31, 120, 180)' fill-opacity = '0.250000' points = '453.2,190.9 453.2,662.4 455.1,662.4 455.1,191.8 '/>
		<polygon fill = 'rgb( 31, 120, 180)' fill-opacity = '0.250000' points = '455.1,191.8 455.1,662.4 456.9,662.4 456.9,192.5 '/>
		<polygon fill = 'rgb( 31, 120, 180)' fill-opacity = '0.250000' points = '456.9,192.5 456.9,662.4 458.7,662.4 458.7,192.8 '/>
		<polygon fill = 'rgb( 31, 120, 180)' fill-opacity = '0.250000' points = '458.7,192.8 458.7,662.4 460.6,662.4 460.6,192.7 '/>
		<polygon fill = 'rgb( 31, 120, 180)' fill-opacity = '0.250000' points = '460.6,192.7 460.6,662.4 462.4,662.4 462.4,192.2 '/>
		<polygon fill = 'rgb( 31, 120, 180)' fill-opacity = '0.250000' points = '462.4,192.2 462.4,662.4 464.3,662.4 464.3,191.3 '/>
		<polygon fill = 'rgb( 31, 120, 180)' fill-opacity = '0.250000' points = '464.3,191.3 464.3,662.4 466.1,662.4 466.1,190.1 '/>
		<polygon fill = 'rgb( 31, 120, 180)' fill-opacity = '0.250000' points = '466.1,190.1 466.1,662.4 467.9,662.4 467.9,188.6 '/>
		<polygon fill = 'rgb( 31, 120, 180)' fill-opacity = '0.250000' points = '467.9,188.6 467.9,662.4 469.8,662.4 469.8,186.7 '/>
		<polygon fill = 'rgb( 31, 120, 180)' fill-opacity = '0.250000' points = '469.8,186.7 469.8,662.4 471.6,662.4 471.6,184.7 '/>
		<polygon fill = 'rgb( 31, 120, 180)' fill-opacity = '0.250000' points = '471.6,184.7 471.6,662.4 473.4,662.4 473.4,182.5 '/>
		<polygon fill = 'rgb( 31, 120, 180)' fill-opacity = '0.250000' points = '473.4,182.5 473.4,662.4 475.3,662.4 475.3,180.2 '/>
		<polygon fill = 'rgb( 31, 120, 180)' fill-opacity = '0.250000' points = '475.3,180.2 475.3,662.4 477.1,662.4 477.1,177.9 '/>
		<polygon fill = 'rgb( 31, 120, 180)' fill-opacity = '0.250000' points = '477.1,177.9 477.1,662.4 479.0,662.4 479.0,175.5 '/>
		<polygon fill = 'rgb( 31, 120, 180)' fill-opacity = '0.250000' points = '479.0,175.5 479.0,662.4 480.8,662.4 480.8,173.3 '/>
		<polygon fill = 'rgb( 31, 120, 180)' fill-opacity = '0.250000' points = '480.8,173.3 480.8,662.4 482.6,662.4 482.6,171.1 '/>
		<polygon fill = 'rgb( 31, 120, 180)' fill-opacity = '0.250000' points = '482.6,171.1 482.6,662.4 484.5,662.4 484.5,169.1 '/>
		<polygon fill = 'rgb( 31, 120, 180)' fill-opacity = '0.250000' points = '484.5,169.1 484.5,662.4 486.3,662.4 486.3,167.3 '/>
		<polygon fill = 'rgb( 31, 120, 180)' fill-opacity = '0.250000' points = '486.3,167.3 486.3,662.4 488.1,662.4 488.1,165.6 '/>
		<polygon fill = 'rgb( 31, 120, 180)' fill-opacity = '0.250000' points = '488.1,165.6 488.1,662.4 490.0,662.4 490.0,164.1 '/>
		<polygon fill = 'rgb( 31, 120, 180)' fill-opacity = '0.250000' points = '490.0,164.1 490.0,662.4 491.8,662.4 491.8,162.8 '/>
		<polygon fill = 'rgb( 31, 120, 180)' fill-opacity = '0.250000' points = '491.8,162.8 491.8,662.4 493.7,662.4 493.7,161.6 '/>
		<polygon fill = 'rgb( 31, 120, 180)' fill-opacity = '0.250000' points = '493.7,161.6 493.7,662.4 495.5,662.4 495.5,160.6 '/>
		<polygon fill = 'rgb( 31, 120, 180)' fill-opacity = '0.250000' points = '495.5,160.6 495.5,662.4 497.3,662.4 497.3,159.8 '/>
		<polygon fill = 'rgb( 31, 120, 180)' fill-opacity = '0.250000' points = '497.3,159.8 497.3,662.4 499.2,662.4 499.2,159.0 '/>
		<polygon fill = 'rgb( 31, 120, 180)' fill-opacity = '0.250000' points = '499.2,159.0 499.2,662.4 501.0,662.4 501.0,158.4 '/>
		<polygon fill = 'rgb( 31, 120, 180)' fill-opacity = '0.250000' points = '501.0,158.4 501.0,662.4 502.8,662.4 502.8,157.8 '/>
		<polygon fill = 'rgb( 31, 120, 180)' fill-opacity = '0.250000' points = '502.8,157.8 502.8,662.4 504.7,662.4 504.7,157.3 '/>
		<polygon fill = 'rgb( 31, 120, 180)' fill-opacity = '0.250000' points = '504.7,157.3 504.7,662.4 506.5,662.4 506.5,156.9 '/>
		<polygon fill = 'rgb( 31, 120, 180)' fill-opacity = '0.250000' points = '506.5,156.9 506.5,662.4 508.3,662.4 508.3,156.6 '/>
		<polygon fill = 'rgb( 31, 120, 180)' fill-opacity = '0.250000' points = '508.3,156.6 508.3,662.4 510.2,662.4 510.2,156.4 '/>
		<polygon fill = 'rgb( 31, 120, 180)' fill-opacity = '0.250000' points = '510.2,156.4 510.2,662.4 512.0,662.4 512.0,156.3 '/>
		<polygon fill = 'rgb( 31, 120, 180)' fill-opacity = '0.250000' points = '512.0,156.3 512.0,662.4 513.9,662.4 513.9,156.3 '/>
		<polygon fill = 'rgb( 31, 120, 180)' fill-opacity = '0.250000' points = '513.9,156.3 513.9,662.4 515.7,662.4 515.7,156.6 '/>
		<polygon fill = 'rgb( 31, 120, 180)' fill-opacity = '0.250000' points = '515.7,156.6 515.7,662.4 517.5,662.4 517.5,157.0 '/>
		<polygon fill = 'rgb( 31, 120, 180)' fill-opacity = '0.250000' points = '517.5,157.0 517.5,662.4 519.4,662.4 519.4,157.7 '/>
		<polygon fill = 'rgb( 31, 120, 180)' fill-opacity = '0.250000' points = '519.4,157.7 519.4,662.4 521.2,662.4 521.2,158.8 '/>
		<polygon fill = 'rgb( 31, 120, 180)' fill-opacity = '0.250000' points = '521.2,158.8 521.2,662.4 523.0,662.4 523.0,160.2 '/>
		<polygon fill = 'rgb( 31, 120, 180)' fill-opacity = '0.250000' points = '523.0,160.2 523.0,662.4 524.9,662.4 524.9,162.0 '/>
		<polygon fill = 'rgb( 31, 120, 180)' fill-opacity = '0.250000' points = '524.9,162.0 524.9,662.4 526.7,662.4 526.7,164.1 '/>
		<polygon fill = 'rgb( 31, 120, 180)' fill-opacity = '0.250000' points = '526.7,164.1 526.7,662.4 528.6,662.4 528.6,166.8 '/>
		<polygon fill = 'rgb( 31, 120, 180)' fill-opacity = '0.250000' points = '528.6,166.8 528.6,662.4 530.4,662.4 530.4,169.9 '/>
		<polygon fill = 'rgb( 31, 120, 180)' fill-opacity = '0.250000' points = '530.4,169.9 530.4,662.4 532.2,662.4 532.2,173.4 '/>
		<polygon fill = 'rgb( 31, 120, 180)' fill-opacity = '0.250000' points = '532.2,173.4 532.2,662.4 534.1,662.4 534.1,177.4 '/>
		<polygon fill = 'rgb( 31, 120, 180)' fill-opacity = '0.250000' points = '534.1,177.4 534.1,662.4 535.9,662.4 535.9,181.7 '/>
		<polygon fill = 'rgb( 31, 120, 180)' fill-opacity = '0.250000' points = '535.9,181.7 535.9,662.4 537.7,662.4 537.7,186.5 '/>
		<polygon fill = 'rgb( 31, 120, 180)' fill-opacity = '0.250000' points = '537.7,186.5 537.7,662.4 539.6,662.4 539.6,191.5 '/>
		<polygon fill = 'rgb( 31, 120, 180)' fill-opacity = '0.250000' points = '539.6,191.5 539.6,662.4 541.4,662.4 541.4,196.8 '/>
		<polygon fill = 'rgb( 31, 120, 180)' fill-opacity = '0.250000' points = '541.4,196.8 541.4,662.4 543.3,662.4 543.3,202.4 '/>
		<polygon fill = 'rgb( 31, 120, 180)' fill-opacity = '0.250000' points = '543.3,202.4 543.3,662.4 545.1,662.4 545.1,208.0 '/>
		<polygon fill = 'rgb( 31, 120, 180)' fill-opacity = '0.250000' points = '545.1,208.0 545.1,662.4 546.9,662.4 546.9,213.7 '/>
		<polygon fill = 'rgb( 31, 120, 180)' fill-opacity = '0.250000' points = '546.9,213.7 546.9,662.4 548.8,662.4 548.8,219.3 '/>
		<polygon fill = 'rgb( 31, 120, 180)' fill-opacity = '0.250000' points = '548.8,219.3 548.8,662.4 550.6,662.4 550.6,224.9 '/>
		<polygon fill = 'rgb( 31, 120, 180)' fill-opacity = '0.250000' points = '550.6,224.9 550.6,662.4 552.4,662.4 552.4,230.3 '/>
		<polygon fill = 'rgb( 31, 120, 180)' fill-opacity = '0.250000' points = '552.4,230.3 552.4,662.4 554.3,662.4 554.3,235.5 '/>
		<polygon fill = 'rgb( 31, 120, 180)' fill-opacity = '0.250000' points = '554.3,235.5 554.3,662.4 556.1,662.4 556.1,240.4 '/>
		<polygon fill = 'rgb( 31, 120, 180)' fill-opacity = '0.250000' points = '556.1,240.4 556.1,662.4 558.0,662.4 558.0,244.9 '/>
		<polygon fill = 'rgb( 31, 120, 180)' fill-opacity = '0.250000' points = '558.0,244.9 558.0,662.4 559.8,662.4 559.8,249.1 '/>
		<polygon fill = 'rgb( 31, 120, 180)' fill-opacity = '0.250000' points = '559.8,249.1 559.8,662.4 561.6,662.4 561.6,252.8 '/>
		<polygon fill = 'rgb( 31, 120, 180)' fill-opacity = '0.250000' points = '561.6,252.8 561.6,662.4 563.5,662.4 563.5,256.2 '/>
		<polygon fill = 'rgb( 31, 120, 180)' fill-opacity = '0.250000' points = '563.5,256.2 563.5,662.4 565.3,662.4 565.3,259.1 '/>
		<polygon fill = 'rgb( 31, 120, 180)' fill-opacity = '0.250000' points = '565.3,259.1 565.3,662.4 567.1,662.4 567.1,261.6 '/>
		<polygon fill = 'rgb( 31, 120, 180)' fill-opacity = '0.250000' points = '567.1,261.6 567.1,662.4 569.0,662.4 569.0,263.6 '/>
		<polygon fill = 'rgb( 31, 120, 180)' fill-opacity = '0.250000' points = '569.0,263.6 569.0,662.4 570.8,662.4 570.8,265.3 '/>
		<polygon fill = 'rgb( 31, 120, 180)' fill-opacity = '0.250000' points = '570.8,265.3 570.8,662.4 572.7,662.4 572.7,266.6 '/>
		<polygon fill = 'rgb( 31, 120, 180)' fill-opacity = '0.250000' points = '572.7,266.6 572.7,662.4 574.5,662.4 574.5,267.5 '/>
		<polygon fill = 'rgb( 31, 120, 180)' fill-opacity = '0.250000' points = '574.5,267.5 574.5,662.4 576.3,662.4 576.3,268.0 '/>
		<polygon fill = 'rgb( 31, 120, 180)' fill-opacity = '0.250000' points = '576.3,268.0 576.3,662.4 578.2,662.4 578.2,268.3 '/>
		<polygon fill = 'rgb( 31, 120, 180)' fill-opacity = '0.250000' points = '578.2,268.3 578.2,662.4 580.0,662.4 580.0,268.2 '/>
		<polygon fill = 'rgb( 31, 120, 180)' fill-opacity = '0.250000' points = '580.0,268.2 580.0,662.4 581.8,662.4 581.8,267.9 '/>
		<polygon fill = 'rgb( 31, 120, 180)' fill-opacity = '0.250000' points = '581.8,267.9 581.8,662.4 583.7,662.4 583.7,267.4 '/>
		<polygon fill = 'rgb( 31, 120, 180)' fill-opacity = '0.250000' points = '583.7,267.4 583.7,662.4 585.5,662.4 585.5,266.7 '/>
		<polygon fill = 'rgb( 31, 120, 180)' fill-opacity = '0.250000' points = '585.5,266.7 585.5,662.4 587.4,662.4 587.4,265.7 '/>
		<polygon fill = 'rgb( 31, 120, 180)' fill-opacity = '0.250000' points = '587.4,265.7 587.4,662.4 589.2,662.4 589.2,264.7 '/>
		<polygon fill = 'rgb( 31, 120, 180)' fill-opacity = '0.250000' points = '589.2,264.7 589.2,662.4 591.0,662.4 591.0,263.4 '/>
		<polygon fill = 'rgb( 31, 120, 180)' fill-opacity = '0.250000' points = '591.0,263.4 591.0,662.4 592.9,662.4 592.9,262.0 '/>
		<polygon fill = 'rgb( 31, 120, 180)' fill-opacity = '0.250000' points = '592.9,262.0 592.9,662.4 594.7,662.4 594.7,260.5 '/>
		<polygon fill = 'rgb( 31, 120, 180)' fill-opacity = '0.250000' points = '594.7,260.5 594.7,662.4 596.5,662.4 596.5,258.9 '/>
		<polygon fill = 'rgb( 31, 120, 180)' fill-opacity = '0.250000' points = '596.5,258.9 596.5,662.4 598.4,662.4 598.4,257.2 '/>
		<polygon fill = 'rgb( 31, 120, 180)' fill-opacity = '0.250000' points = '598.4,257.2 598.4,662.4 600.2,662.4 600.2,255.4 '/>
		<polygon fill = 'rgb( 31, 120, 180)' fill-opacity = '0.250000' points = '600.2,255.4 600.2,662.4 602.1,662.4 602.1,253.6 '/>
		<polygon fill = 'rgb( 31, 120, 180)' fill-opacity = '0.250000' points = '602.1,253.6 602.1,662.4 603.9,662.4 603.9,251.7 '/>
		<polygon fill = 'rgb( 31, 120, 180)' fill-opacity = '0.250000' points = '603.9,251.7 603.9,662.4 605.7,662.4 605.7,249.7 '/>
		<polygon fill = 'rgb( 31, 120, 180)' fill-opacity = '0.250000' points = '605.7,249.7 605.7,662.4 607.6,662.4 607.6,247.8 '/>
		<polygon fill = 'rgb( 31, 120, 180)' fill-opacity = '0.250000' points = '607.6,247.8 607.6,662.4 609.4,662.4 609.4,245.8 '/>
		<polygon fill = 'rgb( 31, 120, 180)' fill-opacity = '0.250000' points = '609.4,245.8 609.4,662.4 611.2,662.4 611.2,243.8 '/>
		<polygon fill = 'rgb( 31, 120, 180)' fill-opacity = '0.250000' points = '611.2,243.8 611.2,662.4 613.1,662.4 613.1,241.9 '/>
		<polygon fill = 'rgb( 31, 120, 180)' fill-opacity = '0.250000' points = '613.1,241.9 613.1,662.4 614.9,662.4 614.9,240.0 '/>
		<polygon fill = 'rgb( 31, 120, 180)' fill-opacity = '0.250000' points = '614.9,240.0 614.9,662.4 616.7,662.4 616.7,238.2 '/>
		<polygon fill = 'rgb( 31, 120, 180)' fill-opacity = '0.250000' points = '616.7,238.2 616.7,662.4 618.6,662.4 618.6,236.4 '/>
		<polygon fill = 'rgb( 31, 120, 180)' fill-opacity = '0.250000' points = '618.6,236.4 618.6,662.4 620.4,662.4 620.4,234.7 '/>
		<polygon fill = 'rgb( 31, 120, 180)' fill-opacity = '0.250000' points = '620.4,234.7 620.4,662.4 622.3,662.4 622.3,233.1 '/>
		<polygon fill = 'rgb( 31, 120, 180)' fill-opacity = '0.250000' points = '622.3,233.1 622.3,662.4 624.1,662.4 624.1,231.5 '/>
		<polygon fill = 'rgb( 31, 120, 180)' fill-opacity = '0.250000' points = '624.1,231.5 624.1,662.4 625.9,662.4 625.9,230.0 '/>
		<polygon fill = 'rgb( 31, 120, 180)' fill-opacity = '0.250000' points = '625.9,230.0 625.9,662.4 627.8,662.4 627.8,228.5 '/>
		<polygon fill = 'rgb( 31, 120, 180)' fill-opacity = '0.250000' points = '627.8,228.5 627.8,662.4 629.6,662.4 629.6,227.1 '/>
		<polygon fill = 'rgb( 31, 120, 180)' fill-opacity = '0.250000' points = '629.6,227.1 629.6,662.4 631.4,662.4 631.4,225.6 '/>
		<polygon fill = 'rgb( 31, 120, 180)' fill-opacity = '0.250000' points = '631.4,225.6 631.4,662.4 633.3,662.4 633.3,224.1 '/>
		<polygon fill = 'rgb( 31, 120, 180)' fill-opacity = '0.250000' points = '633.3,224.1 633.3,662.4 635.1,662.4 635.1,222.5 '/>
		<polygon fill = 'rgb( 31, 120, 180)' fill-opacity = '0.250000' points = '635.1,222.5 635.1,662.4 637.0,662.4 637.0,220.8 '/>
		<polygon fill = 'rgb( 31, 120, 180)' fill-opacity = '0.250000' points = '637.0,220.8 637.0,662.4 638.8,662.4 638.8,218.9 '/>
		<polygon fill = 'rgb( 31, 120, 180)' fill-opacity = '0.250000' points = '638.8,218.9 638.8,662.4 640.6,662.4 640.6,216.8 '/>
		<polygon fill = 'rgb( 31, 120, 180)' fill-opacity = '0.250000' points = '640.6,216.8 640.6,662.4 642.5,662.4 642.5,214.5 '/>
		<polygon fill = 'rgb( 31, 120, 180)' fill-opacity = '0.250000' points = '642.5,214.5 642.5,662.4 644.3,662.4 644.3,211.8 '/>
		<polygon fill = 'rgb( 31, 120, 180)' fill-opacity = '0.250000' points = '644.3,211.8 644.3,662.4 646.1,662.4 646.1,208.9 '/>
		<polygon fill = 'rgb( 31, 120, 180)' fill-opacity = '0.250000' points = '646.1,208.9 646.1,662.4 648.0,662.4 648.0,205.5 '/>
		<polygon fill = 'rgb( 31, 120, 180)' fill-opacity = '0.250000' points = '648.0,205.5 648.0,662.4 649.8,662.4 649.8,201.9 '/>
		<polygon fill = 'rgb( 31, 120, 180)' fill-opacity = '0.250000' points = '649.8,201.9 649.8,662.4 651.7,662.4 651.7,197.8 '/>
		<polygon fill = 'rgb( 31, 120, 180)' fill-opacity = '0.250000' points = '651.7,197.8 651.7,662.4 653.5,662.4 653.5,193.4 '/>
		<polygon fill = 'rgb( 31, 120, 180)' fill-opacity = '0.250000' points = '653.5,193.4 653.5,662.4 655.3,662.4 655.3,188.7 '/>
		<polygon fill = 'rgb( 31, 120, 180)' fill-opacity = '0.250000' points = '655.3,188.7 655.3,662.4 657.2,662.4 657.2,183.6 '/>
		<polygon fill = 'rgb( 31, 120, 180)' fill-opacity = '0.250000' points = '657.2,183.6 657.2,662.4 659.0,662.4 659.0,178.4 '/>
		<polygon fill = 'rgb( 31, 120, 180)' fill-opacity = '0.250000' points = '659.0,178.4 659.0,662.4 660.8,662.4 660.8,173.0 '/>
		<polygon fill = 'rgb( 31, 120, 180)' fill-opacity = '0.250000' points = '660.8,173.0 660.8,662.4 662.7,662.4 662.7,167.5 '/>
		<polygon fill = 'rgb( 31, 120, 180)' fill-opacity = '0.250000' points = '662.7,167.5 662.7,662.4 664.5,662.4 664.5,162.0 '/>
		<polygon fill = 'rgb( 31, 120, 180)' fill-opacity = '0.250000' points = '664.5,162.0 664.5,662.4 666.4,662.4 666.4,156.6 '/>
		<polygon fill = 'rgb( 31, 120, 180)' fill-opacity = '0.250000' points = '666.4,156.6 666.4,662.4 668.2,662.4 668.2,151.4 '/>
		<polygon fill = 'rgb( 31, 120, 180)' fill-opacity = '0.250000' points = '668.2,151.4 668.2,662.4 670.0,662.4 670.0,146.5 '/>
		<polygon fill = 'rgb( 31, 120, 180)' fill-opacity = '0.250000' points = '670.0,146.5 670.0,662.4 671.9,662.4 671.9,142.0 '/>
		<polygon fill = 'rgb( 31, 120, 180)' fill-opacity = '0.250000' points = '671.9,142.0 671.9,662.4 673.7,662.4 673.7,137.9 '/>
		<polygon fill = 'rgb( 31, 120, 180)' fill-opacity = '0.250000' points = '673.7,137.9 673.7,662.4 675.5,662.4 675.5,134.5 '/>
		<polygon fill = 'rgb( 31, 120, 180)' fill-opacity = '0.250000' points = '675.5,134.5 675.5,662.4 677.4,662.4 677.4,131.6 '/>
		<polygon fill = 'rgb( 31, 120, 180)' fill-opacity = '0.250000' points = '677.4,131.6 677.4,662.4 679.2,662.4 679.2,129.4 '/>
		<polygon fill = 'rgb( 31, 120, 180)' fill-opacity = '0.250000' points = '679.2,129.4 679.2,662.4 681.1,662.4 681.1,127.8 '/>
		<polygon fill = 'rgb( 31, 120, 180)' fill-opacity = '0.250000' points = '681.1,127.8 681.1,662.4 682.9,662.4 682.9,127.0 '/>
		<polygon fill = 'rgb( 31, 120, 180)' fill-opacity = '0.250000' points = '682.9,127.0 682.9,662.4 684.7,662.4 684.7,126.7 '/>
		<polygon fill = 'rgb( 31, 120, 180)' fill-opacity = '0.250000' points = '684.7,126.7 684.7,662.4 686.6,662.4 686.6,127.1 '/>
		<polygon fill = 'rgb( 31, 120, 180)' fill-opacity = '0.250000' points = '686.6,127.1 686.6,662.4 688.4,662.4 688.4,128.0 '/>
		<polygon fill = 'rgb( 31, 120, 180)' fill-opacity = '0.250000' points = '688.4,128.0 688.4,662.4 690.2,662.4 690.2,129.3 '/>
		<polygon fill = 'rgb( 31, 120, 180)' fill-opacity = '0.250000' points = '690.2,129.3 690.2,662.4 692.1,662.4 692.1,131.0 '/>
		<polygon fill = 'rgb( 31, 120, 180)' fill-opacity = '0.250000' points = '692.1,131.0 692.1,662.4 693.9,662.4 693.9,133.0 '/>
		<polygon fill = 'rgb( 31, 120, 180)' fill-opacity = '0.250000' points = '693.9,133.0 693.9,662.4 695.8,662.4 695.8,135.1 '/>
		<polygon fill = 'rgb( 31, 120, 180)' fill-opacity = '0.250000' points = '695.8,135.1 695.8,662.4 697.6,662.4 697.6,137.2 '/>
		<polygon fill = 'rgb( 31, 120, 180)' fill-opacity = '0.250000' points = '697.6,137.2 697.6,662.4 699.4,662.4 699.4,139.2 '/>
		<polygon fill = 'rgb( 31, 120, 180)' fill-opacity = '0.250000' points = '699.4,139.2 699.4,662.4 701.3,662.4 701.3,140.9 '/>
		<polygon fill = 'rgb( 31, 120, 180)' fill-opacity = '0.250000' points = '701.3,140.9 701.3,662.4 703.1,662.4 703.1,142.4 '/>
		<polygon fill = 'rgb( 31, 120, 180)' fill-opacity = '0.250000' points = '703.1,142.4 703.1,662.4 704.9,662.4 704.9,143.5 '/>
		<polygon fill = 'rgb( 31, 120, 180)' fill-opacity = '0.250000' points = '704.9,143.5 704.9,662.4 706.8,662.4 706.8,144.1 '/>
		<polygon fill = 'rgb( 31, 120, 180)' fill-opacity = '0.250000' points = '706.8,144.1 706.8,662.4 708.6,662.4 708.6,144.2 '/>
		<polygon fill = 'rgb( 31, 120, 180)' fill-opacity = '0.250000' points = '708.6,144.2 708.6,662.4 710.4,662.4 710.4,143.8 '/>
		<polygon fill = 'rgb( 31, 120, 180)' fill-opacity = '0.250000' points = '710.4,143.8 710.4,662.4 712.3,662.4 712.3,142.9 '/>
		<polygon fill = 'rgb( 31, 120, 180)' fill-opacity = '0.250000' points = '712.3,142.9 712.3,662.4 714.1,662.4 714.1,141.4 '/>
		<polygon fill = 'rgb( 31, 120, 180)' fill-opacity = '0.250000' points = '714.1,141.4 714.1,662.4 716.0,662.4 716.0,139.4 '/>
		<polygon fill = 'rgb( 31, 120, 180)' fill-opacity = '0.250000' points = '716.0,139.4 716.0,662.4 717.8,662.4 717.8,137.0 '/>
		<polygon fill = 'rgb( 31, 120, 180)' fill-opacity = '0.250000' points = '717.8,137.0 717.8,662.4 719.6,662.4 719.6,134.2 '/>
		<polygon fill = 'rgb( 31, 120, 180)' fill-opacity = '0.250000' points = '719.6,134.2 719.6,662.4 721.5,662.4 721.5,131.1 '/>
		<polygon fill = 'rgb( 31, 120, 180)' fill-opacity = '0.250000' points = '721.5,131.1 721.5,662.4 723.3,662.4 723.3,127.7 '/>
		<polygon fill = 'rgb( 31, 120, 180)' fill-opacity = '0.250000' points = '723.3,127.7 723.3,662.4 725.1,662.4 725.1,124.3 '/>
		<polygon fill = 'rgb( 31, 120, 180)' fill-opacity = '0.250000' points = '725.1,124.3 725.1,662.4 727.0,662.4 727.0,120.8 '/>
		<polygon fill = 'rgb( 31, 120, 180)' fill-opacity = '0.250000' points = '727.0,120.8 727.0,662.4 728.8,662.4 728.8,117.3 '/>
		<polygon fill = 'rgb( 31, 120, 180)' fill-opacity = '0.250000' points = '728.8,117.3 728.8,662.4 730.7,662.4 730.7,114.0 '/>
		<polygon fill = 'rgb( 31, 120, 180)' fill-opacity = '0.250000' points = '730.7,114.0 730.7,662.4 732.5,662.4 732.5,110.9 '/>
		<polygon fill = 'rgb( 31, 120, 180)' fill-opacity = '0.250000' points = '732.5,110.9 732.5,662.4 734.3,662.4 734.3,108.0 '/>
		<polygon fill = 'rgb( 31, 120, 180)' fill-opacity = '0.250000' points = '734.3,108.0 734.3,662.4 736.2,662.4 736.2,105.6 '/>
		<polygon fill = 'rgb( 31, 120, 180)' fill-opacity = '0.250000' points = '736.2,105.6 736.2,662.4 738.0,662.4 738.0,103.5 '/>
		<polygon fill = 'rgb( 31, 120, 180)' fill-opacity = '0.250000' points = '738.0,103.5 738.0,662.4 739.8,662.4 739.8,101.9 '/>
		<polygon fill = 'rgb( 31, 120, 180)' fill-opacity = '0.250000' points = '739.8,101.9 739.8,662.4 741.7,662.4 741.7,100.8 '/>
		<polygon fill = 'rgb( 31, 120, 180)' fill-opacity = '0.250000' points = '741.7,100.8 741.7,662.4 743.5,662.4 743.5,100.2 '/>
		<polygon fill = 'rgb( 31, 120, 180)' fill-opacity = '0.250000' points = '743.5,100.2 743.5,662.4 745.4,662.4 745.4,100.2 '/>
		<polygon fill = 'rgb( 31, 120, 180)' fill-opacity = '0.250000' points = '745.4,100.2 745.4,662.4 747.2,662.4 747.2,100.7 '/>
		<polygon fill = 'rgb( 31, 120, 180)' fill-opacity = '0.250000' points = '747.2,100.7 747.2,662.4 749.0,662.4 749.0,101.7 '/>
		<polygon fill = 'rgb( 31, 120, 180)' fill-opacity = '0.250000' points = '749.0,101.7 749.0,662.4 750.9,662.4 750.9,103.4 '/>
		<polygon fill = 'rgb( 31, 120, 180)' fill-opacity = '0.250000' points = '750.9,103.4 750.9,662.4 752.7,662.4 752.7,105.5 '/>
		<polygon fill = 'rgb( 31, 120, 180)' fill-opacity = '0.250000' points = '752.7,105.5 752.7,662.4 754.5,662.4 754.5,108.3 '/>
		<polygon fill = 'rgb( 31, 120, 180)' fill-opacity = '0.250000' points = '754.5,108.3 754.5,662.4 756.4,662.4 756.4,111.6 '/>
		<polygon fill = 'rgb( 31, 120, 180)' fill-opacity = '0.250000' points = '756.4,111.6 756.4,662.4 758.2,662.4 758.2,115.4 '/>
		<polygon fill = 'rgb( 31, 120, 180)' fill-opacity = '0.250000' points = '758.2,115.4 758.2,662.4 760.1,662.4 760.1,119.7 '/>
		<polygon fill = 'rgb( 31, 120, 180)' fill-opacity = '0.250000' points = '760.1,119.7 760.1,662.4 761.9,662.4 761.9,124.6 '/>
		<polygon fill = 'rgb( 31, 120, 180)' fill-opacity = '0.250000' points = '761.9,124.6 761.9,662.4 763.7,662.4 763.7,130.0 '/>
		<polygon fill = 'rgb( 31, 120, 180)' fill-opacity = '0.250000' points = '763.7,130.0 763.7,662.4 765.6,662.4 765.6,136.0 '/>
		<polygon fill = 'rgb( 31, 120, 180)' fill-opacity = '0.250000' points = '765.6,136.0 765.6,662.4 767.4,662.4 767.4,142.4 '/>
		<polygon fill = 'rgb( 31, 120, 180)' fill-opacity = '0.250000' points = '767.4,142.4 767.4,662.4 769.2,662.4 769.2,149.3 '/>
		<polygon fill = 'rgb( 31, 120, 180)' fill-opacity = '0.250000' points = '769.2,149.3 769.2,662.4 771.1,662.4 771.1,156.7 '/>
		<polygon fill = 'rgb( 31, 120, 180)' fill-opacity = '0.250000' points = '771.1,156.7 771.1,662.4 772.9,662.4 772.9,164.5 '/>
		<polygon fill = 'rgb( 31, 120, 180)' fill-opacity = '0.250000' points = '772.9,164.5 772.9,662.4 774.8,662.4 774.8,172.7 '/>
		<polygon fill = 'rgb( 31, 120, 180)' fill-opacity = '0.250000' points = '774.8,172.7 774.8,662.4 776.6,662.4 776.6,181.4 '/>
		<polygon fill = 'rgb( 31, 120, 180)' fill-opacity = '0.250000' points = '776.6,181.4 776.6,662.4 778.4,662.4 778.4,190.4 '/>
		<polygon fill = 'rgb( 31, 120, 180)' fill-opacity = '0.250000' points = '778.4,190.4 778.4,662.4 780.3,662.4 780.3,199.7 '/>
		<polygon fill = 'rgb( 31, 120, 180)' fill-opacity = '0.250000' points = '780.3,199.7 780.3,662.4 782.1,662.4 782.1,209.3 '/>
		<polygon fill = 'rgb( 31, 120, 180)' fill-opacity = '0.250000' points = '782.1,209.3 782.1,662.4 783.9,662.4 783.9,219.2 '/>
		<polygon fill = 'rgb( 31, 120, 180)' fill-opacity = '0.250000' points = '783.9,219.2 783.9,662.4 785.8,662.4 785.8,229.2 '/>
		<polygon fill = 'rgb( 31, 120, 180)' fill-opacity = '0.250000' points = '785.8,229.2 785.8,662.4 787.6,662.4 787.6,239.5 '/>
		<polygon fill = 'rgb( 31, 120, 180)' fill-opacity = '0.250000' points = '787.6,239.5 787.6,662.4 789.5,662.4 789.5,249.8 '/>
		<polygon fill = 'rgb( 31, 120, 180)' fill-opacity = '0.250000' points = '789.5,249.8 789.5,662.4 791.3,662.4 791.3,260.3 '/>
		<polygon fill = 'rgb( 31, 120, 180)' fill-opacity = '0.250000' points = '791.3,260.3 791.3,662.4 793.1,662.4 793.1,270.8 '/>
		<polygon fill = 'rgb( 31, 120, 180)' fill-opacity = '0.250000' points = '793.1,270.8 793.1,662.4 795.0,662.4 795.0,281.3 '/>
		<polygon fill = 'rgb( 31, 120, 180)' fill-opacity = '0.250000' points = '795.0,281.3 795.0,662.4 796.8,662.4 796.8,291.8 '/>
		<polygon fill = 'rgb( 31, 120, 180)' fill-opacity = '0.250000' points = '796.8,291.8 796.8,662.4 798.6,662.4 798.6,302.3 '/>
		<polygon fill = 'rgb( 31, 120, 180)' fill-opacity = '0.250000' points = '798.6,302.3 798.6,662.4 800.5,662.4 800.5,312.8 '/>
		<polygon fill = 'rgb( 31, 120, 180)' fill-opacity = '0.250000' points = '800.5,312.8 800.5,662.4 802.3,662.4 802.3,323.1 '/>
		<polygon fill = 'rgb( 31, 120, 180)' fill-opacity = '0.250000' points = '802.3,323.1 802.3,662.4 804.2,662.4 804.2,333.4 '/>
		<polygon fill = 'rgb( 31, 120, 180)' fill-opacity = '0.250000' points = '804.2,333.4 804.2,662.4 806.0,662.4 806.0,343.6 '/>
		<polygon fill = 'rgb( 31, 120, 180)' fill-opacity = '0.250000' points = '806.0,343.6 806.0,662.4 807.8,662.4 807.8,353.7 '/>
		<polygon fill = 'rgb( 31, 120, 180)' fill-opacity = '0.250000' points = '807.8,353.7 807.8,662.4 809.7,662.4 809.7,363.7 '/>
		<polygon fill = 'rgb( 31, 120, 180)' fill-opacity = '0.250000' points = '809.7,363.7 809.7,662.4 811.5,662.4 811.5,373.6 '/>
		<polygon fill = 'rgb( 31, 120, 180)' fill-opacity = '0.250000' points = '811.5,373.6 811.5,662.4 813.3,662.4 813.3,383.3 '/>
		<polygon fill = 'rgb( 31, 120, 180)' fill-opacity = '0.250000' points = '813.3,383.3 813.3,662.4 815.2,662.4 815.2,392.9 '/>
		<polygon fill = 'rgb( 31, 120, 180)' fill-opacity = '0.250000' points = '815.2,392.9 815.2,662.4 817.0,662.4 817.0,402.3 '/>
		<polygon fill = 'rgb( 31, 120, 180)' fill-opacity = '0.250000' points = '817.0,402.3 817.0,662.4 818.8,662.4 818.8,411.5 '/>
		<polygon fill = 'rgb( 31, 120, 180)' fill-opacity = '0.250000' points = '818.8,411.5 818.8,662.4 820.7,662.4 820.7,420.5 '/>
		<polygon fill = 'rgb( 31, 120, 180)' fill-opacity = '0.250000' points = '820.7,420.5 820.7,662.4 822.5,662.4 822.5,429.3 '/>
		<polygon fill = 'rgb( 31, 120, 180)' fill-opacity = '0.250000' points = '822.5,429.3 822.5,662.4 824.4,662.4 824.4,437.8 '/>
		<polygon fill = 'rgb( 31, 120, 180)' fill-opacity = '0.250000' points = '824.4,437.8 824.4,662.4 826.2,662.4 826.2,446.1 '/>
		<polygon fill = 'rgb( 31, 120, 180)' fill-opacity = '0.250000' points = '826.2,446.1 826.2,662.4 828.0,662.4 828.0,454.0 '/>
		<polygon fill = 'rgb( 31, 120, 180)' fill-opacity = '0.250000' points = '828.0,454.0 828.0,662.4 829.9,662.4 829.9,461.6 '/>
		<polygon fill = 'rgb( 31, 120, 180)' fill-opacity = '0.250000' points = '829.9,461.6 829.9,662.4 831.7,662.4 831.7,468.9 '/>
		<polygon fill = 'rgb( 31, 120, 180)' fill-opacity = '0.250000' points = '831.7,468.9 831.7,662.4 833.5,662.4 833.5,475.8 '/>
		<polygon fill = 'rgb( 31, 120, 180)' fill-opacity = '0.250000' points = '833.5,475.8 833.5,662.4 835.4,662.4 835.4,482.3 '/>
		<polygon fill = 'rgb( 31, 120, 180)' fill-opacity = '0.250000' points = '835.4,482.3 835.4,662.4 837.2,662.4 837.2,488.3 '/>
		<polygon fill = 'rgb( 31, 120, 180)' fill-opacity = '0.250000' points = '837.2,488.3 837.2,662.4 839.1,662.4 839.1,494.0 '/>
		<polygon fill = 'rgb( 31, 120, 180)' fill-opacity = '0.250000' points = '839.1,494.0 839.1,662.4 840.9,662.4 840.9,499.2 '/>
		<polygon fill = 'rgb( 31, 120, 180)' fill-opacity = '0.250000' points = '840.9,499.2 840.9,662.4 842.7,662.4 842.7,504.1 '/>
		<polygon fill = 'rgb( 31, 120, 180)' fill-opacity = '0.250000' points = '842.7,504.1 842.7,662.4 844.6,662.4 844.6,508.5 '/>
		<polygon fill = 'rgb( 31, 120, 180)' fill-opacity = '0.250000' points = '844.6,508.5 844.6,662.4 846.4,662.4 846.4,512.5 '/>
		<polygon fill = 'rgb( 31, 120, 180)' fill-opacity = '0.250000' points = '846.4,512.5 846.4,662.4 848.2,662.4 848.2,516.1 '/>
		<polygon fill = 'rgb( 31, 120, 180)' fill-opacity = '0.250000' points = '848.2,516.1 848.2,662.4 850.1,662.4 850.1,519.4 '/>
		<polygon fill = 'rgb( 31, 120, 180)' fill-opacity = '0.250000' points = '850.1,519.4 850.1,662.4 851.9,662.4 851.9,522.3 '/>
		<polygon fill = 'rgb( 31, 120, 180)' fill-opacity = '0.250000' points = '851.9,522.3 851.9,662.4 853.8,662.4 853.8,524.9 '/>
		<polygon fill = 'rgb( 31, 120, 180)' fill-opacity = '0.250000' points = '853.8,524.9 853.8,662.4 855.6,662.4 855.6,527.2 '/>
		<polygon fill = 'rgb( 31, 120, 180)' fill-opacity = '0.250000' points = '855.6,527.2 855.6,662.4 857.4,662.4 857.4,529.3 '/>
		<polygon fill = 'rgb( 31, 120, 180)' fill-opacity = '0.250000' points = '857.4,529.3 857.4,662.4 859.3,662.4 859.3,531.2 '/>
		<polygon fill = 'rgb( 31, 120, 180)' fill-opacity = '0.250000' points = '859.3,531.2 859.3,662.4 861.1,662.4 861.1,532.9 '/>
		<polygon fill = 'rgb( 31, 120, 180)' fill-opacity = '0.250000' points = '861.1,532.9 861.1,662.4 862.9,662.4 862.9,534.4 '/>
		<polygon fill = 'rgb( 31, 120, 180)' fill-opacity = '0.250000' points = '862.9,534.4 862.9,662.4 864.8,662.4 864.8,535.8 '/>
		<polygon fill = 'rgb( 31, 120, 180)' fill-opacity = '0.250000' points = '864.8,535.8 864.8,662.4 866.6,662.4 866.6,537.2 '/>
		<polygon fill = 'rgb( 31, 120, 180)' fill-opacity = '0.250000' points = '866.6,537.2 866.6,662.4 868.5,662.4 868.5,538.4 '/>
		<polygon fill = 'rgb( 31, 120, 180)' fill-opacity = '0.250000' points = '868.5,538.4 868.5,662.4 870.3,662.4 870.3,539.6 '/>
		<polygon fill = 'rgb( 31, 120, 180)' fill-opacity = '0.250000' points = '870.3,539.6 870.3,662.4 872.1,662.4 872.1,540.9 '/>
		<polygon fill = 'rgb( 31, 120, 180)' fill-opacity = '0.250000' points = '872.1,540.9 872.1,662.4 874.0,662.4 874.0,542.1 '/>
		<polygon fill = 'rgb( 31, 120, 180)' fill-opacity = '0.250000' points = '874.0,542.1 874.0,662.4 875.8,662.4 875.8,543.3 '/>
		<polygon fill = 'rgb( 31, 120, 180)' fill-opacity = '0.250000' points = '875.8,543.3 875.8,662.4 877.6,662.4 877.6,544.6 '/>
		<polygon fill = 'rgb( 31, 120, 180)' fill-opacity = '0.250000' points = '877.6,544.6 877.6,662.4 879.5,662.4 879.5,545.9 '/>
		<polygon fill = 'rgb( 31, 120, 180)' fill-opacity = '0.250000' points = '879.5,545.9 879.5,662.4 881.3,662.4 881.3,547.3 '/>
		<polygon fill = 'rgb( 31, 120, 180)' fill-opacity = '0.250000' points = '881.3,547.3 881.3,662.4 883.2,662.4 883.2,548.8 '/>
		<polygon fill = 'rgb( 31, 120, 180)' fill-opacity = '0.250000' points = '883.2,548.8 883.2,662.4 885.0,662.4 885.0,550.3 '/>
		<polygon fill = 'rgb( 31, 120, 180)' fill-opacity = '0.250000' points = '885.0,550.3 885.0,662.4 886.8,662.4 886.8,551.9 '/>
		<polygon fill = 'rgb( 31, 120, 180)' fill-opacity = '0.250000' points = '886.8,551.9 886.8,662.4 888.7,662.4 888.7,553.6 '/>
		<polygon fill = 'rgb( 31, 120, 180)' fill-opacity = '0.250000' points = '888.7,553.6 888.7,662.4 890.5,662.4 890.5,555.4 '/>
		<polygon fill = 'rgb( 31, 120, 180)' fill-opacity = '0.250000' points = '890.5,555.4 890.5,662.4 892.3,662.4 892.3,557.2 '/>
		<polygon fill = 'rgb( 31, 120, 180)' fill-opacity = '0.250000' points = '892.3,557.2 892.3,662.4 894.2,662.4 894.2,559.2 '/>
		<polygon fill = 'rgb( 31, 120, 180)' fill-opacity = '0.250000' points = '894.2,559.2 894.2,662.4 896.0,662.4 896.0,561.1 '/>
		<polygon fill = 'rgb( 31, 120, 180)' fill-opacity = '0.250000' points = '896.0,561.1 896.0,662.4 897.9,662.4 897.9,563.2 '/>
		<polygon fill = 'rgb( 31, 120, 180)' fill-opacity = '0.250000' points = '897.9,563.2 897.9,662.4 899.7,662.4 899.7,565.2 '/>
		<polygon fill = 'rgb( 31, 120, 180)' fill-opacity = '0.250000' points = '899.7,565.2 899.7,662.4 901.5,662.4 901.5,567.3 '/>
		<polygon fill = 'rgb( 31, 120, 180)' fill-opacity = '0.250000' points = '901.5,567.3 901.5,662.4 903.4,662.4 903.4,569.4 '/>
		<polygon fill = 'rgb( 31, 120, 180)' fill-opacity = '0.250000' points = '903.4,569.4 903.4,662.4 905.2,662.4 905.2,571.5 '/>
		<polygon fill = 'rgb( 31, 120, 180)' fill-opacity = '0.250000' points = '905.2,571.5 905.2,662.4 907.0,662.4 907.0,573.6 '/>
		<polygon fill = 'rgb( 31, 120, 180)' fill-opacity = '0.250000' points = '907.0,573.6 907.0,662.4 908.9,662.4 908.9,575.7 '/>
		<polygon fill = 'rgb( 31, 120, 180)' fill-opacity = '0.250000' points = '908.9,575.7 908.9,662.4 910.7,662.4 910.7,577.7 '/>
		<polygon fill = 'rgb( 31, 120, 180)' fill-opacity = '0.250000' points = '910.7,577.7 910.7,662.4 912.5,662.4 912.5,579.6 '/>
		<polygon fill = 'rgb( 31, 120, 180)' fill-opacity = '0.250000' points = '912.5,579.6 912.5,662.4 914.4,662.4 914.4,581.5 '/>
		<polygon fill = 'rgb( 31, 120, 180)' fill-opacity = '0.250000' points = '914.4,581.5 914.4,662.4 916.2,662.4 916.2,583.3 '/>
		<polygon fill = 'rgb( 31, 120, 180)' fill-opacity = '0.250000' points = '916.2,583.3 916.2,662.4 918.1,662.4 918.1,584.9 '/>
		<polygon fill = 'rgb( 31, 120, 180)' fill-opacity = '0.250000' points = '918.1,584.9 918.1,662.4 919.9,662.4 919.9,586.5 '/>
		<polygon fill = 'rgb( 31, 120, 180)' fill-opacity = '0.250000' points = '919.9,586.5 919.9,662.4 921.7,662.4 921.7,587.9 '/>
		<polygon fill = 'rgb( 31, 120, 180)' fill-opacity = '0.250000' points = '921.7,587.9 921.7,662.4 923.6,662.4 923.6,589.2 '/>
		<polygon fill = 'rgb( 31, 120, 180)' fill-opacity = '0.250000' points = '923.6,589.2 923.6,662.4 925.4,662.4 925.4,590.4 '/>
		<polygon fill = 'rgb( 31, 120, 180)' fill-opacity = '0.250000' points = '925.4,590.4 925.4,662.4 927.2,662.4 927.2,591.4 '/>
	</g>
</g>
	</g>
	<g id="gnuplot_plot_3" ><title>Point estimate</title>
<g fill="none" color="white" stroke="rgb( 31, 120, 180)" stroke-width="2.00" stroke-linecap="butt" stroke-linejoin="miter">
</g>
<g fill="none" color="black" stroke="currentColor" stroke-width="2.00" stroke-linecap="butt" stroke-linejoin="miter">
	<g transform="translate(1089.0,103.0)" stroke="none" fill="black" font-family="Helvetica" font-size="12.00"  text-anchor="start">
		<text><tspan font-family="Helvetica" >Point estimate</tspan></text>
	</g>
</g>
<g fill="none" color="black" stroke="currentColor" stroke-width="2.00" stroke-linecap="butt" stroke-linejoin="miter">
	<path stroke='rgb( 31, 120, 180)'  d='M1038.5,99.1 L1080.7,99.1 M642.2,662.4 L642.2,214.8  '/></g>
	</g>
<g fill="none" color="black" stroke="currentColor" stroke-width="2.00" stroke-linecap="butt" stroke-linejoin="miter">
</g>
<g fill="none" color="black" stroke="black" stroke-width="1.00" stroke-linecap="butt" stroke-linejoin="miter">
</g>
<g fill="none" color="black" stroke="currentColor" stroke-width="1.00" stroke-linecap="butt" stroke-linejoin="miter">
	<path stroke='black'  d='M96.8,54.1 L96.8,662.4 L1013.6,662.4 L1013.6,54.1 L96.8,54.1 Z  '/></g>
<g fill="none" color="black" stroke="currentColor" stroke-width="1.00" stroke-linecap="butt" stroke-linejoin="miter">
</g>
</g>
</svg>

