<?xml version="1.0" encoding="utf-8"  standalone="no"?>
<svg 
 viewBox="0 0 450 300"
 xmlns="http://www.w3.org/2000/svg"
 xmlns:xlink="http://www.w3.org/1999/xlink"
>

<title>Gnuplot</title>
<desc>Produced by GNUPLOT 5.0 patchlevel 6 </desc>

<g id="gnuplot_canvas">

<rect x="0" y="0" width="450" height="300" fill="none"/>
<defs>

	<circle id='gpDot' r='0.5' stroke-width='0.5'/>
	<path id='gpPt0' stroke-width='0.222' stroke='currentColor' d='M-1,0 h2 M0,-1 v2'/>
	<path id='gpPt1' stroke-width='0.222' stroke='currentColor' d='M-1,-1 L1,1 M1,-1 L-1,1'/>
	<path id='gpPt2' stroke-width='0.222' stroke='currentColor' d='M-1,0 L1,0 M0,-1 L0,1 M-1,-1 L1,1 M-1,1 L1,-1'/>
	<rect id='gpPt3' stroke-width='0.222' stroke='currentColor' x='-1' y='-1' width='2' height='2'/>
	<rect id='gpPt4' stroke-width='0.222' stroke='currentColor' fill='currentColor' x='-1' y='-1' width='2' height='2'/>
	<circle id='gpPt5' stroke-width='0.222' stroke='currentColor' cx='0' cy='0' r='1'/>
	<use xlink:href='#gpPt5' id='gpPt6' fill='currentColor' stroke='none'/>
	<path id='gpPt7' stroke-width='0.222' stroke='currentColor' d='M0,-1.33 L-1.33,0.67 L1.33,0.67 z'/>
	<use xlink:href='#gpPt7' id='gpPt8' fill='currentColor' stroke='none'/>
	<use xlink:href='#gpPt7' id='gpPt9' stroke='currentColor' transform='rotate(180)'/>
	<use xlink:href='#gpPt9' id='gpPt10' fill='currentColor' stroke='none'/>
	<use xlink:href='#gpPt3' id='gpPt11' stroke='currentColor' transform='rotate(45)'/>
	<use xlink:href='#gpPt11' id='gpPt12' fill='currentColor' stroke='none'/>
	<path id='gpPt13' stroke-width='0.222' stroke='currentColor' d='M0,1.330 L1.265,0.411 L0.782,-1.067 L-0.782,-1.076 L-1.265,0.411 z'/>
	<use xlink:href='#gpPt13' id='gpPt14' fill='currentColor' stroke='none'/>
	<filter id='textbox' filterUnits='objectBoundingBox' x='0' y='0' height='1' width='1'>
	  <feFlood flood-color='white' flood-opacity='1' result='bgnd'/>
	  <feComposite in='SourceGraphic' in2='bgnd' operator='atop'/>
	</filter>
	<filter id='greybox' filterUnits='objectBoundingBox' x='0' y='0' height='1' width='1'>
	  <feFlood flood-color='lightgrey' flood-opacity='1' result='grey'/>
	  <feComposite in='SourceGraphic' in2='grey' operator='atop'/>
	</filter>
</defs>
<g fill="none" color="white" stroke="currentColor" stroke-width="1.00" stroke-linecap="butt" stroke-linejoin="miter">
</g>
<g fill="none" color="black" stroke="currentColor" stroke-width="1.00" stroke-linecap="butt" stroke-linejoin="miter">
	<path stroke='black'  d='M96.8,242.4 L105.8,242.4  '/>	<g transform="translate(88.5,246.3)" stroke="none" fill="black" font-family="Helvetica" font-size="12.00"  text-anchor="end">
		<text><tspan font-family="Helvetica" > 0</tspan></text>
	</g>
</g>
<g fill="none" color="black" stroke="currentColor" stroke-width="1.00" stroke-linecap="butt" stroke-linejoin="miter">
	<path stroke='black'  d='M96.8,213.7 L105.8,213.7  '/>	<g transform="translate(88.5,217.6)" stroke="none" fill="black" font-family="Helvetica" font-size="12.00"  text-anchor="end">
		<text><tspan font-family="Helvetica" > 0.0005</tspan></text>
	</g>
</g>
<g fill="none" color="black" stroke="currentColor" stroke-width="1.00" stroke-linecap="butt" stroke-linejoin="miter">
	<path stroke='black'  d='M96.8,185.1 L105.8,185.1  '/>	<g transform="translate(88.5,189.0)" stroke="none" fill="black" font-family="Helvetica" font-size="12.00"  text-anchor="end">
		<text><tspan font-family="Helvetica" > 0.001</tspan></text>
	</g>
</g>
<g fill="none" color="black" stroke="currentColor" stroke-width="1.00" stroke-linecap="butt" stroke-linejoin="miter">
	<path stroke='black'  d='M96.8,156.4 L105.8,156.4  '/>	<g transform="translate(88.5,160.3)" stroke="none" fill="black" font-family="Helvetica" font-size="12.00"  text-anchor="end">
		<text><tspan font-family="Helvetica" > 0.0015</tspan></text>
	</g>
</g>
<g fill="none" color="black" stroke="currentColor" stroke-width="1.00" stroke-linecap="butt" stroke-linejoin="miter">
	<path stroke='black'  d='M96.8,127.8 L105.8,127.8  '/>	<g transform="translate(88.5,131.7)" stroke="none" fill="black" font-family="Helvetica" font-size="12.00"  text-anchor="end">
		<text><tspan font-family="Helvetica" > 0.002</tspan></text>
	</g>
</g>
<g fill="none" color="black" stroke="currentColor" stroke-width="1.00" stroke-linecap="butt" stroke-linejoin="miter">
	<path stroke='black'  d='M96.8,99.1 L105.8,99.1  '/>	<g transform="translate(88.5,103.0)" stroke="none" fill="black" font-family="Helvetica" font-size="12.00"  text-anchor="end">
		<text><tspan font-family="Helvetica" > 0.0025</tspan></text>
	</g>
</g>
<g fill="none" color="black" stroke="currentColor" stroke-width="1.00" stroke-linecap="butt" stroke-linejoin="miter">
	<path stroke='black'  d='M96.8,70.5 L105.8,70.5  '/>	<g transform="translate(88.5,74.4)" stroke="none" fill="black" font-family="Helvetica" font-size="12.00"  text-anchor="end">
		<text><tspan font-family="Helvetica" > 0.003</tspan></text>
	</g>
</g>
<g fill="none" color="black" stroke="currentColor" stroke-width="1.00" stroke-linecap="butt" stroke-linejoin="miter">
	<path stroke='black'  d='M96.8,41.8 L105.8,41.8  '/>	<g transform="translate(88.5,45.7)" stroke="none" fill="black" font-family="Helvetica" font-size="12.00"  text-anchor="end">
		<text><tspan font-family="Helvetica" > 0.0035</tspan></text>
	</g>
</g>
<g fill="none" color="black" stroke="currentColor" stroke-width="1.00" stroke-linecap="butt" stroke-linejoin="miter">
	<path stroke='black'  d='M135.5,242.4 L135.5,233.4  '/>	<g transform="translate(135.5,264.3)" stroke="none" fill="black" font-family="Helvetica" font-size="12.00"  text-anchor="middle">
		<text><tspan font-family="Helvetica" > 23</tspan></text>
	</g>
</g>
<g fill="none" color="black" stroke="currentColor" stroke-width="1.00" stroke-linecap="butt" stroke-linejoin="miter">
	<path stroke='black'  d='M200.3,242.4 L200.3,233.4  '/>	<g transform="translate(200.3,264.3)" stroke="none" fill="black" font-family="Helvetica" font-size="12.00"  text-anchor="middle">
		<text><tspan font-family="Helvetica" > 23.2</tspan></text>
	</g>
</g>
<g fill="none" color="black" stroke="currentColor" stroke-width="1.00" stroke-linecap="butt" stroke-linejoin="miter">
	<path stroke='black'  d='M265.0,242.4 L265.0,233.4  '/>	<g transform="translate(265.0,264.3)" stroke="none" fill="black" font-family="Helvetica" font-size="12.00"  text-anchor="middle">
		<text><tspan font-family="Helvetica" > 23.4</tspan></text>
	</g>
</g>
<g fill="none" color="black" stroke="currentColor" stroke-width="1.00" stroke-linecap="butt" stroke-linejoin="miter">
	<path stroke='black'  d='M329.8,242.4 L329.8,233.4  '/>	<g transform="translate(329.8,264.3)" stroke="none" fill="black" font-family="Helvetica" font-size="12.00"  text-anchor="middle">
		<text><tspan font-family="Helvetica" > 23.6</tspan></text>
	</g>
</g>
<g fill="none" color="black" stroke="currentColor" stroke-width="1.00" stroke-linecap="butt" stroke-linejoin="miter">
	<path stroke='black'  d='M394.6,242.4 L394.6,233.4  '/>	<g transform="translate(394.6,264.3)" stroke="none" fill="black" font-family="Helvetica" font-size="12.00"  text-anchor="middle">
		<text><tspan font-family="Helvetica" > 23.8</tspan></text>
	</g>
</g>
<g fill="none" color="black" stroke="currentColor" stroke-width="1.00" stroke-linecap="butt" stroke-linejoin="miter">
</g>
<g fill="none" color="black" stroke="currentColor" stroke-width="1.00" stroke-linecap="butt" stroke-linejoin="miter">
	<path stroke='black'  d='M96.8,16.7 L96.8,242.4 L425.0,242.4 L425.0,16.7 L96.8,16.7 Z  '/></g>
<g fill="none" color="black" stroke="currentColor" stroke-width="1.00" stroke-linecap="butt" stroke-linejoin="miter">
	<g transform="translate(17.0,129.6) rotate(270)" stroke="none" fill="black" font-family="Helvetica" font-size="12.00"  text-anchor="middle">
		<text><tspan font-family="Helvetica" >Density (a.u.)</tspan></text>
	</g>
</g>
<g fill="none" color="black" stroke="currentColor" stroke-width="1.00" stroke-linecap="butt" stroke-linejoin="miter">
	<g transform="translate(260.9,291.3)" stroke="none" fill="black" font-family="Helvetica" font-size="12.00"  text-anchor="middle">
		<text><tspan font-family="Helvetica" >Average time (us)</tspan></text>
	</g>
</g>
<g fill="none" color="black" stroke="currentColor" stroke-width="1.00" stroke-linecap="butt" stroke-linejoin="miter">
</g>
	<g id="gnuplot_plot_1" ><title>PDF</title>
<g fill="none" color="black" stroke="currentColor" stroke-width="1.00" stroke-linecap="butt" stroke-linejoin="miter">
	<g stroke='none' shape-rendering='crispEdges'>
		<polygon fill = 'rgb( 31, 120, 180)' fill-opacity = '0.250000' points = '96.8,241.9 96.8,242.4 97.5,242.4 97.5,241.8 '/>
		<polygon fill = 'rgb( 31, 120, 180)' fill-opacity = '0.250000' points = '97.5,241.8 97.5,242.4 98.1,242.4 98.1,241.8 '/>
		<polygon fill = 'rgb( 31, 120, 180)' fill-opacity = '0.250000' points = '98.1,241.8 98.1,242.4 98.8,242.4 98.8,241.7 '/>
		<polygon fill = 'rgb( 31, 120, 180)' fill-opacity = '0.250000' points = '98.8,241.7 98.8,242.4 99.4,242.4 99.4,241.7 '/>
		<polygon fill = 'rgb( 31, 120, 180)' fill-opacity = '0.250000' points = '99.4,241.7 99.4,242.4 100.1,242.4 100.1,241.6 '/>
		<polygon fill = 'rgb( 31, 120, 180)' fill-opacity = '0.250000' points = '100.1,241.6 100.1,242.4 100.7,242.4 100.7,241.5 '/>
		<polygon fill = 'rgb( 31, 120, 180)' fill-opacity = '0.250000' points = '100.7,241.5 100.7,242.4 101.4,242.4 101.4,241.5 '/>
		<polygon fill = 'rgb( 31, 120, 180)' fill-opacity = '0.250000' points = '101.4,241.5 101.4,242.4 102.1,242.4 102.1,241.4 '/>
		<polygon fill = 'rgb( 31, 120, 180)' fill-opacity = '0.250000' points = '102.1,241.4 102.1,242.4 102.7,242.4 102.7,241.3 '/>
		<polygon fill = 'rgb( 31, 120, 180)' fill-opacity = '0.250000' points = '102.7,241.3 102.7,242.4 103.4,242.4 103.4,241.2 '/>
		<polygon fill = 'rgb( 31, 120, 180)' fill-opacity = '0.250000' points = '103.4,241.2 103.4,242.4 104.0,242.4 104.0,241.1 '/>
		<polygon fill = 'rgb( 31, 120, 180)' fill-opacity = '0.250000' points = '104.0,241.1 104.0,242.4 104.7,242.4 104.7,241.0 '/>
		<polygon fill = 'rgb( 31, 120, 180)' fill-opacity = '0.250000' points = '104.7,241.0 104.7,242.4 105.4,242.4 105.4,240.9 '/>
		<polygon fill = 'rgb( 31, 120, 180)' fill-opacity = '0.250000' points = '105.4,240.9 105.4,242.4 106.0,242.4 106.0,240.8 '/>
		<polygon fill = 'rgb( 31, 120, 180)' fill-opacity = '0.250000' points = '106.0,240.8 106.0,242.4 106.7,242.4 106.7,240.7 '/>
		<polygon fill = 'rgb( 31, 120, 180)' fill-opacity = '0.250000' points = '106.7,240.7 106.7,242.4 107.3,242.4 107.3,240.6 '/>
		<polygon fill = 'rgb( 31, 120, 180)' fill-opacity = '0.250000' points = '107.3,240.6 107.3,242.4 108.0,242.4 108.0,240.4 '/>
		<polygon fill = 'rgb( 31, 120, 180)' fill-opacity = '0.250000' points = '108.0,240.4 108.0,242.4 108.6,242.4 108.6,240.3 '/>
		<polygon fill = 'rgb( 31, 120, 180)' fill-opacity = '0.250000' points = '108.6,240.3 108.6,242.4 109.3,242.4 109.3,240.1 '/>
		<polygon fill = 'rgb( 31, 120, 180)' fill-opacity = '0.250000' points = '109.3,240.1 109.3,242.4 110.0,242.4 110.0,240.0 '/>
		<polygon fill = 'rgb( 31, 120, 180)' fill-opacity = '0.250000' points = '110.0,240.0 110.0,242.4 110.6,242.4 110.6,239.8 '/>
		<polygon fill = 'rgb( 31, 120, 180)' fill-opacity = '0.250000' points = '110.6,239.8 110.6,242.4 111.3,242.4 111.3,239.6 '/>
		<polygon fill = 'rgb( 31, 120, 180)' fill-opacity = '0.250000' points = '111.3,239.6 111.3,242.4 111.9,242.4 111.9,239.4 '/>
		<polygon fill = 'rgb( 31, 120, 180)' fill-opacity = '0.250000' points = '111.9,239.4 111.9,242.4 112.6,242.4 112.6,239.2 '/>
		<polygon fill = 'rgb( 31, 120, 180)' fill-opacity = '0.250000' points = '112.6,239.2 112.6,242.4 113.2,242.4 113.2,239.0 '/>
		<polygon fill = 'rgb( 31, 120, 180)' fill-opacity = '0.250000' points = '113.2,239.0 113.2,242.4 113.9,242.4 113.9,238.7 '/>
		<polygon fill = 'rgb( 31, 120, 180)' fill-opacity = '0.250000' points = '113.9,238.7 113.9,242.4 114.6,242.4 114.6,238.5 '/>
		<polygon fill = 'rgb( 31, 120, 180)' fill-opacity = '0.250000' points = '114.6,238.5 114.6,242.4 115.2,242.4 115.2,238.2 '/>
		<polygon fill = 'rgb( 31, 120, 180)' fill-opacity = '0.250000' points = '115.2,238.2 115.2,242.4 115.9,242.4 115.9,237.9 '/>
		<polygon fill = 'rgb( 31, 120, 180)' fill-opacity = '0.250000' points = '115.9,237.9 115.9,242.4 116.5,242.4 116.5,237.6 '/>
		<polygon fill = 'rgb( 31, 120, 180)' fill-opacity = '0.250000' points = '116.5,237.6 116.5,242.4 117.2,242.4 117.2,237.3 '/>
		<polygon fill = 'rgb( 31, 120, 180)' fill-opacity = '0.250000' points = '117.2,237.3 117.2,242.4 117.8,242.4 117.8,237.0 '/>
		<polygon fill = 'rgb( 31, 120, 180)' fill-opacity = '0.250000' points = '117.8,237.0 117.8,242.4 118.5,242.4 118.5,236.7 '/>
		<polygon fill = 'rgb( 31, 120, 180)' fill-opacity = '0.250000' points = '118.5,236.7 118.5,242.4 119.2,242.4 119.2,236.3 '/>
		<polygon fill = 'rgb( 31, 120, 180)' fill-opacity = '0.250000' points = '119.2,236.3 119.2,242.4 119.8,242.4 119.8,235.9 '/>
		<polygon fill = 'rgb( 31, 120, 180)' fill-opacity = '0.250000' points = '119.8,235.9 119.8,242.4 120.5,242.4 120.5,235.5 '/>
		<polygon fill = 'rgb( 31, 120, 180)' fill-opacity = '0.250000' points = '120.5,235.5 120.5,242.4 121.1,242.4 121.1,235.1 '/>
		<polygon fill = 'rgb( 31, 120, 180)' fill-opacity = '0.250000' points = '121.1,235.1 121.1,242.4 121.8,242.4 121.8,234.6 '/>
		<polygon fill = 'rgb( 31, 120, 180)' fill-opacity = '0.250000' points = '121.8,234.6 121.8,242.4 122.5,242.4 122.5,234.2 '/>
		<polygon fill = 'rgb( 31, 120, 180)' fill-opacity = '0.250000' points = '122.5,234.2 122.5,242.4 123.1,242.4 123.1,233.7 '/>
		<polygon fill = 'rgb( 31, 120, 180)' fill-opacity = '0.250000' points = '123.1,233.7 123.1,242.4 123.8,242.4 123.8,233.2 '/>
		<polygon fill = 'rgb( 31, 120, 180)' fill-opacity = '0.250000' points = '123.8,233.2 123.8,242.4 124.4,242.4 124.4,232.6 '/>
		<polygon fill = 'rgb( 31, 120, 180)' fill-opacity = '0.250000' points = '124.4,232.6 124.4,242.4 125.1,242.4 125.1,232.1 '/>
		<polygon fill = 'rgb( 31, 120, 180)' fill-opacity = '0.250000' points = '125.1,232.1 125.1,242.4 125.7,242.4 125.7,231.5 '/>
		<polygon fill = 'rgb( 31, 120, 180)' fill-opacity = '0.250000' points = '125.7,231.5 125.7,242.4 126.4,242.4 126.4,230.8 '/>
		<polygon fill = 'rgb( 31, 120, 180)' fill-opacity = '0.250000' points = '126.4,230.8 126.4,242.4 127.1,242.4 127.1,230.2 '/>
		<polygon fill = 'rgb( 31, 120, 180)' fill-opacity = '0.250000' points = '127.1,230.2 127.1,242.4 127.7,242.4 127.7,229.5 '/>
		<polygon fill = 'rgb( 31, 120, 180)' fill-opacity = '0.250000' points = '127.7,229.5 127.7,242.4 128.4,242.4 128.4,228.8 '/>
		<polygon fill = 'rgb( 31, 120, 180)' fill-opacity = '0.250000' points = '128.4,228.8 128.4,242.4 129.0,242.4 129.0,228.1 '/>
		<polygon fill = 'rgb( 31, 120, 180)' fill-opacity = '0.250000' points = '129.0,228.1 129.0,242.4 129.7,242.4 129.7,227.3 '/>
		<polygon fill = 'rgb( 31, 120, 180)' fill-opacity = '0.250000' points = '129.7,227.3 129.7,242.4 130.3,242.4 130.3,226.5 '/>
		<polygon fill = 'rgb( 31, 120, 180)' fill-opacity = '0.250000' points = '130.3,226.5 130.3,242.4 131.0,242.4 131.0,225.7 '/>
		<polygon fill = 'rgb( 31, 120, 180)' fill-opacity = '0.250000' points = '131.0,225.7 131.0,242.4 131.7,242.4 131.7,224.8 '/>
		<polygon fill = 'rgb( 31, 120, 180)' fill-opacity = '0.250000' points = '131.7,224.8 131.7,242.4 132.3,242.4 132.3,223.9 '/>
		<polygon fill = 'rgb( 31, 120, 180)' fill-opacity = '0.250000' points = '132.3,223.9 132.3,242.4 133.0,242.4 133.0,223.0 '/>
		<polygon fill = 'rgb( 31, 120, 180)' fill-opacity = '0.250000' points = '133.0,223.0 133.0,242.4 133.6,242.4 133.6,222.0 '/>
		<polygon fill = 'rgb( 31, 120, 180)' fill-opacity = '0.250000' points = '133.6,222.0 133.6,242.4 134.3,242.4 134.3,221.0 '/>
		<polygon fill = 'rgb( 31, 120, 180)' fill-opacity = '0.250000' points = '134.3,221.0 134.3,242.4 134.9,242.4 134.9,220.0 '/>
		<polygon fill = 'rgb( 31, 120, 180)' fill-opacity = '0.250000' points = '134.9,220.0 134.9,242.4 135.6,242.4 135.6,218.9 '/>
		<polygon fill = 'rgb( 31, 120, 180)' fill-opacity = '0.250000' points = '135.6,218.9 135.6,242.4 136.3,242.4 136.3,217.8 '/>
		<polygon fill = 'rgb( 31, 120, 180)' fill-opacity = '0.250000' points = '136.3,217.8 136.3,242.4 136.9,242.4 136.9,216.6 '/>
		<polygon fill = 'rgb( 31, 120, 180)' fill-opacity = '0.250000' points = '136.9,216.6 136.9,242.4 137.6,242.4 137.6,215.4 '/>
		<polygon fill = 'rgb( 31, 120, 180)' fill-opacity = '0.250000' points = '137.6,215.4 137.6,242.4 138.2,242.4 138.2,214.2 '/>
		<polygon fill = 'rgb( 31, 120, 180)' fill-opacity = '0.250000' points = '138.2,214.2 138.2,242.4 138.9,242.4 138.9,212.9 '/>
		<polygon fill = 'rgb( 31, 120, 180)' fill-opacity = '0.250000' points = '138.9,212.9 138.9,242.4 139.6,242.4 139.6,211.6 '/>
		<polygon fill = 'rgb( 31, 120, 180)' fill-opacity = '0.250000' points = '139.6,211.6 139.6,242.4 140.2,242.4 140.2,210.3 '/>
		<polygon fill = 'rgb( 31, 120, 180)' fill-opacity = '0.250000' points = '140.2,210.3 140.2,242.4 140.9,242.4 140.9,208.9 '/>
		<polygon fill = 'rgb( 31, 120, 180)' fill-opacity = '0.250000' points = '140.9,208.9 140.9,242.4 141.5,242.4 141.5,207.4 '/>
		<polygon fill = 'rgb( 31, 120, 180)' fill-opacity = '0.250000' points = '141.5,207.4 141.5,242.4 142.2,242.4 142.2,205.9 '/>
		<polygon fill = 'rgb( 31, 120, 180)' fill-opacity = '0.250000' points = '142.2,205.9 142.2,242.4 142.8,242.4 142.8,204.4 '/>
		<polygon fill = 'rgb( 31, 120, 180)' fill-opacity = '0.250000' points = '142.8,204.4 142.8,242.4 143.5,242.4 143.5,202.8 '/>
		<polygon fill = 'rgb( 31, 120, 180)' fill-opacity = '0.250000' points = '143.5,202.8 143.5,242.4 144.2,242.4 144.2,201.2 '/>
		<polygon fill = 'rgb( 31, 120, 180)' fill-opacity = '0.250000' points = '144.2,201.2 144.2,242.4 144.8,242.4 144.8,199.6 '/>
		<polygon fill = 'rgb( 31, 120, 180)' fill-opacity = '0.250000' points = '144.8,199.6 144.8,242.4 145.5,242.4 145.5,197.9 '/>
		<polygon fill = 'rgb( 31, 120, 180)' fill-opacity = '0.250000' points = '145.5,197.9 145.5,242.4 146.1,242.4 146.1,196.1 '/>
		<polygon fill = 'rgb( 31, 120, 180)' fill-opacity = '0.250000' points = '146.1,196.1 146.1,242.4 146.8,242.4 146.8,194.3 '/>
		<polygon fill = 'rgb( 31, 120, 180)' fill-opacity = '0.250000' points = '146.8,194.3 146.8,242.4 147.4,242.4 147.4,192.5 '/>
		<polygon fill = 'rgb( 31, 120, 180)' fill-opacity = '0.250000' points = '147.4,192.5 147.4,242.4 148.1,242.4 148.1,190.7 '/>
		<polygon fill = 'rgb( 31, 120, 180)' fill-opacity = '0.250000' points = '148.1,190.7 148.1,242.4 148.8,242.4 148.8,188.7 '/>
		<polygon fill = 'rgb( 31, 120, 180)' fill-opacity = '0.250000' points = '148.8,188.7 148.8,242.4 149.4,242.4 149.4,186.8 '/>
		<polygon fill = 'rgb( 31, 120, 180)' fill-opacity = '0.250000' points = '149.4,186.8 149.4,242.4 150.1,242.4 150.1,184.8 '/>
		<polygon fill = 'rgb( 31, 120, 180)' fill-opacity = '0.250000' points = '150.1,184.8 150.1,242.4 150.7,242.4 150.7,182.7 '/>
		<polygon fill = 'rgb( 31, 120, 180)' fill-opacity = '0.250000' points = '150.7,182.7 150.7,242.4 151.4,242.4 151.4,180.7 '/>
		<polygon fill = 'rgb( 31, 120, 180)' fill-opacity = '0.250000' points = '151.4,180.7 151.4,242.4 152.0,242.4 152.0,178.5 '/>
		<polygon fill = 'rgb( 31, 120, 180)' fill-opacity = '0.250000' points = '152.0,178.5 152.0,242.4 152.7,242.4 152.7,176.4 '/>
		<polygon fill = 'rgb( 31, 120, 180)' fill-opacity = '0.250000' points = '152.7,176.4 152.7,242.4 153.4,242.4 153.4,174.2 '/>
		<polygon fill = 'rgb( 31, 120, 180)' fill-opacity = '0.250000' points = '153.4,174.2 153.4,242.4 154.0,242.4 154.0,171.9 '/>
		<polygon fill = 'rgb( 31, 120, 180)' fill-opacity = '0.250000' points = '154.0,171.9 154.0,242.4 154.7,242.4 154.7,169.6 '/>
		<polygon fill = 'rgb( 31, 120, 180)' fill-opacity = '0.250000' points = '154.7,169.6 154.7,242.4 155.3,242.4 155.3,167.3 '/>
		<polygon fill = 'rgb( 31, 120, 180)' fill-opacity = '0.250000' points = '155.3,167.3 155.3,242.4 156.0,242.4 156.0,165.0 '/>
		<polygon fill = 'rgb( 31, 120, 180)' fill-opacity = '0.250000' points = '156.0,165.0 156.0,242.4 156.7,242.4 156.7,162.6 '/>
		<polygon fill = 'rgb( 31, 120, 180)' fill-opacity = '0.250000' points = '156.7,162.6 156.7,242.4 157.3,242.4 157.3,160.2 '/>
		<polygon fill = 'rgb( 31, 120, 180)' fill-opacity = '0.250000' points = '157.3,160.2 157.3,242.4 158.0,242.4 158.0,157.7 '/>
		<polygon fill = 'rgb( 31, 120, 180)' fill-opacity = '0.250000' points = '158.0,157.7 158.0,242.4 158.6,242.4 158.6,155.2 '/>
		<polygon fill = 'rgb( 31, 120, 180)' fill-opacity = '0.250000' points = '158.6,155.2 158.6,242.4 159.3,242.4 159.3,152.7 '/>
		<polygon fill = 'rgb( 31, 120, 180)' fill-opacity = '0.250000' points = '159.3,152.7 159.3,242.4 159.9,242.4 159.9,150.1 '/>
		<polygon fill = 'rgb( 31, 120, 180)' fill-opacity = '0.250000' points = '159.9,150.1 159.9,242.4 160.6,242.4 160.6,147.5 '/>
		<polygon fill = 'rgb( 31, 120, 180)' fill-opacity = '0.250000' points = '160.6,147.5 160.6,242.4 161.3,242.4 161.3,144.9 '/>
		<polygon fill = 'rgb( 31, 120, 180)' fill-opacity = '0.250000' points = '161.3,144.9 161.3,242.4 161.9,242.4 161.9,142.3 '/>
		<polygon fill = 'rgb( 31, 120, 180)' fill-opacity = '0.250000' points = '161.9,142.3 161.9,242.4 162.6,242.4 162.6,139.6 '/>
		<polygon fill = 'rgb( 31, 120, 180)' fill-opacity = '0.250000' points = '162.6,139.6 162.6,242.4 163.2,242.4 163.2,137.0 '/>
		<polygon fill = 'rgb( 31, 120, 180)' fill-opacity = '0.250000' points = '163.2,137.0 163.2,242.4 163.9,242.4 163.9,134.2 '/>
		<polygon fill = 'rgb( 31, 120, 180)' fill-opacity = '0.250000' points = '163.9,134.2 163.9,242.4 164.5,242.4 164.5,131.5 '/>
		<polygon fill = 'rgb( 31, 120, 180)' fill-opacity = '0.250000' points = '164.5,131.5 164.5,242.4 165.2,242.4 165.2,128.8 '/>
		<polygon fill = 'rgb( 31, 120, 180)' fill-opacity = '0.250000' points = '165.2,128.8 165.2,242.4 165.9,242.4 165.9,126.0 '/>
		<polygon fill = 'rgb( 31, 120, 180)' fill-opacity = '0.250000' points = '165.9,126.0 165.9,242.4 166.5,242.4 166.5,123.3 '/>
		<polygon fill = 'rgb( 31, 120, 180)' fill-opacity = '0.250000' points = '166.5,123.3 166.5,242.4 167.2,242.4 167.2,120.5 '/>
		<polygon fill = 'rgb( 31, 120, 180)' fill-opacity = '0.250000' points = '167.2,120.5 167.2,242.4 167.8,242.4 167.8,117.7 '/>
		<polygon fill = 'rgb( 31, 120, 180)' fill-opacity = '0.250000' points = '167.8,117.7 167.8,242.4 168.5,242.4 168.5,114.9 '/>
		<polygon fill = 'rgb( 31, 120, 180)' fill-opacity = '0.250000' points = '168.5,114.9 168.5,242.4 169.1,242.4 169.1,112.1 '/>
		<polygon fill = 'rgb( 31, 120, 180)' fill-opacity = '0.250000' points = '169.1,112.1 169.1,242.4 169.8,242.4 169.8,109.2 '/>
		<polygon fill = 'rgb( 31, 120, 180)' fill-opacity = '0.250000' points = '169.8,109.2 169.8,242.4 170.5,242.4 170.5,106.4 '/>
		<polygon fill = 'rgb( 31, 120, 180)' fill-opacity = '0.250000' points = '170.5,106.4 170.5,242.4 171.1,242.4 171.1,103.6 '/>
		<polygon fill = 'rgb( 31, 120, 180)' fill-opacity = '0.250000' points = '171.1,103.6 171.1,242.4 171.8,242.4 171.8,100.8 '/>
		<polygon fill = 'rgb( 31, 120, 180)' fill-opacity = '0.250000' points = '171.8,100.8 171.8,242.4 172.4,242.4 172.4,98.0 '/>
		<polygon fill = 'rgb( 31, 120, 180)' fill-opacity = '0.250000' points = '172.4,98.0 172.4,242.4 173.1,242.4 173.1,95.2 '/>
		<polygon fill = 'rgb( 31, 120, 180)' fill-opacity = '0.250000' points = '173.1,95.2 173.1,242.4 173.8,242.4 173.8,92.4 '/>
		<polygon fill = 'rgb( 31, 120, 180)' fill-opacity = '0.250000' points = '173.8,92.4 173.8,242.4 174.4,242.4 174.4,89.6 '/>
		<polygon fill = 'rgb( 31, 120, 180)' fill-opacity = '0.250000' points = '174.4,89.6 174.4,242.4 175.1,242.4 175.1,86.9 '/>
		<polygon fill = 'rgb( 31, 120, 180)' fill-opacity = '0.250000' points = '175.1,86.9 175.1,242.4 175.7,242.4 175.7,84.1 '/>
		<polygon fill = 'rgb( 31, 120, 180)' fill-opacity = '0.250000' points = '175.7,84.1 175.7,242.4 176.4,242.4 176.4,81.4 '/>
		<polygon fill = 'rgb( 31, 120, 180)' fill-opacity = '0.250000' points = '176.4,81.4 176.4,242.4 177.0,242.4 177.0,78.7 '/>
		<polygon fill = 'rgb( 31, 120, 180)' fill-opacity = '0.250000' points = '177.0,78.7 177.0,242.4 177.7,242.4 177.7,76.0 '/>
		<polygon fill = 'rgb( 31, 120, 180)' fill-opacity = '0.250000' points = '177.7,76.0 177.7,242.4 178.4,242.4 178.4,73.4 '/>
		<polygon fill = 'rgb( 31, 120, 180)' fill-opacity = '0.250000' points = '178.4,73.4 178.4,242.4 179.0,242.4 179.0,70.7 '/>
		<polygon fill = 'rgb( 31, 120, 180)' fill-opacity = '0.250000' points = '179.0,70.7 179.0,242.4 179.7,242.4 179.7,68.2 '/>
		<polygon fill = 'rgb( 31, 120, 180)' fill-opacity = '0.250000' points = '179.7,68.2 179.7,242.4 180.3,242.4 180.3,65.6 '/>
		<polygon fill = 'rgb( 31, 120, 180)' fill-opacity = '0.250000' points = '180.3,65.6 180.3,242.4 181.0,242.4 181.0,63.1 '/>
		<polygon fill = 'rgb( 31, 120, 180)' fill-opacity = '0.250000' points = '181.0,63.1 181.0,242.4 181.6,242.4 181.6,60.6 '/>
		<polygon fill = 'rgb( 31, 120, 180)' fill-opacity = '0.250000' points = '181.6,60.6 181.6,242.4 182.3,242.4 182.3,58.2 '/>
		<polygon fill = 'rgb( 31, 120, 180)' fill-opacity = '0.250000' points = '182.3,58.2 182.3,242.4 183.0,242.4 183.0,55.8 '/>
		<polygon fill = 'rgb( 31, 120, 180)' fill-opacity = '0.250000' points = '183.0,55.8 183.0,242.4 183.6,242.4 183.6,53.4 '/>
		<polygon fill = 'rgb( 31, 120, 180)' fill-opacity = '0.250000' points = '183.6,53.4 183.6,242.4 184.3,242.4 184.3,51.2 '/>
		<polygon fill = 'rgb( 31, 120, 180)' fill-opacity = '0.250000' points = '184.3,51.2 184.3,242.4 184.9,242.4 184.9,48.9 '/>
		<polygon fill = 'rgb( 31, 120, 180)' fill-opacity = '0.250000' points = '184.9,48.9 184.9,242.4 185.6,242.4 185.6,46.7 '/>
		<polygon fill = 'rgb( 31, 120, 180)' fill-opacity = '0.250000' points = '185.6,46.7 185.6,242.4 186.2,242.4 186.2,44.6 '/>
		<polygon fill = 'rgb( 31, 120, 180)' fill-opacity = '0.250000' points = '186.2,44.6 186.2,242.4 186.9,242.4 186.9,42.6 '/>
		<polygon fill = 'rgb( 31, 120, 180)' fill-opacity = '0.250000' points = '186.9,42.6 186.9,242.4 187.6,242.4 187.6,40.6 '/>
		<polygon fill = 'rgb( 31, 120, 180)' fill-opacity = '0.250000' points = '187.6,40.6 187.6,242.4 188.2,242.4 188.2,38.6 '/>
		<polygon fill = 'rgb( 31, 120, 180)' fill-opacity = '0.250000' points = '188.2,38.6 188.2,242.4 188.9,242.4 188.9,36.8 '/>
		<polygon fill = 'rgb( 31, 120, 180)' fill-opacity = '0.250000' points = '188.9,36.8 188.9,242.4 189.5,242.4 189.5,35.0 '/>
		<polygon fill = 'rgb( 31, 120, 180)' fill-opacity = '0.250000' points = '189.5,35.0 189.5,242.4 190.2,242.4 190.2,33.2 '/>
		<polygon fill = 'rgb( 31, 120, 180)' fill-opacity = '0.250000' points = '190.2,33.2 190.2,242.4 190.9,242.4 190.9,31.6 '/>
		<polygon fill = 'rgb( 31, 120, 180)' fill-opacity = '0.250000' points = '190.9,31.6 190.9,242.4 191.5,242.4 191.5,30.0 '/>
		<polygon fill = 'rgb( 31, 120, 180)' fill-opacity = '0.250000' points = '191.5,30.0 191.5,242.4 192.2,242.4 192.2,28.5 '/>
		<polygon fill = 'rgb( 31, 120, 180)' fill-opacity = '0.250000' points = '192.2,28.5 192.2,242.4 192.8,242.4 192.8,27.1 '/>
		<polygon fill = 'rgb( 31, 120, 180)' fill-opacity = '0.250000' points = '192.8,27.1 192.8,242.4 193.5,242.4 193.5,25.8 '/>
		<polygon fill = 'rgb( 31, 120, 180)' fill-opacity = '0.250000' points = '193.5,25.8 193.5,242.4 194.1,242.4 194.1,24.6 '/>
		<polygon fill = 'rgb( 31, 120, 180)' fill-opacity = '0.250000' points = '194.1,24.6 194.1,242.4 194.8,242.4 194.8,23.4 '/>
		<polygon fill = 'rgb( 31, 120, 180)' fill-opacity = '0.250000' points = '194.8,23.4 194.8,242.4 195.5,242.4 195.5,22.3 '/>
		<polygon fill = 'rgb( 31, 120, 180)' fill-opacity = '0.250000' points = '195.5,22.3 195.5,242.4 196.1,242.4 196.1,21.3 '/>
		<polygon fill = 'rgb( 31, 120, 180)' fill-opacity = '0.250000' points = '196.1,21.3 196.1,242.4 196.8,242.4 196.8,20.5 '/>
		<polygon fill = 'rgb( 31, 120, 180)' fill-opacity = '0.250000' points = '196.8,20.5 196.8,242.4 197.4,242.4 197.4,19.7 '/>
		<polygon fill = 'rgb( 31, 120, 180)' fill-opacity = '0.250000' points = '197.4,19.7 197.4,242.4 198.1,242.4 198.1,18.9 '/>
		<polygon fill = 'rgb( 31, 120, 180)' fill-opacity = '0.250000' points = '198.1,18.9 198.1,242.4 198.7,242.4 198.7,18.3 '/>
		<polygon fill = 'rgb( 31, 120, 180)' fill-opacity = '0.250000' points = '198.7,18.3 198.7,242.4 199.4,242.4 199.4,17.8 '/>
		<polygon fill = 'rgb( 31, 120, 180)' fill-opacity = '0.250000' points = '199.4,17.8 199.4,242.4 200.1,242.4 200.1,17.4 '/>
		<polygon fill = 'rgb( 31, 120, 180)' fill-opacity = '0.250000' points = '200.1,17.4 200.1,242.4 200.7,242.4 200.7,17.1 '/>
		<polygon fill = 'rgb( 31, 120, 180)' fill-opacity = '0.250000' points = '200.7,17.1 200.7,242.4 201.4,242.4 201.4,16.9 '/>
		<polygon fill = 'rgb( 31, 120, 180)' fill-opacity = '0.250000' points = '201.4,16.9 201.4,242.4 202.0,242.4 202.0,16.7 '/>
		<polygon fill = 'rgb( 31, 120, 180)' fill-opacity = '0.250000' points = '202.0,16.7 202.0,242.4 202.7,242.4 202.7,16.7 '/>
		<polygon fill = 'rgb( 31, 120, 180)' fill-opacity = '0.250000' points = '202.7,16.7 202.7,242.4 203.3,242.4 203.3,16.8 '/>
		<polygon fill = 'rgb( 31, 120, 180)' fill-opacity = '0.250000' points = '203.3,16.8 203.3,242.4 204.0,242.4 204.0,16.9 '/>
		<polygon fill = 'rgb( 31, 120, 180)' fill-opacity = '0.250000' points = '204.0,16.9 204.0,242.4 204.7,242.4 204.7,17.2 '/>
		<polygon fill = 'rgb( 31, 120, 180)' fill-opacity = '0.250000' points = '204.7,17.2 204.7,242.4 205.3,242.4 205.3,17.6 '/>
		<polygon fill = 'rgb( 31, 120, 180)' fill-opacity = '0.250000' points = '205.3,17.6 205.3,242.4 206.0,242.4 206.0,18.0 '/>
		<polygon fill = 'rgb( 31, 120, 180)' fill-opacity = '0.250000' points = '206.0,18.0 206.0,242.4 206.6,242.4 206.6,18.6 '/>
		<polygon fill = 'rgb( 31, 120, 180)' fill-opacity = '0.250000' points = '206.6,18.6 206.6,242.4 207.3,242.4 207.3,19.2 '/>
		<polygon fill = 'rgb( 31, 120, 180)' fill-opacity = '0.250000' points = '207.3,19.2 207.3,242.4 208.0,242.4 208.0,20.0 '/>
		<polygon fill = 'rgb( 31, 120, 180)' fill-opacity = '0.250000' points = '208.0,20.0 208.0,242.4 208.6,242.4 208.6,20.8 '/>
		<polygon fill = 'rgb( 31, 120, 180)' fill-opacity = '0.250000' points = '208.6,20.8 208.6,242.4 209.3,242.4 209.3,21.8 '/>
		<polygon fill = 'rgb( 31, 120, 180)' fill-opacity = '0.250000' points = '209.3,21.8 209.3,242.4 209.9,242.4 209.9,22.8 '/>
		<polygon fill = 'rgb( 31, 120, 180)' fill-opacity = '0.250000' points = '209.9,22.8 209.9,242.4 210.6,242.4 210.6,23.9 '/>
		<polygon fill = 'rgb( 31, 120, 180)' fill-opacity = '0.250000' points = '210.6,23.9 210.6,242.4 211.2,242.4 211.2,25.2 '/>
		<polygon fill = 'rgb( 31, 120, 180)' fill-opacity = '0.250000' points = '211.2,25.2 211.2,242.4 211.9,242.4 211.9,26.5 '/>
		<polygon fill = 'rgb( 31, 120, 180)' fill-opacity = '0.250000' points = '211.9,26.5 211.9,242.4 212.6,242.4 212.6,27.9 '/>
		<polygon fill = 'rgb( 31, 120, 180)' fill-opacity = '0.250000' points = '212.6,27.9 212.6,242.4 213.2,242.4 213.2,29.3 '/>
		<polygon fill = 'rgb( 31, 120, 180)' fill-opacity = '0.250000' points = '213.2,29.3 213.2,242.4 213.9,242.4 213.9,30.9 '/>
		<polygon fill = 'rgb( 31, 120, 180)' fill-opacity = '0.250000' points = '213.9,30.9 213.9,242.4 214.5,242.4 214.5,32.5 '/>
		<polygon fill = 'rgb( 31, 120, 180)' fill-opacity = '0.250000' points = '214.5,32.5 214.5,242.4 215.2,242.4 215.2,34.2 '/>
		<polygon fill = 'rgb( 31, 120, 180)' fill-opacity = '0.250000' points = '215.2,34.2 215.2,242.4 215.8,242.4 215.8,36.0 '/>
		<polygon fill = 'rgb( 31, 120, 180)' fill-opacity = '0.250000' points = '215.8,36.0 215.8,242.4 216.5,242.4 216.5,37.9 '/>
		<polygon fill = 'rgb( 31, 120, 180)' fill-opacity = '0.250000' points = '216.5,37.9 216.5,242.4 217.2,242.4 217.2,39.8 '/>
		<polygon fill = 'rgb( 31, 120, 180)' fill-opacity = '0.250000' points = '217.2,39.8 217.2,242.4 217.8,242.4 217.8,41.8 '/>
		<polygon fill = 'rgb( 31, 120, 180)' fill-opacity = '0.250000' points = '217.8,41.8 217.8,242.4 218.5,242.4 218.5,43.9 '/>
		<polygon fill = 'rgb( 31, 120, 180)' fill-opacity = '0.250000' points = '218.5,43.9 218.5,242.4 219.1,242.4 219.1,46.0 '/>
		<polygon fill = 'rgb( 31, 120, 180)' fill-opacity = '0.250000' points = '219.1,46.0 219.1,242.4 219.8,242.4 219.8,48.2 '/>
		<polygon fill = 'rgb( 31, 120, 180)' fill-opacity = '0.250000' points = '219.8,48.2 219.8,242.4 220.5,242.4 220.5,50.5 '/>
		<polygon fill = 'rgb( 31, 120, 180)' fill-opacity = '0.250000' points = '220.5,50.5 220.5,242.4 221.1,242.4 221.1,52.8 '/>
		<polygon fill = 'rgb( 31, 120, 180)' fill-opacity = '0.250000' points = '221.1,52.8 221.1,242.4 221.8,242.4 221.8,55.2 '/>
		<polygon fill = 'rgb( 31, 120, 180)' fill-opacity = '0.250000' points = '221.8,55.2 221.8,242.4 222.4,242.4 222.4,57.6 '/>
		<polygon fill = 'rgb( 31, 120, 180)' fill-opacity = '0.250000' points = '222.4,57.6 222.4,242.4 223.1,242.4 223.1,60.0 '/>
		<polygon fill = 'rgb( 31, 120, 180)' fill-opacity = '0.250000' points = '223.1,60.0 223.1,242.4 223.7,242.4 223.7,62.5 '/>
		<polygon fill = 'rgb( 31, 120, 180)' fill-opacity = '0.250000' points = '223.7,62.5 223.7,242.4 224.4,242.4 224.4,65.0 '/>
		<polygon fill = 'rgb( 31, 120, 180)' fill-opacity = '0.250000' points = '224.4,65.0 224.4,242.4 225.1,242.4 225.1,67.6 '/>
		<polygon fill = 'rgb( 31, 120, 180)' fill-opacity = '0.250000' points = '225.1,67.6 225.1,242.4 225.7,242.4 225.7,70.2 '/>
		<polygon fill = 'rgb( 31, 120, 180)' fill-opacity = '0.250000' points = '225.7,70.2 225.7,242.4 226.4,242.4 226.4,72.8 '/>
		<polygon fill = 'rgb( 31, 120, 180)' fill-opacity = '0.250000' points = '226.4,72.8 226.4,242.4 227.0,242.4 227.0,75.4 '/>
		<polygon fill = 'rgb( 31, 120, 180)' fill-opacity = '0.250000' points = '227.0,75.4 227.0,242.4 227.7,242.4 227.7,78.1 '/>
		<polygon fill = 'rgb( 31, 120, 180)' fill-opacity = '0.250000' points = '227.7,78.1 227.7,242.4 228.3,242.4 228.3,80.8 '/>
		<polygon fill = 'rgb( 31, 120, 180)' fill-opacity = '0.250000' points = '228.3,80.8 228.3,242.4 229.0,242.4 229.0,83.5 '/>
		<polygon fill = 'rgb( 31, 120, 180)' fill-opacity = '0.250000' points = '229.0,83.5 229.0,242.4 229.7,242.4 229.7,86.2 '/>
		<polygon fill = 'rgb( 31, 120, 180)' fill-opacity = '0.250000' points = '229.7,86.2 229.7,242.4 230.3,242.4 230.3,88.9 '/>
		<polygon fill = 'rgb( 31, 120, 180)' fill-opacity = '0.250000' points = '230.3,88.9 230.3,242.4 231.0,242.4 231.0,91.6 '/>
		<polygon fill = 'rgb( 31, 120, 180)' fill-opacity = '0.250000' points = '231.0,91.6 231.0,242.4 231.6,242.4 231.6,94.4 '/>
		<polygon fill = 'rgb( 31, 120, 180)' fill-opacity = '0.250000' points = '231.6,94.4 231.6,242.4 232.3,242.4 232.3,97.1 '/>
		<polygon fill = 'rgb( 31, 120, 180)' fill-opacity = '0.250000' points = '232.3,97.1 232.3,242.4 232.9,242.4 232.9,99.8 '/>
		<polygon fill = 'rgb( 31, 120, 180)' fill-opacity = '0.250000' points = '232.9,99.8 232.9,242.4 233.6,242.4 233.6,102.5 '/>
		<polygon fill = 'rgb( 31, 120, 180)' fill-opacity = '0.250000' points = '233.6,102.5 233.6,242.4 234.3,242.4 234.3,105.2 '/>
		<polygon fill = 'rgb( 31, 120, 180)' fill-opacity = '0.250000' points = '234.3,105.2 234.3,242.4 234.9,242.4 234.9,107.9 '/>
		<polygon fill = 'rgb( 31, 120, 180)' fill-opacity = '0.250000' points = '234.9,107.9 234.9,242.4 235.6,242.4 235.6,110.6 '/>
		<polygon fill = 'rgb( 31, 120, 180)' fill-opacity = '0.250000' points = '235.6,110.6 235.6,242.4 236.2,242.4 236.2,113.2 '/>
		<polygon fill = 'rgb( 31, 120, 180)' fill-opacity = '0.250000' points = '236.2,113.2 236.2,242.4 236.9,242.4 236.9,115.9 '/>
		<polygon fill = 'rgb( 31, 120, 180)' fill-opacity = '0.250000' points = '236.9,115.9 236.9,242.4 237.6,242.4 237.6,118.5 '/>
		<polygon fill = 'rgb( 31, 120, 180)' fill-opacity = '0.250000' points = '237.6,118.5 237.6,242.4 238.2,242.4 238.2,121.1 '/>
		<polygon fill = 'rgb( 31, 120, 180)' fill-opacity = '0.250000' points = '238.2,121.1 238.2,242.4 238.9,242.4 238.9,123.6 '/>
		<polygon fill = 'rgb( 31, 120, 180)' fill-opacity = '0.250000' points = '238.9,123.6 238.9,242.4 239.5,242.4 239.5,126.1 '/>
		<polygon fill = 'rgb( 31, 120, 180)' fill-opacity = '0.250000' points = '239.5,126.1 239.5,242.4 240.2,242.4 240.2,128.6 '/>
		<polygon fill = 'rgb( 31, 120, 180)' fill-opacity = '0.250000' points = '240.2,128.6 240.2,242.4 240.8,242.4 240.8,131.1 '/>
		<polygon fill = 'rgb( 31, 120, 180)' fill-opacity = '0.250000' points = '240.8,131.1 240.8,242.4 241.5,242.4 241.5,133.5 '/>
		<polygon fill = 'rgb( 31, 120, 180)' fill-opacity = '0.250000' points = '241.5,133.5 241.5,242.4 242.2,242.4 242.2,135.9 '/>
		<polygon fill = 'rgb( 31, 120, 180)' fill-opacity = '0.250000' points = '242.2,135.9 242.2,242.4 242.8,242.4 242.8,138.2 '/>
		<polygon fill = 'rgb( 31, 120, 180)' fill-opacity = '0.250000' points = '242.8,138.2 242.8,242.4 243.5,242.4 243.5,140.5 '/>
		<polygon fill = 'rgb( 31, 120, 180)' fill-opacity = '0.250000' points = '243.5,140.5 243.5,242.4 244.1,242.4 244.1,142.8 '/>
		<polygon fill = 'rgb( 31, 120, 180)' fill-opacity = '0.250000' points = '244.1,142.8 244.1,242.4 244.8,242.4 244.8,145.0 '/>
		<polygon fill = 'rgb( 31, 120, 180)' fill-opacity = '0.250000' points = '244.8,145.0 244.8,242.4 245.4,242.4 245.4,147.2 '/>
		<polygon fill = 'rgb( 31, 120, 180)' fill-opacity = '0.250000' points = '245.4,147.2 245.4,242.4 246.1,242.4 246.1,149.3 '/>
		<polygon fill = 'rgb( 31, 120, 180)' fill-opacity = '0.250000' points = '246.1,149.3 246.1,242.4 246.8,242.4 246.8,151.4 '/>
		<polygon fill = 'rgb( 31, 120, 180)' fill-opacity = '0.250000' points = '246.8,151.4 246.8,242.4 247.4,242.4 247.4,153.4 '/>
		<polygon fill = 'rgb( 31, 120, 180)' fill-opacity = '0.250000' points = '247.4,153.4 247.4,242.4 248.1,242.4 248.1,155.4 '/>
		<polygon fill = 'rgb( 31, 120, 180)' fill-opacity = '0.250000' points = '248.1,155.4 248.1,242.4 248.7,242.4 248.7,157.3 '/>
		<polygon fill = 'rgb( 31, 120, 180)' fill-opacity = '0.250000' points = '248.7,157.3 248.7,242.4 249.4,242.4 249.4,159.2 '/>
		<polygon fill = 'rgb( 31, 120, 180)' fill-opacity = '0.250000' points = '249.4,159.2 249.4,242.4 250.0,242.4 250.0,161.0 '/>
		<polygon fill = 'rgb( 31, 120, 180)' fill-opacity = '0.250000' points = '250.0,161.0 250.0,242.4 250.7,242.4 250.7,162.8 '/>
		<polygon fill = 'rgb( 31, 120, 180)' fill-opacity = '0.250000' points = '250.7,162.8 250.7,242.4 251.4,242.4 251.4,164.5 '/>
		<polygon fill = 'rgb( 31, 120, 180)' fill-opacity = '0.250000' points = '251.4,164.5 251.4,242.4 252.0,242.4 252.0,166.2 '/>
		<polygon fill = 'rgb( 31, 120, 180)' fill-opacity = '0.250000' points = '252.0,166.2 252.0,242.4 252.7,242.4 252.7,167.9 '/>
		<polygon fill = 'rgb( 31, 120, 180)' fill-opacity = '0.250000' points = '252.7,167.9 252.7,242.4 253.3,242.4 253.3,169.4 '/>
		<polygon fill = 'rgb( 31, 120, 180)' fill-opacity = '0.250000' points = '253.3,169.4 253.3,242.4 254.0,242.4 254.0,171.0 '/>
		<polygon fill = 'rgb( 31, 120, 180)' fill-opacity = '0.250000' points = '254.0,171.0 254.0,242.4 254.7,242.4 254.7,172.5 '/>
		<polygon fill = 'rgb( 31, 120, 180)' fill-opacity = '0.250000' points = '254.7,172.5 254.7,242.4 255.3,242.4 255.3,173.9 '/>
		<polygon fill = 'rgb( 31, 120, 180)' fill-opacity = '0.250000' points = '255.3,173.9 255.3,242.4 256.0,242.4 256.0,175.3 '/>
		<polygon fill = 'rgb( 31, 120, 180)' fill-opacity = '0.250000' points = '256.0,175.3 256.0,242.4 256.6,242.4 256.6,176.7 '/>
		<polygon fill = 'rgb( 31, 120, 180)' fill-opacity = '0.250000' points = '256.6,176.7 256.6,242.4 257.3,242.4 257.3,178.0 '/>
		<polygon fill = 'rgb( 31, 120, 180)' fill-opacity = '0.250000' points = '257.3,178.0 257.3,242.4 257.9,242.4 257.9,179.2 '/>
		<polygon fill = 'rgb( 31, 120, 180)' fill-opacity = '0.250000' points = '257.9,179.2 257.9,242.4 258.6,242.4 258.6,180.5 '/>
		<polygon fill = 'rgb( 31, 120, 180)' fill-opacity = '0.250000' points = '258.6,180.5 258.6,242.4 259.3,242.4 259.3,181.6 '/>
		<polygon fill = 'rgb( 31, 120, 180)' fill-opacity = '0.250000' points = '259.3,181.6 259.3,242.4 259.9,242.4 259.9,182.8 '/>
		<polygon fill = 'rgb( 31, 120, 180)' fill-opacity = '0.250000' points = '259.9,182.8 259.9,242.4 260.6,242.4 260.6,183.9 '/>
		<polygon fill = 'rgb( 31, 120, 180)' fill-opacity = '0.250000' points = '260.6,183.9 260.6,242.4 261.2,242.4 261.2,184.9 '/>
		<polygon fill = 'rgb( 31, 120, 180)' fill-opacity = '0.250000' points = '261.2,184.9 261.2,242.4 261.9,242.4 261.9,186.0 '/>
		<polygon fill = 'rgb( 31, 120, 180)' fill-opacity = '0.250000' points = '261.9,186.0 261.9,242.4 262.5,242.4 262.5,186.9 '/>
		<polygon fill = 'rgb( 31, 120, 180)' fill-opacity = '0.250000' points = '262.5,186.9 262.5,242.4 263.2,242.4 263.2,187.9 '/>
		<polygon fill = 'rgb( 31, 120, 180)' fill-opacity = '0.250000' points = '263.2,187.9 263.2,242.4 263.9,242.4 263.9,188.8 '/>
		<polygon fill = 'rgb( 31, 120, 180)' fill-opacity = '0.250000' points = '263.9,188.8 263.9,242.4 264.5,242.4 264.5,189.7 '/>
		<polygon fill = 'rgb( 31, 120, 180)' fill-opacity = '0.250000' points = '264.5,189.7 264.5,242.4 265.2,242.4 265.2,190.5 '/>
		<polygon fill = 'rgb( 31, 120, 180)' fill-opacity = '0.250000' points = '265.2,190.5 265.2,242.4 265.8,242.4 265.8,191.4 '/>
		<polygon fill = 'rgb( 31, 120, 180)' fill-opacity = '0.250000' points = '265.8,191.4 265.8,242.4 266.5,242.4 266.5,192.1 '/>
		<polygon fill = 'rgb( 31, 120, 180)' fill-opacity = '0.250000' points = '266.5,192.1 266.5,242.4 267.1,242.4 267.1,192.9 '/>
		<polygon fill = 'rgb( 31, 120, 180)' fill-opacity = '0.250000' points = '267.1,192.9 267.1,242.4 267.8,242.4 267.8,193.7 '/>
		<polygon fill = 'rgb( 31, 120, 180)' fill-opacity = '0.250000' points = '267.8,193.7 267.8,242.4 268.5,242.4 268.5,194.4 '/>
		<polygon fill = 'rgb( 31, 120, 180)' fill-opacity = '0.250000' points = '268.5,194.4 268.5,242.4 269.1,242.4 269.1,195.1 '/>
		<polygon fill = 'rgb( 31, 120, 180)' fill-opacity = '0.250000' points = '269.1,195.1 269.1,242.4 269.8,242.4 269.8,195.7 '/>
		<polygon fill = 'rgb( 31, 120, 180)' fill-opacity = '0.250000' points = '269.8,195.7 269.8,242.4 270.4,242.4 270.4,196.4 '/>
		<polygon fill = 'rgb( 31, 120, 180)' fill-opacity = '0.250000' points = '270.4,196.4 270.4,242.4 271.1,242.4 271.1,197.0 '/>
		<polygon fill = 'rgb( 31, 120, 180)' fill-opacity = '0.250000' points = '271.1,197.0 271.1,242.4 271.8,242.4 271.8,197.6 '/>
		<polygon fill = 'rgb( 31, 120, 180)' fill-opacity = '0.250000' points = '271.8,197.6 271.8,242.4 272.4,242.4 272.4,198.2 '/>
		<polygon fill = 'rgb( 31, 120, 180)' fill-opacity = '0.250000' points = '272.4,198.2 272.4,242.4 273.1,242.4 273.1,198.8 '/>
		<polygon fill = 'rgb( 31, 120, 180)' fill-opacity = '0.250000' points = '273.1,198.8 273.1,242.4 273.7,242.4 273.7,199.4 '/>
		<polygon fill = 'rgb( 31, 120, 180)' fill-opacity = '0.250000' points = '273.7,199.4 273.7,242.4 274.4,242.4 274.4,200.0 '/>
		<polygon fill = 'rgb( 31, 120, 180)' fill-opacity = '0.250000' points = '274.4,200.0 274.4,242.4 275.0,242.4 275.0,200.5 '/>
		<polygon fill = 'rgb( 31, 120, 180)' fill-opacity = '0.250000' points = '275.0,200.5 275.0,242.4 275.7,242.4 275.7,201.0 '/>
		<polygon fill = 'rgb( 31, 120, 180)' fill-opacity = '0.250000' points = '275.7,201.0 275.7,242.4 276.4,242.4 276.4,201.6 '/>
		<polygon fill = 'rgb( 31, 120, 180)' fill-opacity = '0.250000' points = '276.4,201.6 276.4,242.4 277.0,242.4 277.0,202.1 '/>
		<polygon fill = 'rgb( 31, 120, 180)' fill-opacity = '0.250000' points = '277.0,202.1 277.0,242.4 277.7,242.4 277.7,202.6 '/>
		<polygon fill = 'rgb( 31, 120, 180)' fill-opacity = '0.250000' points = '277.7,202.6 277.7,242.4 278.3,242.4 278.3,203.1 '/>
		<polygon fill = 'rgb( 31, 120, 180)' fill-opacity = '0.250000' points = '278.3,203.1 278.3,242.4 279.0,242.4 279.0,203.6 '/>
		<polygon fill = 'rgb( 31, 120, 180)' fill-opacity = '0.250000' points = '279.0,203.6 279.0,242.4 279.6,242.4 279.6,204.1 '/>
		<polygon fill = 'rgb( 31, 120, 180)' fill-opacity = '0.250000' points = '279.6,204.1 279.6,242.4 280.3,242.4 280.3,204.5 '/>
		<polygon fill = 'rgb( 31, 120, 180)' fill-opacity = '0.250000' points = '280.3,204.5 280.3,242.4 281.0,242.4 281.0,205.0 '/>
		<polygon fill = 'rgb( 31, 120, 180)' fill-opacity = '0.250000' points = '281.0,205.0 281.0,242.4 281.6,242.4 281.6,205.5 '/>
		<polygon fill = 'rgb( 31, 120, 180)' fill-opacity = '0.250000' points = '281.6,205.5 281.6,242.4 282.3,242.4 282.3,206.0 '/>
		<polygon fill = 'rgb( 31, 120, 180)' fill-opacity = '0.250000' points = '282.3,206.0 282.3,242.4 282.9,242.4 282.9,206.5 '/>
		<polygon fill = 'rgb( 31, 120, 180)' fill-opacity = '0.250000' points = '282.9,206.5 282.9,242.4 283.6,242.4 283.6,206.9 '/>
		<polygon fill = 'rgb( 31, 120, 180)' fill-opacity = '0.250000' points = '283.6,206.9 283.6,242.4 284.2,242.4 284.2,207.4 '/>
		<polygon fill = 'rgb( 31, 120, 180)' fill-opacity = '0.250000' points = '284.2,207.4 284.2,242.4 284.9,242.4 284.9,207.9 '/>
		<polygon fill = 'rgb( 31, 120, 180)' fill-opacity = '0.250000' points = '284.9,207.9 284.9,242.4 285.6,242.4 285.6,208.3 '/>
		<polygon fill = 'rgb( 31, 120, 180)' fill-opacity = '0.250000' points = '285.6,208.3 285.6,242.4 286.2,242.4 286.2,208.8 '/>
		<polygon fill = 'rgb( 31, 120, 180)' fill-opacity = '0.250000' points = '286.2,208.8 286.2,242.4 286.9,242.4 286.9,209.3 '/>
		<polygon fill = 'rgb( 31, 120, 180)' fill-opacity = '0.250000' points = '286.9,209.3 286.9,242.4 287.5,242.4 287.5,209.7 '/>
		<polygon fill = 'rgb( 31, 120, 180)' fill-opacity = '0.250000' points = '287.5,209.7 287.5,242.4 288.2,242.4 288.2,210.2 '/>
		<polygon fill = 'rgb( 31, 120, 180)' fill-opacity = '0.250000' points = '288.2,210.2 288.2,242.4 288.9,242.4 288.9,210.6 '/>
		<polygon fill = 'rgb( 31, 120, 180)' fill-opacity = '0.250000' points = '288.9,210.6 288.9,242.4 289.5,242.4 289.5,211.1 '/>
		<polygon fill = 'rgb( 31, 120, 180)' fill-opacity = '0.250000' points = '289.5,211.1 289.5,242.4 290.2,242.4 290.2,211.6 '/>
		<polygon fill = 'rgb( 31, 120, 180)' fill-opacity = '0.250000' points = '290.2,211.6 290.2,242.4 290.8,242.4 290.8,212.0 '/>
		<polygon fill = 'rgb( 31, 120, 180)' fill-opacity = '0.250000' points = '290.8,212.0 290.8,242.4 291.5,242.4 291.5,212.5 '/>
		<polygon fill = 'rgb( 31, 120, 180)' fill-opacity = '0.250000' points = '291.5,212.5 291.5,242.4 292.1,242.4 292.1,212.9 '/>
		<polygon fill = 'rgb( 31, 120, 180)' fill-opacity = '0.250000' points = '292.1,212.9 292.1,242.4 292.8,242.4 292.8,213.4 '/>
		<polygon fill = 'rgb( 31, 120, 180)' fill-opacity = '0.250000' points = '292.8,213.4 292.8,242.4 293.5,242.4 293.5,213.8 '/>
		<polygon fill = 'rgb( 31, 120, 180)' fill-opacity = '0.250000' points = '293.5,213.8 293.5,242.4 294.1,242.4 294.1,214.3 '/>
		<polygon fill = 'rgb( 31, 120, 180)' fill-opacity = '0.250000' points = '294.1,214.3 294.1,242.4 294.8,242.4 294.8,214.8 '/>
		<polygon fill = 'rgb( 31, 120, 180)' fill-opacity = '0.250000' points = '294.8,214.8 294.8,242.4 295.4,242.4 295.4,215.2 '/>
		<polygon fill = 'rgb( 31, 120, 180)' fill-opacity = '0.250000' points = '295.4,215.2 295.4,242.4 296.1,242.4 296.1,215.6 '/>
		<polygon fill = 'rgb( 31, 120, 180)' fill-opacity = '0.250000' points = '296.1,215.6 296.1,242.4 296.7,242.4 296.7,216.1 '/>
		<polygon fill = 'rgb( 31, 120, 180)' fill-opacity = '0.250000' points = '296.7,216.1 296.7,242.4 297.4,242.4 297.4,216.5 '/>
		<polygon fill = 'rgb( 31, 120, 180)' fill-opacity = '0.250000' points = '297.4,216.5 297.4,242.4 298.1,242.4 298.1,217.0 '/>
		<polygon fill = 'rgb( 31, 120, 180)' fill-opacity = '0.250000' points = '298.1,217.0 298.1,242.4 298.7,242.4 298.7,217.4 '/>
		<polygon fill = 'rgb( 31, 120, 180)' fill-opacity = '0.250000' points = '298.7,217.4 298.7,242.4 299.4,242.4 299.4,217.8 '/>
		<polygon fill = 'rgb( 31, 120, 180)' fill-opacity = '0.250000' points = '299.4,217.8 299.4,242.4 300.0,242.4 300.0,218.2 '/>
		<polygon fill = 'rgb( 31, 120, 180)' fill-opacity = '0.250000' points = '300.0,218.2 300.0,242.4 300.7,242.4 300.7,218.6 '/>
		<polygon fill = 'rgb( 31, 120, 180)' fill-opacity = '0.250000' points = '300.7,218.6 300.7,242.4 301.3,242.4 301.3,219.1 '/>
		<polygon fill = 'rgb( 31, 120, 180)' fill-opacity = '0.250000' points = '301.3,219.1 301.3,242.4 302.0,242.4 302.0,219.5 '/>
		<polygon fill = 'rgb( 31, 120, 180)' fill-opacity = '0.250000' points = '302.0,219.5 302.0,242.4 302.7,242.4 302.7,219.8 '/>
		<polygon fill = 'rgb( 31, 120, 180)' fill-opacity = '0.250000' points = '302.7,219.8 302.7,242.4 303.3,242.4 303.3,220.2 '/>
		<polygon fill = 'rgb( 31, 120, 180)' fill-opacity = '0.250000' points = '303.3,220.2 303.3,242.4 304.0,242.4 304.0,220.6 '/>
		<polygon fill = 'rgb( 31, 120, 180)' fill-opacity = '0.250000' points = '304.0,220.6 304.0,242.4 304.6,242.4 304.6,221.0 '/>
		<polygon fill = 'rgb( 31, 120, 180)' fill-opacity = '0.250000' points = '304.6,221.0 304.6,242.4 305.3,242.4 305.3,221.3 '/>
		<polygon fill = 'rgb( 31, 120, 180)' fill-opacity = '0.250000' points = '305.3,221.3 305.3,242.4 306.0,242.4 306.0,221.7 '/>
		<polygon fill = 'rgb( 31, 120, 180)' fill-opacity = '0.250000' points = '306.0,221.7 306.0,242.4 306.6,242.4 306.6,222.0 '/>
		<polygon fill = 'rgb( 31, 120, 180)' fill-opacity = '0.250000' points = '306.6,222.0 306.6,242.4 307.3,242.4 307.3,222.4 '/>
		<polygon fill = 'rgb( 31, 120, 180)' fill-opacity = '0.250000' points = '307.3,222.4 307.3,242.4 307.9,242.4 307.9,222.7 '/>
		<polygon fill = 'rgb( 31, 120, 180)' fill-opacity = '0.250000' points = '307.9,222.7 307.9,242.4 308.6,242.4 308.6,223.0 '/>
		<polygon fill = 'rgb( 31, 120, 180)' fill-opacity = '0.250000' points = '308.6,223.0 308.6,242.4 309.2,242.4 309.2,223.3 '/>
		<polygon fill = 'rgb( 31, 120, 180)' fill-opacity = '0.250000' points = '309.2,223.3 309.2,242.4 309.9,242.4 309.9,223.6 '/>
		<polygon fill = 'rgb( 31, 120, 180)' fill-opacity = '0.250000' points = '309.9,223.6 309.9,242.4 310.6,242.4 310.6,223.9 '/>
		<polygon fill = 'rgb( 31, 120, 180)' fill-opacity = '0.250000' points = '310.6,223.9 310.6,242.4 311.2,242.4 311.2,224.1 '/>
		<polygon fill = 'rgb( 31, 120, 180)' fill-opacity = '0.250000' points = '311.2,224.1 311.2,242.4 311.9,242.4 311.9,224.4 '/>
		<polygon fill = 'rgb( 31, 120, 180)' fill-opacity = '0.250000' points = '311.9,224.4 311.9,242.4 312.5,242.4 312.5,224.6 '/>
		<polygon fill = 'rgb( 31, 120, 180)' fill-opacity = '0.250000' points = '312.5,224.6 312.5,242.4 313.2,242.4 313.2,224.8 '/>
		<polygon fill = 'rgb( 31, 120, 180)' fill-opacity = '0.250000' points = '313.2,224.8 313.2,242.4 313.8,242.4 313.8,225.0 '/>
		<polygon fill = 'rgb( 31, 120, 180)' fill-opacity = '0.250000' points = '313.8,225.0 313.8,242.4 314.5,242.4 314.5,225.2 '/>
		<polygon fill = 'rgb( 31, 120, 180)' fill-opacity = '0.250000' points = '314.5,225.2 314.5,242.4 315.2,242.4 315.2,225.4 '/>
		<polygon fill = 'rgb( 31, 120, 180)' fill-opacity = '0.250000' points = '315.2,225.4 315.2,242.4 315.8,242.4 315.8,225.6 '/>
		<polygon fill = 'rgb( 31, 120, 180)' fill-opacity = '0.250000' points = '315.8,225.6 315.8,242.4 316.5,242.4 316.5,225.8 '/>
		<polygon fill = 'rgb( 31, 120, 180)' fill-opacity = '0.250000' points = '316.5,225.8 316.5,242.4 317.1,242.4 317.1,225.9 '/>
		<polygon fill = 'rgb( 31, 120, 180)' fill-opacity = '0.250000' points = '317.1,225.9 317.1,242.4 317.8,242.4 317.8,226.1 '/>
		<polygon fill = 'rgb( 31, 120, 180)' fill-opacity = '0.250000' points = '317.8,226.1 317.8,242.4 318.5,242.4 318.5,226.2 '/>
		<polygon fill = 'rgb( 31, 120, 180)' fill-opacity = '0.250000' points = '318.5,226.2 318.5,242.4 319.1,242.4 319.1,226.3 '/>
		<polygon fill = 'rgb( 31, 120, 180)' fill-opacity = '0.250000' points = '319.1,226.3 319.1,242.4 319.8,242.4 319.8,226.4 '/>
		<polygon fill = 'rgb( 31, 120, 180)' fill-opacity = '0.250000' points = '319.8,226.4 319.8,242.4 320.4,242.4 320.4,226.5 '/>
		<polygon fill = 'rgb( 31, 120, 180)' fill-opacity = '0.250000' points = '320.4,226.5 320.4,242.4 321.1,242.4 321.1,226.6 '/>
		<polygon fill = 'rgb( 31, 120, 180)' fill-opacity = '0.250000' points = '321.1,226.6 321.1,242.4 321.7,242.4 321.7,226.6 '/>
		<polygon fill = 'rgb( 31, 120, 180)' fill-opacity = '0.250000' points = '321.7,226.6 321.7,242.4 322.4,242.4 322.4,226.7 '/>
		<polygon fill = 'rgb( 31, 120, 180)' fill-opacity = '0.250000' points = '322.4,226.7 322.4,242.4 323.1,242.4 323.1,226.7 '/>
		<polygon fill = 'rgb( 31, 120, 180)' fill-opacity = '0.250000' points = '323.1,226.7 323.1,242.4 323.7,242.4 323.7,226.8 '/>
		<polygon fill = 'rgb( 31, 120, 180)' fill-opacity = '0.250000' points = '323.7,226.8 323.7,242.4 324.4,242.4 324.4,226.8 '/>
		<polygon fill = 'rgb( 31, 120, 180)' fill-opacity = '0.250000' points = '324.4,226.8 324.4,242.4 325.0,242.4 325.0,226.8 '/>
		<polygon fill = 'rgb( 31, 120, 180)' fill-opacity = '0.250000' points = '325.0,226.8 325.0,242.4 325.7,242.4 325.7,226.8 '/>
		<polygon fill = 'rgb( 31, 120, 180)' fill-opacity = '0.250000' points = '325.7,226.8 325.7,242.4 326.3,242.4 326.3,226.8 '/>
		<polygon fill = 'rgb( 31, 120, 180)' fill-opacity = '0.250000' points = '326.3,226.8 326.3,242.4 327.0,242.4 327.0,226.8 '/>
		<polygon fill = 'rgb( 31, 120, 180)' fill-opacity = '0.250000' points = '327.0,226.8 327.0,242.4 327.7,242.4 327.7,226.8 '/>
		<polygon fill = 'rgb( 31, 120, 180)' fill-opacity = '0.250000' points = '327.7,226.8 327.7,242.4 328.3,242.4 328.3,226.8 '/>
		<polygon fill = 'rgb( 31, 120, 180)' fill-opacity = '0.250000' points = '328.3,226.8 328.3,242.4 329.0,242.4 329.0,226.7 '/>
		<polygon fill = 'rgb( 31, 120, 180)' fill-opacity = '0.250000' points = '329.0,226.7 329.0,242.4 329.6,242.4 329.6,226.7 '/>
		<polygon fill = 'rgb( 31, 120, 180)' fill-opacity = '0.250000' points = '329.6,226.7 329.6,242.4 330.3,242.4 330.3,226.6 '/>
		<polygon fill = 'rgb( 31, 120, 180)' fill-opacity = '0.250000' points = '330.3,226.6 330.3,242.4 330.9,242.4 330.9,226.6 '/>
		<polygon fill = 'rgb( 31, 120, 180)' fill-opacity = '0.250000' points = '330.9,226.6 330.9,242.4 331.6,242.4 331.6,226.5 '/>
		<polygon fill = 'rgb( 31, 120, 180)' fill-opacity = '0.250000' points = '331.6,226.5 331.6,242.4 332.3,242.4 332.3,226.5 '/>
		<polygon fill = 'rgb( 31, 120, 180)' fill-opacity = '0.250000' points = '332.3,226.5 332.3,242.4 332.9,242.4 332.9,226.4 '/>
		<polygon fill = 'rgb( 31, 120, 180)' fill-opacity = '0.250000' points = '332.9,226.4 332.9,242.4 333.6,242.4 333.6,226.3 '/>
		<polygon fill = 'rgb( 31, 120, 180)' fill-opacity = '0.250000' points = '333.6,226.3 333.6,242.4 334.2,242.4 334.2,226.3 '/>
		<polygon fill = 'rgb( 31, 120, 180)' fill-opacity = '0.250000' points = '334.2,226.3 334.2,242.4 334.9,242.4 334.9,226.2 '/>
		<polygon fill = 'rgb( 31, 120, 180)' fill-opacity = '0.250000' points = '334.9,226.2 334.9,242.4 335.6,242.4 335.6,226.1 '/>
		<polygon fill = 'rgb( 31, 120, 180)' fill-opacity = '0.250000' points = '335.6,226.1 335.6,242.4 336.2,242.4 336.2,226.1 '/>
		<polygon fill = 'rgb( 31, 120, 180)' fill-opacity = '0.250000' points = '336.2,226.1 336.2,242.4 336.9,242.4 336.9,226.0 '/>
		<polygon fill = 'rgb( 31, 120, 180)' fill-opacity = '0.250000' points = '336.9,226.0 336.9,242.4 337.5,242.4 337.5,225.9 '/>
		<polygon fill = 'rgb( 31, 120, 180)' fill-opacity = '0.250000' points = '337.5,225.9 337.5,242.4 338.2,242.4 338.2,225.9 '/>
		<polygon fill = 'rgb( 31, 120, 180)' fill-opacity = '0.250000' points = '338.2,225.9 338.2,242.4 338.8,242.4 338.8,225.8 '/>
		<polygon fill = 'rgb( 31, 120, 180)' fill-opacity = '0.250000' points = '338.8,225.8 338.8,242.4 339.5,242.4 339.5,225.7 '/>
		<polygon fill = 'rgb( 31, 120, 180)' fill-opacity = '0.250000' points = '339.5,225.7 339.5,242.4 340.2,242.4 340.2,225.7 '/>
		<polygon fill = 'rgb( 31, 120, 180)' fill-opacity = '0.250000' points = '340.2,225.7 340.2,242.4 340.8,242.4 340.8,225.6 '/>
		<polygon fill = 'rgb( 31, 120, 180)' fill-opacity = '0.250000' points = '340.8,225.6 340.8,242.4 341.5,242.4 341.5,225.5 '/>
		<polygon fill = 'rgb( 31, 120, 180)' fill-opacity = '0.250000' points = '341.5,225.5 341.5,242.4 342.1,242.4 342.1,225.5 '/>
		<polygon fill = 'rgb( 31, 120, 180)' fill-opacity = '0.250000' points = '342.1,225.5 342.1,242.4 342.8,242.4 342.8,225.5 '/>
		<polygon fill = 'rgb( 31, 120, 180)' fill-opacity = '0.250000' points = '342.8,225.5 342.8,242.4 343.4,242.4 343.4,225.4 '/>
		<polygon fill = 'rgb( 31, 120, 180)' fill-opacity = '0.250000' points = '343.4,225.4 343.4,242.4 344.1,242.4 344.1,225.4 '/>
		<polygon fill = 'rgb( 31, 120, 180)' fill-opacity = '0.250000' points = '344.1,225.4 344.1,242.4 344.8,242.4 344.8,225.3 '/>
		<polygon fill = 'rgb( 31, 120, 180)' fill-opacity = '0.250000' points = '344.8,225.3 344.8,242.4 345.4,242.4 345.4,225.3 '/>
		<polygon fill = 'rgb( 31, 120, 180)' fill-opacity = '0.250000' points = '345.4,225.3 345.4,242.4 346.1,242.4 346.1,225.3 '/>
		<polygon fill = 'rgb( 31, 120, 180)' fill-opacity = '0.250000' points = '346.1,225.3 346.1,242.4 346.7,242.4 346.7,225.3 '/>
		<polygon fill = 'rgb( 31, 120, 180)' fill-opacity = '0.250000' points = '346.7,225.3 346.7,242.4 347.4,242.4 347.4,225.3 '/>
		<polygon fill = 'rgb( 31, 120, 180)' fill-opacity = '0.250000' points = '347.4,225.3 347.4,242.4 348.0,242.4 348.0,225.3 '/>
		<polygon fill = 'rgb( 31, 120, 180)' fill-opacity = '0.250000' points = '348.0,225.3 348.0,242.4 348.7,242.4 348.7,225.3 '/>
		<polygon fill = 'rgb( 31, 120, 180)' fill-opacity = '0.250000' points = '348.7,225.3 348.7,242.4 349.4,242.4 349.4,225.4 '/>
		<polygon fill = 'rgb( 31, 120, 180)' fill-opacity = '0.250000' points = '349.4,225.4 349.4,242.4 350.0,242.4 350.0,225.4 '/>
		<polygon fill = 'rgb( 31, 120, 180)' fill-opacity = '0.250000' points = '350.0,225.4 350.0,242.4 350.7,242.4 350.7,225.4 '/>
		<polygon fill = 'rgb( 31, 120, 180)' fill-opacity = '0.250000' points = '350.7,225.4 350.7,242.4 351.3,242.4 351.3,225.5 '/>
		<polygon fill = 'rgb( 31, 120, 180)' fill-opacity = '0.250000' points = '351.3,225.5 351.3,242.4 352.0,242.4 352.0,225.5 '/>
		<polygon fill = 'rgb( 31, 120, 180)' fill-opacity = '0.250000' points = '352.0,225.5 352.0,242.4 352.7,242.4 352.7,225.6 '/>
		<polygon fill = 'rgb( 31, 120, 180)' fill-opacity = '0.250000' points = '352.7,225.6 352.7,242.4 353.3,242.4 353.3,225.7 '/>
		<polygon fill = 'rgb( 31, 120, 180)' fill-opacity = '0.250000' points = '353.3,225.7 353.3,242.4 354.0,242.4 354.0,225.8 '/>
		<polygon fill = 'rgb( 31, 120, 180)' fill-opacity = '0.250000' points = '354.0,225.8 354.0,242.4 354.6,242.4 354.6,225.9 '/>
		<polygon fill = 'rgb( 31, 120, 180)' fill-opacity = '0.250000' points = '354.6,225.9 354.6,242.4 355.3,242.4 355.3,226.0 '/>
		<polygon fill = 'rgb( 31, 120, 180)' fill-opacity = '0.250000' points = '355.3,226.0 355.3,242.4 355.9,242.4 355.9,226.1 '/>
		<polygon fill = 'rgb( 31, 120, 180)' fill-opacity = '0.250000' points = '355.9,226.1 355.9,242.4 356.6,242.4 356.6,226.2 '/>
		<polygon fill = 'rgb( 31, 120, 180)' fill-opacity = '0.250000' points = '356.6,226.2 356.6,242.4 357.3,242.4 357.3,226.3 '/>
		<polygon fill = 'rgb( 31, 120, 180)' fill-opacity = '0.250000' points = '357.3,226.3 357.3,242.4 357.9,242.4 357.9,226.5 '/>
		<polygon fill = 'rgb( 31, 120, 180)' fill-opacity = '0.250000' points = '357.9,226.5 357.9,242.4 358.6,242.4 358.6,226.6 '/>
		<polygon fill = 'rgb( 31, 120, 180)' fill-opacity = '0.250000' points = '358.6,226.6 358.6,242.4 359.2,242.4 359.2,226.8 '/>
		<polygon fill = 'rgb( 31, 120, 180)' fill-opacity = '0.250000' points = '359.2,226.8 359.2,242.4 359.9,242.4 359.9,227.0 '/>
		<polygon fill = 'rgb( 31, 120, 180)' fill-opacity = '0.250000' points = '359.9,227.0 359.9,242.4 360.5,242.4 360.5,227.1 '/>
		<polygon fill = 'rgb( 31, 120, 180)' fill-opacity = '0.250000' points = '360.5,227.1 360.5,242.4 361.2,242.4 361.2,227.3 '/>
		<polygon fill = 'rgb( 31, 120, 180)' fill-opacity = '0.250000' points = '361.2,227.3 361.2,242.4 361.9,242.4 361.9,227.5 '/>
		<polygon fill = 'rgb( 31, 120, 180)' fill-opacity = '0.250000' points = '361.9,227.5 361.9,242.4 362.5,242.4 362.5,227.7 '/>
		<polygon fill = 'rgb( 31, 120, 180)' fill-opacity = '0.250000' points = '362.5,227.7 362.5,242.4 363.2,242.4 363.2,227.9 '/>
		<polygon fill = 'rgb( 31, 120, 180)' fill-opacity = '0.250000' points = '363.2,227.9 363.2,242.4 363.8,242.4 363.8,228.1 '/>
		<polygon fill = 'rgb( 31, 120, 180)' fill-opacity = '0.250000' points = '363.8,228.1 363.8,242.4 364.5,242.4 364.5,228.3 '/>
		<polygon fill = 'rgb( 31, 120, 180)' fill-opacity = '0.250000' points = '364.5,228.3 364.5,242.4 365.1,242.4 365.1,228.5 '/>
		<polygon fill = 'rgb( 31, 120, 180)' fill-opacity = '0.250000' points = '365.1,228.5 365.1,242.4 365.8,242.4 365.8,228.8 '/>
		<polygon fill = 'rgb( 31, 120, 180)' fill-opacity = '0.250000' points = '365.8,228.8 365.8,242.4 366.5,242.4 366.5,229.0 '/>
		<polygon fill = 'rgb( 31, 120, 180)' fill-opacity = '0.250000' points = '366.5,229.0 366.5,242.4 367.1,242.4 367.1,229.2 '/>
		<polygon fill = 'rgb( 31, 120, 180)' fill-opacity = '0.250000' points = '367.1,229.2 367.1,242.4 367.8,242.4 367.8,229.5 '/>
		<polygon fill = 'rgb( 31, 120, 180)' fill-opacity = '0.250000' points = '367.8,229.5 367.8,242.4 368.4,242.4 368.4,229.7 '/>
		<polygon fill = 'rgb( 31, 120, 180)' fill-opacity = '0.250000' points = '368.4,229.7 368.4,242.4 369.1,242.4 369.1,230.0 '/>
		<polygon fill = 'rgb( 31, 120, 180)' fill-opacity = '0.250000' points = '369.1,230.0 369.1,242.4 369.8,242.4 369.8,230.2 '/>
		<polygon fill = 'rgb( 31, 120, 180)' fill-opacity = '0.250000' points = '369.8,230.2 369.8,242.4 370.4,242.4 370.4,230.5 '/>
		<polygon fill = 'rgb( 31, 120, 180)' fill-opacity = '0.250000' points = '370.4,230.5 370.4,242.4 371.1,242.4 371.1,230.7 '/>
		<polygon fill = 'rgb( 31, 120, 180)' fill-opacity = '0.250000' points = '371.1,230.7 371.1,242.4 371.7,242.4 371.7,231.0 '/>
		<polygon fill = 'rgb( 31, 120, 180)' fill-opacity = '0.250000' points = '371.7,231.0 371.7,242.4 372.4,242.4 372.4,231.3 '/>
		<polygon fill = 'rgb( 31, 120, 180)' fill-opacity = '0.250000' points = '372.4,231.3 372.4,242.4 373.0,242.4 373.0,231.5 '/>
		<polygon fill = 'rgb( 31, 120, 180)' fill-opacity = '0.250000' points = '373.0,231.5 373.0,242.4 373.7,242.4 373.7,231.8 '/>
		<polygon fill = 'rgb( 31, 120, 180)' fill-opacity = '0.250000' points = '373.7,231.8 373.7,242.4 374.4,242.4 374.4,232.1 '/>
		<polygon fill = 'rgb( 31, 120, 180)' fill-opacity = '0.250000' points = '374.4,232.1 374.4,242.4 375.0,242.4 375.0,232.3 '/>
		<polygon fill = 'rgb( 31, 120, 180)' fill-opacity = '0.250000' points = '375.0,232.3 375.0,242.4 375.7,242.4 375.7,232.6 '/>
		<polygon fill = 'rgb( 31, 120, 180)' fill-opacity = '0.250000' points = '375.7,232.6 375.7,242.4 376.3,242.4 376.3,232.9 '/>
		<polygon fill = 'rgb( 31, 120, 180)' fill-opacity = '0.250000' points = '376.3,232.9 376.3,242.4 377.0,242.4 377.0,233.1 '/>
		<polygon fill = 'rgb( 31, 120, 180)' fill-opacity = '0.250000' points = '377.0,233.1 377.0,242.4 377.6,242.4 377.6,233.4 '/>
		<polygon fill = 'rgb( 31, 120, 180)' fill-opacity = '0.250000' points = '377.6,233.4 377.6,242.4 378.3,242.4 378.3,233.6 '/>
		<polygon fill = 'rgb( 31, 120, 180)' fill-opacity = '0.250000' points = '378.3,233.6 378.3,242.4 379.0,242.4 379.0,233.9 '/>
		<polygon fill = 'rgb( 31, 120, 180)' fill-opacity = '0.250000' points = '379.0,233.9 379.0,242.4 379.6,242.4 379.6,234.2 '/>
		<polygon fill = 'rgb( 31, 120, 180)' fill-opacity = '0.250000' points = '379.6,234.2 379.6,242.4 380.3,242.4 380.3,234.4 '/>
		<polygon fill = 'rgb( 31, 120, 180)' fill-opacity = '0.250000' points = '380.3,234.4 380.3,242.4 380.9,242.4 380.9,234.7 '/>
		<polygon fill = 'rgb( 31, 120, 180)' fill-opacity = '0.250000' points = '380.9,234.7 380.9,242.4 381.6,242.4 381.6,234.9 '/>
		<polygon fill = 'rgb( 31, 120, 180)' fill-opacity = '0.250000' points = '381.6,234.9 381.6,242.4 382.2,242.4 382.2,235.2 '/>
		<polygon fill = 'rgb( 31, 120, 180)' fill-opacity = '0.250000' points = '382.2,235.2 382.2,242.4 382.9,242.4 382.9,235.4 '/>
		<polygon fill = 'rgb( 31, 120, 180)' fill-opacity = '0.250000' points = '382.9,235.4 382.9,242.4 383.6,242.4 383.6,235.7 '/>
		<polygon fill = 'rgb( 31, 120, 180)' fill-opacity = '0.250000' points = '383.6,235.7 383.6,242.4 384.2,242.4 384.2,235.9 '/>
		<polygon fill = 'rgb( 31, 120, 180)' fill-opacity = '0.250000' points = '384.2,235.9 384.2,242.4 384.9,242.4 384.9,236.1 '/>
		<polygon fill = 'rgb( 31, 120, 180)' fill-opacity = '0.250000' points = '384.9,236.1 384.9,242.4 385.5,242.4 385.5,236.3 '/>
		<polygon fill = 'rgb( 31, 120, 180)' fill-opacity = '0.250000' points = '385.5,236.3 385.5,242.4 386.2,242.4 386.2,236.6 '/>
		<polygon fill = 'rgb( 31, 120, 180)' fill-opacity = '0.250000' points = '386.2,236.6 386.2,242.4 386.9,242.4 386.9,236.8 '/>
		<polygon fill = 'rgb( 31, 120, 180)' fill-opacity = '0.250000' points = '386.9,236.8 386.9,242.4 387.5,242.4 387.5,237.0 '/>
		<polygon fill = 'rgb( 31, 120, 180)' fill-opacity = '0.250000' points = '387.5,237.0 387.5,242.4 388.2,242.4 388.2,237.2 '/>
		<polygon fill = 'rgb( 31, 120, 180)' fill-opacity = '0.250000' points = '388.2,237.2 388.2,242.4 388.8,242.4 388.8,237.4 '/>
		<polygon fill = 'rgb( 31, 120, 180)' fill-opacity = '0.250000' points = '388.8,237.4 388.8,242.4 389.5,242.4 389.5,237.6 '/>
		<polygon fill = 'rgb( 31, 120, 180)' fill-opacity = '0.250000' points = '389.5,237.6 389.5,242.4 390.1,242.4 390.1,237.8 '/>
		<polygon fill = 'rgb( 31, 120, 180)' fill-opacity = '0.250000' points = '390.1,237.8 390.1,242.4 390.8,242.4 390.8,238.0 '/>
		<polygon fill = 'rgb( 31, 120, 180)' fill-opacity = '0.250000' points = '390.8,238.0 390.8,242.4 391.5,242.4 391.5,238.2 '/>
		<polygon fill = 'rgb( 31, 120, 180)' fill-opacity = '0.250000' points = '391.5,238.2 391.5,242.4 392.1,242.4 392.1,238.4 '/>
		<polygon fill = 'rgb( 31, 120, 180)' fill-opacity = '0.250000' points = '392.1,238.4 392.1,242.4 392.8,242.4 392.8,238.6 '/>
		<polygon fill = 'rgb( 31, 120, 180)' fill-opacity = '0.250000' points = '392.8,238.6 392.8,242.4 393.4,242.4 393.4,238.7 '/>
		<polygon fill = 'rgb( 31, 120, 180)' fill-opacity = '0.250000' points = '393.4,238.7 393.4,242.4 394.1,242.4 394.1,238.9 '/>
		<polygon fill = 'rgb( 31, 120, 180)' fill-opacity = '0.250000' points = '394.1,238.9 394.1,242.4 394.7,242.4 394.7,239.1 '/>
		<polygon fill = 'rgb( 31, 120, 180)' fill-opacity = '0.250000' points = '394.7,239.1 394.7,242.4 395.4,242.4 395.4,239.2 '/>
		<polygon fill = 'rgb( 31, 120, 180)' fill-opacity = '0.250000' points = '395.4,239.2 395.4,242.4 396.1,242.4 396.1,239.4 '/>
		<polygon fill = 'rgb( 31, 120, 180)' fill-opacity = '0.250000' points = '396.1,239.4 396.1,242.4 396.7,242.4 396.7,239.5 '/>
		<polygon fill = 'rgb( 31, 120, 180)' fill-opacity = '0.250000' points = '396.7,239.5 396.7,242.4 397.4,242.4 397.4,239.6 '/>
		<polygon fill = 'rgb( 31, 120, 180)' fill-opacity = '0.250000' points = '397.4,239.6 397.4,242.4 398.0,242.4 398.0,239.8 '/>
		<polygon fill = 'rgb( 31, 120, 180)' fill-opacity = '0.250000' points = '398.0,239.8 398.0,242.4 398.7,242.4 398.7,239.9 '/>
		<polygon fill = 'rgb( 31, 120, 180)' fill-opacity = '0.250000' points = '398.7,239.9 398.7,242.4 399.3,242.4 399.3,240.0 '/>
		<polygon fill = 'rgb( 31, 120, 180)' fill-opacity = '0.250000' points = '399.3,240.0 399.3,242.4 400.0,242.4 400.0,240.2 '/>
		<polygon fill = 'rgb( 31, 120, 180)' fill-opacity = '0.250000' points = '400.0,240.2 400.0,242.4 400.7,242.4 400.7,240.3 '/>
		<polygon fill = 'rgb( 31, 120, 180)' fill-opacity = '0.250000' points = '400.7,240.3 400.7,242.4 401.3,242.4 401.3,240.4 '/>
		<polygon fill = 'rgb( 31, 120, 180)' fill-opacity = '0.250000' points = '401.3,240.4 401.3,242.4 402.0,242.4 402.0,240.5 '/>
		<polygon fill = 'rgb( 31, 120, 180)' fill-opacity = '0.250000' points = '402.0,240.5 402.0,242.4 402.6,242.4 402.6,240.6 '/>
		<polygon fill = 'rgb( 31, 120, 180)' fill-opacity = '0.250000' points = '402.6,240.6 402.6,242.4 403.3,242.4 403.3,240.7 '/>
		<polygon fill = 'rgb( 31, 120, 180)' fill-opacity = '0.250000' points = '403.3,240.7 403.3,242.4 404.0,242.4 404.0,240.8 '/>
		<polygon fill = 'rgb( 31, 120, 180)' fill-opacity = '0.250000' points = '404.0,240.8 404.0,242.4 404.6,242.4 404.6,240.9 '/>
		<polygon fill = 'rgb( 31, 120, 180)' fill-opacity = '0.250000' points = '404.6,240.9 404.6,242.4 405.3,242.4 405.3,241.0 '/>
		<polygon fill = 'rgb( 31, 120, 180)' fill-opacity = '0.250000' points = '405.3,241.0 405.3,242.4 405.9,242.4 405.9,241.0 '/>
		<polygon fill = 'rgb( 31, 120, 180)' fill-opacity = '0.250000' points = '405.9,241.0 405.9,242.4 406.6,242.4 406.6,241.1 '/>
		<polygon fill = 'rgb( 31, 120, 180)' fill-opacity = '0.250000' points = '406.6,241.1 406.6,242.4 407.2,242.4 407.2,241.2 '/>
		<polygon fill = 'rgb( 31, 120, 180)' fill-opacity = '0.250000' points = '407.2,241.2 407.2,242.4 407.9,242.4 407.9,241.3 '/>
		<polygon fill = 'rgb( 31, 120, 180)' fill-opacity = '0.250000' points = '407.9,241.3 407.9,242.4 408.6,242.4 408.6,241.3 '/>
		<polygon fill = 'rgb( 31, 120, 180)' fill-opacity = '0.250000' points = '408.6,241.3 408.6,242.4 409.2,242.4 409.2,241.4 '/>
		<polygon fill = 'rgb( 31, 120, 180)' fill-opacity = '0.250000' points = '409.2,241.4 409.2,242.4 409.9,242.4 409.9,241.5 '/>
		<polygon fill = 'rgb( 31, 120, 180)' fill-opacity = '0.250000' points = '409.9,241.5 409.9,242.4 410.5,242.4 410.5,241.5 '/>
		<polygon fill = 'rgb( 31, 120, 180)' fill-opacity = '0.250000' points = '410.5,241.5 410.5,242.4 411.2,242.4 411.2,241.6 '/>
		<polygon fill = 'rgb( 31, 120, 180)' fill-opacity = '0.250000' points = '411.2,241.6 411.2,242.4 411.8,242.4 411.8,241.6 '/>
		<polygon fill = 'rgb( 31, 120, 180)' fill-opacity = '0.250000' points = '411.8,241.6 411.8,242.4 412.5,242.4 412.5,241.7 '/>
		<polygon fill = 'rgb( 31, 120, 180)' fill-opacity = '0.250000' points = '412.5,241.7 412.5,242.4 413.2,242.4 413.2,241.7 '/>
		<polygon fill = 'rgb( 31, 120, 180)' fill-opacity = '0.250000' points = '413.2,241.7 413.2,242.4 413.8,242.4 413.8,241.8 '/>
		<polygon fill = 'rgb( 31, 120, 180)' fill-opacity = '0.250000' points = '413.8,241.8 413.8,242.4 414.5,242.4 414.5,241.8 '/>
		<polygon fill = 'rgb( 31, 120, 180)' fill-opacity = '0.250000' points = '414.5,241.8 414.5,242.4 415.1,242.4 415.1,241.8 '/>
		<polygon fill = 'rgb( 31, 120, 180)' fill-opacity = '0.250000' points = '415.1,241.8 415.1,242.4 415.8,242.4 415.8,241.9 '/>
		<polygon fill = 'rgb( 31, 120, 180)' fill-opacity = '0.250000' points = '415.8,241.9 415.8,242.4 416.4,242.4 416.4,241.9 '/>
		<polygon fill = 'rgb( 31, 120, 180)' fill-opacity = '0.250000' points = '416.4,241.9 416.4,242.4 417.1,242.4 417.1,242.0 '/>
		<polygon fill = 'rgb( 31, 120, 180)' fill-opacity = '0.250000' points = '417.1,242.0 417.1,242.4 417.8,242.4 417.8,242.0 '/>
		<polygon fill = 'rgb( 31, 120, 180)' fill-opacity = '0.250000' points = '417.8,242.0 417.8,242.4 418.4,242.4 418.4,242.0 '/>
		<polygon fill = 'rgb( 31, 120, 180)' fill-opacity = '0.250000' points = '418.4,242.0 418.4,242.4 419.1,242.4 419.1,242.0 '/>
		<polygon fill = 'rgb( 31, 120, 180)' fill-opacity = '0.250000' points = '419.1,242.0 419.1,242.4 419.7,242.4 419.7,242.1 '/>
		<polygon fill = 'rgb( 31, 120, 180)' fill-opacity = '0.250000' points = '419.7,242.1 419.7,242.4 420.4,242.4 420.4,242.1 '/>
		<polygon fill = 'rgb( 31, 120, 180)' fill-opacity = '0.250000' points = '420.4,242.1 420.4,242.4 421.1,242.4 421.1,242.1 '/>
		<polygon fill = 'rgb( 31, 120, 180)' fill-opacity = '0.250000' points = '421.1,242.1 421.1,242.4 421.7,242.4 421.7,242.1 '/>
		<polygon fill = 'rgb( 31, 120, 180)' fill-opacity = '0.250000' points = '421.7,242.1 421.7,242.4 422.4,242.4 422.4,242.2 '/>
		<polygon fill = 'rgb( 31, 120, 180)' fill-opacity = '0.250000' points = '422.4,242.2 422.4,242.4 423.0,242.4 423.0,242.2 '/>
		<polygon fill = 'rgb( 31, 120, 180)' fill-opacity = '0.250000' points = '423.0,242.2 423.0,242.4 423.7,242.4 423.7,242.2 '/>
		<polygon fill = 'rgb( 31, 120, 180)' fill-opacity = '0.250000' points = '423.7,242.2 423.7,242.4 424.3,242.4 424.3,242.2 '/>
		<polygon fill = 'rgb( 31, 120, 180)' fill-opacity = '0.250000' points = '424.3,242.2 424.3,242.4 425.0,242.4 425.0,242.2 '/>
	</g>
</g>
	</g>
	<g id="gnuplot_plot_2" ><title>Mean</title>
<g fill="none" color="white" stroke="rgb( 31, 120, 180)" stroke-width="2.00" stroke-linecap="butt" stroke-linejoin="miter">
</g>
<g fill="none" color="black" stroke="currentColor" stroke-width="2.00" stroke-linecap="butt" stroke-linejoin="miter">
	<path stroke='rgb( 31, 120, 180)'  d='M216.1,242.4 L216.1,55.5  '/></g>
	</g>
<g fill="none" color="black" stroke="currentColor" stroke-width="2.00" stroke-linecap="butt" stroke-linejoin="miter">
</g>
<g fill="none" color="black" stroke="black" stroke-width="1.00" stroke-linecap="butt" stroke-linejoin="miter">
</g>
<g fill="none" color="black" stroke="currentColor" stroke-width="1.00" stroke-linecap="butt" stroke-linejoin="miter">
	<path stroke='black'  d='M96.8,16.7 L96.8,242.4 L425.0,242.4 L425.0,16.7 L96.8,16.7 Z  '/></g>
<g fill="none" color="black" stroke="currentColor" stroke-width="1.00" stroke-linecap="butt" stroke-linejoin="miter">
</g>
</g>
</svg>

