<?xml version="1.0" encoding="utf-8"  standalone="no"?>
<svg 
 viewBox="0 0 1280 720"
 xmlns="http://www.w3.org/2000/svg"
 xmlns:xlink="http://www.w3.org/1999/xlink"
>

<title>Gnuplot</title>
<desc>Produced by GNUPLOT 5.0 patchlevel 6 </desc>

<g id="gnuplot_canvas">

<rect x="0" y="0" width="1280" height="720" fill="none"/>
<defs>

	<circle id='gpDot' r='0.5' stroke-width='0.5'/>
	<path id='gpPt0' stroke-width='0.222' stroke='currentColor' d='M-1,0 h2 M0,-1 v2'/>
	<path id='gpPt1' stroke-width='0.222' stroke='currentColor' d='M-1,-1 L1,1 M1,-1 L-1,1'/>
	<path id='gpPt2' stroke-width='0.222' stroke='currentColor' d='M-1,0 L1,0 M0,-1 L0,1 M-1,-1 L1,1 M-1,1 L1,-1'/>
	<rect id='gpPt3' stroke-width='0.222' stroke='currentColor' x='-1' y='-1' width='2' height='2'/>
	<rect id='gpPt4' stroke-width='0.222' stroke='currentColor' fill='currentColor' x='-1' y='-1' width='2' height='2'/>
	<circle id='gpPt5' stroke-width='0.222' stroke='currentColor' cx='0' cy='0' r='1'/>
	<use xlink:href='#gpPt5' id='gpPt6' fill='currentColor' stroke='none'/>
	<path id='gpPt7' stroke-width='0.222' stroke='currentColor' d='M0,-1.33 L-1.33,0.67 L1.33,0.67 z'/>
	<use xlink:href='#gpPt7' id='gpPt8' fill='currentColor' stroke='none'/>
	<use xlink:href='#gpPt7' id='gpPt9' stroke='currentColor' transform='rotate(180)'/>
	<use xlink:href='#gpPt9' id='gpPt10' fill='currentColor' stroke='none'/>
	<use xlink:href='#gpPt3' id='gpPt11' stroke='currentColor' transform='rotate(45)'/>
	<use xlink:href='#gpPt11' id='gpPt12' fill='currentColor' stroke='none'/>
	<path id='gpPt13' stroke-width='0.222' stroke='currentColor' d='M0,1.330 L1.265,0.411 L0.782,-1.067 L-0.782,-1.076 L-1.265,0.411 z'/>
	<use xlink:href='#gpPt13' id='gpPt14' fill='currentColor' stroke='none'/>
	<filter id='textbox' filterUnits='objectBoundingBox' x='0' y='0' height='1' width='1'>
	  <feFlood flood-color='white' flood-opacity='1' result='bgnd'/>
	  <feComposite in='SourceGraphic' in2='bgnd' operator='atop'/>
	</filter>
	<filter id='greybox' filterUnits='objectBoundingBox' x='0' y='0' height='1' width='1'>
	  <feFlood flood-color='lightgrey' flood-opacity='1' result='grey'/>
	  <feComposite in='SourceGraphic' in2='grey' operator='atop'/>
	</filter>
</defs>
<g fill="none" color="white" stroke="currentColor" stroke-width="1.00" stroke-linecap="butt" stroke-linejoin="miter">
</g>
<g fill="none" color="black" stroke="currentColor" stroke-width="1.00" stroke-linecap="butt" stroke-linejoin="miter">
	<path stroke='black'  d='M71.9,662.4 L80.9,662.4  '/>	<g transform="translate(63.6,666.3)" stroke="none" fill="black" font-family="Helvetica" font-size="12.00"  text-anchor="end">
		<text><tspan font-family="Helvetica" > 0</tspan></text>
	</g>
</g>
<g fill="none" color="black" stroke="currentColor" stroke-width="1.00" stroke-linecap="butt" stroke-linejoin="miter">
	<path stroke='black'  d='M71.9,540.7 L80.9,540.7  '/>	<g transform="translate(63.6,544.6)" stroke="none" fill="black" font-family="Helvetica" font-size="12.00"  text-anchor="end">
		<text><tspan font-family="Helvetica" > 50</tspan></text>
	</g>
</g>
<g fill="none" color="black" stroke="currentColor" stroke-width="1.00" stroke-linecap="butt" stroke-linejoin="miter">
	<path stroke='black'  d='M71.9,419.1 L80.9,419.1  '/>	<g transform="translate(63.6,423.0)" stroke="none" fill="black" font-family="Helvetica" font-size="12.00"  text-anchor="end">
		<text><tspan font-family="Helvetica" > 100</tspan></text>
	</g>
</g>
<g fill="none" color="black" stroke="currentColor" stroke-width="1.00" stroke-linecap="butt" stroke-linejoin="miter">
	<path stroke='black'  d='M71.9,297.4 L80.9,297.4  '/>	<g transform="translate(63.6,301.3)" stroke="none" fill="black" font-family="Helvetica" font-size="12.00"  text-anchor="end">
		<text><tspan font-family="Helvetica" > 150</tspan></text>
	</g>
</g>
<g fill="none" color="black" stroke="currentColor" stroke-width="1.00" stroke-linecap="butt" stroke-linejoin="miter">
	<path stroke='black'  d='M71.9,175.8 L80.9,175.8  '/>	<g transform="translate(63.6,179.7)" stroke="none" fill="black" font-family="Helvetica" font-size="12.00"  text-anchor="end">
		<text><tspan font-family="Helvetica" > 200</tspan></text>
	</g>
</g>
<g fill="none" color="black" stroke="currentColor" stroke-width="1.00" stroke-linecap="butt" stroke-linejoin="miter">
	<path stroke='black'  d='M71.9,54.1 L80.9,54.1  '/>	<g transform="translate(63.6,58.0)" stroke="none" fill="black" font-family="Helvetica" font-size="12.00"  text-anchor="end">
		<text><tspan font-family="Helvetica" > 250</tspan></text>
	</g>
</g>
<g fill="none" color="black" stroke="currentColor" stroke-width="1.00" stroke-linecap="butt" stroke-linejoin="miter">
	<path stroke='black'  d='M147.1,662.4 L147.1,653.4  '/>	<g transform="translate(147.1,684.3)" stroke="none" fill="black" font-family="Helvetica" font-size="12.00"  text-anchor="middle">
		<text><tspan font-family="Helvetica" > 2.121</tspan></text>
	</g>
</g>
<g fill="none" color="black" stroke="currentColor" stroke-width="1.00" stroke-linecap="butt" stroke-linejoin="miter">
	<path stroke='black'  d='M251.7,662.4 L251.7,653.4  '/>	<g transform="translate(251.7,684.3)" stroke="none" fill="black" font-family="Helvetica" font-size="12.00"  text-anchor="middle">
		<text><tspan font-family="Helvetica" > 2.122</tspan></text>
	</g>
</g>
<g fill="none" color="black" stroke="currentColor" stroke-width="1.00" stroke-linecap="butt" stroke-linejoin="miter">
	<path stroke='black'  d='M356.3,662.4 L356.3,653.4  '/>	<g transform="translate(356.3,684.3)" stroke="none" fill="black" font-family="Helvetica" font-size="12.00"  text-anchor="middle">
		<text><tspan font-family="Helvetica" > 2.123</tspan></text>
	</g>
</g>
<g fill="none" color="black" stroke="currentColor" stroke-width="1.00" stroke-linecap="butt" stroke-linejoin="miter">
	<path stroke='black'  d='M461.0,662.4 L461.0,653.4  '/>	<g transform="translate(461.0,684.3)" stroke="none" fill="black" font-family="Helvetica" font-size="12.00"  text-anchor="middle">
		<text><tspan font-family="Helvetica" > 2.124</tspan></text>
	</g>
</g>
<g fill="none" color="black" stroke="currentColor" stroke-width="1.00" stroke-linecap="butt" stroke-linejoin="miter">
	<path stroke='black'  d='M565.6,662.4 L565.6,653.4  '/>	<g transform="translate(565.6,684.3)" stroke="none" fill="black" font-family="Helvetica" font-size="12.00"  text-anchor="middle">
		<text><tspan font-family="Helvetica" > 2.125</tspan></text>
	</g>
</g>
<g fill="none" color="black" stroke="currentColor" stroke-width="1.00" stroke-linecap="butt" stroke-linejoin="miter">
	<path stroke='black'  d='M670.2,662.4 L670.2,653.4  '/>	<g transform="translate(670.2,684.3)" stroke="none" fill="black" font-family="Helvetica" font-size="12.00"  text-anchor="middle">
		<text><tspan font-family="Helvetica" > 2.126</tspan></text>
	</g>
</g>
<g fill="none" color="black" stroke="currentColor" stroke-width="1.00" stroke-linecap="butt" stroke-linejoin="miter">
	<path stroke='black'  d='M774.8,662.4 L774.8,653.4  '/>	<g transform="translate(774.8,684.3)" stroke="none" fill="black" font-family="Helvetica" font-size="12.00"  text-anchor="middle">
		<text><tspan font-family="Helvetica" > 2.127</tspan></text>
	</g>
</g>
<g fill="none" color="black" stroke="currentColor" stroke-width="1.00" stroke-linecap="butt" stroke-linejoin="miter">
	<path stroke='black'  d='M879.4,662.4 L879.4,653.4  '/>	<g transform="translate(879.4,684.3)" stroke="none" fill="black" font-family="Helvetica" font-size="12.00"  text-anchor="middle">
		<text><tspan font-family="Helvetica" > 2.128</tspan></text>
	</g>
</g>
<g fill="none" color="black" stroke="currentColor" stroke-width="1.00" stroke-linecap="butt" stroke-linejoin="miter">
	<path stroke='black'  d='M984.0,662.4 L984.0,653.4  '/>	<g transform="translate(984.0,684.3)" stroke="none" fill="black" font-family="Helvetica" font-size="12.00"  text-anchor="middle">
		<text><tspan font-family="Helvetica" > 2.129</tspan></text>
	</g>
</g>
<g fill="none" color="black" stroke="currentColor" stroke-width="1.00" stroke-linecap="butt" stroke-linejoin="miter">
</g>
<g fill="none" color="black" stroke="currentColor" stroke-width="1.00" stroke-linecap="butt" stroke-linejoin="miter">
	<path stroke='black'  d='M71.9,54.1 L71.9,662.4 L1013.6,662.4 L1013.6,54.1 L71.9,54.1 Z  '/></g>
<g fill="none" color="black" stroke="currentColor" stroke-width="1.00" stroke-linecap="butt" stroke-linejoin="miter">
	<g transform="translate(17.0,358.3) rotate(270)" stroke="none" fill="black" font-family="Helvetica" font-size="12.00"  text-anchor="middle">
		<text><tspan font-family="Helvetica" >Density (a.u.)</tspan></text>
	</g>
</g>
<g fill="none" color="black" stroke="currentColor" stroke-width="1.00" stroke-linecap="butt" stroke-linejoin="miter">
	<g transform="translate(542.7,711.3)" stroke="none" fill="black" font-family="Helvetica" font-size="12.00"  text-anchor="middle">
		<text><tspan font-family="Helvetica" >Average time (ms)</tspan></text>
	</g>
</g>
<g fill="none" color="black" stroke="currentColor" stroke-width="1.00" stroke-linecap="butt" stroke-linejoin="miter">
	<g transform="translate(542.7,31.0)" stroke="none" fill="black" font-family="Helvetica" font-size="12.00"  text-anchor="middle">
		<text><tspan font-family="Helvetica" >language: ruby/parse error: bash/examples/atom.sh: slope</tspan></text>
	</g>
</g>
	<g id="gnuplot_plot_1" ><title>Bootstrap distribution</title>
<g fill="none" color="white" stroke="black" stroke-width="2.00" stroke-linecap="butt" stroke-linejoin="miter">
</g>
<g fill="none" color="black" stroke="currentColor" stroke-width="2.00" stroke-linecap="butt" stroke-linejoin="miter">
	<g transform="translate(1089.0,67.0)" stroke="none" fill="black" font-family="Helvetica" font-size="12.00"  text-anchor="start">
		<text><tspan font-family="Helvetica" >Bootstrap distribution</tspan></text>
	</g>
</g>
<g fill="none" color="black" stroke="currentColor" stroke-width="2.00" stroke-linecap="butt" stroke-linejoin="miter">
	<path stroke='rgb( 31, 120, 180)'  d='M1038.5,63.1 L1080.7,63.1 M71.9,632.6 L73.8,631.4 L75.7,630.2 L77.6,629.0 L79.4,627.7 L81.3,626.4
		L83.2,625.1 L85.1,623.8 L87.0,622.4 L88.9,621.0 L90.8,619.6 L92.7,618.1 L94.5,616.6 L96.4,615.1
		L98.3,613.6 L100.2,612.0 L102.1,610.5 L104.0,608.9 L105.9,607.3 L107.8,605.6 L109.6,604.0 L111.5,602.3
		L113.4,600.6 L115.3,599.0 L117.2,597.2 L119.1,595.5 L121.0,593.8 L122.9,592.1 L124.7,590.3 L126.6,588.5
		L128.5,586.8 L130.4,585.0 L132.3,583.2 L134.2,581.4 L136.1,579.6 L138.0,577.8 L139.8,576.0 L141.7,574.3
		L143.6,572.5 L145.5,570.7 L147.4,568.9 L149.3,567.1 L151.2,565.3 L153.0,563.5 L154.9,561.8 L156.8,560.0
		L158.7,558.3 L160.6,556.5 L162.5,554.8 L164.4,553.0 L166.3,551.3 L168.1,549.6 L170.0,547.9 L171.9,546.2
		L173.8,544.5 L175.7,542.7 L177.6,541.0 L179.5,539.3 L181.4,537.6 L183.2,535.9 L185.1,534.2 L187.0,532.5
		L188.9,530.8 L190.8,529.1 L192.7,527.3 L194.6,525.6 L196.5,523.9 L198.3,522.1 L200.2,520.4 L202.1,518.6
		L204.0,516.9 L205.9,515.1 L207.8,513.4 L209.7,511.6 L211.6,509.8 L213.4,508.0 L215.3,506.2 L217.2,504.4
		L219.1,502.5 L221.0,500.7 L222.9,498.8 L224.8,496.9 L226.6,494.9 L228.5,493.0 L230.4,491.0 L232.3,489.0
		L234.2,486.9 L236.1,484.8 L238.0,482.7 L239.9,480.6 L241.7,478.4 L243.6,476.1 L245.5,473.8 L247.4,471.5
		L249.3,469.2 L251.2,466.8 L253.1,464.4 L255.0,461.9 L256.8,459.4 L258.7,456.8 L260.6,454.3 L262.5,451.7
		L264.4,449.0 L266.3,446.4 L268.2,443.7 L270.1,441.0 L271.9,438.2 L273.8,435.4 L275.7,432.7 L277.6,429.8
		L279.5,427.0 L281.4,424.2 L283.3,421.3 L285.2,418.4 L287.0,415.5 L288.9,412.6 L290.8,409.6 L292.7,406.7
		L294.6,403.7 L296.5,400.8 L298.4,397.8 L300.2,394.8 L302.1,391.8 L304.0,388.8 L305.9,385.8 L307.8,382.8
		L309.7,379.8 L311.6,376.8 L313.5,373.8 L315.3,370.9 L317.2,367.9 L319.1,364.9 L321.0,362.0 L322.9,359.0
		L324.8,356.1 L326.7,353.2 L328.6,350.3 L330.4,347.4 L332.3,344.6 L334.2,341.7 L336.1,338.9 L338.0,336.1
		L339.9,333.3 L341.8,330.5 L343.7,327.7 L345.5,324.9 L347.4,322.1 L349.3,319.4 L351.2,316.6 L353.1,313.9
		L355.0,311.1 L356.9,308.4 L358.8,305.6 L360.6,302.8 L362.5,300.0 L364.4,297.2 L366.3,294.4 L368.2,291.6
		L370.1,288.7 L372.0,285.9 L373.8,283.0 L375.7,280.1 L377.6,277.3 L379.5,274.4 L381.4,271.5 L383.3,268.7
		L385.2,265.8 L387.1,263.0 L388.9,260.2 L390.8,257.5 L392.7,254.8 L394.6,252.1 L396.5,249.5 L398.4,247.0
		L400.3,244.5 L402.2,242.1 L404.0,239.7 L405.9,237.4 L407.8,235.2 L409.7,233.0 L411.6,230.8 L413.5,228.7
		L415.4,226.7 L417.3,224.7 L419.1,222.7 L421.0,220.7 L422.9,218.7 L424.8,216.8 L426.7,214.9 L428.6,212.9
		L430.5,211.0 L432.4,209.1 L434.2,207.2 L436.1,205.2 L438.0,203.3 L439.9,201.4 L441.8,199.5 L443.7,197.6
		L445.6,195.8 L447.4,194.0 L449.3,192.2 L451.2,190.4 L453.1,188.7 L455.0,187.0 L456.9,185.4 L458.8,183.8
		L460.7,182.3 L462.5,180.9 L464.4,179.6 L466.3,178.3 L468.2,177.1 L470.1,176.0 L472.0,174.9 L473.9,174.0
		L475.8,173.1 L477.6,172.3 L479.5,171.5 L481.4,170.9 L483.3,170.3 L485.2,169.7 L487.1,169.3 L489.0,168.9
		L490.9,168.6 L492.7,168.3 L494.6,168.1 L496.5,167.9 L498.4,167.8 L500.3,167.7 L502.2,167.6 L504.1,167.6
		L506.0,167.6 L507.8,167.7 L509.7,167.8 L511.6,167.9 L513.5,168.1 L515.4,168.3 L517.3,168.5 L519.2,168.8
		L521.0,169.0 L522.9,169.3 L524.8,169.7 L526.7,170.0 L528.6,170.4 L530.5,170.8 L532.4,171.2 L534.3,171.7
		L536.1,172.1 L538.0,172.6 L539.9,173.2 L541.8,173.7 L543.7,174.3 L545.6,174.9 L547.5,175.5 L549.4,176.2
		L551.2,176.9 L553.1,177.6 L555.0,178.3 L556.9,179.0 L558.8,179.8 L560.7,180.6 L562.6,181.5 L564.5,182.3
		L566.3,183.2 L568.2,184.1 L570.1,185.0 L572.0,186.0 L573.9,187.0 L575.8,188.0 L577.7,189.0 L579.5,190.0
		L581.4,191.0 L583.3,192.1 L585.2,193.1 L587.1,194.2 L589.0,195.3 L590.9,196.4 L592.8,197.4 L594.6,198.5
		L596.5,199.6 L598.4,200.8 L600.3,201.9 L602.2,203.0 L604.1,204.2 L606.0,205.3 L607.9,206.6 L609.7,207.8
		L611.6,209.1 L613.5,210.4 L615.4,211.8 L617.3,213.2 L619.2,214.7 L621.1,216.2 L623.0,217.9 L624.8,219.5
		L626.7,221.3 L628.6,223.1 L630.5,225.0 L632.4,226.9 L634.3,228.9 L636.2,231.0 L638.1,233.1 L639.9,235.2
		L641.8,237.4 L643.7,239.6 L645.6,241.8 L647.5,244.1 L649.4,246.4 L651.3,248.6 L653.1,250.9 L655.0,253.2
		L656.9,255.5 L658.8,257.7 L660.7,260.0 L662.6,262.3 L664.5,264.5 L666.4,266.8 L668.2,269.1 L670.1,271.4
		L672.0,273.7 L673.9,276.0 L675.8,278.3 L677.7,280.7 L679.6,283.0 L681.5,285.4 L683.3,287.9 L685.2,290.3
		L687.1,292.8 L689.0,295.4 L690.9,297.9 L692.8,300.5 L694.7,303.1 L696.6,305.7 L698.4,308.3 L700.3,311.0
		L702.2,313.6 L704.1,316.3 L706.0,318.9 L707.9,321.6 L709.8,324.2 L711.7,326.9 L713.5,329.6 L715.4,332.3
		L717.3,334.9 L719.2,337.6 L721.1,340.3 L723.0,343.1 L724.9,345.8 L726.7,348.6 L728.6,351.3 L730.5,354.2
		L732.4,357.0 L734.3,359.8 L736.2,362.7 L738.1,365.6 L740.0,368.5 L741.8,371.5 L743.7,374.4 L745.6,377.3
		L747.5,380.3 L749.4,383.3 L751.3,386.2 L753.2,389.2 L755.1,392.1 L756.9,395.0 L758.8,397.9 L760.7,400.8
		L762.6,403.7 L764.5,406.5 L766.4,409.3 L768.3,412.0 L770.2,414.8 L772.0,417.4 L773.9,420.1 L775.8,422.7
		L777.7,425.2 L779.6,427.7 L781.5,430.1 L783.4,432.5 L785.3,434.8 L787.1,437.1 L789.0,439.3 L790.9,441.5
		L792.8,443.6 L794.7,445.7 L796.6,447.8 L798.5,449.8 L800.3,451.8 L802.2,453.8 L804.1,455.7 L806.0,457.6
		L807.9,459.5 L809.8,461.5 L811.7,463.4 L813.6,465.3 L815.4,467.2 L817.3,469.2 L819.2,471.2 L821.1,473.2
		L823.0,475.2 L824.9,477.2 L826.8,479.3 L828.7,481.4 L830.5,483.6 L832.4,485.8 L834.3,488.0 L836.2,490.3
		L838.1,492.6 L840.0,494.9 L841.9,497.2 L843.8,499.6 L845.6,502.0 L847.5,504.4 L849.4,506.8 L851.3,509.2
		L853.2,511.6 L855.1,514.0 L857.0,516.4 L858.9,518.8 L860.7,521.1 L862.6,523.5 L864.5,525.8 L866.4,528.0
		L868.3,530.3 L870.2,532.5 L872.1,534.6 L873.9,536.7 L875.8,538.8 L877.7,540.8 L879.6,542.7 L881.5,544.7
		L883.4,546.5 L885.3,548.4 L887.2,550.2 L889.0,551.9 L890.9,553.7 L892.8,555.3 L894.7,557.0 L896.6,558.7
		L898.5,560.3 L900.4,561.9 L902.3,563.5 L904.1,565.1 L906.0,566.6 L907.9,568.2 L909.8,569.7 L911.7,571.2
		L913.6,572.8 L915.5,574.3 L917.4,575.8 L919.2,577.3 L921.1,578.8 L923.0,580.2 L924.9,581.7 L926.8,583.1
		L928.7,584.5 L930.6,585.9 L932.5,587.3 L934.3,588.7 L936.2,590.0 L938.1,591.4 L940.0,592.7 L941.9,593.9
		L943.8,595.2 L945.7,596.4 L947.5,597.7 L949.4,598.9 L951.3,600.0 L953.2,601.2 L955.1,602.3 L957.0,603.4
		L958.9,604.5 L960.8,605.6 L962.6,606.7 L964.5,607.7 L966.4,608.8 L968.3,609.8 L970.2,610.8 L972.1,611.8
		L974.0,612.9 L975.9,613.9 L977.7,614.9 L979.6,615.9 L981.5,617.0 L983.4,618.0 L985.3,619.0 L987.2,620.1
		L989.1,621.1 L991.0,622.1 L992.8,623.2 L994.7,624.2 L996.6,625.2 L998.5,626.2 L1000.4,627.2 L1002.3,628.2
		L1004.2,629.1 L1006.1,630.1 L1007.9,631.0 L1009.8,631.8 L1011.7,632.7 L1013.6,633.5  '/></g>
	</g>
	<g id="gnuplot_plot_2" ><title>Confidence interval</title>
<g fill="none" color="white" stroke="rgb( 31, 120, 180)" stroke-width="1.00" stroke-linecap="butt" stroke-linejoin="miter">
</g>
<g fill="none" color="black" stroke="currentColor" stroke-width="1.00" stroke-linecap="butt" stroke-linejoin="miter">
	<g transform="translate(1089.0,85.0)" stroke="none" fill="black" font-family="Helvetica" font-size="12.00"  text-anchor="start">
		<text><tspan font-family="Helvetica" >Confidence interval</tspan></text>
	</g>
</g>
<g fill="none" color="black" stroke="currentColor" stroke-width="1.00" stroke-linecap="butt" stroke-linejoin="miter">
	<g stroke='none' shape-rendering='crispEdges'>
		<polygon fill = 'rgb( 31, 120, 180)' fill-opacity = '0.250000' points = '1038.5,85.6 1080.7,85.6 1080.7,76.6 1038.5,76.6 '/>
		<polygon fill = 'rgb( 31, 120, 180)' fill-opacity = '0.250000' points = '158.7,558.3 158.7,662.4 160.6,662.4 160.6,556.5 '/>
		<polygon fill = 'rgb( 31, 120, 180)' fill-opacity = '0.250000' points = '160.6,556.5 160.6,662.4 162.5,662.4 162.5,554.8 '/>
		<polygon fill = 'rgb( 31, 120, 180)' fill-opacity = '0.250000' points = '162.5,554.8 162.5,662.4 164.4,662.4 164.4,553.0 '/>
		<polygon fill = 'rgb( 31, 120, 180)' fill-opacity = '0.250000' points = '164.4,553.0 164.4,662.4 166.3,662.4 166.3,551.3 '/>
		<polygon fill = 'rgb( 31, 120, 180)' fill-opacity = '0.250000' points = '166.3,551.3 166.3,662.4 168.1,662.4 168.1,549.6 '/>
		<polygon fill = 'rgb( 31, 120, 180)' fill-opacity = '0.250000' points = '168.1,549.6 168.1,662.4 170.0,662.4 170.0,547.9 '/>
		<polygon fill = 'rgb( 31, 120, 180)' fill-opacity = '0.250000' points = '170.0,547.9 170.0,662.4 171.9,662.4 171.9,546.2 '/>
		<polygon fill = 'rgb( 31, 120, 180)' fill-opacity = '0.250000' points = '171.9,546.2 171.9,662.4 173.8,662.4 173.8,544.5 '/>
		<polygon fill = 'rgb( 31, 120, 180)' fill-opacity = '0.250000' points = '173.8,544.5 173.8,662.4 175.7,662.4 175.7,542.7 '/>
		<polygon fill = 'rgb( 31, 120, 180)' fill-opacity = '0.250000' points = '175.7,542.7 175.7,662.4 177.6,662.4 177.6,541.0 '/>
		<polygon fill = 'rgb( 31, 120, 180)' fill-opacity = '0.250000' points = '177.6,541.0 177.6,662.4 179.5,662.4 179.5,539.3 '/>
		<polygon fill = 'rgb( 31, 120, 180)' fill-opacity = '0.250000' points = '179.5,539.3 179.5,662.4 181.4,662.4 181.4,537.6 '/>
		<polygon fill = 'rgb( 31, 120, 180)' fill-opacity = '0.250000' points = '181.4,537.6 181.4,662.4 183.2,662.4 183.2,535.9 '/>
		<polygon fill = 'rgb( 31, 120, 180)' fill-opacity = '0.250000' points = '183.2,535.9 183.2,662.4 185.1,662.4 185.1,534.2 '/>
		<polygon fill = 'rgb( 31, 120, 180)' fill-opacity = '0.250000' points = '185.1,534.2 185.1,662.4 187.0,662.4 187.0,532.5 '/>
		<polygon fill = 'rgb( 31, 120, 180)' fill-opacity = '0.250000' points = '187.0,532.5 187.0,662.4 188.9,662.4 188.9,530.8 '/>
		<polygon fill = 'rgb( 31, 120, 180)' fill-opacity = '0.250000' points = '188.9,530.8 188.9,662.4 190.8,662.4 190.8,529.1 '/>
		<polygon fill = 'rgb( 31, 120, 180)' fill-opacity = '0.250000' points = '190.8,529.1 190.8,662.4 192.7,662.4 192.7,527.3 '/>
		<polygon fill = 'rgb( 31, 120, 180)' fill-opacity = '0.250000' points = '192.7,527.3 192.7,662.4 194.6,662.4 194.6,525.6 '/>
		<polygon fill = 'rgb( 31, 120, 180)' fill-opacity = '0.250000' points = '194.6,525.6 194.6,662.4 196.5,662.4 196.5,523.9 '/>
		<polygon fill = 'rgb( 31, 120, 180)' fill-opacity = '0.250000' points = '196.5,523.9 196.5,662.4 198.3,662.4 198.3,522.1 '/>
		<polygon fill = 'rgb( 31, 120, 180)' fill-opacity = '0.250000' points = '198.3,522.1 198.3,662.4 200.2,662.4 200.2,520.4 '/>
		<polygon fill = 'rgb( 31, 120, 180)' fill-opacity = '0.250000' points = '200.2,520.4 200.2,662.4 202.1,662.4 202.1,518.6 '/>
		<polygon fill = 'rgb( 31, 120, 180)' fill-opacity = '0.250000' points = '202.1,518.6 202.1,662.4 204.0,662.4 204.0,516.9 '/>
		<polygon fill = 'rgb( 31, 120, 180)' fill-opacity = '0.250000' points = '204.0,516.9 204.0,662.4 205.9,662.4 205.9,515.1 '/>
		<polygon fill = 'rgb( 31, 120, 180)' fill-opacity = '0.250000' points = '205.9,515.1 205.9,662.4 207.8,662.4 207.8,513.4 '/>
		<polygon fill = 'rgb( 31, 120, 180)' fill-opacity = '0.250000' points = '207.8,513.4 207.8,662.4 209.7,662.4 209.7,511.6 '/>
		<polygon fill = 'rgb( 31, 120, 180)' fill-opacity = '0.250000' points = '209.7,511.6 209.7,662.4 211.6,662.4 211.6,509.8 '/>
		<polygon fill = 'rgb( 31, 120, 180)' fill-opacity = '0.250000' points = '211.6,509.8 211.6,662.4 213.4,662.4 213.4,508.0 '/>
		<polygon fill = 'rgb( 31, 120, 180)' fill-opacity = '0.250000' points = '213.4,508.0 213.4,662.4 215.3,662.4 215.3,506.2 '/>
		<polygon fill = 'rgb( 31, 120, 180)' fill-opacity = '0.250000' points = '215.3,506.2 215.3,662.4 217.2,662.4 217.2,504.4 '/>
		<polygon fill = 'rgb( 31, 120, 180)' fill-opacity = '0.250000' points = '217.2,504.4 217.2,662.4 219.1,662.4 219.1,502.5 '/>
		<polygon fill = 'rgb( 31, 120, 180)' fill-opacity = '0.250000' points = '219.1,502.5 219.1,662.4 221.0,662.4 221.0,500.7 '/>
		<polygon fill = 'rgb( 31, 120, 180)' fill-opacity = '0.250000' points = '221.0,500.7 221.0,662.4 222.9,662.4 222.9,498.8 '/>
		<polygon fill = 'rgb( 31, 120, 180)' fill-opacity = '0.250000' points = '222.9,498.8 222.9,662.4 224.8,662.4 224.8,496.9 '/>
		<polygon fill = 'rgb( 31, 120, 180)' fill-opacity = '0.250000' points = '224.8,496.9 224.8,662.4 226.6,662.4 226.6,494.9 '/>
		<polygon fill = 'rgb( 31, 120, 180)' fill-opacity = '0.250000' points = '226.6,494.9 226.6,662.4 228.5,662.4 228.5,493.0 '/>
		<polygon fill = 'rgb( 31, 120, 180)' fill-opacity = '0.250000' points = '228.5,493.0 228.5,662.4 230.4,662.4 230.4,491.0 '/>
		<polygon fill = 'rgb( 31, 120, 180)' fill-opacity = '0.250000' points = '230.4,491.0 230.4,662.4 232.3,662.4 232.3,489.0 '/>
		<polygon fill = 'rgb( 31, 120, 180)' fill-opacity = '0.250000' points = '232.3,489.0 232.3,662.4 234.2,662.4 234.2,486.9 '/>
		<polygon fill = 'rgb( 31, 120, 180)' fill-opacity = '0.250000' points = '234.2,486.9 234.2,662.4 236.1,662.4 236.1,484.8 '/>
		<polygon fill = 'rgb( 31, 120, 180)' fill-opacity = '0.250000' points = '236.1,484.8 236.1,662.4 238.0,662.4 238.0,482.7 '/>
		<polygon fill = 'rgb( 31, 120, 180)' fill-opacity = '0.250000' points = '238.0,482.7 238.0,662.4 239.9,662.4 239.9,480.6 '/>
		<polygon fill = 'rgb( 31, 120, 180)' fill-opacity = '0.250000' points = '239.9,480.6 239.9,662.4 241.7,662.4 241.7,478.4 '/>
		<polygon fill = 'rgb( 31, 120, 180)' fill-opacity = '0.250000' points = '241.7,478.4 241.7,662.4 243.6,662.4 243.6,476.1 '/>
		<polygon fill = 'rgb( 31, 120, 180)' fill-opacity = '0.250000' points = '243.6,476.1 243.6,662.4 245.5,662.4 245.5,473.8 '/>
		<polygon fill = 'rgb( 31, 120, 180)' fill-opacity = '0.250000' points = '245.5,473.8 245.5,662.4 247.4,662.4 247.4,471.5 '/>
		<polygon fill = 'rgb( 31, 120, 180)' fill-opacity = '0.250000' points = '247.4,471.5 247.4,662.4 249.3,662.4 249.3,469.2 '/>
		<polygon fill = 'rgb( 31, 120, 180)' fill-opacity = '0.250000' points = '249.3,469.2 249.3,662.4 251.2,662.4 251.2,466.8 '/>
		<polygon fill = 'rgb( 31, 120, 180)' fill-opacity = '0.250000' points = '251.2,466.8 251.2,662.4 253.1,662.4 253.1,464.4 '/>
		<polygon fill = 'rgb( 31, 120, 180)' fill-opacity = '0.250000' points = '253.1,464.4 253.1,662.4 255.0,662.4 255.0,461.9 '/>
		<polygon fill = 'rgb( 31, 120, 180)' fill-opacity = '0.250000' points = '255.0,461.9 255.0,662.4 256.8,662.4 256.8,459.4 '/>
		<polygon fill = 'rgb( 31, 120, 180)' fill-opacity = '0.250000' points = '256.8,459.4 256.8,662.4 258.7,662.4 258.7,456.8 '/>
		<polygon fill = 'rgb( 31, 120, 180)' fill-opacity = '0.250000' points = '258.7,456.8 258.7,662.4 260.6,662.4 260.6,454.3 '/>
		<polygon fill = 'rgb( 31, 120, 180)' fill-opacity = '0.250000' points = '260.6,454.3 260.6,662.4 262.5,662.4 262.5,451.7 '/>
		<polygon fill = 'rgb( 31, 120, 180)' fill-opacity = '0.250000' points = '262.5,451.7 262.5,662.4 264.4,662.4 264.4,449.0 '/>
		<polygon fill = 'rgb( 31, 120, 180)' fill-opacity = '0.250000' points = '264.4,449.0 264.4,662.4 266.3,662.4 266.3,446.4 '/>
		<polygon fill = 'rgb( 31, 120, 180)' fill-opacity = '0.250000' points = '266.3,446.4 266.3,662.4 268.2,662.4 268.2,443.7 '/>
		<polygon fill = 'rgb( 31, 120, 180)' fill-opacity = '0.250000' points = '268.2,443.7 268.2,662.4 270.1,662.4 270.1,441.0 '/>
		<polygon fill = 'rgb( 31, 120, 180)' fill-opacity = '0.250000' points = '270.1,441.0 270.1,662.4 271.9,662.4 271.9,438.2 '/>
		<polygon fill = 'rgb( 31, 120, 180)' fill-opacity = '0.250000' points = '271.9,438.2 271.9,662.4 273.8,662.4 273.8,435.4 '/>
		<polygon fill = 'rgb( 31, 120, 180)' fill-opacity = '0.250000' points = '273.8,435.4 273.8,662.4 275.7,662.4 275.7,432.7 '/>
		<polygon fill = 'rgb( 31, 120, 180)' fill-opacity = '0.250000' points = '275.7,432.7 275.7,662.4 277.6,662.4 277.6,429.8 '/>
		<polygon fill = 'rgb( 31, 120, 180)' fill-opacity = '0.250000' points = '277.6,429.8 277.6,662.4 279.5,662.4 279.5,427.0 '/>
		<polygon fill = 'rgb( 31, 120, 180)' fill-opacity = '0.250000' points = '279.5,427.0 279.5,662.4 281.4,662.4 281.4,424.2 '/>
		<polygon fill = 'rgb( 31, 120, 180)' fill-opacity = '0.250000' points = '281.4,424.2 281.4,662.4 283.3,662.4 283.3,421.3 '/>
		<polygon fill = 'rgb( 31, 120, 180)' fill-opacity = '0.250000' points = '283.3,421.3 283.3,662.4 285.2,662.4 285.2,418.4 '/>
		<polygon fill = 'rgb( 31, 120, 180)' fill-opacity = '0.250000' points = '285.2,418.4 285.2,662.4 287.0,662.4 287.0,415.5 '/>
		<polygon fill = 'rgb( 31, 120, 180)' fill-opacity = '0.250000' points = '287.0,415.5 287.0,662.4 288.9,662.4 288.9,412.6 '/>
		<polygon fill = 'rgb( 31, 120, 180)' fill-opacity = '0.250000' points = '288.9,412.6 288.9,662.4 290.8,662.4 290.8,409.6 '/>
		<polygon fill = 'rgb( 31, 120, 180)' fill-opacity = '0.250000' points = '290.8,409.6 290.8,662.4 292.7,662.4 292.7,406.7 '/>
		<polygon fill = 'rgb( 31, 120, 180)' fill-opacity = '0.250000' points = '292.7,406.7 292.7,662.4 294.6,662.4 294.6,403.7 '/>
		<polygon fill = 'rgb( 31, 120, 180)' fill-opacity = '0.250000' points = '294.6,403.7 294.6,662.4 296.5,662.4 296.5,400.8 '/>
		<polygon fill = 'rgb( 31, 120, 180)' fill-opacity = '0.250000' points = '296.5,400.8 296.5,662.4 298.4,662.4 298.4,397.8 '/>
		<polygon fill = 'rgb( 31, 120, 180)' fill-opacity = '0.250000' points = '298.4,397.8 298.4,662.4 300.2,662.4 300.2,394.8 '/>
		<polygon fill = 'rgb( 31, 120, 180)' fill-opacity = '0.250000' points = '300.2,394.8 300.2,662.4 302.1,662.4 302.1,391.8 '/>
		<polygon fill = 'rgb( 31, 120, 180)' fill-opacity = '0.250000' points = '302.1,391.8 302.1,662.4 304.0,662.4 304.0,388.8 '/>
		<polygon fill = 'rgb( 31, 120, 180)' fill-opacity = '0.250000' points = '304.0,388.8 304.0,662.4 305.9,662.4 305.9,385.8 '/>
		<polygon fill = 'rgb( 31, 120, 180)' fill-opacity = '0.250000' points = '305.9,385.8 305.9,662.4 307.8,662.4 307.8,382.8 '/>
		<polygon fill = 'rgb( 31, 120, 180)' fill-opacity = '0.250000' points = '307.8,382.8 307.8,662.4 309.7,662.4 309.7,379.8 '/>
		<polygon fill = 'rgb( 31, 120, 180)' fill-opacity = '0.250000' points = '309.7,379.8 309.7,662.4 311.6,662.4 311.6,376.8 '/>
		<polygon fill = 'rgb( 31, 120, 180)' fill-opacity = '0.250000' points = '311.6,376.8 311.6,662.4 313.5,662.4 313.5,373.8 '/>
		<polygon fill = 'rgb( 31, 120, 180)' fill-opacity = '0.250000' points = '313.5,373.8 313.5,662.4 315.3,662.4 315.3,370.9 '/>
		<polygon fill = 'rgb( 31, 120, 180)' fill-opacity = '0.250000' points = '315.3,370.9 315.3,662.4 317.2,662.4 317.2,367.9 '/>
		<polygon fill = 'rgb( 31, 120, 180)' fill-opacity = '0.250000' points = '317.2,367.9 317.2,662.4 319.1,662.4 319.1,364.9 '/>
		<polygon fill = 'rgb( 31, 120, 180)' fill-opacity = '0.250000' points = '319.1,364.9 319.1,662.4 321.0,662.4 321.0,362.0 '/>
		<polygon fill = 'rgb( 31, 120, 180)' fill-opacity = '0.250000' points = '321.0,362.0 321.0,662.4 322.9,662.4 322.9,359.0 '/>
		<polygon fill = 'rgb( 31, 120, 180)' fill-opacity = '0.250000' points = '322.9,359.0 322.9,662.4 324.8,662.4 324.8,356.1 '/>
		<polygon fill = 'rgb( 31, 120, 180)' fill-opacity = '0.250000' points = '324.8,356.1 324.8,662.4 326.7,662.4 326.7,353.2 '/>
		<polygon fill = 'rgb( 31, 120, 180)' fill-opacity = '0.250000' points = '326.7,353.2 326.7,662.4 328.6,662.4 328.6,350.3 '/>
		<polygon fill = 'rgb( 31, 120, 180)' fill-opacity = '0.250000' points = '328.6,350.3 328.6,662.4 330.4,662.4 330.4,347.4 '/>
		<polygon fill = 'rgb( 31, 120, 180)' fill-opacity = '0.250000' points = '330.4,347.4 330.4,662.4 332.3,662.4 332.3,344.6 '/>
		<polygon fill = 'rgb( 31, 120, 180)' fill-opacity = '0.250000' points = '332.3,344.6 332.3,662.4 334.2,662.4 334.2,341.7 '/>
		<polygon fill = 'rgb( 31, 120, 180)' fill-opacity = '0.250000' points = '334.2,341.7 334.2,662.4 336.1,662.4 336.1,338.9 '/>
		<polygon fill = 'rgb( 31, 120, 180)' fill-opacity = '0.250000' points = '336.1,338.9 336.1,662.4 338.0,662.4 338.0,336.1 '/>
		<polygon fill = 'rgb( 31, 120, 180)' fill-opacity = '0.250000' points = '338.0,336.1 338.0,662.4 339.9,662.4 339.9,333.3 '/>
		<polygon fill = 'rgb( 31, 120, 180)' fill-opacity = '0.250000' points = '339.9,333.3 339.9,662.4 341.8,662.4 341.8,330.5 '/>
		<polygon fill = 'rgb( 31, 120, 180)' fill-opacity = '0.250000' points = '341.8,330.5 341.8,662.4 343.7,662.4 343.7,327.7 '/>
		<polygon fill = 'rgb( 31, 120, 180)' fill-opacity = '0.250000' points = '343.7,327.7 343.7,662.4 345.5,662.4 345.5,324.9 '/>
		<polygon fill = 'rgb( 31, 120, 180)' fill-opacity = '0.250000' points = '345.5,324.9 345.5,662.4 347.4,662.4 347.4,322.1 '/>
		<polygon fill = 'rgb( 31, 120, 180)' fill-opacity = '0.250000' points = '347.4,322.1 347.4,662.4 349.3,662.4 349.3,319.4 '/>
		<polygon fill = 'rgb( 31, 120, 180)' fill-opacity = '0.250000' points = '349.3,319.4 349.3,662.4 351.2,662.4 351.2,316.6 '/>
		<polygon fill = 'rgb( 31, 120, 180)' fill-opacity = '0.250000' points = '351.2,316.6 351.2,662.4 353.1,662.4 353.1,313.9 '/>
		<polygon fill = 'rgb( 31, 120, 180)' fill-opacity = '0.250000' points = '353.1,313.9 353.1,662.4 355.0,662.4 355.0,311.1 '/>
		<polygon fill = 'rgb( 31, 120, 180)' fill-opacity = '0.250000' points = '355.0,311.1 355.0,662.4 356.9,662.4 356.9,308.4 '/>
		<polygon fill = 'rgb( 31, 120, 180)' fill-opacity = '0.250000' points = '356.9,308.4 356.9,662.4 358.8,662.4 358.8,305.6 '/>
		<polygon fill = 'rgb( 31, 120, 180)' fill-opacity = '0.250000' points = '358.8,305.6 358.8,662.4 360.6,662.4 360.6,302.8 '/>
		<polygon fill = 'rgb( 31, 120, 180)' fill-opacity = '0.250000' points = '360.6,302.8 360.6,662.4 362.5,662.4 362.5,300.0 '/>
		<polygon fill = 'rgb( 31, 120, 180)' fill-opacity = '0.250000' points = '362.5,300.0 362.5,662.4 364.4,662.4 364.4,297.2 '/>
		<polygon fill = 'rgb( 31, 120, 180)' fill-opacity = '0.250000' points = '364.4,297.2 364.4,662.4 366.3,662.4 366.3,294.4 '/>
		<polygon fill = 'rgb( 31, 120, 180)' fill-opacity = '0.250000' points = '366.3,294.4 366.3,662.4 368.2,662.4 368.2,291.6 '/>
		<polygon fill = 'rgb( 31, 120, 180)' fill-opacity = '0.250000' points = '368.2,291.6 368.2,662.4 370.1,662.4 370.1,288.7 '/>
		<polygon fill = 'rgb( 31, 120, 180)' fill-opacity = '0.250000' points = '370.1,288.7 370.1,662.4 372.0,662.4 372.0,285.9 '/>
		<polygon fill = 'rgb( 31, 120, 180)' fill-opacity = '0.250000' points = '372.0,285.9 372.0,662.4 373.8,662.4 373.8,283.0 '/>
		<polygon fill = 'rgb( 31, 120, 180)' fill-opacity = '0.250000' points = '373.8,283.0 373.8,662.4 375.7,662.4 375.7,280.1 '/>
		<polygon fill = 'rgb( 31, 120, 180)' fill-opacity = '0.250000' points = '375.7,280.1 375.7,662.4 377.6,662.4 377.6,277.3 '/>
		<polygon fill = 'rgb( 31, 120, 180)' fill-opacity = '0.250000' points = '377.6,277.3 377.6,662.4 379.5,662.4 379.5,274.4 '/>
		<polygon fill = 'rgb( 31, 120, 180)' fill-opacity = '0.250000' points = '379.5,274.4 379.5,662.4 381.4,662.4 381.4,271.5 '/>
		<polygon fill = 'rgb( 31, 120, 180)' fill-opacity = '0.250000' points = '381.4,271.5 381.4,662.4 383.3,662.4 383.3,268.7 '/>
		<polygon fill = 'rgb( 31, 120, 180)' fill-opacity = '0.250000' points = '383.3,268.7 383.3,662.4 385.2,662.4 385.2,265.8 '/>
		<polygon fill = 'rgb( 31, 120, 180)' fill-opacity = '0.250000' points = '385.2,265.8 385.2,662.4 387.1,662.4 387.1,263.0 '/>
		<polygon fill = 'rgb( 31, 120, 180)' fill-opacity = '0.250000' points = '387.1,263.0 387.1,662.4 388.9,662.4 388.9,260.2 '/>
		<polygon fill = 'rgb( 31, 120, 180)' fill-opacity = '0.250000' points = '388.9,260.2 388.9,662.4 390.8,662.4 390.8,257.5 '/>
		<polygon fill = 'rgb( 31, 120, 180)' fill-opacity = '0.250000' points = '390.8,257.5 390.8,662.4 392.7,662.4 392.7,254.8 '/>
		<polygon fill = 'rgb( 31, 120, 180)' fill-opacity = '0.250000' points = '392.7,254.8 392.7,662.4 394.6,662.4 394.6,252.1 '/>
		<polygon fill = 'rgb( 31, 120, 180)' fill-opacity = '0.250000' points = '394.6,252.1 394.6,662.4 396.5,662.4 396.5,249.5 '/>
		<polygon fill = 'rgb( 31, 120, 180)' fill-opacity = '0.250000' points = '396.5,249.5 396.5,662.4 398.4,662.4 398.4,247.0 '/>
		<polygon fill = 'rgb( 31, 120, 180)' fill-opacity = '0.250000' points = '398.4,247.0 398.4,662.4 400.3,662.4 400.3,244.5 '/>
		<polygon fill = 'rgb( 31, 120, 180)' fill-opacity = '0.250000' points = '400.3,244.5 400.3,662.4 402.2,662.4 402.2,242.1 '/>
		<polygon fill = 'rgb( 31, 120, 180)' fill-opacity = '0.250000' points = '402.2,242.1 402.2,662.4 404.0,662.4 404.0,239.7 '/>
		<polygon fill = 'rgb( 31, 120, 180)' fill-opacity = '0.250000' points = '404.0,239.7 404.0,662.4 405.9,662.4 405.9,237.4 '/>
		<polygon fill = 'rgb( 31, 120, 180)' fill-opacity = '0.250000' points = '405.9,237.4 405.9,662.4 407.8,662.4 407.8,235.2 '/>
		<polygon fill = 'rgb( 31, 120, 180)' fill-opacity = '0.250000' points = '407.8,235.2 407.8,662.4 409.7,662.4 409.7,233.0 '/>
		<polygon fill = 'rgb( 31, 120, 180)' fill-opacity = '0.250000' points = '409.7,233.0 409.7,662.4 411.6,662.4 411.6,230.8 '/>
		<polygon fill = 'rgb( 31, 120, 180)' fill-opacity = '0.250000' points = '411.6,230.8 411.6,662.4 413.5,662.4 413.5,228.7 '/>
		<polygon fill = 'rgb( 31, 120, 180)' fill-opacity = '0.250000' points = '413.5,228.7 413.5,662.4 415.4,662.4 415.4,226.7 '/>
		<polygon fill = 'rgb( 31, 120, 180)' fill-opacity = '0.250000' points = '415.4,226.7 415.4,662.4 417.3,662.4 417.3,224.7 '/>
		<polygon fill = 'rgb( 31, 120, 180)' fill-opacity = '0.250000' points = '417.3,224.7 417.3,662.4 419.1,662.4 419.1,222.7 '/>
		<polygon fill = 'rgb( 31, 120, 180)' fill-opacity = '0.250000' points = '419.1,222.7 419.1,662.4 421.0,662.4 421.0,220.7 '/>
		<polygon fill = 'rgb( 31, 120, 180)' fill-opacity = '0.250000' points = '421.0,220.7 421.0,662.4 422.9,662.4 422.9,218.7 '/>
		<polygon fill = 'rgb( 31, 120, 180)' fill-opacity = '0.250000' points = '422.9,218.7 422.9,662.4 424.8,662.4 424.8,216.8 '/>
		<polygon fill = 'rgb( 31, 120, 180)' fill-opacity = '0.250000' points = '424.8,216.8 424.8,662.4 426.7,662.4 426.7,214.9 '/>
		<polygon fill = 'rgb( 31, 120, 180)' fill-opacity = '0.250000' points = '426.7,214.9 426.7,662.4 428.6,662.4 428.6,212.9 '/>
		<polygon fill = 'rgb( 31, 120, 180)' fill-opacity = '0.250000' points = '428.6,212.9 428.6,662.4 430.5,662.4 430.5,211.0 '/>
		<polygon fill = 'rgb( 31, 120, 180)' fill-opacity = '0.250000' points = '430.5,211.0 430.5,662.4 432.4,662.4 432.4,209.1 '/>
		<polygon fill = 'rgb( 31, 120, 180)' fill-opacity = '0.250000' points = '432.4,209.1 432.4,662.4 434.2,662.4 434.2,207.2 '/>
		<polygon fill = 'rgb( 31, 120, 180)' fill-opacity = '0.250000' points = '434.2,207.2 434.2,662.4 436.1,662.4 436.1,205.2 '/>
		<polygon fill = 'rgb( 31, 120, 180)' fill-opacity = '0.250000' points = '436.1,205.2 436.1,662.4 438.0,662.4 438.0,203.3 '/>
		<polygon fill = 'rgb( 31, 120, 180)' fill-opacity = '0.250000' points = '438.0,203.3 438.0,662.4 439.9,662.4 439.9,201.4 '/>
		<polygon fill = 'rgb( 31, 120, 180)' fill-opacity = '0.250000' points = '439.9,201.4 439.9,662.4 441.8,662.4 441.8,199.5 '/>
		<polygon fill = 'rgb( 31, 120, 180)' fill-opacity = '0.250000' points = '441.8,199.5 441.8,662.4 443.7,662.4 443.7,197.6 '/>
		<polygon fill = 'rgb( 31, 120, 180)' fill-opacity = '0.250000' points = '443.7,197.6 443.7,662.4 445.6,662.4 445.6,195.8 '/>
		<polygon fill = 'rgb( 31, 120, 180)' fill-opacity = '0.250000' points = '445.6,195.8 445.6,662.4 447.4,662.4 447.4,194.0 '/>
		<polygon fill = 'rgb( 31, 120, 180)' fill-opacity = '0.250000' points = '447.4,194.0 447.4,662.4 449.3,662.4 449.3,192.2 '/>
		<polygon fill = 'rgb( 31, 120, 180)' fill-opacity = '0.250000' points = '449.3,192.2 449.3,662.4 451.2,662.4 451.2,190.4 '/>
		<polygon fill = 'rgb( 31, 120, 180)' fill-opacity = '0.250000' points = '451.2,190.4 451.2,662.4 453.1,662.4 453.1,188.7 '/>
		<polygon fill = 'rgb( 31, 120, 180)' fill-opacity = '0.250000' points = '453.1,188.7 453.1,662.4 455.0,662.4 455.0,187.0 '/>
		<polygon fill = 'rgb( 31, 120, 180)' fill-opacity = '0.250000' points = '455.0,187.0 455.0,662.4 456.9,662.4 456.9,185.4 '/>
		<polygon fill = 'rgb( 31, 120, 180)' fill-opacity = '0.250000' points = '456.9,185.4 456.9,662.4 458.8,662.4 458.8,183.8 '/>
		<polygon fill = 'rgb( 31, 120, 180)' fill-opacity = '0.250000' points = '458.8,183.8 458.8,662.4 460.7,662.4 460.7,182.3 '/>
		<polygon fill = 'rgb( 31, 120, 180)' fill-opacity = '0.250000' points = '460.7,182.3 460.7,662.4 462.5,662.4 462.5,180.9 '/>
		<polygon fill = 'rgb( 31, 120, 180)' fill-opacity = '0.250000' points = '462.5,180.9 462.5,662.4 464.4,662.4 464.4,179.6 '/>
		<polygon fill = 'rgb( 31, 120, 180)' fill-opacity = '0.250000' points = '464.4,179.6 464.4,662.4 466.3,662.4 466.3,178.3 '/>
		<polygon fill = 'rgb( 31, 120, 180)' fill-opacity = '0.250000' points = '466.3,178.3 466.3,662.4 468.2,662.4 468.2,177.1 '/>
		<polygon fill = 'rgb( 31, 120, 180)' fill-opacity = '0.250000' points = '468.2,177.1 468.2,662.4 470.1,662.4 470.1,176.0 '/>
		<polygon fill = 'rgb( 31, 120, 180)' fill-opacity = '0.250000' points = '470.1,176.0 470.1,662.4 472.0,662.4 472.0,174.9 '/>
		<polygon fill = 'rgb( 31, 120, 180)' fill-opacity = '0.250000' points = '472.0,174.9 472.0,662.4 473.9,662.4 473.9,174.0 '/>
		<polygon fill = 'rgb( 31, 120, 180)' fill-opacity = '0.250000' points = '473.9,174.0 473.9,662.4 475.8,662.4 475.8,173.1 '/>
		<polygon fill = 'rgb( 31, 120, 180)' fill-opacity = '0.250000' points = '475.8,173.1 475.8,662.4 477.6,662.4 477.6,172.3 '/>
		<polygon fill = 'rgb( 31, 120, 180)' fill-opacity = '0.250000' points = '477.6,172.3 477.6,662.4 479.5,662.4 479.5,171.5 '/>
		<polygon fill = 'rgb( 31, 120, 180)' fill-opacity = '0.250000' points = '479.5,171.5 479.5,662.4 481.4,662.4 481.4,170.9 '/>
		<polygon fill = 'rgb( 31, 120, 180)' fill-opacity = '0.250000' points = '481.4,170.9 481.4,662.4 483.3,662.4 483.3,170.3 '/>
		<polygon fill = 'rgb( 31, 120, 180)' fill-opacity = '0.250000' points = '483.3,170.3 483.3,662.4 485.2,662.4 485.2,169.7 '/>
		<polygon fill = 'rgb( 31, 120, 180)' fill-opacity = '0.250000' points = '485.2,169.7 485.2,662.4 487.1,662.4 487.1,169.3 '/>
		<polygon fill = 'rgb( 31, 120, 180)' fill-opacity = '0.250000' points = '487.1,169.3 487.1,662.4 489.0,662.4 489.0,168.9 '/>
		<polygon fill = 'rgb( 31, 120, 180)' fill-opacity = '0.250000' points = '489.0,168.9 489.0,662.4 490.9,662.4 490.9,168.6 '/>
		<polygon fill = 'rgb( 31, 120, 180)' fill-opacity = '0.250000' points = '490.9,168.6 490.9,662.4 492.7,662.4 492.7,168.3 '/>
		<polygon fill = 'rgb( 31, 120, 180)' fill-opacity = '0.250000' points = '492.7,168.3 492.7,662.4 494.6,662.4 494.6,168.1 '/>
		<polygon fill = 'rgb( 31, 120, 180)' fill-opacity = '0.250000' points = '494.6,168.1 494.6,662.4 496.5,662.4 496.5,167.9 '/>
		<polygon fill = 'rgb( 31, 120, 180)' fill-opacity = '0.250000' points = '496.5,167.9 496.5,662.4 498.4,662.4 498.4,167.8 '/>
		<polygon fill = 'rgb( 31, 120, 180)' fill-opacity = '0.250000' points = '498.4,167.8 498.4,662.4 500.3,662.4 500.3,167.7 '/>
		<polygon fill = 'rgb( 31, 120, 180)' fill-opacity = '0.250000' points = '500.3,167.7 500.3,662.4 502.2,662.4 502.2,167.6 '/>
		<polygon fill = 'rgb( 31, 120, 180)' fill-opacity = '0.250000' points = '502.2,167.6 502.2,662.4 504.1,662.4 504.1,167.6 '/>
		<polygon fill = 'rgb( 31, 120, 180)' fill-opacity = '0.250000' points = '504.1,167.6 504.1,662.4 506.0,662.4 506.0,167.6 '/>
		<polygon fill = 'rgb( 31, 120, 180)' fill-opacity = '0.250000' points = '506.0,167.6 506.0,662.4 507.8,662.4 507.8,167.7 '/>
		<polygon fill = 'rgb( 31, 120, 180)' fill-opacity = '0.250000' points = '507.8,167.7 507.8,662.4 509.7,662.4 509.7,167.8 '/>
		<polygon fill = 'rgb( 31, 120, 180)' fill-opacity = '0.250000' points = '509.7,167.8 509.7,662.4 511.6,662.4 511.6,167.9 '/>
		<polygon fill = 'rgb( 31, 120, 180)' fill-opacity = '0.250000' points = '511.6,167.9 511.6,662.4 513.5,662.4 513.5,168.1 '/>
		<polygon fill = 'rgb( 31, 120, 180)' fill-opacity = '0.250000' points = '513.5,168.1 513.5,662.4 515.4,662.4 515.4,168.3 '/>
		<polygon fill = 'rgb( 31, 120, 180)' fill-opacity = '0.250000' points = '515.4,168.3 515.4,662.4 517.3,662.4 517.3,168.5 '/>
		<polygon fill = 'rgb( 31, 120, 180)' fill-opacity = '0.250000' points = '517.3,168.5 517.3,662.4 519.2,662.4 519.2,168.8 '/>
		<polygon fill = 'rgb( 31, 120, 180)' fill-opacity = '0.250000' points = '519.2,168.8 519.2,662.4 521.0,662.4 521.0,169.0 '/>
		<polygon fill = 'rgb( 31, 120, 180)' fill-opacity = '0.250000' points = '521.0,169.0 521.0,662.4 522.9,662.4 522.9,169.3 '/>
		<polygon fill = 'rgb( 31, 120, 180)' fill-opacity = '0.250000' points = '522.9,169.3 522.9,662.4 524.8,662.4 524.8,169.7 '/>
		<polygon fill = 'rgb( 31, 120, 180)' fill-opacity = '0.250000' points = '524.8,169.7 524.8,662.4 526.7,662.4 526.7,170.0 '/>
		<polygon fill = 'rgb( 31, 120, 180)' fill-opacity = '0.250000' points = '526.7,170.0 526.7,662.4 528.6,662.4 528.6,170.4 '/>
		<polygon fill = 'rgb( 31, 120, 180)' fill-opacity = '0.250000' points = '528.6,170.4 528.6,662.4 530.5,662.4 530.5,170.8 '/>
		<polygon fill = 'rgb( 31, 120, 180)' fill-opacity = '0.250000' points = '530.5,170.8 530.5,662.4 532.4,662.4 532.4,171.2 '/>
		<polygon fill = 'rgb( 31, 120, 180)' fill-opacity = '0.250000' points = '532.4,171.2 532.4,662.4 534.3,662.4 534.3,171.7 '/>
		<polygon fill = 'rgb( 31, 120, 180)' fill-opacity = '0.250000' points = '534.3,171.7 534.3,662.4 536.1,662.4 536.1,172.1 '/>
		<polygon fill = 'rgb( 31, 120, 180)' fill-opacity = '0.250000' points = '536.1,172.1 536.1,662.4 538.0,662.4 538.0,172.6 '/>
		<polygon fill = 'rgb( 31, 120, 180)' fill-opacity = '0.250000' points = '538.0,172.6 538.0,662.4 539.9,662.4 539.9,173.2 '/>
		<polygon fill = 'rgb( 31, 120, 180)' fill-opacity = '0.250000' points = '539.9,173.2 539.9,662.4 541.8,662.4 541.8,173.7 '/>
		<polygon fill = 'rgb( 31, 120, 180)' fill-opacity = '0.250000' points = '541.8,173.7 541.8,662.4 543.7,662.4 543.7,174.3 '/>
		<polygon fill = 'rgb( 31, 120, 180)' fill-opacity = '0.250000' points = '543.7,174.3 543.7,662.4 545.6,662.4 545.6,174.9 '/>
		<polygon fill = 'rgb( 31, 120, 180)' fill-opacity = '0.250000' points = '545.6,174.9 545.6,662.4 547.5,662.4 547.5,175.5 '/>
		<polygon fill = 'rgb( 31, 120, 180)' fill-opacity = '0.250000' points = '547.5,175.5 547.5,662.4 549.4,662.4 549.4,176.2 '/>
		<polygon fill = 'rgb( 31, 120, 180)' fill-opacity = '0.250000' points = '549.4,176.2 549.4,662.4 551.2,662.4 551.2,176.9 '/>
		<polygon fill = 'rgb( 31, 120, 180)' fill-opacity = '0.250000' points = '551.2,176.9 551.2,662.4 553.1,662.4 553.1,177.6 '/>
		<polygon fill = 'rgb( 31, 120, 180)' fill-opacity = '0.250000' points = '553.1,177.6 553.1,662.4 555.0,662.4 555.0,178.3 '/>
		<polygon fill = 'rgb( 31, 120, 180)' fill-opacity = '0.250000' points = '555.0,178.3 555.0,662.4 556.9,662.4 556.9,179.0 '/>
		<polygon fill = 'rgb( 31, 120, 180)' fill-opacity = '0.250000' points = '556.9,179.0 556.9,662.4 558.8,662.4 558.8,179.8 '/>
		<polygon fill = 'rgb( 31, 120, 180)' fill-opacity = '0.250000' points = '558.8,179.8 558.8,662.4 560.7,662.4 560.7,180.6 '/>
		<polygon fill = 'rgb( 31, 120, 180)' fill-opacity = '0.250000' points = '560.7,180.6 560.7,662.4 562.6,662.4 562.6,181.5 '/>
		<polygon fill = 'rgb( 31, 120, 180)' fill-opacity = '0.250000' points = '562.6,181.5 562.6,662.4 564.5,662.4 564.5,182.3 '/>
		<polygon fill = 'rgb( 31, 120, 180)' fill-opacity = '0.250000' points = '564.5,182.3 564.5,662.4 566.3,662.4 566.3,183.2 '/>
		<polygon fill = 'rgb( 31, 120, 180)' fill-opacity = '0.250000' points = '566.3,183.2 566.3,662.4 568.2,662.4 568.2,184.1 '/>
		<polygon fill = 'rgb( 31, 120, 180)' fill-opacity = '0.250000' points = '568.2,184.1 568.2,662.4 570.1,662.4 570.1,185.0 '/>
		<polygon fill = 'rgb( 31, 120, 180)' fill-opacity = '0.250000' points = '570.1,185.0 570.1,662.4 572.0,662.4 572.0,186.0 '/>
		<polygon fill = 'rgb( 31, 120, 180)' fill-opacity = '0.250000' points = '572.0,186.0 572.0,662.4 573.9,662.4 573.9,187.0 '/>
		<polygon fill = 'rgb( 31, 120, 180)' fill-opacity = '0.250000' points = '573.9,187.0 573.9,662.4 575.8,662.4 575.8,188.0 '/>
		<polygon fill = 'rgb( 31, 120, 180)' fill-opacity = '0.250000' points = '575.8,188.0 575.8,662.4 577.7,662.4 577.7,189.0 '/>
		<polygon fill = 'rgb( 31, 120, 180)' fill-opacity = '0.250000' points = '577.7,189.0 577.7,662.4 579.5,662.4 579.5,190.0 '/>
		<polygon fill = 'rgb( 31, 120, 180)' fill-opacity = '0.250000' points = '579.5,190.0 579.5,662.4 581.4,662.4 581.4,191.0 '/>
		<polygon fill = 'rgb( 31, 120, 180)' fill-opacity = '0.250000' points = '581.4,191.0 581.4,662.4 583.3,662.4 583.3,192.1 '/>
		<polygon fill = 'rgb( 31, 120, 180)' fill-opacity = '0.250000' points = '583.3,192.1 583.3,662.4 585.2,662.4 585.2,193.1 '/>
		<polygon fill = 'rgb( 31, 120, 180)' fill-opacity = '0.250000' points = '585.2,193.1 585.2,662.4 587.1,662.4 587.1,194.2 '/>
		<polygon fill = 'rgb( 31, 120, 180)' fill-opacity = '0.250000' points = '587.1,194.2 587.1,662.4 589.0,662.4 589.0,195.3 '/>
		<polygon fill = 'rgb( 31, 120, 180)' fill-opacity = '0.250000' points = '589.0,195.3 589.0,662.4 590.9,662.4 590.9,196.4 '/>
		<polygon fill = 'rgb( 31, 120, 180)' fill-opacity = '0.250000' points = '590.9,196.4 590.9,662.4 592.8,662.4 592.8,197.4 '/>
		<polygon fill = 'rgb( 31, 120, 180)' fill-opacity = '0.250000' points = '592.8,197.4 592.8,662.4 594.6,662.4 594.6,198.5 '/>
		<polygon fill = 'rgb( 31, 120, 180)' fill-opacity = '0.250000' points = '594.6,198.5 594.6,662.4 596.5,662.4 596.5,199.6 '/>
		<polygon fill = 'rgb( 31, 120, 180)' fill-opacity = '0.250000' points = '596.5,199.6 596.5,662.4 598.4,662.4 598.4,200.8 '/>
		<polygon fill = 'rgb( 31, 120, 180)' fill-opacity = '0.250000' points = '598.4,200.8 598.4,662.4 600.3,662.4 600.3,201.9 '/>
		<polygon fill = 'rgb( 31, 120, 180)' fill-opacity = '0.250000' points = '600.3,201.9 600.3,662.4 602.2,662.4 602.2,203.0 '/>
		<polygon fill = 'rgb( 31, 120, 180)' fill-opacity = '0.250000' points = '602.2,203.0 602.2,662.4 604.1,662.4 604.1,204.2 '/>
		<polygon fill = 'rgb( 31, 120, 180)' fill-opacity = '0.250000' points = '604.1,204.2 604.1,662.4 606.0,662.4 606.0,205.3 '/>
		<polygon fill = 'rgb( 31, 120, 180)' fill-opacity = '0.250000' points = '606.0,205.3 606.0,662.4 607.9,662.4 607.9,206.6 '/>
		<polygon fill = 'rgb( 31, 120, 180)' fill-opacity = '0.250000' points = '607.9,206.6 607.9,662.4 609.7,662.4 609.7,207.8 '/>
		<polygon fill = 'rgb( 31, 120, 180)' fill-opacity = '0.250000' points = '609.7,207.8 609.7,662.4 611.6,662.4 611.6,209.1 '/>
		<polygon fill = 'rgb( 31, 120, 180)' fill-opacity = '0.250000' points = '611.6,209.1 611.6,662.4 613.5,662.4 613.5,210.4 '/>
		<polygon fill = 'rgb( 31, 120, 180)' fill-opacity = '0.250000' points = '613.5,210.4 613.5,662.4 615.4,662.4 615.4,211.8 '/>
		<polygon fill = 'rgb( 31, 120, 180)' fill-opacity = '0.250000' points = '615.4,211.8 615.4,662.4 617.3,662.4 617.3,213.2 '/>
		<polygon fill = 'rgb( 31, 120, 180)' fill-opacity = '0.250000' points = '617.3,213.2 617.3,662.4 619.2,662.4 619.2,214.7 '/>
		<polygon fill = 'rgb( 31, 120, 180)' fill-opacity = '0.250000' points = '619.2,214.7 619.2,662.4 621.1,662.4 621.1,216.2 '/>
		<polygon fill = 'rgb( 31, 120, 180)' fill-opacity = '0.250000' points = '621.1,216.2 621.1,662.4 623.0,662.4 623.0,217.9 '/>
		<polygon fill = 'rgb( 31, 120, 180)' fill-opacity = '0.250000' points = '623.0,217.9 623.0,662.4 624.8,662.4 624.8,219.5 '/>
		<polygon fill = 'rgb( 31, 120, 180)' fill-opacity = '0.250000' points = '624.8,219.5 624.8,662.4 626.7,662.4 626.7,221.3 '/>
		<polygon fill = 'rgb( 31, 120, 180)' fill-opacity = '0.250000' points = '626.7,221.3 626.7,662.4 628.6,662.4 628.6,223.1 '/>
		<polygon fill = 'rgb( 31, 120, 180)' fill-opacity = '0.250000' points = '628.6,223.1 628.6,662.4 630.5,662.4 630.5,225.0 '/>
		<polygon fill = 'rgb( 31, 120, 180)' fill-opacity = '0.250000' points = '630.5,225.0 630.5,662.4 632.4,662.4 632.4,226.9 '/>
		<polygon fill = 'rgb( 31, 120, 180)' fill-opacity = '0.250000' points = '632.4,226.9 632.4,662.4 634.3,662.4 634.3,228.9 '/>
		<polygon fill = 'rgb( 31, 120, 180)' fill-opacity = '0.250000' points = '634.3,228.9 634.3,662.4 636.2,662.4 636.2,231.0 '/>
		<polygon fill = 'rgb( 31, 120, 180)' fill-opacity = '0.250000' points = '636.2,231.0 636.2,662.4 638.1,662.4 638.1,233.1 '/>
		<polygon fill = 'rgb( 31, 120, 180)' fill-opacity = '0.250000' points = '638.1,233.1 638.1,662.4 639.9,662.4 639.9,235.2 '/>
		<polygon fill = 'rgb( 31, 120, 180)' fill-opacity = '0.250000' points = '639.9,235.2 639.9,662.4 641.8,662.4 641.8,237.4 '/>
		<polygon fill = 'rgb( 31, 120, 180)' fill-opacity = '0.250000' points = '641.8,237.4 641.8,662.4 643.7,662.4 643.7,239.6 '/>
		<polygon fill = 'rgb( 31, 120, 180)' fill-opacity = '0.250000' points = '643.7,239.6 643.7,662.4 645.6,662.4 645.6,241.8 '/>
		<polygon fill = 'rgb( 31, 120, 180)' fill-opacity = '0.250000' points = '645.6,241.8 645.6,662.4 647.5,662.4 647.5,244.1 '/>
		<polygon fill = 'rgb( 31, 120, 180)' fill-opacity = '0.250000' points = '647.5,244.1 647.5,662.4 649.4,662.4 649.4,246.4 '/>
		<polygon fill = 'rgb( 31, 120, 180)' fill-opacity = '0.250000' points = '649.4,246.4 649.4,662.4 651.3,662.4 651.3,248.6 '/>
		<polygon fill = 'rgb( 31, 120, 180)' fill-opacity = '0.250000' points = '651.3,248.6 651.3,662.4 653.1,662.4 653.1,250.9 '/>
		<polygon fill = 'rgb( 31, 120, 180)' fill-opacity = '0.250000' points = '653.1,250.9 653.1,662.4 655.0,662.4 655.0,253.2 '/>
		<polygon fill = 'rgb( 31, 120, 180)' fill-opacity = '0.250000' points = '655.0,253.2 655.0,662.4 656.9,662.4 656.9,255.5 '/>
		<polygon fill = 'rgb( 31, 120, 180)' fill-opacity = '0.250000' points = '656.9,255.5 656.9,662.4 658.8,662.4 658.8,257.7 '/>
		<polygon fill = 'rgb( 31, 120, 180)' fill-opacity = '0.250000' points = '658.8,257.7 658.8,662.4 660.7,662.4 660.7,260.0 '/>
		<polygon fill = 'rgb( 31, 120, 180)' fill-opacity = '0.250000' points = '660.7,260.0 660.7,662.4 662.6,662.4 662.6,262.3 '/>
		<polygon fill = 'rgb( 31, 120, 180)' fill-opacity = '0.250000' points = '662.6,262.3 662.6,662.4 664.5,662.4 664.5,264.5 '/>
		<polygon fill = 'rgb( 31, 120, 180)' fill-opacity = '0.250000' points = '664.5,264.5 664.5,662.4 666.4,662.4 666.4,266.8 '/>
		<polygon fill = 'rgb( 31, 120, 180)' fill-opacity = '0.250000' points = '666.4,266.8 666.4,662.4 668.2,662.4 668.2,269.1 '/>
		<polygon fill = 'rgb( 31, 120, 180)' fill-opacity = '0.250000' points = '668.2,269.1 668.2,662.4 670.1,662.4 670.1,271.4 '/>
		<polygon fill = 'rgb( 31, 120, 180)' fill-opacity = '0.250000' points = '670.1,271.4 670.1,662.4 672.0,662.4 672.0,273.7 '/>
		<polygon fill = 'rgb( 31, 120, 180)' fill-opacity = '0.250000' points = '672.0,273.7 672.0,662.4 673.9,662.4 673.9,276.0 '/>
		<polygon fill = 'rgb( 31, 120, 180)' fill-opacity = '0.250000' points = '673.9,276.0 673.9,662.4 675.8,662.4 675.8,278.3 '/>
		<polygon fill = 'rgb( 31, 120, 180)' fill-opacity = '0.250000' points = '675.8,278.3 675.8,662.4 677.7,662.4 677.7,280.7 '/>
		<polygon fill = 'rgb( 31, 120, 180)' fill-opacity = '0.250000' points = '677.7,280.7 677.7,662.4 679.6,662.4 679.6,283.0 '/>
		<polygon fill = 'rgb( 31, 120, 180)' fill-opacity = '0.250000' points = '679.6,283.0 679.6,662.4 681.5,662.4 681.5,285.4 '/>
		<polygon fill = 'rgb( 31, 120, 180)' fill-opacity = '0.250000' points = '681.5,285.4 681.5,662.4 683.3,662.4 683.3,287.9 '/>
		<polygon fill = 'rgb( 31, 120, 180)' fill-opacity = '0.250000' points = '683.3,287.9 683.3,662.4 685.2,662.4 685.2,290.3 '/>
		<polygon fill = 'rgb( 31, 120, 180)' fill-opacity = '0.250000' points = '685.2,290.3 685.2,662.4 687.1,662.4 687.1,292.8 '/>
		<polygon fill = 'rgb( 31, 120, 180)' fill-opacity = '0.250000' points = '687.1,292.8 687.1,662.4 689.0,662.4 689.0,295.4 '/>
		<polygon fill = 'rgb( 31, 120, 180)' fill-opacity = '0.250000' points = '689.0,295.4 689.0,662.4 690.9,662.4 690.9,297.9 '/>
		<polygon fill = 'rgb( 31, 120, 180)' fill-opacity = '0.250000' points = '690.9,297.9 690.9,662.4 692.8,662.4 692.8,300.5 '/>
		<polygon fill = 'rgb( 31, 120, 180)' fill-opacity = '0.250000' points = '692.8,300.5 692.8,662.4 694.7,662.4 694.7,303.1 '/>
		<polygon fill = 'rgb( 31, 120, 180)' fill-opacity = '0.250000' points = '694.7,303.1 694.7,662.4 696.6,662.4 696.6,305.7 '/>
		<polygon fill = 'rgb( 31, 120, 180)' fill-opacity = '0.250000' points = '696.6,305.7 696.6,662.4 698.4,662.4 698.4,308.3 '/>
		<polygon fill = 'rgb( 31, 120, 180)' fill-opacity = '0.250000' points = '698.4,308.3 698.4,662.4 700.3,662.4 700.3,311.0 '/>
		<polygon fill = 'rgb( 31, 120, 180)' fill-opacity = '0.250000' points = '700.3,311.0 700.3,662.4 702.2,662.4 702.2,313.6 '/>
		<polygon fill = 'rgb( 31, 120, 180)' fill-opacity = '0.250000' points = '702.2,313.6 702.2,662.4 704.1,662.4 704.1,316.3 '/>
		<polygon fill = 'rgb( 31, 120, 180)' fill-opacity = '0.250000' points = '704.1,316.3 704.1,662.4 706.0,662.4 706.0,318.9 '/>
		<polygon fill = 'rgb( 31, 120, 180)' fill-opacity = '0.250000' points = '706.0,318.9 706.0,662.4 707.9,662.4 707.9,321.6 '/>
		<polygon fill = 'rgb( 31, 120, 180)' fill-opacity = '0.250000' points = '707.9,321.6 707.9,662.4 709.8,662.4 709.8,324.2 '/>
		<polygon fill = 'rgb( 31, 120, 180)' fill-opacity = '0.250000' points = '709.8,324.2 709.8,662.4 711.7,662.4 711.7,326.9 '/>
		<polygon fill = 'rgb( 31, 120, 180)' fill-opacity = '0.250000' points = '711.7,326.9 711.7,662.4 713.5,662.4 713.5,329.6 '/>
		<polygon fill = 'rgb( 31, 120, 180)' fill-opacity = '0.250000' points = '713.5,329.6 713.5,662.4 715.4,662.4 715.4,332.3 '/>
		<polygon fill = 'rgb( 31, 120, 180)' fill-opacity = '0.250000' points = '715.4,332.3 715.4,662.4 717.3,662.4 717.3,334.9 '/>
		<polygon fill = 'rgb( 31, 120, 180)' fill-opacity = '0.250000' points = '717.3,334.9 717.3,662.4 719.2,662.4 719.2,337.6 '/>
		<polygon fill = 'rgb( 31, 120, 180)' fill-opacity = '0.250000' points = '719.2,337.6 719.2,662.4 721.1,662.4 721.1,340.3 '/>
		<polygon fill = 'rgb( 31, 120, 180)' fill-opacity = '0.250000' points = '721.1,340.3 721.1,662.4 723.0,662.4 723.0,343.1 '/>
		<polygon fill = 'rgb( 31, 120, 180)' fill-opacity = '0.250000' points = '723.0,343.1 723.0,662.4 724.9,662.4 724.9,345.8 '/>
		<polygon fill = 'rgb( 31, 120, 180)' fill-opacity = '0.250000' points = '724.9,345.8 724.9,662.4 726.7,662.4 726.7,348.6 '/>
		<polygon fill = 'rgb( 31, 120, 180)' fill-opacity = '0.250000' points = '726.7,348.6 726.7,662.4 728.6,662.4 728.6,351.3 '/>
		<polygon fill = 'rgb( 31, 120, 180)' fill-opacity = '0.250000' points = '728.6,351.3 728.6,662.4 730.5,662.4 730.5,354.2 '/>
		<polygon fill = 'rgb( 31, 120, 180)' fill-opacity = '0.250000' points = '730.5,354.2 730.5,662.4 732.4,662.4 732.4,357.0 '/>
		<polygon fill = 'rgb( 31, 120, 180)' fill-opacity = '0.250000' points = '732.4,357.0 732.4,662.4 734.3,662.4 734.3,359.8 '/>
		<polygon fill = 'rgb( 31, 120, 180)' fill-opacity = '0.250000' points = '734.3,359.8 734.3,662.4 736.2,662.4 736.2,362.7 '/>
		<polygon fill = 'rgb( 31, 120, 180)' fill-opacity = '0.250000' points = '736.2,362.7 736.2,662.4 738.1,662.4 738.1,365.6 '/>
		<polygon fill = 'rgb( 31, 120, 180)' fill-opacity = '0.250000' points = '738.1,365.6 738.1,662.4 740.0,662.4 740.0,368.5 '/>
		<polygon fill = 'rgb( 31, 120, 180)' fill-opacity = '0.250000' points = '740.0,368.5 740.0,662.4 741.8,662.4 741.8,371.5 '/>
		<polygon fill = 'rgb( 31, 120, 180)' fill-opacity = '0.250000' points = '741.8,371.5 741.8,662.4 743.7,662.4 743.7,374.4 '/>
		<polygon fill = 'rgb( 31, 120, 180)' fill-opacity = '0.250000' points = '743.7,374.4 743.7,662.4 745.6,662.4 745.6,377.3 '/>
		<polygon fill = 'rgb( 31, 120, 180)' fill-opacity = '0.250000' points = '745.6,377.3 745.6,662.4 747.5,662.4 747.5,380.3 '/>
		<polygon fill = 'rgb( 31, 120, 180)' fill-opacity = '0.250000' points = '747.5,380.3 747.5,662.4 749.4,662.4 749.4,383.3 '/>
		<polygon fill = 'rgb( 31, 120, 180)' fill-opacity = '0.250000' points = '749.4,383.3 749.4,662.4 751.3,662.4 751.3,386.2 '/>
		<polygon fill = 'rgb( 31, 120, 180)' fill-opacity = '0.250000' points = '751.3,386.2 751.3,662.4 753.2,662.4 753.2,389.2 '/>
		<polygon fill = 'rgb( 31, 120, 180)' fill-opacity = '0.250000' points = '753.2,389.2 753.2,662.4 755.1,662.4 755.1,392.1 '/>
		<polygon fill = 'rgb( 31, 120, 180)' fill-opacity = '0.250000' points = '755.1,392.1 755.1,662.4 756.9,662.4 756.9,395.0 '/>
		<polygon fill = 'rgb( 31, 120, 180)' fill-opacity = '0.250000' points = '756.9,395.0 756.9,662.4 758.8,662.4 758.8,397.9 '/>
		<polygon fill = 'rgb( 31, 120, 180)' fill-opacity = '0.250000' points = '758.8,397.9 758.8,662.4 760.7,662.4 760.7,400.8 '/>
		<polygon fill = 'rgb( 31, 120, 180)' fill-opacity = '0.250000' points = '760.7,400.8 760.7,662.4 762.6,662.4 762.6,403.7 '/>
		<polygon fill = 'rgb( 31, 120, 180)' fill-opacity = '0.250000' points = '762.6,403.7 762.6,662.4 764.5,662.4 764.5,406.5 '/>
		<polygon fill = 'rgb( 31, 120, 180)' fill-opacity = '0.250000' points = '764.5,406.5 764.5,662.4 766.4,662.4 766.4,409.3 '/>
		<polygon fill = 'rgb( 31, 120, 180)' fill-opacity = '0.250000' points = '766.4,409.3 766.4,662.4 768.3,662.4 768.3,412.0 '/>
		<polygon fill = 'rgb( 31, 120, 180)' fill-opacity = '0.250000' points = '768.3,412.0 768.3,662.4 770.2,662.4 770.2,414.8 '/>
		<polygon fill = 'rgb( 31, 120, 180)' fill-opacity = '0.250000' points = '770.2,414.8 770.2,662.4 772.0,662.4 772.0,417.4 '/>
		<polygon fill = 'rgb( 31, 120, 180)' fill-opacity = '0.250000' points = '772.0,417.4 772.0,662.4 773.9,662.4 773.9,420.1 '/>
		<polygon fill = 'rgb( 31, 120, 180)' fill-opacity = '0.250000' points = '773.9,420.1 773.9,662.4 775.8,662.4 775.8,422.7 '/>
		<polygon fill = 'rgb( 31, 120, 180)' fill-opacity = '0.250000' points = '775.8,422.7 775.8,662.4 777.7,662.4 777.7,425.2 '/>
		<polygon fill = 'rgb( 31, 120, 180)' fill-opacity = '0.250000' points = '777.7,425.2 777.7,662.4 779.6,662.4 779.6,427.7 '/>
		<polygon fill = 'rgb( 31, 120, 180)' fill-opacity = '0.250000' points = '779.6,427.7 779.6,662.4 781.5,662.4 781.5,430.1 '/>
		<polygon fill = 'rgb( 31, 120, 180)' fill-opacity = '0.250000' points = '781.5,430.1 781.5,662.4 783.4,662.4 783.4,432.5 '/>
		<polygon fill = 'rgb( 31, 120, 180)' fill-opacity = '0.250000' points = '783.4,432.5 783.4,662.4 785.3,662.4 785.3,434.8 '/>
		<polygon fill = 'rgb( 31, 120, 180)' fill-opacity = '0.250000' points = '785.3,434.8 785.3,662.4 787.1,662.4 787.1,437.1 '/>
		<polygon fill = 'rgb( 31, 120, 180)' fill-opacity = '0.250000' points = '787.1,437.1 787.1,662.4 789.0,662.4 789.0,439.3 '/>
		<polygon fill = 'rgb( 31, 120, 180)' fill-opacity = '0.250000' points = '789.0,439.3 789.0,662.4 790.9,662.4 790.9,441.5 '/>
		<polygon fill = 'rgb( 31, 120, 180)' fill-opacity = '0.250000' points = '790.9,441.5 790.9,662.4 792.8,662.4 792.8,443.6 '/>
		<polygon fill = 'rgb( 31, 120, 180)' fill-opacity = '0.250000' points = '792.8,443.6 792.8,662.4 794.7,662.4 794.7,445.7 '/>
		<polygon fill = 'rgb( 31, 120, 180)' fill-opacity = '0.250000' points = '794.7,445.7 794.7,662.4 796.6,662.4 796.6,447.8 '/>
		<polygon fill = 'rgb( 31, 120, 180)' fill-opacity = '0.250000' points = '796.6,447.8 796.6,662.4 798.5,662.4 798.5,449.8 '/>
		<polygon fill = 'rgb( 31, 120, 180)' fill-opacity = '0.250000' points = '798.5,449.8 798.5,662.4 800.3,662.4 800.3,451.8 '/>
		<polygon fill = 'rgb( 31, 120, 180)' fill-opacity = '0.250000' points = '800.3,451.8 800.3,662.4 802.2,662.4 802.2,453.8 '/>
		<polygon fill = 'rgb( 31, 120, 180)' fill-opacity = '0.250000' points = '802.2,453.8 802.2,662.4 804.1,662.4 804.1,455.7 '/>
		<polygon fill = 'rgb( 31, 120, 180)' fill-opacity = '0.250000' points = '804.1,455.7 804.1,662.4 806.0,662.4 806.0,457.6 '/>
		<polygon fill = 'rgb( 31, 120, 180)' fill-opacity = '0.250000' points = '806.0,457.6 806.0,662.4 807.9,662.4 807.9,459.5 '/>
		<polygon fill = 'rgb( 31, 120, 180)' fill-opacity = '0.250000' points = '807.9,459.5 807.9,662.4 809.8,662.4 809.8,461.5 '/>
		<polygon fill = 'rgb( 31, 120, 180)' fill-opacity = '0.250000' points = '809.8,461.5 809.8,662.4 811.7,662.4 811.7,463.4 '/>
		<polygon fill = 'rgb( 31, 120, 180)' fill-opacity = '0.250000' points = '811.7,463.4 811.7,662.4 813.6,662.4 813.6,465.3 '/>
		<polygon fill = 'rgb( 31, 120, 180)' fill-opacity = '0.250000' points = '813.6,465.3 813.6,662.4 815.4,662.4 815.4,467.2 '/>
		<polygon fill = 'rgb( 31, 120, 180)' fill-opacity = '0.250000' points = '815.4,467.2 815.4,662.4 817.3,662.4 817.3,469.2 '/>
		<polygon fill = 'rgb( 31, 120, 180)' fill-opacity = '0.250000' points = '817.3,469.2 817.3,662.4 819.2,662.4 819.2,471.2 '/>
		<polygon fill = 'rgb( 31, 120, 180)' fill-opacity = '0.250000' points = '819.2,471.2 819.2,662.4 821.1,662.4 821.1,473.2 '/>
		<polygon fill = 'rgb( 31, 120, 180)' fill-opacity = '0.250000' points = '821.1,473.2 821.1,662.4 823.0,662.4 823.0,475.2 '/>
		<polygon fill = 'rgb( 31, 120, 180)' fill-opacity = '0.250000' points = '823.0,475.2 823.0,662.4 824.9,662.4 824.9,477.2 '/>
		<polygon fill = 'rgb( 31, 120, 180)' fill-opacity = '0.250000' points = '824.9,477.2 824.9,662.4 826.8,662.4 826.8,479.3 '/>
		<polygon fill = 'rgb( 31, 120, 180)' fill-opacity = '0.250000' points = '826.8,479.3 826.8,662.4 828.7,662.4 828.7,481.4 '/>
		<polygon fill = 'rgb( 31, 120, 180)' fill-opacity = '0.250000' points = '828.7,481.4 828.7,662.4 830.5,662.4 830.5,483.6 '/>
		<polygon fill = 'rgb( 31, 120, 180)' fill-opacity = '0.250000' points = '830.5,483.6 830.5,662.4 832.4,662.4 832.4,485.8 '/>
		<polygon fill = 'rgb( 31, 120, 180)' fill-opacity = '0.250000' points = '832.4,485.8 832.4,662.4 834.3,662.4 834.3,488.0 '/>
		<polygon fill = 'rgb( 31, 120, 180)' fill-opacity = '0.250000' points = '834.3,488.0 834.3,662.4 836.2,662.4 836.2,490.3 '/>
		<polygon fill = 'rgb( 31, 120, 180)' fill-opacity = '0.250000' points = '836.2,490.3 836.2,662.4 838.1,662.4 838.1,492.6 '/>
		<polygon fill = 'rgb( 31, 120, 180)' fill-opacity = '0.250000' points = '838.1,492.6 838.1,662.4 840.0,662.4 840.0,494.9 '/>
		<polygon fill = 'rgb( 31, 120, 180)' fill-opacity = '0.250000' points = '840.0,494.9 840.0,662.4 841.9,662.4 841.9,497.2 '/>
		<polygon fill = 'rgb( 31, 120, 180)' fill-opacity = '0.250000' points = '841.9,497.2 841.9,662.4 843.8,662.4 843.8,499.6 '/>
		<polygon fill = 'rgb( 31, 120, 180)' fill-opacity = '0.250000' points = '843.8,499.6 843.8,662.4 845.6,662.4 845.6,502.0 '/>
		<polygon fill = 'rgb( 31, 120, 180)' fill-opacity = '0.250000' points = '845.6,502.0 845.6,662.4 847.5,662.4 847.5,504.4 '/>
		<polygon fill = 'rgb( 31, 120, 180)' fill-opacity = '0.250000' points = '847.5,504.4 847.5,662.4 849.4,662.4 849.4,506.8 '/>
		<polygon fill = 'rgb( 31, 120, 180)' fill-opacity = '0.250000' points = '849.4,506.8 849.4,662.4 851.3,662.4 851.3,509.2 '/>
		<polygon fill = 'rgb( 31, 120, 180)' fill-opacity = '0.250000' points = '851.3,509.2 851.3,662.4 853.2,662.4 853.2,511.6 '/>
		<polygon fill = 'rgb( 31, 120, 180)' fill-opacity = '0.250000' points = '853.2,511.6 853.2,662.4 855.1,662.4 855.1,514.0 '/>
		<polygon fill = 'rgb( 31, 120, 180)' fill-opacity = '0.250000' points = '855.1,514.0 855.1,662.4 857.0,662.4 857.0,516.4 '/>
		<polygon fill = 'rgb( 31, 120, 180)' fill-opacity = '0.250000' points = '857.0,516.4 857.0,662.4 858.9,662.4 858.9,518.8 '/>
		<polygon fill = 'rgb( 31, 120, 180)' fill-opacity = '0.250000' points = '858.9,518.8 858.9,662.4 860.7,662.4 860.7,521.1 '/>
		<polygon fill = 'rgb( 31, 120, 180)' fill-opacity = '0.250000' points = '860.7,521.1 860.7,662.4 862.6,662.4 862.6,523.5 '/>
		<polygon fill = 'rgb( 31, 120, 180)' fill-opacity = '0.250000' points = '862.6,523.5 862.6,662.4 864.5,662.4 864.5,525.8 '/>
		<polygon fill = 'rgb( 31, 120, 180)' fill-opacity = '0.250000' points = '864.5,525.8 864.5,662.4 866.4,662.4 866.4,528.0 '/>
		<polygon fill = 'rgb( 31, 120, 180)' fill-opacity = '0.250000' points = '866.4,528.0 866.4,662.4 868.3,662.4 868.3,530.3 '/>
		<polygon fill = 'rgb( 31, 120, 180)' fill-opacity = '0.250000' points = '868.3,530.3 868.3,662.4 870.2,662.4 870.2,532.5 '/>
		<polygon fill = 'rgb( 31, 120, 180)' fill-opacity = '0.250000' points = '870.2,532.5 870.2,662.4 872.1,662.4 872.1,534.6 '/>
		<polygon fill = 'rgb( 31, 120, 180)' fill-opacity = '0.250000' points = '872.1,534.6 872.1,662.4 873.9,662.4 873.9,536.7 '/>
		<polygon fill = 'rgb( 31, 120, 180)' fill-opacity = '0.250000' points = '873.9,536.7 873.9,662.4 875.8,662.4 875.8,538.8 '/>
		<polygon fill = 'rgb( 31, 120, 180)' fill-opacity = '0.250000' points = '875.8,538.8 875.8,662.4 877.7,662.4 877.7,540.8 '/>
		<polygon fill = 'rgb( 31, 120, 180)' fill-opacity = '0.250000' points = '877.7,540.8 877.7,662.4 879.6,662.4 879.6,542.7 '/>
		<polygon fill = 'rgb( 31, 120, 180)' fill-opacity = '0.250000' points = '879.6,542.7 879.6,662.4 881.5,662.4 881.5,544.7 '/>
		<polygon fill = 'rgb( 31, 120, 180)' fill-opacity = '0.250000' points = '881.5,544.7 881.5,662.4 883.4,662.4 883.4,546.5 '/>
		<polygon fill = 'rgb( 31, 120, 180)' fill-opacity = '0.250000' points = '883.4,546.5 883.4,662.4 885.3,662.4 885.3,548.4 '/>
		<polygon fill = 'rgb( 31, 120, 180)' fill-opacity = '0.250000' points = '885.3,548.4 885.3,662.4 887.2,662.4 887.2,550.2 '/>
		<polygon fill = 'rgb( 31, 120, 180)' fill-opacity = '0.250000' points = '887.2,550.2 887.2,662.4 889.0,662.4 889.0,551.9 '/>
		<polygon fill = 'rgb( 31, 120, 180)' fill-opacity = '0.250000' points = '889.0,551.9 889.0,662.4 890.9,662.4 890.9,553.7 '/>
		<polygon fill = 'rgb( 31, 120, 180)' fill-opacity = '0.250000' points = '890.9,553.7 890.9,662.4 892.8,662.4 892.8,555.3 '/>
		<polygon fill = 'rgb( 31, 120, 180)' fill-opacity = '0.250000' points = '892.8,555.3 892.8,662.4 894.7,662.4 894.7,557.0 '/>
		<polygon fill = 'rgb( 31, 120, 180)' fill-opacity = '0.250000' points = '894.7,557.0 894.7,662.4 896.6,662.4 896.6,558.7 '/>
		<polygon fill = 'rgb( 31, 120, 180)' fill-opacity = '0.250000' points = '896.6,558.7 896.6,662.4 898.5,662.4 898.5,560.3 '/>
		<polygon fill = 'rgb( 31, 120, 180)' fill-opacity = '0.250000' points = '898.5,560.3 898.5,662.4 900.4,662.4 900.4,561.9 '/>
		<polygon fill = 'rgb( 31, 120, 180)' fill-opacity = '0.250000' points = '900.4,561.9 900.4,662.4 902.3,662.4 902.3,563.5 '/>
		<polygon fill = 'rgb( 31, 120, 180)' fill-opacity = '0.250000' points = '902.3,563.5 902.3,662.4 904.1,662.4 904.1,565.1 '/>
		<polygon fill = 'rgb( 31, 120, 180)' fill-opacity = '0.250000' points = '904.1,565.1 904.1,662.4 906.0,662.4 906.0,566.6 '/>
		<polygon fill = 'rgb( 31, 120, 180)' fill-opacity = '0.250000' points = '906.0,566.6 906.0,662.4 907.9,662.4 907.9,568.2 '/>
		<polygon fill = 'rgb( 31, 120, 180)' fill-opacity = '0.250000' points = '907.9,568.2 907.9,662.4 909.8,662.4 909.8,569.7 '/>
		<polygon fill = 'rgb( 31, 120, 180)' fill-opacity = '0.250000' points = '909.8,569.7 909.8,662.4 911.7,662.4 911.7,571.2 '/>
		<polygon fill = 'rgb( 31, 120, 180)' fill-opacity = '0.250000' points = '911.7,571.2 911.7,662.4 913.6,662.4 913.6,572.8 '/>
		<polygon fill = 'rgb( 31, 120, 180)' fill-opacity = '0.250000' points = '913.6,572.8 913.6,662.4 915.5,662.4 915.5,574.3 '/>
		<polygon fill = 'rgb( 31, 120, 180)' fill-opacity = '0.250000' points = '915.5,574.3 915.5,662.4 917.4,662.4 917.4,575.8 '/>
		<polygon fill = 'rgb( 31, 120, 180)' fill-opacity = '0.250000' points = '917.4,575.8 917.4,662.4 919.2,662.4 919.2,577.3 '/>
		<polygon fill = 'rgb( 31, 120, 180)' fill-opacity = '0.250000' points = '919.2,577.3 919.2,662.4 921.1,662.4 921.1,578.8 '/>
		<polygon fill = 'rgb( 31, 120, 180)' fill-opacity = '0.250000' points = '921.1,578.8 921.1,662.4 923.0,662.4 923.0,580.2 '/>
		<polygon fill = 'rgb( 31, 120, 180)' fill-opacity = '0.250000' points = '923.0,580.2 923.0,662.4 924.9,662.4 924.9,581.7 '/>
	</g>
</g>
	</g>
	<g id="gnuplot_plot_3" ><title>Point estimate</title>
<g fill="none" color="white" stroke="rgb( 31, 120, 180)" stroke-width="2.00" stroke-linecap="butt" stroke-linejoin="miter">
</g>
<g fill="none" color="black" stroke="currentColor" stroke-width="2.00" stroke-linecap="butt" stroke-linejoin="miter">
	<g transform="translate(1089.0,103.0)" stroke="none" fill="black" font-family="Helvetica" font-size="12.00"  text-anchor="start">
		<text><tspan font-family="Helvetica" >Point estimate</tspan></text>
	</g>
</g>
<g fill="none" color="black" stroke="currentColor" stroke-width="2.00" stroke-linecap="butt" stroke-linejoin="miter">
	<path stroke='rgb( 31, 120, 180)'  d='M1038.5,99.1 L1080.7,99.1 M543.0,662.4 L543.0,174.1  '/></g>
	</g>
<g fill="none" color="black" stroke="currentColor" stroke-width="2.00" stroke-linecap="butt" stroke-linejoin="miter">
</g>
<g fill="none" color="black" stroke="black" stroke-width="1.00" stroke-linecap="butt" stroke-linejoin="miter">
</g>
<g fill="none" color="black" stroke="currentColor" stroke-width="1.00" stroke-linecap="butt" stroke-linejoin="miter">
	<path stroke='black'  d='M71.9,54.1 L71.9,662.4 L1013.6,662.4 L1013.6,54.1 L71.9,54.1 Z  '/></g>
<g fill="none" color="black" stroke="currentColor" stroke-width="1.00" stroke-linecap="butt" stroke-linejoin="miter">
</g>
</g>
</svg>

