<?xml version="1.0" encoding="utf-8"  standalone="no"?>
<svg 
 viewBox="0 0 1280 720"
 xmlns="http://www.w3.org/2000/svg"
 xmlns:xlink="http://www.w3.org/1999/xlink"
>

<title>Gnuplot</title>
<desc>Produced by GNUPLOT 5.0 patchlevel 6 </desc>

<g id="gnuplot_canvas">

<rect x="0" y="0" width="1280" height="720" fill="none"/>
<defs>

	<circle id='gpDot' r='0.5' stroke-width='0.5'/>
	<path id='gpPt0' stroke-width='0.222' stroke='currentColor' d='M-1,0 h2 M0,-1 v2'/>
	<path id='gpPt1' stroke-width='0.222' stroke='currentColor' d='M-1,-1 L1,1 M1,-1 L-1,1'/>
	<path id='gpPt2' stroke-width='0.222' stroke='currentColor' d='M-1,0 L1,0 M0,-1 L0,1 M-1,-1 L1,1 M-1,1 L1,-1'/>
	<rect id='gpPt3' stroke-width='0.222' stroke='currentColor' x='-1' y='-1' width='2' height='2'/>
	<rect id='gpPt4' stroke-width='0.222' stroke='currentColor' fill='currentColor' x='-1' y='-1' width='2' height='2'/>
	<circle id='gpPt5' stroke-width='0.222' stroke='currentColor' cx='0' cy='0' r='1'/>
	<use xlink:href='#gpPt5' id='gpPt6' fill='currentColor' stroke='none'/>
	<path id='gpPt7' stroke-width='0.222' stroke='currentColor' d='M0,-1.33 L-1.33,0.67 L1.33,0.67 z'/>
	<use xlink:href='#gpPt7' id='gpPt8' fill='currentColor' stroke='none'/>
	<use xlink:href='#gpPt7' id='gpPt9' stroke='currentColor' transform='rotate(180)'/>
	<use xlink:href='#gpPt9' id='gpPt10' fill='currentColor' stroke='none'/>
	<use xlink:href='#gpPt3' id='gpPt11' stroke='currentColor' transform='rotate(45)'/>
	<use xlink:href='#gpPt11' id='gpPt12' fill='currentColor' stroke='none'/>
	<path id='gpPt13' stroke-width='0.222' stroke='currentColor' d='M0,1.330 L1.265,0.411 L0.782,-1.067 L-0.782,-1.076 L-1.265,0.411 z'/>
	<use xlink:href='#gpPt13' id='gpPt14' fill='currentColor' stroke='none'/>
	<filter id='textbox' filterUnits='objectBoundingBox' x='0' y='0' height='1' width='1'>
	  <feFlood flood-color='white' flood-opacity='1' result='bgnd'/>
	  <feComposite in='SourceGraphic' in2='bgnd' operator='atop'/>
	</filter>
	<filter id='greybox' filterUnits='objectBoundingBox' x='0' y='0' height='1' width='1'>
	  <feFlood flood-color='lightgrey' flood-opacity='1' result='grey'/>
	  <feComposite in='SourceGraphic' in2='grey' operator='atop'/>
	</filter>
</defs>
<g fill="none" color="white" stroke="currentColor" stroke-width="1.00" stroke-linecap="butt" stroke-linejoin="miter">
</g>
<g fill="none" color="black" stroke="currentColor" stroke-width="1.00" stroke-linecap="butt" stroke-linejoin="miter">
	<path stroke='black'  d='M71.9,662.4 L80.9,662.4  '/>	<g transform="translate(63.6,666.3)" stroke="none" fill="black" font-family="Helvetica" font-size="12.00"  text-anchor="end">
		<text><tspan font-family="Helvetica" > 0</tspan></text>
	</g>
</g>
<g fill="none" color="black" stroke="currentColor" stroke-width="1.00" stroke-linecap="butt" stroke-linejoin="miter">
	<path stroke='black'  d='M71.9,594.8 L80.9,594.8  '/>	<g transform="translate(63.6,598.7)" stroke="none" fill="black" font-family="Helvetica" font-size="12.00"  text-anchor="end">
		<text><tspan font-family="Helvetica" > 0.1</tspan></text>
	</g>
</g>
<g fill="none" color="black" stroke="currentColor" stroke-width="1.00" stroke-linecap="butt" stroke-linejoin="miter">
	<path stroke='black'  d='M71.9,527.2 L80.9,527.2  '/>	<g transform="translate(63.6,531.1)" stroke="none" fill="black" font-family="Helvetica" font-size="12.00"  text-anchor="end">
		<text><tspan font-family="Helvetica" > 0.2</tspan></text>
	</g>
</g>
<g fill="none" color="black" stroke="currentColor" stroke-width="1.00" stroke-linecap="butt" stroke-linejoin="miter">
	<path stroke='black'  d='M71.9,459.6 L80.9,459.6  '/>	<g transform="translate(63.6,463.5)" stroke="none" fill="black" font-family="Helvetica" font-size="12.00"  text-anchor="end">
		<text><tspan font-family="Helvetica" > 0.3</tspan></text>
	</g>
</g>
<g fill="none" color="black" stroke="currentColor" stroke-width="1.00" stroke-linecap="butt" stroke-linejoin="miter">
	<path stroke='black'  d='M71.9,392.0 L80.9,392.0  '/>	<g transform="translate(63.6,395.9)" stroke="none" fill="black" font-family="Helvetica" font-size="12.00"  text-anchor="end">
		<text><tspan font-family="Helvetica" > 0.4</tspan></text>
	</g>
</g>
<g fill="none" color="black" stroke="currentColor" stroke-width="1.00" stroke-linecap="butt" stroke-linejoin="miter">
	<path stroke='black'  d='M71.9,324.5 L80.9,324.5  '/>	<g transform="translate(63.6,328.4)" stroke="none" fill="black" font-family="Helvetica" font-size="12.00"  text-anchor="end">
		<text><tspan font-family="Helvetica" > 0.5</tspan></text>
	</g>
</g>
<g fill="none" color="black" stroke="currentColor" stroke-width="1.00" stroke-linecap="butt" stroke-linejoin="miter">
	<path stroke='black'  d='M71.9,256.9 L80.9,256.9  '/>	<g transform="translate(63.6,260.8)" stroke="none" fill="black" font-family="Helvetica" font-size="12.00"  text-anchor="end">
		<text><tspan font-family="Helvetica" > 0.6</tspan></text>
	</g>
</g>
<g fill="none" color="black" stroke="currentColor" stroke-width="1.00" stroke-linecap="butt" stroke-linejoin="miter">
	<path stroke='black'  d='M71.9,189.3 L80.9,189.3  '/>	<g transform="translate(63.6,193.2)" stroke="none" fill="black" font-family="Helvetica" font-size="12.00"  text-anchor="end">
		<text><tspan font-family="Helvetica" > 0.7</tspan></text>
	</g>
</g>
<g fill="none" color="black" stroke="currentColor" stroke-width="1.00" stroke-linecap="butt" stroke-linejoin="miter">
	<path stroke='black'  d='M71.9,121.7 L80.9,121.7  '/>	<g transform="translate(63.6,125.6)" stroke="none" fill="black" font-family="Helvetica" font-size="12.00"  text-anchor="end">
		<text><tspan font-family="Helvetica" > 0.8</tspan></text>
	</g>
</g>
<g fill="none" color="black" stroke="currentColor" stroke-width="1.00" stroke-linecap="butt" stroke-linejoin="miter">
	<path stroke='black'  d='M71.9,54.1 L80.9,54.1  '/>	<g transform="translate(63.6,58.0)" stroke="none" fill="black" font-family="Helvetica" font-size="12.00"  text-anchor="end">
		<text><tspan font-family="Helvetica" > 0.9</tspan></text>
	</g>
</g>
<g fill="none" color="black" stroke="currentColor" stroke-width="1.00" stroke-linecap="butt" stroke-linejoin="miter">
	<path stroke='black'  d='M197.6,662.4 L197.6,653.4  '/>	<g transform="translate(197.6,684.3)" stroke="none" fill="black" font-family="Helvetica" font-size="12.00"  text-anchor="middle">
		<text><tspan font-family="Helvetica" > 512.5</tspan></text>
	</g>
</g>
<g fill="none" color="black" stroke="currentColor" stroke-width="1.00" stroke-linecap="butt" stroke-linejoin="miter">
	<path stroke='black'  d='M412.8,662.4 L412.8,653.4  '/>	<g transform="translate(412.8,684.3)" stroke="none" fill="black" font-family="Helvetica" font-size="12.00"  text-anchor="middle">
		<text><tspan font-family="Helvetica" > 513</tspan></text>
	</g>
</g>
<g fill="none" color="black" stroke="currentColor" stroke-width="1.00" stroke-linecap="butt" stroke-linejoin="miter">
	<path stroke='black'  d='M628.1,662.4 L628.1,653.4  '/>	<g transform="translate(628.1,684.3)" stroke="none" fill="black" font-family="Helvetica" font-size="12.00"  text-anchor="middle">
		<text><tspan font-family="Helvetica" > 513.5</tspan></text>
	</g>
</g>
<g fill="none" color="black" stroke="currentColor" stroke-width="1.00" stroke-linecap="butt" stroke-linejoin="miter">
	<path stroke='black'  d='M843.4,662.4 L843.4,653.4  '/>	<g transform="translate(843.4,684.3)" stroke="none" fill="black" font-family="Helvetica" font-size="12.00"  text-anchor="middle">
		<text><tspan font-family="Helvetica" > 514</tspan></text>
	</g>
</g>
<g fill="none" color="black" stroke="currentColor" stroke-width="1.00" stroke-linecap="butt" stroke-linejoin="miter">
</g>
<g fill="none" color="black" stroke="currentColor" stroke-width="1.00" stroke-linecap="butt" stroke-linejoin="miter">
	<path stroke='black'  d='M71.9,54.1 L71.9,662.4 L1013.6,662.4 L1013.6,54.1 L71.9,54.1 Z  '/></g>
<g fill="none" color="black" stroke="currentColor" stroke-width="1.00" stroke-linecap="butt" stroke-linejoin="miter">
	<g transform="translate(17.0,358.3) rotate(270)" stroke="none" fill="black" font-family="Helvetica" font-size="12.00"  text-anchor="middle">
		<text><tspan font-family="Helvetica" >Density (a.u.)</tspan></text>
	</g>
</g>
<g fill="none" color="black" stroke="currentColor" stroke-width="1.00" stroke-linecap="butt" stroke-linejoin="miter">
	<g transform="translate(542.7,711.3)" stroke="none" fill="black" font-family="Helvetica" font-size="12.00"  text-anchor="middle">
		<text><tspan font-family="Helvetica" >Average time (us)</tspan></text>
	</g>
</g>
<g fill="none" color="black" stroke="currentColor" stroke-width="1.00" stroke-linecap="butt" stroke-linejoin="miter">
	<g transform="translate(542.7,31.0)" stroke="none" fill="black" font-family="Helvetica" font-size="12.00"  text-anchor="middle">
		<text><tspan font-family="Helvetica" >language: cpp/parse error: bash/examples/release.sh: mean</tspan></text>
	</g>
</g>
	<g id="gnuplot_plot_1" ><title>Bootstrap distribution</title>
<g fill="none" color="white" stroke="black" stroke-width="2.00" stroke-linecap="butt" stroke-linejoin="miter">
</g>
<g fill="none" color="black" stroke="currentColor" stroke-width="2.00" stroke-linecap="butt" stroke-linejoin="miter">
	<g transform="translate(1089.0,67.0)" stroke="none" fill="black" font-family="Helvetica" font-size="12.00"  text-anchor="start">
		<text><tspan font-family="Helvetica" >Bootstrap distribution</tspan></text>
	</g>
</g>
<g fill="none" color="black" stroke="currentColor" stroke-width="2.00" stroke-linecap="butt" stroke-linejoin="miter">
	<path stroke='rgb( 31, 120, 180)'  d='M1038.5,63.1 L1080.7,63.1 M71.9,629.3 L73.8,628.2 L75.7,627.2 L77.6,626.1 L79.4,624.9 L81.3,623.7
		L83.2,622.5 L85.1,621.3 L87.0,620.0 L88.9,618.7 L90.8,617.4 L92.7,616.0 L94.5,614.5 L96.4,613.1
		L98.3,611.6 L100.2,610.0 L102.1,608.4 L104.0,606.7 L105.9,605.0 L107.8,603.3 L109.6,601.4 L111.5,599.6
		L113.4,597.7 L115.3,595.7 L117.2,593.6 L119.1,591.5 L121.0,589.4 L122.9,587.2 L124.7,585.0 L126.6,582.7
		L128.5,580.3 L130.4,577.9 L132.3,575.5 L134.2,573.0 L136.1,570.5 L138.0,567.9 L139.8,565.3 L141.7,562.7
		L143.6,560.0 L145.5,557.3 L147.4,554.6 L149.3,551.8 L151.2,549.0 L153.0,546.2 L154.9,543.3 L156.8,540.4
		L158.7,537.5 L160.6,534.5 L162.5,531.5 L164.4,528.5 L166.3,525.4 L168.1,522.2 L170.0,519.1 L171.9,515.9
		L173.8,512.6 L175.7,509.3 L177.6,505.9 L179.5,502.6 L181.4,499.1 L183.2,495.7 L185.1,492.2 L187.0,488.7
		L188.9,485.1 L190.8,481.5 L192.7,477.9 L194.6,474.3 L196.5,470.7 L198.3,467.1 L200.2,463.5 L202.1,459.9
		L204.0,456.3 L205.9,452.7 L207.8,449.1 L209.7,445.6 L211.6,442.1 L213.4,438.6 L215.3,435.1 L217.2,431.7
		L219.1,428.3 L221.0,424.9 L222.9,421.5 L224.8,418.2 L226.6,414.9 L228.5,411.5 L230.4,408.2 L232.3,404.9
		L234.2,401.5 L236.1,398.2 L238.0,394.8 L239.9,391.4 L241.7,388.0 L243.6,384.5 L245.5,381.0 L247.4,377.5
		L249.3,373.9 L251.2,370.3 L253.1,366.6 L255.0,362.9 L256.8,359.2 L258.7,355.4 L260.6,351.6 L262.5,347.8
		L264.4,343.9 L266.3,340.0 L268.2,336.2 L270.1,332.3 L271.9,328.4 L273.8,324.5 L275.7,320.6 L277.6,316.7
		L279.5,312.8 L281.4,308.9 L283.3,305.0 L285.2,301.1 L287.0,297.3 L288.9,293.4 L290.8,289.5 L292.7,285.7
		L294.6,281.9 L296.5,278.0 L298.4,274.2 L300.2,270.4 L302.1,266.7 L304.0,262.9 L305.9,259.1 L307.8,255.4
		L309.7,251.7 L311.6,248.0 L313.5,244.4 L315.3,240.8 L317.2,237.2 L319.1,233.7 L321.0,230.2 L322.9,226.7
		L324.8,223.3 L326.7,219.9 L328.6,216.6 L330.4,213.4 L332.3,210.2 L334.2,207.0 L336.1,204.0 L338.0,201.0
		L339.9,198.0 L341.8,195.2 L343.7,192.4 L345.5,189.7 L347.4,187.0 L349.3,184.5 L351.2,182.0 L353.1,179.6
		L355.0,177.2 L356.9,174.9 L358.8,172.6 L360.6,170.4 L362.5,168.3 L364.4,166.2 L366.3,164.0 L368.2,161.9
		L370.1,159.9 L372.0,157.8 L373.8,155.6 L375.7,153.5 L377.6,151.3 L379.5,149.1 L381.4,146.8 L383.3,144.4
		L385.2,142.1 L387.1,139.6 L388.9,137.1 L390.8,134.5 L392.7,131.9 L394.6,129.3 L396.5,126.6 L398.4,124.0
		L400.3,121.3 L402.2,118.6 L404.0,116.0 L405.9,113.4 L407.8,110.9 L409.7,108.5 L411.6,106.1 L413.5,103.9
		L415.4,101.7 L417.3,99.7 L419.1,97.7 L421.0,95.9 L422.9,94.2 L424.8,92.5 L426.7,91.0 L428.6,89.5
		L430.5,88.1 L432.4,86.7 L434.2,85.5 L436.1,84.2 L438.0,83.0 L439.9,81.8 L441.8,80.7 L443.7,79.6
		L445.6,78.6 L447.4,77.5 L449.3,76.6 L451.2,75.7 L453.1,74.8 L455.0,74.1 L456.9,73.4 L458.8,72.8
		L460.7,72.4 L462.5,72.0 L464.4,71.8 L466.3,71.7 L468.2,71.7 L470.1,71.8 L472.0,72.1 L473.9,72.5
		L475.8,72.9 L477.6,73.5 L479.5,74.2 L481.4,75.0 L483.3,75.9 L485.2,76.8 L487.1,77.8 L489.0,78.8
		L490.9,79.9 L492.7,81.0 L494.6,82.2 L496.5,83.4 L498.4,84.6 L500.3,85.8 L502.2,87.0 L504.1,88.3
		L506.0,89.6 L507.8,90.8 L509.7,92.1 L511.6,93.4 L513.5,94.6 L515.4,95.9 L517.3,97.2 L519.2,98.5
		L521.0,99.8 L522.9,101.0 L524.8,102.3 L526.7,103.6 L528.6,105.0 L530.5,106.3 L532.4,107.7 L534.3,109.1
		L536.1,110.5 L538.0,111.9 L539.9,113.4 L541.8,114.9 L543.7,116.5 L545.6,118.1 L547.5,119.8 L549.4,121.5
		L551.2,123.3 L553.1,125.1 L555.0,126.9 L556.9,128.8 L558.8,130.8 L560.7,132.7 L562.6,134.7 L564.5,136.8
		L566.3,138.8 L568.2,140.9 L570.1,143.1 L572.0,145.2 L573.9,147.4 L575.8,149.7 L577.7,151.9 L579.5,154.3
		L581.4,156.6 L583.3,159.0 L585.2,161.5 L587.1,164.0 L589.0,166.6 L590.9,169.2 L592.8,171.8 L594.6,174.5
		L596.5,177.2 L598.4,180.0 L600.3,182.8 L602.2,185.7 L604.1,188.5 L606.0,191.4 L607.9,194.3 L609.7,197.1
		L611.6,200.0 L613.5,202.9 L615.4,205.7 L617.3,208.6 L619.2,211.4 L621.1,214.2 L623.0,216.9 L624.8,219.7
		L626.7,222.4 L628.6,225.2 L630.5,227.9 L632.4,230.6 L634.3,233.3 L636.2,236.0 L638.1,238.8 L639.9,241.5
		L641.8,244.3 L643.7,247.1 L645.6,250.0 L647.5,252.8 L649.4,255.8 L651.3,258.7 L653.1,261.7 L655.0,264.7
		L656.9,267.7 L658.8,270.8 L660.7,273.9 L662.6,277.0 L664.5,280.2 L666.4,283.4 L668.2,286.5 L670.1,289.7
		L672.0,292.9 L673.9,296.1 L675.8,299.3 L677.7,302.5 L679.6,305.6 L681.5,308.8 L683.3,311.9 L685.2,315.0
		L687.1,318.1 L689.0,321.1 L690.9,324.1 L692.8,327.1 L694.7,330.0 L696.6,332.9 L698.4,335.8 L700.3,338.7
		L702.2,341.5 L704.1,344.3 L706.0,347.0 L707.9,349.8 L709.8,352.5 L711.7,355.2 L713.5,357.9 L715.4,360.5
		L717.3,363.2 L719.2,365.8 L721.1,368.5 L723.0,371.1 L724.9,373.7 L726.7,376.4 L728.6,379.0 L730.5,381.6
		L732.4,384.2 L734.3,386.8 L736.2,389.4 L738.1,392.0 L740.0,394.7 L741.8,397.3 L743.7,399.9 L745.6,402.5
		L747.5,405.1 L749.4,407.7 L751.3,410.3 L753.2,412.9 L755.1,415.5 L756.9,418.1 L758.8,420.7 L760.7,423.3
		L762.6,425.9 L764.5,428.5 L766.4,431.1 L768.3,433.7 L770.2,436.3 L772.0,439.0 L773.9,441.5 L775.8,444.1
		L777.7,446.7 L779.6,449.3 L781.5,451.9 L783.4,454.4 L785.3,456.9 L787.1,459.5 L789.0,462.0 L790.9,464.5
		L792.8,467.0 L794.7,469.4 L796.6,471.9 L798.5,474.3 L800.3,476.7 L802.2,479.1 L804.1,481.5 L806.0,483.8
		L807.9,486.2 L809.8,488.5 L811.7,490.8 L813.6,493.1 L815.4,495.4 L817.3,497.6 L819.2,499.8 L821.1,502.0
		L823.0,504.2 L824.9,506.4 L826.8,508.5 L828.7,510.6 L830.5,512.7 L832.4,514.8 L834.3,516.8 L836.2,518.8
		L838.1,520.8 L840.0,522.8 L841.9,524.8 L843.8,526.7 L845.6,528.6 L847.5,530.5 L849.4,532.4 L851.3,534.2
		L853.2,536.0 L855.1,537.8 L857.0,539.6 L858.9,541.3 L860.7,543.1 L862.6,544.8 L864.5,546.4 L866.4,548.0
		L868.3,549.7 L870.2,551.2 L872.1,552.8 L873.9,554.3 L875.8,555.8 L877.7,557.2 L879.6,558.7 L881.5,560.1
		L883.4,561.4 L885.3,562.8 L887.2,564.1 L889.0,565.3 L890.9,566.6 L892.8,567.8 L894.7,569.1 L896.6,570.3
		L898.5,571.5 L900.4,572.6 L902.3,573.8 L904.1,575.0 L906.0,576.1 L907.9,577.3 L909.8,578.4 L911.7,579.6
		L913.6,580.8 L915.5,582.0 L917.4,583.2 L919.2,584.4 L921.1,585.6 L923.0,586.9 L924.9,588.1 L926.8,589.4
		L928.7,590.6 L930.6,591.9 L932.5,593.2 L934.3,594.5 L936.2,595.7 L938.1,597.0 L940.0,598.3 L941.9,599.5
		L943.8,600.8 L945.7,602.0 L947.5,603.2 L949.4,604.3 L951.3,605.5 L953.2,606.6 L955.1,607.7 L957.0,608.8
		L958.9,609.8 L960.8,610.8 L962.6,611.8 L964.5,612.7 L966.4,613.6 L968.3,614.4 L970.2,615.3 L972.1,616.1
		L974.0,616.9 L975.9,617.6 L977.7,618.3 L979.6,619.0 L981.5,619.6 L983.4,620.3 L985.3,620.9 L987.2,621.4
		L989.1,622.0 L991.0,622.5 L992.8,623.1 L994.7,623.6 L996.6,624.1 L998.5,624.6 L1000.4,625.0 L1002.3,625.5
		L1004.2,625.9 L1006.1,626.4 L1007.9,626.8 L1009.8,627.3 L1011.7,627.7 L1013.6,628.2  '/></g>
	</g>
	<g id="gnuplot_plot_2" ><title>Confidence interval</title>
<g fill="none" color="white" stroke="rgb( 31, 120, 180)" stroke-width="1.00" stroke-linecap="butt" stroke-linejoin="miter">
</g>
<g fill="none" color="black" stroke="currentColor" stroke-width="1.00" stroke-linecap="butt" stroke-linejoin="miter">
	<g transform="translate(1089.0,85.0)" stroke="none" fill="black" font-family="Helvetica" font-size="12.00"  text-anchor="start">
		<text><tspan font-family="Helvetica" >Confidence interval</tspan></text>
	</g>
</g>
<g fill="none" color="black" stroke="currentColor" stroke-width="1.00" stroke-linecap="butt" stroke-linejoin="miter">
	<g stroke='none' shape-rendering='crispEdges'>
		<polygon fill = 'rgb( 31, 120, 180)' fill-opacity = '0.250000' points = '1038.5,85.6 1080.7,85.6 1080.7,76.6 1038.5,76.6 '/>
		<polygon fill = 'rgb( 31, 120, 180)' fill-opacity = '0.250000' points = '158.7,537.5 158.7,662.4 160.6,662.4 160.6,534.5 '/>
		<polygon fill = 'rgb( 31, 120, 180)' fill-opacity = '0.250000' points = '160.6,534.5 160.6,662.4 162.5,662.4 162.5,531.5 '/>
		<polygon fill = 'rgb( 31, 120, 180)' fill-opacity = '0.250000' points = '162.5,531.5 162.5,662.4 164.4,662.4 164.4,528.5 '/>
		<polygon fill = 'rgb( 31, 120, 180)' fill-opacity = '0.250000' points = '164.4,528.5 164.4,662.4 166.3,662.4 166.3,525.4 '/>
		<polygon fill = 'rgb( 31, 120, 180)' fill-opacity = '0.250000' points = '166.3,525.4 166.3,662.4 168.1,662.4 168.1,522.2 '/>
		<polygon fill = 'rgb( 31, 120, 180)' fill-opacity = '0.250000' points = '168.1,522.2 168.1,662.4 170.0,662.4 170.0,519.1 '/>
		<polygon fill = 'rgb( 31, 120, 180)' fill-opacity = '0.250000' points = '170.0,519.1 170.0,662.4 171.9,662.4 171.9,515.9 '/>
		<polygon fill = 'rgb( 31, 120, 180)' fill-opacity = '0.250000' points = '171.9,515.9 171.9,662.4 173.8,662.4 173.8,512.6 '/>
		<polygon fill = 'rgb( 31, 120, 180)' fill-opacity = '0.250000' points = '173.8,512.6 173.8,662.4 175.7,662.4 175.7,509.3 '/>
		<polygon fill = 'rgb( 31, 120, 180)' fill-opacity = '0.250000' points = '175.7,509.3 175.7,662.4 177.6,662.4 177.6,505.9 '/>
		<polygon fill = 'rgb( 31, 120, 180)' fill-opacity = '0.250000' points = '177.6,505.9 177.6,662.4 179.5,662.4 179.5,502.6 '/>
		<polygon fill = 'rgb( 31, 120, 180)' fill-opacity = '0.250000' points = '179.5,502.6 179.5,662.4 181.4,662.4 181.4,499.1 '/>
		<polygon fill = 'rgb( 31, 120, 180)' fill-opacity = '0.250000' points = '181.4,499.1 181.4,662.4 183.2,662.4 183.2,495.7 '/>
		<polygon fill = 'rgb( 31, 120, 180)' fill-opacity = '0.250000' points = '183.2,495.7 183.2,662.4 185.1,662.4 185.1,492.2 '/>
		<polygon fill = 'rgb( 31, 120, 180)' fill-opacity = '0.250000' points = '185.1,492.2 185.1,662.4 187.0,662.4 187.0,488.7 '/>
		<polygon fill = 'rgb( 31, 120, 180)' fill-opacity = '0.250000' points = '187.0,488.7 187.0,662.4 188.9,662.4 188.9,485.1 '/>
		<polygon fill = 'rgb( 31, 120, 180)' fill-opacity = '0.250000' points = '188.9,485.1 188.9,662.4 190.8,662.4 190.8,481.5 '/>
		<polygon fill = 'rgb( 31, 120, 180)' fill-opacity = '0.250000' points = '190.8,481.5 190.8,662.4 192.7,662.4 192.7,477.9 '/>
		<polygon fill = 'rgb( 31, 120, 180)' fill-opacity = '0.250000' points = '192.7,477.9 192.7,662.4 194.6,662.4 194.6,474.3 '/>
		<polygon fill = 'rgb( 31, 120, 180)' fill-opacity = '0.250000' points = '194.6,474.3 194.6,662.4 196.5,662.4 196.5,470.7 '/>
		<polygon fill = 'rgb( 31, 120, 180)' fill-opacity = '0.250000' points = '196.5,470.7 196.5,662.4 198.3,662.4 198.3,467.1 '/>
		<polygon fill = 'rgb( 31, 120, 180)' fill-opacity = '0.250000' points = '198.3,467.1 198.3,662.4 200.2,662.4 200.2,463.5 '/>
		<polygon fill = 'rgb( 31, 120, 180)' fill-opacity = '0.250000' points = '200.2,463.5 200.2,662.4 202.1,662.4 202.1,459.9 '/>
		<polygon fill = 'rgb( 31, 120, 180)' fill-opacity = '0.250000' points = '202.1,459.9 202.1,662.4 204.0,662.4 204.0,456.3 '/>
		<polygon fill = 'rgb( 31, 120, 180)' fill-opacity = '0.250000' points = '204.0,456.3 204.0,662.4 205.9,662.4 205.9,452.7 '/>
		<polygon fill = 'rgb( 31, 120, 180)' fill-opacity = '0.250000' points = '205.9,452.7 205.9,662.4 207.8,662.4 207.8,449.1 '/>
		<polygon fill = 'rgb( 31, 120, 180)' fill-opacity = '0.250000' points = '207.8,449.1 207.8,662.4 209.7,662.4 209.7,445.6 '/>
		<polygon fill = 'rgb( 31, 120, 180)' fill-opacity = '0.250000' points = '209.7,445.6 209.7,662.4 211.6,662.4 211.6,442.1 '/>
		<polygon fill = 'rgb( 31, 120, 180)' fill-opacity = '0.250000' points = '211.6,442.1 211.6,662.4 213.4,662.4 213.4,438.6 '/>
		<polygon fill = 'rgb( 31, 120, 180)' fill-opacity = '0.250000' points = '213.4,438.6 213.4,662.4 215.3,662.4 215.3,435.1 '/>
		<polygon fill = 'rgb( 31, 120, 180)' fill-opacity = '0.250000' points = '215.3,435.1 215.3,662.4 217.2,662.4 217.2,431.7 '/>
		<polygon fill = 'rgb( 31, 120, 180)' fill-opacity = '0.250000' points = '217.2,431.7 217.2,662.4 219.1,662.4 219.1,428.3 '/>
		<polygon fill = 'rgb( 31, 120, 180)' fill-opacity = '0.250000' points = '219.1,428.3 219.1,662.4 221.0,662.4 221.0,424.9 '/>
		<polygon fill = 'rgb( 31, 120, 180)' fill-opacity = '0.250000' points = '221.0,424.9 221.0,662.4 222.9,662.4 222.9,421.5 '/>
		<polygon fill = 'rgb( 31, 120, 180)' fill-opacity = '0.250000' points = '222.9,421.5 222.9,662.4 224.8,662.4 224.8,418.2 '/>
		<polygon fill = 'rgb( 31, 120, 180)' fill-opacity = '0.250000' points = '224.8,418.2 224.8,662.4 226.6,662.4 226.6,414.9 '/>
		<polygon fill = 'rgb( 31, 120, 180)' fill-opacity = '0.250000' points = '226.6,414.9 226.6,662.4 228.5,662.4 228.5,411.5 '/>
		<polygon fill = 'rgb( 31, 120, 180)' fill-opacity = '0.250000' points = '228.5,411.5 228.5,662.4 230.4,662.4 230.4,408.2 '/>
		<polygon fill = 'rgb( 31, 120, 180)' fill-opacity = '0.250000' points = '230.4,408.2 230.4,662.4 232.3,662.4 232.3,404.9 '/>
		<polygon fill = 'rgb( 31, 120, 180)' fill-opacity = '0.250000' points = '232.3,404.9 232.3,662.4 234.2,662.4 234.2,401.5 '/>
		<polygon fill = 'rgb( 31, 120, 180)' fill-opacity = '0.250000' points = '234.2,401.5 234.2,662.4 236.1,662.4 236.1,398.2 '/>
		<polygon fill = 'rgb( 31, 120, 180)' fill-opacity = '0.250000' points = '236.1,398.2 236.1,662.4 238.0,662.4 238.0,394.8 '/>
		<polygon fill = 'rgb( 31, 120, 180)' fill-opacity = '0.250000' points = '238.0,394.8 238.0,662.4 239.9,662.4 239.9,391.4 '/>
		<polygon fill = 'rgb( 31, 120, 180)' fill-opacity = '0.250000' points = '239.9,391.4 239.9,662.4 241.7,662.4 241.7,388.0 '/>
		<polygon fill = 'rgb( 31, 120, 180)' fill-opacity = '0.250000' points = '241.7,388.0 241.7,662.4 243.6,662.4 243.6,384.5 '/>
		<polygon fill = 'rgb( 31, 120, 180)' fill-opacity = '0.250000' points = '243.6,384.5 243.6,662.4 245.5,662.4 245.5,381.0 '/>
		<polygon fill = 'rgb( 31, 120, 180)' fill-opacity = '0.250000' points = '245.5,381.0 245.5,662.4 247.4,662.4 247.4,377.5 '/>
		<polygon fill = 'rgb( 31, 120, 180)' fill-opacity = '0.250000' points = '247.4,377.5 247.4,662.4 249.3,662.4 249.3,373.9 '/>
		<polygon fill = 'rgb( 31, 120, 180)' fill-opacity = '0.250000' points = '249.3,373.9 249.3,662.4 251.2,662.4 251.2,370.3 '/>
		<polygon fill = 'rgb( 31, 120, 180)' fill-opacity = '0.250000' points = '251.2,370.3 251.2,662.4 253.1,662.4 253.1,366.6 '/>
		<polygon fill = 'rgb( 31, 120, 180)' fill-opacity = '0.250000' points = '253.1,366.6 253.1,662.4 255.0,662.4 255.0,362.9 '/>
		<polygon fill = 'rgb( 31, 120, 180)' fill-opacity = '0.250000' points = '255.0,362.9 255.0,662.4 256.8,662.4 256.8,359.2 '/>
		<polygon fill = 'rgb( 31, 120, 180)' fill-opacity = '0.250000' points = '256.8,359.2 256.8,662.4 258.7,662.4 258.7,355.4 '/>
		<polygon fill = 'rgb( 31, 120, 180)' fill-opacity = '0.250000' points = '258.7,355.4 258.7,662.4 260.6,662.4 260.6,351.6 '/>
		<polygon fill = 'rgb( 31, 120, 180)' fill-opacity = '0.250000' points = '260.6,351.6 260.6,662.4 262.5,662.4 262.5,347.8 '/>
		<polygon fill = 'rgb( 31, 120, 180)' fill-opacity = '0.250000' points = '262.5,347.8 262.5,662.4 264.4,662.4 264.4,343.9 '/>
		<polygon fill = 'rgb( 31, 120, 180)' fill-opacity = '0.250000' points = '264.4,343.9 264.4,662.4 266.3,662.4 266.3,340.0 '/>
		<polygon fill = 'rgb( 31, 120, 180)' fill-opacity = '0.250000' points = '266.3,340.0 266.3,662.4 268.2,662.4 268.2,336.2 '/>
		<polygon fill = 'rgb( 31, 120, 180)' fill-opacity = '0.250000' points = '268.2,336.2 268.2,662.4 270.1,662.4 270.1,332.3 '/>
		<polygon fill = 'rgb( 31, 120, 180)' fill-opacity = '0.250000' points = '270.1,332.3 270.1,662.4 271.9,662.4 271.9,328.4 '/>
		<polygon fill = 'rgb( 31, 120, 180)' fill-opacity = '0.250000' points = '271.9,328.4 271.9,662.4 273.8,662.4 273.8,324.5 '/>
		<polygon fill = 'rgb( 31, 120, 180)' fill-opacity = '0.250000' points = '273.8,324.5 273.8,662.4 275.7,662.4 275.7,320.6 '/>
		<polygon fill = 'rgb( 31, 120, 180)' fill-opacity = '0.250000' points = '275.7,320.6 275.7,662.4 277.6,662.4 277.6,316.7 '/>
		<polygon fill = 'rgb( 31, 120, 180)' fill-opacity = '0.250000' points = '277.6,316.7 277.6,662.4 279.5,662.4 279.5,312.8 '/>
		<polygon fill = 'rgb( 31, 120, 180)' fill-opacity = '0.250000' points = '279.5,312.8 279.5,662.4 281.4,662.4 281.4,308.9 '/>
		<polygon fill = 'rgb( 31, 120, 180)' fill-opacity = '0.250000' points = '281.4,308.9 281.4,662.4 283.3,662.4 283.3,305.0 '/>
		<polygon fill = 'rgb( 31, 120, 180)' fill-opacity = '0.250000' points = '283.3,305.0 283.3,662.4 285.2,662.4 285.2,301.1 '/>
		<polygon fill = 'rgb( 31, 120, 180)' fill-opacity = '0.250000' points = '285.2,301.1 285.2,662.4 287.0,662.4 287.0,297.3 '/>
		<polygon fill = 'rgb( 31, 120, 180)' fill-opacity = '0.250000' points = '287.0,297.3 287.0,662.4 288.9,662.4 288.9,293.4 '/>
		<polygon fill = 'rgb( 31, 120, 180)' fill-opacity = '0.250000' points = '288.9,293.4 288.9,662.4 290.8,662.4 290.8,289.5 '/>
		<polygon fill = 'rgb( 31, 120, 180)' fill-opacity = '0.250000' points = '290.8,289.5 290.8,662.4 292.7,662.4 292.7,285.7 '/>
		<polygon fill = 'rgb( 31, 120, 180)' fill-opacity = '0.250000' points = '292.7,285.7 292.7,662.4 294.6,662.4 294.6,281.9 '/>
		<polygon fill = 'rgb( 31, 120, 180)' fill-opacity = '0.250000' points = '294.6,281.9 294.6,662.4 296.5,662.4 296.5,278.0 '/>
		<polygon fill = 'rgb( 31, 120, 180)' fill-opacity = '0.250000' points = '296.5,278.0 296.5,662.4 298.4,662.4 298.4,274.2 '/>
		<polygon fill = 'rgb( 31, 120, 180)' fill-opacity = '0.250000' points = '298.4,274.2 298.4,662.4 300.2,662.4 300.2,270.4 '/>
		<polygon fill = 'rgb( 31, 120, 180)' fill-opacity = '0.250000' points = '300.2,270.4 300.2,662.4 302.1,662.4 302.1,266.7 '/>
		<polygon fill = 'rgb( 31, 120, 180)' fill-opacity = '0.250000' points = '302.1,266.7 302.1,662.4 304.0,662.4 304.0,262.9 '/>
		<polygon fill = 'rgb( 31, 120, 180)' fill-opacity = '0.250000' points = '304.0,262.9 304.0,662.4 305.9,662.4 305.9,259.1 '/>
		<polygon fill = 'rgb( 31, 120, 180)' fill-opacity = '0.250000' points = '305.9,259.1 305.9,662.4 307.8,662.4 307.8,255.4 '/>
		<polygon fill = 'rgb( 31, 120, 180)' fill-opacity = '0.250000' points = '307.8,255.4 307.8,662.4 309.7,662.4 309.7,251.7 '/>
		<polygon fill = 'rgb( 31, 120, 180)' fill-opacity = '0.250000' points = '309.7,251.7 309.7,662.4 311.6,662.4 311.6,248.0 '/>
		<polygon fill = 'rgb( 31, 120, 180)' fill-opacity = '0.250000' points = '311.6,248.0 311.6,662.4 313.5,662.4 313.5,244.4 '/>
		<polygon fill = 'rgb( 31, 120, 180)' fill-opacity = '0.250000' points = '313.5,244.4 313.5,662.4 315.3,662.4 315.3,240.8 '/>
		<polygon fill = 'rgb( 31, 120, 180)' fill-opacity = '0.250000' points = '315.3,240.8 315.3,662.4 317.2,662.4 317.2,237.2 '/>
		<polygon fill = 'rgb( 31, 120, 180)' fill-opacity = '0.250000' points = '317.2,237.2 317.2,662.4 319.1,662.4 319.1,233.7 '/>
		<polygon fill = 'rgb( 31, 120, 180)' fill-opacity = '0.250000' points = '319.1,233.7 319.1,662.4 321.0,662.4 321.0,230.2 '/>
		<polygon fill = 'rgb( 31, 120, 180)' fill-opacity = '0.250000' points = '321.0,230.2 321.0,662.4 322.9,662.4 322.9,226.7 '/>
		<polygon fill = 'rgb( 31, 120, 180)' fill-opacity = '0.250000' points = '322.9,226.7 322.9,662.4 324.8,662.4 324.8,223.3 '/>
		<polygon fill = 'rgb( 31, 120, 180)' fill-opacity = '0.250000' points = '324.8,223.3 324.8,662.4 326.7,662.4 326.7,219.9 '/>
		<polygon fill = 'rgb( 31, 120, 180)' fill-opacity = '0.250000' points = '326.7,219.9 326.7,662.4 328.6,662.4 328.6,216.6 '/>
		<polygon fill = 'rgb( 31, 120, 180)' fill-opacity = '0.250000' points = '328.6,216.6 328.6,662.4 330.4,662.4 330.4,213.4 '/>
		<polygon fill = 'rgb( 31, 120, 180)' fill-opacity = '0.250000' points = '330.4,213.4 330.4,662.4 332.3,662.4 332.3,210.2 '/>
		<polygon fill = 'rgb( 31, 120, 180)' fill-opacity = '0.250000' points = '332.3,210.2 332.3,662.4 334.2,662.4 334.2,207.0 '/>
		<polygon fill = 'rgb( 31, 120, 180)' fill-opacity = '0.250000' points = '334.2,207.0 334.2,662.4 336.1,662.4 336.1,204.0 '/>
		<polygon fill = 'rgb( 31, 120, 180)' fill-opacity = '0.250000' points = '336.1,204.0 336.1,662.4 338.0,662.4 338.0,201.0 '/>
		<polygon fill = 'rgb( 31, 120, 180)' fill-opacity = '0.250000' points = '338.0,201.0 338.0,662.4 339.9,662.4 339.9,198.0 '/>
		<polygon fill = 'rgb( 31, 120, 180)' fill-opacity = '0.250000' points = '339.9,198.0 339.9,662.4 341.8,662.4 341.8,195.2 '/>
		<polygon fill = 'rgb( 31, 120, 180)' fill-opacity = '0.250000' points = '341.8,195.2 341.8,662.4 343.7,662.4 343.7,192.4 '/>
		<polygon fill = 'rgb( 31, 120, 180)' fill-opacity = '0.250000' points = '343.7,192.4 343.7,662.4 345.5,662.4 345.5,189.7 '/>
		<polygon fill = 'rgb( 31, 120, 180)' fill-opacity = '0.250000' points = '345.5,189.7 345.5,662.4 347.4,662.4 347.4,187.0 '/>
		<polygon fill = 'rgb( 31, 120, 180)' fill-opacity = '0.250000' points = '347.4,187.0 347.4,662.4 349.3,662.4 349.3,184.5 '/>
		<polygon fill = 'rgb( 31, 120, 180)' fill-opacity = '0.250000' points = '349.3,184.5 349.3,662.4 351.2,662.4 351.2,182.0 '/>
		<polygon fill = 'rgb( 31, 120, 180)' fill-opacity = '0.250000' points = '351.2,182.0 351.2,662.4 353.1,662.4 353.1,179.6 '/>
		<polygon fill = 'rgb( 31, 120, 180)' fill-opacity = '0.250000' points = '353.1,179.6 353.1,662.4 355.0,662.4 355.0,177.2 '/>
		<polygon fill = 'rgb( 31, 120, 180)' fill-opacity = '0.250000' points = '355.0,177.2 355.0,662.4 356.9,662.4 356.9,174.9 '/>
		<polygon fill = 'rgb( 31, 120, 180)' fill-opacity = '0.250000' points = '356.9,174.9 356.9,662.4 358.8,662.4 358.8,172.6 '/>
		<polygon fill = 'rgb( 31, 120, 180)' fill-opacity = '0.250000' points = '358.8,172.6 358.8,662.4 360.6,662.4 360.6,170.4 '/>
		<polygon fill = 'rgb( 31, 120, 180)' fill-opacity = '0.250000' points = '360.6,170.4 360.6,662.4 362.5,662.4 362.5,168.3 '/>
		<polygon fill = 'rgb( 31, 120, 180)' fill-opacity = '0.250000' points = '362.5,168.3 362.5,662.4 364.4,662.4 364.4,166.2 '/>
		<polygon fill = 'rgb( 31, 120, 180)' fill-opacity = '0.250000' points = '364.4,166.2 364.4,662.4 366.3,662.4 366.3,164.0 '/>
		<polygon fill = 'rgb( 31, 120, 180)' fill-opacity = '0.250000' points = '366.3,164.0 366.3,662.4 368.2,662.4 368.2,161.9 '/>
		<polygon fill = 'rgb( 31, 120, 180)' fill-opacity = '0.250000' points = '368.2,161.9 368.2,662.4 370.1,662.4 370.1,159.9 '/>
		<polygon fill = 'rgb( 31, 120, 180)' fill-opacity = '0.250000' points = '370.1,159.9 370.1,662.4 372.0,662.4 372.0,157.8 '/>
		<polygon fill = 'rgb( 31, 120, 180)' fill-opacity = '0.250000' points = '372.0,157.8 372.0,662.4 373.8,662.4 373.8,155.6 '/>
		<polygon fill = 'rgb( 31, 120, 180)' fill-opacity = '0.250000' points = '373.8,155.6 373.8,662.4 375.7,662.4 375.7,153.5 '/>
		<polygon fill = 'rgb( 31, 120, 180)' fill-opacity = '0.250000' points = '375.7,153.5 375.7,662.4 377.6,662.4 377.6,151.3 '/>
		<polygon fill = 'rgb( 31, 120, 180)' fill-opacity = '0.250000' points = '377.6,151.3 377.6,662.4 379.5,662.4 379.5,149.1 '/>
		<polygon fill = 'rgb( 31, 120, 180)' fill-opacity = '0.250000' points = '379.5,149.1 379.5,662.4 381.4,662.4 381.4,146.8 '/>
		<polygon fill = 'rgb( 31, 120, 180)' fill-opacity = '0.250000' points = '381.4,146.8 381.4,662.4 383.3,662.4 383.3,144.4 '/>
		<polygon fill = 'rgb( 31, 120, 180)' fill-opacity = '0.250000' points = '383.3,144.4 383.3,662.4 385.2,662.4 385.2,142.1 '/>
		<polygon fill = 'rgb( 31, 120, 180)' fill-opacity = '0.250000' points = '385.2,142.1 385.2,662.4 387.1,662.4 387.1,139.6 '/>
		<polygon fill = 'rgb( 31, 120, 180)' fill-opacity = '0.250000' points = '387.1,139.6 387.1,662.4 388.9,662.4 388.9,137.1 '/>
		<polygon fill = 'rgb( 31, 120, 180)' fill-opacity = '0.250000' points = '388.9,137.1 388.9,662.4 390.8,662.4 390.8,134.5 '/>
		<polygon fill = 'rgb( 31, 120, 180)' fill-opacity = '0.250000' points = '390.8,134.5 390.8,662.4 392.7,662.4 392.7,131.9 '/>
		<polygon fill = 'rgb( 31, 120, 180)' fill-opacity = '0.250000' points = '392.7,131.9 392.7,662.4 394.6,662.4 394.6,129.3 '/>
		<polygon fill = 'rgb( 31, 120, 180)' fill-opacity = '0.250000' points = '394.6,129.3 394.6,662.4 396.5,662.4 396.5,126.6 '/>
		<polygon fill = 'rgb( 31, 120, 180)' fill-opacity = '0.250000' points = '396.5,126.6 396.5,662.4 398.4,662.4 398.4,124.0 '/>
		<polygon fill = 'rgb( 31, 120, 180)' fill-opacity = '0.250000' points = '398.4,124.0 398.4,662.4 400.3,662.4 400.3,121.3 '/>
		<polygon fill = 'rgb( 31, 120, 180)' fill-opacity = '0.250000' points = '400.3,121.3 400.3,662.4 402.2,662.4 402.2,118.6 '/>
		<polygon fill = 'rgb( 31, 120, 180)' fill-opacity = '0.250000' points = '402.2,118.6 402.2,662.4 404.0,662.4 404.0,116.0 '/>
		<polygon fill = 'rgb( 31, 120, 180)' fill-opacity = '0.250000' points = '404.0,116.0 404.0,662.4 405.9,662.4 405.9,113.4 '/>
		<polygon fill = 'rgb( 31, 120, 180)' fill-opacity = '0.250000' points = '405.9,113.4 405.9,662.4 407.8,662.4 407.8,110.9 '/>
		<polygon fill = 'rgb( 31, 120, 180)' fill-opacity = '0.250000' points = '407.8,110.9 407.8,662.4 409.7,662.4 409.7,108.5 '/>
		<polygon fill = 'rgb( 31, 120, 180)' fill-opacity = '0.250000' points = '409.7,108.5 409.7,662.4 411.6,662.4 411.6,106.1 '/>
		<polygon fill = 'rgb( 31, 120, 180)' fill-opacity = '0.250000' points = '411.6,106.1 411.6,662.4 413.5,662.4 413.5,103.9 '/>
		<polygon fill = 'rgb( 31, 120, 180)' fill-opacity = '0.250000' points = '413.5,103.9 413.5,662.4 415.4,662.4 415.4,101.7 '/>
		<polygon fill = 'rgb( 31, 120, 180)' fill-opacity = '0.250000' points = '415.4,101.7 415.4,662.4 417.3,662.4 417.3,99.7 '/>
		<polygon fill = 'rgb( 31, 120, 180)' fill-opacity = '0.250000' points = '417.3,99.7 417.3,662.4 419.1,662.4 419.1,97.7 '/>
		<polygon fill = 'rgb( 31, 120, 180)' fill-opacity = '0.250000' points = '419.1,97.7 419.1,662.4 421.0,662.4 421.0,95.9 '/>
		<polygon fill = 'rgb( 31, 120, 180)' fill-opacity = '0.250000' points = '421.0,95.9 421.0,662.4 422.9,662.4 422.9,94.2 '/>
		<polygon fill = 'rgb( 31, 120, 180)' fill-opacity = '0.250000' points = '422.9,94.2 422.9,662.4 424.8,662.4 424.8,92.5 '/>
		<polygon fill = 'rgb( 31, 120, 180)' fill-opacity = '0.250000' points = '424.8,92.5 424.8,662.4 426.7,662.4 426.7,91.0 '/>
		<polygon fill = 'rgb( 31, 120, 180)' fill-opacity = '0.250000' points = '426.7,91.0 426.7,662.4 428.6,662.4 428.6,89.5 '/>
		<polygon fill = 'rgb( 31, 120, 180)' fill-opacity = '0.250000' points = '428.6,89.5 428.6,662.4 430.5,662.4 430.5,88.1 '/>
		<polygon fill = 'rgb( 31, 120, 180)' fill-opacity = '0.250000' points = '430.5,88.1 430.5,662.4 432.4,662.4 432.4,86.7 '/>
		<polygon fill = 'rgb( 31, 120, 180)' fill-opacity = '0.250000' points = '432.4,86.7 432.4,662.4 434.2,662.4 434.2,85.5 '/>
		<polygon fill = 'rgb( 31, 120, 180)' fill-opacity = '0.250000' points = '434.2,85.5 434.2,662.4 436.1,662.4 436.1,84.2 '/>
		<polygon fill = 'rgb( 31, 120, 180)' fill-opacity = '0.250000' points = '436.1,84.2 436.1,662.4 438.0,662.4 438.0,83.0 '/>
		<polygon fill = 'rgb( 31, 120, 180)' fill-opacity = '0.250000' points = '438.0,83.0 438.0,662.4 439.9,662.4 439.9,81.8 '/>
		<polygon fill = 'rgb( 31, 120, 180)' fill-opacity = '0.250000' points = '439.9,81.8 439.9,662.4 441.8,662.4 441.8,80.7 '/>
		<polygon fill = 'rgb( 31, 120, 180)' fill-opacity = '0.250000' points = '441.8,80.7 441.8,662.4 443.7,662.4 443.7,79.6 '/>
		<polygon fill = 'rgb( 31, 120, 180)' fill-opacity = '0.250000' points = '443.7,79.6 443.7,662.4 445.6,662.4 445.6,78.6 '/>
		<polygon fill = 'rgb( 31, 120, 180)' fill-opacity = '0.250000' points = '445.6,78.6 445.6,662.4 447.4,662.4 447.4,77.5 '/>
		<polygon fill = 'rgb( 31, 120, 180)' fill-opacity = '0.250000' points = '447.4,77.5 447.4,662.4 449.3,662.4 449.3,76.6 '/>
		<polygon fill = 'rgb( 31, 120, 180)' fill-opacity = '0.250000' points = '449.3,76.6 449.3,662.4 451.2,662.4 451.2,75.7 '/>
		<polygon fill = 'rgb( 31, 120, 180)' fill-opacity = '0.250000' points = '451.2,75.7 451.2,662.4 453.1,662.4 453.1,74.8 '/>
		<polygon fill = 'rgb( 31, 120, 180)' fill-opacity = '0.250000' points = '453.1,74.8 453.1,662.4 455.0,662.4 455.0,74.1 '/>
		<polygon fill = 'rgb( 31, 120, 180)' fill-opacity = '0.250000' points = '455.0,74.1 455.0,662.4 456.9,662.4 456.9,73.4 '/>
		<polygon fill = 'rgb( 31, 120, 180)' fill-opacity = '0.250000' points = '456.9,73.4 456.9,662.4 458.8,662.4 458.8,72.8 '/>
		<polygon fill = 'rgb( 31, 120, 180)' fill-opacity = '0.250000' points = '458.8,72.8 458.8,662.4 460.7,662.4 460.7,72.4 '/>
		<polygon fill = 'rgb( 31, 120, 180)' fill-opacity = '0.250000' points = '460.7,72.4 460.7,662.4 462.5,662.4 462.5,72.0 '/>
		<polygon fill = 'rgb( 31, 120, 180)' fill-opacity = '0.250000' points = '462.5,72.0 462.5,662.4 464.4,662.4 464.4,71.8 '/>
		<polygon fill = 'rgb( 31, 120, 180)' fill-opacity = '0.250000' points = '464.4,71.8 464.4,662.4 466.3,662.4 466.3,71.7 '/>
		<polygon fill = 'rgb( 31, 120, 180)' fill-opacity = '0.250000' points = '466.3,71.7 466.3,662.4 468.2,662.4 468.2,71.7 '/>
		<polygon fill = 'rgb( 31, 120, 180)' fill-opacity = '0.250000' points = '468.2,71.7 468.2,662.4 470.1,662.4 470.1,71.8 '/>
		<polygon fill = 'rgb( 31, 120, 180)' fill-opacity = '0.250000' points = '470.1,71.8 470.1,662.4 472.0,662.4 472.0,72.1 '/>
		<polygon fill = 'rgb( 31, 120, 180)' fill-opacity = '0.250000' points = '472.0,72.1 472.0,662.4 473.9,662.4 473.9,72.5 '/>
		<polygon fill = 'rgb( 31, 120, 180)' fill-opacity = '0.250000' points = '473.9,72.5 473.9,662.4 475.8,662.4 475.8,72.9 '/>
		<polygon fill = 'rgb( 31, 120, 180)' fill-opacity = '0.250000' points = '475.8,72.9 475.8,662.4 477.6,662.4 477.6,73.5 '/>
		<polygon fill = 'rgb( 31, 120, 180)' fill-opacity = '0.250000' points = '477.6,73.5 477.6,662.4 479.5,662.4 479.5,74.2 '/>
		<polygon fill = 'rgb( 31, 120, 180)' fill-opacity = '0.250000' points = '479.5,74.2 479.5,662.4 481.4,662.4 481.4,75.0 '/>
		<polygon fill = 'rgb( 31, 120, 180)' fill-opacity = '0.250000' points = '481.4,75.0 481.4,662.4 483.3,662.4 483.3,75.9 '/>
		<polygon fill = 'rgb( 31, 120, 180)' fill-opacity = '0.250000' points = '483.3,75.9 483.3,662.4 485.2,662.4 485.2,76.8 '/>
		<polygon fill = 'rgb( 31, 120, 180)' fill-opacity = '0.250000' points = '485.2,76.8 485.2,662.4 487.1,662.4 487.1,77.8 '/>
		<polygon fill = 'rgb( 31, 120, 180)' fill-opacity = '0.250000' points = '487.1,77.8 487.1,662.4 489.0,662.4 489.0,78.8 '/>
		<polygon fill = 'rgb( 31, 120, 180)' fill-opacity = '0.250000' points = '489.0,78.8 489.0,662.4 490.9,662.4 490.9,79.9 '/>
		<polygon fill = 'rgb( 31, 120, 180)' fill-opacity = '0.250000' points = '490.9,79.9 490.9,662.4 492.7,662.4 492.7,81.0 '/>
		<polygon fill = 'rgb( 31, 120, 180)' fill-opacity = '0.250000' points = '492.7,81.0 492.7,662.4 494.6,662.4 494.6,82.2 '/>
		<polygon fill = 'rgb( 31, 120, 180)' fill-opacity = '0.250000' points = '494.6,82.2 494.6,662.4 496.5,662.4 496.5,83.4 '/>
		<polygon fill = 'rgb( 31, 120, 180)' fill-opacity = '0.250000' points = '496.5,83.4 496.5,662.4 498.4,662.4 498.4,84.6 '/>
		<polygon fill = 'rgb( 31, 120, 180)' fill-opacity = '0.250000' points = '498.4,84.6 498.4,662.4 500.3,662.4 500.3,85.8 '/>
		<polygon fill = 'rgb( 31, 120, 180)' fill-opacity = '0.250000' points = '500.3,85.8 500.3,662.4 502.2,662.4 502.2,87.0 '/>
		<polygon fill = 'rgb( 31, 120, 180)' fill-opacity = '0.250000' points = '502.2,87.0 502.2,662.4 504.1,662.4 504.1,88.3 '/>
		<polygon fill = 'rgb( 31, 120, 180)' fill-opacity = '0.250000' points = '504.1,88.3 504.1,662.4 506.0,662.4 506.0,89.6 '/>
		<polygon fill = 'rgb( 31, 120, 180)' fill-opacity = '0.250000' points = '506.0,89.6 506.0,662.4 507.8,662.4 507.8,90.8 '/>
		<polygon fill = 'rgb( 31, 120, 180)' fill-opacity = '0.250000' points = '507.8,90.8 507.8,662.4 509.7,662.4 509.7,92.1 '/>
		<polygon fill = 'rgb( 31, 120, 180)' fill-opacity = '0.250000' points = '509.7,92.1 509.7,662.4 511.6,662.4 511.6,93.4 '/>
		<polygon fill = 'rgb( 31, 120, 180)' fill-opacity = '0.250000' points = '511.6,93.4 511.6,662.4 513.5,662.4 513.5,94.6 '/>
		<polygon fill = 'rgb( 31, 120, 180)' fill-opacity = '0.250000' points = '513.5,94.6 513.5,662.4 515.4,662.4 515.4,95.9 '/>
		<polygon fill = 'rgb( 31, 120, 180)' fill-opacity = '0.250000' points = '515.4,95.9 515.4,662.4 517.3,662.4 517.3,97.2 '/>
		<polygon fill = 'rgb( 31, 120, 180)' fill-opacity = '0.250000' points = '517.3,97.2 517.3,662.4 519.2,662.4 519.2,98.5 '/>
		<polygon fill = 'rgb( 31, 120, 180)' fill-opacity = '0.250000' points = '519.2,98.5 519.2,662.4 521.0,662.4 521.0,99.8 '/>
		<polygon fill = 'rgb( 31, 120, 180)' fill-opacity = '0.250000' points = '521.0,99.8 521.0,662.4 522.9,662.4 522.9,101.0 '/>
		<polygon fill = 'rgb( 31, 120, 180)' fill-opacity = '0.250000' points = '522.9,101.0 522.9,662.4 524.8,662.4 524.8,102.3 '/>
		<polygon fill = 'rgb( 31, 120, 180)' fill-opacity = '0.250000' points = '524.8,102.3 524.8,662.4 526.7,662.4 526.7,103.6 '/>
		<polygon fill = 'rgb( 31, 120, 180)' fill-opacity = '0.250000' points = '526.7,103.6 526.7,662.4 528.6,662.4 528.6,105.0 '/>
		<polygon fill = 'rgb( 31, 120, 180)' fill-opacity = '0.250000' points = '528.6,105.0 528.6,662.4 530.5,662.4 530.5,106.3 '/>
		<polygon fill = 'rgb( 31, 120, 180)' fill-opacity = '0.250000' points = '530.5,106.3 530.5,662.4 532.4,662.4 532.4,107.7 '/>
		<polygon fill = 'rgb( 31, 120, 180)' fill-opacity = '0.250000' points = '532.4,107.7 532.4,662.4 534.3,662.4 534.3,109.1 '/>
		<polygon fill = 'rgb( 31, 120, 180)' fill-opacity = '0.250000' points = '534.3,109.1 534.3,662.4 536.1,662.4 536.1,110.5 '/>
		<polygon fill = 'rgb( 31, 120, 180)' fill-opacity = '0.250000' points = '536.1,110.5 536.1,662.4 538.0,662.4 538.0,111.9 '/>
		<polygon fill = 'rgb( 31, 120, 180)' fill-opacity = '0.250000' points = '538.0,111.9 538.0,662.4 539.9,662.4 539.9,113.4 '/>
		<polygon fill = 'rgb( 31, 120, 180)' fill-opacity = '0.250000' points = '539.9,113.4 539.9,662.4 541.8,662.4 541.8,114.9 '/>
		<polygon fill = 'rgb( 31, 120, 180)' fill-opacity = '0.250000' points = '541.8,114.9 541.8,662.4 543.7,662.4 543.7,116.5 '/>
		<polygon fill = 'rgb( 31, 120, 180)' fill-opacity = '0.250000' points = '543.7,116.5 543.7,662.4 545.6,662.4 545.6,118.1 '/>
		<polygon fill = 'rgb( 31, 120, 180)' fill-opacity = '0.250000' points = '545.6,118.1 545.6,662.4 547.5,662.4 547.5,119.8 '/>
		<polygon fill = 'rgb( 31, 120, 180)' fill-opacity = '0.250000' points = '547.5,119.8 547.5,662.4 549.4,662.4 549.4,121.5 '/>
		<polygon fill = 'rgb( 31, 120, 180)' fill-opacity = '0.250000' points = '549.4,121.5 549.4,662.4 551.2,662.4 551.2,123.3 '/>
		<polygon fill = 'rgb( 31, 120, 180)' fill-opacity = '0.250000' points = '551.2,123.3 551.2,662.4 553.1,662.4 553.1,125.1 '/>
		<polygon fill = 'rgb( 31, 120, 180)' fill-opacity = '0.250000' points = '553.1,125.1 553.1,662.4 555.0,662.4 555.0,126.9 '/>
		<polygon fill = 'rgb( 31, 120, 180)' fill-opacity = '0.250000' points = '555.0,126.9 555.0,662.4 556.9,662.4 556.9,128.8 '/>
		<polygon fill = 'rgb( 31, 120, 180)' fill-opacity = '0.250000' points = '556.9,128.8 556.9,662.4 558.8,662.4 558.8,130.8 '/>
		<polygon fill = 'rgb( 31, 120, 180)' fill-opacity = '0.250000' points = '558.8,130.8 558.8,662.4 560.7,662.4 560.7,132.7 '/>
		<polygon fill = 'rgb( 31, 120, 180)' fill-opacity = '0.250000' points = '560.7,132.7 560.7,662.4 562.6,662.4 562.6,134.7 '/>
		<polygon fill = 'rgb( 31, 120, 180)' fill-opacity = '0.250000' points = '562.6,134.7 562.6,662.4 564.5,662.4 564.5,136.8 '/>
		<polygon fill = 'rgb( 31, 120, 180)' fill-opacity = '0.250000' points = '564.5,136.8 564.5,662.4 566.3,662.4 566.3,138.8 '/>
		<polygon fill = 'rgb( 31, 120, 180)' fill-opacity = '0.250000' points = '566.3,138.8 566.3,662.4 568.2,662.4 568.2,140.9 '/>
		<polygon fill = 'rgb( 31, 120, 180)' fill-opacity = '0.250000' points = '568.2,140.9 568.2,662.4 570.1,662.4 570.1,143.1 '/>
		<polygon fill = 'rgb( 31, 120, 180)' fill-opacity = '0.250000' points = '570.1,143.1 570.1,662.4 572.0,662.4 572.0,145.2 '/>
		<polygon fill = 'rgb( 31, 120, 180)' fill-opacity = '0.250000' points = '572.0,145.2 572.0,662.4 573.9,662.4 573.9,147.4 '/>
		<polygon fill = 'rgb( 31, 120, 180)' fill-opacity = '0.250000' points = '573.9,147.4 573.9,662.4 575.8,662.4 575.8,149.7 '/>
		<polygon fill = 'rgb( 31, 120, 180)' fill-opacity = '0.250000' points = '575.8,149.7 575.8,662.4 577.7,662.4 577.7,151.9 '/>
		<polygon fill = 'rgb( 31, 120, 180)' fill-opacity = '0.250000' points = '577.7,151.9 577.7,662.4 579.5,662.4 579.5,154.3 '/>
		<polygon fill = 'rgb( 31, 120, 180)' fill-opacity = '0.250000' points = '579.5,154.3 579.5,662.4 581.4,662.4 581.4,156.6 '/>
		<polygon fill = 'rgb( 31, 120, 180)' fill-opacity = '0.250000' points = '581.4,156.6 581.4,662.4 583.3,662.4 583.3,159.0 '/>
		<polygon fill = 'rgb( 31, 120, 180)' fill-opacity = '0.250000' points = '583.3,159.0 583.3,662.4 585.2,662.4 585.2,161.5 '/>
		<polygon fill = 'rgb( 31, 120, 180)' fill-opacity = '0.250000' points = '585.2,161.5 585.2,662.4 587.1,662.4 587.1,164.0 '/>
		<polygon fill = 'rgb( 31, 120, 180)' fill-opacity = '0.250000' points = '587.1,164.0 587.1,662.4 589.0,662.4 589.0,166.6 '/>
		<polygon fill = 'rgb( 31, 120, 180)' fill-opacity = '0.250000' points = '589.0,166.6 589.0,662.4 590.9,662.4 590.9,169.2 '/>
		<polygon fill = 'rgb( 31, 120, 180)' fill-opacity = '0.250000' points = '590.9,169.2 590.9,662.4 592.8,662.4 592.8,171.8 '/>
		<polygon fill = 'rgb( 31, 120, 180)' fill-opacity = '0.250000' points = '592.8,171.8 592.8,662.4 594.6,662.4 594.6,174.5 '/>
		<polygon fill = 'rgb( 31, 120, 180)' fill-opacity = '0.250000' points = '594.6,174.5 594.6,662.4 596.5,662.4 596.5,177.2 '/>
		<polygon fill = 'rgb( 31, 120, 180)' fill-opacity = '0.250000' points = '596.5,177.2 596.5,662.4 598.4,662.4 598.4,180.0 '/>
		<polygon fill = 'rgb( 31, 120, 180)' fill-opacity = '0.250000' points = '598.4,180.0 598.4,662.4 600.3,662.4 600.3,182.8 '/>
		<polygon fill = 'rgb( 31, 120, 180)' fill-opacity = '0.250000' points = '600.3,182.8 600.3,662.4 602.2,662.4 602.2,185.7 '/>
		<polygon fill = 'rgb( 31, 120, 180)' fill-opacity = '0.250000' points = '602.2,185.7 602.2,662.4 604.1,662.4 604.1,188.5 '/>
		<polygon fill = 'rgb( 31, 120, 180)' fill-opacity = '0.250000' points = '604.1,188.5 604.1,662.4 606.0,662.4 606.0,191.4 '/>
		<polygon fill = 'rgb( 31, 120, 180)' fill-opacity = '0.250000' points = '606.0,191.4 606.0,662.4 607.9,662.4 607.9,194.3 '/>
		<polygon fill = 'rgb( 31, 120, 180)' fill-opacity = '0.250000' points = '607.9,194.3 607.9,662.4 609.7,662.4 609.7,197.1 '/>
		<polygon fill = 'rgb( 31, 120, 180)' fill-opacity = '0.250000' points = '609.7,197.1 609.7,662.4 611.6,662.4 611.6,200.0 '/>
		<polygon fill = 'rgb( 31, 120, 180)' fill-opacity = '0.250000' points = '611.6,200.0 611.6,662.4 613.5,662.4 613.5,202.9 '/>
		<polygon fill = 'rgb( 31, 120, 180)' fill-opacity = '0.250000' points = '613.5,202.9 613.5,662.4 615.4,662.4 615.4,205.7 '/>
		<polygon fill = 'rgb( 31, 120, 180)' fill-opacity = '0.250000' points = '615.4,205.7 615.4,662.4 617.3,662.4 617.3,208.6 '/>
		<polygon fill = 'rgb( 31, 120, 180)' fill-opacity = '0.250000' points = '617.3,208.6 617.3,662.4 619.2,662.4 619.2,211.4 '/>
		<polygon fill = 'rgb( 31, 120, 180)' fill-opacity = '0.250000' points = '619.2,211.4 619.2,662.4 621.1,662.4 621.1,214.2 '/>
		<polygon fill = 'rgb( 31, 120, 180)' fill-opacity = '0.250000' points = '621.1,214.2 621.1,662.4 623.0,662.4 623.0,216.9 '/>
		<polygon fill = 'rgb( 31, 120, 180)' fill-opacity = '0.250000' points = '623.0,216.9 623.0,662.4 624.8,662.4 624.8,219.7 '/>
		<polygon fill = 'rgb( 31, 120, 180)' fill-opacity = '0.250000' points = '624.8,219.7 624.8,662.4 626.7,662.4 626.7,222.4 '/>
		<polygon fill = 'rgb( 31, 120, 180)' fill-opacity = '0.250000' points = '626.7,222.4 626.7,662.4 628.6,662.4 628.6,225.2 '/>
		<polygon fill = 'rgb( 31, 120, 180)' fill-opacity = '0.250000' points = '628.6,225.2 628.6,662.4 630.5,662.4 630.5,227.9 '/>
		<polygon fill = 'rgb( 31, 120, 180)' fill-opacity = '0.250000' points = '630.5,227.9 630.5,662.4 632.4,662.4 632.4,230.6 '/>
		<polygon fill = 'rgb( 31, 120, 180)' fill-opacity = '0.250000' points = '632.4,230.6 632.4,662.4 634.3,662.4 634.3,233.3 '/>
		<polygon fill = 'rgb( 31, 120, 180)' fill-opacity = '0.250000' points = '634.3,233.3 634.3,662.4 636.2,662.4 636.2,236.0 '/>
		<polygon fill = 'rgb( 31, 120, 180)' fill-opacity = '0.250000' points = '636.2,236.0 636.2,662.4 638.1,662.4 638.1,238.8 '/>
		<polygon fill = 'rgb( 31, 120, 180)' fill-opacity = '0.250000' points = '638.1,238.8 638.1,662.4 639.9,662.4 639.9,241.5 '/>
		<polygon fill = 'rgb( 31, 120, 180)' fill-opacity = '0.250000' points = '639.9,241.5 639.9,662.4 641.8,662.4 641.8,244.3 '/>
		<polygon fill = 'rgb( 31, 120, 180)' fill-opacity = '0.250000' points = '641.8,244.3 641.8,662.4 643.7,662.4 643.7,247.1 '/>
		<polygon fill = 'rgb( 31, 120, 180)' fill-opacity = '0.250000' points = '643.7,247.1 643.7,662.4 645.6,662.4 645.6,250.0 '/>
		<polygon fill = 'rgb( 31, 120, 180)' fill-opacity = '0.250000' points = '645.6,250.0 645.6,662.4 647.5,662.4 647.5,252.8 '/>
		<polygon fill = 'rgb( 31, 120, 180)' fill-opacity = '0.250000' points = '647.5,252.8 647.5,662.4 649.4,662.4 649.4,255.8 '/>
		<polygon fill = 'rgb( 31, 120, 180)' fill-opacity = '0.250000' points = '649.4,255.8 649.4,662.4 651.3,662.4 651.3,258.7 '/>
		<polygon fill = 'rgb( 31, 120, 180)' fill-opacity = '0.250000' points = '651.3,258.7 651.3,662.4 653.1,662.4 653.1,261.7 '/>
		<polygon fill = 'rgb( 31, 120, 180)' fill-opacity = '0.250000' points = '653.1,261.7 653.1,662.4 655.0,662.4 655.0,264.7 '/>
		<polygon fill = 'rgb( 31, 120, 180)' fill-opacity = '0.250000' points = '655.0,264.7 655.0,662.4 656.9,662.4 656.9,267.7 '/>
		<polygon fill = 'rgb( 31, 120, 180)' fill-opacity = '0.250000' points = '656.9,267.7 656.9,662.4 658.8,662.4 658.8,270.8 '/>
		<polygon fill = 'rgb( 31, 120, 180)' fill-opacity = '0.250000' points = '658.8,270.8 658.8,662.4 660.7,662.4 660.7,273.9 '/>
		<polygon fill = 'rgb( 31, 120, 180)' fill-opacity = '0.250000' points = '660.7,273.9 660.7,662.4 662.6,662.4 662.6,277.0 '/>
		<polygon fill = 'rgb( 31, 120, 180)' fill-opacity = '0.250000' points = '662.6,277.0 662.6,662.4 664.5,662.4 664.5,280.2 '/>
		<polygon fill = 'rgb( 31, 120, 180)' fill-opacity = '0.250000' points = '664.5,280.2 664.5,662.4 666.4,662.4 666.4,283.4 '/>
		<polygon fill = 'rgb( 31, 120, 180)' fill-opacity = '0.250000' points = '666.4,283.4 666.4,662.4 668.2,662.4 668.2,286.5 '/>
		<polygon fill = 'rgb( 31, 120, 180)' fill-opacity = '0.250000' points = '668.2,286.5 668.2,662.4 670.1,662.4 670.1,289.7 '/>
		<polygon fill = 'rgb( 31, 120, 180)' fill-opacity = '0.250000' points = '670.1,289.7 670.1,662.4 672.0,662.4 672.0,292.9 '/>
		<polygon fill = 'rgb( 31, 120, 180)' fill-opacity = '0.250000' points = '672.0,292.9 672.0,662.4 673.9,662.4 673.9,296.1 '/>
		<polygon fill = 'rgb( 31, 120, 180)' fill-opacity = '0.250000' points = '673.9,296.1 673.9,662.4 675.8,662.4 675.8,299.3 '/>
		<polygon fill = 'rgb( 31, 120, 180)' fill-opacity = '0.250000' points = '675.8,299.3 675.8,662.4 677.7,662.4 677.7,302.5 '/>
		<polygon fill = 'rgb( 31, 120, 180)' fill-opacity = '0.250000' points = '677.7,302.5 677.7,662.4 679.6,662.4 679.6,305.6 '/>
		<polygon fill = 'rgb( 31, 120, 180)' fill-opacity = '0.250000' points = '679.6,305.6 679.6,662.4 681.5,662.4 681.5,308.8 '/>
		<polygon fill = 'rgb( 31, 120, 180)' fill-opacity = '0.250000' points = '681.5,308.8 681.5,662.4 683.3,662.4 683.3,311.9 '/>
		<polygon fill = 'rgb( 31, 120, 180)' fill-opacity = '0.250000' points = '683.3,311.9 683.3,662.4 685.2,662.4 685.2,315.0 '/>
		<polygon fill = 'rgb( 31, 120, 180)' fill-opacity = '0.250000' points = '685.2,315.0 685.2,662.4 687.1,662.4 687.1,318.1 '/>
		<polygon fill = 'rgb( 31, 120, 180)' fill-opacity = '0.250000' points = '687.1,318.1 687.1,662.4 689.0,662.4 689.0,321.1 '/>
		<polygon fill = 'rgb( 31, 120, 180)' fill-opacity = '0.250000' points = '689.0,321.1 689.0,662.4 690.9,662.4 690.9,324.1 '/>
		<polygon fill = 'rgb( 31, 120, 180)' fill-opacity = '0.250000' points = '690.9,324.1 690.9,662.4 692.8,662.4 692.8,327.1 '/>
		<polygon fill = 'rgb( 31, 120, 180)' fill-opacity = '0.250000' points = '692.8,327.1 692.8,662.4 694.7,662.4 694.7,330.0 '/>
		<polygon fill = 'rgb( 31, 120, 180)' fill-opacity = '0.250000' points = '694.7,330.0 694.7,662.4 696.6,662.4 696.6,332.9 '/>
		<polygon fill = 'rgb( 31, 120, 180)' fill-opacity = '0.250000' points = '696.6,332.9 696.6,662.4 698.4,662.4 698.4,335.8 '/>
		<polygon fill = 'rgb( 31, 120, 180)' fill-opacity = '0.250000' points = '698.4,335.8 698.4,662.4 700.3,662.4 700.3,338.7 '/>
		<polygon fill = 'rgb( 31, 120, 180)' fill-opacity = '0.250000' points = '700.3,338.7 700.3,662.4 702.2,662.4 702.2,341.5 '/>
		<polygon fill = 'rgb( 31, 120, 180)' fill-opacity = '0.250000' points = '702.2,341.5 702.2,662.4 704.1,662.4 704.1,344.3 '/>
		<polygon fill = 'rgb( 31, 120, 180)' fill-opacity = '0.250000' points = '704.1,344.3 704.1,662.4 706.0,662.4 706.0,347.0 '/>
		<polygon fill = 'rgb( 31, 120, 180)' fill-opacity = '0.250000' points = '706.0,347.0 706.0,662.4 707.9,662.4 707.9,349.8 '/>
		<polygon fill = 'rgb( 31, 120, 180)' fill-opacity = '0.250000' points = '707.9,349.8 707.9,662.4 709.8,662.4 709.8,352.5 '/>
		<polygon fill = 'rgb( 31, 120, 180)' fill-opacity = '0.250000' points = '709.8,352.5 709.8,662.4 711.7,662.4 711.7,355.2 '/>
		<polygon fill = 'rgb( 31, 120, 180)' fill-opacity = '0.250000' points = '711.7,355.2 711.7,662.4 713.5,662.4 713.5,357.9 '/>
		<polygon fill = 'rgb( 31, 120, 180)' fill-opacity = '0.250000' points = '713.5,357.9 713.5,662.4 715.4,662.4 715.4,360.5 '/>
		<polygon fill = 'rgb( 31, 120, 180)' fill-opacity = '0.250000' points = '715.4,360.5 715.4,662.4 717.3,662.4 717.3,363.2 '/>
		<polygon fill = 'rgb( 31, 120, 180)' fill-opacity = '0.250000' points = '717.3,363.2 717.3,662.4 719.2,662.4 719.2,365.8 '/>
		<polygon fill = 'rgb( 31, 120, 180)' fill-opacity = '0.250000' points = '719.2,365.8 719.2,662.4 721.1,662.4 721.1,368.5 '/>
		<polygon fill = 'rgb( 31, 120, 180)' fill-opacity = '0.250000' points = '721.1,368.5 721.1,662.4 723.0,662.4 723.0,371.1 '/>
		<polygon fill = 'rgb( 31, 120, 180)' fill-opacity = '0.250000' points = '723.0,371.1 723.0,662.4 724.9,662.4 724.9,373.7 '/>
		<polygon fill = 'rgb( 31, 120, 180)' fill-opacity = '0.250000' points = '724.9,373.7 724.9,662.4 726.7,662.4 726.7,376.4 '/>
		<polygon fill = 'rgb( 31, 120, 180)' fill-opacity = '0.250000' points = '726.7,376.4 726.7,662.4 728.6,662.4 728.6,379.0 '/>
		<polygon fill = 'rgb( 31, 120, 180)' fill-opacity = '0.250000' points = '728.6,379.0 728.6,662.4 730.5,662.4 730.5,381.6 '/>
		<polygon fill = 'rgb( 31, 120, 180)' fill-opacity = '0.250000' points = '730.5,381.6 730.5,662.4 732.4,662.4 732.4,384.2 '/>
		<polygon fill = 'rgb( 31, 120, 180)' fill-opacity = '0.250000' points = '732.4,384.2 732.4,662.4 734.3,662.4 734.3,386.8 '/>
		<polygon fill = 'rgb( 31, 120, 180)' fill-opacity = '0.250000' points = '734.3,386.8 734.3,662.4 736.2,662.4 736.2,389.4 '/>
		<polygon fill = 'rgb( 31, 120, 180)' fill-opacity = '0.250000' points = '736.2,389.4 736.2,662.4 738.1,662.4 738.1,392.0 '/>
		<polygon fill = 'rgb( 31, 120, 180)' fill-opacity = '0.250000' points = '738.1,392.0 738.1,662.4 740.0,662.4 740.0,394.7 '/>
		<polygon fill = 'rgb( 31, 120, 180)' fill-opacity = '0.250000' points = '740.0,394.7 740.0,662.4 741.8,662.4 741.8,397.3 '/>
		<polygon fill = 'rgb( 31, 120, 180)' fill-opacity = '0.250000' points = '741.8,397.3 741.8,662.4 743.7,662.4 743.7,399.9 '/>
		<polygon fill = 'rgb( 31, 120, 180)' fill-opacity = '0.250000' points = '743.7,399.9 743.7,662.4 745.6,662.4 745.6,402.5 '/>
		<polygon fill = 'rgb( 31, 120, 180)' fill-opacity = '0.250000' points = '745.6,402.5 745.6,662.4 747.5,662.4 747.5,405.1 '/>
		<polygon fill = 'rgb( 31, 120, 180)' fill-opacity = '0.250000' points = '747.5,405.1 747.5,662.4 749.4,662.4 749.4,407.7 '/>
		<polygon fill = 'rgb( 31, 120, 180)' fill-opacity = '0.250000' points = '749.4,407.7 749.4,662.4 751.3,662.4 751.3,410.3 '/>
		<polygon fill = 'rgb( 31, 120, 180)' fill-opacity = '0.250000' points = '751.3,410.3 751.3,662.4 753.2,662.4 753.2,412.9 '/>
		<polygon fill = 'rgb( 31, 120, 180)' fill-opacity = '0.250000' points = '753.2,412.9 753.2,662.4 755.1,662.4 755.1,415.5 '/>
		<polygon fill = 'rgb( 31, 120, 180)' fill-opacity = '0.250000' points = '755.1,415.5 755.1,662.4 756.9,662.4 756.9,418.1 '/>
		<polygon fill = 'rgb( 31, 120, 180)' fill-opacity = '0.250000' points = '756.9,418.1 756.9,662.4 758.8,662.4 758.8,420.7 '/>
		<polygon fill = 'rgb( 31, 120, 180)' fill-opacity = '0.250000' points = '758.8,420.7 758.8,662.4 760.7,662.4 760.7,423.3 '/>
		<polygon fill = 'rgb( 31, 120, 180)' fill-opacity = '0.250000' points = '760.7,423.3 760.7,662.4 762.6,662.4 762.6,425.9 '/>
		<polygon fill = 'rgb( 31, 120, 180)' fill-opacity = '0.250000' points = '762.6,425.9 762.6,662.4 764.5,662.4 764.5,428.5 '/>
		<polygon fill = 'rgb( 31, 120, 180)' fill-opacity = '0.250000' points = '764.5,428.5 764.5,662.4 766.4,662.4 766.4,431.1 '/>
		<polygon fill = 'rgb( 31, 120, 180)' fill-opacity = '0.250000' points = '766.4,431.1 766.4,662.4 768.3,662.4 768.3,433.7 '/>
		<polygon fill = 'rgb( 31, 120, 180)' fill-opacity = '0.250000' points = '768.3,433.7 768.3,662.4 770.2,662.4 770.2,436.3 '/>
		<polygon fill = 'rgb( 31, 120, 180)' fill-opacity = '0.250000' points = '770.2,436.3 770.2,662.4 772.0,662.4 772.0,439.0 '/>
		<polygon fill = 'rgb( 31, 120, 180)' fill-opacity = '0.250000' points = '772.0,439.0 772.0,662.4 773.9,662.4 773.9,441.5 '/>
		<polygon fill = 'rgb( 31, 120, 180)' fill-opacity = '0.250000' points = '773.9,441.5 773.9,662.4 775.8,662.4 775.8,444.1 '/>
		<polygon fill = 'rgb( 31, 120, 180)' fill-opacity = '0.250000' points = '775.8,444.1 775.8,662.4 777.7,662.4 777.7,446.7 '/>
		<polygon fill = 'rgb( 31, 120, 180)' fill-opacity = '0.250000' points = '777.7,446.7 777.7,662.4 779.6,662.4 779.6,449.3 '/>
		<polygon fill = 'rgb( 31, 120, 180)' fill-opacity = '0.250000' points = '779.6,449.3 779.6,662.4 781.5,662.4 781.5,451.9 '/>
		<polygon fill = 'rgb( 31, 120, 180)' fill-opacity = '0.250000' points = '781.5,451.9 781.5,662.4 783.4,662.4 783.4,454.4 '/>
		<polygon fill = 'rgb( 31, 120, 180)' fill-opacity = '0.250000' points = '783.4,454.4 783.4,662.4 785.3,662.4 785.3,456.9 '/>
		<polygon fill = 'rgb( 31, 120, 180)' fill-opacity = '0.250000' points = '785.3,456.9 785.3,662.4 787.1,662.4 787.1,459.5 '/>
		<polygon fill = 'rgb( 31, 120, 180)' fill-opacity = '0.250000' points = '787.1,459.5 787.1,662.4 789.0,662.4 789.0,462.0 '/>
		<polygon fill = 'rgb( 31, 120, 180)' fill-opacity = '0.250000' points = '789.0,462.0 789.0,662.4 790.9,662.4 790.9,464.5 '/>
		<polygon fill = 'rgb( 31, 120, 180)' fill-opacity = '0.250000' points = '790.9,464.5 790.9,662.4 792.8,662.4 792.8,467.0 '/>
		<polygon fill = 'rgb( 31, 120, 180)' fill-opacity = '0.250000' points = '792.8,467.0 792.8,662.4 794.7,662.4 794.7,469.4 '/>
		<polygon fill = 'rgb( 31, 120, 180)' fill-opacity = '0.250000' points = '794.7,469.4 794.7,662.4 796.6,662.4 796.6,471.9 '/>
		<polygon fill = 'rgb( 31, 120, 180)' fill-opacity = '0.250000' points = '796.6,471.9 796.6,662.4 798.5,662.4 798.5,474.3 '/>
		<polygon fill = 'rgb( 31, 120, 180)' fill-opacity = '0.250000' points = '798.5,474.3 798.5,662.4 800.3,662.4 800.3,476.7 '/>
		<polygon fill = 'rgb( 31, 120, 180)' fill-opacity = '0.250000' points = '800.3,476.7 800.3,662.4 802.2,662.4 802.2,479.1 '/>
		<polygon fill = 'rgb( 31, 120, 180)' fill-opacity = '0.250000' points = '802.2,479.1 802.2,662.4 804.1,662.4 804.1,481.5 '/>
		<polygon fill = 'rgb( 31, 120, 180)' fill-opacity = '0.250000' points = '804.1,481.5 804.1,662.4 806.0,662.4 806.0,483.8 '/>
		<polygon fill = 'rgb( 31, 120, 180)' fill-opacity = '0.250000' points = '806.0,483.8 806.0,662.4 807.9,662.4 807.9,486.2 '/>
		<polygon fill = 'rgb( 31, 120, 180)' fill-opacity = '0.250000' points = '807.9,486.2 807.9,662.4 809.8,662.4 809.8,488.5 '/>
		<polygon fill = 'rgb( 31, 120, 180)' fill-opacity = '0.250000' points = '809.8,488.5 809.8,662.4 811.7,662.4 811.7,490.8 '/>
		<polygon fill = 'rgb( 31, 120, 180)' fill-opacity = '0.250000' points = '811.7,490.8 811.7,662.4 813.6,662.4 813.6,493.1 '/>
		<polygon fill = 'rgb( 31, 120, 180)' fill-opacity = '0.250000' points = '813.6,493.1 813.6,662.4 815.4,662.4 815.4,495.4 '/>
		<polygon fill = 'rgb( 31, 120, 180)' fill-opacity = '0.250000' points = '815.4,495.4 815.4,662.4 817.3,662.4 817.3,497.6 '/>
		<polygon fill = 'rgb( 31, 120, 180)' fill-opacity = '0.250000' points = '817.3,497.6 817.3,662.4 819.2,662.4 819.2,499.8 '/>
		<polygon fill = 'rgb( 31, 120, 180)' fill-opacity = '0.250000' points = '819.2,499.8 819.2,662.4 821.1,662.4 821.1,502.0 '/>
		<polygon fill = 'rgb( 31, 120, 180)' fill-opacity = '0.250000' points = '821.1,502.0 821.1,662.4 823.0,662.4 823.0,504.2 '/>
		<polygon fill = 'rgb( 31, 120, 180)' fill-opacity = '0.250000' points = '823.0,504.2 823.0,662.4 824.9,662.4 824.9,506.4 '/>
		<polygon fill = 'rgb( 31, 120, 180)' fill-opacity = '0.250000' points = '824.9,506.4 824.9,662.4 826.8,662.4 826.8,508.5 '/>
		<polygon fill = 'rgb( 31, 120, 180)' fill-opacity = '0.250000' points = '826.8,508.5 826.8,662.4 828.7,662.4 828.7,510.6 '/>
		<polygon fill = 'rgb( 31, 120, 180)' fill-opacity = '0.250000' points = '828.7,510.6 828.7,662.4 830.5,662.4 830.5,512.7 '/>
		<polygon fill = 'rgb( 31, 120, 180)' fill-opacity = '0.250000' points = '830.5,512.7 830.5,662.4 832.4,662.4 832.4,514.8 '/>
		<polygon fill = 'rgb( 31, 120, 180)' fill-opacity = '0.250000' points = '832.4,514.8 832.4,662.4 834.3,662.4 834.3,516.8 '/>
		<polygon fill = 'rgb( 31, 120, 180)' fill-opacity = '0.250000' points = '834.3,516.8 834.3,662.4 836.2,662.4 836.2,518.8 '/>
		<polygon fill = 'rgb( 31, 120, 180)' fill-opacity = '0.250000' points = '836.2,518.8 836.2,662.4 838.1,662.4 838.1,520.8 '/>
		<polygon fill = 'rgb( 31, 120, 180)' fill-opacity = '0.250000' points = '838.1,520.8 838.1,662.4 840.0,662.4 840.0,522.8 '/>
		<polygon fill = 'rgb( 31, 120, 180)' fill-opacity = '0.250000' points = '840.0,522.8 840.0,662.4 841.9,662.4 841.9,524.8 '/>
		<polygon fill = 'rgb( 31, 120, 180)' fill-opacity = '0.250000' points = '841.9,524.8 841.9,662.4 843.8,662.4 843.8,526.7 '/>
		<polygon fill = 'rgb( 31, 120, 180)' fill-opacity = '0.250000' points = '843.8,526.7 843.8,662.4 845.6,662.4 845.6,528.6 '/>
		<polygon fill = 'rgb( 31, 120, 180)' fill-opacity = '0.250000' points = '845.6,528.6 845.6,662.4 847.5,662.4 847.5,530.5 '/>
		<polygon fill = 'rgb( 31, 120, 180)' fill-opacity = '0.250000' points = '847.5,530.5 847.5,662.4 849.4,662.4 849.4,532.4 '/>
		<polygon fill = 'rgb( 31, 120, 180)' fill-opacity = '0.250000' points = '849.4,532.4 849.4,662.4 851.3,662.4 851.3,534.2 '/>
		<polygon fill = 'rgb( 31, 120, 180)' fill-opacity = '0.250000' points = '851.3,534.2 851.3,662.4 853.2,662.4 853.2,536.0 '/>
		<polygon fill = 'rgb( 31, 120, 180)' fill-opacity = '0.250000' points = '853.2,536.0 853.2,662.4 855.1,662.4 855.1,537.8 '/>
		<polygon fill = 'rgb( 31, 120, 180)' fill-opacity = '0.250000' points = '855.1,537.8 855.1,662.4 857.0,662.4 857.0,539.6 '/>
		<polygon fill = 'rgb( 31, 120, 180)' fill-opacity = '0.250000' points = '857.0,539.6 857.0,662.4 858.9,662.4 858.9,541.3 '/>
		<polygon fill = 'rgb( 31, 120, 180)' fill-opacity = '0.250000' points = '858.9,541.3 858.9,662.4 860.7,662.4 860.7,543.1 '/>
		<polygon fill = 'rgb( 31, 120, 180)' fill-opacity = '0.250000' points = '860.7,543.1 860.7,662.4 862.6,662.4 862.6,544.8 '/>
		<polygon fill = 'rgb( 31, 120, 180)' fill-opacity = '0.250000' points = '862.6,544.8 862.6,662.4 864.5,662.4 864.5,546.4 '/>
		<polygon fill = 'rgb( 31, 120, 180)' fill-opacity = '0.250000' points = '864.5,546.4 864.5,662.4 866.4,662.4 866.4,548.0 '/>
		<polygon fill = 'rgb( 31, 120, 180)' fill-opacity = '0.250000' points = '866.4,548.0 866.4,662.4 868.3,662.4 868.3,549.7 '/>
		<polygon fill = 'rgb( 31, 120, 180)' fill-opacity = '0.250000' points = '868.3,549.7 868.3,662.4 870.2,662.4 870.2,551.2 '/>
		<polygon fill = 'rgb( 31, 120, 180)' fill-opacity = '0.250000' points = '870.2,551.2 870.2,662.4 872.1,662.4 872.1,552.8 '/>
		<polygon fill = 'rgb( 31, 120, 180)' fill-opacity = '0.250000' points = '872.1,552.8 872.1,662.4 873.9,662.4 873.9,554.3 '/>
		<polygon fill = 'rgb( 31, 120, 180)' fill-opacity = '0.250000' points = '873.9,554.3 873.9,662.4 875.8,662.4 875.8,555.8 '/>
		<polygon fill = 'rgb( 31, 120, 180)' fill-opacity = '0.250000' points = '875.8,555.8 875.8,662.4 877.7,662.4 877.7,557.2 '/>
		<polygon fill = 'rgb( 31, 120, 180)' fill-opacity = '0.250000' points = '877.7,557.2 877.7,662.4 879.6,662.4 879.6,558.7 '/>
		<polygon fill = 'rgb( 31, 120, 180)' fill-opacity = '0.250000' points = '879.6,558.7 879.6,662.4 881.5,662.4 881.5,560.1 '/>
		<polygon fill = 'rgb( 31, 120, 180)' fill-opacity = '0.250000' points = '881.5,560.1 881.5,662.4 883.4,662.4 883.4,561.4 '/>
		<polygon fill = 'rgb( 31, 120, 180)' fill-opacity = '0.250000' points = '883.4,561.4 883.4,662.4 885.3,662.4 885.3,562.8 '/>
		<polygon fill = 'rgb( 31, 120, 180)' fill-opacity = '0.250000' points = '885.3,562.8 885.3,662.4 887.2,662.4 887.2,564.1 '/>
		<polygon fill = 'rgb( 31, 120, 180)' fill-opacity = '0.250000' points = '887.2,564.1 887.2,662.4 889.0,662.4 889.0,565.3 '/>
		<polygon fill = 'rgb( 31, 120, 180)' fill-opacity = '0.250000' points = '889.0,565.3 889.0,662.4 890.9,662.4 890.9,566.6 '/>
		<polygon fill = 'rgb( 31, 120, 180)' fill-opacity = '0.250000' points = '890.9,566.6 890.9,662.4 892.8,662.4 892.8,567.8 '/>
		<polygon fill = 'rgb( 31, 120, 180)' fill-opacity = '0.250000' points = '892.8,567.8 892.8,662.4 894.7,662.4 894.7,569.1 '/>
		<polygon fill = 'rgb( 31, 120, 180)' fill-opacity = '0.250000' points = '894.7,569.1 894.7,662.4 896.6,662.4 896.6,570.3 '/>
		<polygon fill = 'rgb( 31, 120, 180)' fill-opacity = '0.250000' points = '896.6,570.3 896.6,662.4 898.5,662.4 898.5,571.5 '/>
		<polygon fill = 'rgb( 31, 120, 180)' fill-opacity = '0.250000' points = '898.5,571.5 898.5,662.4 900.4,662.4 900.4,572.6 '/>
		<polygon fill = 'rgb( 31, 120, 180)' fill-opacity = '0.250000' points = '900.4,572.6 900.4,662.4 902.3,662.4 902.3,573.8 '/>
		<polygon fill = 'rgb( 31, 120, 180)' fill-opacity = '0.250000' points = '902.3,573.8 902.3,662.4 904.1,662.4 904.1,575.0 '/>
		<polygon fill = 'rgb( 31, 120, 180)' fill-opacity = '0.250000' points = '904.1,575.0 904.1,662.4 906.0,662.4 906.0,576.1 '/>
		<polygon fill = 'rgb( 31, 120, 180)' fill-opacity = '0.250000' points = '906.0,576.1 906.0,662.4 907.9,662.4 907.9,577.3 '/>
		<polygon fill = 'rgb( 31, 120, 180)' fill-opacity = '0.250000' points = '907.9,577.3 907.9,662.4 909.8,662.4 909.8,578.4 '/>
		<polygon fill = 'rgb( 31, 120, 180)' fill-opacity = '0.250000' points = '909.8,578.4 909.8,662.4 911.7,662.4 911.7,579.6 '/>
		<polygon fill = 'rgb( 31, 120, 180)' fill-opacity = '0.250000' points = '911.7,579.6 911.7,662.4 913.6,662.4 913.6,580.8 '/>
		<polygon fill = 'rgb( 31, 120, 180)' fill-opacity = '0.250000' points = '913.6,580.8 913.6,662.4 915.5,662.4 915.5,582.0 '/>
		<polygon fill = 'rgb( 31, 120, 180)' fill-opacity = '0.250000' points = '915.5,582.0 915.5,662.4 917.4,662.4 917.4,583.2 '/>
		<polygon fill = 'rgb( 31, 120, 180)' fill-opacity = '0.250000' points = '917.4,583.2 917.4,662.4 919.2,662.4 919.2,584.4 '/>
		<polygon fill = 'rgb( 31, 120, 180)' fill-opacity = '0.250000' points = '919.2,584.4 919.2,662.4 921.1,662.4 921.1,585.6 '/>
		<polygon fill = 'rgb( 31, 120, 180)' fill-opacity = '0.250000' points = '921.1,585.6 921.1,662.4 923.0,662.4 923.0,586.9 '/>
		<polygon fill = 'rgb( 31, 120, 180)' fill-opacity = '0.250000' points = '923.0,586.9 923.0,662.4 924.9,662.4 924.9,588.1 '/>
	</g>
</g>
	</g>
	<g id="gnuplot_plot_3" ><title>Point estimate</title>
<g fill="none" color="white" stroke="rgb( 31, 120, 180)" stroke-width="2.00" stroke-linecap="butt" stroke-linejoin="miter">
</g>
<g fill="none" color="black" stroke="currentColor" stroke-width="2.00" stroke-linecap="butt" stroke-linejoin="miter">
	<g transform="translate(1089.0,103.0)" stroke="none" fill="black" font-family="Helvetica" font-size="12.00"  text-anchor="start">
		<text><tspan font-family="Helvetica" >Point estimate</tspan></text>
	</g>
</g>
<g fill="none" color="black" stroke="currentColor" stroke-width="2.00" stroke-linecap="butt" stroke-linejoin="miter">
	<path stroke='rgb( 31, 120, 180)'  d='M1038.5,99.1 L1080.7,99.1 M506.5,662.4 L506.5,89.9  '/></g>
	</g>
<g fill="none" color="black" stroke="currentColor" stroke-width="2.00" stroke-linecap="butt" stroke-linejoin="miter">
</g>
<g fill="none" color="black" stroke="black" stroke-width="1.00" stroke-linecap="butt" stroke-linejoin="miter">
</g>
<g fill="none" color="black" stroke="currentColor" stroke-width="1.00" stroke-linecap="butt" stroke-linejoin="miter">
	<path stroke='black'  d='M71.9,54.1 L71.9,662.4 L1013.6,662.4 L1013.6,54.1 L71.9,54.1 Z  '/></g>
<g fill="none" color="black" stroke="currentColor" stroke-width="1.00" stroke-linecap="butt" stroke-linejoin="miter">
</g>
</g>
</svg>

