<?xml version="1.0" encoding="utf-8"  standalone="no"?>
<svg 
 viewBox="0 0 1280 720"
 xmlns="http://www.w3.org/2000/svg"
 xmlns:xlink="http://www.w3.org/1999/xlink"
>

<title>Gnuplot</title>
<desc>Produced by GNUPLOT 5.0 patchlevel 6 </desc>

<g id="gnuplot_canvas">

<rect x="0" y="0" width="1280" height="720" fill="none"/>
<defs>

	<circle id='gpDot' r='0.5' stroke-width='0.5'/>
	<path id='gpPt0' stroke-width='0.222' stroke='currentColor' d='M-1,0 h2 M0,-1 v2'/>
	<path id='gpPt1' stroke-width='0.222' stroke='currentColor' d='M-1,-1 L1,1 M1,-1 L-1,1'/>
	<path id='gpPt2' stroke-width='0.222' stroke='currentColor' d='M-1,0 L1,0 M0,-1 L0,1 M-1,-1 L1,1 M-1,1 L1,-1'/>
	<rect id='gpPt3' stroke-width='0.222' stroke='currentColor' x='-1' y='-1' width='2' height='2'/>
	<rect id='gpPt4' stroke-width='0.222' stroke='currentColor' fill='currentColor' x='-1' y='-1' width='2' height='2'/>
	<circle id='gpPt5' stroke-width='0.222' stroke='currentColor' cx='0' cy='0' r='1'/>
	<use xlink:href='#gpPt5' id='gpPt6' fill='currentColor' stroke='none'/>
	<path id='gpPt7' stroke-width='0.222' stroke='currentColor' d='M0,-1.33 L-1.33,0.67 L1.33,0.67 z'/>
	<use xlink:href='#gpPt7' id='gpPt8' fill='currentColor' stroke='none'/>
	<use xlink:href='#gpPt7' id='gpPt9' stroke='currentColor' transform='rotate(180)'/>
	<use xlink:href='#gpPt9' id='gpPt10' fill='currentColor' stroke='none'/>
	<use xlink:href='#gpPt3' id='gpPt11' stroke='currentColor' transform='rotate(45)'/>
	<use xlink:href='#gpPt11' id='gpPt12' fill='currentColor' stroke='none'/>
	<path id='gpPt13' stroke-width='0.222' stroke='currentColor' d='M0,1.330 L1.265,0.411 L0.782,-1.067 L-0.782,-1.076 L-1.265,0.411 z'/>
	<use xlink:href='#gpPt13' id='gpPt14' fill='currentColor' stroke='none'/>
	<filter id='textbox' filterUnits='objectBoundingBox' x='0' y='0' height='1' width='1'>
	  <feFlood flood-color='white' flood-opacity='1' result='bgnd'/>
	  <feComposite in='SourceGraphic' in2='bgnd' operator='atop'/>
	</filter>
	<filter id='greybox' filterUnits='objectBoundingBox' x='0' y='0' height='1' width='1'>
	  <feFlood flood-color='lightgrey' flood-opacity='1' result='grey'/>
	  <feComposite in='SourceGraphic' in2='grey' operator='atop'/>
	</filter>
</defs>
<g fill="none" color="white" stroke="currentColor" stroke-width="1.00" stroke-linecap="butt" stroke-linejoin="miter">
</g>
<g fill="none" color="black" stroke="currentColor" stroke-width="1.00" stroke-linecap="butt" stroke-linejoin="miter">
	<path stroke='black'  d='M71.9,662.4 L80.9,662.4  '/>	<g transform="translate(63.6,666.3)" stroke="none" fill="black" font-family="Helvetica" font-size="12.00"  text-anchor="end">
		<text><tspan font-family="Helvetica" > 0</tspan></text>
	</g>
</g>
<g fill="none" color="black" stroke="currentColor" stroke-width="1.00" stroke-linecap="butt" stroke-linejoin="miter">
	<path stroke='black'  d='M71.9,601.6 L80.9,601.6  '/>	<g transform="translate(63.6,605.5)" stroke="none" fill="black" font-family="Helvetica" font-size="12.00"  text-anchor="end">
		<text><tspan font-family="Helvetica" > 0.1</tspan></text>
	</g>
</g>
<g fill="none" color="black" stroke="currentColor" stroke-width="1.00" stroke-linecap="butt" stroke-linejoin="miter">
	<path stroke='black'  d='M71.9,540.7 L80.9,540.7  '/>	<g transform="translate(63.6,544.6)" stroke="none" fill="black" font-family="Helvetica" font-size="12.00"  text-anchor="end">
		<text><tspan font-family="Helvetica" > 0.2</tspan></text>
	</g>
</g>
<g fill="none" color="black" stroke="currentColor" stroke-width="1.00" stroke-linecap="butt" stroke-linejoin="miter">
	<path stroke='black'  d='M71.9,479.9 L80.9,479.9  '/>	<g transform="translate(63.6,483.8)" stroke="none" fill="black" font-family="Helvetica" font-size="12.00"  text-anchor="end">
		<text><tspan font-family="Helvetica" > 0.3</tspan></text>
	</g>
</g>
<g fill="none" color="black" stroke="currentColor" stroke-width="1.00" stroke-linecap="butt" stroke-linejoin="miter">
	<path stroke='black'  d='M71.9,419.1 L80.9,419.1  '/>	<g transform="translate(63.6,423.0)" stroke="none" fill="black" font-family="Helvetica" font-size="12.00"  text-anchor="end">
		<text><tspan font-family="Helvetica" > 0.4</tspan></text>
	</g>
</g>
<g fill="none" color="black" stroke="currentColor" stroke-width="1.00" stroke-linecap="butt" stroke-linejoin="miter">
	<path stroke='black'  d='M71.9,358.2 L80.9,358.2  '/>	<g transform="translate(63.6,362.1)" stroke="none" fill="black" font-family="Helvetica" font-size="12.00"  text-anchor="end">
		<text><tspan font-family="Helvetica" > 0.5</tspan></text>
	</g>
</g>
<g fill="none" color="black" stroke="currentColor" stroke-width="1.00" stroke-linecap="butt" stroke-linejoin="miter">
	<path stroke='black'  d='M71.9,297.4 L80.9,297.4  '/>	<g transform="translate(63.6,301.3)" stroke="none" fill="black" font-family="Helvetica" font-size="12.00"  text-anchor="end">
		<text><tspan font-family="Helvetica" > 0.6</tspan></text>
	</g>
</g>
<g fill="none" color="black" stroke="currentColor" stroke-width="1.00" stroke-linecap="butt" stroke-linejoin="miter">
	<path stroke='black'  d='M71.9,236.6 L80.9,236.6  '/>	<g transform="translate(63.6,240.5)" stroke="none" fill="black" font-family="Helvetica" font-size="12.00"  text-anchor="end">
		<text><tspan font-family="Helvetica" > 0.7</tspan></text>
	</g>
</g>
<g fill="none" color="black" stroke="currentColor" stroke-width="1.00" stroke-linecap="butt" stroke-linejoin="miter">
	<path stroke='black'  d='M71.9,175.8 L80.9,175.8  '/>	<g transform="translate(63.6,179.7)" stroke="none" fill="black" font-family="Helvetica" font-size="12.00"  text-anchor="end">
		<text><tspan font-family="Helvetica" > 0.8</tspan></text>
	</g>
</g>
<g fill="none" color="black" stroke="currentColor" stroke-width="1.00" stroke-linecap="butt" stroke-linejoin="miter">
	<path stroke='black'  d='M71.9,114.9 L80.9,114.9  '/>	<g transform="translate(63.6,118.8)" stroke="none" fill="black" font-family="Helvetica" font-size="12.00"  text-anchor="end">
		<text><tspan font-family="Helvetica" > 0.9</tspan></text>
	</g>
</g>
<g fill="none" color="black" stroke="currentColor" stroke-width="1.00" stroke-linecap="butt" stroke-linejoin="miter">
	<path stroke='black'  d='M71.9,54.1 L80.9,54.1  '/>	<g transform="translate(63.6,58.0)" stroke="none" fill="black" font-family="Helvetica" font-size="12.00"  text-anchor="end">
		<text><tspan font-family="Helvetica" > 1</tspan></text>
	</g>
</g>
<g fill="none" color="black" stroke="currentColor" stroke-width="1.00" stroke-linecap="butt" stroke-linejoin="miter">
	<path stroke='black'  d='M137.8,662.4 L137.8,653.4  '/>	<g transform="translate(137.8,684.3)" stroke="none" fill="black" font-family="Helvetica" font-size="12.00"  text-anchor="middle">
		<text><tspan font-family="Helvetica" > 1</tspan></text>
	</g>
</g>
<g fill="none" color="black" stroke="currentColor" stroke-width="1.00" stroke-linecap="butt" stroke-linejoin="miter">
	<path stroke='black'  d='M338.7,662.4 L338.7,653.4  '/>	<g transform="translate(338.7,684.3)" stroke="none" fill="black" font-family="Helvetica" font-size="12.00"  text-anchor="middle">
		<text><tspan font-family="Helvetica" > 1.5</tspan></text>
	</g>
</g>
<g fill="none" color="black" stroke="currentColor" stroke-width="1.00" stroke-linecap="butt" stroke-linejoin="miter">
	<path stroke='black'  d='M539.6,662.4 L539.6,653.4  '/>	<g transform="translate(539.6,684.3)" stroke="none" fill="black" font-family="Helvetica" font-size="12.00"  text-anchor="middle">
		<text><tspan font-family="Helvetica" > 2</tspan></text>
	</g>
</g>
<g fill="none" color="black" stroke="currentColor" stroke-width="1.00" stroke-linecap="butt" stroke-linejoin="miter">
	<path stroke='black'  d='M740.5,662.4 L740.5,653.4  '/>	<g transform="translate(740.5,684.3)" stroke="none" fill="black" font-family="Helvetica" font-size="12.00"  text-anchor="middle">
		<text><tspan font-family="Helvetica" > 2.5</tspan></text>
	</g>
</g>
<g fill="none" color="black" stroke="currentColor" stroke-width="1.00" stroke-linecap="butt" stroke-linejoin="miter">
	<path stroke='black'  d='M941.3,662.4 L941.3,653.4  '/>	<g transform="translate(941.3,684.3)" stroke="none" fill="black" font-family="Helvetica" font-size="12.00"  text-anchor="middle">
		<text><tspan font-family="Helvetica" > 3</tspan></text>
	</g>
</g>
<g fill="none" color="black" stroke="currentColor" stroke-width="1.00" stroke-linecap="butt" stroke-linejoin="miter">
</g>
<g fill="none" color="black" stroke="currentColor" stroke-width="1.00" stroke-linecap="butt" stroke-linejoin="miter">
	<path stroke='black'  d='M71.9,54.1 L71.9,662.4 L1013.6,662.4 L1013.6,54.1 L71.9,54.1 Z  '/></g>
<g fill="none" color="black" stroke="currentColor" stroke-width="1.00" stroke-linecap="butt" stroke-linejoin="miter">
	<g transform="translate(17.0,358.3) rotate(270)" stroke="none" fill="black" font-family="Helvetica" font-size="12.00"  text-anchor="middle">
		<text><tspan font-family="Helvetica" >Density (a.u.)</tspan></text>
	</g>
</g>
<g fill="none" color="black" stroke="currentColor" stroke-width="1.00" stroke-linecap="butt" stroke-linejoin="miter">
	<g transform="translate(542.7,711.3)" stroke="none" fill="black" font-family="Helvetica" font-size="12.00"  text-anchor="middle">
		<text><tspan font-family="Helvetica" >Average time (us)</tspan></text>
	</g>
</g>
<g fill="none" color="black" stroke="currentColor" stroke-width="1.00" stroke-linecap="butt" stroke-linejoin="miter">
	<g transform="translate(542.7,31.0)" stroke="none" fill="black" font-family="Helvetica" font-size="12.00"  text-anchor="middle">
		<text><tspan font-family="Helvetica" >language: cpp/parse error: bash/examples/release.sh: SD</tspan></text>
	</g>
</g>
	<g id="gnuplot_plot_1" ><title>Bootstrap distribution</title>
<g fill="none" color="white" stroke="black" stroke-width="2.00" stroke-linecap="butt" stroke-linejoin="miter">
</g>
<g fill="none" color="black" stroke="currentColor" stroke-width="2.00" stroke-linecap="butt" stroke-linejoin="miter">
	<g transform="translate(1089.0,67.0)" stroke="none" fill="black" font-family="Helvetica" font-size="12.00"  text-anchor="start">
		<text><tspan font-family="Helvetica" >Bootstrap distribution</tspan></text>
	</g>
</g>
<g fill="none" color="black" stroke="currentColor" stroke-width="2.00" stroke-linecap="butt" stroke-linejoin="miter">
	<path stroke='rgb( 31, 120, 180)'  d='M1038.5,63.1 L1080.7,63.1 M71.9,653.8 L73.8,652.9 L75.7,652.0 L77.6,651.0 L79.4,649.9 L81.3,648.7
		L83.2,647.4 L85.1,645.9 L87.0,644.3 L88.9,642.6 L90.8,640.7 L92.7,638.6 L94.5,636.3 L96.4,633.9
		L98.3,631.2 L100.2,628.3 L102.1,625.2 L104.0,621.9 L105.9,618.3 L107.8,614.4 L109.6,610.3 L111.5,605.9
		L113.4,601.2 L115.3,596.2 L117.2,590.9 L119.1,585.3 L121.0,579.4 L122.9,573.2 L124.7,566.8 L126.6,560.0
		L128.5,552.9 L130.4,545.5 L132.3,537.9 L134.2,530.1 L136.1,522.0 L138.0,513.7 L139.8,505.2 L141.7,496.6
		L143.6,487.9 L145.5,479.1 L147.4,470.2 L149.3,461.3 L151.2,452.5 L153.0,443.8 L154.9,435.2 L156.8,426.7
		L158.7,418.6 L160.6,410.6 L162.5,403.0 L164.4,395.8 L166.3,389.0 L168.1,382.6 L170.0,376.8 L171.9,371.5
		L173.8,366.8 L175.7,362.6 L177.6,359.2 L179.5,356.4 L181.4,354.2 L183.2,352.8 L185.1,352.1 L187.0,352.0
		L188.9,352.7 L190.8,354.1 L192.7,356.2 L194.6,359.0 L196.5,362.4 L198.3,366.4 L200.2,371.0 L202.1,376.2
		L204.0,381.9 L205.9,388.1 L207.8,394.6 L209.7,401.6 L211.6,408.8 L213.4,416.3 L215.3,424.0 L217.2,431.8
		L219.1,439.7 L221.0,447.6 L222.9,455.5 L224.8,463.2 L226.6,470.8 L228.5,478.1 L230.4,485.2 L232.3,491.9
		L234.2,498.2 L236.1,504.0 L238.0,509.4 L239.9,514.3 L241.7,518.6 L243.6,522.2 L245.5,525.3 L247.4,527.7
		L249.3,529.4 L251.2,530.4 L253.1,530.7 L255.0,530.2 L256.8,529.0 L258.7,527.1 L260.6,524.4 L262.5,521.0
		L264.4,516.9 L266.3,512.0 L268.2,506.5 L270.1,500.3 L271.9,493.4 L273.8,486.0 L275.7,477.9 L277.6,469.3
		L279.5,460.2 L281.4,450.7 L283.3,440.7 L285.2,430.5 L287.0,420.0 L288.9,409.2 L290.8,398.4 L292.7,387.5
		L294.6,376.7 L296.5,366.0 L298.4,355.5 L300.2,345.2 L302.1,335.4 L304.0,326.1 L305.9,317.3 L307.8,309.1
		L309.7,301.7 L311.6,295.0 L313.5,289.2 L315.3,284.3 L317.2,280.4 L319.1,277.5 L321.0,275.5 L322.9,274.7
		L324.8,274.9 L326.7,276.1 L328.6,278.4 L330.4,281.6 L332.3,285.9 L334.2,291.0 L336.1,297.0 L338.0,303.7
		L339.9,311.2 L341.8,319.3 L343.7,327.9 L345.5,337.0 L347.4,346.4 L349.3,356.0 L351.2,365.7 L353.1,375.5
		L355.0,385.3 L356.9,394.9 L358.8,404.3 L360.6,413.3 L362.5,422.0 L364.4,430.2 L366.3,437.9 L368.2,445.1
		L370.1,451.6 L372.0,457.5 L373.8,462.7 L375.7,467.3 L377.6,471.1 L379.5,474.3 L381.4,476.8 L383.3,478.6
		L385.2,479.8 L387.1,480.3 L388.9,480.3 L390.8,479.7 L392.7,478.6 L394.6,477.1 L396.5,475.1 L398.4,472.8
		L400.3,470.2 L402.2,467.3 L404.0,464.2 L405.9,460.9 L407.8,457.5 L409.7,454.1 L411.6,450.6 L413.5,447.1
		L415.4,443.7 L417.3,440.4 L419.1,437.2 L421.0,434.2 L422.9,431.3 L424.8,428.6 L426.7,426.1 L428.6,423.8
		L430.5,421.6 L432.4,419.7 L434.2,417.9 L436.1,416.2 L438.0,414.6 L439.9,413.2 L441.8,411.7 L443.7,410.3
		L445.6,408.8 L447.4,407.2 L449.3,405.4 L451.2,403.5 L453.1,401.2 L455.0,398.7 L456.9,395.8 L458.8,392.5
		L460.7,388.7 L462.5,384.4 L464.4,379.5 L466.3,374.1 L468.2,368.1 L470.1,361.4 L472.0,354.2 L473.9,346.2
		L475.8,337.7 L477.6,328.6 L479.5,318.9 L481.4,308.7 L483.3,298.0 L485.2,286.8 L487.1,275.3 L489.0,263.5
		L490.9,251.5 L492.7,239.3 L494.6,227.2 L496.5,215.1 L498.4,203.1 L500.3,191.4 L502.2,180.1 L504.1,169.3
		L506.0,159.0 L507.8,149.3 L509.7,140.4 L511.6,132.2 L513.5,125.0 L515.4,118.7 L517.3,113.3 L519.2,108.9
		L521.0,105.5 L522.9,103.1 L524.8,101.7 L526.7,101.3 L528.6,101.7 L530.5,103.1 L532.4,105.2 L534.3,108.0
		L536.1,111.4 L538.0,115.3 L539.9,119.7 L541.8,124.4 L543.7,129.3 L545.6,134.2 L547.5,139.2 L549.4,144.1
		L551.2,148.9 L553.1,153.3 L555.0,157.5 L556.9,161.3 L558.8,164.6 L560.7,167.5 L562.6,170.0 L564.5,172.0
		L566.3,173.6 L568.2,174.7 L570.1,175.5 L572.0,175.9 L573.9,176.1 L575.8,176.0 L577.7,175.8 L579.5,175.5
		L581.4,175.3 L583.3,175.1 L585.2,175.0 L587.1,175.2 L589.0,175.6 L590.9,176.4 L592.8,177.6 L594.6,179.2
		L596.5,181.3 L598.4,183.9 L600.3,187.0 L602.2,190.7 L604.1,194.8 L606.0,199.5 L607.9,204.6 L609.7,210.2
		L611.6,216.2 L613.5,222.6 L615.4,229.3 L617.3,236.3 L619.2,243.5 L621.1,250.8 L623.0,258.2 L624.8,265.7
		L626.7,273.1 L628.6,280.4 L630.5,287.5 L632.4,294.4 L634.3,301.1 L636.2,307.5 L638.1,313.5 L639.9,319.2
		L641.8,324.4 L643.7,329.3 L645.6,333.7 L647.5,337.7 L649.4,341.3 L651.3,344.4 L653.1,347.1 L655.0,349.4
		L656.9,351.3 L658.8,352.8 L660.7,354.0 L662.6,354.9 L664.5,355.4 L666.4,355.6 L668.2,355.6 L670.1,355.3
		L672.0,354.7 L673.9,353.9 L675.8,353.0 L677.7,351.8 L679.6,350.4 L681.5,348.9 L683.3,347.2 L685.2,345.3
		L687.1,343.3 L689.0,341.1 L690.9,338.8 L692.8,336.3 L694.7,333.7 L696.6,331.0 L698.4,328.2 L700.3,325.3
		L702.2,322.4 L704.1,319.4 L706.0,316.3 L707.9,313.2 L709.8,310.2 L711.7,307.2 L713.5,304.2 L715.4,301.3
		L717.3,298.6 L719.2,296.0 L721.1,293.5 L723.0,291.3 L724.9,289.3 L726.7,287.6 L728.6,286.1 L730.5,284.9
		L732.4,284.1 L734.3,283.6 L736.2,283.4 L738.1,283.6 L740.0,284.1 L741.8,285.0 L743.7,286.3 L745.6,287.9
		L747.5,289.8 L749.4,292.1 L751.3,294.8 L753.2,297.7 L755.1,300.9 L756.9,304.4 L758.8,308.2 L760.7,312.1
		L762.6,316.3 L764.5,320.7 L766.4,325.3 L768.3,330.0 L770.2,334.8 L772.0,339.7 L773.9,344.8 L775.8,349.9
		L777.7,355.0 L779.6,360.2 L781.5,365.4 L783.4,370.6 L785.3,375.8 L787.1,380.9 L789.0,386.1 L790.9,391.2
		L792.8,396.2 L794.7,401.2 L796.6,406.2 L798.5,411.0 L800.3,415.8 L802.2,420.5 L804.1,425.2 L806.0,429.7
		L807.9,434.2 L809.8,438.5 L811.7,442.8 L813.6,447.0 L815.4,451.0 L817.3,455.0 L819.2,458.8 L821.1,462.6
		L823.0,466.2 L824.9,469.7 L826.8,473.1 L828.7,476.4 L830.5,479.5 L832.4,482.5 L834.3,485.4 L836.2,488.1
		L838.1,490.7 L840.0,493.1 L841.9,495.4 L843.8,497.6 L845.6,499.7 L847.5,501.6 L849.4,503.4 L851.3,505.0
		L853.2,506.6 L855.1,508.1 L857.0,509.4 L858.9,510.7 L860.7,511.9 L862.6,513.0 L864.5,514.1 L866.4,515.2
		L868.3,516.2 L870.2,517.1 L872.1,518.1 L873.9,519.1 L875.8,520.0 L877.7,521.0 L879.6,522.0 L881.5,523.1
		L883.4,524.1 L885.3,525.3 L887.2,526.5 L889.0,527.7 L890.9,529.0 L892.8,530.4 L894.7,531.8 L896.6,533.3
		L898.5,534.9 L900.4,536.6 L902.3,538.3 L904.1,540.1 L906.0,541.9 L907.9,543.9 L909.8,545.8 L911.7,547.9
		L913.6,550.0 L915.5,552.1 L917.4,554.3 L919.2,556.5 L921.1,558.7 L923.0,561.0 L924.9,563.2 L926.8,565.5
		L928.7,567.8 L930.6,570.0 L932.5,572.3 L934.3,574.5 L936.2,576.8 L938.1,579.0 L940.0,581.1 L941.9,583.2
		L943.8,585.3 L945.7,587.4 L947.5,589.4 L949.4,591.3 L951.3,593.2 L953.2,595.1 L955.1,596.9 L957.0,598.6
		L958.9,600.3 L960.8,602.0 L962.6,603.6 L964.5,605.2 L966.4,606.7 L968.3,608.1 L970.2,609.6 L972.1,610.9
		L974.0,612.3 L975.9,613.6 L977.7,614.8 L979.6,616.0 L981.5,617.2 L983.4,618.3 L985.3,619.4 L987.2,620.5
		L989.1,621.5 L991.0,622.5 L992.8,623.5 L994.7,624.4 L996.6,625.3 L998.5,626.2 L1000.4,627.1 L1002.3,627.9
		L1004.2,628.7 L1006.1,629.5 L1007.9,630.3 L1009.8,631.0 L1011.7,631.7 L1013.6,632.5  '/></g>
	</g>
	<g id="gnuplot_plot_2" ><title>Confidence interval</title>
<g fill="none" color="white" stroke="rgb( 31, 120, 180)" stroke-width="1.00" stroke-linecap="butt" stroke-linejoin="miter">
</g>
<g fill="none" color="black" stroke="currentColor" stroke-width="1.00" stroke-linecap="butt" stroke-linejoin="miter">
	<g transform="translate(1089.0,85.0)" stroke="none" fill="black" font-family="Helvetica" font-size="12.00"  text-anchor="start">
		<text><tspan font-family="Helvetica" >Confidence interval</tspan></text>
	</g>
</g>
<g fill="none" color="black" stroke="currentColor" stroke-width="1.00" stroke-linecap="butt" stroke-linejoin="miter">
	<g stroke='none' shape-rendering='crispEdges'>
		<polygon fill = 'rgb( 31, 120, 180)' fill-opacity = '0.250000' points = '1038.5,85.6 1080.7,85.6 1080.7,76.6 1038.5,76.6 '/>
		<polygon fill = 'rgb( 31, 120, 180)' fill-opacity = '0.250000' points = '158.7,418.6 158.7,662.4 160.6,662.4 160.6,410.6 '/>
		<polygon fill = 'rgb( 31, 120, 180)' fill-opacity = '0.250000' points = '160.6,410.6 160.6,662.4 162.5,662.4 162.5,403.0 '/>
		<polygon fill = 'rgb( 31, 120, 180)' fill-opacity = '0.250000' points = '162.5,403.0 162.5,662.4 164.4,662.4 164.4,395.8 '/>
		<polygon fill = 'rgb( 31, 120, 180)' fill-opacity = '0.250000' points = '164.4,395.8 164.4,662.4 166.3,662.4 166.3,389.0 '/>
		<polygon fill = 'rgb( 31, 120, 180)' fill-opacity = '0.250000' points = '166.3,389.0 166.3,662.4 168.1,662.4 168.1,382.6 '/>
		<polygon fill = 'rgb( 31, 120, 180)' fill-opacity = '0.250000' points = '168.1,382.6 168.1,662.4 170.0,662.4 170.0,376.8 '/>
		<polygon fill = 'rgb( 31, 120, 180)' fill-opacity = '0.250000' points = '170.0,376.8 170.0,662.4 171.9,662.4 171.9,371.5 '/>
		<polygon fill = 'rgb( 31, 120, 180)' fill-opacity = '0.250000' points = '171.9,371.5 171.9,662.4 173.8,662.4 173.8,366.8 '/>
		<polygon fill = 'rgb( 31, 120, 180)' fill-opacity = '0.250000' points = '173.8,366.8 173.8,662.4 175.7,662.4 175.7,362.6 '/>
		<polygon fill = 'rgb( 31, 120, 180)' fill-opacity = '0.250000' points = '175.7,362.6 175.7,662.4 177.6,662.4 177.6,359.2 '/>
		<polygon fill = 'rgb( 31, 120, 180)' fill-opacity = '0.250000' points = '177.6,359.2 177.6,662.4 179.5,662.4 179.5,356.4 '/>
		<polygon fill = 'rgb( 31, 120, 180)' fill-opacity = '0.250000' points = '179.5,356.4 179.5,662.4 181.4,662.4 181.4,354.2 '/>
		<polygon fill = 'rgb( 31, 120, 180)' fill-opacity = '0.250000' points = '181.4,354.2 181.4,662.4 183.2,662.4 183.2,352.8 '/>
		<polygon fill = 'rgb( 31, 120, 180)' fill-opacity = '0.250000' points = '183.2,352.8 183.2,662.4 185.1,662.4 185.1,352.1 '/>
		<polygon fill = 'rgb( 31, 120, 180)' fill-opacity = '0.250000' points = '185.1,352.1 185.1,662.4 187.0,662.4 187.0,352.0 '/>
		<polygon fill = 'rgb( 31, 120, 180)' fill-opacity = '0.250000' points = '187.0,352.0 187.0,662.4 188.9,662.4 188.9,352.7 '/>
		<polygon fill = 'rgb( 31, 120, 180)' fill-opacity = '0.250000' points = '188.9,352.7 188.9,662.4 190.8,662.4 190.8,354.1 '/>
		<polygon fill = 'rgb( 31, 120, 180)' fill-opacity = '0.250000' points = '190.8,354.1 190.8,662.4 192.7,662.4 192.7,356.2 '/>
		<polygon fill = 'rgb( 31, 120, 180)' fill-opacity = '0.250000' points = '192.7,356.2 192.7,662.4 194.6,662.4 194.6,359.0 '/>
		<polygon fill = 'rgb( 31, 120, 180)' fill-opacity = '0.250000' points = '194.6,359.0 194.6,662.4 196.5,662.4 196.5,362.4 '/>
		<polygon fill = 'rgb( 31, 120, 180)' fill-opacity = '0.250000' points = '196.5,362.4 196.5,662.4 198.3,662.4 198.3,366.4 '/>
		<polygon fill = 'rgb( 31, 120, 180)' fill-opacity = '0.250000' points = '198.3,366.4 198.3,662.4 200.2,662.4 200.2,371.0 '/>
		<polygon fill = 'rgb( 31, 120, 180)' fill-opacity = '0.250000' points = '200.2,371.0 200.2,662.4 202.1,662.4 202.1,376.2 '/>
		<polygon fill = 'rgb( 31, 120, 180)' fill-opacity = '0.250000' points = '202.1,376.2 202.1,662.4 204.0,662.4 204.0,381.9 '/>
		<polygon fill = 'rgb( 31, 120, 180)' fill-opacity = '0.250000' points = '204.0,381.9 204.0,662.4 205.9,662.4 205.9,388.1 '/>
		<polygon fill = 'rgb( 31, 120, 180)' fill-opacity = '0.250000' points = '205.9,388.1 205.9,662.4 207.8,662.4 207.8,394.6 '/>
		<polygon fill = 'rgb( 31, 120, 180)' fill-opacity = '0.250000' points = '207.8,394.6 207.8,662.4 209.7,662.4 209.7,401.6 '/>
		<polygon fill = 'rgb( 31, 120, 180)' fill-opacity = '0.250000' points = '209.7,401.6 209.7,662.4 211.6,662.4 211.6,408.8 '/>
		<polygon fill = 'rgb( 31, 120, 180)' fill-opacity = '0.250000' points = '211.6,408.8 211.6,662.4 213.4,662.4 213.4,416.3 '/>
		<polygon fill = 'rgb( 31, 120, 180)' fill-opacity = '0.250000' points = '213.4,416.3 213.4,662.4 215.3,662.4 215.3,424.0 '/>
		<polygon fill = 'rgb( 31, 120, 180)' fill-opacity = '0.250000' points = '215.3,424.0 215.3,662.4 217.2,662.4 217.2,431.8 '/>
		<polygon fill = 'rgb( 31, 120, 180)' fill-opacity = '0.250000' points = '217.2,431.8 217.2,662.4 219.1,662.4 219.1,439.7 '/>
		<polygon fill = 'rgb( 31, 120, 180)' fill-opacity = '0.250000' points = '219.1,439.7 219.1,662.4 221.0,662.4 221.0,447.6 '/>
		<polygon fill = 'rgb( 31, 120, 180)' fill-opacity = '0.250000' points = '221.0,447.6 221.0,662.4 222.9,662.4 222.9,455.5 '/>
		<polygon fill = 'rgb( 31, 120, 180)' fill-opacity = '0.250000' points = '222.9,455.5 222.9,662.4 224.8,662.4 224.8,463.2 '/>
		<polygon fill = 'rgb( 31, 120, 180)' fill-opacity = '0.250000' points = '224.8,463.2 224.8,662.4 226.6,662.4 226.6,470.8 '/>
		<polygon fill = 'rgb( 31, 120, 180)' fill-opacity = '0.250000' points = '226.6,470.8 226.6,662.4 228.5,662.4 228.5,478.1 '/>
		<polygon fill = 'rgb( 31, 120, 180)' fill-opacity = '0.250000' points = '228.5,478.1 228.5,662.4 230.4,662.4 230.4,485.2 '/>
		<polygon fill = 'rgb( 31, 120, 180)' fill-opacity = '0.250000' points = '230.4,485.2 230.4,662.4 232.3,662.4 232.3,491.9 '/>
		<polygon fill = 'rgb( 31, 120, 180)' fill-opacity = '0.250000' points = '232.3,491.9 232.3,662.4 234.2,662.4 234.2,498.2 '/>
		<polygon fill = 'rgb( 31, 120, 180)' fill-opacity = '0.250000' points = '234.2,498.2 234.2,662.4 236.1,662.4 236.1,504.0 '/>
		<polygon fill = 'rgb( 31, 120, 180)' fill-opacity = '0.250000' points = '236.1,504.0 236.1,662.4 238.0,662.4 238.0,509.4 '/>
		<polygon fill = 'rgb( 31, 120, 180)' fill-opacity = '0.250000' points = '238.0,509.4 238.0,662.4 239.9,662.4 239.9,514.3 '/>
		<polygon fill = 'rgb( 31, 120, 180)' fill-opacity = '0.250000' points = '239.9,514.3 239.9,662.4 241.7,662.4 241.7,518.6 '/>
		<polygon fill = 'rgb( 31, 120, 180)' fill-opacity = '0.250000' points = '241.7,518.6 241.7,662.4 243.6,662.4 243.6,522.2 '/>
		<polygon fill = 'rgb( 31, 120, 180)' fill-opacity = '0.250000' points = '243.6,522.2 243.6,662.4 245.5,662.4 245.5,525.3 '/>
		<polygon fill = 'rgb( 31, 120, 180)' fill-opacity = '0.250000' points = '245.5,525.3 245.5,662.4 247.4,662.4 247.4,527.7 '/>
		<polygon fill = 'rgb( 31, 120, 180)' fill-opacity = '0.250000' points = '247.4,527.7 247.4,662.4 249.3,662.4 249.3,529.4 '/>
		<polygon fill = 'rgb( 31, 120, 180)' fill-opacity = '0.250000' points = '249.3,529.4 249.3,662.4 251.2,662.4 251.2,530.4 '/>
		<polygon fill = 'rgb( 31, 120, 180)' fill-opacity = '0.250000' points = '251.2,530.4 251.2,662.4 253.1,662.4 253.1,530.7 '/>
		<polygon fill = 'rgb( 31, 120, 180)' fill-opacity = '0.250000' points = '253.1,530.7 253.1,662.4 255.0,662.4 255.0,530.2 '/>
		<polygon fill = 'rgb( 31, 120, 180)' fill-opacity = '0.250000' points = '255.0,530.2 255.0,662.4 256.8,662.4 256.8,529.0 '/>
		<polygon fill = 'rgb( 31, 120, 180)' fill-opacity = '0.250000' points = '256.8,529.0 256.8,662.4 258.7,662.4 258.7,527.1 '/>
		<polygon fill = 'rgb( 31, 120, 180)' fill-opacity = '0.250000' points = '258.7,527.1 258.7,662.4 260.6,662.4 260.6,524.4 '/>
		<polygon fill = 'rgb( 31, 120, 180)' fill-opacity = '0.250000' points = '260.6,524.4 260.6,662.4 262.5,662.4 262.5,521.0 '/>
		<polygon fill = 'rgb( 31, 120, 180)' fill-opacity = '0.250000' points = '262.5,521.0 262.5,662.4 264.4,662.4 264.4,516.9 '/>
		<polygon fill = 'rgb( 31, 120, 180)' fill-opacity = '0.250000' points = '264.4,516.9 264.4,662.4 266.3,662.4 266.3,512.0 '/>
		<polygon fill = 'rgb( 31, 120, 180)' fill-opacity = '0.250000' points = '266.3,512.0 266.3,662.4 268.2,662.4 268.2,506.5 '/>
		<polygon fill = 'rgb( 31, 120, 180)' fill-opacity = '0.250000' points = '268.2,506.5 268.2,662.4 270.1,662.4 270.1,500.3 '/>
		<polygon fill = 'rgb( 31, 120, 180)' fill-opacity = '0.250000' points = '270.1,500.3 270.1,662.4 271.9,662.4 271.9,493.4 '/>
		<polygon fill = 'rgb( 31, 120, 180)' fill-opacity = '0.250000' points = '271.9,493.4 271.9,662.4 273.8,662.4 273.8,486.0 '/>
		<polygon fill = 'rgb( 31, 120, 180)' fill-opacity = '0.250000' points = '273.8,486.0 273.8,662.4 275.7,662.4 275.7,477.9 '/>
		<polygon fill = 'rgb( 31, 120, 180)' fill-opacity = '0.250000' points = '275.7,477.9 275.7,662.4 277.6,662.4 277.6,469.3 '/>
		<polygon fill = 'rgb( 31, 120, 180)' fill-opacity = '0.250000' points = '277.6,469.3 277.6,662.4 279.5,662.4 279.5,460.2 '/>
		<polygon fill = 'rgb( 31, 120, 180)' fill-opacity = '0.250000' points = '279.5,460.2 279.5,662.4 281.4,662.4 281.4,450.7 '/>
		<polygon fill = 'rgb( 31, 120, 180)' fill-opacity = '0.250000' points = '281.4,450.7 281.4,662.4 283.3,662.4 283.3,440.7 '/>
		<polygon fill = 'rgb( 31, 120, 180)' fill-opacity = '0.250000' points = '283.3,440.7 283.3,662.4 285.2,662.4 285.2,430.5 '/>
		<polygon fill = 'rgb( 31, 120, 180)' fill-opacity = '0.250000' points = '285.2,430.5 285.2,662.4 287.0,662.4 287.0,420.0 '/>
		<polygon fill = 'rgb( 31, 120, 180)' fill-opacity = '0.250000' points = '287.0,420.0 287.0,662.4 288.9,662.4 288.9,409.2 '/>
		<polygon fill = 'rgb( 31, 120, 180)' fill-opacity = '0.250000' points = '288.9,409.2 288.9,662.4 290.8,662.4 290.8,398.4 '/>
		<polygon fill = 'rgb( 31, 120, 180)' fill-opacity = '0.250000' points = '290.8,398.4 290.8,662.4 292.7,662.4 292.7,387.5 '/>
		<polygon fill = 'rgb( 31, 120, 180)' fill-opacity = '0.250000' points = '292.7,387.5 292.7,662.4 294.6,662.4 294.6,376.7 '/>
		<polygon fill = 'rgb( 31, 120, 180)' fill-opacity = '0.250000' points = '294.6,376.7 294.6,662.4 296.5,662.4 296.5,366.0 '/>
		<polygon fill = 'rgb( 31, 120, 180)' fill-opacity = '0.250000' points = '296.5,366.0 296.5,662.4 298.4,662.4 298.4,355.5 '/>
		<polygon fill = 'rgb( 31, 120, 180)' fill-opacity = '0.250000' points = '298.4,355.5 298.4,662.4 300.2,662.4 300.2,345.2 '/>
		<polygon fill = 'rgb( 31, 120, 180)' fill-opacity = '0.250000' points = '300.2,345.2 300.2,662.4 302.1,662.4 302.1,335.4 '/>
		<polygon fill = 'rgb( 31, 120, 180)' fill-opacity = '0.250000' points = '302.1,335.4 302.1,662.4 304.0,662.4 304.0,326.1 '/>
		<polygon fill = 'rgb( 31, 120, 180)' fill-opacity = '0.250000' points = '304.0,326.1 304.0,662.4 305.9,662.4 305.9,317.3 '/>
		<polygon fill = 'rgb( 31, 120, 180)' fill-opacity = '0.250000' points = '305.9,317.3 305.9,662.4 307.8,662.4 307.8,309.1 '/>
		<polygon fill = 'rgb( 31, 120, 180)' fill-opacity = '0.250000' points = '307.8,309.1 307.8,662.4 309.7,662.4 309.7,301.7 '/>
		<polygon fill = 'rgb( 31, 120, 180)' fill-opacity = '0.250000' points = '309.7,301.7 309.7,662.4 311.6,662.4 311.6,295.0 '/>
		<polygon fill = 'rgb( 31, 120, 180)' fill-opacity = '0.250000' points = '311.6,295.0 311.6,662.4 313.5,662.4 313.5,289.2 '/>
		<polygon fill = 'rgb( 31, 120, 180)' fill-opacity = '0.250000' points = '313.5,289.2 313.5,662.4 315.3,662.4 315.3,284.3 '/>
		<polygon fill = 'rgb( 31, 120, 180)' fill-opacity = '0.250000' points = '315.3,284.3 315.3,662.4 317.2,662.4 317.2,280.4 '/>
		<polygon fill = 'rgb( 31, 120, 180)' fill-opacity = '0.250000' points = '317.2,280.4 317.2,662.4 319.1,662.4 319.1,277.5 '/>
		<polygon fill = 'rgb( 31, 120, 180)' fill-opacity = '0.250000' points = '319.1,277.5 319.1,662.4 321.0,662.4 321.0,275.5 '/>
		<polygon fill = 'rgb( 31, 120, 180)' fill-opacity = '0.250000' points = '321.0,275.5 321.0,662.4 322.9,662.4 322.9,274.7 '/>
		<polygon fill = 'rgb( 31, 120, 180)' fill-opacity = '0.250000' points = '322.9,274.7 322.9,662.4 324.8,662.4 324.8,274.9 '/>
		<polygon fill = 'rgb( 31, 120, 180)' fill-opacity = '0.250000' points = '324.8,274.9 324.8,662.4 326.7,662.4 326.7,276.1 '/>
		<polygon fill = 'rgb( 31, 120, 180)' fill-opacity = '0.250000' points = '326.7,276.1 326.7,662.4 328.6,662.4 328.6,278.4 '/>
		<polygon fill = 'rgb( 31, 120, 180)' fill-opacity = '0.250000' points = '328.6,278.4 328.6,662.4 330.4,662.4 330.4,281.6 '/>
		<polygon fill = 'rgb( 31, 120, 180)' fill-opacity = '0.250000' points = '330.4,281.6 330.4,662.4 332.3,662.4 332.3,285.9 '/>
		<polygon fill = 'rgb( 31, 120, 180)' fill-opacity = '0.250000' points = '332.3,285.9 332.3,662.4 334.2,662.4 334.2,291.0 '/>
		<polygon fill = 'rgb( 31, 120, 180)' fill-opacity = '0.250000' points = '334.2,291.0 334.2,662.4 336.1,662.4 336.1,297.0 '/>
		<polygon fill = 'rgb( 31, 120, 180)' fill-opacity = '0.250000' points = '336.1,297.0 336.1,662.4 338.0,662.4 338.0,303.7 '/>
		<polygon fill = 'rgb( 31, 120, 180)' fill-opacity = '0.250000' points = '338.0,303.7 338.0,662.4 339.9,662.4 339.9,311.2 '/>
		<polygon fill = 'rgb( 31, 120, 180)' fill-opacity = '0.250000' points = '339.9,311.2 339.9,662.4 341.8,662.4 341.8,319.3 '/>
		<polygon fill = 'rgb( 31, 120, 180)' fill-opacity = '0.250000' points = '341.8,319.3 341.8,662.4 343.7,662.4 343.7,327.9 '/>
		<polygon fill = 'rgb( 31, 120, 180)' fill-opacity = '0.250000' points = '343.7,327.9 343.7,662.4 345.5,662.4 345.5,337.0 '/>
		<polygon fill = 'rgb( 31, 120, 180)' fill-opacity = '0.250000' points = '345.5,337.0 345.5,662.4 347.4,662.4 347.4,346.4 '/>
		<polygon fill = 'rgb( 31, 120, 180)' fill-opacity = '0.250000' points = '347.4,346.4 347.4,662.4 349.3,662.4 349.3,356.0 '/>
		<polygon fill = 'rgb( 31, 120, 180)' fill-opacity = '0.250000' points = '349.3,356.0 349.3,662.4 351.2,662.4 351.2,365.7 '/>
		<polygon fill = 'rgb( 31, 120, 180)' fill-opacity = '0.250000' points = '351.2,365.7 351.2,662.4 353.1,662.4 353.1,375.5 '/>
		<polygon fill = 'rgb( 31, 120, 180)' fill-opacity = '0.250000' points = '353.1,375.5 353.1,662.4 355.0,662.4 355.0,385.3 '/>
		<polygon fill = 'rgb( 31, 120, 180)' fill-opacity = '0.250000' points = '355.0,385.3 355.0,662.4 356.9,662.4 356.9,394.9 '/>
		<polygon fill = 'rgb( 31, 120, 180)' fill-opacity = '0.250000' points = '356.9,394.9 356.9,662.4 358.8,662.4 358.8,404.3 '/>
		<polygon fill = 'rgb( 31, 120, 180)' fill-opacity = '0.250000' points = '358.8,404.3 358.8,662.4 360.6,662.4 360.6,413.3 '/>
		<polygon fill = 'rgb( 31, 120, 180)' fill-opacity = '0.250000' points = '360.6,413.3 360.6,662.4 362.5,662.4 362.5,422.0 '/>
		<polygon fill = 'rgb( 31, 120, 180)' fill-opacity = '0.250000' points = '362.5,422.0 362.5,662.4 364.4,662.4 364.4,430.2 '/>
		<polygon fill = 'rgb( 31, 120, 180)' fill-opacity = '0.250000' points = '364.4,430.2 364.4,662.4 366.3,662.4 366.3,437.9 '/>
		<polygon fill = 'rgb( 31, 120, 180)' fill-opacity = '0.250000' points = '366.3,437.9 366.3,662.4 368.2,662.4 368.2,445.1 '/>
		<polygon fill = 'rgb( 31, 120, 180)' fill-opacity = '0.250000' points = '368.2,445.1 368.2,662.4 370.1,662.4 370.1,451.6 '/>
		<polygon fill = 'rgb( 31, 120, 180)' fill-opacity = '0.250000' points = '370.1,451.6 370.1,662.4 372.0,662.4 372.0,457.5 '/>
		<polygon fill = 'rgb( 31, 120, 180)' fill-opacity = '0.250000' points = '372.0,457.5 372.0,662.4 373.8,662.4 373.8,462.7 '/>
		<polygon fill = 'rgb( 31, 120, 180)' fill-opacity = '0.250000' points = '373.8,462.7 373.8,662.4 375.7,662.4 375.7,467.3 '/>
		<polygon fill = 'rgb( 31, 120, 180)' fill-opacity = '0.250000' points = '375.7,467.3 375.7,662.4 377.6,662.4 377.6,471.1 '/>
		<polygon fill = 'rgb( 31, 120, 180)' fill-opacity = '0.250000' points = '377.6,471.1 377.6,662.4 379.5,662.4 379.5,474.3 '/>
		<polygon fill = 'rgb( 31, 120, 180)' fill-opacity = '0.250000' points = '379.5,474.3 379.5,662.4 381.4,662.4 381.4,476.8 '/>
		<polygon fill = 'rgb( 31, 120, 180)' fill-opacity = '0.250000' points = '381.4,476.8 381.4,662.4 383.3,662.4 383.3,478.6 '/>
		<polygon fill = 'rgb( 31, 120, 180)' fill-opacity = '0.250000' points = '383.3,478.6 383.3,662.4 385.2,662.4 385.2,479.8 '/>
		<polygon fill = 'rgb( 31, 120, 180)' fill-opacity = '0.250000' points = '385.2,479.8 385.2,662.4 387.1,662.4 387.1,480.3 '/>
		<polygon fill = 'rgb( 31, 120, 180)' fill-opacity = '0.250000' points = '387.1,480.3 387.1,662.4 388.9,662.4 388.9,480.3 '/>
		<polygon fill = 'rgb( 31, 120, 180)' fill-opacity = '0.250000' points = '388.9,480.3 388.9,662.4 390.8,662.4 390.8,479.7 '/>
		<polygon fill = 'rgb( 31, 120, 180)' fill-opacity = '0.250000' points = '390.8,479.7 390.8,662.4 392.7,662.4 392.7,478.6 '/>
		<polygon fill = 'rgb( 31, 120, 180)' fill-opacity = '0.250000' points = '392.7,478.6 392.7,662.4 394.6,662.4 394.6,477.1 '/>
		<polygon fill = 'rgb( 31, 120, 180)' fill-opacity = '0.250000' points = '394.6,477.1 394.6,662.4 396.5,662.4 396.5,475.1 '/>
		<polygon fill = 'rgb( 31, 120, 180)' fill-opacity = '0.250000' points = '396.5,475.1 396.5,662.4 398.4,662.4 398.4,472.8 '/>
		<polygon fill = 'rgb( 31, 120, 180)' fill-opacity = '0.250000' points = '398.4,472.8 398.4,662.4 400.3,662.4 400.3,470.2 '/>
		<polygon fill = 'rgb( 31, 120, 180)' fill-opacity = '0.250000' points = '400.3,470.2 400.3,662.4 402.2,662.4 402.2,467.3 '/>
		<polygon fill = 'rgb( 31, 120, 180)' fill-opacity = '0.250000' points = '402.2,467.3 402.2,662.4 404.0,662.4 404.0,464.2 '/>
		<polygon fill = 'rgb( 31, 120, 180)' fill-opacity = '0.250000' points = '404.0,464.2 404.0,662.4 405.9,662.4 405.9,460.9 '/>
		<polygon fill = 'rgb( 31, 120, 180)' fill-opacity = '0.250000' points = '405.9,460.9 405.9,662.4 407.8,662.4 407.8,457.5 '/>
		<polygon fill = 'rgb( 31, 120, 180)' fill-opacity = '0.250000' points = '407.8,457.5 407.8,662.4 409.7,662.4 409.7,454.1 '/>
		<polygon fill = 'rgb( 31, 120, 180)' fill-opacity = '0.250000' points = '409.7,454.1 409.7,662.4 411.6,662.4 411.6,450.6 '/>
		<polygon fill = 'rgb( 31, 120, 180)' fill-opacity = '0.250000' points = '411.6,450.6 411.6,662.4 413.5,662.4 413.5,447.1 '/>
		<polygon fill = 'rgb( 31, 120, 180)' fill-opacity = '0.250000' points = '413.5,447.1 413.5,662.4 415.4,662.4 415.4,443.7 '/>
		<polygon fill = 'rgb( 31, 120, 180)' fill-opacity = '0.250000' points = '415.4,443.7 415.4,662.4 417.3,662.4 417.3,440.4 '/>
		<polygon fill = 'rgb( 31, 120, 180)' fill-opacity = '0.250000' points = '417.3,440.4 417.3,662.4 419.1,662.4 419.1,437.2 '/>
		<polygon fill = 'rgb( 31, 120, 180)' fill-opacity = '0.250000' points = '419.1,437.2 419.1,662.4 421.0,662.4 421.0,434.2 '/>
		<polygon fill = 'rgb( 31, 120, 180)' fill-opacity = '0.250000' points = '421.0,434.2 421.0,662.4 422.9,662.4 422.9,431.3 '/>
		<polygon fill = 'rgb( 31, 120, 180)' fill-opacity = '0.250000' points = '422.9,431.3 422.9,662.4 424.8,662.4 424.8,428.6 '/>
		<polygon fill = 'rgb( 31, 120, 180)' fill-opacity = '0.250000' points = '424.8,428.6 424.8,662.4 426.7,662.4 426.7,426.1 '/>
		<polygon fill = 'rgb( 31, 120, 180)' fill-opacity = '0.250000' points = '426.7,426.1 426.7,662.4 428.6,662.4 428.6,423.8 '/>
		<polygon fill = 'rgb( 31, 120, 180)' fill-opacity = '0.250000' points = '428.6,423.8 428.6,662.4 430.5,662.4 430.5,421.6 '/>
		<polygon fill = 'rgb( 31, 120, 180)' fill-opacity = '0.250000' points = '430.5,421.6 430.5,662.4 432.4,662.4 432.4,419.7 '/>
		<polygon fill = 'rgb( 31, 120, 180)' fill-opacity = '0.250000' points = '432.4,419.7 432.4,662.4 434.2,662.4 434.2,417.9 '/>
		<polygon fill = 'rgb( 31, 120, 180)' fill-opacity = '0.250000' points = '434.2,417.9 434.2,662.4 436.1,662.4 436.1,416.2 '/>
		<polygon fill = 'rgb( 31, 120, 180)' fill-opacity = '0.250000' points = '436.1,416.2 436.1,662.4 438.0,662.4 438.0,414.6 '/>
		<polygon fill = 'rgb( 31, 120, 180)' fill-opacity = '0.250000' points = '438.0,414.6 438.0,662.4 439.9,662.4 439.9,413.2 '/>
		<polygon fill = 'rgb( 31, 120, 180)' fill-opacity = '0.250000' points = '439.9,413.2 439.9,662.4 441.8,662.4 441.8,411.7 '/>
		<polygon fill = 'rgb( 31, 120, 180)' fill-opacity = '0.250000' points = '441.8,411.7 441.8,662.4 443.7,662.4 443.7,410.3 '/>
		<polygon fill = 'rgb( 31, 120, 180)' fill-opacity = '0.250000' points = '443.7,410.3 443.7,662.4 445.6,662.4 445.6,408.8 '/>
		<polygon fill = 'rgb( 31, 120, 180)' fill-opacity = '0.250000' points = '445.6,408.8 445.6,662.4 447.4,662.4 447.4,407.2 '/>
		<polygon fill = 'rgb( 31, 120, 180)' fill-opacity = '0.250000' points = '447.4,407.2 447.4,662.4 449.3,662.4 449.3,405.4 '/>
		<polygon fill = 'rgb( 31, 120, 180)' fill-opacity = '0.250000' points = '449.3,405.4 449.3,662.4 451.2,662.4 451.2,403.5 '/>
		<polygon fill = 'rgb( 31, 120, 180)' fill-opacity = '0.250000' points = '451.2,403.5 451.2,662.4 453.1,662.4 453.1,401.2 '/>
		<polygon fill = 'rgb( 31, 120, 180)' fill-opacity = '0.250000' points = '453.1,401.2 453.1,662.4 455.0,662.4 455.0,398.7 '/>
		<polygon fill = 'rgb( 31, 120, 180)' fill-opacity = '0.250000' points = '455.0,398.7 455.0,662.4 456.9,662.4 456.9,395.8 '/>
		<polygon fill = 'rgb( 31, 120, 180)' fill-opacity = '0.250000' points = '456.9,395.8 456.9,662.4 458.8,662.4 458.8,392.5 '/>
		<polygon fill = 'rgb( 31, 120, 180)' fill-opacity = '0.250000' points = '458.8,392.5 458.8,662.4 460.7,662.4 460.7,388.7 '/>
		<polygon fill = 'rgb( 31, 120, 180)' fill-opacity = '0.250000' points = '460.7,388.7 460.7,662.4 462.5,662.4 462.5,384.4 '/>
		<polygon fill = 'rgb( 31, 120, 180)' fill-opacity = '0.250000' points = '462.5,384.4 462.5,662.4 464.4,662.4 464.4,379.5 '/>
		<polygon fill = 'rgb( 31, 120, 180)' fill-opacity = '0.250000' points = '464.4,379.5 464.4,662.4 466.3,662.4 466.3,374.1 '/>
		<polygon fill = 'rgb( 31, 120, 180)' fill-opacity = '0.250000' points = '466.3,374.1 466.3,662.4 468.2,662.4 468.2,368.1 '/>
		<polygon fill = 'rgb( 31, 120, 180)' fill-opacity = '0.250000' points = '468.2,368.1 468.2,662.4 470.1,662.4 470.1,361.4 '/>
		<polygon fill = 'rgb( 31, 120, 180)' fill-opacity = '0.250000' points = '470.1,361.4 470.1,662.4 472.0,662.4 472.0,354.2 '/>
		<polygon fill = 'rgb( 31, 120, 180)' fill-opacity = '0.250000' points = '472.0,354.2 472.0,662.4 473.9,662.4 473.9,346.2 '/>
		<polygon fill = 'rgb( 31, 120, 180)' fill-opacity = '0.250000' points = '473.9,346.2 473.9,662.4 475.8,662.4 475.8,337.7 '/>
		<polygon fill = 'rgb( 31, 120, 180)' fill-opacity = '0.250000' points = '475.8,337.7 475.8,662.4 477.6,662.4 477.6,328.6 '/>
		<polygon fill = 'rgb( 31, 120, 180)' fill-opacity = '0.250000' points = '477.6,328.6 477.6,662.4 479.5,662.4 479.5,318.9 '/>
		<polygon fill = 'rgb( 31, 120, 180)' fill-opacity = '0.250000' points = '479.5,318.9 479.5,662.4 481.4,662.4 481.4,308.7 '/>
		<polygon fill = 'rgb( 31, 120, 180)' fill-opacity = '0.250000' points = '481.4,308.7 481.4,662.4 483.3,662.4 483.3,298.0 '/>
		<polygon fill = 'rgb( 31, 120, 180)' fill-opacity = '0.250000' points = '483.3,298.0 483.3,662.4 485.2,662.4 485.2,286.8 '/>
		<polygon fill = 'rgb( 31, 120, 180)' fill-opacity = '0.250000' points = '485.2,286.8 485.2,662.4 487.1,662.4 487.1,275.3 '/>
		<polygon fill = 'rgb( 31, 120, 180)' fill-opacity = '0.250000' points = '487.1,275.3 487.1,662.4 489.0,662.4 489.0,263.5 '/>
		<polygon fill = 'rgb( 31, 120, 180)' fill-opacity = '0.250000' points = '489.0,263.5 489.0,662.4 490.9,662.4 490.9,251.5 '/>
		<polygon fill = 'rgb( 31, 120, 180)' fill-opacity = '0.250000' points = '490.9,251.5 490.9,662.4 492.7,662.4 492.7,239.3 '/>
		<polygon fill = 'rgb( 31, 120, 180)' fill-opacity = '0.250000' points = '492.7,239.3 492.7,662.4 494.6,662.4 494.6,227.2 '/>
		<polygon fill = 'rgb( 31, 120, 180)' fill-opacity = '0.250000' points = '494.6,227.2 494.6,662.4 496.5,662.4 496.5,215.1 '/>
		<polygon fill = 'rgb( 31, 120, 180)' fill-opacity = '0.250000' points = '496.5,215.1 496.5,662.4 498.4,662.4 498.4,203.1 '/>
		<polygon fill = 'rgb( 31, 120, 180)' fill-opacity = '0.250000' points = '498.4,203.1 498.4,662.4 500.3,662.4 500.3,191.4 '/>
		<polygon fill = 'rgb( 31, 120, 180)' fill-opacity = '0.250000' points = '500.3,191.4 500.3,662.4 502.2,662.4 502.2,180.1 '/>
		<polygon fill = 'rgb( 31, 120, 180)' fill-opacity = '0.250000' points = '502.2,180.1 502.2,662.4 504.1,662.4 504.1,169.3 '/>
		<polygon fill = 'rgb( 31, 120, 180)' fill-opacity = '0.250000' points = '504.1,169.3 504.1,662.4 506.0,662.4 506.0,159.0 '/>
		<polygon fill = 'rgb( 31, 120, 180)' fill-opacity = '0.250000' points = '506.0,159.0 506.0,662.4 507.8,662.4 507.8,149.3 '/>
		<polygon fill = 'rgb( 31, 120, 180)' fill-opacity = '0.250000' points = '507.8,149.3 507.8,662.4 509.7,662.4 509.7,140.4 '/>
		<polygon fill = 'rgb( 31, 120, 180)' fill-opacity = '0.250000' points = '509.7,140.4 509.7,662.4 511.6,662.4 511.6,132.2 '/>
		<polygon fill = 'rgb( 31, 120, 180)' fill-opacity = '0.250000' points = '511.6,132.2 511.6,662.4 513.5,662.4 513.5,125.0 '/>
		<polygon fill = 'rgb( 31, 120, 180)' fill-opacity = '0.250000' points = '513.5,125.0 513.5,662.4 515.4,662.4 515.4,118.7 '/>
		<polygon fill = 'rgb( 31, 120, 180)' fill-opacity = '0.250000' points = '515.4,118.7 515.4,662.4 517.3,662.4 517.3,113.3 '/>
		<polygon fill = 'rgb( 31, 120, 180)' fill-opacity = '0.250000' points = '517.3,113.3 517.3,662.4 519.2,662.4 519.2,108.9 '/>
		<polygon fill = 'rgb( 31, 120, 180)' fill-opacity = '0.250000' points = '519.2,108.9 519.2,662.4 521.0,662.4 521.0,105.5 '/>
		<polygon fill = 'rgb( 31, 120, 180)' fill-opacity = '0.250000' points = '521.0,105.5 521.0,662.4 522.9,662.4 522.9,103.1 '/>
		<polygon fill = 'rgb( 31, 120, 180)' fill-opacity = '0.250000' points = '522.9,103.1 522.9,662.4 524.8,662.4 524.8,101.7 '/>
		<polygon fill = 'rgb( 31, 120, 180)' fill-opacity = '0.250000' points = '524.8,101.7 524.8,662.4 526.7,662.4 526.7,101.3 '/>
		<polygon fill = 'rgb( 31, 120, 180)' fill-opacity = '0.250000' points = '526.7,101.3 526.7,662.4 528.6,662.4 528.6,101.7 '/>
		<polygon fill = 'rgb( 31, 120, 180)' fill-opacity = '0.250000' points = '528.6,101.7 528.6,662.4 530.5,662.4 530.5,103.1 '/>
		<polygon fill = 'rgb( 31, 120, 180)' fill-opacity = '0.250000' points = '530.5,103.1 530.5,662.4 532.4,662.4 532.4,105.2 '/>
		<polygon fill = 'rgb( 31, 120, 180)' fill-opacity = '0.250000' points = '532.4,105.2 532.4,662.4 534.3,662.4 534.3,108.0 '/>
		<polygon fill = 'rgb( 31, 120, 180)' fill-opacity = '0.250000' points = '534.3,108.0 534.3,662.4 536.1,662.4 536.1,111.4 '/>
		<polygon fill = 'rgb( 31, 120, 180)' fill-opacity = '0.250000' points = '536.1,111.4 536.1,662.4 538.0,662.4 538.0,115.3 '/>
		<polygon fill = 'rgb( 31, 120, 180)' fill-opacity = '0.250000' points = '538.0,115.3 538.0,662.4 539.9,662.4 539.9,119.7 '/>
		<polygon fill = 'rgb( 31, 120, 180)' fill-opacity = '0.250000' points = '539.9,119.7 539.9,662.4 541.8,662.4 541.8,124.4 '/>
		<polygon fill = 'rgb( 31, 120, 180)' fill-opacity = '0.250000' points = '541.8,124.4 541.8,662.4 543.7,662.4 543.7,129.3 '/>
		<polygon fill = 'rgb( 31, 120, 180)' fill-opacity = '0.250000' points = '543.7,129.3 543.7,662.4 545.6,662.4 545.6,134.2 '/>
		<polygon fill = 'rgb( 31, 120, 180)' fill-opacity = '0.250000' points = '545.6,134.2 545.6,662.4 547.5,662.4 547.5,139.2 '/>
		<polygon fill = 'rgb( 31, 120, 180)' fill-opacity = '0.250000' points = '547.5,139.2 547.5,662.4 549.4,662.4 549.4,144.1 '/>
		<polygon fill = 'rgb( 31, 120, 180)' fill-opacity = '0.250000' points = '549.4,144.1 549.4,662.4 551.2,662.4 551.2,148.9 '/>
		<polygon fill = 'rgb( 31, 120, 180)' fill-opacity = '0.250000' points = '551.2,148.9 551.2,662.4 553.1,662.4 553.1,153.3 '/>
		<polygon fill = 'rgb( 31, 120, 180)' fill-opacity = '0.250000' points = '553.1,153.3 553.1,662.4 555.0,662.4 555.0,157.5 '/>
		<polygon fill = 'rgb( 31, 120, 180)' fill-opacity = '0.250000' points = '555.0,157.5 555.0,662.4 556.9,662.4 556.9,161.3 '/>
		<polygon fill = 'rgb( 31, 120, 180)' fill-opacity = '0.250000' points = '556.9,161.3 556.9,662.4 558.8,662.4 558.8,164.6 '/>
		<polygon fill = 'rgb( 31, 120, 180)' fill-opacity = '0.250000' points = '558.8,164.6 558.8,662.4 560.7,662.4 560.7,167.5 '/>
		<polygon fill = 'rgb( 31, 120, 180)' fill-opacity = '0.250000' points = '560.7,167.5 560.7,662.4 562.6,662.4 562.6,170.0 '/>
		<polygon fill = 'rgb( 31, 120, 180)' fill-opacity = '0.250000' points = '562.6,170.0 562.6,662.4 564.5,662.4 564.5,172.0 '/>
		<polygon fill = 'rgb( 31, 120, 180)' fill-opacity = '0.250000' points = '564.5,172.0 564.5,662.4 566.3,662.4 566.3,173.6 '/>
		<polygon fill = 'rgb( 31, 120, 180)' fill-opacity = '0.250000' points = '566.3,173.6 566.3,662.4 568.2,662.4 568.2,174.7 '/>
		<polygon fill = 'rgb( 31, 120, 180)' fill-opacity = '0.250000' points = '568.2,174.7 568.2,662.4 570.1,662.4 570.1,175.5 '/>
		<polygon fill = 'rgb( 31, 120, 180)' fill-opacity = '0.250000' points = '570.1,175.5 570.1,662.4 572.0,662.4 572.0,175.9 '/>
		<polygon fill = 'rgb( 31, 120, 180)' fill-opacity = '0.250000' points = '572.0,175.9 572.0,662.4 573.9,662.4 573.9,176.1 '/>
		<polygon fill = 'rgb( 31, 120, 180)' fill-opacity = '0.250000' points = '573.9,176.1 573.9,662.4 575.8,662.4 575.8,176.0 '/>
		<polygon fill = 'rgb( 31, 120, 180)' fill-opacity = '0.250000' points = '575.8,176.0 575.8,662.4 577.7,662.4 577.7,175.8 '/>
		<polygon fill = 'rgb( 31, 120, 180)' fill-opacity = '0.250000' points = '577.7,175.8 577.7,662.4 579.5,662.4 579.5,175.5 '/>
		<polygon fill = 'rgb( 31, 120, 180)' fill-opacity = '0.250000' points = '579.5,175.5 579.5,662.4 581.4,662.4 581.4,175.3 '/>
		<polygon fill = 'rgb( 31, 120, 180)' fill-opacity = '0.250000' points = '581.4,175.3 581.4,662.4 583.3,662.4 583.3,175.1 '/>
		<polygon fill = 'rgb( 31, 120, 180)' fill-opacity = '0.250000' points = '583.3,175.1 583.3,662.4 585.2,662.4 585.2,175.0 '/>
		<polygon fill = 'rgb( 31, 120, 180)' fill-opacity = '0.250000' points = '585.2,175.0 585.2,662.4 587.1,662.4 587.1,175.2 '/>
		<polygon fill = 'rgb( 31, 120, 180)' fill-opacity = '0.250000' points = '587.1,175.2 587.1,662.4 589.0,662.4 589.0,175.6 '/>
		<polygon fill = 'rgb( 31, 120, 180)' fill-opacity = '0.250000' points = '589.0,175.6 589.0,662.4 590.9,662.4 590.9,176.4 '/>
		<polygon fill = 'rgb( 31, 120, 180)' fill-opacity = '0.250000' points = '590.9,176.4 590.9,662.4 592.8,662.4 592.8,177.6 '/>
		<polygon fill = 'rgb( 31, 120, 180)' fill-opacity = '0.250000' points = '592.8,177.6 592.8,662.4 594.6,662.4 594.6,179.2 '/>
		<polygon fill = 'rgb( 31, 120, 180)' fill-opacity = '0.250000' points = '594.6,179.2 594.6,662.4 596.5,662.4 596.5,181.3 '/>
		<polygon fill = 'rgb( 31, 120, 180)' fill-opacity = '0.250000' points = '596.5,181.3 596.5,662.4 598.4,662.4 598.4,183.9 '/>
		<polygon fill = 'rgb( 31, 120, 180)' fill-opacity = '0.250000' points = '598.4,183.9 598.4,662.4 600.3,662.4 600.3,187.0 '/>
		<polygon fill = 'rgb( 31, 120, 180)' fill-opacity = '0.250000' points = '600.3,187.0 600.3,662.4 602.2,662.4 602.2,190.7 '/>
		<polygon fill = 'rgb( 31, 120, 180)' fill-opacity = '0.250000' points = '602.2,190.7 602.2,662.4 604.1,662.4 604.1,194.8 '/>
		<polygon fill = 'rgb( 31, 120, 180)' fill-opacity = '0.250000' points = '604.1,194.8 604.1,662.4 606.0,662.4 606.0,199.5 '/>
		<polygon fill = 'rgb( 31, 120, 180)' fill-opacity = '0.250000' points = '606.0,199.5 606.0,662.4 607.9,662.4 607.9,204.6 '/>
		<polygon fill = 'rgb( 31, 120, 180)' fill-opacity = '0.250000' points = '607.9,204.6 607.9,662.4 609.7,662.4 609.7,210.2 '/>
		<polygon fill = 'rgb( 31, 120, 180)' fill-opacity = '0.250000' points = '609.7,210.2 609.7,662.4 611.6,662.4 611.6,216.2 '/>
		<polygon fill = 'rgb( 31, 120, 180)' fill-opacity = '0.250000' points = '611.6,216.2 611.6,662.4 613.5,662.4 613.5,222.6 '/>
		<polygon fill = 'rgb( 31, 120, 180)' fill-opacity = '0.250000' points = '613.5,222.6 613.5,662.4 615.4,662.4 615.4,229.3 '/>
		<polygon fill = 'rgb( 31, 120, 180)' fill-opacity = '0.250000' points = '615.4,229.3 615.4,662.4 617.3,662.4 617.3,236.3 '/>
		<polygon fill = 'rgb( 31, 120, 180)' fill-opacity = '0.250000' points = '617.3,236.3 617.3,662.4 619.2,662.4 619.2,243.5 '/>
		<polygon fill = 'rgb( 31, 120, 180)' fill-opacity = '0.250000' points = '619.2,243.5 619.2,662.4 621.1,662.4 621.1,250.8 '/>
		<polygon fill = 'rgb( 31, 120, 180)' fill-opacity = '0.250000' points = '621.1,250.8 621.1,662.4 623.0,662.4 623.0,258.2 '/>
		<polygon fill = 'rgb( 31, 120, 180)' fill-opacity = '0.250000' points = '623.0,258.2 623.0,662.4 624.8,662.4 624.8,265.7 '/>
		<polygon fill = 'rgb( 31, 120, 180)' fill-opacity = '0.250000' points = '624.8,265.7 624.8,662.4 626.7,662.4 626.7,273.1 '/>
		<polygon fill = 'rgb( 31, 120, 180)' fill-opacity = '0.250000' points = '626.7,273.1 626.7,662.4 628.6,662.4 628.6,280.4 '/>
		<polygon fill = 'rgb( 31, 120, 180)' fill-opacity = '0.250000' points = '628.6,280.4 628.6,662.4 630.5,662.4 630.5,287.5 '/>
		<polygon fill = 'rgb( 31, 120, 180)' fill-opacity = '0.250000' points = '630.5,287.5 630.5,662.4 632.4,662.4 632.4,294.4 '/>
		<polygon fill = 'rgb( 31, 120, 180)' fill-opacity = '0.250000' points = '632.4,294.4 632.4,662.4 634.3,662.4 634.3,301.1 '/>
		<polygon fill = 'rgb( 31, 120, 180)' fill-opacity = '0.250000' points = '634.3,301.1 634.3,662.4 636.2,662.4 636.2,307.5 '/>
		<polygon fill = 'rgb( 31, 120, 180)' fill-opacity = '0.250000' points = '636.2,307.5 636.2,662.4 638.1,662.4 638.1,313.5 '/>
		<polygon fill = 'rgb( 31, 120, 180)' fill-opacity = '0.250000' points = '638.1,313.5 638.1,662.4 639.9,662.4 639.9,319.2 '/>
		<polygon fill = 'rgb( 31, 120, 180)' fill-opacity = '0.250000' points = '639.9,319.2 639.9,662.4 641.8,662.4 641.8,324.4 '/>
		<polygon fill = 'rgb( 31, 120, 180)' fill-opacity = '0.250000' points = '641.8,324.4 641.8,662.4 643.7,662.4 643.7,329.3 '/>
		<polygon fill = 'rgb( 31, 120, 180)' fill-opacity = '0.250000' points = '643.7,329.3 643.7,662.4 645.6,662.4 645.6,333.7 '/>
		<polygon fill = 'rgb( 31, 120, 180)' fill-opacity = '0.250000' points = '645.6,333.7 645.6,662.4 647.5,662.4 647.5,337.7 '/>
		<polygon fill = 'rgb( 31, 120, 180)' fill-opacity = '0.250000' points = '647.5,337.7 647.5,662.4 649.4,662.4 649.4,341.3 '/>
		<polygon fill = 'rgb( 31, 120, 180)' fill-opacity = '0.250000' points = '649.4,341.3 649.4,662.4 651.3,662.4 651.3,344.4 '/>
		<polygon fill = 'rgb( 31, 120, 180)' fill-opacity = '0.250000' points = '651.3,344.4 651.3,662.4 653.1,662.4 653.1,347.1 '/>
		<polygon fill = 'rgb( 31, 120, 180)' fill-opacity = '0.250000' points = '653.1,347.1 653.1,662.4 655.0,662.4 655.0,349.4 '/>
		<polygon fill = 'rgb( 31, 120, 180)' fill-opacity = '0.250000' points = '655.0,349.4 655.0,662.4 656.9,662.4 656.9,351.3 '/>
		<polygon fill = 'rgb( 31, 120, 180)' fill-opacity = '0.250000' points = '656.9,351.3 656.9,662.4 658.8,662.4 658.8,352.8 '/>
		<polygon fill = 'rgb( 31, 120, 180)' fill-opacity = '0.250000' points = '658.8,352.8 658.8,662.4 660.7,662.4 660.7,354.0 '/>
		<polygon fill = 'rgb( 31, 120, 180)' fill-opacity = '0.250000' points = '660.7,354.0 660.7,662.4 662.6,662.4 662.6,354.9 '/>
		<polygon fill = 'rgb( 31, 120, 180)' fill-opacity = '0.250000' points = '662.6,354.9 662.6,662.4 664.5,662.4 664.5,355.4 '/>
		<polygon fill = 'rgb( 31, 120, 180)' fill-opacity = '0.250000' points = '664.5,355.4 664.5,662.4 666.4,662.4 666.4,355.6 '/>
		<polygon fill = 'rgb( 31, 120, 180)' fill-opacity = '0.250000' points = '666.4,355.6 666.4,662.4 668.2,662.4 668.2,355.6 '/>
		<polygon fill = 'rgb( 31, 120, 180)' fill-opacity = '0.250000' points = '668.2,355.6 668.2,662.4 670.1,662.4 670.1,355.3 '/>
		<polygon fill = 'rgb( 31, 120, 180)' fill-opacity = '0.250000' points = '670.1,355.3 670.1,662.4 672.0,662.4 672.0,354.7 '/>
		<polygon fill = 'rgb( 31, 120, 180)' fill-opacity = '0.250000' points = '672.0,354.7 672.0,662.4 673.9,662.4 673.9,353.9 '/>
		<polygon fill = 'rgb( 31, 120, 180)' fill-opacity = '0.250000' points = '673.9,353.9 673.9,662.4 675.8,662.4 675.8,353.0 '/>
		<polygon fill = 'rgb( 31, 120, 180)' fill-opacity = '0.250000' points = '675.8,353.0 675.8,662.4 677.7,662.4 677.7,351.8 '/>
		<polygon fill = 'rgb( 31, 120, 180)' fill-opacity = '0.250000' points = '677.7,351.8 677.7,662.4 679.6,662.4 679.6,350.4 '/>
		<polygon fill = 'rgb( 31, 120, 180)' fill-opacity = '0.250000' points = '679.6,350.4 679.6,662.4 681.5,662.4 681.5,348.9 '/>
		<polygon fill = 'rgb( 31, 120, 180)' fill-opacity = '0.250000' points = '681.5,348.9 681.5,662.4 683.3,662.4 683.3,347.2 '/>
		<polygon fill = 'rgb( 31, 120, 180)' fill-opacity = '0.250000' points = '683.3,347.2 683.3,662.4 685.2,662.4 685.2,345.3 '/>
		<polygon fill = 'rgb( 31, 120, 180)' fill-opacity = '0.250000' points = '685.2,345.3 685.2,662.4 687.1,662.4 687.1,343.3 '/>
		<polygon fill = 'rgb( 31, 120, 180)' fill-opacity = '0.250000' points = '687.1,343.3 687.1,662.4 689.0,662.4 689.0,341.1 '/>
		<polygon fill = 'rgb( 31, 120, 180)' fill-opacity = '0.250000' points = '689.0,341.1 689.0,662.4 690.9,662.4 690.9,338.8 '/>
		<polygon fill = 'rgb( 31, 120, 180)' fill-opacity = '0.250000' points = '690.9,338.8 690.9,662.4 692.8,662.4 692.8,336.3 '/>
		<polygon fill = 'rgb( 31, 120, 180)' fill-opacity = '0.250000' points = '692.8,336.3 692.8,662.4 694.7,662.4 694.7,333.7 '/>
		<polygon fill = 'rgb( 31, 120, 180)' fill-opacity = '0.250000' points = '694.7,333.7 694.7,662.4 696.6,662.4 696.6,331.0 '/>
		<polygon fill = 'rgb( 31, 120, 180)' fill-opacity = '0.250000' points = '696.6,331.0 696.6,662.4 698.4,662.4 698.4,328.2 '/>
		<polygon fill = 'rgb( 31, 120, 180)' fill-opacity = '0.250000' points = '698.4,328.2 698.4,662.4 700.3,662.4 700.3,325.3 '/>
		<polygon fill = 'rgb( 31, 120, 180)' fill-opacity = '0.250000' points = '700.3,325.3 700.3,662.4 702.2,662.4 702.2,322.4 '/>
		<polygon fill = 'rgb( 31, 120, 180)' fill-opacity = '0.250000' points = '702.2,322.4 702.2,662.4 704.1,662.4 704.1,319.4 '/>
		<polygon fill = 'rgb( 31, 120, 180)' fill-opacity = '0.250000' points = '704.1,319.4 704.1,662.4 706.0,662.4 706.0,316.3 '/>
		<polygon fill = 'rgb( 31, 120, 180)' fill-opacity = '0.250000' points = '706.0,316.3 706.0,662.4 707.9,662.4 707.9,313.2 '/>
		<polygon fill = 'rgb( 31, 120, 180)' fill-opacity = '0.250000' points = '707.9,313.2 707.9,662.4 709.8,662.4 709.8,310.2 '/>
		<polygon fill = 'rgb( 31, 120, 180)' fill-opacity = '0.250000' points = '709.8,310.2 709.8,662.4 711.7,662.4 711.7,307.2 '/>
		<polygon fill = 'rgb( 31, 120, 180)' fill-opacity = '0.250000' points = '711.7,307.2 711.7,662.4 713.5,662.4 713.5,304.2 '/>
		<polygon fill = 'rgb( 31, 120, 180)' fill-opacity = '0.250000' points = '713.5,304.2 713.5,662.4 715.4,662.4 715.4,301.3 '/>
		<polygon fill = 'rgb( 31, 120, 180)' fill-opacity = '0.250000' points = '715.4,301.3 715.4,662.4 717.3,662.4 717.3,298.6 '/>
		<polygon fill = 'rgb( 31, 120, 180)' fill-opacity = '0.250000' points = '717.3,298.6 717.3,662.4 719.2,662.4 719.2,296.0 '/>
		<polygon fill = 'rgb( 31, 120, 180)' fill-opacity = '0.250000' points = '719.2,296.0 719.2,662.4 721.1,662.4 721.1,293.5 '/>
		<polygon fill = 'rgb( 31, 120, 180)' fill-opacity = '0.250000' points = '721.1,293.5 721.1,662.4 723.0,662.4 723.0,291.3 '/>
		<polygon fill = 'rgb( 31, 120, 180)' fill-opacity = '0.250000' points = '723.0,291.3 723.0,662.4 724.9,662.4 724.9,289.3 '/>
		<polygon fill = 'rgb( 31, 120, 180)' fill-opacity = '0.250000' points = '724.9,289.3 724.9,662.4 726.7,662.4 726.7,287.6 '/>
		<polygon fill = 'rgb( 31, 120, 180)' fill-opacity = '0.250000' points = '726.7,287.6 726.7,662.4 728.6,662.4 728.6,286.1 '/>
		<polygon fill = 'rgb( 31, 120, 180)' fill-opacity = '0.250000' points = '728.6,286.1 728.6,662.4 730.5,662.4 730.5,284.9 '/>
		<polygon fill = 'rgb( 31, 120, 180)' fill-opacity = '0.250000' points = '730.5,284.9 730.5,662.4 732.4,662.4 732.4,284.1 '/>
		<polygon fill = 'rgb( 31, 120, 180)' fill-opacity = '0.250000' points = '732.4,284.1 732.4,662.4 734.3,662.4 734.3,283.6 '/>
		<polygon fill = 'rgb( 31, 120, 180)' fill-opacity = '0.250000' points = '734.3,283.6 734.3,662.4 736.2,662.4 736.2,283.4 '/>
		<polygon fill = 'rgb( 31, 120, 180)' fill-opacity = '0.250000' points = '736.2,283.4 736.2,662.4 738.1,662.4 738.1,283.6 '/>
		<polygon fill = 'rgb( 31, 120, 180)' fill-opacity = '0.250000' points = '738.1,283.6 738.1,662.4 740.0,662.4 740.0,284.1 '/>
		<polygon fill = 'rgb( 31, 120, 180)' fill-opacity = '0.250000' points = '740.0,284.1 740.0,662.4 741.8,662.4 741.8,285.0 '/>
		<polygon fill = 'rgb( 31, 120, 180)' fill-opacity = '0.250000' points = '741.8,285.0 741.8,662.4 743.7,662.4 743.7,286.3 '/>
		<polygon fill = 'rgb( 31, 120, 180)' fill-opacity = '0.250000' points = '743.7,286.3 743.7,662.4 745.6,662.4 745.6,287.9 '/>
		<polygon fill = 'rgb( 31, 120, 180)' fill-opacity = '0.250000' points = '745.6,287.9 745.6,662.4 747.5,662.4 747.5,289.8 '/>
		<polygon fill = 'rgb( 31, 120, 180)' fill-opacity = '0.250000' points = '747.5,289.8 747.5,662.4 749.4,662.4 749.4,292.1 '/>
		<polygon fill = 'rgb( 31, 120, 180)' fill-opacity = '0.250000' points = '749.4,292.1 749.4,662.4 751.3,662.4 751.3,294.8 '/>
		<polygon fill = 'rgb( 31, 120, 180)' fill-opacity = '0.250000' points = '751.3,294.8 751.3,662.4 753.2,662.4 753.2,297.7 '/>
		<polygon fill = 'rgb( 31, 120, 180)' fill-opacity = '0.250000' points = '753.2,297.7 753.2,662.4 755.1,662.4 755.1,300.9 '/>
		<polygon fill = 'rgb( 31, 120, 180)' fill-opacity = '0.250000' points = '755.1,300.9 755.1,662.4 756.9,662.4 756.9,304.4 '/>
		<polygon fill = 'rgb( 31, 120, 180)' fill-opacity = '0.250000' points = '756.9,304.4 756.9,662.4 758.8,662.4 758.8,308.2 '/>
		<polygon fill = 'rgb( 31, 120, 180)' fill-opacity = '0.250000' points = '758.8,308.2 758.8,662.4 760.7,662.4 760.7,312.1 '/>
		<polygon fill = 'rgb( 31, 120, 180)' fill-opacity = '0.250000' points = '760.7,312.1 760.7,662.4 762.6,662.4 762.6,316.3 '/>
		<polygon fill = 'rgb( 31, 120, 180)' fill-opacity = '0.250000' points = '762.6,316.3 762.6,662.4 764.5,662.4 764.5,320.7 '/>
		<polygon fill = 'rgb( 31, 120, 180)' fill-opacity = '0.250000' points = '764.5,320.7 764.5,662.4 766.4,662.4 766.4,325.3 '/>
		<polygon fill = 'rgb( 31, 120, 180)' fill-opacity = '0.250000' points = '766.4,325.3 766.4,662.4 768.3,662.4 768.3,330.0 '/>
		<polygon fill = 'rgb( 31, 120, 180)' fill-opacity = '0.250000' points = '768.3,330.0 768.3,662.4 770.2,662.4 770.2,334.8 '/>
		<polygon fill = 'rgb( 31, 120, 180)' fill-opacity = '0.250000' points = '770.2,334.8 770.2,662.4 772.0,662.4 772.0,339.7 '/>
		<polygon fill = 'rgb( 31, 120, 180)' fill-opacity = '0.250000' points = '772.0,339.7 772.0,662.4 773.9,662.4 773.9,344.8 '/>
		<polygon fill = 'rgb( 31, 120, 180)' fill-opacity = '0.250000' points = '773.9,344.8 773.9,662.4 775.8,662.4 775.8,349.9 '/>
		<polygon fill = 'rgb( 31, 120, 180)' fill-opacity = '0.250000' points = '775.8,349.9 775.8,662.4 777.7,662.4 777.7,355.0 '/>
		<polygon fill = 'rgb( 31, 120, 180)' fill-opacity = '0.250000' points = '777.7,355.0 777.7,662.4 779.6,662.4 779.6,360.2 '/>
		<polygon fill = 'rgb( 31, 120, 180)' fill-opacity = '0.250000' points = '779.6,360.2 779.6,662.4 781.5,662.4 781.5,365.4 '/>
		<polygon fill = 'rgb( 31, 120, 180)' fill-opacity = '0.250000' points = '781.5,365.4 781.5,662.4 783.4,662.4 783.4,370.6 '/>
		<polygon fill = 'rgb( 31, 120, 180)' fill-opacity = '0.250000' points = '783.4,370.6 783.4,662.4 785.3,662.4 785.3,375.8 '/>
		<polygon fill = 'rgb( 31, 120, 180)' fill-opacity = '0.250000' points = '785.3,375.8 785.3,662.4 787.1,662.4 787.1,380.9 '/>
		<polygon fill = 'rgb( 31, 120, 180)' fill-opacity = '0.250000' points = '787.1,380.9 787.1,662.4 789.0,662.4 789.0,386.1 '/>
		<polygon fill = 'rgb( 31, 120, 180)' fill-opacity = '0.250000' points = '789.0,386.1 789.0,662.4 790.9,662.4 790.9,391.2 '/>
		<polygon fill = 'rgb( 31, 120, 180)' fill-opacity = '0.250000' points = '790.9,391.2 790.9,662.4 792.8,662.4 792.8,396.2 '/>
		<polygon fill = 'rgb( 31, 120, 180)' fill-opacity = '0.250000' points = '792.8,396.2 792.8,662.4 794.7,662.4 794.7,401.2 '/>
		<polygon fill = 'rgb( 31, 120, 180)' fill-opacity = '0.250000' points = '794.7,401.2 794.7,662.4 796.6,662.4 796.6,406.2 '/>
		<polygon fill = 'rgb( 31, 120, 180)' fill-opacity = '0.250000' points = '796.6,406.2 796.6,662.4 798.5,662.4 798.5,411.0 '/>
		<polygon fill = 'rgb( 31, 120, 180)' fill-opacity = '0.250000' points = '798.5,411.0 798.5,662.4 800.3,662.4 800.3,415.8 '/>
		<polygon fill = 'rgb( 31, 120, 180)' fill-opacity = '0.250000' points = '800.3,415.8 800.3,662.4 802.2,662.4 802.2,420.5 '/>
		<polygon fill = 'rgb( 31, 120, 180)' fill-opacity = '0.250000' points = '802.2,420.5 802.2,662.4 804.1,662.4 804.1,425.2 '/>
		<polygon fill = 'rgb( 31, 120, 180)' fill-opacity = '0.250000' points = '804.1,425.2 804.1,662.4 806.0,662.4 806.0,429.7 '/>
		<polygon fill = 'rgb( 31, 120, 180)' fill-opacity = '0.250000' points = '806.0,429.7 806.0,662.4 807.9,662.4 807.9,434.2 '/>
		<polygon fill = 'rgb( 31, 120, 180)' fill-opacity = '0.250000' points = '807.9,434.2 807.9,662.4 809.8,662.4 809.8,438.5 '/>
		<polygon fill = 'rgb( 31, 120, 180)' fill-opacity = '0.250000' points = '809.8,438.5 809.8,662.4 811.7,662.4 811.7,442.8 '/>
		<polygon fill = 'rgb( 31, 120, 180)' fill-opacity = '0.250000' points = '811.7,442.8 811.7,662.4 813.6,662.4 813.6,447.0 '/>
		<polygon fill = 'rgb( 31, 120, 180)' fill-opacity = '0.250000' points = '813.6,447.0 813.6,662.4 815.4,662.4 815.4,451.0 '/>
		<polygon fill = 'rgb( 31, 120, 180)' fill-opacity = '0.250000' points = '815.4,451.0 815.4,662.4 817.3,662.4 817.3,455.0 '/>
		<polygon fill = 'rgb( 31, 120, 180)' fill-opacity = '0.250000' points = '817.3,455.0 817.3,662.4 819.2,662.4 819.2,458.8 '/>
		<polygon fill = 'rgb( 31, 120, 180)' fill-opacity = '0.250000' points = '819.2,458.8 819.2,662.4 821.1,662.4 821.1,462.6 '/>
		<polygon fill = 'rgb( 31, 120, 180)' fill-opacity = '0.250000' points = '821.1,462.6 821.1,662.4 823.0,662.4 823.0,466.2 '/>
		<polygon fill = 'rgb( 31, 120, 180)' fill-opacity = '0.250000' points = '823.0,466.2 823.0,662.4 824.9,662.4 824.9,469.7 '/>
		<polygon fill = 'rgb( 31, 120, 180)' fill-opacity = '0.250000' points = '824.9,469.7 824.9,662.4 826.8,662.4 826.8,473.1 '/>
		<polygon fill = 'rgb( 31, 120, 180)' fill-opacity = '0.250000' points = '826.8,473.1 826.8,662.4 828.7,662.4 828.7,476.4 '/>
		<polygon fill = 'rgb( 31, 120, 180)' fill-opacity = '0.250000' points = '828.7,476.4 828.7,662.4 830.5,662.4 830.5,479.5 '/>
		<polygon fill = 'rgb( 31, 120, 180)' fill-opacity = '0.250000' points = '830.5,479.5 830.5,662.4 832.4,662.4 832.4,482.5 '/>
		<polygon fill = 'rgb( 31, 120, 180)' fill-opacity = '0.250000' points = '832.4,482.5 832.4,662.4 834.3,662.4 834.3,485.4 '/>
		<polygon fill = 'rgb( 31, 120, 180)' fill-opacity = '0.250000' points = '834.3,485.4 834.3,662.4 836.2,662.4 836.2,488.1 '/>
		<polygon fill = 'rgb( 31, 120, 180)' fill-opacity = '0.250000' points = '836.2,488.1 836.2,662.4 838.1,662.4 838.1,490.7 '/>
		<polygon fill = 'rgb( 31, 120, 180)' fill-opacity = '0.250000' points = '838.1,490.7 838.1,662.4 840.0,662.4 840.0,493.1 '/>
		<polygon fill = 'rgb( 31, 120, 180)' fill-opacity = '0.250000' points = '840.0,493.1 840.0,662.4 841.9,662.4 841.9,495.4 '/>
		<polygon fill = 'rgb( 31, 120, 180)' fill-opacity = '0.250000' points = '841.9,495.4 841.9,662.4 843.8,662.4 843.8,497.6 '/>
		<polygon fill = 'rgb( 31, 120, 180)' fill-opacity = '0.250000' points = '843.8,497.6 843.8,662.4 845.6,662.4 845.6,499.7 '/>
		<polygon fill = 'rgb( 31, 120, 180)' fill-opacity = '0.250000' points = '845.6,499.7 845.6,662.4 847.5,662.4 847.5,501.6 '/>
		<polygon fill = 'rgb( 31, 120, 180)' fill-opacity = '0.250000' points = '847.5,501.6 847.5,662.4 849.4,662.4 849.4,503.4 '/>
		<polygon fill = 'rgb( 31, 120, 180)' fill-opacity = '0.250000' points = '849.4,503.4 849.4,662.4 851.3,662.4 851.3,505.0 '/>
		<polygon fill = 'rgb( 31, 120, 180)' fill-opacity = '0.250000' points = '851.3,505.0 851.3,662.4 853.2,662.4 853.2,506.6 '/>
		<polygon fill = 'rgb( 31, 120, 180)' fill-opacity = '0.250000' points = '853.2,506.6 853.2,662.4 855.1,662.4 855.1,508.1 '/>
		<polygon fill = 'rgb( 31, 120, 180)' fill-opacity = '0.250000' points = '855.1,508.1 855.1,662.4 857.0,662.4 857.0,509.4 '/>
		<polygon fill = 'rgb( 31, 120, 180)' fill-opacity = '0.250000' points = '857.0,509.4 857.0,662.4 858.9,662.4 858.9,510.7 '/>
		<polygon fill = 'rgb( 31, 120, 180)' fill-opacity = '0.250000' points = '858.9,510.7 858.9,662.4 860.7,662.4 860.7,511.9 '/>
		<polygon fill = 'rgb( 31, 120, 180)' fill-opacity = '0.250000' points = '860.7,511.9 860.7,662.4 862.6,662.4 862.6,513.0 '/>
		<polygon fill = 'rgb( 31, 120, 180)' fill-opacity = '0.250000' points = '862.6,513.0 862.6,662.4 864.5,662.4 864.5,514.1 '/>
		<polygon fill = 'rgb( 31, 120, 180)' fill-opacity = '0.250000' points = '864.5,514.1 864.5,662.4 866.4,662.4 866.4,515.2 '/>
		<polygon fill = 'rgb( 31, 120, 180)' fill-opacity = '0.250000' points = '866.4,515.2 866.4,662.4 868.3,662.4 868.3,516.2 '/>
		<polygon fill = 'rgb( 31, 120, 180)' fill-opacity = '0.250000' points = '868.3,516.2 868.3,662.4 870.2,662.4 870.2,517.1 '/>
		<polygon fill = 'rgb( 31, 120, 180)' fill-opacity = '0.250000' points = '870.2,517.1 870.2,662.4 872.1,662.4 872.1,518.1 '/>
		<polygon fill = 'rgb( 31, 120, 180)' fill-opacity = '0.250000' points = '872.1,518.1 872.1,662.4 873.9,662.4 873.9,519.1 '/>
		<polygon fill = 'rgb( 31, 120, 180)' fill-opacity = '0.250000' points = '873.9,519.1 873.9,662.4 875.8,662.4 875.8,520.0 '/>
		<polygon fill = 'rgb( 31, 120, 180)' fill-opacity = '0.250000' points = '875.8,520.0 875.8,662.4 877.7,662.4 877.7,521.0 '/>
		<polygon fill = 'rgb( 31, 120, 180)' fill-opacity = '0.250000' points = '877.7,521.0 877.7,662.4 879.6,662.4 879.6,522.0 '/>
		<polygon fill = 'rgb( 31, 120, 180)' fill-opacity = '0.250000' points = '879.6,522.0 879.6,662.4 881.5,662.4 881.5,523.1 '/>
		<polygon fill = 'rgb( 31, 120, 180)' fill-opacity = '0.250000' points = '881.5,523.1 881.5,662.4 883.4,662.4 883.4,524.1 '/>
		<polygon fill = 'rgb( 31, 120, 180)' fill-opacity = '0.250000' points = '883.4,524.1 883.4,662.4 885.3,662.4 885.3,525.3 '/>
		<polygon fill = 'rgb( 31, 120, 180)' fill-opacity = '0.250000' points = '885.3,525.3 885.3,662.4 887.2,662.4 887.2,526.5 '/>
		<polygon fill = 'rgb( 31, 120, 180)' fill-opacity = '0.250000' points = '887.2,526.5 887.2,662.4 889.0,662.4 889.0,527.7 '/>
		<polygon fill = 'rgb( 31, 120, 180)' fill-opacity = '0.250000' points = '889.0,527.7 889.0,662.4 890.9,662.4 890.9,529.0 '/>
		<polygon fill = 'rgb( 31, 120, 180)' fill-opacity = '0.250000' points = '890.9,529.0 890.9,662.4 892.8,662.4 892.8,530.4 '/>
		<polygon fill = 'rgb( 31, 120, 180)' fill-opacity = '0.250000' points = '892.8,530.4 892.8,662.4 894.7,662.4 894.7,531.8 '/>
		<polygon fill = 'rgb( 31, 120, 180)' fill-opacity = '0.250000' points = '894.7,531.8 894.7,662.4 896.6,662.4 896.6,533.3 '/>
		<polygon fill = 'rgb( 31, 120, 180)' fill-opacity = '0.250000' points = '896.6,533.3 896.6,662.4 898.5,662.4 898.5,534.9 '/>
		<polygon fill = 'rgb( 31, 120, 180)' fill-opacity = '0.250000' points = '898.5,534.9 898.5,662.4 900.4,662.4 900.4,536.6 '/>
		<polygon fill = 'rgb( 31, 120, 180)' fill-opacity = '0.250000' points = '900.4,536.6 900.4,662.4 902.3,662.4 902.3,538.3 '/>
		<polygon fill = 'rgb( 31, 120, 180)' fill-opacity = '0.250000' points = '902.3,538.3 902.3,662.4 904.1,662.4 904.1,540.1 '/>
		<polygon fill = 'rgb( 31, 120, 180)' fill-opacity = '0.250000' points = '904.1,540.1 904.1,662.4 906.0,662.4 906.0,541.9 '/>
		<polygon fill = 'rgb( 31, 120, 180)' fill-opacity = '0.250000' points = '906.0,541.9 906.0,662.4 907.9,662.4 907.9,543.9 '/>
		<polygon fill = 'rgb( 31, 120, 180)' fill-opacity = '0.250000' points = '907.9,543.9 907.9,662.4 909.8,662.4 909.8,545.8 '/>
		<polygon fill = 'rgb( 31, 120, 180)' fill-opacity = '0.250000' points = '909.8,545.8 909.8,662.4 911.7,662.4 911.7,547.9 '/>
		<polygon fill = 'rgb( 31, 120, 180)' fill-opacity = '0.250000' points = '911.7,547.9 911.7,662.4 913.6,662.4 913.6,550.0 '/>
		<polygon fill = 'rgb( 31, 120, 180)' fill-opacity = '0.250000' points = '913.6,550.0 913.6,662.4 915.5,662.4 915.5,552.1 '/>
		<polygon fill = 'rgb( 31, 120, 180)' fill-opacity = '0.250000' points = '915.5,552.1 915.5,662.4 917.4,662.4 917.4,554.3 '/>
		<polygon fill = 'rgb( 31, 120, 180)' fill-opacity = '0.250000' points = '917.4,554.3 917.4,662.4 919.2,662.4 919.2,556.5 '/>
		<polygon fill = 'rgb( 31, 120, 180)' fill-opacity = '0.250000' points = '919.2,556.5 919.2,662.4 921.1,662.4 921.1,558.7 '/>
		<polygon fill = 'rgb( 31, 120, 180)' fill-opacity = '0.250000' points = '921.1,558.7 921.1,662.4 923.0,662.4 923.0,561.0 '/>
		<polygon fill = 'rgb( 31, 120, 180)' fill-opacity = '0.250000' points = '923.0,561.0 923.0,662.4 924.9,662.4 924.9,563.2 '/>
	</g>
</g>
	</g>
	<g id="gnuplot_plot_3" ><title>Point estimate</title>
<g fill="none" color="white" stroke="rgb( 31, 120, 180)" stroke-width="2.00" stroke-linecap="butt" stroke-linejoin="miter">
</g>
<g fill="none" color="black" stroke="currentColor" stroke-width="2.00" stroke-linecap="butt" stroke-linejoin="miter">
	<g transform="translate(1089.0,103.0)" stroke="none" fill="black" font-family="Helvetica" font-size="12.00"  text-anchor="start">
		<text><tspan font-family="Helvetica" >Point estimate</tspan></text>
	</g>
</g>
<g fill="none" color="black" stroke="currentColor" stroke-width="2.00" stroke-linecap="butt" stroke-linejoin="miter">
	<path stroke='rgb( 31, 120, 180)'  d='M1038.5,99.1 L1080.7,99.1 M585.7,662.4 L585.7,175.1  '/></g>
	</g>
<g fill="none" color="black" stroke="currentColor" stroke-width="2.00" stroke-linecap="butt" stroke-linejoin="miter">
</g>
<g fill="none" color="black" stroke="black" stroke-width="1.00" stroke-linecap="butt" stroke-linejoin="miter">
</g>
<g fill="none" color="black" stroke="currentColor" stroke-width="1.00" stroke-linecap="butt" stroke-linejoin="miter">
	<path stroke='black'  d='M71.9,54.1 L71.9,662.4 L1013.6,662.4 L1013.6,54.1 L71.9,54.1 Z  '/></g>
<g fill="none" color="black" stroke="currentColor" stroke-width="1.00" stroke-linecap="butt" stroke-linejoin="miter">
</g>
</g>
</svg>

