<?xml version="1.0" encoding="utf-8"  standalone="no"?>
<svg 
 viewBox="0 0 1280 720"
 xmlns="http://www.w3.org/2000/svg"
 xmlns:xlink="http://www.w3.org/1999/xlink"
>

<title>Gnuplot</title>
<desc>Produced by GNUPLOT 5.0 patchlevel 6 </desc>

<g id="gnuplot_canvas">

<rect x="0" y="0" width="1280" height="720" fill="none"/>
<defs>

	<circle id='gpDot' r='0.5' stroke-width='0.5'/>
	<path id='gpPt0' stroke-width='0.222' stroke='currentColor' d='M-1,0 h2 M0,-1 v2'/>
	<path id='gpPt1' stroke-width='0.222' stroke='currentColor' d='M-1,-1 L1,1 M1,-1 L-1,1'/>
	<path id='gpPt2' stroke-width='0.222' stroke='currentColor' d='M-1,0 L1,0 M0,-1 L0,1 M-1,-1 L1,1 M-1,1 L1,-1'/>
	<rect id='gpPt3' stroke-width='0.222' stroke='currentColor' x='-1' y='-1' width='2' height='2'/>
	<rect id='gpPt4' stroke-width='0.222' stroke='currentColor' fill='currentColor' x='-1' y='-1' width='2' height='2'/>
	<circle id='gpPt5' stroke-width='0.222' stroke='currentColor' cx='0' cy='0' r='1'/>
	<use xlink:href='#gpPt5' id='gpPt6' fill='currentColor' stroke='none'/>
	<path id='gpPt7' stroke-width='0.222' stroke='currentColor' d='M0,-1.33 L-1.33,0.67 L1.33,0.67 z'/>
	<use xlink:href='#gpPt7' id='gpPt8' fill='currentColor' stroke='none'/>
	<use xlink:href='#gpPt7' id='gpPt9' stroke='currentColor' transform='rotate(180)'/>
	<use xlink:href='#gpPt9' id='gpPt10' fill='currentColor' stroke='none'/>
	<use xlink:href='#gpPt3' id='gpPt11' stroke='currentColor' transform='rotate(45)'/>
	<use xlink:href='#gpPt11' id='gpPt12' fill='currentColor' stroke='none'/>
	<path id='gpPt13' stroke-width='0.222' stroke='currentColor' d='M0,1.330 L1.265,0.411 L0.782,-1.067 L-0.782,-1.076 L-1.265,0.411 z'/>
	<use xlink:href='#gpPt13' id='gpPt14' fill='currentColor' stroke='none'/>
	<filter id='textbox' filterUnits='objectBoundingBox' x='0' y='0' height='1' width='1'>
	  <feFlood flood-color='white' flood-opacity='1' result='bgnd'/>
	  <feComposite in='SourceGraphic' in2='bgnd' operator='atop'/>
	</filter>
	<filter id='greybox' filterUnits='objectBoundingBox' x='0' y='0' height='1' width='1'>
	  <feFlood flood-color='lightgrey' flood-opacity='1' result='grey'/>
	  <feComposite in='SourceGraphic' in2='grey' operator='atop'/>
	</filter>
</defs>
<g fill="none" color="white" stroke="currentColor" stroke-width="1.00" stroke-linecap="butt" stroke-linejoin="miter">
</g>
<g fill="none" color="black" stroke="currentColor" stroke-width="1.00" stroke-linecap="butt" stroke-linejoin="miter">
	<path stroke='black'  d='M63.6,662.4 L72.6,662.4  '/>	<g transform="translate(55.3,666.3)" stroke="none" fill="black" font-family="Helvetica" font-size="12.00"  text-anchor="end">
		<text><tspan font-family="Helvetica" > 0</tspan></text>
	</g>
</g>
<g fill="none" color="black" stroke="currentColor" stroke-width="1.00" stroke-linecap="butt" stroke-linejoin="miter">
	<path stroke='black'  d='M63.6,601.6 L72.6,601.6  '/>	<g transform="translate(55.3,605.5)" stroke="none" fill="black" font-family="Helvetica" font-size="12.00"  text-anchor="end">
		<text><tspan font-family="Helvetica" > 2</tspan></text>
	</g>
</g>
<g fill="none" color="black" stroke="currentColor" stroke-width="1.00" stroke-linecap="butt" stroke-linejoin="miter">
	<path stroke='black'  d='M63.6,540.7 L72.6,540.7  '/>	<g transform="translate(55.3,544.6)" stroke="none" fill="black" font-family="Helvetica" font-size="12.00"  text-anchor="end">
		<text><tspan font-family="Helvetica" > 4</tspan></text>
	</g>
</g>
<g fill="none" color="black" stroke="currentColor" stroke-width="1.00" stroke-linecap="butt" stroke-linejoin="miter">
	<path stroke='black'  d='M63.6,479.9 L72.6,479.9  '/>	<g transform="translate(55.3,483.8)" stroke="none" fill="black" font-family="Helvetica" font-size="12.00"  text-anchor="end">
		<text><tspan font-family="Helvetica" > 6</tspan></text>
	</g>
</g>
<g fill="none" color="black" stroke="currentColor" stroke-width="1.00" stroke-linecap="butt" stroke-linejoin="miter">
	<path stroke='black'  d='M63.6,419.1 L72.6,419.1  '/>	<g transform="translate(55.3,423.0)" stroke="none" fill="black" font-family="Helvetica" font-size="12.00"  text-anchor="end">
		<text><tspan font-family="Helvetica" > 8</tspan></text>
	</g>
</g>
<g fill="none" color="black" stroke="currentColor" stroke-width="1.00" stroke-linecap="butt" stroke-linejoin="miter">
	<path stroke='black'  d='M63.6,358.2 L72.6,358.2  '/>	<g transform="translate(55.3,362.1)" stroke="none" fill="black" font-family="Helvetica" font-size="12.00"  text-anchor="end">
		<text><tspan font-family="Helvetica" > 10</tspan></text>
	</g>
</g>
<g fill="none" color="black" stroke="currentColor" stroke-width="1.00" stroke-linecap="butt" stroke-linejoin="miter">
	<path stroke='black'  d='M63.6,297.4 L72.6,297.4  '/>	<g transform="translate(55.3,301.3)" stroke="none" fill="black" font-family="Helvetica" font-size="12.00"  text-anchor="end">
		<text><tspan font-family="Helvetica" > 12</tspan></text>
	</g>
</g>
<g fill="none" color="black" stroke="currentColor" stroke-width="1.00" stroke-linecap="butt" stroke-linejoin="miter">
	<path stroke='black'  d='M63.6,236.6 L72.6,236.6  '/>	<g transform="translate(55.3,240.5)" stroke="none" fill="black" font-family="Helvetica" font-size="12.00"  text-anchor="end">
		<text><tspan font-family="Helvetica" > 14</tspan></text>
	</g>
</g>
<g fill="none" color="black" stroke="currentColor" stroke-width="1.00" stroke-linecap="butt" stroke-linejoin="miter">
	<path stroke='black'  d='M63.6,175.8 L72.6,175.8  '/>	<g transform="translate(55.3,179.7)" stroke="none" fill="black" font-family="Helvetica" font-size="12.00"  text-anchor="end">
		<text><tspan font-family="Helvetica" > 16</tspan></text>
	</g>
</g>
<g fill="none" color="black" stroke="currentColor" stroke-width="1.00" stroke-linecap="butt" stroke-linejoin="miter">
	<path stroke='black'  d='M63.6,114.9 L72.6,114.9  '/>	<g transform="translate(55.3,118.8)" stroke="none" fill="black" font-family="Helvetica" font-size="12.00"  text-anchor="end">
		<text><tspan font-family="Helvetica" > 18</tspan></text>
	</g>
</g>
<g fill="none" color="black" stroke="currentColor" stroke-width="1.00" stroke-linecap="butt" stroke-linejoin="miter">
	<path stroke='black'  d='M63.6,54.1 L72.6,54.1  '/>	<g transform="translate(55.3,58.0)" stroke="none" fill="black" font-family="Helvetica" font-size="12.00"  text-anchor="end">
		<text><tspan font-family="Helvetica" > 20</tspan></text>
	</g>
</g>
<g fill="none" color="black" stroke="currentColor" stroke-width="1.00" stroke-linecap="butt" stroke-linejoin="miter">
	<path stroke='black'  d='M143.8,662.4 L143.8,653.4  '/>	<g transform="translate(143.8,684.3)" stroke="none" fill="black" font-family="Helvetica" font-size="12.00"  text-anchor="middle">
		<text><tspan font-family="Helvetica" > 59.77</tspan></text>
	</g>
</g>
<g fill="none" color="black" stroke="currentColor" stroke-width="1.00" stroke-linecap="butt" stroke-linejoin="miter">
	<path stroke='black'  d='M243.2,662.4 L243.2,653.4  '/>	<g transform="translate(243.2,684.3)" stroke="none" fill="black" font-family="Helvetica" font-size="12.00"  text-anchor="middle">
		<text><tspan font-family="Helvetica" > 59.78</tspan></text>
	</g>
</g>
<g fill="none" color="black" stroke="currentColor" stroke-width="1.00" stroke-linecap="butt" stroke-linejoin="miter">
	<path stroke='black'  d='M342.6,662.4 L342.6,653.4  '/>	<g transform="translate(342.6,684.3)" stroke="none" fill="black" font-family="Helvetica" font-size="12.00"  text-anchor="middle">
		<text><tspan font-family="Helvetica" > 59.79</tspan></text>
	</g>
</g>
<g fill="none" color="black" stroke="currentColor" stroke-width="1.00" stroke-linecap="butt" stroke-linejoin="miter">
	<path stroke='black'  d='M441.9,662.4 L441.9,653.4  '/>	<g transform="translate(441.9,684.3)" stroke="none" fill="black" font-family="Helvetica" font-size="12.00"  text-anchor="middle">
		<text><tspan font-family="Helvetica" > 59.8</tspan></text>
	</g>
</g>
<g fill="none" color="black" stroke="currentColor" stroke-width="1.00" stroke-linecap="butt" stroke-linejoin="miter">
	<path stroke='black'  d='M541.3,662.4 L541.3,653.4  '/>	<g transform="translate(541.3,684.3)" stroke="none" fill="black" font-family="Helvetica" font-size="12.00"  text-anchor="middle">
		<text><tspan font-family="Helvetica" > 59.81</tspan></text>
	</g>
</g>
<g fill="none" color="black" stroke="currentColor" stroke-width="1.00" stroke-linecap="butt" stroke-linejoin="miter">
	<path stroke='black'  d='M640.6,662.4 L640.6,653.4  '/>	<g transform="translate(640.6,684.3)" stroke="none" fill="black" font-family="Helvetica" font-size="12.00"  text-anchor="middle">
		<text><tspan font-family="Helvetica" > 59.82</tspan></text>
	</g>
</g>
<g fill="none" color="black" stroke="currentColor" stroke-width="1.00" stroke-linecap="butt" stroke-linejoin="miter">
	<path stroke='black'  d='M740.0,662.4 L740.0,653.4  '/>	<g transform="translate(740.0,684.3)" stroke="none" fill="black" font-family="Helvetica" font-size="12.00"  text-anchor="middle">
		<text><tspan font-family="Helvetica" > 59.83</tspan></text>
	</g>
</g>
<g fill="none" color="black" stroke="currentColor" stroke-width="1.00" stroke-linecap="butt" stroke-linejoin="miter">
	<path stroke='black'  d='M839.3,662.4 L839.3,653.4  '/>	<g transform="translate(839.3,684.3)" stroke="none" fill="black" font-family="Helvetica" font-size="12.00"  text-anchor="middle">
		<text><tspan font-family="Helvetica" > 59.84</tspan></text>
	</g>
</g>
<g fill="none" color="black" stroke="currentColor" stroke-width="1.00" stroke-linecap="butt" stroke-linejoin="miter">
	<path stroke='black'  d='M938.7,662.4 L938.7,653.4  '/>	<g transform="translate(938.7,684.3)" stroke="none" fill="black" font-family="Helvetica" font-size="12.00"  text-anchor="middle">
		<text><tspan font-family="Helvetica" > 59.85</tspan></text>
	</g>
</g>
<g fill="none" color="black" stroke="currentColor" stroke-width="1.00" stroke-linecap="butt" stroke-linejoin="miter">
</g>
<g fill="none" color="black" stroke="currentColor" stroke-width="1.00" stroke-linecap="butt" stroke-linejoin="miter">
	<path stroke='black'  d='M63.6,54.1 L63.6,662.4 L1013.6,662.4 L1013.6,54.1 L63.6,54.1 Z  '/></g>
<g fill="none" color="black" stroke="currentColor" stroke-width="1.00" stroke-linecap="butt" stroke-linejoin="miter">
	<g transform="translate(17.0,358.3) rotate(270)" stroke="none" fill="black" font-family="Helvetica" font-size="12.00"  text-anchor="middle">
		<text><tspan font-family="Helvetica" >Density (a.u.)</tspan></text>
	</g>
</g>
<g fill="none" color="black" stroke="currentColor" stroke-width="1.00" stroke-linecap="butt" stroke-linejoin="miter">
	<g transform="translate(538.6,711.3)" stroke="none" fill="black" font-family="Helvetica" font-size="12.00"  text-anchor="middle">
		<text><tspan font-family="Helvetica" >Average time (ms)</tspan></text>
	</g>
</g>
<g fill="none" color="black" stroke="currentColor" stroke-width="1.00" stroke-linecap="butt" stroke-linejoin="miter">
	<g transform="translate(538.6,31.0)" stroke="none" fill="black" font-family="Helvetica" font-size="12.00"  text-anchor="middle">
		<text><tspan font-family="Helvetica" >language: tsx/parse error: go/examples/proc.go: mean</tspan></text>
	</g>
</g>
	<g id="gnuplot_plot_1" ><title>Bootstrap distribution</title>
<g fill="none" color="white" stroke="black" stroke-width="2.00" stroke-linecap="butt" stroke-linejoin="miter">
</g>
<g fill="none" color="black" stroke="currentColor" stroke-width="2.00" stroke-linecap="butt" stroke-linejoin="miter">
	<g transform="translate(1089.0,67.0)" stroke="none" fill="black" font-family="Helvetica" font-size="12.00"  text-anchor="start">
		<text><tspan font-family="Helvetica" >Bootstrap distribution</tspan></text>
	</g>
</g>
<g fill="none" color="black" stroke="currentColor" stroke-width="2.00" stroke-linecap="butt" stroke-linejoin="miter">
	<path stroke='rgb( 31, 120, 180)'  d='M1038.5,63.1 L1080.7,63.1 M63.6,626.8 L65.5,625.7 L67.4,624.5 L69.3,623.4 L71.2,622.2 L73.1,621.0
		L75.0,619.7 L76.9,618.5 L78.8,617.2 L80.7,615.9 L82.6,614.6 L84.5,613.3 L86.4,611.9 L88.3,610.6
		L90.3,609.2 L92.2,607.9 L94.1,606.5 L96.0,605.1 L97.9,603.7 L99.8,602.3 L101.7,600.9 L103.6,599.5
		L105.5,598.1 L107.4,596.7 L109.3,595.2 L111.2,593.8 L113.1,592.3 L115.0,590.8 L116.9,589.3 L118.8,587.7
		L120.7,586.2 L122.6,584.6 L124.5,582.9 L126.4,581.3 L128.3,579.5 L130.2,577.8 L132.1,576.0 L134.0,574.2
		L135.9,572.3 L137.8,570.3 L139.8,568.4 L141.7,566.3 L143.6,564.3 L145.5,562.2 L147.4,560.0 L149.3,557.9
		L151.2,555.6 L153.1,553.4 L155.0,551.1 L156.9,548.8 L158.8,546.5 L160.7,544.1 L162.6,541.8 L164.5,539.4
		L166.4,537.0 L168.3,534.6 L170.2,532.1 L172.1,529.7 L174.0,527.2 L175.9,524.7 L177.8,522.2 L179.7,519.6
		L181.6,517.1 L183.5,514.5 L185.4,511.9 L187.3,509.3 L189.3,506.6 L191.2,504.0 L193.1,501.3 L195.0,498.6
		L196.9,495.9 L198.8,493.1 L200.7,490.4 L202.6,487.6 L204.5,484.8 L206.4,482.0 L208.3,479.1 L210.2,476.2
		L212.1,473.3 L214.0,470.4 L215.9,467.4 L217.8,464.4 L219.7,461.4 L221.6,458.3 L223.5,455.2 L225.4,452.0
		L227.3,448.9 L229.2,445.7 L231.1,442.5 L233.0,439.3 L234.9,436.0 L236.8,432.8 L238.8,429.6 L240.7,426.3
		L242.6,423.1 L244.5,419.9 L246.4,416.8 L248.3,413.6 L250.2,410.5 L252.1,407.3 L254.0,404.2 L255.9,401.1
		L257.8,398.0 L259.7,394.8 L261.6,391.7 L263.5,388.5 L265.4,385.3 L267.3,382.0 L269.2,378.7 L271.1,375.4
		L273.0,372.0 L274.9,368.5 L276.8,364.9 L278.7,361.3 L280.6,357.6 L282.5,353.9 L284.4,350.1 L286.3,346.3
		L288.2,342.4 L290.2,338.4 L292.1,334.5 L294.0,330.5 L295.9,326.5 L297.8,322.5 L299.7,318.5 L301.6,314.5
		L303.5,310.5 L305.4,306.5 L307.3,302.5 L309.2,298.6 L311.1,294.7 L313.0,290.9 L314.9,287.1 L316.8,283.3
		L318.7,279.6 L320.6,275.9 L322.5,272.3 L324.4,268.7 L326.3,265.1 L328.2,261.6 L330.1,258.1 L332.0,254.7
		L333.9,251.3 L335.8,247.8 L337.7,244.4 L339.7,241.1 L341.6,237.7 L343.5,234.3 L345.4,230.9 L347.3,227.5
		L349.2,224.1 L351.1,220.6 L353.0,217.2 L354.9,213.7 L356.8,210.3 L358.7,206.8 L360.6,203.4 L362.5,199.9
		L364.4,196.5 L366.3,193.1 L368.2,189.7 L370.1,186.3 L372.0,183.1 L373.9,179.8 L375.8,176.7 L377.7,173.6
		L379.6,170.6 L381.5,167.7 L383.4,164.8 L385.3,162.0 L387.2,159.4 L389.2,156.8 L391.1,154.2 L393.0,151.8
		L394.9,149.4 L396.8,147.1 L398.7,144.8 L400.6,142.6 L402.5,140.4 L404.4,138.3 L406.3,136.2 L408.2,134.2
		L410.1,132.1 L412.0,130.1 L413.9,128.1 L415.8,126.2 L417.7,124.2 L419.6,122.3 L421.5,120.3 L423.4,118.4
		L425.3,116.5 L427.2,114.7 L429.1,112.8 L431.0,111.0 L432.9,109.2 L434.8,107.4 L436.7,105.7 L438.7,104.0
		L440.6,102.4 L442.5,100.8 L444.4,99.2 L446.3,97.7 L448.2,96.2 L450.1,94.8 L452.0,93.4 L453.9,92.1
		L455.8,90.8 L457.7,89.6 L459.6,88.3 L461.5,87.1 L463.4,85.9 L465.3,84.7 L467.2,83.5 L469.1,82.4
		L471.0,81.2 L472.9,80.0 L474.8,78.8 L476.7,77.6 L478.6,76.4 L480.5,75.2 L482.4,74.0 L484.3,72.8
		L486.2,71.6 L488.1,70.5 L490.1,69.4 L492.0,68.3 L493.9,67.3 L495.8,66.4 L497.7,65.5 L499.6,64.8
		L501.5,64.1 L503.4,63.5 L505.3,63.0 L507.2,62.7 L509.1,62.4 L511.0,62.2 L512.9,62.2 L514.8,62.2
		L516.7,62.4 L518.6,62.6 L520.5,63.0 L522.4,63.4 L524.3,63.9 L526.2,64.5 L528.1,65.2 L530.0,65.9
		L531.9,66.7 L533.8,67.5 L535.7,68.4 L537.6,69.3 L539.6,70.3 L541.5,71.3 L543.4,72.3 L545.3,73.4
		L547.2,74.6 L549.1,75.8 L551.0,77.0 L552.9,78.3 L554.8,79.7 L556.7,81.1 L558.6,82.6 L560.5,84.1
		L562.4,85.8 L564.3,87.5 L566.2,89.2 L568.1,91.1 L570.0,93.0 L571.9,95.0 L573.8,97.1 L575.7,99.2
		L577.6,101.4 L579.5,103.6 L581.4,105.8 L583.3,108.1 L585.2,110.4 L587.1,112.6 L589.1,114.9 L591.0,117.1
		L592.9,119.3 L594.8,121.5 L596.7,123.6 L598.6,125.6 L600.5,127.6 L602.4,129.5 L604.3,131.4 L606.2,133.2
		L608.1,135.0 L610.0,136.7 L611.9,138.4 L613.8,140.1 L615.7,141.8 L617.6,143.5 L619.5,145.3 L621.4,147.1
		L623.3,148.9 L625.2,150.9 L627.1,152.9 L629.0,155.0 L630.9,157.2 L632.8,159.5 L634.7,161.9 L636.6,164.4
		L638.5,167.1 L640.5,169.8 L642.4,172.7 L644.3,175.6 L646.2,178.7 L648.1,181.9 L650.0,185.1 L651.9,188.4
		L653.8,191.8 L655.7,195.3 L657.6,198.8 L659.5,202.3 L661.4,205.9 L663.3,209.5 L665.2,213.1 L667.1,216.8
		L669.0,220.4 L670.9,224.0 L672.8,227.6 L674.7,231.1 L676.6,234.7 L678.5,238.2 L680.4,241.6 L682.3,245.0
		L684.2,248.4 L686.1,251.6 L688.0,254.9 L690.0,258.1 L691.9,261.2 L693.8,264.3 L695.7,267.4 L697.6,270.4
		L699.5,273.4 L701.4,276.3 L703.3,279.3 L705.2,282.2 L707.1,285.1 L709.0,288.0 L710.9,290.9 L712.8,293.8
		L714.7,296.7 L716.6,299.7 L718.5,302.6 L720.4,305.6 L722.3,308.5 L724.2,311.5 L726.1,314.5 L728.0,317.5
		L729.9,320.6 L731.8,323.7 L733.7,326.8 L735.6,329.9 L737.5,333.1 L739.5,336.2 L741.4,339.4 L743.3,342.7
		L745.2,345.9 L747.1,349.2 L749.0,352.5 L750.9,355.8 L752.8,359.1 L754.7,362.4 L756.6,365.8 L758.5,369.1
		L760.4,372.5 L762.3,375.8 L764.2,379.2 L766.1,382.5 L768.0,385.8 L769.9,389.1 L771.8,392.4 L773.7,395.7
		L775.6,398.9 L777.5,402.1 L779.4,405.3 L781.3,408.5 L783.2,411.7 L785.1,414.9 L787.0,418.0 L789.0,421.1
		L790.9,424.2 L792.8,427.3 L794.7,430.4 L796.6,433.5 L798.5,436.5 L800.4,439.5 L802.3,442.5 L804.2,445.5
		L806.1,448.5 L808.0,451.4 L809.9,454.3 L811.8,457.1 L813.7,459.9 L815.6,462.6 L817.5,465.3 L819.4,468.0
		L821.3,470.6 L823.2,473.1 L825.1,475.6 L827.0,478.0 L828.9,480.4 L830.8,482.8 L832.7,485.1 L834.6,487.4
		L836.5,489.7 L838.4,491.9 L840.4,494.2 L842.3,496.4 L844.2,498.6 L846.1,500.8 L848.0,503.1 L849.9,505.3
		L851.8,507.5 L853.7,509.8 L855.6,512.0 L857.5,514.3 L859.4,516.5 L861.3,518.7 L863.2,521.0 L865.1,523.2
		L867.0,525.4 L868.9,527.6 L870.8,529.7 L872.7,531.8 L874.6,533.9 L876.5,536.0 L878.4,538.0 L880.3,539.9
		L882.2,541.8 L884.1,543.7 L886.0,545.5 L887.9,547.3 L889.9,549.0 L891.8,550.7 L893.7,552.3 L895.6,553.9
		L897.5,555.4 L899.4,556.9 L901.3,558.4 L903.2,559.9 L905.1,561.3 L907.0,562.8 L908.9,564.2 L910.8,565.6
		L912.7,567.0 L914.6,568.3 L916.5,569.7 L918.4,571.1 L920.3,572.5 L922.2,573.8 L924.1,575.2 L926.0,576.5
		L927.9,577.9 L929.8,579.3 L931.7,580.6 L933.6,581.9 L935.5,583.3 L937.4,584.6 L939.4,585.9 L941.3,587.2
		L943.2,588.5 L945.1,589.8 L947.0,591.1 L948.9,592.3 L950.8,593.6 L952.7,594.8 L954.6,596.0 L956.5,597.2
		L958.4,598.4 L960.3,599.6 L962.2,600.7 L964.1,601.9 L966.0,603.0 L967.9,604.2 L969.8,605.3 L971.7,606.4
		L973.6,607.5 L975.5,608.6 L977.4,609.7 L979.3,610.7 L981.2,611.8 L983.1,612.9 L985.0,613.9 L986.9,614.9
		L988.9,616.0 L990.8,617.0 L992.7,618.0 L994.6,618.9 L996.5,619.9 L998.4,620.9 L1000.3,621.8 L1002.2,622.7
		L1004.1,623.6 L1006.0,624.5 L1007.9,625.3 L1009.8,626.2 L1011.7,627.0 L1013.6,627.8  '/></g>
	</g>
	<g id="gnuplot_plot_2" ><title>Confidence interval</title>
<g fill="none" color="white" stroke="rgb( 31, 120, 180)" stroke-width="1.00" stroke-linecap="butt" stroke-linejoin="miter">
</g>
<g fill="none" color="black" stroke="currentColor" stroke-width="1.00" stroke-linecap="butt" stroke-linejoin="miter">
	<g transform="translate(1089.0,85.0)" stroke="none" fill="black" font-family="Helvetica" font-size="12.00"  text-anchor="start">
		<text><tspan font-family="Helvetica" >Confidence interval</tspan></text>
	</g>
</g>
<g fill="none" color="black" stroke="currentColor" stroke-width="1.00" stroke-linecap="butt" stroke-linejoin="miter">
	<g stroke='none' shape-rendering='crispEdges'>
		<polygon fill = 'rgb( 31, 120, 180)' fill-opacity = '0.250000' points = '1038.5,85.6 1080.7,85.6 1080.7,76.6 1038.5,76.6 '/>
		<polygon fill = 'rgb( 31, 120, 180)' fill-opacity = '0.250000' points = '151.2,555.6 151.2,662.4 153.1,662.4 153.1,553.4 '/>
		<polygon fill = 'rgb( 31, 120, 180)' fill-opacity = '0.250000' points = '153.1,553.4 153.1,662.4 155.0,662.4 155.0,551.1 '/>
		<polygon fill = 'rgb( 31, 120, 180)' fill-opacity = '0.250000' points = '155.0,551.1 155.0,662.4 156.9,662.4 156.9,548.8 '/>
		<polygon fill = 'rgb( 31, 120, 180)' fill-opacity = '0.250000' points = '156.9,548.8 156.9,662.4 158.8,662.4 158.8,546.5 '/>
		<polygon fill = 'rgb( 31, 120, 180)' fill-opacity = '0.250000' points = '158.8,546.5 158.8,662.4 160.7,662.4 160.7,544.1 '/>
		<polygon fill = 'rgb( 31, 120, 180)' fill-opacity = '0.250000' points = '160.7,544.1 160.7,662.4 162.6,662.4 162.6,541.8 '/>
		<polygon fill = 'rgb( 31, 120, 180)' fill-opacity = '0.250000' points = '162.6,541.8 162.6,662.4 164.5,662.4 164.5,539.4 '/>
		<polygon fill = 'rgb( 31, 120, 180)' fill-opacity = '0.250000' points = '164.5,539.4 164.5,662.4 166.4,662.4 166.4,537.0 '/>
		<polygon fill = 'rgb( 31, 120, 180)' fill-opacity = '0.250000' points = '166.4,537.0 166.4,662.4 168.3,662.4 168.3,534.6 '/>
		<polygon fill = 'rgb( 31, 120, 180)' fill-opacity = '0.250000' points = '168.3,534.6 168.3,662.4 170.2,662.4 170.2,532.1 '/>
		<polygon fill = 'rgb( 31, 120, 180)' fill-opacity = '0.250000' points = '170.2,532.1 170.2,662.4 172.1,662.4 172.1,529.7 '/>
		<polygon fill = 'rgb( 31, 120, 180)' fill-opacity = '0.250000' points = '172.1,529.7 172.1,662.4 174.0,662.4 174.0,527.2 '/>
		<polygon fill = 'rgb( 31, 120, 180)' fill-opacity = '0.250000' points = '174.0,527.2 174.0,662.4 175.9,662.4 175.9,524.7 '/>
		<polygon fill = 'rgb( 31, 120, 180)' fill-opacity = '0.250000' points = '175.9,524.7 175.9,662.4 177.8,662.4 177.8,522.2 '/>
		<polygon fill = 'rgb( 31, 120, 180)' fill-opacity = '0.250000' points = '177.8,522.2 177.8,662.4 179.7,662.4 179.7,519.6 '/>
		<polygon fill = 'rgb( 31, 120, 180)' fill-opacity = '0.250000' points = '179.7,519.6 179.7,662.4 181.6,662.4 181.6,517.1 '/>
		<polygon fill = 'rgb( 31, 120, 180)' fill-opacity = '0.250000' points = '181.6,517.1 181.6,662.4 183.5,662.4 183.5,514.5 '/>
		<polygon fill = 'rgb( 31, 120, 180)' fill-opacity = '0.250000' points = '183.5,514.5 183.5,662.4 185.4,662.4 185.4,511.9 '/>
		<polygon fill = 'rgb( 31, 120, 180)' fill-opacity = '0.250000' points = '185.4,511.9 185.4,662.4 187.3,662.4 187.3,509.3 '/>
		<polygon fill = 'rgb( 31, 120, 180)' fill-opacity = '0.250000' points = '187.3,509.3 187.3,662.4 189.3,662.4 189.3,506.6 '/>
		<polygon fill = 'rgb( 31, 120, 180)' fill-opacity = '0.250000' points = '189.3,506.6 189.3,662.4 191.2,662.4 191.2,504.0 '/>
		<polygon fill = 'rgb( 31, 120, 180)' fill-opacity = '0.250000' points = '191.2,504.0 191.2,662.4 193.1,662.4 193.1,501.3 '/>
		<polygon fill = 'rgb( 31, 120, 180)' fill-opacity = '0.250000' points = '193.1,501.3 193.1,662.4 195.0,662.4 195.0,498.6 '/>
		<polygon fill = 'rgb( 31, 120, 180)' fill-opacity = '0.250000' points = '195.0,498.6 195.0,662.4 196.9,662.4 196.9,495.9 '/>
		<polygon fill = 'rgb( 31, 120, 180)' fill-opacity = '0.250000' points = '196.9,495.9 196.9,662.4 198.8,662.4 198.8,493.1 '/>
		<polygon fill = 'rgb( 31, 120, 180)' fill-opacity = '0.250000' points = '198.8,493.1 198.8,662.4 200.7,662.4 200.7,490.4 '/>
		<polygon fill = 'rgb( 31, 120, 180)' fill-opacity = '0.250000' points = '200.7,490.4 200.7,662.4 202.6,662.4 202.6,487.6 '/>
		<polygon fill = 'rgb( 31, 120, 180)' fill-opacity = '0.250000' points = '202.6,487.6 202.6,662.4 204.5,662.4 204.5,484.8 '/>
		<polygon fill = 'rgb( 31, 120, 180)' fill-opacity = '0.250000' points = '204.5,484.8 204.5,662.4 206.4,662.4 206.4,482.0 '/>
		<polygon fill = 'rgb( 31, 120, 180)' fill-opacity = '0.250000' points = '206.4,482.0 206.4,662.4 208.3,662.4 208.3,479.1 '/>
		<polygon fill = 'rgb( 31, 120, 180)' fill-opacity = '0.250000' points = '208.3,479.1 208.3,662.4 210.2,662.4 210.2,476.2 '/>
		<polygon fill = 'rgb( 31, 120, 180)' fill-opacity = '0.250000' points = '210.2,476.2 210.2,662.4 212.1,662.4 212.1,473.3 '/>
		<polygon fill = 'rgb( 31, 120, 180)' fill-opacity = '0.250000' points = '212.1,473.3 212.1,662.4 214.0,662.4 214.0,470.4 '/>
		<polygon fill = 'rgb( 31, 120, 180)' fill-opacity = '0.250000' points = '214.0,470.4 214.0,662.4 215.9,662.4 215.9,467.4 '/>
		<polygon fill = 'rgb( 31, 120, 180)' fill-opacity = '0.250000' points = '215.9,467.4 215.9,662.4 217.8,662.4 217.8,464.4 '/>
		<polygon fill = 'rgb( 31, 120, 180)' fill-opacity = '0.250000' points = '217.8,464.4 217.8,662.4 219.7,662.4 219.7,461.4 '/>
		<polygon fill = 'rgb( 31, 120, 180)' fill-opacity = '0.250000' points = '219.7,461.4 219.7,662.4 221.6,662.4 221.6,458.3 '/>
		<polygon fill = 'rgb( 31, 120, 180)' fill-opacity = '0.250000' points = '221.6,458.3 221.6,662.4 223.5,662.4 223.5,455.2 '/>
		<polygon fill = 'rgb( 31, 120, 180)' fill-opacity = '0.250000' points = '223.5,455.2 223.5,662.4 225.4,662.4 225.4,452.0 '/>
		<polygon fill = 'rgb( 31, 120, 180)' fill-opacity = '0.250000' points = '225.4,452.0 225.4,662.4 227.3,662.4 227.3,448.9 '/>
		<polygon fill = 'rgb( 31, 120, 180)' fill-opacity = '0.250000' points = '227.3,448.9 227.3,662.4 229.2,662.4 229.2,445.7 '/>
		<polygon fill = 'rgb( 31, 120, 180)' fill-opacity = '0.250000' points = '229.2,445.7 229.2,662.4 231.1,662.4 231.1,442.5 '/>
		<polygon fill = 'rgb( 31, 120, 180)' fill-opacity = '0.250000' points = '231.1,442.5 231.1,662.4 233.0,662.4 233.0,439.3 '/>
		<polygon fill = 'rgb( 31, 120, 180)' fill-opacity = '0.250000' points = '233.0,439.3 233.0,662.4 234.9,662.4 234.9,436.0 '/>
		<polygon fill = 'rgb( 31, 120, 180)' fill-opacity = '0.250000' points = '234.9,436.0 234.9,662.4 236.8,662.4 236.8,432.8 '/>
		<polygon fill = 'rgb( 31, 120, 180)' fill-opacity = '0.250000' points = '236.8,432.8 236.8,662.4 238.8,662.4 238.8,429.6 '/>
		<polygon fill = 'rgb( 31, 120, 180)' fill-opacity = '0.250000' points = '238.8,429.6 238.8,662.4 240.7,662.4 240.7,426.3 '/>
		<polygon fill = 'rgb( 31, 120, 180)' fill-opacity = '0.250000' points = '240.7,426.3 240.7,662.4 242.6,662.4 242.6,423.1 '/>
		<polygon fill = 'rgb( 31, 120, 180)' fill-opacity = '0.250000' points = '242.6,423.1 242.6,662.4 244.5,662.4 244.5,419.9 '/>
		<polygon fill = 'rgb( 31, 120, 180)' fill-opacity = '0.250000' points = '244.5,419.9 244.5,662.4 246.4,662.4 246.4,416.8 '/>
		<polygon fill = 'rgb( 31, 120, 180)' fill-opacity = '0.250000' points = '246.4,416.8 246.4,662.4 248.3,662.4 248.3,413.6 '/>
		<polygon fill = 'rgb( 31, 120, 180)' fill-opacity = '0.250000' points = '248.3,413.6 248.3,662.4 250.2,662.4 250.2,410.5 '/>
		<polygon fill = 'rgb( 31, 120, 180)' fill-opacity = '0.250000' points = '250.2,410.5 250.2,662.4 252.1,662.4 252.1,407.3 '/>
		<polygon fill = 'rgb( 31, 120, 180)' fill-opacity = '0.250000' points = '252.1,407.3 252.1,662.4 254.0,662.4 254.0,404.2 '/>
		<polygon fill = 'rgb( 31, 120, 180)' fill-opacity = '0.250000' points = '254.0,404.2 254.0,662.4 255.9,662.4 255.9,401.1 '/>
		<polygon fill = 'rgb( 31, 120, 180)' fill-opacity = '0.250000' points = '255.9,401.1 255.9,662.4 257.8,662.4 257.8,398.0 '/>
		<polygon fill = 'rgb( 31, 120, 180)' fill-opacity = '0.250000' points = '257.8,398.0 257.8,662.4 259.7,662.4 259.7,394.8 '/>
		<polygon fill = 'rgb( 31, 120, 180)' fill-opacity = '0.250000' points = '259.7,394.8 259.7,662.4 261.6,662.4 261.6,391.7 '/>
		<polygon fill = 'rgb( 31, 120, 180)' fill-opacity = '0.250000' points = '261.6,391.7 261.6,662.4 263.5,662.4 263.5,388.5 '/>
		<polygon fill = 'rgb( 31, 120, 180)' fill-opacity = '0.250000' points = '263.5,388.5 263.5,662.4 265.4,662.4 265.4,385.3 '/>
		<polygon fill = 'rgb( 31, 120, 180)' fill-opacity = '0.250000' points = '265.4,385.3 265.4,662.4 267.3,662.4 267.3,382.0 '/>
		<polygon fill = 'rgb( 31, 120, 180)' fill-opacity = '0.250000' points = '267.3,382.0 267.3,662.4 269.2,662.4 269.2,378.7 '/>
		<polygon fill = 'rgb( 31, 120, 180)' fill-opacity = '0.250000' points = '269.2,378.7 269.2,662.4 271.1,662.4 271.1,375.4 '/>
		<polygon fill = 'rgb( 31, 120, 180)' fill-opacity = '0.250000' points = '271.1,375.4 271.1,662.4 273.0,662.4 273.0,372.0 '/>
		<polygon fill = 'rgb( 31, 120, 180)' fill-opacity = '0.250000' points = '273.0,372.0 273.0,662.4 274.9,662.4 274.9,368.5 '/>
		<polygon fill = 'rgb( 31, 120, 180)' fill-opacity = '0.250000' points = '274.9,368.5 274.9,662.4 276.8,662.4 276.8,364.9 '/>
		<polygon fill = 'rgb( 31, 120, 180)' fill-opacity = '0.250000' points = '276.8,364.9 276.8,662.4 278.7,662.4 278.7,361.3 '/>
		<polygon fill = 'rgb( 31, 120, 180)' fill-opacity = '0.250000' points = '278.7,361.3 278.7,662.4 280.6,662.4 280.6,357.6 '/>
		<polygon fill = 'rgb( 31, 120, 180)' fill-opacity = '0.250000' points = '280.6,357.6 280.6,662.4 282.5,662.4 282.5,353.9 '/>
		<polygon fill = 'rgb( 31, 120, 180)' fill-opacity = '0.250000' points = '282.5,353.9 282.5,662.4 284.4,662.4 284.4,350.1 '/>
		<polygon fill = 'rgb( 31, 120, 180)' fill-opacity = '0.250000' points = '284.4,350.1 284.4,662.4 286.3,662.4 286.3,346.3 '/>
		<polygon fill = 'rgb( 31, 120, 180)' fill-opacity = '0.250000' points = '286.3,346.3 286.3,662.4 288.2,662.4 288.2,342.4 '/>
		<polygon fill = 'rgb( 31, 120, 180)' fill-opacity = '0.250000' points = '288.2,342.4 288.2,662.4 290.2,662.4 290.2,338.4 '/>
		<polygon fill = 'rgb( 31, 120, 180)' fill-opacity = '0.250000' points = '290.2,338.4 290.2,662.4 292.1,662.4 292.1,334.5 '/>
		<polygon fill = 'rgb( 31, 120, 180)' fill-opacity = '0.250000' points = '292.1,334.5 292.1,662.4 294.0,662.4 294.0,330.5 '/>
		<polygon fill = 'rgb( 31, 120, 180)' fill-opacity = '0.250000' points = '294.0,330.5 294.0,662.4 295.9,662.4 295.9,326.5 '/>
		<polygon fill = 'rgb( 31, 120, 180)' fill-opacity = '0.250000' points = '295.9,326.5 295.9,662.4 297.8,662.4 297.8,322.5 '/>
		<polygon fill = 'rgb( 31, 120, 180)' fill-opacity = '0.250000' points = '297.8,322.5 297.8,662.4 299.7,662.4 299.7,318.5 '/>
		<polygon fill = 'rgb( 31, 120, 180)' fill-opacity = '0.250000' points = '299.7,318.5 299.7,662.4 301.6,662.4 301.6,314.5 '/>
		<polygon fill = 'rgb( 31, 120, 180)' fill-opacity = '0.250000' points = '301.6,314.5 301.6,662.4 303.5,662.4 303.5,310.5 '/>
		<polygon fill = 'rgb( 31, 120, 180)' fill-opacity = '0.250000' points = '303.5,310.5 303.5,662.4 305.4,662.4 305.4,306.5 '/>
		<polygon fill = 'rgb( 31, 120, 180)' fill-opacity = '0.250000' points = '305.4,306.5 305.4,662.4 307.3,662.4 307.3,302.5 '/>
		<polygon fill = 'rgb( 31, 120, 180)' fill-opacity = '0.250000' points = '307.3,302.5 307.3,662.4 309.2,662.4 309.2,298.6 '/>
		<polygon fill = 'rgb( 31, 120, 180)' fill-opacity = '0.250000' points = '309.2,298.6 309.2,662.4 311.1,662.4 311.1,294.7 '/>
		<polygon fill = 'rgb( 31, 120, 180)' fill-opacity = '0.250000' points = '311.1,294.7 311.1,662.4 313.0,662.4 313.0,290.9 '/>
		<polygon fill = 'rgb( 31, 120, 180)' fill-opacity = '0.250000' points = '313.0,290.9 313.0,662.4 314.9,662.4 314.9,287.1 '/>
		<polygon fill = 'rgb( 31, 120, 180)' fill-opacity = '0.250000' points = '314.9,287.1 314.9,662.4 316.8,662.4 316.8,283.3 '/>
		<polygon fill = 'rgb( 31, 120, 180)' fill-opacity = '0.250000' points = '316.8,283.3 316.8,662.4 318.7,662.4 318.7,279.6 '/>
		<polygon fill = 'rgb( 31, 120, 180)' fill-opacity = '0.250000' points = '318.7,279.6 318.7,662.4 320.6,662.4 320.6,275.9 '/>
		<polygon fill = 'rgb( 31, 120, 180)' fill-opacity = '0.250000' points = '320.6,275.9 320.6,662.4 322.5,662.4 322.5,272.3 '/>
		<polygon fill = 'rgb( 31, 120, 180)' fill-opacity = '0.250000' points = '322.5,272.3 322.5,662.4 324.4,662.4 324.4,268.7 '/>
		<polygon fill = 'rgb( 31, 120, 180)' fill-opacity = '0.250000' points = '324.4,268.7 324.4,662.4 326.3,662.4 326.3,265.1 '/>
		<polygon fill = 'rgb( 31, 120, 180)' fill-opacity = '0.250000' points = '326.3,265.1 326.3,662.4 328.2,662.4 328.2,261.6 '/>
		<polygon fill = 'rgb( 31, 120, 180)' fill-opacity = '0.250000' points = '328.2,261.6 328.2,662.4 330.1,662.4 330.1,258.1 '/>
		<polygon fill = 'rgb( 31, 120, 180)' fill-opacity = '0.250000' points = '330.1,258.1 330.1,662.4 332.0,662.4 332.0,254.7 '/>
		<polygon fill = 'rgb( 31, 120, 180)' fill-opacity = '0.250000' points = '332.0,254.7 332.0,662.4 333.9,662.4 333.9,251.3 '/>
		<polygon fill = 'rgb( 31, 120, 180)' fill-opacity = '0.250000' points = '333.9,251.3 333.9,662.4 335.8,662.4 335.8,247.8 '/>
		<polygon fill = 'rgb( 31, 120, 180)' fill-opacity = '0.250000' points = '335.8,247.8 335.8,662.4 337.7,662.4 337.7,244.4 '/>
		<polygon fill = 'rgb( 31, 120, 180)' fill-opacity = '0.250000' points = '337.7,244.4 337.7,662.4 339.7,662.4 339.7,241.1 '/>
		<polygon fill = 'rgb( 31, 120, 180)' fill-opacity = '0.250000' points = '339.7,241.1 339.7,662.4 341.6,662.4 341.6,237.7 '/>
		<polygon fill = 'rgb( 31, 120, 180)' fill-opacity = '0.250000' points = '341.6,237.7 341.6,662.4 343.5,662.4 343.5,234.3 '/>
		<polygon fill = 'rgb( 31, 120, 180)' fill-opacity = '0.250000' points = '343.5,234.3 343.5,662.4 345.4,662.4 345.4,230.9 '/>
		<polygon fill = 'rgb( 31, 120, 180)' fill-opacity = '0.250000' points = '345.4,230.9 345.4,662.4 347.3,662.4 347.3,227.5 '/>
		<polygon fill = 'rgb( 31, 120, 180)' fill-opacity = '0.250000' points = '347.3,227.5 347.3,662.4 349.2,662.4 349.2,224.1 '/>
		<polygon fill = 'rgb( 31, 120, 180)' fill-opacity = '0.250000' points = '349.2,224.1 349.2,662.4 351.1,662.4 351.1,220.6 '/>
		<polygon fill = 'rgb( 31, 120, 180)' fill-opacity = '0.250000' points = '351.1,220.6 351.1,662.4 353.0,662.4 353.0,217.2 '/>
		<polygon fill = 'rgb( 31, 120, 180)' fill-opacity = '0.250000' points = '353.0,217.2 353.0,662.4 354.9,662.4 354.9,213.7 '/>
		<polygon fill = 'rgb( 31, 120, 180)' fill-opacity = '0.250000' points = '354.9,213.7 354.9,662.4 356.8,662.4 356.8,210.3 '/>
		<polygon fill = 'rgb( 31, 120, 180)' fill-opacity = '0.250000' points = '356.8,210.3 356.8,662.4 358.7,662.4 358.7,206.8 '/>
		<polygon fill = 'rgb( 31, 120, 180)' fill-opacity = '0.250000' points = '358.7,206.8 358.7,662.4 360.6,662.4 360.6,203.4 '/>
		<polygon fill = 'rgb( 31, 120, 180)' fill-opacity = '0.250000' points = '360.6,203.4 360.6,662.4 362.5,662.4 362.5,199.9 '/>
		<polygon fill = 'rgb( 31, 120, 180)' fill-opacity = '0.250000' points = '362.5,199.9 362.5,662.4 364.4,662.4 364.4,196.5 '/>
		<polygon fill = 'rgb( 31, 120, 180)' fill-opacity = '0.250000' points = '364.4,196.5 364.4,662.4 366.3,662.4 366.3,193.1 '/>
		<polygon fill = 'rgb( 31, 120, 180)' fill-opacity = '0.250000' points = '366.3,193.1 366.3,662.4 368.2,662.4 368.2,189.7 '/>
		<polygon fill = 'rgb( 31, 120, 180)' fill-opacity = '0.250000' points = '368.2,189.7 368.2,662.4 370.1,662.4 370.1,186.3 '/>
		<polygon fill = 'rgb( 31, 120, 180)' fill-opacity = '0.250000' points = '370.1,186.3 370.1,662.4 372.0,662.4 372.0,183.1 '/>
		<polygon fill = 'rgb( 31, 120, 180)' fill-opacity = '0.250000' points = '372.0,183.1 372.0,662.4 373.9,662.4 373.9,179.8 '/>
		<polygon fill = 'rgb( 31, 120, 180)' fill-opacity = '0.250000' points = '373.9,179.8 373.9,662.4 375.8,662.4 375.8,176.7 '/>
		<polygon fill = 'rgb( 31, 120, 180)' fill-opacity = '0.250000' points = '375.8,176.7 375.8,662.4 377.7,662.4 377.7,173.6 '/>
		<polygon fill = 'rgb( 31, 120, 180)' fill-opacity = '0.250000' points = '377.7,173.6 377.7,662.4 379.6,662.4 379.6,170.6 '/>
		<polygon fill = 'rgb( 31, 120, 180)' fill-opacity = '0.250000' points = '379.6,170.6 379.6,662.4 381.5,662.4 381.5,167.7 '/>
		<polygon fill = 'rgb( 31, 120, 180)' fill-opacity = '0.250000' points = '381.5,167.7 381.5,662.4 383.4,662.4 383.4,164.8 '/>
		<polygon fill = 'rgb( 31, 120, 180)' fill-opacity = '0.250000' points = '383.4,164.8 383.4,662.4 385.3,662.4 385.3,162.0 '/>
		<polygon fill = 'rgb( 31, 120, 180)' fill-opacity = '0.250000' points = '385.3,162.0 385.3,662.4 387.2,662.4 387.2,159.4 '/>
		<polygon fill = 'rgb( 31, 120, 180)' fill-opacity = '0.250000' points = '387.2,159.4 387.2,662.4 389.2,662.4 389.2,156.8 '/>
		<polygon fill = 'rgb( 31, 120, 180)' fill-opacity = '0.250000' points = '389.2,156.8 389.2,662.4 391.1,662.4 391.1,154.2 '/>
		<polygon fill = 'rgb( 31, 120, 180)' fill-opacity = '0.250000' points = '391.1,154.2 391.1,662.4 393.0,662.4 393.0,151.8 '/>
		<polygon fill = 'rgb( 31, 120, 180)' fill-opacity = '0.250000' points = '393.0,151.8 393.0,662.4 394.9,662.4 394.9,149.4 '/>
		<polygon fill = 'rgb( 31, 120, 180)' fill-opacity = '0.250000' points = '394.9,149.4 394.9,662.4 396.8,662.4 396.8,147.1 '/>
		<polygon fill = 'rgb( 31, 120, 180)' fill-opacity = '0.250000' points = '396.8,147.1 396.8,662.4 398.7,662.4 398.7,144.8 '/>
		<polygon fill = 'rgb( 31, 120, 180)' fill-opacity = '0.250000' points = '398.7,144.8 398.7,662.4 400.6,662.4 400.6,142.6 '/>
		<polygon fill = 'rgb( 31, 120, 180)' fill-opacity = '0.250000' points = '400.6,142.6 400.6,662.4 402.5,662.4 402.5,140.4 '/>
		<polygon fill = 'rgb( 31, 120, 180)' fill-opacity = '0.250000' points = '402.5,140.4 402.5,662.4 404.4,662.4 404.4,138.3 '/>
		<polygon fill = 'rgb( 31, 120, 180)' fill-opacity = '0.250000' points = '404.4,138.3 404.4,662.4 406.3,662.4 406.3,136.2 '/>
		<polygon fill = 'rgb( 31, 120, 180)' fill-opacity = '0.250000' points = '406.3,136.2 406.3,662.4 408.2,662.4 408.2,134.2 '/>
		<polygon fill = 'rgb( 31, 120, 180)' fill-opacity = '0.250000' points = '408.2,134.2 408.2,662.4 410.1,662.4 410.1,132.1 '/>
		<polygon fill = 'rgb( 31, 120, 180)' fill-opacity = '0.250000' points = '410.1,132.1 410.1,662.4 412.0,662.4 412.0,130.1 '/>
		<polygon fill = 'rgb( 31, 120, 180)' fill-opacity = '0.250000' points = '412.0,130.1 412.0,662.4 413.9,662.4 413.9,128.1 '/>
		<polygon fill = 'rgb( 31, 120, 180)' fill-opacity = '0.250000' points = '413.9,128.1 413.9,662.4 415.8,662.4 415.8,126.2 '/>
		<polygon fill = 'rgb( 31, 120, 180)' fill-opacity = '0.250000' points = '415.8,126.2 415.8,662.4 417.7,662.4 417.7,124.2 '/>
		<polygon fill = 'rgb( 31, 120, 180)' fill-opacity = '0.250000' points = '417.7,124.2 417.7,662.4 419.6,662.4 419.6,122.3 '/>
		<polygon fill = 'rgb( 31, 120, 180)' fill-opacity = '0.250000' points = '419.6,122.3 419.6,662.4 421.5,662.4 421.5,120.3 '/>
		<polygon fill = 'rgb( 31, 120, 180)' fill-opacity = '0.250000' points = '421.5,120.3 421.5,662.4 423.4,662.4 423.4,118.4 '/>
		<polygon fill = 'rgb( 31, 120, 180)' fill-opacity = '0.250000' points = '423.4,118.4 423.4,662.4 425.3,662.4 425.3,116.5 '/>
		<polygon fill = 'rgb( 31, 120, 180)' fill-opacity = '0.250000' points = '425.3,116.5 425.3,662.4 427.2,662.4 427.2,114.7 '/>
		<polygon fill = 'rgb( 31, 120, 180)' fill-opacity = '0.250000' points = '427.2,114.7 427.2,662.4 429.1,662.4 429.1,112.8 '/>
		<polygon fill = 'rgb( 31, 120, 180)' fill-opacity = '0.250000' points = '429.1,112.8 429.1,662.4 431.0,662.4 431.0,111.0 '/>
		<polygon fill = 'rgb( 31, 120, 180)' fill-opacity = '0.250000' points = '431.0,111.0 431.0,662.4 432.9,662.4 432.9,109.2 '/>
		<polygon fill = 'rgb( 31, 120, 180)' fill-opacity = '0.250000' points = '432.9,109.2 432.9,662.4 434.8,662.4 434.8,107.4 '/>
		<polygon fill = 'rgb( 31, 120, 180)' fill-opacity = '0.250000' points = '434.8,107.4 434.8,662.4 436.7,662.4 436.7,105.7 '/>
		<polygon fill = 'rgb( 31, 120, 180)' fill-opacity = '0.250000' points = '436.7,105.7 436.7,662.4 438.7,662.4 438.7,104.0 '/>
		<polygon fill = 'rgb( 31, 120, 180)' fill-opacity = '0.250000' points = '438.7,104.0 438.7,662.4 440.6,662.4 440.6,102.4 '/>
		<polygon fill = 'rgb( 31, 120, 180)' fill-opacity = '0.250000' points = '440.6,102.4 440.6,662.4 442.5,662.4 442.5,100.8 '/>
		<polygon fill = 'rgb( 31, 120, 180)' fill-opacity = '0.250000' points = '442.5,100.8 442.5,662.4 444.4,662.4 444.4,99.2 '/>
		<polygon fill = 'rgb( 31, 120, 180)' fill-opacity = '0.250000' points = '444.4,99.2 444.4,662.4 446.3,662.4 446.3,97.7 '/>
		<polygon fill = 'rgb( 31, 120, 180)' fill-opacity = '0.250000' points = '446.3,97.7 446.3,662.4 448.2,662.4 448.2,96.2 '/>
		<polygon fill = 'rgb( 31, 120, 180)' fill-opacity = '0.250000' points = '448.2,96.2 448.2,662.4 450.1,662.4 450.1,94.8 '/>
		<polygon fill = 'rgb( 31, 120, 180)' fill-opacity = '0.250000' points = '450.1,94.8 450.1,662.4 452.0,662.4 452.0,93.4 '/>
		<polygon fill = 'rgb( 31, 120, 180)' fill-opacity = '0.250000' points = '452.0,93.4 452.0,662.4 453.9,662.4 453.9,92.1 '/>
		<polygon fill = 'rgb( 31, 120, 180)' fill-opacity = '0.250000' points = '453.9,92.1 453.9,662.4 455.8,662.4 455.8,90.8 '/>
		<polygon fill = 'rgb( 31, 120, 180)' fill-opacity = '0.250000' points = '455.8,90.8 455.8,662.4 457.7,662.4 457.7,89.6 '/>
		<polygon fill = 'rgb( 31, 120, 180)' fill-opacity = '0.250000' points = '457.7,89.6 457.7,662.4 459.6,662.4 459.6,88.3 '/>
		<polygon fill = 'rgb( 31, 120, 180)' fill-opacity = '0.250000' points = '459.6,88.3 459.6,662.4 461.5,662.4 461.5,87.1 '/>
		<polygon fill = 'rgb( 31, 120, 180)' fill-opacity = '0.250000' points = '461.5,87.1 461.5,662.4 463.4,662.4 463.4,85.9 '/>
		<polygon fill = 'rgb( 31, 120, 180)' fill-opacity = '0.250000' points = '463.4,85.9 463.4,662.4 465.3,662.4 465.3,84.7 '/>
		<polygon fill = 'rgb( 31, 120, 180)' fill-opacity = '0.250000' points = '465.3,84.7 465.3,662.4 467.2,662.4 467.2,83.5 '/>
		<polygon fill = 'rgb( 31, 120, 180)' fill-opacity = '0.250000' points = '467.2,83.5 467.2,662.4 469.1,662.4 469.1,82.4 '/>
		<polygon fill = 'rgb( 31, 120, 180)' fill-opacity = '0.250000' points = '469.1,82.4 469.1,662.4 471.0,662.4 471.0,81.2 '/>
		<polygon fill = 'rgb( 31, 120, 180)' fill-opacity = '0.250000' points = '471.0,81.2 471.0,662.4 472.9,662.4 472.9,80.0 '/>
		<polygon fill = 'rgb( 31, 120, 180)' fill-opacity = '0.250000' points = '472.9,80.0 472.9,662.4 474.8,662.4 474.8,78.8 '/>
		<polygon fill = 'rgb( 31, 120, 180)' fill-opacity = '0.250000' points = '474.8,78.8 474.8,662.4 476.7,662.4 476.7,77.6 '/>
		<polygon fill = 'rgb( 31, 120, 180)' fill-opacity = '0.250000' points = '476.7,77.6 476.7,662.4 478.6,662.4 478.6,76.4 '/>
		<polygon fill = 'rgb( 31, 120, 180)' fill-opacity = '0.250000' points = '478.6,76.4 478.6,662.4 480.5,662.4 480.5,75.2 '/>
		<polygon fill = 'rgb( 31, 120, 180)' fill-opacity = '0.250000' points = '480.5,75.2 480.5,662.4 482.4,662.4 482.4,74.0 '/>
		<polygon fill = 'rgb( 31, 120, 180)' fill-opacity = '0.250000' points = '482.4,74.0 482.4,662.4 484.3,662.4 484.3,72.8 '/>
		<polygon fill = 'rgb( 31, 120, 180)' fill-opacity = '0.250000' points = '484.3,72.8 484.3,662.4 486.2,662.4 486.2,71.6 '/>
		<polygon fill = 'rgb( 31, 120, 180)' fill-opacity = '0.250000' points = '486.2,71.6 486.2,662.4 488.1,662.4 488.1,70.5 '/>
		<polygon fill = 'rgb( 31, 120, 180)' fill-opacity = '0.250000' points = '488.1,70.5 488.1,662.4 490.1,662.4 490.1,69.4 '/>
		<polygon fill = 'rgb( 31, 120, 180)' fill-opacity = '0.250000' points = '490.1,69.4 490.1,662.4 492.0,662.4 492.0,68.3 '/>
		<polygon fill = 'rgb( 31, 120, 180)' fill-opacity = '0.250000' points = '492.0,68.3 492.0,662.4 493.9,662.4 493.9,67.3 '/>
		<polygon fill = 'rgb( 31, 120, 180)' fill-opacity = '0.250000' points = '493.9,67.3 493.9,662.4 495.8,662.4 495.8,66.4 '/>
		<polygon fill = 'rgb( 31, 120, 180)' fill-opacity = '0.250000' points = '495.8,66.4 495.8,662.4 497.7,662.4 497.7,65.5 '/>
		<polygon fill = 'rgb( 31, 120, 180)' fill-opacity = '0.250000' points = '497.7,65.5 497.7,662.4 499.6,662.4 499.6,64.8 '/>
		<polygon fill = 'rgb( 31, 120, 180)' fill-opacity = '0.250000' points = '499.6,64.8 499.6,662.4 501.5,662.4 501.5,64.1 '/>
		<polygon fill = 'rgb( 31, 120, 180)' fill-opacity = '0.250000' points = '501.5,64.1 501.5,662.4 503.4,662.4 503.4,63.5 '/>
		<polygon fill = 'rgb( 31, 120, 180)' fill-opacity = '0.250000' points = '503.4,63.5 503.4,662.4 505.3,662.4 505.3,63.0 '/>
		<polygon fill = 'rgb( 31, 120, 180)' fill-opacity = '0.250000' points = '505.3,63.0 505.3,662.4 507.2,662.4 507.2,62.7 '/>
		<polygon fill = 'rgb( 31, 120, 180)' fill-opacity = '0.250000' points = '507.2,62.7 507.2,662.4 509.1,662.4 509.1,62.4 '/>
		<polygon fill = 'rgb( 31, 120, 180)' fill-opacity = '0.250000' points = '509.1,62.4 509.1,662.4 511.0,662.4 511.0,62.2 '/>
		<polygon fill = 'rgb( 31, 120, 180)' fill-opacity = '0.250000' points = '511.0,62.2 511.0,662.4 512.9,662.4 512.9,62.2 '/>
		<polygon fill = 'rgb( 31, 120, 180)' fill-opacity = '0.250000' points = '512.9,62.2 512.9,662.4 514.8,662.4 514.8,62.2 '/>
		<polygon fill = 'rgb( 31, 120, 180)' fill-opacity = '0.250000' points = '514.8,62.2 514.8,662.4 516.7,662.4 516.7,62.4 '/>
		<polygon fill = 'rgb( 31, 120, 180)' fill-opacity = '0.250000' points = '516.7,62.4 516.7,662.4 518.6,662.4 518.6,62.6 '/>
		<polygon fill = 'rgb( 31, 120, 180)' fill-opacity = '0.250000' points = '518.6,62.6 518.6,662.4 520.5,662.4 520.5,63.0 '/>
		<polygon fill = 'rgb( 31, 120, 180)' fill-opacity = '0.250000' points = '520.5,63.0 520.5,662.4 522.4,662.4 522.4,63.4 '/>
		<polygon fill = 'rgb( 31, 120, 180)' fill-opacity = '0.250000' points = '522.4,63.4 522.4,662.4 524.3,662.4 524.3,63.9 '/>
		<polygon fill = 'rgb( 31, 120, 180)' fill-opacity = '0.250000' points = '524.3,63.9 524.3,662.4 526.2,662.4 526.2,64.5 '/>
		<polygon fill = 'rgb( 31, 120, 180)' fill-opacity = '0.250000' points = '526.2,64.5 526.2,662.4 528.1,662.4 528.1,65.2 '/>
		<polygon fill = 'rgb( 31, 120, 180)' fill-opacity = '0.250000' points = '528.1,65.2 528.1,662.4 530.0,662.4 530.0,65.9 '/>
		<polygon fill = 'rgb( 31, 120, 180)' fill-opacity = '0.250000' points = '530.0,65.9 530.0,662.4 531.9,662.4 531.9,66.7 '/>
		<polygon fill = 'rgb( 31, 120, 180)' fill-opacity = '0.250000' points = '531.9,66.7 531.9,662.4 533.8,662.4 533.8,67.5 '/>
		<polygon fill = 'rgb( 31, 120, 180)' fill-opacity = '0.250000' points = '533.8,67.5 533.8,662.4 535.7,662.4 535.7,68.4 '/>
		<polygon fill = 'rgb( 31, 120, 180)' fill-opacity = '0.250000' points = '535.7,68.4 535.7,662.4 537.6,662.4 537.6,69.3 '/>
		<polygon fill = 'rgb( 31, 120, 180)' fill-opacity = '0.250000' points = '537.6,69.3 537.6,662.4 539.6,662.4 539.6,70.3 '/>
		<polygon fill = 'rgb( 31, 120, 180)' fill-opacity = '0.250000' points = '539.6,70.3 539.6,662.4 541.5,662.4 541.5,71.3 '/>
		<polygon fill = 'rgb( 31, 120, 180)' fill-opacity = '0.250000' points = '541.5,71.3 541.5,662.4 543.4,662.4 543.4,72.3 '/>
		<polygon fill = 'rgb( 31, 120, 180)' fill-opacity = '0.250000' points = '543.4,72.3 543.4,662.4 545.3,662.4 545.3,73.4 '/>
		<polygon fill = 'rgb( 31, 120, 180)' fill-opacity = '0.250000' points = '545.3,73.4 545.3,662.4 547.2,662.4 547.2,74.6 '/>
		<polygon fill = 'rgb( 31, 120, 180)' fill-opacity = '0.250000' points = '547.2,74.6 547.2,662.4 549.1,662.4 549.1,75.8 '/>
		<polygon fill = 'rgb( 31, 120, 180)' fill-opacity = '0.250000' points = '549.1,75.8 549.1,662.4 551.0,662.4 551.0,77.0 '/>
		<polygon fill = 'rgb( 31, 120, 180)' fill-opacity = '0.250000' points = '551.0,77.0 551.0,662.4 552.9,662.4 552.9,78.3 '/>
		<polygon fill = 'rgb( 31, 120, 180)' fill-opacity = '0.250000' points = '552.9,78.3 552.9,662.4 554.8,662.4 554.8,79.7 '/>
		<polygon fill = 'rgb( 31, 120, 180)' fill-opacity = '0.250000' points = '554.8,79.7 554.8,662.4 556.7,662.4 556.7,81.1 '/>
		<polygon fill = 'rgb( 31, 120, 180)' fill-opacity = '0.250000' points = '556.7,81.1 556.7,662.4 558.6,662.4 558.6,82.6 '/>
		<polygon fill = 'rgb( 31, 120, 180)' fill-opacity = '0.250000' points = '558.6,82.6 558.6,662.4 560.5,662.4 560.5,84.1 '/>
		<polygon fill = 'rgb( 31, 120, 180)' fill-opacity = '0.250000' points = '560.5,84.1 560.5,662.4 562.4,662.4 562.4,85.8 '/>
		<polygon fill = 'rgb( 31, 120, 180)' fill-opacity = '0.250000' points = '562.4,85.8 562.4,662.4 564.3,662.4 564.3,87.5 '/>
		<polygon fill = 'rgb( 31, 120, 180)' fill-opacity = '0.250000' points = '564.3,87.5 564.3,662.4 566.2,662.4 566.2,89.2 '/>
		<polygon fill = 'rgb( 31, 120, 180)' fill-opacity = '0.250000' points = '566.2,89.2 566.2,662.4 568.1,662.4 568.1,91.1 '/>
		<polygon fill = 'rgb( 31, 120, 180)' fill-opacity = '0.250000' points = '568.1,91.1 568.1,662.4 570.0,662.4 570.0,93.0 '/>
		<polygon fill = 'rgb( 31, 120, 180)' fill-opacity = '0.250000' points = '570.0,93.0 570.0,662.4 571.9,662.4 571.9,95.0 '/>
		<polygon fill = 'rgb( 31, 120, 180)' fill-opacity = '0.250000' points = '571.9,95.0 571.9,662.4 573.8,662.4 573.8,97.1 '/>
		<polygon fill = 'rgb( 31, 120, 180)' fill-opacity = '0.250000' points = '573.8,97.1 573.8,662.4 575.7,662.4 575.7,99.2 '/>
		<polygon fill = 'rgb( 31, 120, 180)' fill-opacity = '0.250000' points = '575.7,99.2 575.7,662.4 577.6,662.4 577.6,101.4 '/>
		<polygon fill = 'rgb( 31, 120, 180)' fill-opacity = '0.250000' points = '577.6,101.4 577.6,662.4 579.5,662.4 579.5,103.6 '/>
		<polygon fill = 'rgb( 31, 120, 180)' fill-opacity = '0.250000' points = '579.5,103.6 579.5,662.4 581.4,662.4 581.4,105.8 '/>
		<polygon fill = 'rgb( 31, 120, 180)' fill-opacity = '0.250000' points = '581.4,105.8 581.4,662.4 583.3,662.4 583.3,108.1 '/>
		<polygon fill = 'rgb( 31, 120, 180)' fill-opacity = '0.250000' points = '583.3,108.1 583.3,662.4 585.2,662.4 585.2,110.4 '/>
		<polygon fill = 'rgb( 31, 120, 180)' fill-opacity = '0.250000' points = '585.2,110.4 585.2,662.4 587.1,662.4 587.1,112.6 '/>
		<polygon fill = 'rgb( 31, 120, 180)' fill-opacity = '0.250000' points = '587.1,112.6 587.1,662.4 589.1,662.4 589.1,114.9 '/>
		<polygon fill = 'rgb( 31, 120, 180)' fill-opacity = '0.250000' points = '589.1,114.9 589.1,662.4 591.0,662.4 591.0,117.1 '/>
		<polygon fill = 'rgb( 31, 120, 180)' fill-opacity = '0.250000' points = '591.0,117.1 591.0,662.4 592.9,662.4 592.9,119.3 '/>
		<polygon fill = 'rgb( 31, 120, 180)' fill-opacity = '0.250000' points = '592.9,119.3 592.9,662.4 594.8,662.4 594.8,121.5 '/>
		<polygon fill = 'rgb( 31, 120, 180)' fill-opacity = '0.250000' points = '594.8,121.5 594.8,662.4 596.7,662.4 596.7,123.6 '/>
		<polygon fill = 'rgb( 31, 120, 180)' fill-opacity = '0.250000' points = '596.7,123.6 596.7,662.4 598.6,662.4 598.6,125.6 '/>
		<polygon fill = 'rgb( 31, 120, 180)' fill-opacity = '0.250000' points = '598.6,125.6 598.6,662.4 600.5,662.4 600.5,127.6 '/>
		<polygon fill = 'rgb( 31, 120, 180)' fill-opacity = '0.250000' points = '600.5,127.6 600.5,662.4 602.4,662.4 602.4,129.5 '/>
		<polygon fill = 'rgb( 31, 120, 180)' fill-opacity = '0.250000' points = '602.4,129.5 602.4,662.4 604.3,662.4 604.3,131.4 '/>
		<polygon fill = 'rgb( 31, 120, 180)' fill-opacity = '0.250000' points = '604.3,131.4 604.3,662.4 606.2,662.4 606.2,133.2 '/>
		<polygon fill = 'rgb( 31, 120, 180)' fill-opacity = '0.250000' points = '606.2,133.2 606.2,662.4 608.1,662.4 608.1,135.0 '/>
		<polygon fill = 'rgb( 31, 120, 180)' fill-opacity = '0.250000' points = '608.1,135.0 608.1,662.4 610.0,662.4 610.0,136.7 '/>
		<polygon fill = 'rgb( 31, 120, 180)' fill-opacity = '0.250000' points = '610.0,136.7 610.0,662.4 611.9,662.4 611.9,138.4 '/>
		<polygon fill = 'rgb( 31, 120, 180)' fill-opacity = '0.250000' points = '611.9,138.4 611.9,662.4 613.8,662.4 613.8,140.1 '/>
		<polygon fill = 'rgb( 31, 120, 180)' fill-opacity = '0.250000' points = '613.8,140.1 613.8,662.4 615.7,662.4 615.7,141.8 '/>
		<polygon fill = 'rgb( 31, 120, 180)' fill-opacity = '0.250000' points = '615.7,141.8 615.7,662.4 617.6,662.4 617.6,143.5 '/>
		<polygon fill = 'rgb( 31, 120, 180)' fill-opacity = '0.250000' points = '617.6,143.5 617.6,662.4 619.5,662.4 619.5,145.3 '/>
		<polygon fill = 'rgb( 31, 120, 180)' fill-opacity = '0.250000' points = '619.5,145.3 619.5,662.4 621.4,662.4 621.4,147.1 '/>
		<polygon fill = 'rgb( 31, 120, 180)' fill-opacity = '0.250000' points = '621.4,147.1 621.4,662.4 623.3,662.4 623.3,148.9 '/>
		<polygon fill = 'rgb( 31, 120, 180)' fill-opacity = '0.250000' points = '623.3,148.9 623.3,662.4 625.2,662.4 625.2,150.9 '/>
		<polygon fill = 'rgb( 31, 120, 180)' fill-opacity = '0.250000' points = '625.2,150.9 625.2,662.4 627.1,662.4 627.1,152.9 '/>
		<polygon fill = 'rgb( 31, 120, 180)' fill-opacity = '0.250000' points = '627.1,152.9 627.1,662.4 629.0,662.4 629.0,155.0 '/>
		<polygon fill = 'rgb( 31, 120, 180)' fill-opacity = '0.250000' points = '629.0,155.0 629.0,662.4 630.9,662.4 630.9,157.2 '/>
		<polygon fill = 'rgb( 31, 120, 180)' fill-opacity = '0.250000' points = '630.9,157.2 630.9,662.4 632.8,662.4 632.8,159.5 '/>
		<polygon fill = 'rgb( 31, 120, 180)' fill-opacity = '0.250000' points = '632.8,159.5 632.8,662.4 634.7,662.4 634.7,161.9 '/>
		<polygon fill = 'rgb( 31, 120, 180)' fill-opacity = '0.250000' points = '634.7,161.9 634.7,662.4 636.6,662.4 636.6,164.4 '/>
		<polygon fill = 'rgb( 31, 120, 180)' fill-opacity = '0.250000' points = '636.6,164.4 636.6,662.4 638.5,662.4 638.5,167.1 '/>
		<polygon fill = 'rgb( 31, 120, 180)' fill-opacity = '0.250000' points = '638.5,167.1 638.5,662.4 640.5,662.4 640.5,169.8 '/>
		<polygon fill = 'rgb( 31, 120, 180)' fill-opacity = '0.250000' points = '640.5,169.8 640.5,662.4 642.4,662.4 642.4,172.7 '/>
		<polygon fill = 'rgb( 31, 120, 180)' fill-opacity = '0.250000' points = '642.4,172.7 642.4,662.4 644.3,662.4 644.3,175.6 '/>
		<polygon fill = 'rgb( 31, 120, 180)' fill-opacity = '0.250000' points = '644.3,175.6 644.3,662.4 646.2,662.4 646.2,178.7 '/>
		<polygon fill = 'rgb( 31, 120, 180)' fill-opacity = '0.250000' points = '646.2,178.7 646.2,662.4 648.1,662.4 648.1,181.9 '/>
		<polygon fill = 'rgb( 31, 120, 180)' fill-opacity = '0.250000' points = '648.1,181.9 648.1,662.4 650.0,662.4 650.0,185.1 '/>
		<polygon fill = 'rgb( 31, 120, 180)' fill-opacity = '0.250000' points = '650.0,185.1 650.0,662.4 651.9,662.4 651.9,188.4 '/>
		<polygon fill = 'rgb( 31, 120, 180)' fill-opacity = '0.250000' points = '651.9,188.4 651.9,662.4 653.8,662.4 653.8,191.8 '/>
		<polygon fill = 'rgb( 31, 120, 180)' fill-opacity = '0.250000' points = '653.8,191.8 653.8,662.4 655.7,662.4 655.7,195.3 '/>
		<polygon fill = 'rgb( 31, 120, 180)' fill-opacity = '0.250000' points = '655.7,195.3 655.7,662.4 657.6,662.4 657.6,198.8 '/>
		<polygon fill = 'rgb( 31, 120, 180)' fill-opacity = '0.250000' points = '657.6,198.8 657.6,662.4 659.5,662.4 659.5,202.3 '/>
		<polygon fill = 'rgb( 31, 120, 180)' fill-opacity = '0.250000' points = '659.5,202.3 659.5,662.4 661.4,662.4 661.4,205.9 '/>
		<polygon fill = 'rgb( 31, 120, 180)' fill-opacity = '0.250000' points = '661.4,205.9 661.4,662.4 663.3,662.4 663.3,209.5 '/>
		<polygon fill = 'rgb( 31, 120, 180)' fill-opacity = '0.250000' points = '663.3,209.5 663.3,662.4 665.2,662.4 665.2,213.1 '/>
		<polygon fill = 'rgb( 31, 120, 180)' fill-opacity = '0.250000' points = '665.2,213.1 665.2,662.4 667.1,662.4 667.1,216.8 '/>
		<polygon fill = 'rgb( 31, 120, 180)' fill-opacity = '0.250000' points = '667.1,216.8 667.1,662.4 669.0,662.4 669.0,220.4 '/>
		<polygon fill = 'rgb( 31, 120, 180)' fill-opacity = '0.250000' points = '669.0,220.4 669.0,662.4 670.9,662.4 670.9,224.0 '/>
		<polygon fill = 'rgb( 31, 120, 180)' fill-opacity = '0.250000' points = '670.9,224.0 670.9,662.4 672.8,662.4 672.8,227.6 '/>
		<polygon fill = 'rgb( 31, 120, 180)' fill-opacity = '0.250000' points = '672.8,227.6 672.8,662.4 674.7,662.4 674.7,231.1 '/>
		<polygon fill = 'rgb( 31, 120, 180)' fill-opacity = '0.250000' points = '674.7,231.1 674.7,662.4 676.6,662.4 676.6,234.7 '/>
		<polygon fill = 'rgb( 31, 120, 180)' fill-opacity = '0.250000' points = '676.6,234.7 676.6,662.4 678.5,662.4 678.5,238.2 '/>
		<polygon fill = 'rgb( 31, 120, 180)' fill-opacity = '0.250000' points = '678.5,238.2 678.5,662.4 680.4,662.4 680.4,241.6 '/>
		<polygon fill = 'rgb( 31, 120, 180)' fill-opacity = '0.250000' points = '680.4,241.6 680.4,662.4 682.3,662.4 682.3,245.0 '/>
		<polygon fill = 'rgb( 31, 120, 180)' fill-opacity = '0.250000' points = '682.3,245.0 682.3,662.4 684.2,662.4 684.2,248.4 '/>
		<polygon fill = 'rgb( 31, 120, 180)' fill-opacity = '0.250000' points = '684.2,248.4 684.2,662.4 686.1,662.4 686.1,251.6 '/>
		<polygon fill = 'rgb( 31, 120, 180)' fill-opacity = '0.250000' points = '686.1,251.6 686.1,662.4 688.0,662.4 688.0,254.9 '/>
		<polygon fill = 'rgb( 31, 120, 180)' fill-opacity = '0.250000' points = '688.0,254.9 688.0,662.4 690.0,662.4 690.0,258.1 '/>
		<polygon fill = 'rgb( 31, 120, 180)' fill-opacity = '0.250000' points = '690.0,258.1 690.0,662.4 691.9,662.4 691.9,261.2 '/>
		<polygon fill = 'rgb( 31, 120, 180)' fill-opacity = '0.250000' points = '691.9,261.2 691.9,662.4 693.8,662.4 693.8,264.3 '/>
		<polygon fill = 'rgb( 31, 120, 180)' fill-opacity = '0.250000' points = '693.8,264.3 693.8,662.4 695.7,662.4 695.7,267.4 '/>
		<polygon fill = 'rgb( 31, 120, 180)' fill-opacity = '0.250000' points = '695.7,267.4 695.7,662.4 697.6,662.4 697.6,270.4 '/>
		<polygon fill = 'rgb( 31, 120, 180)' fill-opacity = '0.250000' points = '697.6,270.4 697.6,662.4 699.5,662.4 699.5,273.4 '/>
		<polygon fill = 'rgb( 31, 120, 180)' fill-opacity = '0.250000' points = '699.5,273.4 699.5,662.4 701.4,662.4 701.4,276.3 '/>
		<polygon fill = 'rgb( 31, 120, 180)' fill-opacity = '0.250000' points = '701.4,276.3 701.4,662.4 703.3,662.4 703.3,279.3 '/>
		<polygon fill = 'rgb( 31, 120, 180)' fill-opacity = '0.250000' points = '703.3,279.3 703.3,662.4 705.2,662.4 705.2,282.2 '/>
		<polygon fill = 'rgb( 31, 120, 180)' fill-opacity = '0.250000' points = '705.2,282.2 705.2,662.4 707.1,662.4 707.1,285.1 '/>
		<polygon fill = 'rgb( 31, 120, 180)' fill-opacity = '0.250000' points = '707.1,285.1 707.1,662.4 709.0,662.4 709.0,288.0 '/>
		<polygon fill = 'rgb( 31, 120, 180)' fill-opacity = '0.250000' points = '709.0,288.0 709.0,662.4 710.9,662.4 710.9,290.9 '/>
		<polygon fill = 'rgb( 31, 120, 180)' fill-opacity = '0.250000' points = '710.9,290.9 710.9,662.4 712.8,662.4 712.8,293.8 '/>
		<polygon fill = 'rgb( 31, 120, 180)' fill-opacity = '0.250000' points = '712.8,293.8 712.8,662.4 714.7,662.4 714.7,296.7 '/>
		<polygon fill = 'rgb( 31, 120, 180)' fill-opacity = '0.250000' points = '714.7,296.7 714.7,662.4 716.6,662.4 716.6,299.7 '/>
		<polygon fill = 'rgb( 31, 120, 180)' fill-opacity = '0.250000' points = '716.6,299.7 716.6,662.4 718.5,662.4 718.5,302.6 '/>
		<polygon fill = 'rgb( 31, 120, 180)' fill-opacity = '0.250000' points = '718.5,302.6 718.5,662.4 720.4,662.4 720.4,305.6 '/>
		<polygon fill = 'rgb( 31, 120, 180)' fill-opacity = '0.250000' points = '720.4,305.6 720.4,662.4 722.3,662.4 722.3,308.5 '/>
		<polygon fill = 'rgb( 31, 120, 180)' fill-opacity = '0.250000' points = '722.3,308.5 722.3,662.4 724.2,662.4 724.2,311.5 '/>
		<polygon fill = 'rgb( 31, 120, 180)' fill-opacity = '0.250000' points = '724.2,311.5 724.2,662.4 726.1,662.4 726.1,314.5 '/>
		<polygon fill = 'rgb( 31, 120, 180)' fill-opacity = '0.250000' points = '726.1,314.5 726.1,662.4 728.0,662.4 728.0,317.5 '/>
		<polygon fill = 'rgb( 31, 120, 180)' fill-opacity = '0.250000' points = '728.0,317.5 728.0,662.4 729.9,662.4 729.9,320.6 '/>
		<polygon fill = 'rgb( 31, 120, 180)' fill-opacity = '0.250000' points = '729.9,320.6 729.9,662.4 731.8,662.4 731.8,323.7 '/>
		<polygon fill = 'rgb( 31, 120, 180)' fill-opacity = '0.250000' points = '731.8,323.7 731.8,662.4 733.7,662.4 733.7,326.8 '/>
		<polygon fill = 'rgb( 31, 120, 180)' fill-opacity = '0.250000' points = '733.7,326.8 733.7,662.4 735.6,662.4 735.6,329.9 '/>
		<polygon fill = 'rgb( 31, 120, 180)' fill-opacity = '0.250000' points = '735.6,329.9 735.6,662.4 737.5,662.4 737.5,333.1 '/>
		<polygon fill = 'rgb( 31, 120, 180)' fill-opacity = '0.250000' points = '737.5,333.1 737.5,662.4 739.5,662.4 739.5,336.2 '/>
		<polygon fill = 'rgb( 31, 120, 180)' fill-opacity = '0.250000' points = '739.5,336.2 739.5,662.4 741.4,662.4 741.4,339.4 '/>
		<polygon fill = 'rgb( 31, 120, 180)' fill-opacity = '0.250000' points = '741.4,339.4 741.4,662.4 743.3,662.4 743.3,342.7 '/>
		<polygon fill = 'rgb( 31, 120, 180)' fill-opacity = '0.250000' points = '743.3,342.7 743.3,662.4 745.2,662.4 745.2,345.9 '/>
		<polygon fill = 'rgb( 31, 120, 180)' fill-opacity = '0.250000' points = '745.2,345.9 745.2,662.4 747.1,662.4 747.1,349.2 '/>
		<polygon fill = 'rgb( 31, 120, 180)' fill-opacity = '0.250000' points = '747.1,349.2 747.1,662.4 749.0,662.4 749.0,352.5 '/>
		<polygon fill = 'rgb( 31, 120, 180)' fill-opacity = '0.250000' points = '749.0,352.5 749.0,662.4 750.9,662.4 750.9,355.8 '/>
		<polygon fill = 'rgb( 31, 120, 180)' fill-opacity = '0.250000' points = '750.9,355.8 750.9,662.4 752.8,662.4 752.8,359.1 '/>
		<polygon fill = 'rgb( 31, 120, 180)' fill-opacity = '0.250000' points = '752.8,359.1 752.8,662.4 754.7,662.4 754.7,362.4 '/>
		<polygon fill = 'rgb( 31, 120, 180)' fill-opacity = '0.250000' points = '754.7,362.4 754.7,662.4 756.6,662.4 756.6,365.8 '/>
		<polygon fill = 'rgb( 31, 120, 180)' fill-opacity = '0.250000' points = '756.6,365.8 756.6,662.4 758.5,662.4 758.5,369.1 '/>
		<polygon fill = 'rgb( 31, 120, 180)' fill-opacity = '0.250000' points = '758.5,369.1 758.5,662.4 760.4,662.4 760.4,372.5 '/>
		<polygon fill = 'rgb( 31, 120, 180)' fill-opacity = '0.250000' points = '760.4,372.5 760.4,662.4 762.3,662.4 762.3,375.8 '/>
		<polygon fill = 'rgb( 31, 120, 180)' fill-opacity = '0.250000' points = '762.3,375.8 762.3,662.4 764.2,662.4 764.2,379.2 '/>
		<polygon fill = 'rgb( 31, 120, 180)' fill-opacity = '0.250000' points = '764.2,379.2 764.2,662.4 766.1,662.4 766.1,382.5 '/>
		<polygon fill = 'rgb( 31, 120, 180)' fill-opacity = '0.250000' points = '766.1,382.5 766.1,662.4 768.0,662.4 768.0,385.8 '/>
		<polygon fill = 'rgb( 31, 120, 180)' fill-opacity = '0.250000' points = '768.0,385.8 768.0,662.4 769.9,662.4 769.9,389.1 '/>
		<polygon fill = 'rgb( 31, 120, 180)' fill-opacity = '0.250000' points = '769.9,389.1 769.9,662.4 771.8,662.4 771.8,392.4 '/>
		<polygon fill = 'rgb( 31, 120, 180)' fill-opacity = '0.250000' points = '771.8,392.4 771.8,662.4 773.7,662.4 773.7,395.7 '/>
		<polygon fill = 'rgb( 31, 120, 180)' fill-opacity = '0.250000' points = '773.7,395.7 773.7,662.4 775.6,662.4 775.6,398.9 '/>
		<polygon fill = 'rgb( 31, 120, 180)' fill-opacity = '0.250000' points = '775.6,398.9 775.6,662.4 777.5,662.4 777.5,402.1 '/>
		<polygon fill = 'rgb( 31, 120, 180)' fill-opacity = '0.250000' points = '777.5,402.1 777.5,662.4 779.4,662.4 779.4,405.3 '/>
		<polygon fill = 'rgb( 31, 120, 180)' fill-opacity = '0.250000' points = '779.4,405.3 779.4,662.4 781.3,662.4 781.3,408.5 '/>
		<polygon fill = 'rgb( 31, 120, 180)' fill-opacity = '0.250000' points = '781.3,408.5 781.3,662.4 783.2,662.4 783.2,411.7 '/>
		<polygon fill = 'rgb( 31, 120, 180)' fill-opacity = '0.250000' points = '783.2,411.7 783.2,662.4 785.1,662.4 785.1,414.9 '/>
		<polygon fill = 'rgb( 31, 120, 180)' fill-opacity = '0.250000' points = '785.1,414.9 785.1,662.4 787.0,662.4 787.0,418.0 '/>
		<polygon fill = 'rgb( 31, 120, 180)' fill-opacity = '0.250000' points = '787.0,418.0 787.0,662.4 789.0,662.4 789.0,421.1 '/>
		<polygon fill = 'rgb( 31, 120, 180)' fill-opacity = '0.250000' points = '789.0,421.1 789.0,662.4 790.9,662.4 790.9,424.2 '/>
		<polygon fill = 'rgb( 31, 120, 180)' fill-opacity = '0.250000' points = '790.9,424.2 790.9,662.4 792.8,662.4 792.8,427.3 '/>
		<polygon fill = 'rgb( 31, 120, 180)' fill-opacity = '0.250000' points = '792.8,427.3 792.8,662.4 794.7,662.4 794.7,430.4 '/>
		<polygon fill = 'rgb( 31, 120, 180)' fill-opacity = '0.250000' points = '794.7,430.4 794.7,662.4 796.6,662.4 796.6,433.5 '/>
		<polygon fill = 'rgb( 31, 120, 180)' fill-opacity = '0.250000' points = '796.6,433.5 796.6,662.4 798.5,662.4 798.5,436.5 '/>
		<polygon fill = 'rgb( 31, 120, 180)' fill-opacity = '0.250000' points = '798.5,436.5 798.5,662.4 800.4,662.4 800.4,439.5 '/>
		<polygon fill = 'rgb( 31, 120, 180)' fill-opacity = '0.250000' points = '800.4,439.5 800.4,662.4 802.3,662.4 802.3,442.5 '/>
		<polygon fill = 'rgb( 31, 120, 180)' fill-opacity = '0.250000' points = '802.3,442.5 802.3,662.4 804.2,662.4 804.2,445.5 '/>
		<polygon fill = 'rgb( 31, 120, 180)' fill-opacity = '0.250000' points = '804.2,445.5 804.2,662.4 806.1,662.4 806.1,448.5 '/>
		<polygon fill = 'rgb( 31, 120, 180)' fill-opacity = '0.250000' points = '806.1,448.5 806.1,662.4 808.0,662.4 808.0,451.4 '/>
		<polygon fill = 'rgb( 31, 120, 180)' fill-opacity = '0.250000' points = '808.0,451.4 808.0,662.4 809.9,662.4 809.9,454.3 '/>
		<polygon fill = 'rgb( 31, 120, 180)' fill-opacity = '0.250000' points = '809.9,454.3 809.9,662.4 811.8,662.4 811.8,457.1 '/>
		<polygon fill = 'rgb( 31, 120, 180)' fill-opacity = '0.250000' points = '811.8,457.1 811.8,662.4 813.7,662.4 813.7,459.9 '/>
		<polygon fill = 'rgb( 31, 120, 180)' fill-opacity = '0.250000' points = '813.7,459.9 813.7,662.4 815.6,662.4 815.6,462.6 '/>
		<polygon fill = 'rgb( 31, 120, 180)' fill-opacity = '0.250000' points = '815.6,462.6 815.6,662.4 817.5,662.4 817.5,465.3 '/>
		<polygon fill = 'rgb( 31, 120, 180)' fill-opacity = '0.250000' points = '817.5,465.3 817.5,662.4 819.4,662.4 819.4,468.0 '/>
		<polygon fill = 'rgb( 31, 120, 180)' fill-opacity = '0.250000' points = '819.4,468.0 819.4,662.4 821.3,662.4 821.3,470.6 '/>
		<polygon fill = 'rgb( 31, 120, 180)' fill-opacity = '0.250000' points = '821.3,470.6 821.3,662.4 823.2,662.4 823.2,473.1 '/>
		<polygon fill = 'rgb( 31, 120, 180)' fill-opacity = '0.250000' points = '823.2,473.1 823.2,662.4 825.1,662.4 825.1,475.6 '/>
		<polygon fill = 'rgb( 31, 120, 180)' fill-opacity = '0.250000' points = '825.1,475.6 825.1,662.4 827.0,662.4 827.0,478.0 '/>
		<polygon fill = 'rgb( 31, 120, 180)' fill-opacity = '0.250000' points = '827.0,478.0 827.0,662.4 828.9,662.4 828.9,480.4 '/>
		<polygon fill = 'rgb( 31, 120, 180)' fill-opacity = '0.250000' points = '828.9,480.4 828.9,662.4 830.8,662.4 830.8,482.8 '/>
		<polygon fill = 'rgb( 31, 120, 180)' fill-opacity = '0.250000' points = '830.8,482.8 830.8,662.4 832.7,662.4 832.7,485.1 '/>
		<polygon fill = 'rgb( 31, 120, 180)' fill-opacity = '0.250000' points = '832.7,485.1 832.7,662.4 834.6,662.4 834.6,487.4 '/>
		<polygon fill = 'rgb( 31, 120, 180)' fill-opacity = '0.250000' points = '834.6,487.4 834.6,662.4 836.5,662.4 836.5,489.7 '/>
		<polygon fill = 'rgb( 31, 120, 180)' fill-opacity = '0.250000' points = '836.5,489.7 836.5,662.4 838.4,662.4 838.4,491.9 '/>
		<polygon fill = 'rgb( 31, 120, 180)' fill-opacity = '0.250000' points = '838.4,491.9 838.4,662.4 840.4,662.4 840.4,494.2 '/>
		<polygon fill = 'rgb( 31, 120, 180)' fill-opacity = '0.250000' points = '840.4,494.2 840.4,662.4 842.3,662.4 842.3,496.4 '/>
		<polygon fill = 'rgb( 31, 120, 180)' fill-opacity = '0.250000' points = '842.3,496.4 842.3,662.4 844.2,662.4 844.2,498.6 '/>
		<polygon fill = 'rgb( 31, 120, 180)' fill-opacity = '0.250000' points = '844.2,498.6 844.2,662.4 846.1,662.4 846.1,500.8 '/>
		<polygon fill = 'rgb( 31, 120, 180)' fill-opacity = '0.250000' points = '846.1,500.8 846.1,662.4 848.0,662.4 848.0,503.1 '/>
		<polygon fill = 'rgb( 31, 120, 180)' fill-opacity = '0.250000' points = '848.0,503.1 848.0,662.4 849.9,662.4 849.9,505.3 '/>
		<polygon fill = 'rgb( 31, 120, 180)' fill-opacity = '0.250000' points = '849.9,505.3 849.9,662.4 851.8,662.4 851.8,507.5 '/>
		<polygon fill = 'rgb( 31, 120, 180)' fill-opacity = '0.250000' points = '851.8,507.5 851.8,662.4 853.7,662.4 853.7,509.8 '/>
		<polygon fill = 'rgb( 31, 120, 180)' fill-opacity = '0.250000' points = '853.7,509.8 853.7,662.4 855.6,662.4 855.6,512.0 '/>
		<polygon fill = 'rgb( 31, 120, 180)' fill-opacity = '0.250000' points = '855.6,512.0 855.6,662.4 857.5,662.4 857.5,514.3 '/>
		<polygon fill = 'rgb( 31, 120, 180)' fill-opacity = '0.250000' points = '857.5,514.3 857.5,662.4 859.4,662.4 859.4,516.5 '/>
		<polygon fill = 'rgb( 31, 120, 180)' fill-opacity = '0.250000' points = '859.4,516.5 859.4,662.4 861.3,662.4 861.3,518.7 '/>
		<polygon fill = 'rgb( 31, 120, 180)' fill-opacity = '0.250000' points = '861.3,518.7 861.3,662.4 863.2,662.4 863.2,521.0 '/>
		<polygon fill = 'rgb( 31, 120, 180)' fill-opacity = '0.250000' points = '863.2,521.0 863.2,662.4 865.1,662.4 865.1,523.2 '/>
		<polygon fill = 'rgb( 31, 120, 180)' fill-opacity = '0.250000' points = '865.1,523.2 865.1,662.4 867.0,662.4 867.0,525.4 '/>
		<polygon fill = 'rgb( 31, 120, 180)' fill-opacity = '0.250000' points = '867.0,525.4 867.0,662.4 868.9,662.4 868.9,527.6 '/>
		<polygon fill = 'rgb( 31, 120, 180)' fill-opacity = '0.250000' points = '868.9,527.6 868.9,662.4 870.8,662.4 870.8,529.7 '/>
		<polygon fill = 'rgb( 31, 120, 180)' fill-opacity = '0.250000' points = '870.8,529.7 870.8,662.4 872.7,662.4 872.7,531.8 '/>
		<polygon fill = 'rgb( 31, 120, 180)' fill-opacity = '0.250000' points = '872.7,531.8 872.7,662.4 874.6,662.4 874.6,533.9 '/>
		<polygon fill = 'rgb( 31, 120, 180)' fill-opacity = '0.250000' points = '874.6,533.9 874.6,662.4 876.5,662.4 876.5,536.0 '/>
		<polygon fill = 'rgb( 31, 120, 180)' fill-opacity = '0.250000' points = '876.5,536.0 876.5,662.4 878.4,662.4 878.4,538.0 '/>
		<polygon fill = 'rgb( 31, 120, 180)' fill-opacity = '0.250000' points = '878.4,538.0 878.4,662.4 880.3,662.4 880.3,539.9 '/>
		<polygon fill = 'rgb( 31, 120, 180)' fill-opacity = '0.250000' points = '880.3,539.9 880.3,662.4 882.2,662.4 882.2,541.8 '/>
		<polygon fill = 'rgb( 31, 120, 180)' fill-opacity = '0.250000' points = '882.2,541.8 882.2,662.4 884.1,662.4 884.1,543.7 '/>
		<polygon fill = 'rgb( 31, 120, 180)' fill-opacity = '0.250000' points = '884.1,543.7 884.1,662.4 886.0,662.4 886.0,545.5 '/>
		<polygon fill = 'rgb( 31, 120, 180)' fill-opacity = '0.250000' points = '886.0,545.5 886.0,662.4 887.9,662.4 887.9,547.3 '/>
		<polygon fill = 'rgb( 31, 120, 180)' fill-opacity = '0.250000' points = '887.9,547.3 887.9,662.4 889.9,662.4 889.9,549.0 '/>
		<polygon fill = 'rgb( 31, 120, 180)' fill-opacity = '0.250000' points = '889.9,549.0 889.9,662.4 891.8,662.4 891.8,550.7 '/>
		<polygon fill = 'rgb( 31, 120, 180)' fill-opacity = '0.250000' points = '891.8,550.7 891.8,662.4 893.7,662.4 893.7,552.3 '/>
		<polygon fill = 'rgb( 31, 120, 180)' fill-opacity = '0.250000' points = '893.7,552.3 893.7,662.4 895.6,662.4 895.6,553.9 '/>
		<polygon fill = 'rgb( 31, 120, 180)' fill-opacity = '0.250000' points = '895.6,553.9 895.6,662.4 897.5,662.4 897.5,555.4 '/>
		<polygon fill = 'rgb( 31, 120, 180)' fill-opacity = '0.250000' points = '897.5,555.4 897.5,662.4 899.4,662.4 899.4,556.9 '/>
		<polygon fill = 'rgb( 31, 120, 180)' fill-opacity = '0.250000' points = '899.4,556.9 899.4,662.4 901.3,662.4 901.3,558.4 '/>
		<polygon fill = 'rgb( 31, 120, 180)' fill-opacity = '0.250000' points = '901.3,558.4 901.3,662.4 903.2,662.4 903.2,559.9 '/>
		<polygon fill = 'rgb( 31, 120, 180)' fill-opacity = '0.250000' points = '903.2,559.9 903.2,662.4 905.1,662.4 905.1,561.3 '/>
		<polygon fill = 'rgb( 31, 120, 180)' fill-opacity = '0.250000' points = '905.1,561.3 905.1,662.4 907.0,662.4 907.0,562.8 '/>
		<polygon fill = 'rgb( 31, 120, 180)' fill-opacity = '0.250000' points = '907.0,562.8 907.0,662.4 908.9,662.4 908.9,564.2 '/>
		<polygon fill = 'rgb( 31, 120, 180)' fill-opacity = '0.250000' points = '908.9,564.2 908.9,662.4 910.8,662.4 910.8,565.6 '/>
		<polygon fill = 'rgb( 31, 120, 180)' fill-opacity = '0.250000' points = '910.8,565.6 910.8,662.4 912.7,662.4 912.7,567.0 '/>
		<polygon fill = 'rgb( 31, 120, 180)' fill-opacity = '0.250000' points = '912.7,567.0 912.7,662.4 914.6,662.4 914.6,568.3 '/>
		<polygon fill = 'rgb( 31, 120, 180)' fill-opacity = '0.250000' points = '914.6,568.3 914.6,662.4 916.5,662.4 916.5,569.7 '/>
		<polygon fill = 'rgb( 31, 120, 180)' fill-opacity = '0.250000' points = '916.5,569.7 916.5,662.4 918.4,662.4 918.4,571.1 '/>
		<polygon fill = 'rgb( 31, 120, 180)' fill-opacity = '0.250000' points = '918.4,571.1 918.4,662.4 920.3,662.4 920.3,572.5 '/>
		<polygon fill = 'rgb( 31, 120, 180)' fill-opacity = '0.250000' points = '920.3,572.5 920.3,662.4 922.2,662.4 922.2,573.8 '/>
		<polygon fill = 'rgb( 31, 120, 180)' fill-opacity = '0.250000' points = '922.2,573.8 922.2,662.4 924.1,662.4 924.1,575.2 '/>
	</g>
</g>
	</g>
	<g id="gnuplot_plot_3" ><title>Point estimate</title>
<g fill="none" color="white" stroke="rgb( 31, 120, 180)" stroke-width="2.00" stroke-linecap="butt" stroke-linejoin="miter">
</g>
<g fill="none" color="black" stroke="currentColor" stroke-width="2.00" stroke-linecap="butt" stroke-linejoin="miter">
	<g transform="translate(1089.0,103.0)" stroke="none" fill="black" font-family="Helvetica" font-size="12.00"  text-anchor="start">
		<text><tspan font-family="Helvetica" >Point estimate</tspan></text>
	</g>
</g>
<g fill="none" color="black" stroke="currentColor" stroke-width="2.00" stroke-linecap="butt" stroke-linejoin="miter">
	<path stroke='rgb( 31, 120, 180)'  d='M1038.5,99.1 L1080.7,99.1 M522.9,662.4 L522.9,63.5  '/></g>
	</g>
<g fill="none" color="black" stroke="currentColor" stroke-width="2.00" stroke-linecap="butt" stroke-linejoin="miter">
</g>
<g fill="none" color="black" stroke="black" stroke-width="1.00" stroke-linecap="butt" stroke-linejoin="miter">
</g>
<g fill="none" color="black" stroke="currentColor" stroke-width="1.00" stroke-linecap="butt" stroke-linejoin="miter">
	<path stroke='black'  d='M63.6,54.1 L63.6,662.4 L1013.6,662.4 L1013.6,54.1 L63.6,54.1 Z  '/></g>
<g fill="none" color="black" stroke="currentColor" stroke-width="1.00" stroke-linecap="butt" stroke-linejoin="miter">
</g>
</g>
</svg>

