<?xml version="1.0" encoding="utf-8"  standalone="no"?>
<svg 
 viewBox="0 0 450 300"
 xmlns="http://www.w3.org/2000/svg"
 xmlns:xlink="http://www.w3.org/1999/xlink"
>

<title>Gnuplot</title>
<desc>Produced by GNUPLOT 5.0 patchlevel 6 </desc>

<g id="gnuplot_canvas">

<rect x="0" y="0" width="450" height="300" fill="none"/>
<defs>

	<circle id='gpDot' r='0.5' stroke-width='0.5'/>
	<path id='gpPt0' stroke-width='0.222' stroke='currentColor' d='M-1,0 h2 M0,-1 v2'/>
	<path id='gpPt1' stroke-width='0.222' stroke='currentColor' d='M-1,-1 L1,1 M1,-1 L-1,1'/>
	<path id='gpPt2' stroke-width='0.222' stroke='currentColor' d='M-1,0 L1,0 M0,-1 L0,1 M-1,-1 L1,1 M-1,1 L1,-1'/>
	<rect id='gpPt3' stroke-width='0.222' stroke='currentColor' x='-1' y='-1' width='2' height='2'/>
	<rect id='gpPt4' stroke-width='0.222' stroke='currentColor' fill='currentColor' x='-1' y='-1' width='2' height='2'/>
	<circle id='gpPt5' stroke-width='0.222' stroke='currentColor' cx='0' cy='0' r='1'/>
	<use xlink:href='#gpPt5' id='gpPt6' fill='currentColor' stroke='none'/>
	<path id='gpPt7' stroke-width='0.222' stroke='currentColor' d='M0,-1.33 L-1.33,0.67 L1.33,0.67 z'/>
	<use xlink:href='#gpPt7' id='gpPt8' fill='currentColor' stroke='none'/>
	<use xlink:href='#gpPt7' id='gpPt9' stroke='currentColor' transform='rotate(180)'/>
	<use xlink:href='#gpPt9' id='gpPt10' fill='currentColor' stroke='none'/>
	<use xlink:href='#gpPt3' id='gpPt11' stroke='currentColor' transform='rotate(45)'/>
	<use xlink:href='#gpPt11' id='gpPt12' fill='currentColor' stroke='none'/>
	<path id='gpPt13' stroke-width='0.222' stroke='currentColor' d='M0,1.330 L1.265,0.411 L0.782,-1.067 L-0.782,-1.076 L-1.265,0.411 z'/>
	<use xlink:href='#gpPt13' id='gpPt14' fill='currentColor' stroke='none'/>
	<filter id='textbox' filterUnits='objectBoundingBox' x='0' y='0' height='1' width='1'>
	  <feFlood flood-color='white' flood-opacity='1' result='bgnd'/>
	  <feComposite in='SourceGraphic' in2='bgnd' operator='atop'/>
	</filter>
	<filter id='greybox' filterUnits='objectBoundingBox' x='0' y='0' height='1' width='1'>
	  <feFlood flood-color='lightgrey' flood-opacity='1' result='grey'/>
	  <feComposite in='SourceGraphic' in2='grey' operator='atop'/>
	</filter>
</defs>
<g fill="none" color="white" stroke="currentColor" stroke-width="1.00" stroke-linecap="butt" stroke-linejoin="miter">
</g>
<g fill="none" color="black" stroke="currentColor" stroke-width="1.00" stroke-linecap="butt" stroke-linejoin="miter">
	<path stroke='black'  d='M88.5,242.4 L97.5,242.4  '/>	<g transform="translate(80.2,246.3)" stroke="none" fill="black" font-family="Helvetica" font-size="12.00"  text-anchor="end">
		<text><tspan font-family="Helvetica" > 0</tspan></text>
	</g>
</g>
<g fill="none" color="black" stroke="currentColor" stroke-width="1.00" stroke-linecap="butt" stroke-linejoin="miter">
	<path stroke='black'  d='M88.5,203.6 L97.5,203.6  '/>	<g transform="translate(80.2,207.5)" stroke="none" fill="black" font-family="Helvetica" font-size="12.00"  text-anchor="end">
		<text><tspan font-family="Helvetica" > 1x10</tspan><tspan font-family="Helvetica"  font-size="9.6" dy="-6.00px">-6</tspan><tspan font-size="12.0" dy="6.00"></tspan></text>
	</g>
</g>
<g fill="none" color="black" stroke="currentColor" stroke-width="1.00" stroke-linecap="butt" stroke-linejoin="miter">
	<path stroke='black'  d='M88.5,164.9 L97.5,164.9  '/>	<g transform="translate(80.2,168.8)" stroke="none" fill="black" font-family="Helvetica" font-size="12.00"  text-anchor="end">
		<text><tspan font-family="Helvetica" > 2x10</tspan><tspan font-family="Helvetica"  font-size="9.6" dy="-6.00px">-6</tspan><tspan font-size="12.0" dy="6.00"></tspan></text>
	</g>
</g>
<g fill="none" color="black" stroke="currentColor" stroke-width="1.00" stroke-linecap="butt" stroke-linejoin="miter">
	<path stroke='black'  d='M88.5,126.1 L97.5,126.1  '/>	<g transform="translate(80.2,130.0)" stroke="none" fill="black" font-family="Helvetica" font-size="12.00"  text-anchor="end">
		<text><tspan font-family="Helvetica" > 3x10</tspan><tspan font-family="Helvetica"  font-size="9.6" dy="-6.00px">-6</tspan><tspan font-size="12.0" dy="6.00"></tspan></text>
	</g>
</g>
<g fill="none" color="black" stroke="currentColor" stroke-width="1.00" stroke-linecap="butt" stroke-linejoin="miter">
	<path stroke='black'  d='M88.5,87.4 L97.5,87.4  '/>	<g transform="translate(80.2,91.3)" stroke="none" fill="black" font-family="Helvetica" font-size="12.00"  text-anchor="end">
		<text><tspan font-family="Helvetica" > 4x10</tspan><tspan font-family="Helvetica"  font-size="9.6" dy="-6.00px">-6</tspan><tspan font-size="12.0" dy="6.00"></tspan></text>
	</g>
</g>
<g fill="none" color="black" stroke="currentColor" stroke-width="1.00" stroke-linecap="butt" stroke-linejoin="miter">
	<path stroke='black'  d='M88.5,48.6 L97.5,48.6  '/>	<g transform="translate(80.2,52.5)" stroke="none" fill="black" font-family="Helvetica" font-size="12.00"  text-anchor="end">
		<text><tspan font-family="Helvetica" > 5x10</tspan><tspan font-family="Helvetica"  font-size="9.6" dy="-6.00px">-6</tspan><tspan font-size="12.0" dy="6.00"></tspan></text>
	</g>
</g>
<g fill="none" color="black" stroke="currentColor" stroke-width="1.00" stroke-linecap="butt" stroke-linejoin="miter">
	<path stroke='black'  d='M95.4,242.4 L95.4,233.4  '/>	<g transform="translate(95.4,264.3)" stroke="none" fill="black" font-family="Helvetica" font-size="12.00"  text-anchor="middle">
		<text><tspan font-family="Helvetica" > 23.8</tspan></text>
	</g>
</g>
<g fill="none" color="black" stroke="currentColor" stroke-width="1.00" stroke-linecap="butt" stroke-linejoin="miter">
	<path stroke='black'  d='M132.1,242.4 L132.1,233.4  '/>	<g transform="translate(132.1,264.3)" stroke="none" fill="black" font-family="Helvetica" font-size="12.00"  text-anchor="middle">
		<text><tspan font-family="Helvetica" > 23.85</tspan></text>
	</g>
</g>
<g fill="none" color="black" stroke="currentColor" stroke-width="1.00" stroke-linecap="butt" stroke-linejoin="miter">
	<path stroke='black'  d='M168.9,242.4 L168.9,233.4  '/>	<g transform="translate(168.9,264.3)" stroke="none" fill="black" font-family="Helvetica" font-size="12.00"  text-anchor="middle">
		<text><tspan font-family="Helvetica" > 23.9</tspan></text>
	</g>
</g>
<g fill="none" color="black" stroke="currentColor" stroke-width="1.00" stroke-linecap="butt" stroke-linejoin="miter">
	<path stroke='black'  d='M205.6,242.4 L205.6,233.4  '/>	<g transform="translate(205.6,264.3)" stroke="none" fill="black" font-family="Helvetica" font-size="12.00"  text-anchor="middle">
		<text><tspan font-family="Helvetica" > 23.95</tspan></text>
	</g>
</g>
<g fill="none" color="black" stroke="currentColor" stroke-width="1.00" stroke-linecap="butt" stroke-linejoin="miter">
	<path stroke='black'  d='M242.3,242.4 L242.3,233.4  '/>	<g transform="translate(242.3,264.3)" stroke="none" fill="black" font-family="Helvetica" font-size="12.00"  text-anchor="middle">
		<text><tspan font-family="Helvetica" > 24</tspan></text>
	</g>
</g>
<g fill="none" color="black" stroke="currentColor" stroke-width="1.00" stroke-linecap="butt" stroke-linejoin="miter">
	<path stroke='black'  d='M279.1,242.4 L279.1,233.4  '/>	<g transform="translate(279.1,264.3)" stroke="none" fill="black" font-family="Helvetica" font-size="12.00"  text-anchor="middle">
		<text><tspan font-family="Helvetica" > 24.05</tspan></text>
	</g>
</g>
<g fill="none" color="black" stroke="currentColor" stroke-width="1.00" stroke-linecap="butt" stroke-linejoin="miter">
	<path stroke='black'  d='M315.8,242.4 L315.8,233.4  '/>	<g transform="translate(315.8,264.3)" stroke="none" fill="black" font-family="Helvetica" font-size="12.00"  text-anchor="middle">
		<text><tspan font-family="Helvetica" > 24.1</tspan></text>
	</g>
</g>
<g fill="none" color="black" stroke="currentColor" stroke-width="1.00" stroke-linecap="butt" stroke-linejoin="miter">
	<path stroke='black'  d='M352.5,242.4 L352.5,233.4  '/>	<g transform="translate(352.5,264.3)" stroke="none" fill="black" font-family="Helvetica" font-size="12.00"  text-anchor="middle">
		<text><tspan font-family="Helvetica" > 24.15</tspan></text>
	</g>
</g>
<g fill="none" color="black" stroke="currentColor" stroke-width="1.00" stroke-linecap="butt" stroke-linejoin="miter">
	<path stroke='black'  d='M389.3,242.4 L389.3,233.4  '/>	<g transform="translate(389.3,264.3)" stroke="none" fill="black" font-family="Helvetica" font-size="12.00"  text-anchor="middle">
		<text><tspan font-family="Helvetica" > 24.2</tspan></text>
	</g>
</g>
<g fill="none" color="black" stroke="currentColor" stroke-width="1.00" stroke-linecap="butt" stroke-linejoin="miter">
</g>
<g fill="none" color="black" stroke="currentColor" stroke-width="1.00" stroke-linecap="butt" stroke-linejoin="miter">
	<path stroke='black'  d='M88.5,16.7 L88.5,242.4 L425.0,242.4 L425.0,16.7 L88.5,16.7 Z  '/></g>
<g fill="none" color="black" stroke="currentColor" stroke-width="1.00" stroke-linecap="butt" stroke-linejoin="miter">
	<g transform="translate(17.0,129.6) rotate(270)" stroke="none" fill="black" font-family="Helvetica" font-size="12.00"  text-anchor="middle">
		<text><tspan font-family="Helvetica" >Density (a.u.)</tspan></text>
	</g>
</g>
<g fill="none" color="black" stroke="currentColor" stroke-width="1.00" stroke-linecap="butt" stroke-linejoin="miter">
	<g transform="translate(256.7,291.3)" stroke="none" fill="black" font-family="Helvetica" font-size="12.00"  text-anchor="middle">
		<text><tspan font-family="Helvetica" >Average time (ms)</tspan></text>
	</g>
</g>
<g fill="none" color="black" stroke="currentColor" stroke-width="1.00" stroke-linecap="butt" stroke-linejoin="miter">
</g>
	<g id="gnuplot_plot_1" ><title>PDF</title>
<g fill="none" color="black" stroke="currentColor" stroke-width="1.00" stroke-linecap="butt" stroke-linejoin="miter">
	<g stroke='none' shape-rendering='crispEdges'>
		<polygon fill = 'rgb( 31, 120, 180)' fill-opacity = '0.250000' points = '88.5,242.0 88.5,242.4 89.2,242.4 89.2,242.0 '/>
		<polygon fill = 'rgb( 31, 120, 180)' fill-opacity = '0.250000' points = '89.2,242.0 89.2,242.4 89.8,242.4 89.8,242.0 '/>
		<polygon fill = 'rgb( 31, 120, 180)' fill-opacity = '0.250000' points = '89.8,242.0 89.8,242.4 90.5,242.4 90.5,242.0 '/>
		<polygon fill = 'rgb( 31, 120, 180)' fill-opacity = '0.250000' points = '90.5,242.0 90.5,242.4 91.2,242.4 91.2,241.9 '/>
		<polygon fill = 'rgb( 31, 120, 180)' fill-opacity = '0.250000' points = '91.2,241.9 91.2,242.4 91.9,242.4 91.9,241.9 '/>
		<polygon fill = 'rgb( 31, 120, 180)' fill-opacity = '0.250000' points = '91.9,241.9 91.9,242.4 92.5,242.4 92.5,241.8 '/>
		<polygon fill = 'rgb( 31, 120, 180)' fill-opacity = '0.250000' points = '92.5,241.8 92.5,242.4 93.2,242.4 93.2,241.8 '/>
		<polygon fill = 'rgb( 31, 120, 180)' fill-opacity = '0.250000' points = '93.2,241.8 93.2,242.4 93.9,242.4 93.9,241.8 '/>
		<polygon fill = 'rgb( 31, 120, 180)' fill-opacity = '0.250000' points = '93.9,241.8 93.9,242.4 94.6,242.4 94.6,241.7 '/>
		<polygon fill = 'rgb( 31, 120, 180)' fill-opacity = '0.250000' points = '94.6,241.7 94.6,242.4 95.2,242.4 95.2,241.7 '/>
		<polygon fill = 'rgb( 31, 120, 180)' fill-opacity = '0.250000' points = '95.2,241.7 95.2,242.4 95.9,242.4 95.9,241.6 '/>
		<polygon fill = 'rgb( 31, 120, 180)' fill-opacity = '0.250000' points = '95.9,241.6 95.9,242.4 96.6,242.4 96.6,241.6 '/>
		<polygon fill = 'rgb( 31, 120, 180)' fill-opacity = '0.250000' points = '96.6,241.6 96.6,242.4 97.3,242.4 97.3,241.5 '/>
		<polygon fill = 'rgb( 31, 120, 180)' fill-opacity = '0.250000' points = '97.3,241.5 97.3,242.4 97.9,242.4 97.9,241.4 '/>
		<polygon fill = 'rgb( 31, 120, 180)' fill-opacity = '0.250000' points = '97.9,241.4 97.9,242.4 98.6,242.4 98.6,241.4 '/>
		<polygon fill = 'rgb( 31, 120, 180)' fill-opacity = '0.250000' points = '98.6,241.4 98.6,242.4 99.3,242.4 99.3,241.3 '/>
		<polygon fill = 'rgb( 31, 120, 180)' fill-opacity = '0.250000' points = '99.3,241.3 99.3,242.4 100.0,242.4 100.0,241.2 '/>
		<polygon fill = 'rgb( 31, 120, 180)' fill-opacity = '0.250000' points = '100.0,241.2 100.0,242.4 100.6,242.4 100.6,241.2 '/>
		<polygon fill = 'rgb( 31, 120, 180)' fill-opacity = '0.250000' points = '100.6,241.2 100.6,242.4 101.3,242.4 101.3,241.1 '/>
		<polygon fill = 'rgb( 31, 120, 180)' fill-opacity = '0.250000' points = '101.3,241.1 101.3,242.4 102.0,242.4 102.0,241.0 '/>
		<polygon fill = 'rgb( 31, 120, 180)' fill-opacity = '0.250000' points = '102.0,241.0 102.0,242.4 102.7,242.4 102.7,240.9 '/>
		<polygon fill = 'rgb( 31, 120, 180)' fill-opacity = '0.250000' points = '102.7,240.9 102.7,242.4 103.3,242.4 103.3,240.8 '/>
		<polygon fill = 'rgb( 31, 120, 180)' fill-opacity = '0.250000' points = '103.3,240.8 103.3,242.4 104.0,242.4 104.0,240.7 '/>
		<polygon fill = 'rgb( 31, 120, 180)' fill-opacity = '0.250000' points = '104.0,240.7 104.0,242.4 104.7,242.4 104.7,240.6 '/>
		<polygon fill = 'rgb( 31, 120, 180)' fill-opacity = '0.250000' points = '104.7,240.6 104.7,242.4 105.4,242.4 105.4,240.5 '/>
		<polygon fill = 'rgb( 31, 120, 180)' fill-opacity = '0.250000' points = '105.4,240.5 105.4,242.4 106.0,242.4 106.0,240.4 '/>
		<polygon fill = 'rgb( 31, 120, 180)' fill-opacity = '0.250000' points = '106.0,240.4 106.0,242.4 106.7,242.4 106.7,240.2 '/>
		<polygon fill = 'rgb( 31, 120, 180)' fill-opacity = '0.250000' points = '106.7,240.2 106.7,242.4 107.4,242.4 107.4,240.1 '/>
		<polygon fill = 'rgb( 31, 120, 180)' fill-opacity = '0.250000' points = '107.4,240.1 107.4,242.4 108.1,242.4 108.1,240.0 '/>
		<polygon fill = 'rgb( 31, 120, 180)' fill-opacity = '0.250000' points = '108.1,240.0 108.1,242.4 108.7,242.4 108.7,239.8 '/>
		<polygon fill = 'rgb( 31, 120, 180)' fill-opacity = '0.250000' points = '108.7,239.8 108.7,242.4 109.4,242.4 109.4,239.7 '/>
		<polygon fill = 'rgb( 31, 120, 180)' fill-opacity = '0.250000' points = '109.4,239.7 109.4,242.4 110.1,242.4 110.1,239.5 '/>
		<polygon fill = 'rgb( 31, 120, 180)' fill-opacity = '0.250000' points = '110.1,239.5 110.1,242.4 110.8,242.4 110.8,239.3 '/>
		<polygon fill = 'rgb( 31, 120, 180)' fill-opacity = '0.250000' points = '110.8,239.3 110.8,242.4 111.4,242.4 111.4,239.1 '/>
		<polygon fill = 'rgb( 31, 120, 180)' fill-opacity = '0.250000' points = '111.4,239.1 111.4,242.4 112.1,242.4 112.1,239.0 '/>
		<polygon fill = 'rgb( 31, 120, 180)' fill-opacity = '0.250000' points = '112.1,239.0 112.1,242.4 112.8,242.4 112.8,238.8 '/>
		<polygon fill = 'rgb( 31, 120, 180)' fill-opacity = '0.250000' points = '112.8,238.8 112.8,242.4 113.5,242.4 113.5,238.6 '/>
		<polygon fill = 'rgb( 31, 120, 180)' fill-opacity = '0.250000' points = '113.5,238.6 113.5,242.4 114.1,242.4 114.1,238.3 '/>
		<polygon fill = 'rgb( 31, 120, 180)' fill-opacity = '0.250000' points = '114.1,238.3 114.1,242.4 114.8,242.4 114.8,238.1 '/>
		<polygon fill = 'rgb( 31, 120, 180)' fill-opacity = '0.250000' points = '114.8,238.1 114.8,242.4 115.5,242.4 115.5,237.9 '/>
		<polygon fill = 'rgb( 31, 120, 180)' fill-opacity = '0.250000' points = '115.5,237.9 115.5,242.4 116.1,242.4 116.1,237.6 '/>
		<polygon fill = 'rgb( 31, 120, 180)' fill-opacity = '0.250000' points = '116.1,237.6 116.1,242.4 116.8,242.4 116.8,237.4 '/>
		<polygon fill = 'rgb( 31, 120, 180)' fill-opacity = '0.250000' points = '116.8,237.4 116.8,242.4 117.5,242.4 117.5,237.1 '/>
		<polygon fill = 'rgb( 31, 120, 180)' fill-opacity = '0.250000' points = '117.5,237.1 117.5,242.4 118.2,242.4 118.2,236.8 '/>
		<polygon fill = 'rgb( 31, 120, 180)' fill-opacity = '0.250000' points = '118.2,236.8 118.2,242.4 118.8,242.4 118.8,236.5 '/>
		<polygon fill = 'rgb( 31, 120, 180)' fill-opacity = '0.250000' points = '118.8,236.5 118.8,242.4 119.5,242.4 119.5,236.2 '/>
		<polygon fill = 'rgb( 31, 120, 180)' fill-opacity = '0.250000' points = '119.5,236.2 119.5,242.4 120.2,242.4 120.2,235.9 '/>
		<polygon fill = 'rgb( 31, 120, 180)' fill-opacity = '0.250000' points = '120.2,235.9 120.2,242.4 120.9,242.4 120.9,235.6 '/>
		<polygon fill = 'rgb( 31, 120, 180)' fill-opacity = '0.250000' points = '120.9,235.6 120.9,242.4 121.5,242.4 121.5,235.2 '/>
		<polygon fill = 'rgb( 31, 120, 180)' fill-opacity = '0.250000' points = '121.5,235.2 121.5,242.4 122.2,242.4 122.2,234.9 '/>
		<polygon fill = 'rgb( 31, 120, 180)' fill-opacity = '0.250000' points = '122.2,234.9 122.2,242.4 122.9,242.4 122.9,234.5 '/>
		<polygon fill = 'rgb( 31, 120, 180)' fill-opacity = '0.250000' points = '122.9,234.5 122.9,242.4 123.6,242.4 123.6,234.1 '/>
		<polygon fill = 'rgb( 31, 120, 180)' fill-opacity = '0.250000' points = '123.6,234.1 123.6,242.4 124.2,242.4 124.2,233.7 '/>
		<polygon fill = 'rgb( 31, 120, 180)' fill-opacity = '0.250000' points = '124.2,233.7 124.2,242.4 124.9,242.4 124.9,233.3 '/>
		<polygon fill = 'rgb( 31, 120, 180)' fill-opacity = '0.250000' points = '124.9,233.3 124.9,242.4 125.6,242.4 125.6,232.9 '/>
		<polygon fill = 'rgb( 31, 120, 180)' fill-opacity = '0.250000' points = '125.6,232.9 125.6,242.4 126.3,242.4 126.3,232.4 '/>
		<polygon fill = 'rgb( 31, 120, 180)' fill-opacity = '0.250000' points = '126.3,232.4 126.3,242.4 126.9,242.4 126.9,231.9 '/>
		<polygon fill = 'rgb( 31, 120, 180)' fill-opacity = '0.250000' points = '126.9,231.9 126.9,242.4 127.6,242.4 127.6,231.5 '/>
		<polygon fill = 'rgb( 31, 120, 180)' fill-opacity = '0.250000' points = '127.6,231.5 127.6,242.4 128.3,242.4 128.3,231.0 '/>
		<polygon fill = 'rgb( 31, 120, 180)' fill-opacity = '0.250000' points = '128.3,231.0 128.3,242.4 129.0,242.4 129.0,230.5 '/>
		<polygon fill = 'rgb( 31, 120, 180)' fill-opacity = '0.250000' points = '129.0,230.5 129.0,242.4 129.6,242.4 129.6,229.9 '/>
		<polygon fill = 'rgb( 31, 120, 180)' fill-opacity = '0.250000' points = '129.6,229.9 129.6,242.4 130.3,242.4 130.3,229.4 '/>
		<polygon fill = 'rgb( 31, 120, 180)' fill-opacity = '0.250000' points = '130.3,229.4 130.3,242.4 131.0,242.4 131.0,228.8 '/>
		<polygon fill = 'rgb( 31, 120, 180)' fill-opacity = '0.250000' points = '131.0,228.8 131.0,242.4 131.7,242.4 131.7,228.2 '/>
		<polygon fill = 'rgb( 31, 120, 180)' fill-opacity = '0.250000' points = '131.7,228.2 131.7,242.4 132.3,242.4 132.3,227.6 '/>
		<polygon fill = 'rgb( 31, 120, 180)' fill-opacity = '0.250000' points = '132.3,227.6 132.3,242.4 133.0,242.4 133.0,227.0 '/>
		<polygon fill = 'rgb( 31, 120, 180)' fill-opacity = '0.250000' points = '133.0,227.0 133.0,242.4 133.7,242.4 133.7,226.4 '/>
		<polygon fill = 'rgb( 31, 120, 180)' fill-opacity = '0.250000' points = '133.7,226.4 133.7,242.4 134.4,242.4 134.4,225.7 '/>
		<polygon fill = 'rgb( 31, 120, 180)' fill-opacity = '0.250000' points = '134.4,225.7 134.4,242.4 135.0,242.4 135.0,225.0 '/>
		<polygon fill = 'rgb( 31, 120, 180)' fill-opacity = '0.250000' points = '135.0,225.0 135.0,242.4 135.7,242.4 135.7,224.3 '/>
		<polygon fill = 'rgb( 31, 120, 180)' fill-opacity = '0.250000' points = '135.7,224.3 135.7,242.4 136.4,242.4 136.4,223.6 '/>
		<polygon fill = 'rgb( 31, 120, 180)' fill-opacity = '0.250000' points = '136.4,223.6 136.4,242.4 137.1,242.4 137.1,222.9 '/>
		<polygon fill = 'rgb( 31, 120, 180)' fill-opacity = '0.250000' points = '137.1,222.9 137.1,242.4 137.7,242.4 137.7,222.2 '/>
		<polygon fill = 'rgb( 31, 120, 180)' fill-opacity = '0.250000' points = '137.7,222.2 137.7,242.4 138.4,242.4 138.4,221.4 '/>
		<polygon fill = 'rgb( 31, 120, 180)' fill-opacity = '0.250000' points = '138.4,221.4 138.4,242.4 139.1,242.4 139.1,220.6 '/>
		<polygon fill = 'rgb( 31, 120, 180)' fill-opacity = '0.250000' points = '139.1,220.6 139.1,242.4 139.8,242.4 139.8,219.8 '/>
		<polygon fill = 'rgb( 31, 120, 180)' fill-opacity = '0.250000' points = '139.8,219.8 139.8,242.4 140.4,242.4 140.4,219.0 '/>
		<polygon fill = 'rgb( 31, 120, 180)' fill-opacity = '0.250000' points = '140.4,219.0 140.4,242.4 141.1,242.4 141.1,218.1 '/>
		<polygon fill = 'rgb( 31, 120, 180)' fill-opacity = '0.250000' points = '141.1,218.1 141.1,242.4 141.8,242.4 141.8,217.3 '/>
		<polygon fill = 'rgb( 31, 120, 180)' fill-opacity = '0.250000' points = '141.8,217.3 141.8,242.4 142.4,242.4 142.4,216.4 '/>
		<polygon fill = 'rgb( 31, 120, 180)' fill-opacity = '0.250000' points = '142.4,216.4 142.4,242.4 143.1,242.4 143.1,215.5 '/>
		<polygon fill = 'rgb( 31, 120, 180)' fill-opacity = '0.250000' points = '143.1,215.5 143.1,242.4 143.8,242.4 143.8,214.5 '/>
		<polygon fill = 'rgb( 31, 120, 180)' fill-opacity = '0.250000' points = '143.8,214.5 143.8,242.4 144.5,242.4 144.5,213.6 '/>
		<polygon fill = 'rgb( 31, 120, 180)' fill-opacity = '0.250000' points = '144.5,213.6 144.5,242.4 145.1,242.4 145.1,212.7 '/>
		<polygon fill = 'rgb( 31, 120, 180)' fill-opacity = '0.250000' points = '145.1,212.7 145.1,242.4 145.8,242.4 145.8,211.7 '/>
		<polygon fill = 'rgb( 31, 120, 180)' fill-opacity = '0.250000' points = '145.8,211.7 145.8,242.4 146.5,242.4 146.5,210.7 '/>
		<polygon fill = 'rgb( 31, 120, 180)' fill-opacity = '0.250000' points = '146.5,210.7 146.5,242.4 147.2,242.4 147.2,209.7 '/>
		<polygon fill = 'rgb( 31, 120, 180)' fill-opacity = '0.250000' points = '147.2,209.7 147.2,242.4 147.8,242.4 147.8,208.6 '/>
		<polygon fill = 'rgb( 31, 120, 180)' fill-opacity = '0.250000' points = '147.8,208.6 147.8,242.4 148.5,242.4 148.5,207.6 '/>
		<polygon fill = 'rgb( 31, 120, 180)' fill-opacity = '0.250000' points = '148.5,207.6 148.5,242.4 149.2,242.4 149.2,206.5 '/>
		<polygon fill = 'rgb( 31, 120, 180)' fill-opacity = '0.250000' points = '149.2,206.5 149.2,242.4 149.9,242.4 149.9,205.5 '/>
		<polygon fill = 'rgb( 31, 120, 180)' fill-opacity = '0.250000' points = '149.9,205.5 149.9,242.4 150.5,242.4 150.5,204.4 '/>
		<polygon fill = 'rgb( 31, 120, 180)' fill-opacity = '0.250000' points = '150.5,204.4 150.5,242.4 151.2,242.4 151.2,203.3 '/>
		<polygon fill = 'rgb( 31, 120, 180)' fill-opacity = '0.250000' points = '151.2,203.3 151.2,242.4 151.9,242.4 151.9,202.2 '/>
		<polygon fill = 'rgb( 31, 120, 180)' fill-opacity = '0.250000' points = '151.9,202.2 151.9,242.4 152.6,242.4 152.6,201.0 '/>
		<polygon fill = 'rgb( 31, 120, 180)' fill-opacity = '0.250000' points = '152.6,201.0 152.6,242.4 153.2,242.4 153.2,199.9 '/>
		<polygon fill = 'rgb( 31, 120, 180)' fill-opacity = '0.250000' points = '153.2,199.9 153.2,242.4 153.9,242.4 153.9,198.7 '/>
		<polygon fill = 'rgb( 31, 120, 180)' fill-opacity = '0.250000' points = '153.9,198.7 153.9,242.4 154.6,242.4 154.6,197.6 '/>
		<polygon fill = 'rgb( 31, 120, 180)' fill-opacity = '0.250000' points = '154.6,197.6 154.6,242.4 155.3,242.4 155.3,196.4 '/>
		<polygon fill = 'rgb( 31, 120, 180)' fill-opacity = '0.250000' points = '155.3,196.4 155.3,242.4 155.9,242.4 155.9,195.2 '/>
		<polygon fill = 'rgb( 31, 120, 180)' fill-opacity = '0.250000' points = '155.9,195.2 155.9,242.4 156.6,242.4 156.6,194.0 '/>
		<polygon fill = 'rgb( 31, 120, 180)' fill-opacity = '0.250000' points = '156.6,194.0 156.6,242.4 157.3,242.4 157.3,192.8 '/>
		<polygon fill = 'rgb( 31, 120, 180)' fill-opacity = '0.250000' points = '157.3,192.8 157.3,242.4 158.0,242.4 158.0,191.6 '/>
		<polygon fill = 'rgb( 31, 120, 180)' fill-opacity = '0.250000' points = '158.0,191.6 158.0,242.4 158.6,242.4 158.6,190.3 '/>
		<polygon fill = 'rgb( 31, 120, 180)' fill-opacity = '0.250000' points = '158.6,190.3 158.6,242.4 159.3,242.4 159.3,189.1 '/>
		<polygon fill = 'rgb( 31, 120, 180)' fill-opacity = '0.250000' points = '159.3,189.1 159.3,242.4 160.0,242.4 160.0,187.9 '/>
		<polygon fill = 'rgb( 31, 120, 180)' fill-opacity = '0.250000' points = '160.0,187.9 160.0,242.4 160.7,242.4 160.7,186.6 '/>
		<polygon fill = 'rgb( 31, 120, 180)' fill-opacity = '0.250000' points = '160.7,186.6 160.7,242.4 161.3,242.4 161.3,185.4 '/>
		<polygon fill = 'rgb( 31, 120, 180)' fill-opacity = '0.250000' points = '161.3,185.4 161.3,242.4 162.0,242.4 162.0,184.1 '/>
		<polygon fill = 'rgb( 31, 120, 180)' fill-opacity = '0.250000' points = '162.0,184.1 162.0,242.4 162.7,242.4 162.7,182.9 '/>
		<polygon fill = 'rgb( 31, 120, 180)' fill-opacity = '0.250000' points = '162.7,182.9 162.7,242.4 163.4,242.4 163.4,181.6 '/>
		<polygon fill = 'rgb( 31, 120, 180)' fill-opacity = '0.250000' points = '163.4,181.6 163.4,242.4 164.0,242.4 164.0,180.3 '/>
		<polygon fill = 'rgb( 31, 120, 180)' fill-opacity = '0.250000' points = '164.0,180.3 164.0,242.4 164.7,242.4 164.7,179.1 '/>
		<polygon fill = 'rgb( 31, 120, 180)' fill-opacity = '0.250000' points = '164.7,179.1 164.7,242.4 165.4,242.4 165.4,177.8 '/>
		<polygon fill = 'rgb( 31, 120, 180)' fill-opacity = '0.250000' points = '165.4,177.8 165.4,242.4 166.1,242.4 166.1,176.6 '/>
		<polygon fill = 'rgb( 31, 120, 180)' fill-opacity = '0.250000' points = '166.1,176.6 166.1,242.4 166.7,242.4 166.7,175.3 '/>
		<polygon fill = 'rgb( 31, 120, 180)' fill-opacity = '0.250000' points = '166.7,175.3 166.7,242.4 167.4,242.4 167.4,174.1 '/>
		<polygon fill = 'rgb( 31, 120, 180)' fill-opacity = '0.250000' points = '167.4,174.1 167.4,242.4 168.1,242.4 168.1,172.8 '/>
		<polygon fill = 'rgb( 31, 120, 180)' fill-opacity = '0.250000' points = '168.1,172.8 168.1,242.4 168.7,242.4 168.7,171.6 '/>
		<polygon fill = 'rgb( 31, 120, 180)' fill-opacity = '0.250000' points = '168.7,171.6 168.7,242.4 169.4,242.4 169.4,170.3 '/>
		<polygon fill = 'rgb( 31, 120, 180)' fill-opacity = '0.250000' points = '169.4,170.3 169.4,242.4 170.1,242.4 170.1,169.1 '/>
		<polygon fill = 'rgb( 31, 120, 180)' fill-opacity = '0.250000' points = '170.1,169.1 170.1,242.4 170.8,242.4 170.8,167.9 '/>
		<polygon fill = 'rgb( 31, 120, 180)' fill-opacity = '0.250000' points = '170.8,167.9 170.8,242.4 171.4,242.4 171.4,166.7 '/>
		<polygon fill = 'rgb( 31, 120, 180)' fill-opacity = '0.250000' points = '171.4,166.7 171.4,242.4 172.1,242.4 172.1,165.4 '/>
		<polygon fill = 'rgb( 31, 120, 180)' fill-opacity = '0.250000' points = '172.1,165.4 172.1,242.4 172.8,242.4 172.8,164.2 '/>
		<polygon fill = 'rgb( 31, 120, 180)' fill-opacity = '0.250000' points = '172.8,164.2 172.8,242.4 173.5,242.4 173.5,163.1 '/>
		<polygon fill = 'rgb( 31, 120, 180)' fill-opacity = '0.250000' points = '173.5,163.1 173.5,242.4 174.1,242.4 174.1,161.9 '/>
		<polygon fill = 'rgb( 31, 120, 180)' fill-opacity = '0.250000' points = '174.1,161.9 174.1,242.4 174.8,242.4 174.8,160.7 '/>
		<polygon fill = 'rgb( 31, 120, 180)' fill-opacity = '0.250000' points = '174.8,160.7 174.8,242.4 175.5,242.4 175.5,159.6 '/>
		<polygon fill = 'rgb( 31, 120, 180)' fill-opacity = '0.250000' points = '175.5,159.6 175.5,242.4 176.2,242.4 176.2,158.4 '/>
		<polygon fill = 'rgb( 31, 120, 180)' fill-opacity = '0.250000' points = '176.2,158.4 176.2,242.4 176.8,242.4 176.8,157.3 '/>
		<polygon fill = 'rgb( 31, 120, 180)' fill-opacity = '0.250000' points = '176.8,157.3 176.8,242.4 177.5,242.4 177.5,156.2 '/>
		<polygon fill = 'rgb( 31, 120, 180)' fill-opacity = '0.250000' points = '177.5,156.2 177.5,242.4 178.2,242.4 178.2,155.1 '/>
		<polygon fill = 'rgb( 31, 120, 180)' fill-opacity = '0.250000' points = '178.2,155.1 178.2,242.4 178.9,242.4 178.9,154.0 '/>
		<polygon fill = 'rgb( 31, 120, 180)' fill-opacity = '0.250000' points = '178.9,154.0 178.9,242.4 179.5,242.4 179.5,153.0 '/>
		<polygon fill = 'rgb( 31, 120, 180)' fill-opacity = '0.250000' points = '179.5,153.0 179.5,242.4 180.2,242.4 180.2,151.9 '/>
		<polygon fill = 'rgb( 31, 120, 180)' fill-opacity = '0.250000' points = '180.2,151.9 180.2,242.4 180.9,242.4 180.9,150.9 '/>
		<polygon fill = 'rgb( 31, 120, 180)' fill-opacity = '0.250000' points = '180.9,150.9 180.9,242.4 181.6,242.4 181.6,149.9 '/>
		<polygon fill = 'rgb( 31, 120, 180)' fill-opacity = '0.250000' points = '181.6,149.9 181.6,242.4 182.2,242.4 182.2,148.9 '/>
		<polygon fill = 'rgb( 31, 120, 180)' fill-opacity = '0.250000' points = '182.2,148.9 182.2,242.4 182.9,242.4 182.9,147.9 '/>
		<polygon fill = 'rgb( 31, 120, 180)' fill-opacity = '0.250000' points = '182.9,147.9 182.9,242.4 183.6,242.4 183.6,146.9 '/>
		<polygon fill = 'rgb( 31, 120, 180)' fill-opacity = '0.250000' points = '183.6,146.9 183.6,242.4 184.3,242.4 184.3,146.0 '/>
		<polygon fill = 'rgb( 31, 120, 180)' fill-opacity = '0.250000' points = '184.3,146.0 184.3,242.4 184.9,242.4 184.9,145.1 '/>
		<polygon fill = 'rgb( 31, 120, 180)' fill-opacity = '0.250000' points = '184.9,145.1 184.9,242.4 185.6,242.4 185.6,144.2 '/>
		<polygon fill = 'rgb( 31, 120, 180)' fill-opacity = '0.250000' points = '185.6,144.2 185.6,242.4 186.3,242.4 186.3,143.3 '/>
		<polygon fill = 'rgb( 31, 120, 180)' fill-opacity = '0.250000' points = '186.3,143.3 186.3,242.4 187.0,242.4 187.0,142.5 '/>
		<polygon fill = 'rgb( 31, 120, 180)' fill-opacity = '0.250000' points = '187.0,142.5 187.0,242.4 187.6,242.4 187.6,141.6 '/>
		<polygon fill = 'rgb( 31, 120, 180)' fill-opacity = '0.250000' points = '187.6,141.6 187.6,242.4 188.3,242.4 188.3,140.8 '/>
		<polygon fill = 'rgb( 31, 120, 180)' fill-opacity = '0.250000' points = '188.3,140.8 188.3,242.4 189.0,242.4 189.0,140.0 '/>
		<polygon fill = 'rgb( 31, 120, 180)' fill-opacity = '0.250000' points = '189.0,140.0 189.0,242.4 189.7,242.4 189.7,139.2 '/>
		<polygon fill = 'rgb( 31, 120, 180)' fill-opacity = '0.250000' points = '189.7,139.2 189.7,242.4 190.3,242.4 190.3,138.5 '/>
		<polygon fill = 'rgb( 31, 120, 180)' fill-opacity = '0.250000' points = '190.3,138.5 190.3,242.4 191.0,242.4 191.0,137.7 '/>
		<polygon fill = 'rgb( 31, 120, 180)' fill-opacity = '0.250000' points = '191.0,137.7 191.0,242.4 191.7,242.4 191.7,137.0 '/>
		<polygon fill = 'rgb( 31, 120, 180)' fill-opacity = '0.250000' points = '191.7,137.0 191.7,242.4 192.3,242.4 192.3,136.3 '/>
		<polygon fill = 'rgb( 31, 120, 180)' fill-opacity = '0.250000' points = '192.3,136.3 192.3,242.4 193.0,242.4 193.0,135.6 '/>
		<polygon fill = 'rgb( 31, 120, 180)' fill-opacity = '0.250000' points = '193.0,135.6 193.0,242.4 193.7,242.4 193.7,135.0 '/>
		<polygon fill = 'rgb( 31, 120, 180)' fill-opacity = '0.250000' points = '193.7,135.0 193.7,242.4 194.4,242.4 194.4,134.3 '/>
		<polygon fill = 'rgb( 31, 120, 180)' fill-opacity = '0.250000' points = '194.4,134.3 194.4,242.4 195.0,242.4 195.0,133.7 '/>
		<polygon fill = 'rgb( 31, 120, 180)' fill-opacity = '0.250000' points = '195.0,133.7 195.0,242.4 195.7,242.4 195.7,133.1 '/>
		<polygon fill = 'rgb( 31, 120, 180)' fill-opacity = '0.250000' points = '195.7,133.1 195.7,242.4 196.4,242.4 196.4,132.5 '/>
		<polygon fill = 'rgb( 31, 120, 180)' fill-opacity = '0.250000' points = '196.4,132.5 196.4,242.4 197.1,242.4 197.1,131.9 '/>
		<polygon fill = 'rgb( 31, 120, 180)' fill-opacity = '0.250000' points = '197.1,131.9 197.1,242.4 197.7,242.4 197.7,131.3 '/>
		<polygon fill = 'rgb( 31, 120, 180)' fill-opacity = '0.250000' points = '197.7,131.3 197.7,242.4 198.4,242.4 198.4,130.8 '/>
		<polygon fill = 'rgb( 31, 120, 180)' fill-opacity = '0.250000' points = '198.4,130.8 198.4,242.4 199.1,242.4 199.1,130.3 '/>
		<polygon fill = 'rgb( 31, 120, 180)' fill-opacity = '0.250000' points = '199.1,130.3 199.1,242.4 199.8,242.4 199.8,129.8 '/>
		<polygon fill = 'rgb( 31, 120, 180)' fill-opacity = '0.250000' points = '199.8,129.8 199.8,242.4 200.4,242.4 200.4,129.3 '/>
		<polygon fill = 'rgb( 31, 120, 180)' fill-opacity = '0.250000' points = '200.4,129.3 200.4,242.4 201.1,242.4 201.1,128.8 '/>
		<polygon fill = 'rgb( 31, 120, 180)' fill-opacity = '0.250000' points = '201.1,128.8 201.1,242.4 201.8,242.4 201.8,128.3 '/>
		<polygon fill = 'rgb( 31, 120, 180)' fill-opacity = '0.250000' points = '201.8,128.3 201.8,242.4 202.5,242.4 202.5,127.8 '/>
		<polygon fill = 'rgb( 31, 120, 180)' fill-opacity = '0.250000' points = '202.5,127.8 202.5,242.4 203.1,242.4 203.1,127.4 '/>
		<polygon fill = 'rgb( 31, 120, 180)' fill-opacity = '0.250000' points = '203.1,127.4 203.1,242.4 203.8,242.4 203.8,126.9 '/>
		<polygon fill = 'rgb( 31, 120, 180)' fill-opacity = '0.250000' points = '203.8,126.9 203.8,242.4 204.5,242.4 204.5,126.5 '/>
		<polygon fill = 'rgb( 31, 120, 180)' fill-opacity = '0.250000' points = '204.5,126.5 204.5,242.4 205.2,242.4 205.2,126.1 '/>
		<polygon fill = 'rgb( 31, 120, 180)' fill-opacity = '0.250000' points = '205.2,126.1 205.2,242.4 205.8,242.4 205.8,125.7 '/>
		<polygon fill = 'rgb( 31, 120, 180)' fill-opacity = '0.250000' points = '205.8,125.7 205.8,242.4 206.5,242.4 206.5,125.3 '/>
		<polygon fill = 'rgb( 31, 120, 180)' fill-opacity = '0.250000' points = '206.5,125.3 206.5,242.4 207.2,242.4 207.2,124.9 '/>
		<polygon fill = 'rgb( 31, 120, 180)' fill-opacity = '0.250000' points = '207.2,124.9 207.2,242.4 207.9,242.4 207.9,124.5 '/>
		<polygon fill = 'rgb( 31, 120, 180)' fill-opacity = '0.250000' points = '207.9,124.5 207.9,242.4 208.5,242.4 208.5,124.1 '/>
		<polygon fill = 'rgb( 31, 120, 180)' fill-opacity = '0.250000' points = '208.5,124.1 208.5,242.4 209.2,242.4 209.2,123.7 '/>
		<polygon fill = 'rgb( 31, 120, 180)' fill-opacity = '0.250000' points = '209.2,123.7 209.2,242.4 209.9,242.4 209.9,123.3 '/>
		<polygon fill = 'rgb( 31, 120, 180)' fill-opacity = '0.250000' points = '209.9,123.3 209.9,242.4 210.6,242.4 210.6,122.9 '/>
		<polygon fill = 'rgb( 31, 120, 180)' fill-opacity = '0.250000' points = '210.6,122.9 210.6,242.4 211.2,242.4 211.2,122.5 '/>
		<polygon fill = 'rgb( 31, 120, 180)' fill-opacity = '0.250000' points = '211.2,122.5 211.2,242.4 211.9,242.4 211.9,122.1 '/>
		<polygon fill = 'rgb( 31, 120, 180)' fill-opacity = '0.250000' points = '211.9,122.1 211.9,242.4 212.6,242.4 212.6,121.8 '/>
		<polygon fill = 'rgb( 31, 120, 180)' fill-opacity = '0.250000' points = '212.6,121.8 212.6,242.4 213.3,242.4 213.3,121.4 '/>
		<polygon fill = 'rgb( 31, 120, 180)' fill-opacity = '0.250000' points = '213.3,121.4 213.3,242.4 213.9,242.4 213.9,121.0 '/>
		<polygon fill = 'rgb( 31, 120, 180)' fill-opacity = '0.250000' points = '213.9,121.0 213.9,242.4 214.6,242.4 214.6,120.6 '/>
		<polygon fill = 'rgb( 31, 120, 180)' fill-opacity = '0.250000' points = '214.6,120.6 214.6,242.4 215.3,242.4 215.3,120.2 '/>
		<polygon fill = 'rgb( 31, 120, 180)' fill-opacity = '0.250000' points = '215.3,120.2 215.3,242.4 216.0,242.4 216.0,119.8 '/>
		<polygon fill = 'rgb( 31, 120, 180)' fill-opacity = '0.250000' points = '216.0,119.8 216.0,242.4 216.6,242.4 216.6,119.4 '/>
		<polygon fill = 'rgb( 31, 120, 180)' fill-opacity = '0.250000' points = '216.6,119.4 216.6,242.4 217.3,242.4 217.3,119.0 '/>
		<polygon fill = 'rgb( 31, 120, 180)' fill-opacity = '0.250000' points = '217.3,119.0 217.3,242.4 218.0,242.4 218.0,118.6 '/>
		<polygon fill = 'rgb( 31, 120, 180)' fill-opacity = '0.250000' points = '218.0,118.6 218.0,242.4 218.6,242.4 218.6,118.2 '/>
		<polygon fill = 'rgb( 31, 120, 180)' fill-opacity = '0.250000' points = '218.6,118.2 218.6,242.4 219.3,242.4 219.3,117.7 '/>
		<polygon fill = 'rgb( 31, 120, 180)' fill-opacity = '0.250000' points = '219.3,117.7 219.3,242.4 220.0,242.4 220.0,117.3 '/>
		<polygon fill = 'rgb( 31, 120, 180)' fill-opacity = '0.250000' points = '220.0,117.3 220.0,242.4 220.7,242.4 220.7,116.8 '/>
		<polygon fill = 'rgb( 31, 120, 180)' fill-opacity = '0.250000' points = '220.7,116.8 220.7,242.4 221.3,242.4 221.3,116.4 '/>
		<polygon fill = 'rgb( 31, 120, 180)' fill-opacity = '0.250000' points = '221.3,116.4 221.3,242.4 222.0,242.4 222.0,115.9 '/>
		<polygon fill = 'rgb( 31, 120, 180)' fill-opacity = '0.250000' points = '222.0,115.9 222.0,242.4 222.7,242.4 222.7,115.4 '/>
		<polygon fill = 'rgb( 31, 120, 180)' fill-opacity = '0.250000' points = '222.7,115.4 222.7,242.4 223.4,242.4 223.4,114.9 '/>
		<polygon fill = 'rgb( 31, 120, 180)' fill-opacity = '0.250000' points = '223.4,114.9 223.4,242.4 224.0,242.4 224.0,114.4 '/>
		<polygon fill = 'rgb( 31, 120, 180)' fill-opacity = '0.250000' points = '224.0,114.4 224.0,242.4 224.7,242.4 224.7,113.9 '/>
		<polygon fill = 'rgb( 31, 120, 180)' fill-opacity = '0.250000' points = '224.7,113.9 224.7,242.4 225.4,242.4 225.4,113.3 '/>
		<polygon fill = 'rgb( 31, 120, 180)' fill-opacity = '0.250000' points = '225.4,113.3 225.4,242.4 226.1,242.4 226.1,112.7 '/>
		<polygon fill = 'rgb( 31, 120, 180)' fill-opacity = '0.250000' points = '226.1,112.7 226.1,242.4 226.7,242.4 226.7,112.2 '/>
		<polygon fill = 'rgb( 31, 120, 180)' fill-opacity = '0.250000' points = '226.7,112.2 226.7,242.4 227.4,242.4 227.4,111.6 '/>
		<polygon fill = 'rgb( 31, 120, 180)' fill-opacity = '0.250000' points = '227.4,111.6 227.4,242.4 228.1,242.4 228.1,111.0 '/>
		<polygon fill = 'rgb( 31, 120, 180)' fill-opacity = '0.250000' points = '228.1,111.0 228.1,242.4 228.8,242.4 228.8,110.3 '/>
		<polygon fill = 'rgb( 31, 120, 180)' fill-opacity = '0.250000' points = '228.8,110.3 228.8,242.4 229.4,242.4 229.4,109.7 '/>
		<polygon fill = 'rgb( 31, 120, 180)' fill-opacity = '0.250000' points = '229.4,109.7 229.4,242.4 230.1,242.4 230.1,109.0 '/>
		<polygon fill = 'rgb( 31, 120, 180)' fill-opacity = '0.250000' points = '230.1,109.0 230.1,242.4 230.8,242.4 230.8,108.3 '/>
		<polygon fill = 'rgb( 31, 120, 180)' fill-opacity = '0.250000' points = '230.8,108.3 230.8,242.4 231.5,242.4 231.5,107.6 '/>
		<polygon fill = 'rgb( 31, 120, 180)' fill-opacity = '0.250000' points = '231.5,107.6 231.5,242.4 232.1,242.4 232.1,106.8 '/>
		<polygon fill = 'rgb( 31, 120, 180)' fill-opacity = '0.250000' points = '232.1,106.8 232.1,242.4 232.8,242.4 232.8,106.1 '/>
		<polygon fill = 'rgb( 31, 120, 180)' fill-opacity = '0.250000' points = '232.8,106.1 232.8,242.4 233.5,242.4 233.5,105.3 '/>
		<polygon fill = 'rgb( 31, 120, 180)' fill-opacity = '0.250000' points = '233.5,105.3 233.5,242.4 234.2,242.4 234.2,104.5 '/>
		<polygon fill = 'rgb( 31, 120, 180)' fill-opacity = '0.250000' points = '234.2,104.5 234.2,242.4 234.8,242.4 234.8,103.7 '/>
		<polygon fill = 'rgb( 31, 120, 180)' fill-opacity = '0.250000' points = '234.8,103.7 234.8,242.4 235.5,242.4 235.5,102.9 '/>
		<polygon fill = 'rgb( 31, 120, 180)' fill-opacity = '0.250000' points = '235.5,102.9 235.5,242.4 236.2,242.4 236.2,102.0 '/>
		<polygon fill = 'rgb( 31, 120, 180)' fill-opacity = '0.250000' points = '236.2,102.0 236.2,242.4 236.9,242.4 236.9,101.1 '/>
		<polygon fill = 'rgb( 31, 120, 180)' fill-opacity = '0.250000' points = '236.9,101.1 236.9,242.4 237.5,242.4 237.5,100.2 '/>
		<polygon fill = 'rgb( 31, 120, 180)' fill-opacity = '0.250000' points = '237.5,100.2 237.5,242.4 238.2,242.4 238.2,99.3 '/>
		<polygon fill = 'rgb( 31, 120, 180)' fill-opacity = '0.250000' points = '238.2,99.3 238.2,242.4 238.9,242.4 238.9,98.3 '/>
		<polygon fill = 'rgb( 31, 120, 180)' fill-opacity = '0.250000' points = '238.9,98.3 238.9,242.4 239.6,242.4 239.6,97.3 '/>
		<polygon fill = 'rgb( 31, 120, 180)' fill-opacity = '0.250000' points = '239.6,97.3 239.6,242.4 240.2,242.4 240.2,96.4 '/>
		<polygon fill = 'rgb( 31, 120, 180)' fill-opacity = '0.250000' points = '240.2,96.4 240.2,242.4 240.9,242.4 240.9,95.3 '/>
		<polygon fill = 'rgb( 31, 120, 180)' fill-opacity = '0.250000' points = '240.9,95.3 240.9,242.4 241.6,242.4 241.6,94.3 '/>
		<polygon fill = 'rgb( 31, 120, 180)' fill-opacity = '0.250000' points = '241.6,94.3 241.6,242.4 242.3,242.4 242.3,93.2 '/>
		<polygon fill = 'rgb( 31, 120, 180)' fill-opacity = '0.250000' points = '242.3,93.2 242.3,242.4 242.9,242.4 242.9,92.1 '/>
		<polygon fill = 'rgb( 31, 120, 180)' fill-opacity = '0.250000' points = '242.9,92.1 242.9,242.4 243.6,242.4 243.6,91.0 '/>
		<polygon fill = 'rgb( 31, 120, 180)' fill-opacity = '0.250000' points = '243.6,91.0 243.6,242.4 244.3,242.4 244.3,89.9 '/>
		<polygon fill = 'rgb( 31, 120, 180)' fill-opacity = '0.250000' points = '244.3,89.9 244.3,242.4 244.9,242.4 244.9,88.8 '/>
		<polygon fill = 'rgb( 31, 120, 180)' fill-opacity = '0.250000' points = '244.9,88.8 244.9,242.4 245.6,242.4 245.6,87.6 '/>
		<polygon fill = 'rgb( 31, 120, 180)' fill-opacity = '0.250000' points = '245.6,87.6 245.6,242.4 246.3,242.4 246.3,86.4 '/>
		<polygon fill = 'rgb( 31, 120, 180)' fill-opacity = '0.250000' points = '246.3,86.4 246.3,242.4 247.0,242.4 247.0,85.2 '/>
		<polygon fill = 'rgb( 31, 120, 180)' fill-opacity = '0.250000' points = '247.0,85.2 247.0,242.4 247.6,242.4 247.6,84.0 '/>
		<polygon fill = 'rgb( 31, 120, 180)' fill-opacity = '0.250000' points = '247.6,84.0 247.6,242.4 248.3,242.4 248.3,82.7 '/>
		<polygon fill = 'rgb( 31, 120, 180)' fill-opacity = '0.250000' points = '248.3,82.7 248.3,242.4 249.0,242.4 249.0,81.5 '/>
		<polygon fill = 'rgb( 31, 120, 180)' fill-opacity = '0.250000' points = '249.0,81.5 249.0,242.4 249.7,242.4 249.7,80.2 '/>
		<polygon fill = 'rgb( 31, 120, 180)' fill-opacity = '0.250000' points = '249.7,80.2 249.7,242.4 250.3,242.4 250.3,78.9 '/>
		<polygon fill = 'rgb( 31, 120, 180)' fill-opacity = '0.250000' points = '250.3,78.9 250.3,242.4 251.0,242.4 251.0,77.6 '/>
		<polygon fill = 'rgb( 31, 120, 180)' fill-opacity = '0.250000' points = '251.0,77.6 251.0,242.4 251.7,242.4 251.7,76.3 '/>
		<polygon fill = 'rgb( 31, 120, 180)' fill-opacity = '0.250000' points = '251.7,76.3 251.7,242.4 252.4,242.4 252.4,74.9 '/>
		<polygon fill = 'rgb( 31, 120, 180)' fill-opacity = '0.250000' points = '252.4,74.9 252.4,242.4 253.0,242.4 253.0,73.6 '/>
		<polygon fill = 'rgb( 31, 120, 180)' fill-opacity = '0.250000' points = '253.0,73.6 253.0,242.4 253.7,242.4 253.7,72.2 '/>
		<polygon fill = 'rgb( 31, 120, 180)' fill-opacity = '0.250000' points = '253.7,72.2 253.7,242.4 254.4,242.4 254.4,70.9 '/>
		<polygon fill = 'rgb( 31, 120, 180)' fill-opacity = '0.250000' points = '254.4,70.9 254.4,242.4 255.1,242.4 255.1,69.5 '/>
		<polygon fill = 'rgb( 31, 120, 180)' fill-opacity = '0.250000' points = '255.1,69.5 255.1,242.4 255.7,242.4 255.7,68.1 '/>
		<polygon fill = 'rgb( 31, 120, 180)' fill-opacity = '0.250000' points = '255.7,68.1 255.7,242.4 256.4,242.4 256.4,66.7 '/>
		<polygon fill = 'rgb( 31, 120, 180)' fill-opacity = '0.250000' points = '256.4,66.7 256.4,242.4 257.1,242.4 257.1,65.3 '/>
		<polygon fill = 'rgb( 31, 120, 180)' fill-opacity = '0.250000' points = '257.1,65.3 257.1,242.4 257.8,242.4 257.8,63.9 '/>
		<polygon fill = 'rgb( 31, 120, 180)' fill-opacity = '0.250000' points = '257.8,63.9 257.8,242.4 258.4,242.4 258.4,62.5 '/>
		<polygon fill = 'rgb( 31, 120, 180)' fill-opacity = '0.250000' points = '258.4,62.5 258.4,242.4 259.1,242.4 259.1,61.1 '/>
		<polygon fill = 'rgb( 31, 120, 180)' fill-opacity = '0.250000' points = '259.1,61.1 259.1,242.4 259.8,242.4 259.8,59.7 '/>
		<polygon fill = 'rgb( 31, 120, 180)' fill-opacity = '0.250000' points = '259.8,59.7 259.8,242.4 260.5,242.4 260.5,58.3 '/>
		<polygon fill = 'rgb( 31, 120, 180)' fill-opacity = '0.250000' points = '260.5,58.3 260.5,242.4 261.1,242.4 261.1,56.8 '/>
		<polygon fill = 'rgb( 31, 120, 180)' fill-opacity = '0.250000' points = '261.1,56.8 261.1,242.4 261.8,242.4 261.8,55.4 '/>
		<polygon fill = 'rgb( 31, 120, 180)' fill-opacity = '0.250000' points = '261.8,55.4 261.8,242.4 262.5,242.4 262.5,54.0 '/>
		<polygon fill = 'rgb( 31, 120, 180)' fill-opacity = '0.250000' points = '262.5,54.0 262.5,242.4 263.2,242.4 263.2,52.6 '/>
		<polygon fill = 'rgb( 31, 120, 180)' fill-opacity = '0.250000' points = '263.2,52.6 263.2,242.4 263.8,242.4 263.8,51.2 '/>
		<polygon fill = 'rgb( 31, 120, 180)' fill-opacity = '0.250000' points = '263.8,51.2 263.8,242.4 264.5,242.4 264.5,49.9 '/>
		<polygon fill = 'rgb( 31, 120, 180)' fill-opacity = '0.250000' points = '264.5,49.9 264.5,242.4 265.2,242.4 265.2,48.5 '/>
		<polygon fill = 'rgb( 31, 120, 180)' fill-opacity = '0.250000' points = '265.2,48.5 265.2,242.4 265.9,242.4 265.9,47.1 '/>
		<polygon fill = 'rgb( 31, 120, 180)' fill-opacity = '0.250000' points = '265.9,47.1 265.9,242.4 266.5,242.4 266.5,45.8 '/>
		<polygon fill = 'rgb( 31, 120, 180)' fill-opacity = '0.250000' points = '266.5,45.8 266.5,242.4 267.2,242.4 267.2,44.4 '/>
		<polygon fill = 'rgb( 31, 120, 180)' fill-opacity = '0.250000' points = '267.2,44.4 267.2,242.4 267.9,242.4 267.9,43.1 '/>
		<polygon fill = 'rgb( 31, 120, 180)' fill-opacity = '0.250000' points = '267.9,43.1 267.9,242.4 268.6,242.4 268.6,41.8 '/>
		<polygon fill = 'rgb( 31, 120, 180)' fill-opacity = '0.250000' points = '268.6,41.8 268.6,242.4 269.2,242.4 269.2,40.5 '/>
		<polygon fill = 'rgb( 31, 120, 180)' fill-opacity = '0.250000' points = '269.2,40.5 269.2,242.4 269.9,242.4 269.9,39.2 '/>
		<polygon fill = 'rgb( 31, 120, 180)' fill-opacity = '0.250000' points = '269.9,39.2 269.9,242.4 270.6,242.4 270.6,38.0 '/>
		<polygon fill = 'rgb( 31, 120, 180)' fill-opacity = '0.250000' points = '270.6,38.0 270.6,242.4 271.2,242.4 271.2,36.8 '/>
		<polygon fill = 'rgb( 31, 120, 180)' fill-opacity = '0.250000' points = '271.2,36.8 271.2,242.4 271.9,242.4 271.9,35.6 '/>
		<polygon fill = 'rgb( 31, 120, 180)' fill-opacity = '0.250000' points = '271.9,35.6 271.9,242.4 272.6,242.4 272.6,34.4 '/>
		<polygon fill = 'rgb( 31, 120, 180)' fill-opacity = '0.250000' points = '272.6,34.4 272.6,242.4 273.3,242.4 273.3,33.2 '/>
		<polygon fill = 'rgb( 31, 120, 180)' fill-opacity = '0.250000' points = '273.3,33.2 273.3,242.4 273.9,242.4 273.9,32.1 '/>
		<polygon fill = 'rgb( 31, 120, 180)' fill-opacity = '0.250000' points = '273.9,32.1 273.9,242.4 274.6,242.4 274.6,31.0 '/>
		<polygon fill = 'rgb( 31, 120, 180)' fill-opacity = '0.250000' points = '274.6,31.0 274.6,242.4 275.3,242.4 275.3,30.0 '/>
		<polygon fill = 'rgb( 31, 120, 180)' fill-opacity = '0.250000' points = '275.3,30.0 275.3,242.4 276.0,242.4 276.0,29.0 '/>
		<polygon fill = 'rgb( 31, 120, 180)' fill-opacity = '0.250000' points = '276.0,29.0 276.0,242.4 276.6,242.4 276.6,28.0 '/>
		<polygon fill = 'rgb( 31, 120, 180)' fill-opacity = '0.250000' points = '276.6,28.0 276.6,242.4 277.3,242.4 277.3,27.0 '/>
		<polygon fill = 'rgb( 31, 120, 180)' fill-opacity = '0.250000' points = '277.3,27.0 277.3,242.4 278.0,242.4 278.0,26.1 '/>
		<polygon fill = 'rgb( 31, 120, 180)' fill-opacity = '0.250000' points = '278.0,26.1 278.0,242.4 278.7,242.4 278.7,25.2 '/>
		<polygon fill = 'rgb( 31, 120, 180)' fill-opacity = '0.250000' points = '278.7,25.2 278.7,242.4 279.3,242.4 279.3,24.3 '/>
		<polygon fill = 'rgb( 31, 120, 180)' fill-opacity = '0.250000' points = '279.3,24.3 279.3,242.4 280.0,242.4 280.0,23.5 '/>
		<polygon fill = 'rgb( 31, 120, 180)' fill-opacity = '0.250000' points = '280.0,23.5 280.0,242.4 280.7,242.4 280.7,22.8 '/>
		<polygon fill = 'rgb( 31, 120, 180)' fill-opacity = '0.250000' points = '280.7,22.8 280.7,242.4 281.4,242.4 281.4,22.0 '/>
		<polygon fill = 'rgb( 31, 120, 180)' fill-opacity = '0.250000' points = '281.4,22.0 281.4,242.4 282.0,242.4 282.0,21.4 '/>
		<polygon fill = 'rgb( 31, 120, 180)' fill-opacity = '0.250000' points = '282.0,21.4 282.0,242.4 282.7,242.4 282.7,20.7 '/>
		<polygon fill = 'rgb( 31, 120, 180)' fill-opacity = '0.250000' points = '282.7,20.7 282.7,242.4 283.4,242.4 283.4,20.1 '/>
		<polygon fill = 'rgb( 31, 120, 180)' fill-opacity = '0.250000' points = '283.4,20.1 283.4,242.4 284.1,242.4 284.1,19.6 '/>
		<polygon fill = 'rgb( 31, 120, 180)' fill-opacity = '0.250000' points = '284.1,19.6 284.1,242.4 284.7,242.4 284.7,19.1 '/>
		<polygon fill = 'rgb( 31, 120, 180)' fill-opacity = '0.250000' points = '284.7,19.1 284.7,242.4 285.4,242.4 285.4,18.6 '/>
		<polygon fill = 'rgb( 31, 120, 180)' fill-opacity = '0.250000' points = '285.4,18.6 285.4,242.4 286.1,242.4 286.1,18.2 '/>
		<polygon fill = 'rgb( 31, 120, 180)' fill-opacity = '0.250000' points = '286.1,18.2 286.1,242.4 286.8,242.4 286.8,17.8 '/>
		<polygon fill = 'rgb( 31, 120, 180)' fill-opacity = '0.250000' points = '286.8,17.8 286.8,242.4 287.4,242.4 287.4,17.5 '/>
		<polygon fill = 'rgb( 31, 120, 180)' fill-opacity = '0.250000' points = '287.4,17.5 287.4,242.4 288.1,242.4 288.1,17.3 '/>
		<polygon fill = 'rgb( 31, 120, 180)' fill-opacity = '0.250000' points = '288.1,17.3 288.1,242.4 288.8,242.4 288.8,17.0 '/>
		<polygon fill = 'rgb( 31, 120, 180)' fill-opacity = '0.250000' points = '288.8,17.0 288.8,242.4 289.5,242.4 289.5,16.9 '/>
		<polygon fill = 'rgb( 31, 120, 180)' fill-opacity = '0.250000' points = '289.5,16.9 289.5,242.4 290.1,242.4 290.1,16.8 '/>
		<polygon fill = 'rgb( 31, 120, 180)' fill-opacity = '0.250000' points = '290.1,16.8 290.1,242.4 290.8,242.4 290.8,16.7 '/>
		<polygon fill = 'rgb( 31, 120, 180)' fill-opacity = '0.250000' points = '290.8,16.7 290.8,242.4 291.5,242.4 291.5,16.7 '/>
		<polygon fill = 'rgb( 31, 120, 180)' fill-opacity = '0.250000' points = '291.5,16.7 291.5,242.4 292.2,242.4 292.2,16.7 '/>
		<polygon fill = 'rgb( 31, 120, 180)' fill-opacity = '0.250000' points = '292.2,16.7 292.2,242.4 292.8,242.4 292.8,16.8 '/>
		<polygon fill = 'rgb( 31, 120, 180)' fill-opacity = '0.250000' points = '292.8,16.8 292.8,242.4 293.5,242.4 293.5,17.0 '/>
		<polygon fill = 'rgb( 31, 120, 180)' fill-opacity = '0.250000' points = '293.5,17.0 293.5,242.4 294.2,242.4 294.2,17.2 '/>
		<polygon fill = 'rgb( 31, 120, 180)' fill-opacity = '0.250000' points = '294.2,17.2 294.2,242.4 294.9,242.4 294.9,17.4 '/>
		<polygon fill = 'rgb( 31, 120, 180)' fill-opacity = '0.250000' points = '294.9,17.4 294.9,242.4 295.5,242.4 295.5,17.7 '/>
		<polygon fill = 'rgb( 31, 120, 180)' fill-opacity = '0.250000' points = '295.5,17.7 295.5,242.4 296.2,242.4 296.2,18.1 '/>
		<polygon fill = 'rgb( 31, 120, 180)' fill-opacity = '0.250000' points = '296.2,18.1 296.2,242.4 296.9,242.4 296.9,18.5 '/>
		<polygon fill = 'rgb( 31, 120, 180)' fill-opacity = '0.250000' points = '296.9,18.5 296.9,242.4 297.5,242.4 297.5,18.9 '/>
		<polygon fill = 'rgb( 31, 120, 180)' fill-opacity = '0.250000' points = '297.5,18.9 297.5,242.4 298.2,242.4 298.2,19.5 '/>
		<polygon fill = 'rgb( 31, 120, 180)' fill-opacity = '0.250000' points = '298.2,19.5 298.2,242.4 298.9,242.4 298.9,20.0 '/>
		<polygon fill = 'rgb( 31, 120, 180)' fill-opacity = '0.250000' points = '298.9,20.0 298.9,242.4 299.6,242.4 299.6,20.6 '/>
		<polygon fill = 'rgb( 31, 120, 180)' fill-opacity = '0.250000' points = '299.6,20.6 299.6,242.4 300.2,242.4 300.2,21.3 '/>
		<polygon fill = 'rgb( 31, 120, 180)' fill-opacity = '0.250000' points = '300.2,21.3 300.2,242.4 300.9,242.4 300.9,22.0 '/>
		<polygon fill = 'rgb( 31, 120, 180)' fill-opacity = '0.250000' points = '300.9,22.0 300.9,242.4 301.6,242.4 301.6,22.8 '/>
		<polygon fill = 'rgb( 31, 120, 180)' fill-opacity = '0.250000' points = '301.6,22.8 301.6,242.4 302.3,242.4 302.3,23.6 '/>
		<polygon fill = 'rgb( 31, 120, 180)' fill-opacity = '0.250000' points = '302.3,23.6 302.3,242.4 302.9,242.4 302.9,24.4 '/>
		<polygon fill = 'rgb( 31, 120, 180)' fill-opacity = '0.250000' points = '302.9,24.4 302.9,242.4 303.6,242.4 303.6,25.3 '/>
		<polygon fill = 'rgb( 31, 120, 180)' fill-opacity = '0.250000' points = '303.6,25.3 303.6,242.4 304.3,242.4 304.3,26.3 '/>
		<polygon fill = 'rgb( 31, 120, 180)' fill-opacity = '0.250000' points = '304.3,26.3 304.3,242.4 305.0,242.4 305.0,27.3 '/>
		<polygon fill = 'rgb( 31, 120, 180)' fill-opacity = '0.250000' points = '305.0,27.3 305.0,242.4 305.6,242.4 305.6,28.4 '/>
		<polygon fill = 'rgb( 31, 120, 180)' fill-opacity = '0.250000' points = '305.6,28.4 305.6,242.4 306.3,242.4 306.3,29.5 '/>
		<polygon fill = 'rgb( 31, 120, 180)' fill-opacity = '0.250000' points = '306.3,29.5 306.3,242.4 307.0,242.4 307.0,30.6 '/>
		<polygon fill = 'rgb( 31, 120, 180)' fill-opacity = '0.250000' points = '307.0,30.6 307.0,242.4 307.7,242.4 307.7,31.8 '/>
		<polygon fill = 'rgb( 31, 120, 180)' fill-opacity = '0.250000' points = '307.7,31.8 307.7,242.4 308.3,242.4 308.3,33.0 '/>
		<polygon fill = 'rgb( 31, 120, 180)' fill-opacity = '0.250000' points = '308.3,33.0 308.3,242.4 309.0,242.4 309.0,34.3 '/>
		<polygon fill = 'rgb( 31, 120, 180)' fill-opacity = '0.250000' points = '309.0,34.3 309.0,242.4 309.7,242.4 309.7,35.6 '/>
		<polygon fill = 'rgb( 31, 120, 180)' fill-opacity = '0.250000' points = '309.7,35.6 309.7,242.4 310.4,242.4 310.4,37.0 '/>
		<polygon fill = 'rgb( 31, 120, 180)' fill-opacity = '0.250000' points = '310.4,37.0 310.4,242.4 311.0,242.4 311.0,38.4 '/>
		<polygon fill = 'rgb( 31, 120, 180)' fill-opacity = '0.250000' points = '311.0,38.4 311.0,242.4 311.7,242.4 311.7,39.9 '/>
		<polygon fill = 'rgb( 31, 120, 180)' fill-opacity = '0.250000' points = '311.7,39.9 311.7,242.4 312.4,242.4 312.4,41.4 '/>
		<polygon fill = 'rgb( 31, 120, 180)' fill-opacity = '0.250000' points = '312.4,41.4 312.4,242.4 313.1,242.4 313.1,42.9 '/>
		<polygon fill = 'rgb( 31, 120, 180)' fill-opacity = '0.250000' points = '313.1,42.9 313.1,242.4 313.7,242.4 313.7,44.4 '/>
		<polygon fill = 'rgb( 31, 120, 180)' fill-opacity = '0.250000' points = '313.7,44.4 313.7,242.4 314.4,242.4 314.4,46.0 '/>
		<polygon fill = 'rgb( 31, 120, 180)' fill-opacity = '0.250000' points = '314.4,46.0 314.4,242.4 315.1,242.4 315.1,47.7 '/>
		<polygon fill = 'rgb( 31, 120, 180)' fill-opacity = '0.250000' points = '315.1,47.7 315.1,242.4 315.8,242.4 315.8,49.3 '/>
		<polygon fill = 'rgb( 31, 120, 180)' fill-opacity = '0.250000' points = '315.8,49.3 315.8,242.4 316.4,242.4 316.4,51.1 '/>
		<polygon fill = 'rgb( 31, 120, 180)' fill-opacity = '0.250000' points = '316.4,51.1 316.4,242.4 317.1,242.4 317.1,52.8 '/>
		<polygon fill = 'rgb( 31, 120, 180)' fill-opacity = '0.250000' points = '317.1,52.8 317.1,242.4 317.8,242.4 317.8,54.6 '/>
		<polygon fill = 'rgb( 31, 120, 180)' fill-opacity = '0.250000' points = '317.8,54.6 317.8,242.4 318.5,242.4 318.5,56.4 '/>
		<polygon fill = 'rgb( 31, 120, 180)' fill-opacity = '0.250000' points = '318.5,56.4 318.5,242.4 319.1,242.4 319.1,58.2 '/>
		<polygon fill = 'rgb( 31, 120, 180)' fill-opacity = '0.250000' points = '319.1,58.2 319.1,242.4 319.8,242.4 319.8,60.1 '/>
		<polygon fill = 'rgb( 31, 120, 180)' fill-opacity = '0.250000' points = '319.8,60.1 319.8,242.4 320.5,242.4 320.5,61.9 '/>
		<polygon fill = 'rgb( 31, 120, 180)' fill-opacity = '0.250000' points = '320.5,61.9 320.5,242.4 321.2,242.4 321.2,63.9 '/>
		<polygon fill = 'rgb( 31, 120, 180)' fill-opacity = '0.250000' points = '321.2,63.9 321.2,242.4 321.8,242.4 321.8,65.8 '/>
		<polygon fill = 'rgb( 31, 120, 180)' fill-opacity = '0.250000' points = '321.8,65.8 321.8,242.4 322.5,242.4 322.5,67.8 '/>
		<polygon fill = 'rgb( 31, 120, 180)' fill-opacity = '0.250000' points = '322.5,67.8 322.5,242.4 323.2,242.4 323.2,69.8 '/>
		<polygon fill = 'rgb( 31, 120, 180)' fill-opacity = '0.250000' points = '323.2,69.8 323.2,242.4 323.8,242.4 323.8,71.8 '/>
		<polygon fill = 'rgb( 31, 120, 180)' fill-opacity = '0.250000' points = '323.8,71.8 323.8,242.4 324.5,242.4 324.5,73.8 '/>
		<polygon fill = 'rgb( 31, 120, 180)' fill-opacity = '0.250000' points = '324.5,73.8 324.5,242.4 325.2,242.4 325.2,75.9 '/>
		<polygon fill = 'rgb( 31, 120, 180)' fill-opacity = '0.250000' points = '325.2,75.9 325.2,242.4 325.9,242.4 325.9,78.0 '/>
		<polygon fill = 'rgb( 31, 120, 180)' fill-opacity = '0.250000' points = '325.9,78.0 325.9,242.4 326.5,242.4 326.5,80.0 '/>
		<polygon fill = 'rgb( 31, 120, 180)' fill-opacity = '0.250000' points = '326.5,80.0 326.5,242.4 327.2,242.4 327.2,82.2 '/>
		<polygon fill = 'rgb( 31, 120, 180)' fill-opacity = '0.250000' points = '327.2,82.2 327.2,242.4 327.9,242.4 327.9,84.3 '/>
		<polygon fill = 'rgb( 31, 120, 180)' fill-opacity = '0.250000' points = '327.9,84.3 327.9,242.4 328.6,242.4 328.6,86.4 '/>
		<polygon fill = 'rgb( 31, 120, 180)' fill-opacity = '0.250000' points = '328.6,86.4 328.6,242.4 329.2,242.4 329.2,88.6 '/>
		<polygon fill = 'rgb( 31, 120, 180)' fill-opacity = '0.250000' points = '329.2,88.6 329.2,242.4 329.9,242.4 329.9,90.8 '/>
		<polygon fill = 'rgb( 31, 120, 180)' fill-opacity = '0.250000' points = '329.9,90.8 329.9,242.4 330.6,242.4 330.6,93.0 '/>
		<polygon fill = 'rgb( 31, 120, 180)' fill-opacity = '0.250000' points = '330.6,93.0 330.6,242.4 331.3,242.4 331.3,95.1 '/>
		<polygon fill = 'rgb( 31, 120, 180)' fill-opacity = '0.250000' points = '331.3,95.1 331.3,242.4 331.9,242.4 331.9,97.4 '/>
		<polygon fill = 'rgb( 31, 120, 180)' fill-opacity = '0.250000' points = '331.9,97.4 331.9,242.4 332.6,242.4 332.6,99.6 '/>
		<polygon fill = 'rgb( 31, 120, 180)' fill-opacity = '0.250000' points = '332.6,99.6 332.6,242.4 333.3,242.4 333.3,101.8 '/>
		<polygon fill = 'rgb( 31, 120, 180)' fill-opacity = '0.250000' points = '333.3,101.8 333.3,242.4 334.0,242.4 334.0,104.0 '/>
		<polygon fill = 'rgb( 31, 120, 180)' fill-opacity = '0.250000' points = '334.0,104.0 334.0,242.4 334.6,242.4 334.6,106.3 '/>
		<polygon fill = 'rgb( 31, 120, 180)' fill-opacity = '0.250000' points = '334.6,106.3 334.6,242.4 335.3,242.4 335.3,108.5 '/>
		<polygon fill = 'rgb( 31, 120, 180)' fill-opacity = '0.250000' points = '335.3,108.5 335.3,242.4 336.0,242.4 336.0,110.7 '/>
		<polygon fill = 'rgb( 31, 120, 180)' fill-opacity = '0.250000' points = '336.0,110.7 336.0,242.4 336.7,242.4 336.7,113.0 '/>
		<polygon fill = 'rgb( 31, 120, 180)' fill-opacity = '0.250000' points = '336.7,113.0 336.7,242.4 337.3,242.4 337.3,115.2 '/>
		<polygon fill = 'rgb( 31, 120, 180)' fill-opacity = '0.250000' points = '337.3,115.2 337.3,242.4 338.0,242.4 338.0,117.5 '/>
		<polygon fill = 'rgb( 31, 120, 180)' fill-opacity = '0.250000' points = '338.0,117.5 338.0,242.4 338.7,242.4 338.7,119.7 '/>
		<polygon fill = 'rgb( 31, 120, 180)' fill-opacity = '0.250000' points = '338.7,119.7 338.7,242.4 339.4,242.4 339.4,121.9 '/>
		<polygon fill = 'rgb( 31, 120, 180)' fill-opacity = '0.250000' points = '339.4,121.9 339.4,242.4 340.0,242.4 340.0,124.2 '/>
		<polygon fill = 'rgb( 31, 120, 180)' fill-opacity = '0.250000' points = '340.0,124.2 340.0,242.4 340.7,242.4 340.7,126.4 '/>
		<polygon fill = 'rgb( 31, 120, 180)' fill-opacity = '0.250000' points = '340.7,126.4 340.7,242.4 341.4,242.4 341.4,128.6 '/>
		<polygon fill = 'rgb( 31, 120, 180)' fill-opacity = '0.250000' points = '341.4,128.6 341.4,242.4 342.1,242.4 342.1,130.9 '/>
		<polygon fill = 'rgb( 31, 120, 180)' fill-opacity = '0.250000' points = '342.1,130.9 342.1,242.4 342.7,242.4 342.7,133.1 '/>
		<polygon fill = 'rgb( 31, 120, 180)' fill-opacity = '0.250000' points = '342.7,133.1 342.7,242.4 343.4,242.4 343.4,135.3 '/>
		<polygon fill = 'rgb( 31, 120, 180)' fill-opacity = '0.250000' points = '343.4,135.3 343.4,242.4 344.1,242.4 344.1,137.5 '/>
		<polygon fill = 'rgb( 31, 120, 180)' fill-opacity = '0.250000' points = '344.1,137.5 344.1,242.4 344.8,242.4 344.8,139.7 '/>
		<polygon fill = 'rgb( 31, 120, 180)' fill-opacity = '0.250000' points = '344.8,139.7 344.8,242.4 345.4,242.4 345.4,141.8 '/>
		<polygon fill = 'rgb( 31, 120, 180)' fill-opacity = '0.250000' points = '345.4,141.8 345.4,242.4 346.1,242.4 346.1,144.0 '/>
		<polygon fill = 'rgb( 31, 120, 180)' fill-opacity = '0.250000' points = '346.1,144.0 346.1,242.4 346.8,242.4 346.8,146.1 '/>
		<polygon fill = 'rgb( 31, 120, 180)' fill-opacity = '0.250000' points = '346.8,146.1 346.8,242.4 347.4,242.4 347.4,148.3 '/>
		<polygon fill = 'rgb( 31, 120, 180)' fill-opacity = '0.250000' points = '347.4,148.3 347.4,242.4 348.1,242.4 348.1,150.4 '/>
		<polygon fill = 'rgb( 31, 120, 180)' fill-opacity = '0.250000' points = '348.1,150.4 348.1,242.4 348.8,242.4 348.8,152.5 '/>
		<polygon fill = 'rgb( 31, 120, 180)' fill-opacity = '0.250000' points = '348.8,152.5 348.8,242.4 349.5,242.4 349.5,154.6 '/>
		<polygon fill = 'rgb( 31, 120, 180)' fill-opacity = '0.250000' points = '349.5,154.6 349.5,242.4 350.1,242.4 350.1,156.7 '/>
		<polygon fill = 'rgb( 31, 120, 180)' fill-opacity = '0.250000' points = '350.1,156.7 350.1,242.4 350.8,242.4 350.8,158.7 '/>
		<polygon fill = 'rgb( 31, 120, 180)' fill-opacity = '0.250000' points = '350.8,158.7 350.8,242.4 351.5,242.4 351.5,160.7 '/>
		<polygon fill = 'rgb( 31, 120, 180)' fill-opacity = '0.250000' points = '351.5,160.7 351.5,242.4 352.2,242.4 352.2,162.7 '/>
		<polygon fill = 'rgb( 31, 120, 180)' fill-opacity = '0.250000' points = '352.2,162.7 352.2,242.4 352.8,242.4 352.8,164.7 '/>
		<polygon fill = 'rgb( 31, 120, 180)' fill-opacity = '0.250000' points = '352.8,164.7 352.8,242.4 353.5,242.4 353.5,166.7 '/>
		<polygon fill = 'rgb( 31, 120, 180)' fill-opacity = '0.250000' points = '353.5,166.7 353.5,242.4 354.2,242.4 354.2,168.6 '/>
		<polygon fill = 'rgb( 31, 120, 180)' fill-opacity = '0.250000' points = '354.2,168.6 354.2,242.4 354.9,242.4 354.9,170.6 '/>
		<polygon fill = 'rgb( 31, 120, 180)' fill-opacity = '0.250000' points = '354.9,170.6 354.9,242.4 355.5,242.4 355.5,172.5 '/>
		<polygon fill = 'rgb( 31, 120, 180)' fill-opacity = '0.250000' points = '355.5,172.5 355.5,242.4 356.2,242.4 356.2,174.3 '/>
		<polygon fill = 'rgb( 31, 120, 180)' fill-opacity = '0.250000' points = '356.2,174.3 356.2,242.4 356.9,242.4 356.9,176.2 '/>
		<polygon fill = 'rgb( 31, 120, 180)' fill-opacity = '0.250000' points = '356.9,176.2 356.9,242.4 357.6,242.4 357.6,178.0 '/>
		<polygon fill = 'rgb( 31, 120, 180)' fill-opacity = '0.250000' points = '357.6,178.0 357.6,242.4 358.2,242.4 358.2,179.8 '/>
		<polygon fill = 'rgb( 31, 120, 180)' fill-opacity = '0.250000' points = '358.2,179.8 358.2,242.4 358.9,242.4 358.9,181.6 '/>
		<polygon fill = 'rgb( 31, 120, 180)' fill-opacity = '0.250000' points = '358.9,181.6 358.9,242.4 359.6,242.4 359.6,183.3 '/>
		<polygon fill = 'rgb( 31, 120, 180)' fill-opacity = '0.250000' points = '359.6,183.3 359.6,242.4 360.3,242.4 360.3,185.0 '/>
		<polygon fill = 'rgb( 31, 120, 180)' fill-opacity = '0.250000' points = '360.3,185.0 360.3,242.4 360.9,242.4 360.9,186.7 '/>
		<polygon fill = 'rgb( 31, 120, 180)' fill-opacity = '0.250000' points = '360.9,186.7 360.9,242.4 361.6,242.4 361.6,188.4 '/>
		<polygon fill = 'rgb( 31, 120, 180)' fill-opacity = '0.250000' points = '361.6,188.4 361.6,242.4 362.3,242.4 362.3,190.0 '/>
		<polygon fill = 'rgb( 31, 120, 180)' fill-opacity = '0.250000' points = '362.3,190.0 362.3,242.4 363.0,242.4 363.0,191.6 '/>
		<polygon fill = 'rgb( 31, 120, 180)' fill-opacity = '0.250000' points = '363.0,191.6 363.0,242.4 363.6,242.4 363.6,193.2 '/>
		<polygon fill = 'rgb( 31, 120, 180)' fill-opacity = '0.250000' points = '363.6,193.2 363.6,242.4 364.3,242.4 364.3,194.7 '/>
		<polygon fill = 'rgb( 31, 120, 180)' fill-opacity = '0.250000' points = '364.3,194.7 364.3,242.4 365.0,242.4 365.0,196.2 '/>
		<polygon fill = 'rgb( 31, 120, 180)' fill-opacity = '0.250000' points = '365.0,196.2 365.0,242.4 365.7,242.4 365.7,197.7 '/>
		<polygon fill = 'rgb( 31, 120, 180)' fill-opacity = '0.250000' points = '365.7,197.7 365.7,242.4 366.3,242.4 366.3,199.2 '/>
		<polygon fill = 'rgb( 31, 120, 180)' fill-opacity = '0.250000' points = '366.3,199.2 366.3,242.4 367.0,242.4 367.0,200.6 '/>
		<polygon fill = 'rgb( 31, 120, 180)' fill-opacity = '0.250000' points = '367.0,200.6 367.0,242.4 367.7,242.4 367.7,202.0 '/>
		<polygon fill = 'rgb( 31, 120, 180)' fill-opacity = '0.250000' points = '367.7,202.0 367.7,242.4 368.4,242.4 368.4,203.4 '/>
		<polygon fill = 'rgb( 31, 120, 180)' fill-opacity = '0.250000' points = '368.4,203.4 368.4,242.4 369.0,242.4 369.0,204.7 '/>
		<polygon fill = 'rgb( 31, 120, 180)' fill-opacity = '0.250000' points = '369.0,204.7 369.0,242.4 369.7,242.4 369.7,206.0 '/>
		<polygon fill = 'rgb( 31, 120, 180)' fill-opacity = '0.250000' points = '369.7,206.0 369.7,242.4 370.4,242.4 370.4,207.3 '/>
		<polygon fill = 'rgb( 31, 120, 180)' fill-opacity = '0.250000' points = '370.4,207.3 370.4,242.4 371.1,242.4 371.1,208.5 '/>
		<polygon fill = 'rgb( 31, 120, 180)' fill-opacity = '0.250000' points = '371.1,208.5 371.1,242.4 371.7,242.4 371.7,209.7 '/>
		<polygon fill = 'rgb( 31, 120, 180)' fill-opacity = '0.250000' points = '371.7,209.7 371.7,242.4 372.4,242.4 372.4,210.9 '/>
		<polygon fill = 'rgb( 31, 120, 180)' fill-opacity = '0.250000' points = '372.4,210.9 372.4,242.4 373.1,242.4 373.1,212.1 '/>
		<polygon fill = 'rgb( 31, 120, 180)' fill-opacity = '0.250000' points = '373.1,212.1 373.1,242.4 373.7,242.4 373.7,213.2 '/>
		<polygon fill = 'rgb( 31, 120, 180)' fill-opacity = '0.250000' points = '373.7,213.2 373.7,242.4 374.4,242.4 374.4,214.3 '/>
		<polygon fill = 'rgb( 31, 120, 180)' fill-opacity = '0.250000' points = '374.4,214.3 374.4,242.4 375.1,242.4 375.1,215.3 '/>
		<polygon fill = 'rgb( 31, 120, 180)' fill-opacity = '0.250000' points = '375.1,215.3 375.1,242.4 375.8,242.4 375.8,216.4 '/>
		<polygon fill = 'rgb( 31, 120, 180)' fill-opacity = '0.250000' points = '375.8,216.4 375.8,242.4 376.4,242.4 376.4,217.4 '/>
		<polygon fill = 'rgb( 31, 120, 180)' fill-opacity = '0.250000' points = '376.4,217.4 376.4,242.4 377.1,242.4 377.1,218.4 '/>
		<polygon fill = 'rgb( 31, 120, 180)' fill-opacity = '0.250000' points = '377.1,218.4 377.1,242.4 377.8,242.4 377.8,219.3 '/>
		<polygon fill = 'rgb( 31, 120, 180)' fill-opacity = '0.250000' points = '377.8,219.3 377.8,242.4 378.5,242.4 378.5,220.2 '/>
		<polygon fill = 'rgb( 31, 120, 180)' fill-opacity = '0.250000' points = '378.5,220.2 378.5,242.4 379.1,242.4 379.1,221.1 '/>
		<polygon fill = 'rgb( 31, 120, 180)' fill-opacity = '0.250000' points = '379.1,221.1 379.1,242.4 379.8,242.4 379.8,222.0 '/>
		<polygon fill = 'rgb( 31, 120, 180)' fill-opacity = '0.250000' points = '379.8,222.0 379.8,242.4 380.5,242.4 380.5,222.8 '/>
		<polygon fill = 'rgb( 31, 120, 180)' fill-opacity = '0.250000' points = '380.5,222.8 380.5,242.4 381.2,242.4 381.2,223.7 '/>
		<polygon fill = 'rgb( 31, 120, 180)' fill-opacity = '0.250000' points = '381.2,223.7 381.2,242.4 381.8,242.4 381.8,224.5 '/>
		<polygon fill = 'rgb( 31, 120, 180)' fill-opacity = '0.250000' points = '381.8,224.5 381.8,242.4 382.5,242.4 382.5,225.2 '/>
		<polygon fill = 'rgb( 31, 120, 180)' fill-opacity = '0.250000' points = '382.5,225.2 382.5,242.4 383.2,242.4 383.2,226.0 '/>
		<polygon fill = 'rgb( 31, 120, 180)' fill-opacity = '0.250000' points = '383.2,226.0 383.2,242.4 383.9,242.4 383.9,226.7 '/>
		<polygon fill = 'rgb( 31, 120, 180)' fill-opacity = '0.250000' points = '383.9,226.7 383.9,242.4 384.5,242.4 384.5,227.4 '/>
		<polygon fill = 'rgb( 31, 120, 180)' fill-opacity = '0.250000' points = '384.5,227.4 384.5,242.4 385.2,242.4 385.2,228.0 '/>
		<polygon fill = 'rgb( 31, 120, 180)' fill-opacity = '0.250000' points = '385.2,228.0 385.2,242.4 385.9,242.4 385.9,228.7 '/>
		<polygon fill = 'rgb( 31, 120, 180)' fill-opacity = '0.250000' points = '385.9,228.7 385.9,242.4 386.6,242.4 386.6,229.3 '/>
		<polygon fill = 'rgb( 31, 120, 180)' fill-opacity = '0.250000' points = '386.6,229.3 386.6,242.4 387.2,242.4 387.2,229.9 '/>
		<polygon fill = 'rgb( 31, 120, 180)' fill-opacity = '0.250000' points = '387.2,229.9 387.2,242.4 387.9,242.4 387.9,230.5 '/>
		<polygon fill = 'rgb( 31, 120, 180)' fill-opacity = '0.250000' points = '387.9,230.5 387.9,242.4 388.6,242.4 388.6,231.0 '/>
		<polygon fill = 'rgb( 31, 120, 180)' fill-opacity = '0.250000' points = '388.6,231.0 388.6,242.4 389.3,242.4 389.3,231.6 '/>
		<polygon fill = 'rgb( 31, 120, 180)' fill-opacity = '0.250000' points = '389.3,231.6 389.3,242.4 389.9,242.4 389.9,232.1 '/>
		<polygon fill = 'rgb( 31, 120, 180)' fill-opacity = '0.250000' points = '389.9,232.1 389.9,242.4 390.6,242.4 390.6,232.6 '/>
		<polygon fill = 'rgb( 31, 120, 180)' fill-opacity = '0.250000' points = '390.6,232.6 390.6,242.4 391.3,242.4 391.3,233.0 '/>
		<polygon fill = 'rgb( 31, 120, 180)' fill-opacity = '0.250000' points = '391.3,233.0 391.3,242.4 392.0,242.4 392.0,233.5 '/>
		<polygon fill = 'rgb( 31, 120, 180)' fill-opacity = '0.250000' points = '392.0,233.5 392.0,242.4 392.6,242.4 392.6,233.9 '/>
		<polygon fill = 'rgb( 31, 120, 180)' fill-opacity = '0.250000' points = '392.6,233.9 392.6,242.4 393.3,242.4 393.3,234.4 '/>
		<polygon fill = 'rgb( 31, 120, 180)' fill-opacity = '0.250000' points = '393.3,234.4 393.3,242.4 394.0,242.4 394.0,234.8 '/>
		<polygon fill = 'rgb( 31, 120, 180)' fill-opacity = '0.250000' points = '394.0,234.8 394.0,242.4 394.7,242.4 394.7,235.1 '/>
		<polygon fill = 'rgb( 31, 120, 180)' fill-opacity = '0.250000' points = '394.7,235.1 394.7,242.4 395.3,242.4 395.3,235.5 '/>
		<polygon fill = 'rgb( 31, 120, 180)' fill-opacity = '0.250000' points = '395.3,235.5 395.3,242.4 396.0,242.4 396.0,235.9 '/>
		<polygon fill = 'rgb( 31, 120, 180)' fill-opacity = '0.250000' points = '396.0,235.9 396.0,242.4 396.7,242.4 396.7,236.2 '/>
		<polygon fill = 'rgb( 31, 120, 180)' fill-opacity = '0.250000' points = '396.7,236.2 396.7,242.4 397.4,242.4 397.4,236.5 '/>
		<polygon fill = 'rgb( 31, 120, 180)' fill-opacity = '0.250000' points = '397.4,236.5 397.4,242.4 398.0,242.4 398.0,236.8 '/>
		<polygon fill = 'rgb( 31, 120, 180)' fill-opacity = '0.250000' points = '398.0,236.8 398.0,242.4 398.7,242.4 398.7,237.1 '/>
		<polygon fill = 'rgb( 31, 120, 180)' fill-opacity = '0.250000' points = '398.7,237.1 398.7,242.4 399.4,242.4 399.4,237.4 '/>
		<polygon fill = 'rgb( 31, 120, 180)' fill-opacity = '0.250000' points = '399.4,237.4 399.4,242.4 400.0,242.4 400.0,237.7 '/>
		<polygon fill = 'rgb( 31, 120, 180)' fill-opacity = '0.250000' points = '400.0,237.7 400.0,242.4 400.7,242.4 400.7,237.9 '/>
		<polygon fill = 'rgb( 31, 120, 180)' fill-opacity = '0.250000' points = '400.7,237.9 400.7,242.4 401.4,242.4 401.4,238.2 '/>
		<polygon fill = 'rgb( 31, 120, 180)' fill-opacity = '0.250000' points = '401.4,238.2 401.4,242.4 402.1,242.4 402.1,238.4 '/>
		<polygon fill = 'rgb( 31, 120, 180)' fill-opacity = '0.250000' points = '402.1,238.4 402.1,242.4 402.7,242.4 402.7,238.6 '/>
		<polygon fill = 'rgb( 31, 120, 180)' fill-opacity = '0.250000' points = '402.7,238.6 402.7,242.4 403.4,242.4 403.4,238.9 '/>
		<polygon fill = 'rgb( 31, 120, 180)' fill-opacity = '0.250000' points = '403.4,238.9 403.4,242.4 404.1,242.4 404.1,239.1 '/>
		<polygon fill = 'rgb( 31, 120, 180)' fill-opacity = '0.250000' points = '404.1,239.1 404.1,242.4 404.8,242.4 404.8,239.3 '/>
		<polygon fill = 'rgb( 31, 120, 180)' fill-opacity = '0.250000' points = '404.8,239.3 404.8,242.4 405.4,242.4 405.4,239.4 '/>
		<polygon fill = 'rgb( 31, 120, 180)' fill-opacity = '0.250000' points = '405.4,239.4 405.4,242.4 406.1,242.4 406.1,239.6 '/>
		<polygon fill = 'rgb( 31, 120, 180)' fill-opacity = '0.250000' points = '406.1,239.6 406.1,242.4 406.8,242.4 406.8,239.8 '/>
		<polygon fill = 'rgb( 31, 120, 180)' fill-opacity = '0.250000' points = '406.8,239.8 406.8,242.4 407.5,242.4 407.5,239.9 '/>
		<polygon fill = 'rgb( 31, 120, 180)' fill-opacity = '0.250000' points = '407.5,239.9 407.5,242.4 408.1,242.4 408.1,240.1 '/>
		<polygon fill = 'rgb( 31, 120, 180)' fill-opacity = '0.250000' points = '408.1,240.1 408.1,242.4 408.8,242.4 408.8,240.2 '/>
		<polygon fill = 'rgb( 31, 120, 180)' fill-opacity = '0.250000' points = '408.8,240.2 408.8,242.4 409.5,242.4 409.5,240.3 '/>
		<polygon fill = 'rgb( 31, 120, 180)' fill-opacity = '0.250000' points = '409.5,240.3 409.5,242.4 410.2,242.4 410.2,240.5 '/>
		<polygon fill = 'rgb( 31, 120, 180)' fill-opacity = '0.250000' points = '410.2,240.5 410.2,242.4 410.8,242.4 410.8,240.6 '/>
		<polygon fill = 'rgb( 31, 120, 180)' fill-opacity = '0.250000' points = '410.8,240.6 410.8,242.4 411.5,242.4 411.5,240.7 '/>
		<polygon fill = 'rgb( 31, 120, 180)' fill-opacity = '0.250000' points = '411.5,240.7 411.5,242.4 412.2,242.4 412.2,240.8 '/>
		<polygon fill = 'rgb( 31, 120, 180)' fill-opacity = '0.250000' points = '412.2,240.8 412.2,242.4 412.9,242.4 412.9,240.9 '/>
		<polygon fill = 'rgb( 31, 120, 180)' fill-opacity = '0.250000' points = '412.9,240.9 412.9,242.4 413.5,242.4 413.5,241.0 '/>
		<polygon fill = 'rgb( 31, 120, 180)' fill-opacity = '0.250000' points = '413.5,241.0 413.5,242.4 414.2,242.4 414.2,241.1 '/>
		<polygon fill = 'rgb( 31, 120, 180)' fill-opacity = '0.250000' points = '414.2,241.1 414.2,242.4 414.9,242.4 414.9,241.2 '/>
		<polygon fill = 'rgb( 31, 120, 180)' fill-opacity = '0.250000' points = '414.9,241.2 414.9,242.4 415.6,242.4 415.6,241.3 '/>
		<polygon fill = 'rgb( 31, 120, 180)' fill-opacity = '0.250000' points = '415.6,241.3 415.6,242.4 416.2,242.4 416.2,241.3 '/>
		<polygon fill = 'rgb( 31, 120, 180)' fill-opacity = '0.250000' points = '416.2,241.3 416.2,242.4 416.9,242.4 416.9,241.4 '/>
		<polygon fill = 'rgb( 31, 120, 180)' fill-opacity = '0.250000' points = '416.9,241.4 416.9,242.4 417.6,242.4 417.6,241.5 '/>
		<polygon fill = 'rgb( 31, 120, 180)' fill-opacity = '0.250000' points = '417.6,241.5 417.6,242.4 418.3,242.4 418.3,241.5 '/>
		<polygon fill = 'rgb( 31, 120, 180)' fill-opacity = '0.250000' points = '418.3,241.5 418.3,242.4 418.9,242.4 418.9,241.6 '/>
		<polygon fill = 'rgb( 31, 120, 180)' fill-opacity = '0.250000' points = '418.9,241.6 418.9,242.4 419.6,242.4 419.6,241.6 '/>
		<polygon fill = 'rgb( 31, 120, 180)' fill-opacity = '0.250000' points = '419.6,241.6 419.6,242.4 420.3,242.4 420.3,241.7 '/>
		<polygon fill = 'rgb( 31, 120, 180)' fill-opacity = '0.250000' points = '420.3,241.7 420.3,242.4 421.0,242.4 421.0,241.7 '/>
		<polygon fill = 'rgb( 31, 120, 180)' fill-opacity = '0.250000' points = '421.0,241.7 421.0,242.4 421.6,242.4 421.6,241.8 '/>
		<polygon fill = 'rgb( 31, 120, 180)' fill-opacity = '0.250000' points = '421.6,241.8 421.6,242.4 422.3,242.4 422.3,241.8 '/>
		<polygon fill = 'rgb( 31, 120, 180)' fill-opacity = '0.250000' points = '422.3,241.8 422.3,242.4 423.0,242.4 423.0,241.9 '/>
		<polygon fill = 'rgb( 31, 120, 180)' fill-opacity = '0.250000' points = '423.0,241.9 423.0,242.4 423.7,242.4 423.7,241.9 '/>
		<polygon fill = 'rgb( 31, 120, 180)' fill-opacity = '0.250000' points = '423.7,241.9 423.7,242.4 424.3,242.4 424.3,241.9 '/>
		<polygon fill = 'rgb( 31, 120, 180)' fill-opacity = '0.250000' points = '424.3,241.9 424.3,242.4 425.0,242.4 425.0,242.0 '/>
	</g>
</g>
	</g>
	<g id="gnuplot_plot_2" ><title>Mean</title>
<g fill="none" color="white" stroke="rgb( 31, 120, 180)" stroke-width="2.00" stroke-linecap="butt" stroke-linejoin="miter">
</g>
<g fill="none" color="black" stroke="currentColor" stroke-width="2.00" stroke-linecap="butt" stroke-linejoin="miter">
	<path stroke='rgb( 31, 120, 180)'  d='M267.3,242.4 L267.3,62.3  '/></g>
	</g>
<g fill="none" color="black" stroke="currentColor" stroke-width="2.00" stroke-linecap="butt" stroke-linejoin="miter">
</g>
<g fill="none" color="black" stroke="black" stroke-width="1.00" stroke-linecap="butt" stroke-linejoin="miter">
</g>
<g fill="none" color="black" stroke="currentColor" stroke-width="1.00" stroke-linecap="butt" stroke-linejoin="miter">
	<path stroke='black'  d='M88.5,16.7 L88.5,242.4 L425.0,242.4 L425.0,16.7 L88.5,16.7 Z  '/></g>
<g fill="none" color="black" stroke="currentColor" stroke-width="1.00" stroke-linecap="butt" stroke-linejoin="miter">
</g>
</g>
</svg>

