<?xml version="1.0" encoding="utf-8"  standalone="no"?>
<svg 
 viewBox="0 0 1280 720"
 xmlns="http://www.w3.org/2000/svg"
 xmlns:xlink="http://www.w3.org/1999/xlink"
>

<title>Gnuplot</title>
<desc>Produced by GNUPLOT 5.0 patchlevel 6 </desc>

<g id="gnuplot_canvas">

<rect x="0" y="0" width="1280" height="720" fill="none"/>
<defs>

	<circle id='gpDot' r='0.5' stroke-width='0.5'/>
	<path id='gpPt0' stroke-width='0.222' stroke='currentColor' d='M-1,0 h2 M0,-1 v2'/>
	<path id='gpPt1' stroke-width='0.222' stroke='currentColor' d='M-1,-1 L1,1 M1,-1 L-1,1'/>
	<path id='gpPt2' stroke-width='0.222' stroke='currentColor' d='M-1,0 L1,0 M0,-1 L0,1 M-1,-1 L1,1 M-1,1 L1,-1'/>
	<rect id='gpPt3' stroke-width='0.222' stroke='currentColor' x='-1' y='-1' width='2' height='2'/>
	<rect id='gpPt4' stroke-width='0.222' stroke='currentColor' fill='currentColor' x='-1' y='-1' width='2' height='2'/>
	<circle id='gpPt5' stroke-width='0.222' stroke='currentColor' cx='0' cy='0' r='1'/>
	<use xlink:href='#gpPt5' id='gpPt6' fill='currentColor' stroke='none'/>
	<path id='gpPt7' stroke-width='0.222' stroke='currentColor' d='M0,-1.33 L-1.33,0.67 L1.33,0.67 z'/>
	<use xlink:href='#gpPt7' id='gpPt8' fill='currentColor' stroke='none'/>
	<use xlink:href='#gpPt7' id='gpPt9' stroke='currentColor' transform='rotate(180)'/>
	<use xlink:href='#gpPt9' id='gpPt10' fill='currentColor' stroke='none'/>
	<use xlink:href='#gpPt3' id='gpPt11' stroke='currentColor' transform='rotate(45)'/>
	<use xlink:href='#gpPt11' id='gpPt12' fill='currentColor' stroke='none'/>
	<path id='gpPt13' stroke-width='0.222' stroke='currentColor' d='M0,1.330 L1.265,0.411 L0.782,-1.067 L-0.782,-1.076 L-1.265,0.411 z'/>
	<use xlink:href='#gpPt13' id='gpPt14' fill='currentColor' stroke='none'/>
	<filter id='textbox' filterUnits='objectBoundingBox' x='0' y='0' height='1' width='1'>
	  <feFlood flood-color='white' flood-opacity='1' result='bgnd'/>
	  <feComposite in='SourceGraphic' in2='bgnd' operator='atop'/>
	</filter>
	<filter id='greybox' filterUnits='objectBoundingBox' x='0' y='0' height='1' width='1'>
	  <feFlood flood-color='lightgrey' flood-opacity='1' result='grey'/>
	  <feComposite in='SourceGraphic' in2='grey' operator='atop'/>
	</filter>
</defs>
<g fill="none" color="white" stroke="currentColor" stroke-width="1.00" stroke-linecap="butt" stroke-linejoin="miter">
</g>
<g fill="none" color="black" stroke="currentColor" stroke-width="1.00" stroke-linecap="butt" stroke-linejoin="miter">
	<path stroke='black'  d='M71.9,662.4 L80.9,662.4  '/>	<g transform="translate(63.6,666.3)" stroke="none" fill="black" font-family="Helvetica" font-size="12.00"  text-anchor="end">
		<text><tspan font-family="Helvetica" > 0</tspan></text>
	</g>
</g>
<g fill="none" color="black" stroke="currentColor" stroke-width="1.00" stroke-linecap="butt" stroke-linejoin="miter">
	<path stroke='black'  d='M71.9,594.8 L80.9,594.8  '/>	<g transform="translate(63.6,598.7)" stroke="none" fill="black" font-family="Helvetica" font-size="12.00"  text-anchor="end">
		<text><tspan font-family="Helvetica" > 20</tspan></text>
	</g>
</g>
<g fill="none" color="black" stroke="currentColor" stroke-width="1.00" stroke-linecap="butt" stroke-linejoin="miter">
	<path stroke='black'  d='M71.9,527.2 L80.9,527.2  '/>	<g transform="translate(63.6,531.1)" stroke="none" fill="black" font-family="Helvetica" font-size="12.00"  text-anchor="end">
		<text><tspan font-family="Helvetica" > 40</tspan></text>
	</g>
</g>
<g fill="none" color="black" stroke="currentColor" stroke-width="1.00" stroke-linecap="butt" stroke-linejoin="miter">
	<path stroke='black'  d='M71.9,459.6 L80.9,459.6  '/>	<g transform="translate(63.6,463.5)" stroke="none" fill="black" font-family="Helvetica" font-size="12.00"  text-anchor="end">
		<text><tspan font-family="Helvetica" > 60</tspan></text>
	</g>
</g>
<g fill="none" color="black" stroke="currentColor" stroke-width="1.00" stroke-linecap="butt" stroke-linejoin="miter">
	<path stroke='black'  d='M71.9,392.0 L80.9,392.0  '/>	<g transform="translate(63.6,395.9)" stroke="none" fill="black" font-family="Helvetica" font-size="12.00"  text-anchor="end">
		<text><tspan font-family="Helvetica" > 80</tspan></text>
	</g>
</g>
<g fill="none" color="black" stroke="currentColor" stroke-width="1.00" stroke-linecap="butt" stroke-linejoin="miter">
	<path stroke='black'  d='M71.9,324.5 L80.9,324.5  '/>	<g transform="translate(63.6,328.4)" stroke="none" fill="black" font-family="Helvetica" font-size="12.00"  text-anchor="end">
		<text><tspan font-family="Helvetica" > 100</tspan></text>
	</g>
</g>
<g fill="none" color="black" stroke="currentColor" stroke-width="1.00" stroke-linecap="butt" stroke-linejoin="miter">
	<path stroke='black'  d='M71.9,256.9 L80.9,256.9  '/>	<g transform="translate(63.6,260.8)" stroke="none" fill="black" font-family="Helvetica" font-size="12.00"  text-anchor="end">
		<text><tspan font-family="Helvetica" > 120</tspan></text>
	</g>
</g>
<g fill="none" color="black" stroke="currentColor" stroke-width="1.00" stroke-linecap="butt" stroke-linejoin="miter">
	<path stroke='black'  d='M71.9,189.3 L80.9,189.3  '/>	<g transform="translate(63.6,193.2)" stroke="none" fill="black" font-family="Helvetica" font-size="12.00"  text-anchor="end">
		<text><tspan font-family="Helvetica" > 140</tspan></text>
	</g>
</g>
<g fill="none" color="black" stroke="currentColor" stroke-width="1.00" stroke-linecap="butt" stroke-linejoin="miter">
	<path stroke='black'  d='M71.9,121.7 L80.9,121.7  '/>	<g transform="translate(63.6,125.6)" stroke="none" fill="black" font-family="Helvetica" font-size="12.00"  text-anchor="end">
		<text><tspan font-family="Helvetica" > 160</tspan></text>
	</g>
</g>
<g fill="none" color="black" stroke="currentColor" stroke-width="1.00" stroke-linecap="butt" stroke-linejoin="miter">
	<path stroke='black'  d='M71.9,54.1 L80.9,54.1  '/>	<g transform="translate(63.6,58.0)" stroke="none" fill="black" font-family="Helvetica" font-size="12.00"  text-anchor="end">
		<text><tspan font-family="Helvetica" > 180</tspan></text>
	</g>
</g>
<g fill="none" color="black" stroke="currentColor" stroke-width="1.00" stroke-linecap="butt" stroke-linejoin="miter">
	<path stroke='black'  d='M134.9,662.4 L134.9,653.4  '/>	<g transform="translate(134.9,684.3)" stroke="none" fill="black" font-family="Helvetica" font-size="12.00"  text-anchor="middle">
		<text><tspan font-family="Helvetica" > 2.49</tspan></text>
	</g>
</g>
<g fill="none" color="black" stroke="currentColor" stroke-width="1.00" stroke-linecap="butt" stroke-linejoin="miter">
	<path stroke='black'  d='M304.5,662.4 L304.5,653.4  '/>	<g transform="translate(304.5,684.3)" stroke="none" fill="black" font-family="Helvetica" font-size="12.00"  text-anchor="middle">
		<text><tspan font-family="Helvetica" > 2.492</tspan></text>
	</g>
</g>
<g fill="none" color="black" stroke="currentColor" stroke-width="1.00" stroke-linecap="butt" stroke-linejoin="miter">
	<path stroke='black'  d='M474.0,662.4 L474.0,653.4  '/>	<g transform="translate(474.0,684.3)" stroke="none" fill="black" font-family="Helvetica" font-size="12.00"  text-anchor="middle">
		<text><tspan font-family="Helvetica" > 2.494</tspan></text>
	</g>
</g>
<g fill="none" color="black" stroke="currentColor" stroke-width="1.00" stroke-linecap="butt" stroke-linejoin="miter">
	<path stroke='black'  d='M643.6,662.4 L643.6,653.4  '/>	<g transform="translate(643.6,684.3)" stroke="none" fill="black" font-family="Helvetica" font-size="12.00"  text-anchor="middle">
		<text><tspan font-family="Helvetica" > 2.496</tspan></text>
	</g>
</g>
<g fill="none" color="black" stroke="currentColor" stroke-width="1.00" stroke-linecap="butt" stroke-linejoin="miter">
	<path stroke='black'  d='M813.1,662.4 L813.1,653.4  '/>	<g transform="translate(813.1,684.3)" stroke="none" fill="black" font-family="Helvetica" font-size="12.00"  text-anchor="middle">
		<text><tspan font-family="Helvetica" > 2.498</tspan></text>
	</g>
</g>
<g fill="none" color="black" stroke="currentColor" stroke-width="1.00" stroke-linecap="butt" stroke-linejoin="miter">
	<path stroke='black'  d='M982.7,662.4 L982.7,653.4  '/>	<g transform="translate(982.7,684.3)" stroke="none" fill="black" font-family="Helvetica" font-size="12.00"  text-anchor="middle">
		<text><tspan font-family="Helvetica" > 2.5</tspan></text>
	</g>
</g>
<g fill="none" color="black" stroke="currentColor" stroke-width="1.00" stroke-linecap="butt" stroke-linejoin="miter">
</g>
<g fill="none" color="black" stroke="currentColor" stroke-width="1.00" stroke-linecap="butt" stroke-linejoin="miter">
	<path stroke='black'  d='M71.9,54.1 L71.9,662.4 L1013.6,662.4 L1013.6,54.1 L71.9,54.1 Z  '/></g>
<g fill="none" color="black" stroke="currentColor" stroke-width="1.00" stroke-linecap="butt" stroke-linejoin="miter">
	<g transform="translate(17.0,358.3) rotate(270)" stroke="none" fill="black" font-family="Helvetica" font-size="12.00"  text-anchor="middle">
		<text><tspan font-family="Helvetica" >Density (a.u.)</tspan></text>
	</g>
</g>
<g fill="none" color="black" stroke="currentColor" stroke-width="1.00" stroke-linecap="butt" stroke-linejoin="miter">
	<g transform="translate(542.7,711.3)" stroke="none" fill="black" font-family="Helvetica" font-size="12.00"  text-anchor="middle">
		<text><tspan font-family="Helvetica" >Average time (ms)</tspan></text>
	</g>
</g>
<g fill="none" color="black" stroke="currentColor" stroke-width="1.00" stroke-linecap="butt" stroke-linejoin="miter">
	<g transform="translate(542.7,31.0)" stroke="none" fill="black" font-family="Helvetica" font-size="12.00"  text-anchor="middle">
		<text><tspan font-family="Helvetica" >language: typescript/parse error: bash/examples/clean-old.sh: slope</tspan></text>
	</g>
</g>
	<g id="gnuplot_plot_1" ><title>Bootstrap distribution</title>
<g fill="none" color="white" stroke="black" stroke-width="2.00" stroke-linecap="butt" stroke-linejoin="miter">
</g>
<g fill="none" color="black" stroke="currentColor" stroke-width="2.00" stroke-linecap="butt" stroke-linejoin="miter">
	<g transform="translate(1089.0,67.0)" stroke="none" fill="black" font-family="Helvetica" font-size="12.00"  text-anchor="start">
		<text><tspan font-family="Helvetica" >Bootstrap distribution</tspan></text>
	</g>
</g>
<g fill="none" color="black" stroke="currentColor" stroke-width="2.00" stroke-linecap="butt" stroke-linejoin="miter">
	<path stroke='rgb( 31, 120, 180)'  d='M1038.5,63.1 L1080.7,63.1 M71.9,627.3 L73.8,626.3 L75.7,625.4 L77.6,624.5 L79.4,623.5 L81.3,622.5
		L83.2,621.5 L85.1,620.5 L87.0,619.5 L88.9,618.5 L90.8,617.5 L92.7,616.4 L94.5,615.4 L96.4,614.3
		L98.3,613.2 L100.2,612.1 L102.1,610.9 L104.0,609.8 L105.9,608.6 L107.8,607.4 L109.6,606.1 L111.5,604.8
		L113.4,603.5 L115.3,602.2 L117.2,600.7 L119.1,599.3 L121.0,597.8 L122.9,596.3 L124.7,594.7 L126.6,593.0
		L128.5,591.3 L130.4,589.6 L132.3,587.8 L134.2,586.0 L136.1,584.1 L138.0,582.2 L139.8,580.2 L141.7,578.2
		L143.6,576.2 L145.5,574.2 L147.4,572.1 L149.3,570.0 L151.2,567.9 L153.0,565.8 L154.9,563.7 L156.8,561.5
		L158.7,559.3 L160.6,557.2 L162.5,555.0 L164.4,552.8 L166.3,550.6 L168.1,548.4 L170.0,546.2 L171.9,544.0
		L173.8,541.8 L175.7,539.5 L177.6,537.2 L179.5,534.9 L181.4,532.6 L183.2,530.2 L185.1,527.8 L187.0,525.4
		L188.9,522.9 L190.8,520.4 L192.7,517.9 L194.6,515.3 L196.5,512.7 L198.3,510.0 L200.2,507.3 L202.1,504.6
		L204.0,501.8 L205.9,499.0 L207.8,496.2 L209.7,493.4 L211.6,490.5 L213.4,487.6 L215.3,484.7 L217.2,481.8
		L219.1,478.9 L221.0,476.0 L222.9,473.1 L224.8,470.2 L226.6,467.3 L228.5,464.4 L230.4,461.5 L232.3,458.6
		L234.2,455.8 L236.1,452.9 L238.0,450.0 L239.9,447.2 L241.7,444.3 L243.6,441.5 L245.5,438.6 L247.4,435.7
		L249.3,432.8 L251.2,429.9 L253.1,426.9 L255.0,424.0 L256.8,420.9 L258.7,417.9 L260.6,414.8 L262.5,411.6
		L264.4,408.4 L266.3,405.2 L268.2,401.9 L270.1,398.6 L271.9,395.3 L273.8,391.9 L275.7,388.4 L277.6,385.0
		L279.5,381.5 L281.4,377.9 L283.3,374.4 L285.2,370.7 L287.0,367.1 L288.9,363.5 L290.8,359.8 L292.7,356.1
		L294.6,352.3 L296.5,348.6 L298.4,344.8 L300.2,341.0 L302.1,337.2 L304.0,333.4 L305.9,329.5 L307.8,325.7
		L309.7,321.9 L311.6,318.1 L313.5,314.2 L315.3,310.5 L317.2,306.7 L319.1,302.9 L321.0,299.2 L322.9,295.5
		L324.8,291.9 L326.7,288.3 L328.6,284.7 L330.4,281.2 L332.3,277.7 L334.2,274.2 L336.1,270.8 L338.0,267.4
		L339.9,264.1 L341.8,260.8 L343.7,257.5 L345.5,254.2 L347.4,251.0 L349.3,247.8 L351.2,244.7 L353.1,241.5
		L355.0,238.4 L356.9,235.3 L358.8,232.3 L360.6,229.2 L362.5,226.2 L364.4,223.1 L366.3,220.1 L368.2,217.1
		L370.1,214.1 L372.0,211.1 L373.8,208.1 L375.7,205.1 L377.6,202.0 L379.5,199.0 L381.4,196.0 L383.3,192.9
		L385.2,189.9 L387.1,186.8 L388.9,183.8 L390.8,180.8 L392.7,177.8 L394.6,174.8 L396.5,171.8 L398.4,168.9
		L400.3,166.0 L402.2,163.2 L404.0,160.4 L405.9,157.7 L407.8,155.0 L409.7,152.5 L411.6,150.0 L413.5,147.5
		L415.4,145.2 L417.3,142.9 L419.1,140.6 L421.0,138.4 L422.9,136.3 L424.8,134.2 L426.7,132.1 L428.6,130.1
		L430.5,128.1 L432.4,126.1 L434.2,124.1 L436.1,122.1 L438.0,120.1 L439.9,118.2 L441.8,116.2 L443.7,114.2
		L445.6,112.3 L447.4,110.4 L449.3,108.5 L451.2,106.6 L453.1,104.7 L455.0,102.9 L456.9,101.1 L458.8,99.4
		L460.7,97.7 L462.5,96.0 L464.4,94.4 L466.3,92.9 L468.2,91.4 L470.1,90.0 L472.0,88.6 L473.9,87.2
		L475.8,85.9 L477.6,84.7 L479.5,83.5 L481.4,82.3 L483.3,81.2 L485.2,80.1 L487.1,79.1 L489.0,78.1
		L490.9,77.2 L492.7,76.3 L494.6,75.5 L496.5,74.8 L498.4,74.2 L500.3,73.7 L502.2,73.3 L504.1,73.0
		L506.0,72.8 L507.8,72.8 L509.7,72.8 L511.6,73.0 L513.5,73.3 L515.4,73.7 L517.3,74.2 L519.2,74.8
		L521.0,75.5 L522.9,76.3 L524.8,77.1 L526.7,78.0 L528.6,79.0 L530.5,80.0 L532.4,81.1 L534.3,82.1
		L536.1,83.2 L538.0,84.4 L539.9,85.6 L541.8,86.8 L543.7,88.0 L545.6,89.3 L547.5,90.6 L549.4,91.9
		L551.2,93.3 L553.1,94.7 L555.0,96.2 L556.9,97.8 L558.8,99.4 L560.7,101.1 L562.6,102.9 L564.5,104.7
		L566.3,106.5 L568.2,108.4 L570.1,110.4 L572.0,112.4 L573.9,114.4 L575.8,116.4 L577.7,118.5 L579.5,120.6
		L581.4,122.7 L583.3,124.8 L585.2,126.9 L587.1,129.0 L589.0,131.1 L590.9,133.2 L592.8,135.3 L594.6,137.4
		L596.5,139.5 L598.4,141.6 L600.3,143.7 L602.2,145.9 L604.1,148.0 L606.0,150.2 L607.9,152.4 L609.7,154.6
		L611.6,156.9 L613.5,159.3 L615.4,161.6 L617.3,164.0 L619.2,166.5 L621.1,169.0 L623.0,171.6 L624.8,174.2
		L626.7,176.8 L628.6,179.6 L630.5,182.3 L632.4,185.1 L634.3,188.0 L636.2,190.8 L638.1,193.8 L639.9,196.8
		L641.8,199.8 L643.7,202.8 L645.6,205.9 L647.5,209.0 L649.4,212.1 L651.3,215.3 L653.1,218.5 L655.0,221.7
		L656.9,225.0 L658.8,228.3 L660.7,231.5 L662.6,234.8 L664.5,238.2 L666.4,241.5 L668.2,244.8 L670.1,248.2
		L672.0,251.5 L673.9,254.9 L675.8,258.2 L677.7,261.6 L679.6,264.9 L681.5,268.3 L683.3,271.6 L685.2,275.0
		L687.1,278.4 L689.0,281.7 L690.9,285.1 L692.8,288.4 L694.7,291.8 L696.6,295.1 L698.4,298.4 L700.3,301.8
		L702.2,305.1 L704.1,308.4 L706.0,311.7 L707.9,315.0 L709.8,318.3 L711.7,321.5 L713.5,324.7 L715.4,327.9
		L717.3,331.1 L719.2,334.3 L721.1,337.4 L723.0,340.5 L724.9,343.5 L726.7,346.5 L728.6,349.5 L730.5,352.4
		L732.4,355.3 L734.3,358.2 L736.2,361.0 L738.1,363.7 L740.0,366.4 L741.8,369.1 L743.7,371.7 L745.6,374.3
		L747.5,376.8 L749.4,379.4 L751.3,381.9 L753.2,384.3 L755.1,386.8 L756.9,389.2 L758.8,391.6 L760.7,394.1
		L762.6,396.5 L764.5,398.9 L766.4,401.4 L768.3,403.9 L770.2,406.4 L772.0,408.9 L773.9,411.5 L775.8,414.1
		L777.7,416.7 L779.6,419.4 L781.5,422.1 L783.4,424.8 L785.3,427.6 L787.1,430.4 L789.0,433.3 L790.9,436.2
		L792.8,439.1 L794.7,442.0 L796.6,445.0 L798.5,447.9 L800.3,450.9 L802.2,453.8 L804.1,456.8 L806.0,459.7
		L807.9,462.7 L809.8,465.6 L811.7,468.5 L813.6,471.3 L815.4,474.2 L817.3,477.0 L819.2,479.7 L821.1,482.5
		L823.0,485.1 L824.9,487.8 L826.8,490.4 L828.7,493.0 L830.5,495.5 L832.4,497.9 L834.3,500.4 L836.2,502.7
		L838.1,505.1 L840.0,507.4 L841.9,509.6 L843.8,511.9 L845.6,514.0 L847.5,516.2 L849.4,518.3 L851.3,520.4
		L853.2,522.4 L855.1,524.5 L857.0,526.5 L858.9,528.4 L860.7,530.4 L862.6,532.3 L864.5,534.2 L866.4,536.1
		L868.3,538.0 L870.2,539.8 L872.1,541.7 L873.9,543.5 L875.8,545.2 L877.7,547.0 L879.6,548.7 L881.5,550.4
		L883.4,552.1 L885.3,553.8 L887.2,555.4 L889.0,557.0 L890.9,558.6 L892.8,560.1 L894.7,561.7 L896.6,563.2
		L898.5,564.6 L900.4,566.1 L902.3,567.5 L904.1,569.0 L906.0,570.3 L907.9,571.7 L909.8,573.1 L911.7,574.4
		L913.6,575.8 L915.5,577.1 L917.4,578.4 L919.2,579.7 L921.1,581.0 L923.0,582.3 L924.9,583.5 L926.8,584.8
		L928.7,586.1 L930.6,587.3 L932.5,588.5 L934.3,589.8 L936.2,591.0 L938.1,592.2 L940.0,593.4 L941.9,594.6
		L943.8,595.8 L945.7,597.0 L947.5,598.1 L949.4,599.3 L951.3,600.4 L953.2,601.6 L955.1,602.7 L957.0,603.8
		L958.9,604.8 L960.8,605.9 L962.6,607.0 L964.5,608.0 L966.4,609.1 L968.3,610.1 L970.2,611.1 L972.1,612.1
		L974.0,613.1 L975.9,614.1 L977.7,615.1 L979.6,616.0 L981.5,616.9 L983.4,617.8 L985.3,618.7 L987.2,619.6
		L989.1,620.4 L991.0,621.2 L992.8,622.0 L994.7,622.8 L996.6,623.6 L998.5,624.3 L1000.4,625.0 L1002.3,625.7
		L1004.2,626.4 L1006.1,627.0 L1007.9,627.7 L1009.8,628.3 L1011.7,628.9 L1013.6,629.5  '/></g>
	</g>
	<g id="gnuplot_plot_2" ><title>Confidence interval</title>
<g fill="none" color="white" stroke="rgb( 31, 120, 180)" stroke-width="1.00" stroke-linecap="butt" stroke-linejoin="miter">
</g>
<g fill="none" color="black" stroke="currentColor" stroke-width="1.00" stroke-linecap="butt" stroke-linejoin="miter">
	<g transform="translate(1089.0,85.0)" stroke="none" fill="black" font-family="Helvetica" font-size="12.00"  text-anchor="start">
		<text><tspan font-family="Helvetica" >Confidence interval</tspan></text>
	</g>
</g>
<g fill="none" color="black" stroke="currentColor" stroke-width="1.00" stroke-linecap="butt" stroke-linejoin="miter">
	<g stroke='none' shape-rendering='crispEdges'>
		<polygon fill = 'rgb( 31, 120, 180)' fill-opacity = '0.250000' points = '1038.5,85.6 1080.7,85.6 1080.7,76.6 1038.5,76.6 '/>
		<polygon fill = 'rgb( 31, 120, 180)' fill-opacity = '0.250000' points = '158.7,559.3 158.7,662.4 160.6,662.4 160.6,557.2 '/>
		<polygon fill = 'rgb( 31, 120, 180)' fill-opacity = '0.250000' points = '160.6,557.2 160.6,662.4 162.5,662.4 162.5,555.0 '/>
		<polygon fill = 'rgb( 31, 120, 180)' fill-opacity = '0.250000' points = '162.5,555.0 162.5,662.4 164.4,662.4 164.4,552.8 '/>
		<polygon fill = 'rgb( 31, 120, 180)' fill-opacity = '0.250000' points = '164.4,552.8 164.4,662.4 166.3,662.4 166.3,550.6 '/>
		<polygon fill = 'rgb( 31, 120, 180)' fill-opacity = '0.250000' points = '166.3,550.6 166.3,662.4 168.1,662.4 168.1,548.4 '/>
		<polygon fill = 'rgb( 31, 120, 180)' fill-opacity = '0.250000' points = '168.1,548.4 168.1,662.4 170.0,662.4 170.0,546.2 '/>
		<polygon fill = 'rgb( 31, 120, 180)' fill-opacity = '0.250000' points = '170.0,546.2 170.0,662.4 171.9,662.4 171.9,544.0 '/>
		<polygon fill = 'rgb( 31, 120, 180)' fill-opacity = '0.250000' points = '171.9,544.0 171.9,662.4 173.8,662.4 173.8,541.8 '/>
		<polygon fill = 'rgb( 31, 120, 180)' fill-opacity = '0.250000' points = '173.8,541.8 173.8,662.4 175.7,662.4 175.7,539.5 '/>
		<polygon fill = 'rgb( 31, 120, 180)' fill-opacity = '0.250000' points = '175.7,539.5 175.7,662.4 177.6,662.4 177.6,537.2 '/>
		<polygon fill = 'rgb( 31, 120, 180)' fill-opacity = '0.250000' points = '177.6,537.2 177.6,662.4 179.5,662.4 179.5,534.9 '/>
		<polygon fill = 'rgb( 31, 120, 180)' fill-opacity = '0.250000' points = '179.5,534.9 179.5,662.4 181.4,662.4 181.4,532.6 '/>
		<polygon fill = 'rgb( 31, 120, 180)' fill-opacity = '0.250000' points = '181.4,532.6 181.4,662.4 183.2,662.4 183.2,530.2 '/>
		<polygon fill = 'rgb( 31, 120, 180)' fill-opacity = '0.250000' points = '183.2,530.2 183.2,662.4 185.1,662.4 185.1,527.8 '/>
		<polygon fill = 'rgb( 31, 120, 180)' fill-opacity = '0.250000' points = '185.1,527.8 185.1,662.4 187.0,662.4 187.0,525.4 '/>
		<polygon fill = 'rgb( 31, 120, 180)' fill-opacity = '0.250000' points = '187.0,525.4 187.0,662.4 188.9,662.4 188.9,522.9 '/>
		<polygon fill = 'rgb( 31, 120, 180)' fill-opacity = '0.250000' points = '188.9,522.9 188.9,662.4 190.8,662.4 190.8,520.4 '/>
		<polygon fill = 'rgb( 31, 120, 180)' fill-opacity = '0.250000' points = '190.8,520.4 190.8,662.4 192.7,662.4 192.7,517.9 '/>
		<polygon fill = 'rgb( 31, 120, 180)' fill-opacity = '0.250000' points = '192.7,517.9 192.7,662.4 194.6,662.4 194.6,515.3 '/>
		<polygon fill = 'rgb( 31, 120, 180)' fill-opacity = '0.250000' points = '194.6,515.3 194.6,662.4 196.5,662.4 196.5,512.7 '/>
		<polygon fill = 'rgb( 31, 120, 180)' fill-opacity = '0.250000' points = '196.5,512.7 196.5,662.4 198.3,662.4 198.3,510.0 '/>
		<polygon fill = 'rgb( 31, 120, 180)' fill-opacity = '0.250000' points = '198.3,510.0 198.3,662.4 200.2,662.4 200.2,507.3 '/>
		<polygon fill = 'rgb( 31, 120, 180)' fill-opacity = '0.250000' points = '200.2,507.3 200.2,662.4 202.1,662.4 202.1,504.6 '/>
		<polygon fill = 'rgb( 31, 120, 180)' fill-opacity = '0.250000' points = '202.1,504.6 202.1,662.4 204.0,662.4 204.0,501.8 '/>
		<polygon fill = 'rgb( 31, 120, 180)' fill-opacity = '0.250000' points = '204.0,501.8 204.0,662.4 205.9,662.4 205.9,499.0 '/>
		<polygon fill = 'rgb( 31, 120, 180)' fill-opacity = '0.250000' points = '205.9,499.0 205.9,662.4 207.8,662.4 207.8,496.2 '/>
		<polygon fill = 'rgb( 31, 120, 180)' fill-opacity = '0.250000' points = '207.8,496.2 207.8,662.4 209.7,662.4 209.7,493.4 '/>
		<polygon fill = 'rgb( 31, 120, 180)' fill-opacity = '0.250000' points = '209.7,493.4 209.7,662.4 211.6,662.4 211.6,490.5 '/>
		<polygon fill = 'rgb( 31, 120, 180)' fill-opacity = '0.250000' points = '211.6,490.5 211.6,662.4 213.4,662.4 213.4,487.6 '/>
		<polygon fill = 'rgb( 31, 120, 180)' fill-opacity = '0.250000' points = '213.4,487.6 213.4,662.4 215.3,662.4 215.3,484.7 '/>
		<polygon fill = 'rgb( 31, 120, 180)' fill-opacity = '0.250000' points = '215.3,484.7 215.3,662.4 217.2,662.4 217.2,481.8 '/>
		<polygon fill = 'rgb( 31, 120, 180)' fill-opacity = '0.250000' points = '217.2,481.8 217.2,662.4 219.1,662.4 219.1,478.9 '/>
		<polygon fill = 'rgb( 31, 120, 180)' fill-opacity = '0.250000' points = '219.1,478.9 219.1,662.4 221.0,662.4 221.0,476.0 '/>
		<polygon fill = 'rgb( 31, 120, 180)' fill-opacity = '0.250000' points = '221.0,476.0 221.0,662.4 222.9,662.4 222.9,473.1 '/>
		<polygon fill = 'rgb( 31, 120, 180)' fill-opacity = '0.250000' points = '222.9,473.1 222.9,662.4 224.8,662.4 224.8,470.2 '/>
		<polygon fill = 'rgb( 31, 120, 180)' fill-opacity = '0.250000' points = '224.8,470.2 224.8,662.4 226.6,662.4 226.6,467.3 '/>
		<polygon fill = 'rgb( 31, 120, 180)' fill-opacity = '0.250000' points = '226.6,467.3 226.6,662.4 228.5,662.4 228.5,464.4 '/>
		<polygon fill = 'rgb( 31, 120, 180)' fill-opacity = '0.250000' points = '228.5,464.4 228.5,662.4 230.4,662.4 230.4,461.5 '/>
		<polygon fill = 'rgb( 31, 120, 180)' fill-opacity = '0.250000' points = '230.4,461.5 230.4,662.4 232.3,662.4 232.3,458.6 '/>
		<polygon fill = 'rgb( 31, 120, 180)' fill-opacity = '0.250000' points = '232.3,458.6 232.3,662.4 234.2,662.4 234.2,455.8 '/>
		<polygon fill = 'rgb( 31, 120, 180)' fill-opacity = '0.250000' points = '234.2,455.8 234.2,662.4 236.1,662.4 236.1,452.9 '/>
		<polygon fill = 'rgb( 31, 120, 180)' fill-opacity = '0.250000' points = '236.1,452.9 236.1,662.4 238.0,662.4 238.0,450.0 '/>
		<polygon fill = 'rgb( 31, 120, 180)' fill-opacity = '0.250000' points = '238.0,450.0 238.0,662.4 239.9,662.4 239.9,447.2 '/>
		<polygon fill = 'rgb( 31, 120, 180)' fill-opacity = '0.250000' points = '239.9,447.2 239.9,662.4 241.7,662.4 241.7,444.3 '/>
		<polygon fill = 'rgb( 31, 120, 180)' fill-opacity = '0.250000' points = '241.7,444.3 241.7,662.4 243.6,662.4 243.6,441.5 '/>
		<polygon fill = 'rgb( 31, 120, 180)' fill-opacity = '0.250000' points = '243.6,441.5 243.6,662.4 245.5,662.4 245.5,438.6 '/>
		<polygon fill = 'rgb( 31, 120, 180)' fill-opacity = '0.250000' points = '245.5,438.6 245.5,662.4 247.4,662.4 247.4,435.7 '/>
		<polygon fill = 'rgb( 31, 120, 180)' fill-opacity = '0.250000' points = '247.4,435.7 247.4,662.4 249.3,662.4 249.3,432.8 '/>
		<polygon fill = 'rgb( 31, 120, 180)' fill-opacity = '0.250000' points = '249.3,432.8 249.3,662.4 251.2,662.4 251.2,429.9 '/>
		<polygon fill = 'rgb( 31, 120, 180)' fill-opacity = '0.250000' points = '251.2,429.9 251.2,662.4 253.1,662.4 253.1,426.9 '/>
		<polygon fill = 'rgb( 31, 120, 180)' fill-opacity = '0.250000' points = '253.1,426.9 253.1,662.4 255.0,662.4 255.0,424.0 '/>
		<polygon fill = 'rgb( 31, 120, 180)' fill-opacity = '0.250000' points = '255.0,424.0 255.0,662.4 256.8,662.4 256.8,420.9 '/>
		<polygon fill = 'rgb( 31, 120, 180)' fill-opacity = '0.250000' points = '256.8,420.9 256.8,662.4 258.7,662.4 258.7,417.9 '/>
		<polygon fill = 'rgb( 31, 120, 180)' fill-opacity = '0.250000' points = '258.7,417.9 258.7,662.4 260.6,662.4 260.6,414.8 '/>
		<polygon fill = 'rgb( 31, 120, 180)' fill-opacity = '0.250000' points = '260.6,414.8 260.6,662.4 262.5,662.4 262.5,411.6 '/>
		<polygon fill = 'rgb( 31, 120, 180)' fill-opacity = '0.250000' points = '262.5,411.6 262.5,662.4 264.4,662.4 264.4,408.4 '/>
		<polygon fill = 'rgb( 31, 120, 180)' fill-opacity = '0.250000' points = '264.4,408.4 264.4,662.4 266.3,662.4 266.3,405.2 '/>
		<polygon fill = 'rgb( 31, 120, 180)' fill-opacity = '0.250000' points = '266.3,405.2 266.3,662.4 268.2,662.4 268.2,401.9 '/>
		<polygon fill = 'rgb( 31, 120, 180)' fill-opacity = '0.250000' points = '268.2,401.9 268.2,662.4 270.1,662.4 270.1,398.6 '/>
		<polygon fill = 'rgb( 31, 120, 180)' fill-opacity = '0.250000' points = '270.1,398.6 270.1,662.4 271.9,662.4 271.9,395.3 '/>
		<polygon fill = 'rgb( 31, 120, 180)' fill-opacity = '0.250000' points = '271.9,395.3 271.9,662.4 273.8,662.4 273.8,391.9 '/>
		<polygon fill = 'rgb( 31, 120, 180)' fill-opacity = '0.250000' points = '273.8,391.9 273.8,662.4 275.7,662.4 275.7,388.4 '/>
		<polygon fill = 'rgb( 31, 120, 180)' fill-opacity = '0.250000' points = '275.7,388.4 275.7,662.4 277.6,662.4 277.6,385.0 '/>
		<polygon fill = 'rgb( 31, 120, 180)' fill-opacity = '0.250000' points = '277.6,385.0 277.6,662.4 279.5,662.4 279.5,381.5 '/>
		<polygon fill = 'rgb( 31, 120, 180)' fill-opacity = '0.250000' points = '279.5,381.5 279.5,662.4 281.4,662.4 281.4,377.9 '/>
		<polygon fill = 'rgb( 31, 120, 180)' fill-opacity = '0.250000' points = '281.4,377.9 281.4,662.4 283.3,662.4 283.3,374.4 '/>
		<polygon fill = 'rgb( 31, 120, 180)' fill-opacity = '0.250000' points = '283.3,374.4 283.3,662.4 285.2,662.4 285.2,370.7 '/>
		<polygon fill = 'rgb( 31, 120, 180)' fill-opacity = '0.250000' points = '285.2,370.7 285.2,662.4 287.0,662.4 287.0,367.1 '/>
		<polygon fill = 'rgb( 31, 120, 180)' fill-opacity = '0.250000' points = '287.0,367.1 287.0,662.4 288.9,662.4 288.9,363.5 '/>
		<polygon fill = 'rgb( 31, 120, 180)' fill-opacity = '0.250000' points = '288.9,363.5 288.9,662.4 290.8,662.4 290.8,359.8 '/>
		<polygon fill = 'rgb( 31, 120, 180)' fill-opacity = '0.250000' points = '290.8,359.8 290.8,662.4 292.7,662.4 292.7,356.1 '/>
		<polygon fill = 'rgb( 31, 120, 180)' fill-opacity = '0.250000' points = '292.7,356.1 292.7,662.4 294.6,662.4 294.6,352.3 '/>
		<polygon fill = 'rgb( 31, 120, 180)' fill-opacity = '0.250000' points = '294.6,352.3 294.6,662.4 296.5,662.4 296.5,348.6 '/>
		<polygon fill = 'rgb( 31, 120, 180)' fill-opacity = '0.250000' points = '296.5,348.6 296.5,662.4 298.4,662.4 298.4,344.8 '/>
		<polygon fill = 'rgb( 31, 120, 180)' fill-opacity = '0.250000' points = '298.4,344.8 298.4,662.4 300.2,662.4 300.2,341.0 '/>
		<polygon fill = 'rgb( 31, 120, 180)' fill-opacity = '0.250000' points = '300.2,341.0 300.2,662.4 302.1,662.4 302.1,337.2 '/>
		<polygon fill = 'rgb( 31, 120, 180)' fill-opacity = '0.250000' points = '302.1,337.2 302.1,662.4 304.0,662.4 304.0,333.4 '/>
		<polygon fill = 'rgb( 31, 120, 180)' fill-opacity = '0.250000' points = '304.0,333.4 304.0,662.4 305.9,662.4 305.9,329.5 '/>
		<polygon fill = 'rgb( 31, 120, 180)' fill-opacity = '0.250000' points = '305.9,329.5 305.9,662.4 307.8,662.4 307.8,325.7 '/>
		<polygon fill = 'rgb( 31, 120, 180)' fill-opacity = '0.250000' points = '307.8,325.7 307.8,662.4 309.7,662.4 309.7,321.9 '/>
		<polygon fill = 'rgb( 31, 120, 180)' fill-opacity = '0.250000' points = '309.7,321.9 309.7,662.4 311.6,662.4 311.6,318.1 '/>
		<polygon fill = 'rgb( 31, 120, 180)' fill-opacity = '0.250000' points = '311.6,318.1 311.6,662.4 313.5,662.4 313.5,314.2 '/>
		<polygon fill = 'rgb( 31, 120, 180)' fill-opacity = '0.250000' points = '313.5,314.2 313.5,662.4 315.3,662.4 315.3,310.5 '/>
		<polygon fill = 'rgb( 31, 120, 180)' fill-opacity = '0.250000' points = '315.3,310.5 315.3,662.4 317.2,662.4 317.2,306.7 '/>
		<polygon fill = 'rgb( 31, 120, 180)' fill-opacity = '0.250000' points = '317.2,306.7 317.2,662.4 319.1,662.4 319.1,302.9 '/>
		<polygon fill = 'rgb( 31, 120, 180)' fill-opacity = '0.250000' points = '319.1,302.9 319.1,662.4 321.0,662.4 321.0,299.2 '/>
		<polygon fill = 'rgb( 31, 120, 180)' fill-opacity = '0.250000' points = '321.0,299.2 321.0,662.4 322.9,662.4 322.9,295.5 '/>
		<polygon fill = 'rgb( 31, 120, 180)' fill-opacity = '0.250000' points = '322.9,295.5 322.9,662.4 324.8,662.4 324.8,291.9 '/>
		<polygon fill = 'rgb( 31, 120, 180)' fill-opacity = '0.250000' points = '324.8,291.9 324.8,662.4 326.7,662.4 326.7,288.3 '/>
		<polygon fill = 'rgb( 31, 120, 180)' fill-opacity = '0.250000' points = '326.7,288.3 326.7,662.4 328.6,662.4 328.6,284.7 '/>
		<polygon fill = 'rgb( 31, 120, 180)' fill-opacity = '0.250000' points = '328.6,284.7 328.6,662.4 330.4,662.4 330.4,281.2 '/>
		<polygon fill = 'rgb( 31, 120, 180)' fill-opacity = '0.250000' points = '330.4,281.2 330.4,662.4 332.3,662.4 332.3,277.7 '/>
		<polygon fill = 'rgb( 31, 120, 180)' fill-opacity = '0.250000' points = '332.3,277.7 332.3,662.4 334.2,662.4 334.2,274.2 '/>
		<polygon fill = 'rgb( 31, 120, 180)' fill-opacity = '0.250000' points = '334.2,274.2 334.2,662.4 336.1,662.4 336.1,270.8 '/>
		<polygon fill = 'rgb( 31, 120, 180)' fill-opacity = '0.250000' points = '336.1,270.8 336.1,662.4 338.0,662.4 338.0,267.4 '/>
		<polygon fill = 'rgb( 31, 120, 180)' fill-opacity = '0.250000' points = '338.0,267.4 338.0,662.4 339.9,662.4 339.9,264.1 '/>
		<polygon fill = 'rgb( 31, 120, 180)' fill-opacity = '0.250000' points = '339.9,264.1 339.9,662.4 341.8,662.4 341.8,260.8 '/>
		<polygon fill = 'rgb( 31, 120, 180)' fill-opacity = '0.250000' points = '341.8,260.8 341.8,662.4 343.7,662.4 343.7,257.5 '/>
		<polygon fill = 'rgb( 31, 120, 180)' fill-opacity = '0.250000' points = '343.7,257.5 343.7,662.4 345.5,662.4 345.5,254.2 '/>
		<polygon fill = 'rgb( 31, 120, 180)' fill-opacity = '0.250000' points = '345.5,254.2 345.5,662.4 347.4,662.4 347.4,251.0 '/>
		<polygon fill = 'rgb( 31, 120, 180)' fill-opacity = '0.250000' points = '347.4,251.0 347.4,662.4 349.3,662.4 349.3,247.8 '/>
		<polygon fill = 'rgb( 31, 120, 180)' fill-opacity = '0.250000' points = '349.3,247.8 349.3,662.4 351.2,662.4 351.2,244.7 '/>
		<polygon fill = 'rgb( 31, 120, 180)' fill-opacity = '0.250000' points = '351.2,244.7 351.2,662.4 353.1,662.4 353.1,241.5 '/>
		<polygon fill = 'rgb( 31, 120, 180)' fill-opacity = '0.250000' points = '353.1,241.5 353.1,662.4 355.0,662.4 355.0,238.4 '/>
		<polygon fill = 'rgb( 31, 120, 180)' fill-opacity = '0.250000' points = '355.0,238.4 355.0,662.4 356.9,662.4 356.9,235.3 '/>
		<polygon fill = 'rgb( 31, 120, 180)' fill-opacity = '0.250000' points = '356.9,235.3 356.9,662.4 358.8,662.4 358.8,232.3 '/>
		<polygon fill = 'rgb( 31, 120, 180)' fill-opacity = '0.250000' points = '358.8,232.3 358.8,662.4 360.6,662.4 360.6,229.2 '/>
		<polygon fill = 'rgb( 31, 120, 180)' fill-opacity = '0.250000' points = '360.6,229.2 360.6,662.4 362.5,662.4 362.5,226.2 '/>
		<polygon fill = 'rgb( 31, 120, 180)' fill-opacity = '0.250000' points = '362.5,226.2 362.5,662.4 364.4,662.4 364.4,223.1 '/>
		<polygon fill = 'rgb( 31, 120, 180)' fill-opacity = '0.250000' points = '364.4,223.1 364.4,662.4 366.3,662.4 366.3,220.1 '/>
		<polygon fill = 'rgb( 31, 120, 180)' fill-opacity = '0.250000' points = '366.3,220.1 366.3,662.4 368.2,662.4 368.2,217.1 '/>
		<polygon fill = 'rgb( 31, 120, 180)' fill-opacity = '0.250000' points = '368.2,217.1 368.2,662.4 370.1,662.4 370.1,214.1 '/>
		<polygon fill = 'rgb( 31, 120, 180)' fill-opacity = '0.250000' points = '370.1,214.1 370.1,662.4 372.0,662.4 372.0,211.1 '/>
		<polygon fill = 'rgb( 31, 120, 180)' fill-opacity = '0.250000' points = '372.0,211.1 372.0,662.4 373.8,662.4 373.8,208.1 '/>
		<polygon fill = 'rgb( 31, 120, 180)' fill-opacity = '0.250000' points = '373.8,208.1 373.8,662.4 375.7,662.4 375.7,205.1 '/>
		<polygon fill = 'rgb( 31, 120, 180)' fill-opacity = '0.250000' points = '375.7,205.1 375.7,662.4 377.6,662.4 377.6,202.0 '/>
		<polygon fill = 'rgb( 31, 120, 180)' fill-opacity = '0.250000' points = '377.6,202.0 377.6,662.4 379.5,662.4 379.5,199.0 '/>
		<polygon fill = 'rgb( 31, 120, 180)' fill-opacity = '0.250000' points = '379.5,199.0 379.5,662.4 381.4,662.4 381.4,196.0 '/>
		<polygon fill = 'rgb( 31, 120, 180)' fill-opacity = '0.250000' points = '381.4,196.0 381.4,662.4 383.3,662.4 383.3,192.9 '/>
		<polygon fill = 'rgb( 31, 120, 180)' fill-opacity = '0.250000' points = '383.3,192.9 383.3,662.4 385.2,662.4 385.2,189.9 '/>
		<polygon fill = 'rgb( 31, 120, 180)' fill-opacity = '0.250000' points = '385.2,189.9 385.2,662.4 387.1,662.4 387.1,186.8 '/>
		<polygon fill = 'rgb( 31, 120, 180)' fill-opacity = '0.250000' points = '387.1,186.8 387.1,662.4 388.9,662.4 388.9,183.8 '/>
		<polygon fill = 'rgb( 31, 120, 180)' fill-opacity = '0.250000' points = '388.9,183.8 388.9,662.4 390.8,662.4 390.8,180.8 '/>
		<polygon fill = 'rgb( 31, 120, 180)' fill-opacity = '0.250000' points = '390.8,180.8 390.8,662.4 392.7,662.4 392.7,177.8 '/>
		<polygon fill = 'rgb( 31, 120, 180)' fill-opacity = '0.250000' points = '392.7,177.8 392.7,662.4 394.6,662.4 394.6,174.8 '/>
		<polygon fill = 'rgb( 31, 120, 180)' fill-opacity = '0.250000' points = '394.6,174.8 394.6,662.4 396.5,662.4 396.5,171.8 '/>
		<polygon fill = 'rgb( 31, 120, 180)' fill-opacity = '0.250000' points = '396.5,171.8 396.5,662.4 398.4,662.4 398.4,168.9 '/>
		<polygon fill = 'rgb( 31, 120, 180)' fill-opacity = '0.250000' points = '398.4,168.9 398.4,662.4 400.3,662.4 400.3,166.0 '/>
		<polygon fill = 'rgb( 31, 120, 180)' fill-opacity = '0.250000' points = '400.3,166.0 400.3,662.4 402.2,662.4 402.2,163.2 '/>
		<polygon fill = 'rgb( 31, 120, 180)' fill-opacity = '0.250000' points = '402.2,163.2 402.2,662.4 404.0,662.4 404.0,160.4 '/>
		<polygon fill = 'rgb( 31, 120, 180)' fill-opacity = '0.250000' points = '404.0,160.4 404.0,662.4 405.9,662.4 405.9,157.7 '/>
		<polygon fill = 'rgb( 31, 120, 180)' fill-opacity = '0.250000' points = '405.9,157.7 405.9,662.4 407.8,662.4 407.8,155.0 '/>
		<polygon fill = 'rgb( 31, 120, 180)' fill-opacity = '0.250000' points = '407.8,155.0 407.8,662.4 409.7,662.4 409.7,152.5 '/>
		<polygon fill = 'rgb( 31, 120, 180)' fill-opacity = '0.250000' points = '409.7,152.5 409.7,662.4 411.6,662.4 411.6,150.0 '/>
		<polygon fill = 'rgb( 31, 120, 180)' fill-opacity = '0.250000' points = '411.6,150.0 411.6,662.4 413.5,662.4 413.5,147.5 '/>
		<polygon fill = 'rgb( 31, 120, 180)' fill-opacity = '0.250000' points = '413.5,147.5 413.5,662.4 415.4,662.4 415.4,145.2 '/>
		<polygon fill = 'rgb( 31, 120, 180)' fill-opacity = '0.250000' points = '415.4,145.2 415.4,662.4 417.3,662.4 417.3,142.9 '/>
		<polygon fill = 'rgb( 31, 120, 180)' fill-opacity = '0.250000' points = '417.3,142.9 417.3,662.4 419.1,662.4 419.1,140.6 '/>
		<polygon fill = 'rgb( 31, 120, 180)' fill-opacity = '0.250000' points = '419.1,140.6 419.1,662.4 421.0,662.4 421.0,138.4 '/>
		<polygon fill = 'rgb( 31, 120, 180)' fill-opacity = '0.250000' points = '421.0,138.4 421.0,662.4 422.9,662.4 422.9,136.3 '/>
		<polygon fill = 'rgb( 31, 120, 180)' fill-opacity = '0.250000' points = '422.9,136.3 422.9,662.4 424.8,662.4 424.8,134.2 '/>
		<polygon fill = 'rgb( 31, 120, 180)' fill-opacity = '0.250000' points = '424.8,134.2 424.8,662.4 426.7,662.4 426.7,132.1 '/>
		<polygon fill = 'rgb( 31, 120, 180)' fill-opacity = '0.250000' points = '426.7,132.1 426.7,662.4 428.6,662.4 428.6,130.1 '/>
		<polygon fill = 'rgb( 31, 120, 180)' fill-opacity = '0.250000' points = '428.6,130.1 428.6,662.4 430.5,662.4 430.5,128.1 '/>
		<polygon fill = 'rgb( 31, 120, 180)' fill-opacity = '0.250000' points = '430.5,128.1 430.5,662.4 432.4,662.4 432.4,126.1 '/>
		<polygon fill = 'rgb( 31, 120, 180)' fill-opacity = '0.250000' points = '432.4,126.1 432.4,662.4 434.2,662.4 434.2,124.1 '/>
		<polygon fill = 'rgb( 31, 120, 180)' fill-opacity = '0.250000' points = '434.2,124.1 434.2,662.4 436.1,662.4 436.1,122.1 '/>
		<polygon fill = 'rgb( 31, 120, 180)' fill-opacity = '0.250000' points = '436.1,122.1 436.1,662.4 438.0,662.4 438.0,120.1 '/>
		<polygon fill = 'rgb( 31, 120, 180)' fill-opacity = '0.250000' points = '438.0,120.1 438.0,662.4 439.9,662.4 439.9,118.2 '/>
		<polygon fill = 'rgb( 31, 120, 180)' fill-opacity = '0.250000' points = '439.9,118.2 439.9,662.4 441.8,662.4 441.8,116.2 '/>
		<polygon fill = 'rgb( 31, 120, 180)' fill-opacity = '0.250000' points = '441.8,116.2 441.8,662.4 443.7,662.4 443.7,114.2 '/>
		<polygon fill = 'rgb( 31, 120, 180)' fill-opacity = '0.250000' points = '443.7,114.2 443.7,662.4 445.6,662.4 445.6,112.3 '/>
		<polygon fill = 'rgb( 31, 120, 180)' fill-opacity = '0.250000' points = '445.6,112.3 445.6,662.4 447.4,662.4 447.4,110.4 '/>
		<polygon fill = 'rgb( 31, 120, 180)' fill-opacity = '0.250000' points = '447.4,110.4 447.4,662.4 449.3,662.4 449.3,108.5 '/>
		<polygon fill = 'rgb( 31, 120, 180)' fill-opacity = '0.250000' points = '449.3,108.5 449.3,662.4 451.2,662.4 451.2,106.6 '/>
		<polygon fill = 'rgb( 31, 120, 180)' fill-opacity = '0.250000' points = '451.2,106.6 451.2,662.4 453.1,662.4 453.1,104.7 '/>
		<polygon fill = 'rgb( 31, 120, 180)' fill-opacity = '0.250000' points = '453.1,104.7 453.1,662.4 455.0,662.4 455.0,102.9 '/>
		<polygon fill = 'rgb( 31, 120, 180)' fill-opacity = '0.250000' points = '455.0,102.9 455.0,662.4 456.9,662.4 456.9,101.1 '/>
		<polygon fill = 'rgb( 31, 120, 180)' fill-opacity = '0.250000' points = '456.9,101.1 456.9,662.4 458.8,662.4 458.8,99.4 '/>
		<polygon fill = 'rgb( 31, 120, 180)' fill-opacity = '0.250000' points = '458.8,99.4 458.8,662.4 460.7,662.4 460.7,97.7 '/>
		<polygon fill = 'rgb( 31, 120, 180)' fill-opacity = '0.250000' points = '460.7,97.7 460.7,662.4 462.5,662.4 462.5,96.0 '/>
		<polygon fill = 'rgb( 31, 120, 180)' fill-opacity = '0.250000' points = '462.5,96.0 462.5,662.4 464.4,662.4 464.4,94.4 '/>
		<polygon fill = 'rgb( 31, 120, 180)' fill-opacity = '0.250000' points = '464.4,94.4 464.4,662.4 466.3,662.4 466.3,92.9 '/>
		<polygon fill = 'rgb( 31, 120, 180)' fill-opacity = '0.250000' points = '466.3,92.9 466.3,662.4 468.2,662.4 468.2,91.4 '/>
		<polygon fill = 'rgb( 31, 120, 180)' fill-opacity = '0.250000' points = '468.2,91.4 468.2,662.4 470.1,662.4 470.1,90.0 '/>
		<polygon fill = 'rgb( 31, 120, 180)' fill-opacity = '0.250000' points = '470.1,90.0 470.1,662.4 472.0,662.4 472.0,88.6 '/>
		<polygon fill = 'rgb( 31, 120, 180)' fill-opacity = '0.250000' points = '472.0,88.6 472.0,662.4 473.9,662.4 473.9,87.2 '/>
		<polygon fill = 'rgb( 31, 120, 180)' fill-opacity = '0.250000' points = '473.9,87.2 473.9,662.4 475.8,662.4 475.8,85.9 '/>
		<polygon fill = 'rgb( 31, 120, 180)' fill-opacity = '0.250000' points = '475.8,85.9 475.8,662.4 477.6,662.4 477.6,84.7 '/>
		<polygon fill = 'rgb( 31, 120, 180)' fill-opacity = '0.250000' points = '477.6,84.7 477.6,662.4 479.5,662.4 479.5,83.5 '/>
		<polygon fill = 'rgb( 31, 120, 180)' fill-opacity = '0.250000' points = '479.5,83.5 479.5,662.4 481.4,662.4 481.4,82.3 '/>
		<polygon fill = 'rgb( 31, 120, 180)' fill-opacity = '0.250000' points = '481.4,82.3 481.4,662.4 483.3,662.4 483.3,81.2 '/>
		<polygon fill = 'rgb( 31, 120, 180)' fill-opacity = '0.250000' points = '483.3,81.2 483.3,662.4 485.2,662.4 485.2,80.1 '/>
		<polygon fill = 'rgb( 31, 120, 180)' fill-opacity = '0.250000' points = '485.2,80.1 485.2,662.4 487.1,662.4 487.1,79.1 '/>
		<polygon fill = 'rgb( 31, 120, 180)' fill-opacity = '0.250000' points = '487.1,79.1 487.1,662.4 489.0,662.4 489.0,78.1 '/>
		<polygon fill = 'rgb( 31, 120, 180)' fill-opacity = '0.250000' points = '489.0,78.1 489.0,662.4 490.9,662.4 490.9,77.2 '/>
		<polygon fill = 'rgb( 31, 120, 180)' fill-opacity = '0.250000' points = '490.9,77.2 490.9,662.4 492.7,662.4 492.7,76.3 '/>
		<polygon fill = 'rgb( 31, 120, 180)' fill-opacity = '0.250000' points = '492.7,76.3 492.7,662.4 494.6,662.4 494.6,75.5 '/>
		<polygon fill = 'rgb( 31, 120, 180)' fill-opacity = '0.250000' points = '494.6,75.5 494.6,662.4 496.5,662.4 496.5,74.8 '/>
		<polygon fill = 'rgb( 31, 120, 180)' fill-opacity = '0.250000' points = '496.5,74.8 496.5,662.4 498.4,662.4 498.4,74.2 '/>
		<polygon fill = 'rgb( 31, 120, 180)' fill-opacity = '0.250000' points = '498.4,74.2 498.4,662.4 500.3,662.4 500.3,73.7 '/>
		<polygon fill = 'rgb( 31, 120, 180)' fill-opacity = '0.250000' points = '500.3,73.7 500.3,662.4 502.2,662.4 502.2,73.3 '/>
		<polygon fill = 'rgb( 31, 120, 180)' fill-opacity = '0.250000' points = '502.2,73.3 502.2,662.4 504.1,662.4 504.1,73.0 '/>
		<polygon fill = 'rgb( 31, 120, 180)' fill-opacity = '0.250000' points = '504.1,73.0 504.1,662.4 506.0,662.4 506.0,72.8 '/>
		<polygon fill = 'rgb( 31, 120, 180)' fill-opacity = '0.250000' points = '506.0,72.8 506.0,662.4 507.8,662.4 507.8,72.8 '/>
		<polygon fill = 'rgb( 31, 120, 180)' fill-opacity = '0.250000' points = '507.8,72.8 507.8,662.4 509.7,662.4 509.7,72.8 '/>
		<polygon fill = 'rgb( 31, 120, 180)' fill-opacity = '0.250000' points = '509.7,72.8 509.7,662.4 511.6,662.4 511.6,73.0 '/>
		<polygon fill = 'rgb( 31, 120, 180)' fill-opacity = '0.250000' points = '511.6,73.0 511.6,662.4 513.5,662.4 513.5,73.3 '/>
		<polygon fill = 'rgb( 31, 120, 180)' fill-opacity = '0.250000' points = '513.5,73.3 513.5,662.4 515.4,662.4 515.4,73.7 '/>
		<polygon fill = 'rgb( 31, 120, 180)' fill-opacity = '0.250000' points = '515.4,73.7 515.4,662.4 517.3,662.4 517.3,74.2 '/>
		<polygon fill = 'rgb( 31, 120, 180)' fill-opacity = '0.250000' points = '517.3,74.2 517.3,662.4 519.2,662.4 519.2,74.8 '/>
		<polygon fill = 'rgb( 31, 120, 180)' fill-opacity = '0.250000' points = '519.2,74.8 519.2,662.4 521.0,662.4 521.0,75.5 '/>
		<polygon fill = 'rgb( 31, 120, 180)' fill-opacity = '0.250000' points = '521.0,75.5 521.0,662.4 522.9,662.4 522.9,76.3 '/>
		<polygon fill = 'rgb( 31, 120, 180)' fill-opacity = '0.250000' points = '522.9,76.3 522.9,662.4 524.8,662.4 524.8,77.1 '/>
		<polygon fill = 'rgb( 31, 120, 180)' fill-opacity = '0.250000' points = '524.8,77.1 524.8,662.4 526.7,662.4 526.7,78.0 '/>
		<polygon fill = 'rgb( 31, 120, 180)' fill-opacity = '0.250000' points = '526.7,78.0 526.7,662.4 528.6,662.4 528.6,79.0 '/>
		<polygon fill = 'rgb( 31, 120, 180)' fill-opacity = '0.250000' points = '528.6,79.0 528.6,662.4 530.5,662.4 530.5,80.0 '/>
		<polygon fill = 'rgb( 31, 120, 180)' fill-opacity = '0.250000' points = '530.5,80.0 530.5,662.4 532.4,662.4 532.4,81.1 '/>
		<polygon fill = 'rgb( 31, 120, 180)' fill-opacity = '0.250000' points = '532.4,81.1 532.4,662.4 534.3,662.4 534.3,82.1 '/>
		<polygon fill = 'rgb( 31, 120, 180)' fill-opacity = '0.250000' points = '534.3,82.1 534.3,662.4 536.1,662.4 536.1,83.2 '/>
		<polygon fill = 'rgb( 31, 120, 180)' fill-opacity = '0.250000' points = '536.1,83.2 536.1,662.4 538.0,662.4 538.0,84.4 '/>
		<polygon fill = 'rgb( 31, 120, 180)' fill-opacity = '0.250000' points = '538.0,84.4 538.0,662.4 539.9,662.4 539.9,85.6 '/>
		<polygon fill = 'rgb( 31, 120, 180)' fill-opacity = '0.250000' points = '539.9,85.6 539.9,662.4 541.8,662.4 541.8,86.8 '/>
		<polygon fill = 'rgb( 31, 120, 180)' fill-opacity = '0.250000' points = '541.8,86.8 541.8,662.4 543.7,662.4 543.7,88.0 '/>
		<polygon fill = 'rgb( 31, 120, 180)' fill-opacity = '0.250000' points = '543.7,88.0 543.7,662.4 545.6,662.4 545.6,89.3 '/>
		<polygon fill = 'rgb( 31, 120, 180)' fill-opacity = '0.250000' points = '545.6,89.3 545.6,662.4 547.5,662.4 547.5,90.6 '/>
		<polygon fill = 'rgb( 31, 120, 180)' fill-opacity = '0.250000' points = '547.5,90.6 547.5,662.4 549.4,662.4 549.4,91.9 '/>
		<polygon fill = 'rgb( 31, 120, 180)' fill-opacity = '0.250000' points = '549.4,91.9 549.4,662.4 551.2,662.4 551.2,93.3 '/>
		<polygon fill = 'rgb( 31, 120, 180)' fill-opacity = '0.250000' points = '551.2,93.3 551.2,662.4 553.1,662.4 553.1,94.7 '/>
		<polygon fill = 'rgb( 31, 120, 180)' fill-opacity = '0.250000' points = '553.1,94.7 553.1,662.4 555.0,662.4 555.0,96.2 '/>
		<polygon fill = 'rgb( 31, 120, 180)' fill-opacity = '0.250000' points = '555.0,96.2 555.0,662.4 556.9,662.4 556.9,97.8 '/>
		<polygon fill = 'rgb( 31, 120, 180)' fill-opacity = '0.250000' points = '556.9,97.8 556.9,662.4 558.8,662.4 558.8,99.4 '/>
		<polygon fill = 'rgb( 31, 120, 180)' fill-opacity = '0.250000' points = '558.8,99.4 558.8,662.4 560.7,662.4 560.7,101.1 '/>
		<polygon fill = 'rgb( 31, 120, 180)' fill-opacity = '0.250000' points = '560.7,101.1 560.7,662.4 562.6,662.4 562.6,102.9 '/>
		<polygon fill = 'rgb( 31, 120, 180)' fill-opacity = '0.250000' points = '562.6,102.9 562.6,662.4 564.5,662.4 564.5,104.7 '/>
		<polygon fill = 'rgb( 31, 120, 180)' fill-opacity = '0.250000' points = '564.5,104.7 564.5,662.4 566.3,662.4 566.3,106.5 '/>
		<polygon fill = 'rgb( 31, 120, 180)' fill-opacity = '0.250000' points = '566.3,106.5 566.3,662.4 568.2,662.4 568.2,108.4 '/>
		<polygon fill = 'rgb( 31, 120, 180)' fill-opacity = '0.250000' points = '568.2,108.4 568.2,662.4 570.1,662.4 570.1,110.4 '/>
		<polygon fill = 'rgb( 31, 120, 180)' fill-opacity = '0.250000' points = '570.1,110.4 570.1,662.4 572.0,662.4 572.0,112.4 '/>
		<polygon fill = 'rgb( 31, 120, 180)' fill-opacity = '0.250000' points = '572.0,112.4 572.0,662.4 573.9,662.4 573.9,114.4 '/>
		<polygon fill = 'rgb( 31, 120, 180)' fill-opacity = '0.250000' points = '573.9,114.4 573.9,662.4 575.8,662.4 575.8,116.4 '/>
		<polygon fill = 'rgb( 31, 120, 180)' fill-opacity = '0.250000' points = '575.8,116.4 575.8,662.4 577.7,662.4 577.7,118.5 '/>
		<polygon fill = 'rgb( 31, 120, 180)' fill-opacity = '0.250000' points = '577.7,118.5 577.7,662.4 579.5,662.4 579.5,120.6 '/>
		<polygon fill = 'rgb( 31, 120, 180)' fill-opacity = '0.250000' points = '579.5,120.6 579.5,662.4 581.4,662.4 581.4,122.7 '/>
		<polygon fill = 'rgb( 31, 120, 180)' fill-opacity = '0.250000' points = '581.4,122.7 581.4,662.4 583.3,662.4 583.3,124.8 '/>
		<polygon fill = 'rgb( 31, 120, 180)' fill-opacity = '0.250000' points = '583.3,124.8 583.3,662.4 585.2,662.4 585.2,126.9 '/>
		<polygon fill = 'rgb( 31, 120, 180)' fill-opacity = '0.250000' points = '585.2,126.9 585.2,662.4 587.1,662.4 587.1,129.0 '/>
		<polygon fill = 'rgb( 31, 120, 180)' fill-opacity = '0.250000' points = '587.1,129.0 587.1,662.4 589.0,662.4 589.0,131.1 '/>
		<polygon fill = 'rgb( 31, 120, 180)' fill-opacity = '0.250000' points = '589.0,131.1 589.0,662.4 590.9,662.4 590.9,133.2 '/>
		<polygon fill = 'rgb( 31, 120, 180)' fill-opacity = '0.250000' points = '590.9,133.2 590.9,662.4 592.8,662.4 592.8,135.3 '/>
		<polygon fill = 'rgb( 31, 120, 180)' fill-opacity = '0.250000' points = '592.8,135.3 592.8,662.4 594.6,662.4 594.6,137.4 '/>
		<polygon fill = 'rgb( 31, 120, 180)' fill-opacity = '0.250000' points = '594.6,137.4 594.6,662.4 596.5,662.4 596.5,139.5 '/>
		<polygon fill = 'rgb( 31, 120, 180)' fill-opacity = '0.250000' points = '596.5,139.5 596.5,662.4 598.4,662.4 598.4,141.6 '/>
		<polygon fill = 'rgb( 31, 120, 180)' fill-opacity = '0.250000' points = '598.4,141.6 598.4,662.4 600.3,662.4 600.3,143.7 '/>
		<polygon fill = 'rgb( 31, 120, 180)' fill-opacity = '0.250000' points = '600.3,143.7 600.3,662.4 602.2,662.4 602.2,145.9 '/>
		<polygon fill = 'rgb( 31, 120, 180)' fill-opacity = '0.250000' points = '602.2,145.9 602.2,662.4 604.1,662.4 604.1,148.0 '/>
		<polygon fill = 'rgb( 31, 120, 180)' fill-opacity = '0.250000' points = '604.1,148.0 604.1,662.4 606.0,662.4 606.0,150.2 '/>
		<polygon fill = 'rgb( 31, 120, 180)' fill-opacity = '0.250000' points = '606.0,150.2 606.0,662.4 607.9,662.4 607.9,152.4 '/>
		<polygon fill = 'rgb( 31, 120, 180)' fill-opacity = '0.250000' points = '607.9,152.4 607.9,662.4 609.7,662.4 609.7,154.6 '/>
		<polygon fill = 'rgb( 31, 120, 180)' fill-opacity = '0.250000' points = '609.7,154.6 609.7,662.4 611.6,662.4 611.6,156.9 '/>
		<polygon fill = 'rgb( 31, 120, 180)' fill-opacity = '0.250000' points = '611.6,156.9 611.6,662.4 613.5,662.4 613.5,159.3 '/>
		<polygon fill = 'rgb( 31, 120, 180)' fill-opacity = '0.250000' points = '613.5,159.3 613.5,662.4 615.4,662.4 615.4,161.6 '/>
		<polygon fill = 'rgb( 31, 120, 180)' fill-opacity = '0.250000' points = '615.4,161.6 615.4,662.4 617.3,662.4 617.3,164.0 '/>
		<polygon fill = 'rgb( 31, 120, 180)' fill-opacity = '0.250000' points = '617.3,164.0 617.3,662.4 619.2,662.4 619.2,166.5 '/>
		<polygon fill = 'rgb( 31, 120, 180)' fill-opacity = '0.250000' points = '619.2,166.5 619.2,662.4 621.1,662.4 621.1,169.0 '/>
		<polygon fill = 'rgb( 31, 120, 180)' fill-opacity = '0.250000' points = '621.1,169.0 621.1,662.4 623.0,662.4 623.0,171.6 '/>
		<polygon fill = 'rgb( 31, 120, 180)' fill-opacity = '0.250000' points = '623.0,171.6 623.0,662.4 624.8,662.4 624.8,174.2 '/>
		<polygon fill = 'rgb( 31, 120, 180)' fill-opacity = '0.250000' points = '624.8,174.2 624.8,662.4 626.7,662.4 626.7,176.8 '/>
		<polygon fill = 'rgb( 31, 120, 180)' fill-opacity = '0.250000' points = '626.7,176.8 626.7,662.4 628.6,662.4 628.6,179.6 '/>
		<polygon fill = 'rgb( 31, 120, 180)' fill-opacity = '0.250000' points = '628.6,179.6 628.6,662.4 630.5,662.4 630.5,182.3 '/>
		<polygon fill = 'rgb( 31, 120, 180)' fill-opacity = '0.250000' points = '630.5,182.3 630.5,662.4 632.4,662.4 632.4,185.1 '/>
		<polygon fill = 'rgb( 31, 120, 180)' fill-opacity = '0.250000' points = '632.4,185.1 632.4,662.4 634.3,662.4 634.3,188.0 '/>
		<polygon fill = 'rgb( 31, 120, 180)' fill-opacity = '0.250000' points = '634.3,188.0 634.3,662.4 636.2,662.4 636.2,190.8 '/>
		<polygon fill = 'rgb( 31, 120, 180)' fill-opacity = '0.250000' points = '636.2,190.8 636.2,662.4 638.1,662.4 638.1,193.8 '/>
		<polygon fill = 'rgb( 31, 120, 180)' fill-opacity = '0.250000' points = '638.1,193.8 638.1,662.4 639.9,662.4 639.9,196.8 '/>
		<polygon fill = 'rgb( 31, 120, 180)' fill-opacity = '0.250000' points = '639.9,196.8 639.9,662.4 641.8,662.4 641.8,199.8 '/>
		<polygon fill = 'rgb( 31, 120, 180)' fill-opacity = '0.250000' points = '641.8,199.8 641.8,662.4 643.7,662.4 643.7,202.8 '/>
		<polygon fill = 'rgb( 31, 120, 180)' fill-opacity = '0.250000' points = '643.7,202.8 643.7,662.4 645.6,662.4 645.6,205.9 '/>
		<polygon fill = 'rgb( 31, 120, 180)' fill-opacity = '0.250000' points = '645.6,205.9 645.6,662.4 647.5,662.4 647.5,209.0 '/>
		<polygon fill = 'rgb( 31, 120, 180)' fill-opacity = '0.250000' points = '647.5,209.0 647.5,662.4 649.4,662.4 649.4,212.1 '/>
		<polygon fill = 'rgb( 31, 120, 180)' fill-opacity = '0.250000' points = '649.4,212.1 649.4,662.4 651.3,662.4 651.3,215.3 '/>
		<polygon fill = 'rgb( 31, 120, 180)' fill-opacity = '0.250000' points = '651.3,215.3 651.3,662.4 653.1,662.4 653.1,218.5 '/>
		<polygon fill = 'rgb( 31, 120, 180)' fill-opacity = '0.250000' points = '653.1,218.5 653.1,662.4 655.0,662.4 655.0,221.7 '/>
		<polygon fill = 'rgb( 31, 120, 180)' fill-opacity = '0.250000' points = '655.0,221.7 655.0,662.4 656.9,662.4 656.9,225.0 '/>
		<polygon fill = 'rgb( 31, 120, 180)' fill-opacity = '0.250000' points = '656.9,225.0 656.9,662.4 658.8,662.4 658.8,228.3 '/>
		<polygon fill = 'rgb( 31, 120, 180)' fill-opacity = '0.250000' points = '658.8,228.3 658.8,662.4 660.7,662.4 660.7,231.5 '/>
		<polygon fill = 'rgb( 31, 120, 180)' fill-opacity = '0.250000' points = '660.7,231.5 660.7,662.4 662.6,662.4 662.6,234.8 '/>
		<polygon fill = 'rgb( 31, 120, 180)' fill-opacity = '0.250000' points = '662.6,234.8 662.6,662.4 664.5,662.4 664.5,238.2 '/>
		<polygon fill = 'rgb( 31, 120, 180)' fill-opacity = '0.250000' points = '664.5,238.2 664.5,662.4 666.4,662.4 666.4,241.5 '/>
		<polygon fill = 'rgb( 31, 120, 180)' fill-opacity = '0.250000' points = '666.4,241.5 666.4,662.4 668.2,662.4 668.2,244.8 '/>
		<polygon fill = 'rgb( 31, 120, 180)' fill-opacity = '0.250000' points = '668.2,244.8 668.2,662.4 670.1,662.4 670.1,248.2 '/>
		<polygon fill = 'rgb( 31, 120, 180)' fill-opacity = '0.250000' points = '670.1,248.2 670.1,662.4 672.0,662.4 672.0,251.5 '/>
		<polygon fill = 'rgb( 31, 120, 180)' fill-opacity = '0.250000' points = '672.0,251.5 672.0,662.4 673.9,662.4 673.9,254.9 '/>
		<polygon fill = 'rgb( 31, 120, 180)' fill-opacity = '0.250000' points = '673.9,254.9 673.9,662.4 675.8,662.4 675.8,258.2 '/>
		<polygon fill = 'rgb( 31, 120, 180)' fill-opacity = '0.250000' points = '675.8,258.2 675.8,662.4 677.7,662.4 677.7,261.6 '/>
		<polygon fill = 'rgb( 31, 120, 180)' fill-opacity = '0.250000' points = '677.7,261.6 677.7,662.4 679.6,662.4 679.6,264.9 '/>
		<polygon fill = 'rgb( 31, 120, 180)' fill-opacity = '0.250000' points = '679.6,264.9 679.6,662.4 681.5,662.4 681.5,268.3 '/>
		<polygon fill = 'rgb( 31, 120, 180)' fill-opacity = '0.250000' points = '681.5,268.3 681.5,662.4 683.3,662.4 683.3,271.6 '/>
		<polygon fill = 'rgb( 31, 120, 180)' fill-opacity = '0.250000' points = '683.3,271.6 683.3,662.4 685.2,662.4 685.2,275.0 '/>
		<polygon fill = 'rgb( 31, 120, 180)' fill-opacity = '0.250000' points = '685.2,275.0 685.2,662.4 687.1,662.4 687.1,278.4 '/>
		<polygon fill = 'rgb( 31, 120, 180)' fill-opacity = '0.250000' points = '687.1,278.4 687.1,662.4 689.0,662.4 689.0,281.7 '/>
		<polygon fill = 'rgb( 31, 120, 180)' fill-opacity = '0.250000' points = '689.0,281.7 689.0,662.4 690.9,662.4 690.9,285.1 '/>
		<polygon fill = 'rgb( 31, 120, 180)' fill-opacity = '0.250000' points = '690.9,285.1 690.9,662.4 692.8,662.4 692.8,288.4 '/>
		<polygon fill = 'rgb( 31, 120, 180)' fill-opacity = '0.250000' points = '692.8,288.4 692.8,662.4 694.7,662.4 694.7,291.8 '/>
		<polygon fill = 'rgb( 31, 120, 180)' fill-opacity = '0.250000' points = '694.7,291.8 694.7,662.4 696.6,662.4 696.6,295.1 '/>
		<polygon fill = 'rgb( 31, 120, 180)' fill-opacity = '0.250000' points = '696.6,295.1 696.6,662.4 698.4,662.4 698.4,298.4 '/>
		<polygon fill = 'rgb( 31, 120, 180)' fill-opacity = '0.250000' points = '698.4,298.4 698.4,662.4 700.3,662.4 700.3,301.8 '/>
		<polygon fill = 'rgb( 31, 120, 180)' fill-opacity = '0.250000' points = '700.3,301.8 700.3,662.4 702.2,662.4 702.2,305.1 '/>
		<polygon fill = 'rgb( 31, 120, 180)' fill-opacity = '0.250000' points = '702.2,305.1 702.2,662.4 704.1,662.4 704.1,308.4 '/>
		<polygon fill = 'rgb( 31, 120, 180)' fill-opacity = '0.250000' points = '704.1,308.4 704.1,662.4 706.0,662.4 706.0,311.7 '/>
		<polygon fill = 'rgb( 31, 120, 180)' fill-opacity = '0.250000' points = '706.0,311.7 706.0,662.4 707.9,662.4 707.9,315.0 '/>
		<polygon fill = 'rgb( 31, 120, 180)' fill-opacity = '0.250000' points = '707.9,315.0 707.9,662.4 709.8,662.4 709.8,318.3 '/>
		<polygon fill = 'rgb( 31, 120, 180)' fill-opacity = '0.250000' points = '709.8,318.3 709.8,662.4 711.7,662.4 711.7,321.5 '/>
		<polygon fill = 'rgb( 31, 120, 180)' fill-opacity = '0.250000' points = '711.7,321.5 711.7,662.4 713.5,662.4 713.5,324.7 '/>
		<polygon fill = 'rgb( 31, 120, 180)' fill-opacity = '0.250000' points = '713.5,324.7 713.5,662.4 715.4,662.4 715.4,327.9 '/>
		<polygon fill = 'rgb( 31, 120, 180)' fill-opacity = '0.250000' points = '715.4,327.9 715.4,662.4 717.3,662.4 717.3,331.1 '/>
		<polygon fill = 'rgb( 31, 120, 180)' fill-opacity = '0.250000' points = '717.3,331.1 717.3,662.4 719.2,662.4 719.2,334.3 '/>
		<polygon fill = 'rgb( 31, 120, 180)' fill-opacity = '0.250000' points = '719.2,334.3 719.2,662.4 721.1,662.4 721.1,337.4 '/>
		<polygon fill = 'rgb( 31, 120, 180)' fill-opacity = '0.250000' points = '721.1,337.4 721.1,662.4 723.0,662.4 723.0,340.5 '/>
		<polygon fill = 'rgb( 31, 120, 180)' fill-opacity = '0.250000' points = '723.0,340.5 723.0,662.4 724.9,662.4 724.9,343.5 '/>
		<polygon fill = 'rgb( 31, 120, 180)' fill-opacity = '0.250000' points = '724.9,343.5 724.9,662.4 726.7,662.4 726.7,346.5 '/>
		<polygon fill = 'rgb( 31, 120, 180)' fill-opacity = '0.250000' points = '726.7,346.5 726.7,662.4 728.6,662.4 728.6,349.5 '/>
		<polygon fill = 'rgb( 31, 120, 180)' fill-opacity = '0.250000' points = '728.6,349.5 728.6,662.4 730.5,662.4 730.5,352.4 '/>
		<polygon fill = 'rgb( 31, 120, 180)' fill-opacity = '0.250000' points = '730.5,352.4 730.5,662.4 732.4,662.4 732.4,355.3 '/>
		<polygon fill = 'rgb( 31, 120, 180)' fill-opacity = '0.250000' points = '732.4,355.3 732.4,662.4 734.3,662.4 734.3,358.2 '/>
		<polygon fill = 'rgb( 31, 120, 180)' fill-opacity = '0.250000' points = '734.3,358.2 734.3,662.4 736.2,662.4 736.2,361.0 '/>
		<polygon fill = 'rgb( 31, 120, 180)' fill-opacity = '0.250000' points = '736.2,361.0 736.2,662.4 738.1,662.4 738.1,363.7 '/>
		<polygon fill = 'rgb( 31, 120, 180)' fill-opacity = '0.250000' points = '738.1,363.7 738.1,662.4 740.0,662.4 740.0,366.4 '/>
		<polygon fill = 'rgb( 31, 120, 180)' fill-opacity = '0.250000' points = '740.0,366.4 740.0,662.4 741.8,662.4 741.8,369.1 '/>
		<polygon fill = 'rgb( 31, 120, 180)' fill-opacity = '0.250000' points = '741.8,369.1 741.8,662.4 743.7,662.4 743.7,371.7 '/>
		<polygon fill = 'rgb( 31, 120, 180)' fill-opacity = '0.250000' points = '743.7,371.7 743.7,662.4 745.6,662.4 745.6,374.3 '/>
		<polygon fill = 'rgb( 31, 120, 180)' fill-opacity = '0.250000' points = '745.6,374.3 745.6,662.4 747.5,662.4 747.5,376.8 '/>
		<polygon fill = 'rgb( 31, 120, 180)' fill-opacity = '0.250000' points = '747.5,376.8 747.5,662.4 749.4,662.4 749.4,379.4 '/>
		<polygon fill = 'rgb( 31, 120, 180)' fill-opacity = '0.250000' points = '749.4,379.4 749.4,662.4 751.3,662.4 751.3,381.9 '/>
		<polygon fill = 'rgb( 31, 120, 180)' fill-opacity = '0.250000' points = '751.3,381.9 751.3,662.4 753.2,662.4 753.2,384.3 '/>
		<polygon fill = 'rgb( 31, 120, 180)' fill-opacity = '0.250000' points = '753.2,384.3 753.2,662.4 755.1,662.4 755.1,386.8 '/>
		<polygon fill = 'rgb( 31, 120, 180)' fill-opacity = '0.250000' points = '755.1,386.8 755.1,662.4 756.9,662.4 756.9,389.2 '/>
		<polygon fill = 'rgb( 31, 120, 180)' fill-opacity = '0.250000' points = '756.9,389.2 756.9,662.4 758.8,662.4 758.8,391.6 '/>
		<polygon fill = 'rgb( 31, 120, 180)' fill-opacity = '0.250000' points = '758.8,391.6 758.8,662.4 760.7,662.4 760.7,394.1 '/>
		<polygon fill = 'rgb( 31, 120, 180)' fill-opacity = '0.250000' points = '760.7,394.1 760.7,662.4 762.6,662.4 762.6,396.5 '/>
		<polygon fill = 'rgb( 31, 120, 180)' fill-opacity = '0.250000' points = '762.6,396.5 762.6,662.4 764.5,662.4 764.5,398.9 '/>
		<polygon fill = 'rgb( 31, 120, 180)' fill-opacity = '0.250000' points = '764.5,398.9 764.5,662.4 766.4,662.4 766.4,401.4 '/>
		<polygon fill = 'rgb( 31, 120, 180)' fill-opacity = '0.250000' points = '766.4,401.4 766.4,662.4 768.3,662.4 768.3,403.9 '/>
		<polygon fill = 'rgb( 31, 120, 180)' fill-opacity = '0.250000' points = '768.3,403.9 768.3,662.4 770.2,662.4 770.2,406.4 '/>
		<polygon fill = 'rgb( 31, 120, 180)' fill-opacity = '0.250000' points = '770.2,406.4 770.2,662.4 772.0,662.4 772.0,408.9 '/>
		<polygon fill = 'rgb( 31, 120, 180)' fill-opacity = '0.250000' points = '772.0,408.9 772.0,662.4 773.9,662.4 773.9,411.5 '/>
		<polygon fill = 'rgb( 31, 120, 180)' fill-opacity = '0.250000' points = '773.9,411.5 773.9,662.4 775.8,662.4 775.8,414.1 '/>
		<polygon fill = 'rgb( 31, 120, 180)' fill-opacity = '0.250000' points = '775.8,414.1 775.8,662.4 777.7,662.4 777.7,416.7 '/>
		<polygon fill = 'rgb( 31, 120, 180)' fill-opacity = '0.250000' points = '777.7,416.7 777.7,662.4 779.6,662.4 779.6,419.4 '/>
		<polygon fill = 'rgb( 31, 120, 180)' fill-opacity = '0.250000' points = '779.6,419.4 779.6,662.4 781.5,662.4 781.5,422.1 '/>
		<polygon fill = 'rgb( 31, 120, 180)' fill-opacity = '0.250000' points = '781.5,422.1 781.5,662.4 783.4,662.4 783.4,424.8 '/>
		<polygon fill = 'rgb( 31, 120, 180)' fill-opacity = '0.250000' points = '783.4,424.8 783.4,662.4 785.3,662.4 785.3,427.6 '/>
		<polygon fill = 'rgb( 31, 120, 180)' fill-opacity = '0.250000' points = '785.3,427.6 785.3,662.4 787.1,662.4 787.1,430.4 '/>
		<polygon fill = 'rgb( 31, 120, 180)' fill-opacity = '0.250000' points = '787.1,430.4 787.1,662.4 789.0,662.4 789.0,433.3 '/>
		<polygon fill = 'rgb( 31, 120, 180)' fill-opacity = '0.250000' points = '789.0,433.3 789.0,662.4 790.9,662.4 790.9,436.2 '/>
		<polygon fill = 'rgb( 31, 120, 180)' fill-opacity = '0.250000' points = '790.9,436.2 790.9,662.4 792.8,662.4 792.8,439.1 '/>
		<polygon fill = 'rgb( 31, 120, 180)' fill-opacity = '0.250000' points = '792.8,439.1 792.8,662.4 794.7,662.4 794.7,442.0 '/>
		<polygon fill = 'rgb( 31, 120, 180)' fill-opacity = '0.250000' points = '794.7,442.0 794.7,662.4 796.6,662.4 796.6,445.0 '/>
		<polygon fill = 'rgb( 31, 120, 180)' fill-opacity = '0.250000' points = '796.6,445.0 796.6,662.4 798.5,662.4 798.5,447.9 '/>
		<polygon fill = 'rgb( 31, 120, 180)' fill-opacity = '0.250000' points = '798.5,447.9 798.5,662.4 800.3,662.4 800.3,450.9 '/>
		<polygon fill = 'rgb( 31, 120, 180)' fill-opacity = '0.250000' points = '800.3,450.9 800.3,662.4 802.2,662.4 802.2,453.8 '/>
		<polygon fill = 'rgb( 31, 120, 180)' fill-opacity = '0.250000' points = '802.2,453.8 802.2,662.4 804.1,662.4 804.1,456.8 '/>
		<polygon fill = 'rgb( 31, 120, 180)' fill-opacity = '0.250000' points = '804.1,456.8 804.1,662.4 806.0,662.4 806.0,459.7 '/>
		<polygon fill = 'rgb( 31, 120, 180)' fill-opacity = '0.250000' points = '806.0,459.7 806.0,662.4 807.9,662.4 807.9,462.7 '/>
		<polygon fill = 'rgb( 31, 120, 180)' fill-opacity = '0.250000' points = '807.9,462.7 807.9,662.4 809.8,662.4 809.8,465.6 '/>
		<polygon fill = 'rgb( 31, 120, 180)' fill-opacity = '0.250000' points = '809.8,465.6 809.8,662.4 811.7,662.4 811.7,468.5 '/>
		<polygon fill = 'rgb( 31, 120, 180)' fill-opacity = '0.250000' points = '811.7,468.5 811.7,662.4 813.6,662.4 813.6,471.3 '/>
		<polygon fill = 'rgb( 31, 120, 180)' fill-opacity = '0.250000' points = '813.6,471.3 813.6,662.4 815.4,662.4 815.4,474.2 '/>
		<polygon fill = 'rgb( 31, 120, 180)' fill-opacity = '0.250000' points = '815.4,474.2 815.4,662.4 817.3,662.4 817.3,477.0 '/>
		<polygon fill = 'rgb( 31, 120, 180)' fill-opacity = '0.250000' points = '817.3,477.0 817.3,662.4 819.2,662.4 819.2,479.7 '/>
		<polygon fill = 'rgb( 31, 120, 180)' fill-opacity = '0.250000' points = '819.2,479.7 819.2,662.4 821.1,662.4 821.1,482.5 '/>
		<polygon fill = 'rgb( 31, 120, 180)' fill-opacity = '0.250000' points = '821.1,482.5 821.1,662.4 823.0,662.4 823.0,485.1 '/>
		<polygon fill = 'rgb( 31, 120, 180)' fill-opacity = '0.250000' points = '823.0,485.1 823.0,662.4 824.9,662.4 824.9,487.8 '/>
		<polygon fill = 'rgb( 31, 120, 180)' fill-opacity = '0.250000' points = '824.9,487.8 824.9,662.4 826.8,662.4 826.8,490.4 '/>
		<polygon fill = 'rgb( 31, 120, 180)' fill-opacity = '0.250000' points = '826.8,490.4 826.8,662.4 828.7,662.4 828.7,493.0 '/>
		<polygon fill = 'rgb( 31, 120, 180)' fill-opacity = '0.250000' points = '828.7,493.0 828.7,662.4 830.5,662.4 830.5,495.5 '/>
		<polygon fill = 'rgb( 31, 120, 180)' fill-opacity = '0.250000' points = '830.5,495.5 830.5,662.4 832.4,662.4 832.4,497.9 '/>
		<polygon fill = 'rgb( 31, 120, 180)' fill-opacity = '0.250000' points = '832.4,497.9 832.4,662.4 834.3,662.4 834.3,500.4 '/>
		<polygon fill = 'rgb( 31, 120, 180)' fill-opacity = '0.250000' points = '834.3,500.4 834.3,662.4 836.2,662.4 836.2,502.7 '/>
		<polygon fill = 'rgb( 31, 120, 180)' fill-opacity = '0.250000' points = '836.2,502.7 836.2,662.4 838.1,662.4 838.1,505.1 '/>
		<polygon fill = 'rgb( 31, 120, 180)' fill-opacity = '0.250000' points = '838.1,505.1 838.1,662.4 840.0,662.4 840.0,507.4 '/>
		<polygon fill = 'rgb( 31, 120, 180)' fill-opacity = '0.250000' points = '840.0,507.4 840.0,662.4 841.9,662.4 841.9,509.6 '/>
		<polygon fill = 'rgb( 31, 120, 180)' fill-opacity = '0.250000' points = '841.9,509.6 841.9,662.4 843.8,662.4 843.8,511.9 '/>
		<polygon fill = 'rgb( 31, 120, 180)' fill-opacity = '0.250000' points = '843.8,511.9 843.8,662.4 845.6,662.4 845.6,514.0 '/>
		<polygon fill = 'rgb( 31, 120, 180)' fill-opacity = '0.250000' points = '845.6,514.0 845.6,662.4 847.5,662.4 847.5,516.2 '/>
		<polygon fill = 'rgb( 31, 120, 180)' fill-opacity = '0.250000' points = '847.5,516.2 847.5,662.4 849.4,662.4 849.4,518.3 '/>
		<polygon fill = 'rgb( 31, 120, 180)' fill-opacity = '0.250000' points = '849.4,518.3 849.4,662.4 851.3,662.4 851.3,520.4 '/>
		<polygon fill = 'rgb( 31, 120, 180)' fill-opacity = '0.250000' points = '851.3,520.4 851.3,662.4 853.2,662.4 853.2,522.4 '/>
		<polygon fill = 'rgb( 31, 120, 180)' fill-opacity = '0.250000' points = '853.2,522.4 853.2,662.4 855.1,662.4 855.1,524.5 '/>
		<polygon fill = 'rgb( 31, 120, 180)' fill-opacity = '0.250000' points = '855.1,524.5 855.1,662.4 857.0,662.4 857.0,526.5 '/>
		<polygon fill = 'rgb( 31, 120, 180)' fill-opacity = '0.250000' points = '857.0,526.5 857.0,662.4 858.9,662.4 858.9,528.4 '/>
		<polygon fill = 'rgb( 31, 120, 180)' fill-opacity = '0.250000' points = '858.9,528.4 858.9,662.4 860.7,662.4 860.7,530.4 '/>
		<polygon fill = 'rgb( 31, 120, 180)' fill-opacity = '0.250000' points = '860.7,530.4 860.7,662.4 862.6,662.4 862.6,532.3 '/>
		<polygon fill = 'rgb( 31, 120, 180)' fill-opacity = '0.250000' points = '862.6,532.3 862.6,662.4 864.5,662.4 864.5,534.2 '/>
		<polygon fill = 'rgb( 31, 120, 180)' fill-opacity = '0.250000' points = '864.5,534.2 864.5,662.4 866.4,662.4 866.4,536.1 '/>
		<polygon fill = 'rgb( 31, 120, 180)' fill-opacity = '0.250000' points = '866.4,536.1 866.4,662.4 868.3,662.4 868.3,538.0 '/>
		<polygon fill = 'rgb( 31, 120, 180)' fill-opacity = '0.250000' points = '868.3,538.0 868.3,662.4 870.2,662.4 870.2,539.8 '/>
		<polygon fill = 'rgb( 31, 120, 180)' fill-opacity = '0.250000' points = '870.2,539.8 870.2,662.4 872.1,662.4 872.1,541.7 '/>
		<polygon fill = 'rgb( 31, 120, 180)' fill-opacity = '0.250000' points = '872.1,541.7 872.1,662.4 873.9,662.4 873.9,543.5 '/>
		<polygon fill = 'rgb( 31, 120, 180)' fill-opacity = '0.250000' points = '873.9,543.5 873.9,662.4 875.8,662.4 875.8,545.2 '/>
		<polygon fill = 'rgb( 31, 120, 180)' fill-opacity = '0.250000' points = '875.8,545.2 875.8,662.4 877.7,662.4 877.7,547.0 '/>
		<polygon fill = 'rgb( 31, 120, 180)' fill-opacity = '0.250000' points = '877.7,547.0 877.7,662.4 879.6,662.4 879.6,548.7 '/>
		<polygon fill = 'rgb( 31, 120, 180)' fill-opacity = '0.250000' points = '879.6,548.7 879.6,662.4 881.5,662.4 881.5,550.4 '/>
		<polygon fill = 'rgb( 31, 120, 180)' fill-opacity = '0.250000' points = '881.5,550.4 881.5,662.4 883.4,662.4 883.4,552.1 '/>
		<polygon fill = 'rgb( 31, 120, 180)' fill-opacity = '0.250000' points = '883.4,552.1 883.4,662.4 885.3,662.4 885.3,553.8 '/>
		<polygon fill = 'rgb( 31, 120, 180)' fill-opacity = '0.250000' points = '885.3,553.8 885.3,662.4 887.2,662.4 887.2,555.4 '/>
		<polygon fill = 'rgb( 31, 120, 180)' fill-opacity = '0.250000' points = '887.2,555.4 887.2,662.4 889.0,662.4 889.0,557.0 '/>
		<polygon fill = 'rgb( 31, 120, 180)' fill-opacity = '0.250000' points = '889.0,557.0 889.0,662.4 890.9,662.4 890.9,558.6 '/>
		<polygon fill = 'rgb( 31, 120, 180)' fill-opacity = '0.250000' points = '890.9,558.6 890.9,662.4 892.8,662.4 892.8,560.1 '/>
		<polygon fill = 'rgb( 31, 120, 180)' fill-opacity = '0.250000' points = '892.8,560.1 892.8,662.4 894.7,662.4 894.7,561.7 '/>
		<polygon fill = 'rgb( 31, 120, 180)' fill-opacity = '0.250000' points = '894.7,561.7 894.7,662.4 896.6,662.4 896.6,563.2 '/>
		<polygon fill = 'rgb( 31, 120, 180)' fill-opacity = '0.250000' points = '896.6,563.2 896.6,662.4 898.5,662.4 898.5,564.6 '/>
		<polygon fill = 'rgb( 31, 120, 180)' fill-opacity = '0.250000' points = '898.5,564.6 898.5,662.4 900.4,662.4 900.4,566.1 '/>
		<polygon fill = 'rgb( 31, 120, 180)' fill-opacity = '0.250000' points = '900.4,566.1 900.4,662.4 902.3,662.4 902.3,567.5 '/>
		<polygon fill = 'rgb( 31, 120, 180)' fill-opacity = '0.250000' points = '902.3,567.5 902.3,662.4 904.1,662.4 904.1,569.0 '/>
		<polygon fill = 'rgb( 31, 120, 180)' fill-opacity = '0.250000' points = '904.1,569.0 904.1,662.4 906.0,662.4 906.0,570.3 '/>
		<polygon fill = 'rgb( 31, 120, 180)' fill-opacity = '0.250000' points = '906.0,570.3 906.0,662.4 907.9,662.4 907.9,571.7 '/>
		<polygon fill = 'rgb( 31, 120, 180)' fill-opacity = '0.250000' points = '907.9,571.7 907.9,662.4 909.8,662.4 909.8,573.1 '/>
		<polygon fill = 'rgb( 31, 120, 180)' fill-opacity = '0.250000' points = '909.8,573.1 909.8,662.4 911.7,662.4 911.7,574.4 '/>
		<polygon fill = 'rgb( 31, 120, 180)' fill-opacity = '0.250000' points = '911.7,574.4 911.7,662.4 913.6,662.4 913.6,575.8 '/>
		<polygon fill = 'rgb( 31, 120, 180)' fill-opacity = '0.250000' points = '913.6,575.8 913.6,662.4 915.5,662.4 915.5,577.1 '/>
		<polygon fill = 'rgb( 31, 120, 180)' fill-opacity = '0.250000' points = '915.5,577.1 915.5,662.4 917.4,662.4 917.4,578.4 '/>
		<polygon fill = 'rgb( 31, 120, 180)' fill-opacity = '0.250000' points = '917.4,578.4 917.4,662.4 919.2,662.4 919.2,579.7 '/>
		<polygon fill = 'rgb( 31, 120, 180)' fill-opacity = '0.250000' points = '919.2,579.7 919.2,662.4 921.1,662.4 921.1,581.0 '/>
		<polygon fill = 'rgb( 31, 120, 180)' fill-opacity = '0.250000' points = '921.1,581.0 921.1,662.4 923.0,662.4 923.0,582.3 '/>
		<polygon fill = 'rgb( 31, 120, 180)' fill-opacity = '0.250000' points = '923.0,582.3 923.0,662.4 924.9,662.4 924.9,583.5 '/>
	</g>
</g>
	</g>
	<g id="gnuplot_plot_3" ><title>Point estimate</title>
<g fill="none" color="white" stroke="rgb( 31, 120, 180)" stroke-width="2.00" stroke-linecap="butt" stroke-linejoin="miter">
</g>
<g fill="none" color="black" stroke="currentColor" stroke-width="2.00" stroke-linecap="butt" stroke-linejoin="miter">
	<g transform="translate(1089.0,103.0)" stroke="none" fill="black" font-family="Helvetica" font-size="12.00"  text-anchor="start">
		<text><tspan font-family="Helvetica" >Point estimate</tspan></text>
	</g>
</g>
<g fill="none" color="black" stroke="currentColor" stroke-width="2.00" stroke-linecap="butt" stroke-linejoin="miter">
	<path stroke='rgb( 31, 120, 180)'  d='M1038.5,99.1 L1080.7,99.1 M517.5,662.4 L517.5,74.3  '/></g>
	</g>
<g fill="none" color="black" stroke="currentColor" stroke-width="2.00" stroke-linecap="butt" stroke-linejoin="miter">
</g>
<g fill="none" color="black" stroke="black" stroke-width="1.00" stroke-linecap="butt" stroke-linejoin="miter">
</g>
<g fill="none" color="black" stroke="currentColor" stroke-width="1.00" stroke-linecap="butt" stroke-linejoin="miter">
	<path stroke='black'  d='M71.9,54.1 L71.9,662.4 L1013.6,662.4 L1013.6,54.1 L71.9,54.1 Z  '/></g>
<g fill="none" color="black" stroke="currentColor" stroke-width="1.00" stroke-linecap="butt" stroke-linejoin="miter">
</g>
</g>
</svg>

