<?xml version="1.0" encoding="utf-8"  standalone="no"?>
<svg 
 viewBox="0 0 1280 720"
 xmlns="http://www.w3.org/2000/svg"
 xmlns:xlink="http://www.w3.org/1999/xlink"
>

<title>Gnuplot</title>
<desc>Produced by GNUPLOT 5.0 patchlevel 6 </desc>

<g id="gnuplot_canvas">

<rect x="0" y="0" width="1280" height="720" fill="none"/>
<defs>

	<circle id='gpDot' r='0.5' stroke-width='0.5'/>
	<path id='gpPt0' stroke-width='0.222' stroke='currentColor' d='M-1,0 h2 M0,-1 v2'/>
	<path id='gpPt1' stroke-width='0.222' stroke='currentColor' d='M-1,-1 L1,1 M1,-1 L-1,1'/>
	<path id='gpPt2' stroke-width='0.222' stroke='currentColor' d='M-1,0 L1,0 M0,-1 L0,1 M-1,-1 L1,1 M-1,1 L1,-1'/>
	<rect id='gpPt3' stroke-width='0.222' stroke='currentColor' x='-1' y='-1' width='2' height='2'/>
	<rect id='gpPt4' stroke-width='0.222' stroke='currentColor' fill='currentColor' x='-1' y='-1' width='2' height='2'/>
	<circle id='gpPt5' stroke-width='0.222' stroke='currentColor' cx='0' cy='0' r='1'/>
	<use xlink:href='#gpPt5' id='gpPt6' fill='currentColor' stroke='none'/>
	<path id='gpPt7' stroke-width='0.222' stroke='currentColor' d='M0,-1.33 L-1.33,0.67 L1.33,0.67 z'/>
	<use xlink:href='#gpPt7' id='gpPt8' fill='currentColor' stroke='none'/>
	<use xlink:href='#gpPt7' id='gpPt9' stroke='currentColor' transform='rotate(180)'/>
	<use xlink:href='#gpPt9' id='gpPt10' fill='currentColor' stroke='none'/>
	<use xlink:href='#gpPt3' id='gpPt11' stroke='currentColor' transform='rotate(45)'/>
	<use xlink:href='#gpPt11' id='gpPt12' fill='currentColor' stroke='none'/>
	<path id='gpPt13' stroke-width='0.222' stroke='currentColor' d='M0,1.330 L1.265,0.411 L0.782,-1.067 L-0.782,-1.076 L-1.265,0.411 z'/>
	<use xlink:href='#gpPt13' id='gpPt14' fill='currentColor' stroke='none'/>
	<filter id='textbox' filterUnits='objectBoundingBox' x='0' y='0' height='1' width='1'>
	  <feFlood flood-color='white' flood-opacity='1' result='bgnd'/>
	  <feComposite in='SourceGraphic' in2='bgnd' operator='atop'/>
	</filter>
	<filter id='greybox' filterUnits='objectBoundingBox' x='0' y='0' height='1' width='1'>
	  <feFlood flood-color='lightgrey' flood-opacity='1' result='grey'/>
	  <feComposite in='SourceGraphic' in2='grey' operator='atop'/>
	</filter>
</defs>
<g fill="none" color="white" stroke="currentColor" stroke-width="1.00" stroke-linecap="butt" stroke-linejoin="miter">
</g>
<g fill="none" color="black" stroke="currentColor" stroke-width="1.00" stroke-linecap="butt" stroke-linejoin="miter">
	<path stroke='black'  d='M71.9,662.4 L80.9,662.4  '/>	<g transform="translate(63.6,666.3)" stroke="none" fill="black" font-family="Helvetica" font-size="12.00"  text-anchor="end">
		<text><tspan font-family="Helvetica" > 0</tspan></text>
	</g>
</g>
<g fill="none" color="black" stroke="currentColor" stroke-width="1.00" stroke-linecap="butt" stroke-linejoin="miter">
	<path stroke='black'  d='M71.9,601.6 L80.9,601.6  '/>	<g transform="translate(63.6,605.5)" stroke="none" fill="black" font-family="Helvetica" font-size="12.00"  text-anchor="end">
		<text><tspan font-family="Helvetica" > 20</tspan></text>
	</g>
</g>
<g fill="none" color="black" stroke="currentColor" stroke-width="1.00" stroke-linecap="butt" stroke-linejoin="miter">
	<path stroke='black'  d='M71.9,540.7 L80.9,540.7  '/>	<g transform="translate(63.6,544.6)" stroke="none" fill="black" font-family="Helvetica" font-size="12.00"  text-anchor="end">
		<text><tspan font-family="Helvetica" > 40</tspan></text>
	</g>
</g>
<g fill="none" color="black" stroke="currentColor" stroke-width="1.00" stroke-linecap="butt" stroke-linejoin="miter">
	<path stroke='black'  d='M71.9,479.9 L80.9,479.9  '/>	<g transform="translate(63.6,483.8)" stroke="none" fill="black" font-family="Helvetica" font-size="12.00"  text-anchor="end">
		<text><tspan font-family="Helvetica" > 60</tspan></text>
	</g>
</g>
<g fill="none" color="black" stroke="currentColor" stroke-width="1.00" stroke-linecap="butt" stroke-linejoin="miter">
	<path stroke='black'  d='M71.9,419.1 L80.9,419.1  '/>	<g transform="translate(63.6,423.0)" stroke="none" fill="black" font-family="Helvetica" font-size="12.00"  text-anchor="end">
		<text><tspan font-family="Helvetica" > 80</tspan></text>
	</g>
</g>
<g fill="none" color="black" stroke="currentColor" stroke-width="1.00" stroke-linecap="butt" stroke-linejoin="miter">
	<path stroke='black'  d='M71.9,358.2 L80.9,358.2  '/>	<g transform="translate(63.6,362.1)" stroke="none" fill="black" font-family="Helvetica" font-size="12.00"  text-anchor="end">
		<text><tspan font-family="Helvetica" > 100</tspan></text>
	</g>
</g>
<g fill="none" color="black" stroke="currentColor" stroke-width="1.00" stroke-linecap="butt" stroke-linejoin="miter">
	<path stroke='black'  d='M71.9,297.4 L80.9,297.4  '/>	<g transform="translate(63.6,301.3)" stroke="none" fill="black" font-family="Helvetica" font-size="12.00"  text-anchor="end">
		<text><tspan font-family="Helvetica" > 120</tspan></text>
	</g>
</g>
<g fill="none" color="black" stroke="currentColor" stroke-width="1.00" stroke-linecap="butt" stroke-linejoin="miter">
	<path stroke='black'  d='M71.9,236.6 L80.9,236.6  '/>	<g transform="translate(63.6,240.5)" stroke="none" fill="black" font-family="Helvetica" font-size="12.00"  text-anchor="end">
		<text><tspan font-family="Helvetica" > 140</tspan></text>
	</g>
</g>
<g fill="none" color="black" stroke="currentColor" stroke-width="1.00" stroke-linecap="butt" stroke-linejoin="miter">
	<path stroke='black'  d='M71.9,175.8 L80.9,175.8  '/>	<g transform="translate(63.6,179.7)" stroke="none" fill="black" font-family="Helvetica" font-size="12.00"  text-anchor="end">
		<text><tspan font-family="Helvetica" > 160</tspan></text>
	</g>
</g>
<g fill="none" color="black" stroke="currentColor" stroke-width="1.00" stroke-linecap="butt" stroke-linejoin="miter">
	<path stroke='black'  d='M71.9,114.9 L80.9,114.9  '/>	<g transform="translate(63.6,118.8)" stroke="none" fill="black" font-family="Helvetica" font-size="12.00"  text-anchor="end">
		<text><tspan font-family="Helvetica" > 180</tspan></text>
	</g>
</g>
<g fill="none" color="black" stroke="currentColor" stroke-width="1.00" stroke-linecap="butt" stroke-linejoin="miter">
	<path stroke='black'  d='M71.9,54.1 L80.9,54.1  '/>	<g transform="translate(63.6,58.0)" stroke="none" fill="black" font-family="Helvetica" font-size="12.00"  text-anchor="end">
		<text><tspan font-family="Helvetica" > 200</tspan></text>
	</g>
</g>
<g fill="none" color="black" stroke="currentColor" stroke-width="1.00" stroke-linecap="butt" stroke-linejoin="miter">
	<path stroke='black'  d='M95.1,662.4 L95.1,653.4  '/>	<g transform="translate(95.1,684.3)" stroke="none" fill="black" font-family="Helvetica" font-size="12.00"  text-anchor="middle">
		<text><tspan font-family="Helvetica" > 0.2</tspan></text>
	</g>
</g>
<g fill="none" color="black" stroke="currentColor" stroke-width="1.00" stroke-linecap="butt" stroke-linejoin="miter">
	<path stroke='black'  d='M252.4,662.4 L252.4,653.4  '/>	<g transform="translate(252.4,684.3)" stroke="none" fill="black" font-family="Helvetica" font-size="12.00"  text-anchor="middle">
		<text><tspan font-family="Helvetica" > 0.4</tspan></text>
	</g>
</g>
<g fill="none" color="black" stroke="currentColor" stroke-width="1.00" stroke-linecap="butt" stroke-linejoin="miter">
	<path stroke='black'  d='M409.7,662.4 L409.7,653.4  '/>	<g transform="translate(409.7,684.3)" stroke="none" fill="black" font-family="Helvetica" font-size="12.00"  text-anchor="middle">
		<text><tspan font-family="Helvetica" > 0.6</tspan></text>
	</g>
</g>
<g fill="none" color="black" stroke="currentColor" stroke-width="1.00" stroke-linecap="butt" stroke-linejoin="miter">
	<path stroke='black'  d='M567.0,662.4 L567.0,653.4  '/>	<g transform="translate(567.0,684.3)" stroke="none" fill="black" font-family="Helvetica" font-size="12.00"  text-anchor="middle">
		<text><tspan font-family="Helvetica" > 0.8</tspan></text>
	</g>
</g>
<g fill="none" color="black" stroke="currentColor" stroke-width="1.00" stroke-linecap="butt" stroke-linejoin="miter">
	<path stroke='black'  d='M724.4,662.4 L724.4,653.4  '/>	<g transform="translate(724.4,684.3)" stroke="none" fill="black" font-family="Helvetica" font-size="12.00"  text-anchor="middle">
		<text><tspan font-family="Helvetica" > 1</tspan></text>
	</g>
</g>
<g fill="none" color="black" stroke="currentColor" stroke-width="1.00" stroke-linecap="butt" stroke-linejoin="miter">
	<path stroke='black'  d='M881.7,662.4 L881.7,653.4  '/>	<g transform="translate(881.7,684.3)" stroke="none" fill="black" font-family="Helvetica" font-size="12.00"  text-anchor="middle">
		<text><tspan font-family="Helvetica" > 1.2</tspan></text>
	</g>
</g>
<g fill="none" color="black" stroke="currentColor" stroke-width="1.00" stroke-linecap="butt" stroke-linejoin="miter">
</g>
<g fill="none" color="black" stroke="currentColor" stroke-width="1.00" stroke-linecap="butt" stroke-linejoin="miter">
	<path stroke='black'  d='M71.9,54.1 L71.9,662.4 L1013.6,662.4 L1013.6,54.1 L71.9,54.1 Z  '/></g>
<g fill="none" color="black" stroke="currentColor" stroke-width="1.00" stroke-linecap="butt" stroke-linejoin="miter">
	<g transform="translate(17.0,358.3) rotate(270)" stroke="none" fill="black" font-family="Helvetica" font-size="12.00"  text-anchor="middle">
		<text><tspan font-family="Helvetica" >Density (a.u.)</tspan></text>
	</g>
</g>
<g fill="none" color="black" stroke="currentColor" stroke-width="1.00" stroke-linecap="butt" stroke-linejoin="miter">
	<g transform="translate(542.7,711.3)" stroke="none" fill="black" font-family="Helvetica" font-size="12.00"  text-anchor="middle">
		<text><tspan font-family="Helvetica" >Relative change (%)</tspan></text>
	</g>
</g>
<g fill="none" color="black" stroke="currentColor" stroke-width="1.00" stroke-linecap="butt" stroke-linejoin="miter">
	<g transform="translate(542.7,31.0)" stroke="none" fill="black" font-family="Helvetica" font-size="12.00"  text-anchor="middle">
		<text><tspan font-family="Helvetica" >language: bash/parse error: python/examples/mixed-spaces-tabs.py: median</tspan></text>
	</g>
</g>
	<g id="gnuplot_plot_1" ><title>Bootstrap distribution</title>
<g fill="none" color="white" stroke="black" stroke-width="2.00" stroke-linecap="butt" stroke-linejoin="miter">
</g>
<g fill="none" color="black" stroke="currentColor" stroke-width="2.00" stroke-linecap="butt" stroke-linejoin="miter">
	<g transform="translate(1089.0,67.0)" stroke="none" fill="black" font-family="Helvetica" font-size="12.00"  text-anchor="start">
		<text><tspan font-family="Helvetica" >Bootstrap distribution</tspan></text>
	</g>
</g>
<g fill="none" color="black" stroke="currentColor" stroke-width="2.00" stroke-linecap="butt" stroke-linejoin="miter">
	<path stroke='rgb( 31, 120, 180)'  d='M1038.5,63.1 L1080.7,63.1 M71.9,628.3 L73.8,627.5 L75.7,626.8 L77.6,626.0 L79.4,625.2 L81.3,624.4
		L83.2,623.6 L85.1,622.8 L87.0,622.0 L88.9,621.3 L90.8,620.5 L92.7,619.7 L94.5,618.8 L96.4,618.0
		L98.3,617.2 L100.2,616.4 L102.1,615.6 L104.0,614.7 L105.9,613.9 L107.8,613.0 L109.6,612.2 L111.5,611.3
		L113.4,610.4 L115.3,609.6 L117.2,608.7 L119.1,607.7 L121.0,606.8 L122.9,605.9 L124.7,605.0 L126.6,604.0
		L128.5,603.0 L130.4,602.1 L132.3,601.1 L134.2,600.0 L136.1,599.0 L138.0,598.0 L139.8,596.9 L141.7,595.8
		L143.6,594.7 L145.5,593.6 L147.4,592.5 L149.3,591.4 L151.2,590.2 L153.0,589.1 L154.9,587.9 L156.8,586.8
		L158.7,585.6 L160.6,584.4 L162.5,583.2 L164.4,582.0 L166.3,580.8 L168.1,579.6 L170.0,578.4 L171.9,577.1
		L173.8,575.9 L175.7,574.6 L177.6,573.3 L179.5,572.0 L181.4,570.7 L183.2,569.4 L185.1,568.1 L187.0,566.8
		L188.9,565.4 L190.8,564.1 L192.7,562.8 L194.6,561.5 L196.5,560.2 L198.3,559.0 L200.2,557.7 L202.1,556.4
		L204.0,555.1 L205.9,553.8 L207.8,552.5 L209.7,551.1 L211.6,549.7 L213.4,548.2 L215.3,546.6 L217.2,545.0
		L219.1,543.2 L221.0,541.3 L222.9,539.3 L224.8,537.2 L226.6,535.0 L228.5,532.7 L230.4,530.2 L232.3,527.7
		L234.2,525.2 L236.1,522.6 L238.0,520.0 L239.9,517.3 L241.7,514.8 L243.6,512.2 L245.5,509.8 L247.4,507.4
		L249.3,505.2 L251.2,503.0 L253.1,501.0 L255.0,499.2 L256.8,497.5 L258.7,495.9 L260.6,494.4 L262.5,493.0
		L264.4,491.7 L266.3,490.5 L268.2,489.4 L270.1,488.4 L271.9,487.4 L273.8,486.4 L275.7,485.5 L277.6,484.6
		L279.5,483.7 L281.4,482.9 L283.3,482.1 L285.2,481.4 L287.0,480.7 L288.9,480.1 L290.8,479.6 L292.7,479.1
		L294.6,478.8 L296.5,478.5 L298.4,478.2 L300.2,478.0 L302.1,477.9 L304.0,477.7 L305.9,477.6 L307.8,477.4
		L309.7,477.2 L311.6,476.9 L313.5,476.5 L315.3,475.9 L317.2,475.2 L319.1,474.4 L321.0,473.4 L322.9,472.2
		L324.8,470.9 L326.7,469.5 L328.6,468.0 L330.4,466.4 L332.3,464.8 L334.2,463.2 L336.1,461.6 L338.0,460.1
		L339.9,458.7 L341.8,457.3 L343.7,456.2 L345.5,455.1 L347.4,454.1 L349.3,453.3 L351.2,452.6 L353.1,451.9
		L355.0,451.2 L356.9,450.5 L358.8,449.8 L360.6,449.0 L362.5,448.0 L364.4,446.9 L366.3,445.6 L368.2,444.1
		L370.1,442.4 L372.0,440.6 L373.8,438.5 L375.7,436.3 L377.6,434.0 L379.5,431.6 L381.4,429.3 L383.3,426.9
		L385.2,424.7 L387.1,422.6 L388.9,420.6 L390.8,418.9 L392.7,417.4 L394.6,416.2 L396.5,415.2 L398.4,414.4
		L400.3,413.8 L402.2,413.3 L404.0,413.0 L405.9,412.7 L407.8,412.3 L409.7,411.9 L411.6,411.3 L413.5,410.5
		L415.4,409.4 L417.3,407.9 L419.1,406.1 L421.0,403.8 L422.9,401.2 L424.8,398.1 L426.7,394.6 L428.6,390.8
		L430.5,386.6 L432.4,382.2 L434.2,377.6 L436.1,372.8 L438.0,368.0 L439.9,363.2 L441.8,358.5 L443.7,354.0
		L445.6,349.7 L447.4,345.6 L449.3,341.8 L451.2,338.3 L453.1,335.1 L455.0,332.2 L456.9,329.5 L458.8,327.1
		L460.7,324.8 L462.5,322.7 L464.4,320.6 L466.3,318.5 L468.2,316.3 L470.1,313.9 L472.0,311.4 L473.9,308.6
		L475.8,305.5 L477.6,302.2 L479.5,298.5 L481.4,294.6 L483.3,290.4 L485.2,286.1 L487.1,281.5 L489.0,276.9
		L490.9,272.2 L492.7,267.6 L494.6,263.1 L496.5,258.9 L498.4,254.8 L500.3,251.2 L502.2,247.9 L504.1,245.0
		L506.0,242.6 L507.8,240.6 L509.7,239.2 L511.6,238.1 L513.5,237.5 L515.4,237.2 L517.3,237.3 L519.2,237.6
		L521.0,238.0 L522.9,238.6 L524.8,239.2 L526.7,239.7 L528.6,240.1 L530.5,240.4 L532.4,240.5 L534.3,240.3
		L536.1,239.9 L538.0,239.2 L539.9,238.3 L541.8,237.2 L543.7,236.0 L545.6,234.5 L547.5,233.0 L549.4,231.5
		L551.2,230.0 L553.1,228.6 L555.0,227.3 L556.9,226.2 L558.8,225.3 L560.7,224.6 L562.6,224.2 L564.5,224.0
		L566.3,224.1 L568.2,224.4 L570.1,224.9 L572.0,225.6 L573.9,226.5 L575.8,227.5 L577.7,228.7 L579.5,229.8
		L581.4,231.1 L583.3,232.3 L585.2,233.5 L587.1,234.8 L589.0,235.9 L590.9,237.1 L592.8,238.2 L594.6,239.3
		L596.5,240.3 L598.4,241.4 L600.3,242.4 L602.2,243.4 L604.1,244.3 L606.0,245.3 L607.9,246.3 L609.7,247.2
		L611.6,248.2 L613.5,249.1 L615.4,250.0 L617.3,250.9 L619.2,251.7 L621.1,252.5 L623.0,253.2 L624.8,253.9
		L626.7,254.4 L628.6,254.8 L630.5,255.1 L632.4,255.2 L634.3,255.2 L636.2,254.9 L638.1,254.4 L639.9,253.6
		L641.8,252.4 L643.7,250.9 L645.6,249.0 L647.5,246.6 L649.4,243.6 L651.3,240.2 L653.1,236.1 L655.0,231.4
		L656.9,226.1 L658.8,220.1 L660.7,213.5 L662.6,206.4 L664.5,198.6 L666.4,190.3 L668.2,181.6 L670.1,172.6
		L672.0,163.4 L673.9,154.1 L675.8,144.8 L677.7,135.7 L679.6,126.9 L681.5,118.7 L683.3,111.1 L685.2,104.2
		L687.1,98.2 L689.0,93.3 L690.9,89.4 L692.8,86.7 L694.7,85.2 L696.6,84.9 L698.4,85.8 L700.3,87.9
		L702.2,91.2 L704.1,95.5 L706.0,100.9 L707.9,107.2 L709.8,114.3 L711.7,122.0 L713.5,130.4 L715.4,139.3
		L717.3,148.5 L719.2,158.1 L721.1,167.8 L723.0,177.6 L724.9,187.5 L726.7,197.4 L728.6,207.2 L730.5,216.9
		L732.4,226.4 L734.3,235.8 L736.2,245.0 L738.1,253.9 L740.0,262.6 L741.8,271.1 L743.7,279.2 L745.6,287.0
		L747.5,294.5 L749.4,301.6 L751.3,308.4 L753.2,314.7 L755.1,320.6 L756.9,326.2 L758.8,331.3 L760.7,336.0
		L762.6,340.3 L764.5,344.2 L766.4,347.8 L768.3,351.1 L770.2,354.1 L772.0,357.0 L773.9,359.7 L775.8,362.3
		L777.7,364.8 L779.6,367.4 L781.5,370.1 L783.4,372.8 L785.3,375.7 L787.1,378.8 L789.0,382.1 L790.9,385.5
		L792.8,389.2 L794.7,393.0 L796.6,396.9 L798.5,400.9 L800.3,405.0 L802.2,409.2 L804.1,413.2 L806.0,417.3
		L807.9,421.1 L809.8,424.9 L811.7,428.4 L813.6,431.6 L815.4,434.7 L817.3,437.4 L819.2,439.9 L821.1,442.1
		L823.0,444.1 L824.9,445.9 L826.8,447.5 L828.7,449.1 L830.5,450.5 L832.4,452.0 L834.3,453.5 L836.2,455.2
		L838.1,457.0 L840.0,459.0 L841.9,461.3 L843.8,463.9 L845.6,466.7 L847.5,469.8 L849.4,473.1 L851.3,476.6
		L853.2,480.3 L855.1,484.1 L857.0,487.9 L858.9,491.6 L860.7,495.1 L862.6,498.4 L864.5,501.3 L866.4,503.7
		L868.3,505.6 L870.2,506.8 L872.1,507.4 L873.9,507.1 L875.8,506.1 L877.7,504.3 L879.6,501.6 L881.5,498.2
		L883.4,494.0 L885.3,489.1 L887.2,483.6 L889.0,477.7 L890.9,471.3 L892.8,464.7 L894.7,458.0 L896.6,451.3
		L898.5,444.7 L900.4,438.5 L902.3,432.7 L904.1,427.5 L906.0,423.0 L907.9,419.3 L909.8,416.4 L911.7,414.5
		L913.6,413.6 L915.5,413.7 L917.4,414.8 L919.2,417.0 L921.1,420.1 L923.0,424.2 L924.9,429.2 L926.8,435.0
		L928.7,441.5 L930.6,448.7 L932.5,456.4 L934.3,464.6 L936.2,473.1 L938.1,481.9 L940.0,490.9 L941.9,499.9
		L943.8,509.0 L945.7,518.0 L947.5,526.8 L949.4,535.5 L951.3,543.9 L953.2,552.0 L955.1,559.8 L957.0,567.2
		L958.9,574.3 L960.8,581.0 L962.6,587.3 L964.5,593.2 L966.4,598.6 L968.3,603.7 L970.2,608.4 L972.1,612.8
		L974.0,616.8 L975.9,620.4 L977.7,623.8 L979.6,626.8 L981.5,629.6 L983.4,632.1 L985.3,634.3 L987.2,636.4
		L989.1,638.2 L991.0,639.9 L992.8,641.4 L994.7,642.8 L996.6,644.0 L998.5,645.1 L1000.4,646.1 L1002.3,647.1
		L1004.2,647.9 L1006.1,648.7 L1007.9,649.4 L1009.8,650.0 L1011.7,650.6 L1013.6,651.2  '/></g>
	</g>
	<g id="gnuplot_plot_2" ><title>Confidence interval</title>
<g fill="none" color="white" stroke="rgb( 31, 120, 180)" stroke-width="1.00" stroke-linecap="butt" stroke-linejoin="miter">
</g>
<g fill="none" color="black" stroke="currentColor" stroke-width="1.00" stroke-linecap="butt" stroke-linejoin="miter">
	<g transform="translate(1089.0,85.0)" stroke="none" fill="black" font-family="Helvetica" font-size="12.00"  text-anchor="start">
		<text><tspan font-family="Helvetica" >Confidence interval</tspan></text>
	</g>
</g>
<g fill="none" color="black" stroke="currentColor" stroke-width="1.00" stroke-linecap="butt" stroke-linejoin="miter">
	<g stroke='none' shape-rendering='crispEdges'>
		<polygon fill = 'rgb( 31, 120, 180)' fill-opacity = '0.250000' points = '1038.5,85.6 1080.7,85.6 1080.7,76.6 1038.5,76.6 '/>
		<polygon fill = 'rgb( 31, 120, 180)' fill-opacity = '0.250000' points = '158.7,585.6 158.7,662.4 160.6,662.4 160.6,584.4 '/>
		<polygon fill = 'rgb( 31, 120, 180)' fill-opacity = '0.250000' points = '160.6,584.4 160.6,662.4 162.5,662.4 162.5,583.2 '/>
		<polygon fill = 'rgb( 31, 120, 180)' fill-opacity = '0.250000' points = '162.5,583.2 162.5,662.4 164.4,662.4 164.4,582.0 '/>
		<polygon fill = 'rgb( 31, 120, 180)' fill-opacity = '0.250000' points = '164.4,582.0 164.4,662.4 166.3,662.4 166.3,580.8 '/>
		<polygon fill = 'rgb( 31, 120, 180)' fill-opacity = '0.250000' points = '166.3,580.8 166.3,662.4 168.1,662.4 168.1,579.6 '/>
		<polygon fill = 'rgb( 31, 120, 180)' fill-opacity = '0.250000' points = '168.1,579.6 168.1,662.4 170.0,662.4 170.0,578.4 '/>
		<polygon fill = 'rgb( 31, 120, 180)' fill-opacity = '0.250000' points = '170.0,578.4 170.0,662.4 171.9,662.4 171.9,577.1 '/>
		<polygon fill = 'rgb( 31, 120, 180)' fill-opacity = '0.250000' points = '171.9,577.1 171.9,662.4 173.8,662.4 173.8,575.9 '/>
		<polygon fill = 'rgb( 31, 120, 180)' fill-opacity = '0.250000' points = '173.8,575.9 173.8,662.4 175.7,662.4 175.7,574.6 '/>
		<polygon fill = 'rgb( 31, 120, 180)' fill-opacity = '0.250000' points = '175.7,574.6 175.7,662.4 177.6,662.4 177.6,573.3 '/>
		<polygon fill = 'rgb( 31, 120, 180)' fill-opacity = '0.250000' points = '177.6,573.3 177.6,662.4 179.5,662.4 179.5,572.0 '/>
		<polygon fill = 'rgb( 31, 120, 180)' fill-opacity = '0.250000' points = '179.5,572.0 179.5,662.4 181.4,662.4 181.4,570.7 '/>
		<polygon fill = 'rgb( 31, 120, 180)' fill-opacity = '0.250000' points = '181.4,570.7 181.4,662.4 183.2,662.4 183.2,569.4 '/>
		<polygon fill = 'rgb( 31, 120, 180)' fill-opacity = '0.250000' points = '183.2,569.4 183.2,662.4 185.1,662.4 185.1,568.1 '/>
		<polygon fill = 'rgb( 31, 120, 180)' fill-opacity = '0.250000' points = '185.1,568.1 185.1,662.4 187.0,662.4 187.0,566.8 '/>
		<polygon fill = 'rgb( 31, 120, 180)' fill-opacity = '0.250000' points = '187.0,566.8 187.0,662.4 188.9,662.4 188.9,565.4 '/>
		<polygon fill = 'rgb( 31, 120, 180)' fill-opacity = '0.250000' points = '188.9,565.4 188.9,662.4 190.8,662.4 190.8,564.1 '/>
		<polygon fill = 'rgb( 31, 120, 180)' fill-opacity = '0.250000' points = '190.8,564.1 190.8,662.4 192.7,662.4 192.7,562.8 '/>
		<polygon fill = 'rgb( 31, 120, 180)' fill-opacity = '0.250000' points = '192.7,562.8 192.7,662.4 194.6,662.4 194.6,561.5 '/>
		<polygon fill = 'rgb( 31, 120, 180)' fill-opacity = '0.250000' points = '194.6,561.5 194.6,662.4 196.5,662.4 196.5,560.2 '/>
		<polygon fill = 'rgb( 31, 120, 180)' fill-opacity = '0.250000' points = '196.5,560.2 196.5,662.4 198.3,662.4 198.3,559.0 '/>
		<polygon fill = 'rgb( 31, 120, 180)' fill-opacity = '0.250000' points = '198.3,559.0 198.3,662.4 200.2,662.4 200.2,557.7 '/>
		<polygon fill = 'rgb( 31, 120, 180)' fill-opacity = '0.250000' points = '200.2,557.7 200.2,662.4 202.1,662.4 202.1,556.4 '/>
		<polygon fill = 'rgb( 31, 120, 180)' fill-opacity = '0.250000' points = '202.1,556.4 202.1,662.4 204.0,662.4 204.0,555.1 '/>
		<polygon fill = 'rgb( 31, 120, 180)' fill-opacity = '0.250000' points = '204.0,555.1 204.0,662.4 205.9,662.4 205.9,553.8 '/>
		<polygon fill = 'rgb( 31, 120, 180)' fill-opacity = '0.250000' points = '205.9,553.8 205.9,662.4 207.8,662.4 207.8,552.5 '/>
		<polygon fill = 'rgb( 31, 120, 180)' fill-opacity = '0.250000' points = '207.8,552.5 207.8,662.4 209.7,662.4 209.7,551.1 '/>
		<polygon fill = 'rgb( 31, 120, 180)' fill-opacity = '0.250000' points = '209.7,551.1 209.7,662.4 211.6,662.4 211.6,549.7 '/>
		<polygon fill = 'rgb( 31, 120, 180)' fill-opacity = '0.250000' points = '211.6,549.7 211.6,662.4 213.4,662.4 213.4,548.2 '/>
		<polygon fill = 'rgb( 31, 120, 180)' fill-opacity = '0.250000' points = '213.4,548.2 213.4,662.4 215.3,662.4 215.3,546.6 '/>
		<polygon fill = 'rgb( 31, 120, 180)' fill-opacity = '0.250000' points = '215.3,546.6 215.3,662.4 217.2,662.4 217.2,545.0 '/>
		<polygon fill = 'rgb( 31, 120, 180)' fill-opacity = '0.250000' points = '217.2,545.0 217.2,662.4 219.1,662.4 219.1,543.2 '/>
		<polygon fill = 'rgb( 31, 120, 180)' fill-opacity = '0.250000' points = '219.1,543.2 219.1,662.4 221.0,662.4 221.0,541.3 '/>
		<polygon fill = 'rgb( 31, 120, 180)' fill-opacity = '0.250000' points = '221.0,541.3 221.0,662.4 222.9,662.4 222.9,539.3 '/>
		<polygon fill = 'rgb( 31, 120, 180)' fill-opacity = '0.250000' points = '222.9,539.3 222.9,662.4 224.8,662.4 224.8,537.2 '/>
		<polygon fill = 'rgb( 31, 120, 180)' fill-opacity = '0.250000' points = '224.8,537.2 224.8,662.4 226.6,662.4 226.6,535.0 '/>
		<polygon fill = 'rgb( 31, 120, 180)' fill-opacity = '0.250000' points = '226.6,535.0 226.6,662.4 228.5,662.4 228.5,532.7 '/>
		<polygon fill = 'rgb( 31, 120, 180)' fill-opacity = '0.250000' points = '228.5,532.7 228.5,662.4 230.4,662.4 230.4,530.2 '/>
		<polygon fill = 'rgb( 31, 120, 180)' fill-opacity = '0.250000' points = '230.4,530.2 230.4,662.4 232.3,662.4 232.3,527.7 '/>
		<polygon fill = 'rgb( 31, 120, 180)' fill-opacity = '0.250000' points = '232.3,527.7 232.3,662.4 234.2,662.4 234.2,525.2 '/>
		<polygon fill = 'rgb( 31, 120, 180)' fill-opacity = '0.250000' points = '234.2,525.2 234.2,662.4 236.1,662.4 236.1,522.6 '/>
		<polygon fill = 'rgb( 31, 120, 180)' fill-opacity = '0.250000' points = '236.1,522.6 236.1,662.4 238.0,662.4 238.0,520.0 '/>
		<polygon fill = 'rgb( 31, 120, 180)' fill-opacity = '0.250000' points = '238.0,520.0 238.0,662.4 239.9,662.4 239.9,517.3 '/>
		<polygon fill = 'rgb( 31, 120, 180)' fill-opacity = '0.250000' points = '239.9,517.3 239.9,662.4 241.7,662.4 241.7,514.8 '/>
		<polygon fill = 'rgb( 31, 120, 180)' fill-opacity = '0.250000' points = '241.7,514.8 241.7,662.4 243.6,662.4 243.6,512.2 '/>
		<polygon fill = 'rgb( 31, 120, 180)' fill-opacity = '0.250000' points = '243.6,512.2 243.6,662.4 245.5,662.4 245.5,509.8 '/>
		<polygon fill = 'rgb( 31, 120, 180)' fill-opacity = '0.250000' points = '245.5,509.8 245.5,662.4 247.4,662.4 247.4,507.4 '/>
		<polygon fill = 'rgb( 31, 120, 180)' fill-opacity = '0.250000' points = '247.4,507.4 247.4,662.4 249.3,662.4 249.3,505.2 '/>
		<polygon fill = 'rgb( 31, 120, 180)' fill-opacity = '0.250000' points = '249.3,505.2 249.3,662.4 251.2,662.4 251.2,503.0 '/>
		<polygon fill = 'rgb( 31, 120, 180)' fill-opacity = '0.250000' points = '251.2,503.0 251.2,662.4 253.1,662.4 253.1,501.0 '/>
		<polygon fill = 'rgb( 31, 120, 180)' fill-opacity = '0.250000' points = '253.1,501.0 253.1,662.4 255.0,662.4 255.0,499.2 '/>
		<polygon fill = 'rgb( 31, 120, 180)' fill-opacity = '0.250000' points = '255.0,499.2 255.0,662.4 256.8,662.4 256.8,497.5 '/>
		<polygon fill = 'rgb( 31, 120, 180)' fill-opacity = '0.250000' points = '256.8,497.5 256.8,662.4 258.7,662.4 258.7,495.9 '/>
		<polygon fill = 'rgb( 31, 120, 180)' fill-opacity = '0.250000' points = '258.7,495.9 258.7,662.4 260.6,662.4 260.6,494.4 '/>
		<polygon fill = 'rgb( 31, 120, 180)' fill-opacity = '0.250000' points = '260.6,494.4 260.6,662.4 262.5,662.4 262.5,493.0 '/>
		<polygon fill = 'rgb( 31, 120, 180)' fill-opacity = '0.250000' points = '262.5,493.0 262.5,662.4 264.4,662.4 264.4,491.7 '/>
		<polygon fill = 'rgb( 31, 120, 180)' fill-opacity = '0.250000' points = '264.4,491.7 264.4,662.4 266.3,662.4 266.3,490.5 '/>
		<polygon fill = 'rgb( 31, 120, 180)' fill-opacity = '0.250000' points = '266.3,490.5 266.3,662.4 268.2,662.4 268.2,489.4 '/>
		<polygon fill = 'rgb( 31, 120, 180)' fill-opacity = '0.250000' points = '268.2,489.4 268.2,662.4 270.1,662.4 270.1,488.4 '/>
		<polygon fill = 'rgb( 31, 120, 180)' fill-opacity = '0.250000' points = '270.1,488.4 270.1,662.4 271.9,662.4 271.9,487.4 '/>
		<polygon fill = 'rgb( 31, 120, 180)' fill-opacity = '0.250000' points = '271.9,487.4 271.9,662.4 273.8,662.4 273.8,486.4 '/>
		<polygon fill = 'rgb( 31, 120, 180)' fill-opacity = '0.250000' points = '273.8,486.4 273.8,662.4 275.7,662.4 275.7,485.5 '/>
		<polygon fill = 'rgb( 31, 120, 180)' fill-opacity = '0.250000' points = '275.7,485.5 275.7,662.4 277.6,662.4 277.6,484.6 '/>
		<polygon fill = 'rgb( 31, 120, 180)' fill-opacity = '0.250000' points = '277.6,484.6 277.6,662.4 279.5,662.4 279.5,483.7 '/>
		<polygon fill = 'rgb( 31, 120, 180)' fill-opacity = '0.250000' points = '279.5,483.7 279.5,662.4 281.4,662.4 281.4,482.9 '/>
		<polygon fill = 'rgb( 31, 120, 180)' fill-opacity = '0.250000' points = '281.4,482.9 281.4,662.4 283.3,662.4 283.3,482.1 '/>
		<polygon fill = 'rgb( 31, 120, 180)' fill-opacity = '0.250000' points = '283.3,482.1 283.3,662.4 285.2,662.4 285.2,481.4 '/>
		<polygon fill = 'rgb( 31, 120, 180)' fill-opacity = '0.250000' points = '285.2,481.4 285.2,662.4 287.0,662.4 287.0,480.7 '/>
		<polygon fill = 'rgb( 31, 120, 180)' fill-opacity = '0.250000' points = '287.0,480.7 287.0,662.4 288.9,662.4 288.9,480.1 '/>
		<polygon fill = 'rgb( 31, 120, 180)' fill-opacity = '0.250000' points = '288.9,480.1 288.9,662.4 290.8,662.4 290.8,479.6 '/>
		<polygon fill = 'rgb( 31, 120, 180)' fill-opacity = '0.250000' points = '290.8,479.6 290.8,662.4 292.7,662.4 292.7,479.1 '/>
		<polygon fill = 'rgb( 31, 120, 180)' fill-opacity = '0.250000' points = '292.7,479.1 292.7,662.4 294.6,662.4 294.6,478.8 '/>
		<polygon fill = 'rgb( 31, 120, 180)' fill-opacity = '0.250000' points = '294.6,478.8 294.6,662.4 296.5,662.4 296.5,478.5 '/>
		<polygon fill = 'rgb( 31, 120, 180)' fill-opacity = '0.250000' points = '296.5,478.5 296.5,662.4 298.4,662.4 298.4,478.2 '/>
		<polygon fill = 'rgb( 31, 120, 180)' fill-opacity = '0.250000' points = '298.4,478.2 298.4,662.4 300.2,662.4 300.2,478.0 '/>
		<polygon fill = 'rgb( 31, 120, 180)' fill-opacity = '0.250000' points = '300.2,478.0 300.2,662.4 302.1,662.4 302.1,477.9 '/>
		<polygon fill = 'rgb( 31, 120, 180)' fill-opacity = '0.250000' points = '302.1,477.9 302.1,662.4 304.0,662.4 304.0,477.7 '/>
		<polygon fill = 'rgb( 31, 120, 180)' fill-opacity = '0.250000' points = '304.0,477.7 304.0,662.4 305.9,662.4 305.9,477.6 '/>
		<polygon fill = 'rgb( 31, 120, 180)' fill-opacity = '0.250000' points = '305.9,477.6 305.9,662.4 307.8,662.4 307.8,477.4 '/>
		<polygon fill = 'rgb( 31, 120, 180)' fill-opacity = '0.250000' points = '307.8,477.4 307.8,662.4 309.7,662.4 309.7,477.2 '/>
		<polygon fill = 'rgb( 31, 120, 180)' fill-opacity = '0.250000' points = '309.7,477.2 309.7,662.4 311.6,662.4 311.6,476.9 '/>
		<polygon fill = 'rgb( 31, 120, 180)' fill-opacity = '0.250000' points = '311.6,476.9 311.6,662.4 313.5,662.4 313.5,476.5 '/>
		<polygon fill = 'rgb( 31, 120, 180)' fill-opacity = '0.250000' points = '313.5,476.5 313.5,662.4 315.3,662.4 315.3,475.9 '/>
		<polygon fill = 'rgb( 31, 120, 180)' fill-opacity = '0.250000' points = '315.3,475.9 315.3,662.4 317.2,662.4 317.2,475.2 '/>
		<polygon fill = 'rgb( 31, 120, 180)' fill-opacity = '0.250000' points = '317.2,475.2 317.2,662.4 319.1,662.4 319.1,474.4 '/>
		<polygon fill = 'rgb( 31, 120, 180)' fill-opacity = '0.250000' points = '319.1,474.4 319.1,662.4 321.0,662.4 321.0,473.4 '/>
		<polygon fill = 'rgb( 31, 120, 180)' fill-opacity = '0.250000' points = '321.0,473.4 321.0,662.4 322.9,662.4 322.9,472.2 '/>
		<polygon fill = 'rgb( 31, 120, 180)' fill-opacity = '0.250000' points = '322.9,472.2 322.9,662.4 324.8,662.4 324.8,470.9 '/>
		<polygon fill = 'rgb( 31, 120, 180)' fill-opacity = '0.250000' points = '324.8,470.9 324.8,662.4 326.7,662.4 326.7,469.5 '/>
		<polygon fill = 'rgb( 31, 120, 180)' fill-opacity = '0.250000' points = '326.7,469.5 326.7,662.4 328.6,662.4 328.6,468.0 '/>
		<polygon fill = 'rgb( 31, 120, 180)' fill-opacity = '0.250000' points = '328.6,468.0 328.6,662.4 330.4,662.4 330.4,466.4 '/>
		<polygon fill = 'rgb( 31, 120, 180)' fill-opacity = '0.250000' points = '330.4,466.4 330.4,662.4 332.3,662.4 332.3,464.8 '/>
		<polygon fill = 'rgb( 31, 120, 180)' fill-opacity = '0.250000' points = '332.3,464.8 332.3,662.4 334.2,662.4 334.2,463.2 '/>
		<polygon fill = 'rgb( 31, 120, 180)' fill-opacity = '0.250000' points = '334.2,463.2 334.2,662.4 336.1,662.4 336.1,461.6 '/>
		<polygon fill = 'rgb( 31, 120, 180)' fill-opacity = '0.250000' points = '336.1,461.6 336.1,662.4 338.0,662.4 338.0,460.1 '/>
		<polygon fill = 'rgb( 31, 120, 180)' fill-opacity = '0.250000' points = '338.0,460.1 338.0,662.4 339.9,662.4 339.9,458.7 '/>
		<polygon fill = 'rgb( 31, 120, 180)' fill-opacity = '0.250000' points = '339.9,458.7 339.9,662.4 341.8,662.4 341.8,457.3 '/>
		<polygon fill = 'rgb( 31, 120, 180)' fill-opacity = '0.250000' points = '341.8,457.3 341.8,662.4 343.7,662.4 343.7,456.2 '/>
		<polygon fill = 'rgb( 31, 120, 180)' fill-opacity = '0.250000' points = '343.7,456.2 343.7,662.4 345.5,662.4 345.5,455.1 '/>
		<polygon fill = 'rgb( 31, 120, 180)' fill-opacity = '0.250000' points = '345.5,455.1 345.5,662.4 347.4,662.4 347.4,454.1 '/>
		<polygon fill = 'rgb( 31, 120, 180)' fill-opacity = '0.250000' points = '347.4,454.1 347.4,662.4 349.3,662.4 349.3,453.3 '/>
		<polygon fill = 'rgb( 31, 120, 180)' fill-opacity = '0.250000' points = '349.3,453.3 349.3,662.4 351.2,662.4 351.2,452.6 '/>
		<polygon fill = 'rgb( 31, 120, 180)' fill-opacity = '0.250000' points = '351.2,452.6 351.2,662.4 353.1,662.4 353.1,451.9 '/>
		<polygon fill = 'rgb( 31, 120, 180)' fill-opacity = '0.250000' points = '353.1,451.9 353.1,662.4 355.0,662.4 355.0,451.2 '/>
		<polygon fill = 'rgb( 31, 120, 180)' fill-opacity = '0.250000' points = '355.0,451.2 355.0,662.4 356.9,662.4 356.9,450.5 '/>
		<polygon fill = 'rgb( 31, 120, 180)' fill-opacity = '0.250000' points = '356.9,450.5 356.9,662.4 358.8,662.4 358.8,449.8 '/>
		<polygon fill = 'rgb( 31, 120, 180)' fill-opacity = '0.250000' points = '358.8,449.8 358.8,662.4 360.6,662.4 360.6,449.0 '/>
		<polygon fill = 'rgb( 31, 120, 180)' fill-opacity = '0.250000' points = '360.6,449.0 360.6,662.4 362.5,662.4 362.5,448.0 '/>
		<polygon fill = 'rgb( 31, 120, 180)' fill-opacity = '0.250000' points = '362.5,448.0 362.5,662.4 364.4,662.4 364.4,446.9 '/>
		<polygon fill = 'rgb( 31, 120, 180)' fill-opacity = '0.250000' points = '364.4,446.9 364.4,662.4 366.3,662.4 366.3,445.6 '/>
		<polygon fill = 'rgb( 31, 120, 180)' fill-opacity = '0.250000' points = '366.3,445.6 366.3,662.4 368.2,662.4 368.2,444.1 '/>
		<polygon fill = 'rgb( 31, 120, 180)' fill-opacity = '0.250000' points = '368.2,444.1 368.2,662.4 370.1,662.4 370.1,442.4 '/>
		<polygon fill = 'rgb( 31, 120, 180)' fill-opacity = '0.250000' points = '370.1,442.4 370.1,662.4 372.0,662.4 372.0,440.6 '/>
		<polygon fill = 'rgb( 31, 120, 180)' fill-opacity = '0.250000' points = '372.0,440.6 372.0,662.4 373.8,662.4 373.8,438.5 '/>
		<polygon fill = 'rgb( 31, 120, 180)' fill-opacity = '0.250000' points = '373.8,438.5 373.8,662.4 375.7,662.4 375.7,436.3 '/>
		<polygon fill = 'rgb( 31, 120, 180)' fill-opacity = '0.250000' points = '375.7,436.3 375.7,662.4 377.6,662.4 377.6,434.0 '/>
		<polygon fill = 'rgb( 31, 120, 180)' fill-opacity = '0.250000' points = '377.6,434.0 377.6,662.4 379.5,662.4 379.5,431.6 '/>
		<polygon fill = 'rgb( 31, 120, 180)' fill-opacity = '0.250000' points = '379.5,431.6 379.5,662.4 381.4,662.4 381.4,429.3 '/>
		<polygon fill = 'rgb( 31, 120, 180)' fill-opacity = '0.250000' points = '381.4,429.3 381.4,662.4 383.3,662.4 383.3,426.9 '/>
		<polygon fill = 'rgb( 31, 120, 180)' fill-opacity = '0.250000' points = '383.3,426.9 383.3,662.4 385.2,662.4 385.2,424.7 '/>
		<polygon fill = 'rgb( 31, 120, 180)' fill-opacity = '0.250000' points = '385.2,424.7 385.2,662.4 387.1,662.4 387.1,422.6 '/>
		<polygon fill = 'rgb( 31, 120, 180)' fill-opacity = '0.250000' points = '387.1,422.6 387.1,662.4 388.9,662.4 388.9,420.6 '/>
		<polygon fill = 'rgb( 31, 120, 180)' fill-opacity = '0.250000' points = '388.9,420.6 388.9,662.4 390.8,662.4 390.8,418.9 '/>
		<polygon fill = 'rgb( 31, 120, 180)' fill-opacity = '0.250000' points = '390.8,418.9 390.8,662.4 392.7,662.4 392.7,417.4 '/>
		<polygon fill = 'rgb( 31, 120, 180)' fill-opacity = '0.250000' points = '392.7,417.4 392.7,662.4 394.6,662.4 394.6,416.2 '/>
		<polygon fill = 'rgb( 31, 120, 180)' fill-opacity = '0.250000' points = '394.6,416.2 394.6,662.4 396.5,662.4 396.5,415.2 '/>
		<polygon fill = 'rgb( 31, 120, 180)' fill-opacity = '0.250000' points = '396.5,415.2 396.5,662.4 398.4,662.4 398.4,414.4 '/>
		<polygon fill = 'rgb( 31, 120, 180)' fill-opacity = '0.250000' points = '398.4,414.4 398.4,662.4 400.3,662.4 400.3,413.8 '/>
		<polygon fill = 'rgb( 31, 120, 180)' fill-opacity = '0.250000' points = '400.3,413.8 400.3,662.4 402.2,662.4 402.2,413.3 '/>
		<polygon fill = 'rgb( 31, 120, 180)' fill-opacity = '0.250000' points = '402.2,413.3 402.2,662.4 404.0,662.4 404.0,413.0 '/>
		<polygon fill = 'rgb( 31, 120, 180)' fill-opacity = '0.250000' points = '404.0,413.0 404.0,662.4 405.9,662.4 405.9,412.7 '/>
		<polygon fill = 'rgb( 31, 120, 180)' fill-opacity = '0.250000' points = '405.9,412.7 405.9,662.4 407.8,662.4 407.8,412.3 '/>
		<polygon fill = 'rgb( 31, 120, 180)' fill-opacity = '0.250000' points = '407.8,412.3 407.8,662.4 409.7,662.4 409.7,411.9 '/>
		<polygon fill = 'rgb( 31, 120, 180)' fill-opacity = '0.250000' points = '409.7,411.9 409.7,662.4 411.6,662.4 411.6,411.3 '/>
		<polygon fill = 'rgb( 31, 120, 180)' fill-opacity = '0.250000' points = '411.6,411.3 411.6,662.4 413.5,662.4 413.5,410.5 '/>
		<polygon fill = 'rgb( 31, 120, 180)' fill-opacity = '0.250000' points = '413.5,410.5 413.5,662.4 415.4,662.4 415.4,409.4 '/>
		<polygon fill = 'rgb( 31, 120, 180)' fill-opacity = '0.250000' points = '415.4,409.4 415.4,662.4 417.3,662.4 417.3,407.9 '/>
		<polygon fill = 'rgb( 31, 120, 180)' fill-opacity = '0.250000' points = '417.3,407.9 417.3,662.4 419.1,662.4 419.1,406.1 '/>
		<polygon fill = 'rgb( 31, 120, 180)' fill-opacity = '0.250000' points = '419.1,406.1 419.1,662.4 421.0,662.4 421.0,403.8 '/>
		<polygon fill = 'rgb( 31, 120, 180)' fill-opacity = '0.250000' points = '421.0,403.8 421.0,662.4 422.9,662.4 422.9,401.2 '/>
		<polygon fill = 'rgb( 31, 120, 180)' fill-opacity = '0.250000' points = '422.9,401.2 422.9,662.4 424.8,662.4 424.8,398.1 '/>
		<polygon fill = 'rgb( 31, 120, 180)' fill-opacity = '0.250000' points = '424.8,398.1 424.8,662.4 426.7,662.4 426.7,394.6 '/>
		<polygon fill = 'rgb( 31, 120, 180)' fill-opacity = '0.250000' points = '426.7,394.6 426.7,662.4 428.6,662.4 428.6,390.8 '/>
		<polygon fill = 'rgb( 31, 120, 180)' fill-opacity = '0.250000' points = '428.6,390.8 428.6,662.4 430.5,662.4 430.5,386.6 '/>
		<polygon fill = 'rgb( 31, 120, 180)' fill-opacity = '0.250000' points = '430.5,386.6 430.5,662.4 432.4,662.4 432.4,382.2 '/>
		<polygon fill = 'rgb( 31, 120, 180)' fill-opacity = '0.250000' points = '432.4,382.2 432.4,662.4 434.2,662.4 434.2,377.6 '/>
		<polygon fill = 'rgb( 31, 120, 180)' fill-opacity = '0.250000' points = '434.2,377.6 434.2,662.4 436.1,662.4 436.1,372.8 '/>
		<polygon fill = 'rgb( 31, 120, 180)' fill-opacity = '0.250000' points = '436.1,372.8 436.1,662.4 438.0,662.4 438.0,368.0 '/>
		<polygon fill = 'rgb( 31, 120, 180)' fill-opacity = '0.250000' points = '438.0,368.0 438.0,662.4 439.9,662.4 439.9,363.2 '/>
		<polygon fill = 'rgb( 31, 120, 180)' fill-opacity = '0.250000' points = '439.9,363.2 439.9,662.4 441.8,662.4 441.8,358.5 '/>
		<polygon fill = 'rgb( 31, 120, 180)' fill-opacity = '0.250000' points = '441.8,358.5 441.8,662.4 443.7,662.4 443.7,354.0 '/>
		<polygon fill = 'rgb( 31, 120, 180)' fill-opacity = '0.250000' points = '443.7,354.0 443.7,662.4 445.6,662.4 445.6,349.7 '/>
		<polygon fill = 'rgb( 31, 120, 180)' fill-opacity = '0.250000' points = '445.6,349.7 445.6,662.4 447.4,662.4 447.4,345.6 '/>
		<polygon fill = 'rgb( 31, 120, 180)' fill-opacity = '0.250000' points = '447.4,345.6 447.4,662.4 449.3,662.4 449.3,341.8 '/>
		<polygon fill = 'rgb( 31, 120, 180)' fill-opacity = '0.250000' points = '449.3,341.8 449.3,662.4 451.2,662.4 451.2,338.3 '/>
		<polygon fill = 'rgb( 31, 120, 180)' fill-opacity = '0.250000' points = '451.2,338.3 451.2,662.4 453.1,662.4 453.1,335.1 '/>
		<polygon fill = 'rgb( 31, 120, 180)' fill-opacity = '0.250000' points = '453.1,335.1 453.1,662.4 455.0,662.4 455.0,332.2 '/>
		<polygon fill = 'rgb( 31, 120, 180)' fill-opacity = '0.250000' points = '455.0,332.2 455.0,662.4 456.9,662.4 456.9,329.5 '/>
		<polygon fill = 'rgb( 31, 120, 180)' fill-opacity = '0.250000' points = '456.9,329.5 456.9,662.4 458.8,662.4 458.8,327.1 '/>
		<polygon fill = 'rgb( 31, 120, 180)' fill-opacity = '0.250000' points = '458.8,327.1 458.8,662.4 460.7,662.4 460.7,324.8 '/>
		<polygon fill = 'rgb( 31, 120, 180)' fill-opacity = '0.250000' points = '460.7,324.8 460.7,662.4 462.5,662.4 462.5,322.7 '/>
		<polygon fill = 'rgb( 31, 120, 180)' fill-opacity = '0.250000' points = '462.5,322.7 462.5,662.4 464.4,662.4 464.4,320.6 '/>
		<polygon fill = 'rgb( 31, 120, 180)' fill-opacity = '0.250000' points = '464.4,320.6 464.4,662.4 466.3,662.4 466.3,318.5 '/>
		<polygon fill = 'rgb( 31, 120, 180)' fill-opacity = '0.250000' points = '466.3,318.5 466.3,662.4 468.2,662.4 468.2,316.3 '/>
		<polygon fill = 'rgb( 31, 120, 180)' fill-opacity = '0.250000' points = '468.2,316.3 468.2,662.4 470.1,662.4 470.1,313.9 '/>
		<polygon fill = 'rgb( 31, 120, 180)' fill-opacity = '0.250000' points = '470.1,313.9 470.1,662.4 472.0,662.4 472.0,311.4 '/>
		<polygon fill = 'rgb( 31, 120, 180)' fill-opacity = '0.250000' points = '472.0,311.4 472.0,662.4 473.9,662.4 473.9,308.6 '/>
		<polygon fill = 'rgb( 31, 120, 180)' fill-opacity = '0.250000' points = '473.9,308.6 473.9,662.4 475.8,662.4 475.8,305.5 '/>
		<polygon fill = 'rgb( 31, 120, 180)' fill-opacity = '0.250000' points = '475.8,305.5 475.8,662.4 477.6,662.4 477.6,302.2 '/>
		<polygon fill = 'rgb( 31, 120, 180)' fill-opacity = '0.250000' points = '477.6,302.2 477.6,662.4 479.5,662.4 479.5,298.5 '/>
		<polygon fill = 'rgb( 31, 120, 180)' fill-opacity = '0.250000' points = '479.5,298.5 479.5,662.4 481.4,662.4 481.4,294.6 '/>
		<polygon fill = 'rgb( 31, 120, 180)' fill-opacity = '0.250000' points = '481.4,294.6 481.4,662.4 483.3,662.4 483.3,290.4 '/>
		<polygon fill = 'rgb( 31, 120, 180)' fill-opacity = '0.250000' points = '483.3,290.4 483.3,662.4 485.2,662.4 485.2,286.1 '/>
		<polygon fill = 'rgb( 31, 120, 180)' fill-opacity = '0.250000' points = '485.2,286.1 485.2,662.4 487.1,662.4 487.1,281.5 '/>
		<polygon fill = 'rgb( 31, 120, 180)' fill-opacity = '0.250000' points = '487.1,281.5 487.1,662.4 489.0,662.4 489.0,276.9 '/>
		<polygon fill = 'rgb( 31, 120, 180)' fill-opacity = '0.250000' points = '489.0,276.9 489.0,662.4 490.9,662.4 490.9,272.2 '/>
		<polygon fill = 'rgb( 31, 120, 180)' fill-opacity = '0.250000' points = '490.9,272.2 490.9,662.4 492.7,662.4 492.7,267.6 '/>
		<polygon fill = 'rgb( 31, 120, 180)' fill-opacity = '0.250000' points = '492.7,267.6 492.7,662.4 494.6,662.4 494.6,263.1 '/>
		<polygon fill = 'rgb( 31, 120, 180)' fill-opacity = '0.250000' points = '494.6,263.1 494.6,662.4 496.5,662.4 496.5,258.9 '/>
		<polygon fill = 'rgb( 31, 120, 180)' fill-opacity = '0.250000' points = '496.5,258.9 496.5,662.4 498.4,662.4 498.4,254.8 '/>
		<polygon fill = 'rgb( 31, 120, 180)' fill-opacity = '0.250000' points = '498.4,254.8 498.4,662.4 500.3,662.4 500.3,251.2 '/>
		<polygon fill = 'rgb( 31, 120, 180)' fill-opacity = '0.250000' points = '500.3,251.2 500.3,662.4 502.2,662.4 502.2,247.9 '/>
		<polygon fill = 'rgb( 31, 120, 180)' fill-opacity = '0.250000' points = '502.2,247.9 502.2,662.4 504.1,662.4 504.1,245.0 '/>
		<polygon fill = 'rgb( 31, 120, 180)' fill-opacity = '0.250000' points = '504.1,245.0 504.1,662.4 506.0,662.4 506.0,242.6 '/>
		<polygon fill = 'rgb( 31, 120, 180)' fill-opacity = '0.250000' points = '506.0,242.6 506.0,662.4 507.8,662.4 507.8,240.6 '/>
		<polygon fill = 'rgb( 31, 120, 180)' fill-opacity = '0.250000' points = '507.8,240.6 507.8,662.4 509.7,662.4 509.7,239.2 '/>
		<polygon fill = 'rgb( 31, 120, 180)' fill-opacity = '0.250000' points = '509.7,239.2 509.7,662.4 511.6,662.4 511.6,238.1 '/>
		<polygon fill = 'rgb( 31, 120, 180)' fill-opacity = '0.250000' points = '511.6,238.1 511.6,662.4 513.5,662.4 513.5,237.5 '/>
		<polygon fill = 'rgb( 31, 120, 180)' fill-opacity = '0.250000' points = '513.5,237.5 513.5,662.4 515.4,662.4 515.4,237.2 '/>
		<polygon fill = 'rgb( 31, 120, 180)' fill-opacity = '0.250000' points = '515.4,237.2 515.4,662.4 517.3,662.4 517.3,237.3 '/>
		<polygon fill = 'rgb( 31, 120, 180)' fill-opacity = '0.250000' points = '517.3,237.3 517.3,662.4 519.2,662.4 519.2,237.6 '/>
		<polygon fill = 'rgb( 31, 120, 180)' fill-opacity = '0.250000' points = '519.2,237.6 519.2,662.4 521.0,662.4 521.0,238.0 '/>
		<polygon fill = 'rgb( 31, 120, 180)' fill-opacity = '0.250000' points = '521.0,238.0 521.0,662.4 522.9,662.4 522.9,238.6 '/>
		<polygon fill = 'rgb( 31, 120, 180)' fill-opacity = '0.250000' points = '522.9,238.6 522.9,662.4 524.8,662.4 524.8,239.2 '/>
		<polygon fill = 'rgb( 31, 120, 180)' fill-opacity = '0.250000' points = '524.8,239.2 524.8,662.4 526.7,662.4 526.7,239.7 '/>
		<polygon fill = 'rgb( 31, 120, 180)' fill-opacity = '0.250000' points = '526.7,239.7 526.7,662.4 528.6,662.4 528.6,240.1 '/>
		<polygon fill = 'rgb( 31, 120, 180)' fill-opacity = '0.250000' points = '528.6,240.1 528.6,662.4 530.5,662.4 530.5,240.4 '/>
		<polygon fill = 'rgb( 31, 120, 180)' fill-opacity = '0.250000' points = '530.5,240.4 530.5,662.4 532.4,662.4 532.4,240.5 '/>
		<polygon fill = 'rgb( 31, 120, 180)' fill-opacity = '0.250000' points = '532.4,240.5 532.4,662.4 534.3,662.4 534.3,240.3 '/>
		<polygon fill = 'rgb( 31, 120, 180)' fill-opacity = '0.250000' points = '534.3,240.3 534.3,662.4 536.1,662.4 536.1,239.9 '/>
		<polygon fill = 'rgb( 31, 120, 180)' fill-opacity = '0.250000' points = '536.1,239.9 536.1,662.4 538.0,662.4 538.0,239.2 '/>
		<polygon fill = 'rgb( 31, 120, 180)' fill-opacity = '0.250000' points = '538.0,239.2 538.0,662.4 539.9,662.4 539.9,238.3 '/>
		<polygon fill = 'rgb( 31, 120, 180)' fill-opacity = '0.250000' points = '539.9,238.3 539.9,662.4 541.8,662.4 541.8,237.2 '/>
		<polygon fill = 'rgb( 31, 120, 180)' fill-opacity = '0.250000' points = '541.8,237.2 541.8,662.4 543.7,662.4 543.7,236.0 '/>
		<polygon fill = 'rgb( 31, 120, 180)' fill-opacity = '0.250000' points = '543.7,236.0 543.7,662.4 545.6,662.4 545.6,234.5 '/>
		<polygon fill = 'rgb( 31, 120, 180)' fill-opacity = '0.250000' points = '545.6,234.5 545.6,662.4 547.5,662.4 547.5,233.0 '/>
		<polygon fill = 'rgb( 31, 120, 180)' fill-opacity = '0.250000' points = '547.5,233.0 547.5,662.4 549.4,662.4 549.4,231.5 '/>
		<polygon fill = 'rgb( 31, 120, 180)' fill-opacity = '0.250000' points = '549.4,231.5 549.4,662.4 551.2,662.4 551.2,230.0 '/>
		<polygon fill = 'rgb( 31, 120, 180)' fill-opacity = '0.250000' points = '551.2,230.0 551.2,662.4 553.1,662.4 553.1,228.6 '/>
		<polygon fill = 'rgb( 31, 120, 180)' fill-opacity = '0.250000' points = '553.1,228.6 553.1,662.4 555.0,662.4 555.0,227.3 '/>
		<polygon fill = 'rgb( 31, 120, 180)' fill-opacity = '0.250000' points = '555.0,227.3 555.0,662.4 556.9,662.4 556.9,226.2 '/>
		<polygon fill = 'rgb( 31, 120, 180)' fill-opacity = '0.250000' points = '556.9,226.2 556.9,662.4 558.8,662.4 558.8,225.3 '/>
		<polygon fill = 'rgb( 31, 120, 180)' fill-opacity = '0.250000' points = '558.8,225.3 558.8,662.4 560.7,662.4 560.7,224.6 '/>
		<polygon fill = 'rgb( 31, 120, 180)' fill-opacity = '0.250000' points = '560.7,224.6 560.7,662.4 562.6,662.4 562.6,224.2 '/>
		<polygon fill = 'rgb( 31, 120, 180)' fill-opacity = '0.250000' points = '562.6,224.2 562.6,662.4 564.5,662.4 564.5,224.0 '/>
		<polygon fill = 'rgb( 31, 120, 180)' fill-opacity = '0.250000' points = '564.5,224.0 564.5,662.4 566.3,662.4 566.3,224.1 '/>
		<polygon fill = 'rgb( 31, 120, 180)' fill-opacity = '0.250000' points = '566.3,224.1 566.3,662.4 568.2,662.4 568.2,224.4 '/>
		<polygon fill = 'rgb( 31, 120, 180)' fill-opacity = '0.250000' points = '568.2,224.4 568.2,662.4 570.1,662.4 570.1,224.9 '/>
		<polygon fill = 'rgb( 31, 120, 180)' fill-opacity = '0.250000' points = '570.1,224.9 570.1,662.4 572.0,662.4 572.0,225.6 '/>
		<polygon fill = 'rgb( 31, 120, 180)' fill-opacity = '0.250000' points = '572.0,225.6 572.0,662.4 573.9,662.4 573.9,226.5 '/>
		<polygon fill = 'rgb( 31, 120, 180)' fill-opacity = '0.250000' points = '573.9,226.5 573.9,662.4 575.8,662.4 575.8,227.5 '/>
		<polygon fill = 'rgb( 31, 120, 180)' fill-opacity = '0.250000' points = '575.8,227.5 575.8,662.4 577.7,662.4 577.7,228.7 '/>
		<polygon fill = 'rgb( 31, 120, 180)' fill-opacity = '0.250000' points = '577.7,228.7 577.7,662.4 579.5,662.4 579.5,229.8 '/>
		<polygon fill = 'rgb( 31, 120, 180)' fill-opacity = '0.250000' points = '579.5,229.8 579.5,662.4 581.4,662.4 581.4,231.1 '/>
		<polygon fill = 'rgb( 31, 120, 180)' fill-opacity = '0.250000' points = '581.4,231.1 581.4,662.4 583.3,662.4 583.3,232.3 '/>
		<polygon fill = 'rgb( 31, 120, 180)' fill-opacity = '0.250000' points = '583.3,232.3 583.3,662.4 585.2,662.4 585.2,233.5 '/>
		<polygon fill = 'rgb( 31, 120, 180)' fill-opacity = '0.250000' points = '585.2,233.5 585.2,662.4 587.1,662.4 587.1,234.8 '/>
		<polygon fill = 'rgb( 31, 120, 180)' fill-opacity = '0.250000' points = '587.1,234.8 587.1,662.4 589.0,662.4 589.0,235.9 '/>
		<polygon fill = 'rgb( 31, 120, 180)' fill-opacity = '0.250000' points = '589.0,235.9 589.0,662.4 590.9,662.4 590.9,237.1 '/>
		<polygon fill = 'rgb( 31, 120, 180)' fill-opacity = '0.250000' points = '590.9,237.1 590.9,662.4 592.8,662.4 592.8,238.2 '/>
		<polygon fill = 'rgb( 31, 120, 180)' fill-opacity = '0.250000' points = '592.8,238.2 592.8,662.4 594.6,662.4 594.6,239.3 '/>
		<polygon fill = 'rgb( 31, 120, 180)' fill-opacity = '0.250000' points = '594.6,239.3 594.6,662.4 596.5,662.4 596.5,240.3 '/>
		<polygon fill = 'rgb( 31, 120, 180)' fill-opacity = '0.250000' points = '596.5,240.3 596.5,662.4 598.4,662.4 598.4,241.4 '/>
		<polygon fill = 'rgb( 31, 120, 180)' fill-opacity = '0.250000' points = '598.4,241.4 598.4,662.4 600.3,662.4 600.3,242.4 '/>
		<polygon fill = 'rgb( 31, 120, 180)' fill-opacity = '0.250000' points = '600.3,242.4 600.3,662.4 602.2,662.4 602.2,243.4 '/>
		<polygon fill = 'rgb( 31, 120, 180)' fill-opacity = '0.250000' points = '602.2,243.4 602.2,662.4 604.1,662.4 604.1,244.3 '/>
		<polygon fill = 'rgb( 31, 120, 180)' fill-opacity = '0.250000' points = '604.1,244.3 604.1,662.4 606.0,662.4 606.0,245.3 '/>
		<polygon fill = 'rgb( 31, 120, 180)' fill-opacity = '0.250000' points = '606.0,245.3 606.0,662.4 607.9,662.4 607.9,246.3 '/>
		<polygon fill = 'rgb( 31, 120, 180)' fill-opacity = '0.250000' points = '607.9,246.3 607.9,662.4 609.7,662.4 609.7,247.2 '/>
		<polygon fill = 'rgb( 31, 120, 180)' fill-opacity = '0.250000' points = '609.7,247.2 609.7,662.4 611.6,662.4 611.6,248.2 '/>
		<polygon fill = 'rgb( 31, 120, 180)' fill-opacity = '0.250000' points = '611.6,248.2 611.6,662.4 613.5,662.4 613.5,249.1 '/>
		<polygon fill = 'rgb( 31, 120, 180)' fill-opacity = '0.250000' points = '613.5,249.1 613.5,662.4 615.4,662.4 615.4,250.0 '/>
		<polygon fill = 'rgb( 31, 120, 180)' fill-opacity = '0.250000' points = '615.4,250.0 615.4,662.4 617.3,662.4 617.3,250.9 '/>
		<polygon fill = 'rgb( 31, 120, 180)' fill-opacity = '0.250000' points = '617.3,250.9 617.3,662.4 619.2,662.4 619.2,251.7 '/>
		<polygon fill = 'rgb( 31, 120, 180)' fill-opacity = '0.250000' points = '619.2,251.7 619.2,662.4 621.1,662.4 621.1,252.5 '/>
		<polygon fill = 'rgb( 31, 120, 180)' fill-opacity = '0.250000' points = '621.1,252.5 621.1,662.4 623.0,662.4 623.0,253.2 '/>
		<polygon fill = 'rgb( 31, 120, 180)' fill-opacity = '0.250000' points = '623.0,253.2 623.0,662.4 624.8,662.4 624.8,253.9 '/>
		<polygon fill = 'rgb( 31, 120, 180)' fill-opacity = '0.250000' points = '624.8,253.9 624.8,662.4 626.7,662.4 626.7,254.4 '/>
		<polygon fill = 'rgb( 31, 120, 180)' fill-opacity = '0.250000' points = '626.7,254.4 626.7,662.4 628.6,662.4 628.6,254.8 '/>
		<polygon fill = 'rgb( 31, 120, 180)' fill-opacity = '0.250000' points = '628.6,254.8 628.6,662.4 630.5,662.4 630.5,255.1 '/>
		<polygon fill = 'rgb( 31, 120, 180)' fill-opacity = '0.250000' points = '630.5,255.1 630.5,662.4 632.4,662.4 632.4,255.2 '/>
		<polygon fill = 'rgb( 31, 120, 180)' fill-opacity = '0.250000' points = '632.4,255.2 632.4,662.4 634.3,662.4 634.3,255.2 '/>
		<polygon fill = 'rgb( 31, 120, 180)' fill-opacity = '0.250000' points = '634.3,255.2 634.3,662.4 636.2,662.4 636.2,254.9 '/>
		<polygon fill = 'rgb( 31, 120, 180)' fill-opacity = '0.250000' points = '636.2,254.9 636.2,662.4 638.1,662.4 638.1,254.4 '/>
		<polygon fill = 'rgb( 31, 120, 180)' fill-opacity = '0.250000' points = '638.1,254.4 638.1,662.4 639.9,662.4 639.9,253.6 '/>
		<polygon fill = 'rgb( 31, 120, 180)' fill-opacity = '0.250000' points = '639.9,253.6 639.9,662.4 641.8,662.4 641.8,252.4 '/>
		<polygon fill = 'rgb( 31, 120, 180)' fill-opacity = '0.250000' points = '641.8,252.4 641.8,662.4 643.7,662.4 643.7,250.9 '/>
		<polygon fill = 'rgb( 31, 120, 180)' fill-opacity = '0.250000' points = '643.7,250.9 643.7,662.4 645.6,662.4 645.6,249.0 '/>
		<polygon fill = 'rgb( 31, 120, 180)' fill-opacity = '0.250000' points = '645.6,249.0 645.6,662.4 647.5,662.4 647.5,246.6 '/>
		<polygon fill = 'rgb( 31, 120, 180)' fill-opacity = '0.250000' points = '647.5,246.6 647.5,662.4 649.4,662.4 649.4,243.6 '/>
		<polygon fill = 'rgb( 31, 120, 180)' fill-opacity = '0.250000' points = '649.4,243.6 649.4,662.4 651.3,662.4 651.3,240.2 '/>
		<polygon fill = 'rgb( 31, 120, 180)' fill-opacity = '0.250000' points = '651.3,240.2 651.3,662.4 653.1,662.4 653.1,236.1 '/>
		<polygon fill = 'rgb( 31, 120, 180)' fill-opacity = '0.250000' points = '653.1,236.1 653.1,662.4 655.0,662.4 655.0,231.4 '/>
		<polygon fill = 'rgb( 31, 120, 180)' fill-opacity = '0.250000' points = '655.0,231.4 655.0,662.4 656.9,662.4 656.9,226.1 '/>
		<polygon fill = 'rgb( 31, 120, 180)' fill-opacity = '0.250000' points = '656.9,226.1 656.9,662.4 658.8,662.4 658.8,220.1 '/>
		<polygon fill = 'rgb( 31, 120, 180)' fill-opacity = '0.250000' points = '658.8,220.1 658.8,662.4 660.7,662.4 660.7,213.5 '/>
		<polygon fill = 'rgb( 31, 120, 180)' fill-opacity = '0.250000' points = '660.7,213.5 660.7,662.4 662.6,662.4 662.6,206.4 '/>
		<polygon fill = 'rgb( 31, 120, 180)' fill-opacity = '0.250000' points = '662.6,206.4 662.6,662.4 664.5,662.4 664.5,198.6 '/>
		<polygon fill = 'rgb( 31, 120, 180)' fill-opacity = '0.250000' points = '664.5,198.6 664.5,662.4 666.4,662.4 666.4,190.3 '/>
		<polygon fill = 'rgb( 31, 120, 180)' fill-opacity = '0.250000' points = '666.4,190.3 666.4,662.4 668.2,662.4 668.2,181.6 '/>
		<polygon fill = 'rgb( 31, 120, 180)' fill-opacity = '0.250000' points = '668.2,181.6 668.2,662.4 670.1,662.4 670.1,172.6 '/>
		<polygon fill = 'rgb( 31, 120, 180)' fill-opacity = '0.250000' points = '670.1,172.6 670.1,662.4 672.0,662.4 672.0,163.4 '/>
		<polygon fill = 'rgb( 31, 120, 180)' fill-opacity = '0.250000' points = '672.0,163.4 672.0,662.4 673.9,662.4 673.9,154.1 '/>
		<polygon fill = 'rgb( 31, 120, 180)' fill-opacity = '0.250000' points = '673.9,154.1 673.9,662.4 675.8,662.4 675.8,144.8 '/>
		<polygon fill = 'rgb( 31, 120, 180)' fill-opacity = '0.250000' points = '675.8,144.8 675.8,662.4 677.7,662.4 677.7,135.7 '/>
		<polygon fill = 'rgb( 31, 120, 180)' fill-opacity = '0.250000' points = '677.7,135.7 677.7,662.4 679.6,662.4 679.6,126.9 '/>
		<polygon fill = 'rgb( 31, 120, 180)' fill-opacity = '0.250000' points = '679.6,126.9 679.6,662.4 681.5,662.4 681.5,118.7 '/>
		<polygon fill = 'rgb( 31, 120, 180)' fill-opacity = '0.250000' points = '681.5,118.7 681.5,662.4 683.3,662.4 683.3,111.1 '/>
		<polygon fill = 'rgb( 31, 120, 180)' fill-opacity = '0.250000' points = '683.3,111.1 683.3,662.4 685.2,662.4 685.2,104.2 '/>
		<polygon fill = 'rgb( 31, 120, 180)' fill-opacity = '0.250000' points = '685.2,104.2 685.2,662.4 687.1,662.4 687.1,98.2 '/>
		<polygon fill = 'rgb( 31, 120, 180)' fill-opacity = '0.250000' points = '687.1,98.2 687.1,662.4 689.0,662.4 689.0,93.3 '/>
		<polygon fill = 'rgb( 31, 120, 180)' fill-opacity = '0.250000' points = '689.0,93.3 689.0,662.4 690.9,662.4 690.9,89.4 '/>
		<polygon fill = 'rgb( 31, 120, 180)' fill-opacity = '0.250000' points = '690.9,89.4 690.9,662.4 692.8,662.4 692.8,86.7 '/>
		<polygon fill = 'rgb( 31, 120, 180)' fill-opacity = '0.250000' points = '692.8,86.7 692.8,662.4 694.7,662.4 694.7,85.2 '/>
		<polygon fill = 'rgb( 31, 120, 180)' fill-opacity = '0.250000' points = '694.7,85.2 694.7,662.4 696.6,662.4 696.6,84.9 '/>
		<polygon fill = 'rgb( 31, 120, 180)' fill-opacity = '0.250000' points = '696.6,84.9 696.6,662.4 698.4,662.4 698.4,85.8 '/>
		<polygon fill = 'rgb( 31, 120, 180)' fill-opacity = '0.250000' points = '698.4,85.8 698.4,662.4 700.3,662.4 700.3,87.9 '/>
		<polygon fill = 'rgb( 31, 120, 180)' fill-opacity = '0.250000' points = '700.3,87.9 700.3,662.4 702.2,662.4 702.2,91.2 '/>
		<polygon fill = 'rgb( 31, 120, 180)' fill-opacity = '0.250000' points = '702.2,91.2 702.2,662.4 704.1,662.4 704.1,95.5 '/>
		<polygon fill = 'rgb( 31, 120, 180)' fill-opacity = '0.250000' points = '704.1,95.5 704.1,662.4 706.0,662.4 706.0,100.9 '/>
		<polygon fill = 'rgb( 31, 120, 180)' fill-opacity = '0.250000' points = '706.0,100.9 706.0,662.4 707.9,662.4 707.9,107.2 '/>
		<polygon fill = 'rgb( 31, 120, 180)' fill-opacity = '0.250000' points = '707.9,107.2 707.9,662.4 709.8,662.4 709.8,114.3 '/>
		<polygon fill = 'rgb( 31, 120, 180)' fill-opacity = '0.250000' points = '709.8,114.3 709.8,662.4 711.7,662.4 711.7,122.0 '/>
		<polygon fill = 'rgb( 31, 120, 180)' fill-opacity = '0.250000' points = '711.7,122.0 711.7,662.4 713.5,662.4 713.5,130.4 '/>
		<polygon fill = 'rgb( 31, 120, 180)' fill-opacity = '0.250000' points = '713.5,130.4 713.5,662.4 715.4,662.4 715.4,139.3 '/>
		<polygon fill = 'rgb( 31, 120, 180)' fill-opacity = '0.250000' points = '715.4,139.3 715.4,662.4 717.3,662.4 717.3,148.5 '/>
		<polygon fill = 'rgb( 31, 120, 180)' fill-opacity = '0.250000' points = '717.3,148.5 717.3,662.4 719.2,662.4 719.2,158.1 '/>
		<polygon fill = 'rgb( 31, 120, 180)' fill-opacity = '0.250000' points = '719.2,158.1 719.2,662.4 721.1,662.4 721.1,167.8 '/>
		<polygon fill = 'rgb( 31, 120, 180)' fill-opacity = '0.250000' points = '721.1,167.8 721.1,662.4 723.0,662.4 723.0,177.6 '/>
		<polygon fill = 'rgb( 31, 120, 180)' fill-opacity = '0.250000' points = '723.0,177.6 723.0,662.4 724.9,662.4 724.9,187.5 '/>
		<polygon fill = 'rgb( 31, 120, 180)' fill-opacity = '0.250000' points = '724.9,187.5 724.9,662.4 726.7,662.4 726.7,197.4 '/>
		<polygon fill = 'rgb( 31, 120, 180)' fill-opacity = '0.250000' points = '726.7,197.4 726.7,662.4 728.6,662.4 728.6,207.2 '/>
		<polygon fill = 'rgb( 31, 120, 180)' fill-opacity = '0.250000' points = '728.6,207.2 728.6,662.4 730.5,662.4 730.5,216.9 '/>
		<polygon fill = 'rgb( 31, 120, 180)' fill-opacity = '0.250000' points = '730.5,216.9 730.5,662.4 732.4,662.4 732.4,226.4 '/>
		<polygon fill = 'rgb( 31, 120, 180)' fill-opacity = '0.250000' points = '732.4,226.4 732.4,662.4 734.3,662.4 734.3,235.8 '/>
		<polygon fill = 'rgb( 31, 120, 180)' fill-opacity = '0.250000' points = '734.3,235.8 734.3,662.4 736.2,662.4 736.2,245.0 '/>
		<polygon fill = 'rgb( 31, 120, 180)' fill-opacity = '0.250000' points = '736.2,245.0 736.2,662.4 738.1,662.4 738.1,253.9 '/>
		<polygon fill = 'rgb( 31, 120, 180)' fill-opacity = '0.250000' points = '738.1,253.9 738.1,662.4 740.0,662.4 740.0,262.6 '/>
		<polygon fill = 'rgb( 31, 120, 180)' fill-opacity = '0.250000' points = '740.0,262.6 740.0,662.4 741.8,662.4 741.8,271.1 '/>
		<polygon fill = 'rgb( 31, 120, 180)' fill-opacity = '0.250000' points = '741.8,271.1 741.8,662.4 743.7,662.4 743.7,279.2 '/>
		<polygon fill = 'rgb( 31, 120, 180)' fill-opacity = '0.250000' points = '743.7,279.2 743.7,662.4 745.6,662.4 745.6,287.0 '/>
		<polygon fill = 'rgb( 31, 120, 180)' fill-opacity = '0.250000' points = '745.6,287.0 745.6,662.4 747.5,662.4 747.5,294.5 '/>
		<polygon fill = 'rgb( 31, 120, 180)' fill-opacity = '0.250000' points = '747.5,294.5 747.5,662.4 749.4,662.4 749.4,301.6 '/>
		<polygon fill = 'rgb( 31, 120, 180)' fill-opacity = '0.250000' points = '749.4,301.6 749.4,662.4 751.3,662.4 751.3,308.4 '/>
		<polygon fill = 'rgb( 31, 120, 180)' fill-opacity = '0.250000' points = '751.3,308.4 751.3,662.4 753.2,662.4 753.2,314.7 '/>
		<polygon fill = 'rgb( 31, 120, 180)' fill-opacity = '0.250000' points = '753.2,314.7 753.2,662.4 755.1,662.4 755.1,320.6 '/>
		<polygon fill = 'rgb( 31, 120, 180)' fill-opacity = '0.250000' points = '755.1,320.6 755.1,662.4 756.9,662.4 756.9,326.2 '/>
		<polygon fill = 'rgb( 31, 120, 180)' fill-opacity = '0.250000' points = '756.9,326.2 756.9,662.4 758.8,662.4 758.8,331.3 '/>
		<polygon fill = 'rgb( 31, 120, 180)' fill-opacity = '0.250000' points = '758.8,331.3 758.8,662.4 760.7,662.4 760.7,336.0 '/>
		<polygon fill = 'rgb( 31, 120, 180)' fill-opacity = '0.250000' points = '760.7,336.0 760.7,662.4 762.6,662.4 762.6,340.3 '/>
		<polygon fill = 'rgb( 31, 120, 180)' fill-opacity = '0.250000' points = '762.6,340.3 762.6,662.4 764.5,662.4 764.5,344.2 '/>
		<polygon fill = 'rgb( 31, 120, 180)' fill-opacity = '0.250000' points = '764.5,344.2 764.5,662.4 766.4,662.4 766.4,347.8 '/>
		<polygon fill = 'rgb( 31, 120, 180)' fill-opacity = '0.250000' points = '766.4,347.8 766.4,662.4 768.3,662.4 768.3,351.1 '/>
		<polygon fill = 'rgb( 31, 120, 180)' fill-opacity = '0.250000' points = '768.3,351.1 768.3,662.4 770.2,662.4 770.2,354.1 '/>
		<polygon fill = 'rgb( 31, 120, 180)' fill-opacity = '0.250000' points = '770.2,354.1 770.2,662.4 772.0,662.4 772.0,357.0 '/>
		<polygon fill = 'rgb( 31, 120, 180)' fill-opacity = '0.250000' points = '772.0,357.0 772.0,662.4 773.9,662.4 773.9,359.7 '/>
		<polygon fill = 'rgb( 31, 120, 180)' fill-opacity = '0.250000' points = '773.9,359.7 773.9,662.4 775.8,662.4 775.8,362.3 '/>
		<polygon fill = 'rgb( 31, 120, 180)' fill-opacity = '0.250000' points = '775.8,362.3 775.8,662.4 777.7,662.4 777.7,364.8 '/>
		<polygon fill = 'rgb( 31, 120, 180)' fill-opacity = '0.250000' points = '777.7,364.8 777.7,662.4 779.6,662.4 779.6,367.4 '/>
		<polygon fill = 'rgb( 31, 120, 180)' fill-opacity = '0.250000' points = '779.6,367.4 779.6,662.4 781.5,662.4 781.5,370.1 '/>
		<polygon fill = 'rgb( 31, 120, 180)' fill-opacity = '0.250000' points = '781.5,370.1 781.5,662.4 783.4,662.4 783.4,372.8 '/>
		<polygon fill = 'rgb( 31, 120, 180)' fill-opacity = '0.250000' points = '783.4,372.8 783.4,662.4 785.3,662.4 785.3,375.7 '/>
		<polygon fill = 'rgb( 31, 120, 180)' fill-opacity = '0.250000' points = '785.3,375.7 785.3,662.4 787.1,662.4 787.1,378.8 '/>
		<polygon fill = 'rgb( 31, 120, 180)' fill-opacity = '0.250000' points = '787.1,378.8 787.1,662.4 789.0,662.4 789.0,382.1 '/>
		<polygon fill = 'rgb( 31, 120, 180)' fill-opacity = '0.250000' points = '789.0,382.1 789.0,662.4 790.9,662.4 790.9,385.5 '/>
		<polygon fill = 'rgb( 31, 120, 180)' fill-opacity = '0.250000' points = '790.9,385.5 790.9,662.4 792.8,662.4 792.8,389.2 '/>
		<polygon fill = 'rgb( 31, 120, 180)' fill-opacity = '0.250000' points = '792.8,389.2 792.8,662.4 794.7,662.4 794.7,393.0 '/>
		<polygon fill = 'rgb( 31, 120, 180)' fill-opacity = '0.250000' points = '794.7,393.0 794.7,662.4 796.6,662.4 796.6,396.9 '/>
		<polygon fill = 'rgb( 31, 120, 180)' fill-opacity = '0.250000' points = '796.6,396.9 796.6,662.4 798.5,662.4 798.5,400.9 '/>
		<polygon fill = 'rgb( 31, 120, 180)' fill-opacity = '0.250000' points = '798.5,400.9 798.5,662.4 800.3,662.4 800.3,405.0 '/>
		<polygon fill = 'rgb( 31, 120, 180)' fill-opacity = '0.250000' points = '800.3,405.0 800.3,662.4 802.2,662.4 802.2,409.2 '/>
		<polygon fill = 'rgb( 31, 120, 180)' fill-opacity = '0.250000' points = '802.2,409.2 802.2,662.4 804.1,662.4 804.1,413.2 '/>
		<polygon fill = 'rgb( 31, 120, 180)' fill-opacity = '0.250000' points = '804.1,413.2 804.1,662.4 806.0,662.4 806.0,417.3 '/>
		<polygon fill = 'rgb( 31, 120, 180)' fill-opacity = '0.250000' points = '806.0,417.3 806.0,662.4 807.9,662.4 807.9,421.1 '/>
		<polygon fill = 'rgb( 31, 120, 180)' fill-opacity = '0.250000' points = '807.9,421.1 807.9,662.4 809.8,662.4 809.8,424.9 '/>
		<polygon fill = 'rgb( 31, 120, 180)' fill-opacity = '0.250000' points = '809.8,424.9 809.8,662.4 811.7,662.4 811.7,428.4 '/>
		<polygon fill = 'rgb( 31, 120, 180)' fill-opacity = '0.250000' points = '811.7,428.4 811.7,662.4 813.6,662.4 813.6,431.6 '/>
		<polygon fill = 'rgb( 31, 120, 180)' fill-opacity = '0.250000' points = '813.6,431.6 813.6,662.4 815.4,662.4 815.4,434.7 '/>
		<polygon fill = 'rgb( 31, 120, 180)' fill-opacity = '0.250000' points = '815.4,434.7 815.4,662.4 817.3,662.4 817.3,437.4 '/>
		<polygon fill = 'rgb( 31, 120, 180)' fill-opacity = '0.250000' points = '817.3,437.4 817.3,662.4 819.2,662.4 819.2,439.9 '/>
		<polygon fill = 'rgb( 31, 120, 180)' fill-opacity = '0.250000' points = '819.2,439.9 819.2,662.4 821.1,662.4 821.1,442.1 '/>
		<polygon fill = 'rgb( 31, 120, 180)' fill-opacity = '0.250000' points = '821.1,442.1 821.1,662.4 823.0,662.4 823.0,444.1 '/>
		<polygon fill = 'rgb( 31, 120, 180)' fill-opacity = '0.250000' points = '823.0,444.1 823.0,662.4 824.9,662.4 824.9,445.9 '/>
		<polygon fill = 'rgb( 31, 120, 180)' fill-opacity = '0.250000' points = '824.9,445.9 824.9,662.4 826.8,662.4 826.8,447.5 '/>
		<polygon fill = 'rgb( 31, 120, 180)' fill-opacity = '0.250000' points = '826.8,447.5 826.8,662.4 828.7,662.4 828.7,449.1 '/>
		<polygon fill = 'rgb( 31, 120, 180)' fill-opacity = '0.250000' points = '828.7,449.1 828.7,662.4 830.5,662.4 830.5,450.5 '/>
		<polygon fill = 'rgb( 31, 120, 180)' fill-opacity = '0.250000' points = '830.5,450.5 830.5,662.4 832.4,662.4 832.4,452.0 '/>
		<polygon fill = 'rgb( 31, 120, 180)' fill-opacity = '0.250000' points = '832.4,452.0 832.4,662.4 834.3,662.4 834.3,453.5 '/>
		<polygon fill = 'rgb( 31, 120, 180)' fill-opacity = '0.250000' points = '834.3,453.5 834.3,662.4 836.2,662.4 836.2,455.2 '/>
		<polygon fill = 'rgb( 31, 120, 180)' fill-opacity = '0.250000' points = '836.2,455.2 836.2,662.4 838.1,662.4 838.1,457.0 '/>
		<polygon fill = 'rgb( 31, 120, 180)' fill-opacity = '0.250000' points = '838.1,457.0 838.1,662.4 840.0,662.4 840.0,459.0 '/>
		<polygon fill = 'rgb( 31, 120, 180)' fill-opacity = '0.250000' points = '840.0,459.0 840.0,662.4 841.9,662.4 841.9,461.3 '/>
		<polygon fill = 'rgb( 31, 120, 180)' fill-opacity = '0.250000' points = '841.9,461.3 841.9,662.4 843.8,662.4 843.8,463.9 '/>
		<polygon fill = 'rgb( 31, 120, 180)' fill-opacity = '0.250000' points = '843.8,463.9 843.8,662.4 845.6,662.4 845.6,466.7 '/>
		<polygon fill = 'rgb( 31, 120, 180)' fill-opacity = '0.250000' points = '845.6,466.7 845.6,662.4 847.5,662.4 847.5,469.8 '/>
		<polygon fill = 'rgb( 31, 120, 180)' fill-opacity = '0.250000' points = '847.5,469.8 847.5,662.4 849.4,662.4 849.4,473.1 '/>
		<polygon fill = 'rgb( 31, 120, 180)' fill-opacity = '0.250000' points = '849.4,473.1 849.4,662.4 851.3,662.4 851.3,476.6 '/>
		<polygon fill = 'rgb( 31, 120, 180)' fill-opacity = '0.250000' points = '851.3,476.6 851.3,662.4 853.2,662.4 853.2,480.3 '/>
		<polygon fill = 'rgb( 31, 120, 180)' fill-opacity = '0.250000' points = '853.2,480.3 853.2,662.4 855.1,662.4 855.1,484.1 '/>
		<polygon fill = 'rgb( 31, 120, 180)' fill-opacity = '0.250000' points = '855.1,484.1 855.1,662.4 857.0,662.4 857.0,487.9 '/>
		<polygon fill = 'rgb( 31, 120, 180)' fill-opacity = '0.250000' points = '857.0,487.9 857.0,662.4 858.9,662.4 858.9,491.6 '/>
		<polygon fill = 'rgb( 31, 120, 180)' fill-opacity = '0.250000' points = '858.9,491.6 858.9,662.4 860.7,662.4 860.7,495.1 '/>
		<polygon fill = 'rgb( 31, 120, 180)' fill-opacity = '0.250000' points = '860.7,495.1 860.7,662.4 862.6,662.4 862.6,498.4 '/>
		<polygon fill = 'rgb( 31, 120, 180)' fill-opacity = '0.250000' points = '862.6,498.4 862.6,662.4 864.5,662.4 864.5,501.3 '/>
		<polygon fill = 'rgb( 31, 120, 180)' fill-opacity = '0.250000' points = '864.5,501.3 864.5,662.4 866.4,662.4 866.4,503.7 '/>
		<polygon fill = 'rgb( 31, 120, 180)' fill-opacity = '0.250000' points = '866.4,503.7 866.4,662.4 868.3,662.4 868.3,505.6 '/>
		<polygon fill = 'rgb( 31, 120, 180)' fill-opacity = '0.250000' points = '868.3,505.6 868.3,662.4 870.2,662.4 870.2,506.8 '/>
		<polygon fill = 'rgb( 31, 120, 180)' fill-opacity = '0.250000' points = '870.2,506.8 870.2,662.4 872.1,662.4 872.1,507.4 '/>
		<polygon fill = 'rgb( 31, 120, 180)' fill-opacity = '0.250000' points = '872.1,507.4 872.1,662.4 873.9,662.4 873.9,507.1 '/>
		<polygon fill = 'rgb( 31, 120, 180)' fill-opacity = '0.250000' points = '873.9,507.1 873.9,662.4 875.8,662.4 875.8,506.1 '/>
		<polygon fill = 'rgb( 31, 120, 180)' fill-opacity = '0.250000' points = '875.8,506.1 875.8,662.4 877.7,662.4 877.7,504.3 '/>
		<polygon fill = 'rgb( 31, 120, 180)' fill-opacity = '0.250000' points = '877.7,504.3 877.7,662.4 879.6,662.4 879.6,501.6 '/>
		<polygon fill = 'rgb( 31, 120, 180)' fill-opacity = '0.250000' points = '879.6,501.6 879.6,662.4 881.5,662.4 881.5,498.2 '/>
		<polygon fill = 'rgb( 31, 120, 180)' fill-opacity = '0.250000' points = '881.5,498.2 881.5,662.4 883.4,662.4 883.4,494.0 '/>
		<polygon fill = 'rgb( 31, 120, 180)' fill-opacity = '0.250000' points = '883.4,494.0 883.4,662.4 885.3,662.4 885.3,489.1 '/>
		<polygon fill = 'rgb( 31, 120, 180)' fill-opacity = '0.250000' points = '885.3,489.1 885.3,662.4 887.2,662.4 887.2,483.6 '/>
		<polygon fill = 'rgb( 31, 120, 180)' fill-opacity = '0.250000' points = '887.2,483.6 887.2,662.4 889.0,662.4 889.0,477.7 '/>
		<polygon fill = 'rgb( 31, 120, 180)' fill-opacity = '0.250000' points = '889.0,477.7 889.0,662.4 890.9,662.4 890.9,471.3 '/>
		<polygon fill = 'rgb( 31, 120, 180)' fill-opacity = '0.250000' points = '890.9,471.3 890.9,662.4 892.8,662.4 892.8,464.7 '/>
		<polygon fill = 'rgb( 31, 120, 180)' fill-opacity = '0.250000' points = '892.8,464.7 892.8,662.4 894.7,662.4 894.7,458.0 '/>
		<polygon fill = 'rgb( 31, 120, 180)' fill-opacity = '0.250000' points = '894.7,458.0 894.7,662.4 896.6,662.4 896.6,451.3 '/>
		<polygon fill = 'rgb( 31, 120, 180)' fill-opacity = '0.250000' points = '896.6,451.3 896.6,662.4 898.5,662.4 898.5,444.7 '/>
		<polygon fill = 'rgb( 31, 120, 180)' fill-opacity = '0.250000' points = '898.5,444.7 898.5,662.4 900.4,662.4 900.4,438.5 '/>
		<polygon fill = 'rgb( 31, 120, 180)' fill-opacity = '0.250000' points = '900.4,438.5 900.4,662.4 902.3,662.4 902.3,432.7 '/>
		<polygon fill = 'rgb( 31, 120, 180)' fill-opacity = '0.250000' points = '902.3,432.7 902.3,662.4 904.1,662.4 904.1,427.5 '/>
		<polygon fill = 'rgb( 31, 120, 180)' fill-opacity = '0.250000' points = '904.1,427.5 904.1,662.4 906.0,662.4 906.0,423.0 '/>
		<polygon fill = 'rgb( 31, 120, 180)' fill-opacity = '0.250000' points = '906.0,423.0 906.0,662.4 907.9,662.4 907.9,419.3 '/>
		<polygon fill = 'rgb( 31, 120, 180)' fill-opacity = '0.250000' points = '907.9,419.3 907.9,662.4 909.8,662.4 909.8,416.4 '/>
		<polygon fill = 'rgb( 31, 120, 180)' fill-opacity = '0.250000' points = '909.8,416.4 909.8,662.4 911.7,662.4 911.7,414.5 '/>
		<polygon fill = 'rgb( 31, 120, 180)' fill-opacity = '0.250000' points = '911.7,414.5 911.7,662.4 913.6,662.4 913.6,413.6 '/>
		<polygon fill = 'rgb( 31, 120, 180)' fill-opacity = '0.250000' points = '913.6,413.6 913.6,662.4 915.5,662.4 915.5,413.7 '/>
		<polygon fill = 'rgb( 31, 120, 180)' fill-opacity = '0.250000' points = '915.5,413.7 915.5,662.4 917.4,662.4 917.4,414.8 '/>
		<polygon fill = 'rgb( 31, 120, 180)' fill-opacity = '0.250000' points = '917.4,414.8 917.4,662.4 919.2,662.4 919.2,417.0 '/>
		<polygon fill = 'rgb( 31, 120, 180)' fill-opacity = '0.250000' points = '919.2,417.0 919.2,662.4 921.1,662.4 921.1,420.1 '/>
		<polygon fill = 'rgb( 31, 120, 180)' fill-opacity = '0.250000' points = '921.1,420.1 921.1,662.4 923.0,662.4 923.0,424.2 '/>
		<polygon fill = 'rgb( 31, 120, 180)' fill-opacity = '0.250000' points = '923.0,424.2 923.0,662.4 924.9,662.4 924.9,429.2 '/>
	</g>
</g>
	</g>
	<g id="gnuplot_plot_3" ><title>Point estimate</title>
<g fill="none" color="white" stroke="rgb( 31, 120, 180)" stroke-width="2.00" stroke-linecap="butt" stroke-linejoin="miter">
</g>
<g fill="none" color="black" stroke="currentColor" stroke-width="2.00" stroke-linecap="butt" stroke-linejoin="miter">
	<g transform="translate(1089.0,103.0)" stroke="none" fill="black" font-family="Helvetica" font-size="12.00"  text-anchor="start">
		<text><tspan font-family="Helvetica" >Point estimate</tspan></text>
	</g>
</g>
<g fill="none" color="black" stroke="currentColor" stroke-width="2.00" stroke-linecap="butt" stroke-linejoin="miter">
	<path stroke='rgb( 31, 120, 180)'  d='M1038.5,99.1 L1080.7,99.1 M685.7,662.4 L685.7,102.9  '/></g>
	</g>
	<g id="gnuplot_plot_4" ><title>Noise threshold</title>
<g fill="none" color="white" stroke="rgb( 31, 120, 180)" stroke-width="1.00" stroke-linecap="butt" stroke-linejoin="miter">
</g>
<g fill="none" color="black" stroke="currentColor" stroke-width="1.00" stroke-linecap="butt" stroke-linejoin="miter">
	<g transform="translate(1089.0,121.0)" stroke="none" fill="black" font-family="Helvetica" font-size="12.00"  text-anchor="start">
		<text><tspan font-family="Helvetica" >Noise threshold</tspan></text>
	</g>
</g>
<g fill="none" color="black" stroke="currentColor" stroke-width="1.00" stroke-linecap="butt" stroke-linejoin="miter">
	<g stroke='none' shape-rendering='crispEdges'>
		<polygon fill = 'rgb(227,  26,  28)' fill-opacity = '0.100000' points = '1038.5,121.6 1080.7,121.6 1080.7,112.6 1038.5,112.6 '/>
		<polygon fill = 'rgb(227,  26,  28)' fill-opacity = '0.100000' points = '71.9,54.1 71.9,662.4 724.4,662.4 724.4,54.1 '/>
	</g>
</g>
	</g>
<g fill="none" color="white" stroke="rgb(227,  26,  28)" stroke-width="2.00" stroke-linecap="butt" stroke-linejoin="miter">
</g>
<g fill="none" color="black" stroke="currentColor" stroke-width="2.00" stroke-linecap="butt" stroke-linejoin="miter">
</g>
<g fill="none" color="black" stroke="black" stroke-width="1.00" stroke-linecap="butt" stroke-linejoin="miter">
</g>
<g fill="none" color="black" stroke="currentColor" stroke-width="1.00" stroke-linecap="butt" stroke-linejoin="miter">
	<path stroke='black'  d='M71.9,54.1 L71.9,662.4 L1013.6,662.4 L1013.6,54.1 L71.9,54.1 Z  '/></g>
<g fill="none" color="black" stroke="currentColor" stroke-width="1.00" stroke-linecap="butt" stroke-linejoin="miter">
</g>
</g>
</svg>

