<?xml version="1.0" encoding="utf-8"  standalone="no"?>
<svg 
 viewBox="0 0 1280 720"
 xmlns="http://www.w3.org/2000/svg"
 xmlns:xlink="http://www.w3.org/1999/xlink"
>

<title>Gnuplot</title>
<desc>Produced by GNUPLOT 5.0 patchlevel 6 </desc>

<g id="gnuplot_canvas">

<rect x="0" y="0" width="1280" height="720" fill="none"/>
<defs>

	<circle id='gpDot' r='0.5' stroke-width='0.5'/>
	<path id='gpPt0' stroke-width='0.222' stroke='currentColor' d='M-1,0 h2 M0,-1 v2'/>
	<path id='gpPt1' stroke-width='0.222' stroke='currentColor' d='M-1,-1 L1,1 M1,-1 L-1,1'/>
	<path id='gpPt2' stroke-width='0.222' stroke='currentColor' d='M-1,0 L1,0 M0,-1 L0,1 M-1,-1 L1,1 M-1,1 L1,-1'/>
	<rect id='gpPt3' stroke-width='0.222' stroke='currentColor' x='-1' y='-1' width='2' height='2'/>
	<rect id='gpPt4' stroke-width='0.222' stroke='currentColor' fill='currentColor' x='-1' y='-1' width='2' height='2'/>
	<circle id='gpPt5' stroke-width='0.222' stroke='currentColor' cx='0' cy='0' r='1'/>
	<use xlink:href='#gpPt5' id='gpPt6' fill='currentColor' stroke='none'/>
	<path id='gpPt7' stroke-width='0.222' stroke='currentColor' d='M0,-1.33 L-1.33,0.67 L1.33,0.67 z'/>
	<use xlink:href='#gpPt7' id='gpPt8' fill='currentColor' stroke='none'/>
	<use xlink:href='#gpPt7' id='gpPt9' stroke='currentColor' transform='rotate(180)'/>
	<use xlink:href='#gpPt9' id='gpPt10' fill='currentColor' stroke='none'/>
	<use xlink:href='#gpPt3' id='gpPt11' stroke='currentColor' transform='rotate(45)'/>
	<use xlink:href='#gpPt11' id='gpPt12' fill='currentColor' stroke='none'/>
	<path id='gpPt13' stroke-width='0.222' stroke='currentColor' d='M0,1.330 L1.265,0.411 L0.782,-1.067 L-0.782,-1.076 L-1.265,0.411 z'/>
	<use xlink:href='#gpPt13' id='gpPt14' fill='currentColor' stroke='none'/>
	<filter id='textbox' filterUnits='objectBoundingBox' x='0' y='0' height='1' width='1'>
	  <feFlood flood-color='white' flood-opacity='1' result='bgnd'/>
	  <feComposite in='SourceGraphic' in2='bgnd' operator='atop'/>
	</filter>
	<filter id='greybox' filterUnits='objectBoundingBox' x='0' y='0' height='1' width='1'>
	  <feFlood flood-color='lightgrey' flood-opacity='1' result='grey'/>
	  <feComposite in='SourceGraphic' in2='grey' operator='atop'/>
	</filter>
</defs>
<g fill="none" color="white" stroke="currentColor" stroke-width="1.00" stroke-linecap="butt" stroke-linejoin="miter">
</g>
<g fill="none" color="black" stroke="currentColor" stroke-width="1.00" stroke-linecap="butt" stroke-linejoin="miter">
	<path stroke='black'  d='M71.9,662.4 L80.9,662.4  '/>	<g transform="translate(63.6,666.3)" stroke="none" fill="black" font-family="Helvetica" font-size="12.00"  text-anchor="end">
		<text><tspan font-family="Helvetica" > 0</tspan></text>
	</g>
</g>
<g fill="none" color="black" stroke="currentColor" stroke-width="1.00" stroke-linecap="butt" stroke-linejoin="miter">
	<path stroke='black'  d='M71.9,586.4 L80.9,586.4  '/>	<g transform="translate(63.6,590.3)" stroke="none" fill="black" font-family="Helvetica" font-size="12.00"  text-anchor="end">
		<text><tspan font-family="Helvetica" > 20</tspan></text>
	</g>
</g>
<g fill="none" color="black" stroke="currentColor" stroke-width="1.00" stroke-linecap="butt" stroke-linejoin="miter">
	<path stroke='black'  d='M71.9,510.3 L80.9,510.3  '/>	<g transform="translate(63.6,514.2)" stroke="none" fill="black" font-family="Helvetica" font-size="12.00"  text-anchor="end">
		<text><tspan font-family="Helvetica" > 40</tspan></text>
	</g>
</g>
<g fill="none" color="black" stroke="currentColor" stroke-width="1.00" stroke-linecap="butt" stroke-linejoin="miter">
	<path stroke='black'  d='M71.9,434.3 L80.9,434.3  '/>	<g transform="translate(63.6,438.2)" stroke="none" fill="black" font-family="Helvetica" font-size="12.00"  text-anchor="end">
		<text><tspan font-family="Helvetica" > 60</tspan></text>
	</g>
</g>
<g fill="none" color="black" stroke="currentColor" stroke-width="1.00" stroke-linecap="butt" stroke-linejoin="miter">
	<path stroke='black'  d='M71.9,358.2 L80.9,358.2  '/>	<g transform="translate(63.6,362.1)" stroke="none" fill="black" font-family="Helvetica" font-size="12.00"  text-anchor="end">
		<text><tspan font-family="Helvetica" > 80</tspan></text>
	</g>
</g>
<g fill="none" color="black" stroke="currentColor" stroke-width="1.00" stroke-linecap="butt" stroke-linejoin="miter">
	<path stroke='black'  d='M71.9,282.2 L80.9,282.2  '/>	<g transform="translate(63.6,286.1)" stroke="none" fill="black" font-family="Helvetica" font-size="12.00"  text-anchor="end">
		<text><tspan font-family="Helvetica" > 100</tspan></text>
	</g>
</g>
<g fill="none" color="black" stroke="currentColor" stroke-width="1.00" stroke-linecap="butt" stroke-linejoin="miter">
	<path stroke='black'  d='M71.9,206.2 L80.9,206.2  '/>	<g transform="translate(63.6,210.1)" stroke="none" fill="black" font-family="Helvetica" font-size="12.00"  text-anchor="end">
		<text><tspan font-family="Helvetica" > 120</tspan></text>
	</g>
</g>
<g fill="none" color="black" stroke="currentColor" stroke-width="1.00" stroke-linecap="butt" stroke-linejoin="miter">
	<path stroke='black'  d='M71.9,130.1 L80.9,130.1  '/>	<g transform="translate(63.6,134.0)" stroke="none" fill="black" font-family="Helvetica" font-size="12.00"  text-anchor="end">
		<text><tspan font-family="Helvetica" > 140</tspan></text>
	</g>
</g>
<g fill="none" color="black" stroke="currentColor" stroke-width="1.00" stroke-linecap="butt" stroke-linejoin="miter">
	<path stroke='black'  d='M71.9,54.1 L80.9,54.1  '/>	<g transform="translate(63.6,58.0)" stroke="none" fill="black" font-family="Helvetica" font-size="12.00"  text-anchor="end">
		<text><tspan font-family="Helvetica" > 160</tspan></text>
	</g>
</g>
<g fill="none" color="black" stroke="currentColor" stroke-width="1.00" stroke-linecap="butt" stroke-linejoin="miter">
	<path stroke='black'  d='M209.8,662.4 L209.8,653.4  '/>	<g transform="translate(209.8,684.3)" stroke="none" fill="black" font-family="Helvetica" font-size="12.00"  text-anchor="middle">
		<text><tspan font-family="Helvetica" >-10.8</tspan></text>
	</g>
</g>
<g fill="none" color="black" stroke="currentColor" stroke-width="1.00" stroke-linecap="butt" stroke-linejoin="miter">
	<path stroke='black'  d='M363.7,662.4 L363.7,653.4  '/>	<g transform="translate(363.7,684.3)" stroke="none" fill="black" font-family="Helvetica" font-size="12.00"  text-anchor="middle">
		<text><tspan font-family="Helvetica" >-10.6</tspan></text>
	</g>
</g>
<g fill="none" color="black" stroke="currentColor" stroke-width="1.00" stroke-linecap="butt" stroke-linejoin="miter">
	<path stroke='black'  d='M517.6,662.4 L517.6,653.4  '/>	<g transform="translate(517.6,684.3)" stroke="none" fill="black" font-family="Helvetica" font-size="12.00"  text-anchor="middle">
		<text><tspan font-family="Helvetica" >-10.4</tspan></text>
	</g>
</g>
<g fill="none" color="black" stroke="currentColor" stroke-width="1.00" stroke-linecap="butt" stroke-linejoin="miter">
	<path stroke='black'  d='M671.5,662.4 L671.5,653.4  '/>	<g transform="translate(671.5,684.3)" stroke="none" fill="black" font-family="Helvetica" font-size="12.00"  text-anchor="middle">
		<text><tspan font-family="Helvetica" >-10.2</tspan></text>
	</g>
</g>
<g fill="none" color="black" stroke="currentColor" stroke-width="1.00" stroke-linecap="butt" stroke-linejoin="miter">
	<path stroke='black'  d='M825.4,662.4 L825.4,653.4  '/>	<g transform="translate(825.4,684.3)" stroke="none" fill="black" font-family="Helvetica" font-size="12.00"  text-anchor="middle">
		<text><tspan font-family="Helvetica" >-10</tspan></text>
	</g>
</g>
<g fill="none" color="black" stroke="currentColor" stroke-width="1.00" stroke-linecap="butt" stroke-linejoin="miter">
	<path stroke='black'  d='M979.3,662.4 L979.3,653.4  '/>	<g transform="translate(979.3,684.3)" stroke="none" fill="black" font-family="Helvetica" font-size="12.00"  text-anchor="middle">
		<text><tspan font-family="Helvetica" >-9.8</tspan></text>
	</g>
</g>
<g fill="none" color="black" stroke="currentColor" stroke-width="1.00" stroke-linecap="butt" stroke-linejoin="miter">
</g>
<g fill="none" color="black" stroke="currentColor" stroke-width="1.00" stroke-linecap="butt" stroke-linejoin="miter">
	<path stroke='black'  d='M71.9,54.1 L71.9,662.4 L1013.6,662.4 L1013.6,54.1 L71.9,54.1 Z  '/></g>
<g fill="none" color="black" stroke="currentColor" stroke-width="1.00" stroke-linecap="butt" stroke-linejoin="miter">
	<g transform="translate(17.0,358.3) rotate(270)" stroke="none" fill="black" font-family="Helvetica" font-size="12.00"  text-anchor="middle">
		<text><tspan font-family="Helvetica" >Density (a.u.)</tspan></text>
	</g>
</g>
<g fill="none" color="black" stroke="currentColor" stroke-width="1.00" stroke-linecap="butt" stroke-linejoin="miter">
	<g transform="translate(542.7,711.3)" stroke="none" fill="black" font-family="Helvetica" font-size="12.00"  text-anchor="middle">
		<text><tspan font-family="Helvetica" >Relative change (%)</tspan></text>
	</g>
</g>
<g fill="none" color="black" stroke="currentColor" stroke-width="1.00" stroke-linecap="butt" stroke-linejoin="miter">
	<g transform="translate(542.7,31.0)" stroke="none" fill="black" font-family="Helvetica" font-size="12.00"  text-anchor="middle">
		<text><tspan font-family="Helvetica" >language: embedded-template/parse error: bash/examples/relocate.sh: mean</tspan></text>
	</g>
</g>
	<g id="gnuplot_plot_1" ><title>Bootstrap distribution</title>
<g fill="none" color="white" stroke="black" stroke-width="2.00" stroke-linecap="butt" stroke-linejoin="miter">
</g>
<g fill="none" color="black" stroke="currentColor" stroke-width="2.00" stroke-linecap="butt" stroke-linejoin="miter">
	<g transform="translate(1089.0,67.0)" stroke="none" fill="black" font-family="Helvetica" font-size="12.00"  text-anchor="start">
		<text><tspan font-family="Helvetica" >Bootstrap distribution</tspan></text>
	</g>
</g>
<g fill="none" color="black" stroke="currentColor" stroke-width="2.00" stroke-linecap="butt" stroke-linejoin="miter">
	<path stroke='rgb( 31, 120, 180)'  d='M1038.5,63.1 L1080.7,63.1 M71.9,631.0 L73.8,630.5 L75.7,630.1 L77.6,629.7 L79.4,629.2 L81.3,628.8
		L83.2,628.3 L85.1,627.8 L87.0,627.4 L88.9,626.9 L90.8,626.4 L92.7,625.9 L94.5,625.3 L96.4,624.8
		L98.3,624.2 L100.2,623.7 L102.1,623.1 L104.0,622.5 L105.9,621.9 L107.8,621.3 L109.6,620.6 L111.5,620.0
		L113.4,619.4 L115.3,618.7 L117.2,618.1 L119.1,617.4 L121.0,616.8 L122.9,616.1 L124.7,615.4 L126.6,614.8
		L128.5,614.1 L130.4,613.4 L132.3,612.7 L134.2,612.1 L136.1,611.4 L138.0,610.6 L139.8,609.9 L141.7,609.2
		L143.6,608.4 L145.5,607.6 L147.4,606.8 L149.3,606.0 L151.2,605.1 L153.0,604.2 L154.9,603.3 L156.8,602.3
		L158.7,601.3 L160.6,600.3 L162.5,599.3 L164.4,598.2 L166.3,597.1 L168.1,596.0 L170.0,594.9 L171.9,593.8
		L173.8,592.7 L175.7,591.5 L177.6,590.4 L179.5,589.3 L181.4,588.2 L183.2,587.1 L185.1,586.0 L187.0,584.9
		L188.9,583.8 L190.8,582.8 L192.7,581.8 L194.6,580.7 L196.5,579.7 L198.3,578.7 L200.2,577.7 L202.1,576.7
		L204.0,575.7 L205.9,574.7 L207.8,573.7 L209.7,572.7 L211.6,571.7 L213.4,570.7 L215.3,569.6 L217.2,568.6
		L219.1,567.5 L221.0,566.5 L222.9,565.4 L224.8,564.4 L226.6,563.3 L228.5,562.2 L230.4,561.1 L232.3,560.0
		L234.2,558.9 L236.1,557.8 L238.0,556.7 L239.9,555.6 L241.7,554.6 L243.6,553.5 L245.5,552.4 L247.4,551.4
		L249.3,550.4 L251.2,549.4 L253.1,548.4 L255.0,547.4 L256.8,546.5 L258.7,545.5 L260.6,544.6 L262.5,543.6
		L264.4,542.7 L266.3,541.8 L268.2,540.8 L270.1,539.8 L271.9,538.8 L273.8,537.8 L275.7,536.7 L277.6,535.5
		L279.5,534.3 L281.4,533.1 L283.3,531.7 L285.2,530.3 L287.0,528.8 L288.9,527.2 L290.8,525.6 L292.7,523.8
		L294.6,522.0 L296.5,520.1 L298.4,518.1 L300.2,516.0 L302.1,513.9 L304.0,511.7 L305.9,509.4 L307.8,507.1
		L309.7,504.7 L311.6,502.3 L313.5,499.9 L315.3,497.4 L317.2,494.9 L319.1,492.4 L321.0,489.9 L322.9,487.4
		L324.8,484.8 L326.7,482.3 L328.6,479.8 L330.4,477.2 L332.3,474.7 L334.2,472.1 L336.1,469.6 L338.0,467.0
		L339.9,464.5 L341.8,461.9 L343.7,459.4 L345.5,456.8 L347.4,454.2 L349.3,451.6 L351.2,449.0 L353.1,446.4
		L355.0,443.8 L356.9,441.2 L358.8,438.5 L360.6,435.9 L362.5,433.2 L364.4,430.6 L366.3,427.9 L368.2,425.2
		L370.1,422.5 L372.0,419.9 L373.8,417.2 L375.7,414.5 L377.6,411.9 L379.5,409.2 L381.4,406.5 L383.3,403.9
		L385.2,401.3 L387.1,398.7 L388.9,396.1 L390.8,393.6 L392.7,391.0 L394.6,388.5 L396.5,386.0 L398.4,383.6
		L400.3,381.2 L402.2,378.8 L404.0,376.4 L405.9,374.1 L407.8,371.8 L409.7,369.6 L411.6,367.4 L413.5,365.2
		L415.4,363.0 L417.3,360.9 L419.1,358.8 L421.0,356.7 L422.9,354.7 L424.8,352.6 L426.7,350.7 L428.6,348.7
		L430.5,346.8 L432.4,345.0 L434.2,343.1 L436.1,341.4 L438.0,339.6 L439.9,337.9 L441.8,336.2 L443.7,334.5
		L445.6,332.9 L447.4,331.3 L449.3,329.7 L451.2,328.1 L453.1,326.5 L455.0,324.9 L456.9,323.3 L458.8,321.7
		L460.7,320.1 L462.5,318.4 L464.4,316.7 L466.3,315.0 L468.2,313.2 L470.1,311.4 L472.0,309.5 L473.9,307.6
		L475.8,305.6 L477.6,303.5 L479.5,301.4 L481.4,299.2 L483.3,297.0 L485.2,294.7 L487.1,292.3 L489.0,289.9
		L490.9,287.5 L492.7,285.0 L494.6,282.4 L496.5,279.8 L498.4,277.2 L500.3,274.5 L502.2,271.8 L504.1,269.0
		L506.0,266.2 L507.8,263.4 L509.7,260.5 L511.6,257.6 L513.5,254.7 L515.4,251.7 L517.3,248.7 L519.2,245.6
		L521.0,242.5 L522.9,239.3 L524.8,236.1 L526.7,232.9 L528.6,229.6 L530.5,226.3 L532.4,222.9 L534.3,219.4
		L536.1,216.0 L538.0,212.4 L539.9,208.8 L541.8,205.2 L543.7,201.5 L545.6,197.8 L547.5,194.0 L549.4,190.1
		L551.2,186.2 L553.1,182.3 L555.0,178.3 L556.9,174.3 L558.8,170.2 L560.7,166.1 L562.6,162.0 L564.5,157.9
		L566.3,153.7 L568.2,149.5 L570.1,145.4 L572.0,141.3 L573.9,137.2 L575.8,133.1 L577.7,129.1 L579.5,125.2
		L581.4,121.4 L583.3,117.7 L585.2,114.1 L587.1,110.7 L589.0,107.4 L590.9,104.3 L592.8,101.3 L594.6,98.6
		L596.5,96.0 L598.4,93.6 L600.3,91.5 L602.2,89.5 L604.1,87.7 L606.0,86.2 L607.9,84.8 L609.7,83.6
		L611.6,82.6 L613.5,81.7 L615.4,81.0 L617.3,80.5 L619.2,80.1 L621.1,79.8 L623.0,79.6 L624.8,79.5
		L626.7,79.5 L628.6,79.5 L630.5,79.7 L632.4,79.9 L634.3,80.1 L636.2,80.4 L638.1,80.8 L639.9,81.2
		L641.8,81.7 L643.7,82.2 L645.6,82.7 L647.5,83.3 L649.4,83.9 L651.3,84.6 L653.1,85.4 L655.0,86.2
		L656.9,87.1 L658.8,88.0 L660.7,89.0 L662.6,90.0 L664.5,91.1 L666.4,92.3 L668.2,93.5 L670.1,94.8
		L672.0,96.1 L673.9,97.4 L675.8,98.7 L677.7,100.1 L679.6,101.4 L681.5,102.8 L683.3,104.1 L685.2,105.5
		L687.1,106.7 L689.0,108.0 L690.9,109.2 L692.8,110.3 L694.7,111.4 L696.6,112.5 L698.4,113.5 L700.3,114.4
		L702.2,115.2 L704.1,116.0 L706.0,116.8 L707.9,117.4 L709.8,118.0 L711.7,118.6 L713.5,119.1 L715.4,119.5
		L717.3,119.9 L719.2,120.2 L721.1,120.4 L723.0,120.6 L724.9,120.8 L726.7,120.9 L728.6,120.9 L730.5,120.9
		L732.4,120.8 L734.3,120.7 L736.2,120.6 L738.1,120.3 L740.0,120.1 L741.8,119.8 L743.7,119.5 L745.6,119.1
		L747.5,118.7 L749.4,118.3 L751.3,117.9 L753.2,117.5 L755.1,117.1 L756.9,116.8 L758.8,116.4 L760.7,116.1
		L762.6,115.8 L764.5,115.5 L766.4,115.3 L768.3,115.1 L770.2,115.0 L772.0,115.0 L773.9,115.0 L775.8,115.1
		L777.7,115.3 L779.6,115.5 L781.5,115.8 L783.4,116.3 L785.3,116.8 L787.1,117.4 L789.0,118.1 L790.9,118.9
		L792.8,119.8 L794.7,120.9 L796.6,122.0 L798.5,123.4 L800.3,124.8 L802.2,126.4 L804.1,128.1 L806.0,130.0
		L807.9,132.1 L809.8,134.3 L811.7,136.7 L813.6,139.3 L815.4,142.0 L817.3,144.9 L819.2,148.0 L821.1,151.3
		L823.0,154.7 L824.9,158.3 L826.8,162.1 L828.7,166.0 L830.5,170.2 L832.4,174.4 L834.3,178.9 L836.2,183.5
		L838.1,188.2 L840.0,193.1 L841.9,198.1 L843.8,203.3 L845.6,208.6 L847.5,214.0 L849.4,219.5 L851.3,225.2
		L853.2,231.0 L855.1,236.9 L857.0,242.9 L858.9,249.0 L860.7,255.2 L862.6,261.6 L864.5,268.0 L866.4,274.4
		L868.3,281.0 L870.2,287.6 L872.1,294.3 L873.9,301.0 L875.8,307.8 L877.7,314.6 L879.6,321.5 L881.5,328.3
		L883.4,335.2 L885.3,342.1 L887.2,349.0 L889.0,355.8 L890.9,362.7 L892.8,369.5 L894.7,376.2 L896.6,383.0
		L898.5,389.7 L900.4,396.3 L902.3,402.9 L904.1,409.5 L906.0,416.0 L907.9,422.4 L909.8,428.7 L911.7,435.0
		L913.6,441.2 L915.5,447.3 L917.4,453.3 L919.2,459.3 L921.1,465.1 L923.0,470.9 L924.9,476.5 L926.8,482.1
		L928.7,487.6 L930.6,493.0 L932.5,498.2 L934.3,503.4 L936.2,508.5 L938.1,513.5 L940.0,518.4 L941.9,523.2
		L943.8,527.8 L945.7,532.4 L947.5,536.9 L949.4,541.3 L951.3,545.7 L953.2,549.9 L955.1,554.0 L957.0,558.0
		L958.9,562.0 L960.8,565.8 L962.6,569.6 L964.5,573.3 L966.4,576.9 L968.3,580.3 L970.2,583.7 L972.1,587.1
		L974.0,590.3 L975.9,593.4 L977.7,596.4 L979.6,599.4 L981.5,602.2 L983.4,605.0 L985.3,607.7 L987.2,610.3
		L989.1,612.8 L991.0,615.2 L992.8,617.5 L994.7,619.8 L996.6,622.0 L998.5,624.0 L1000.4,626.0 L1002.3,628.0
		L1004.2,629.8 L1006.1,631.6 L1007.9,633.3 L1009.8,634.9 L1011.7,636.4 L1013.6,637.9  '/></g>
	</g>
	<g id="gnuplot_plot_2" ><title>Confidence interval</title>
<g fill="none" color="white" stroke="rgb( 31, 120, 180)" stroke-width="1.00" stroke-linecap="butt" stroke-linejoin="miter">
</g>
<g fill="none" color="black" stroke="currentColor" stroke-width="1.00" stroke-linecap="butt" stroke-linejoin="miter">
	<g transform="translate(1089.0,85.0)" stroke="none" fill="black" font-family="Helvetica" font-size="12.00"  text-anchor="start">
		<text><tspan font-family="Helvetica" >Confidence interval</tspan></text>
	</g>
</g>
<g fill="none" color="black" stroke="currentColor" stroke-width="1.00" stroke-linecap="butt" stroke-linejoin="miter">
	<g stroke='none' shape-rendering='crispEdges'>
		<polygon fill = 'rgb( 31, 120, 180)' fill-opacity = '0.250000' points = '1038.5,85.6 1080.7,85.6 1080.7,76.6 1038.5,76.6 '/>
		<polygon fill = 'rgb( 31, 120, 180)' fill-opacity = '0.250000' points = '158.7,601.3 158.7,662.4 160.6,662.4 160.6,600.3 '/>
		<polygon fill = 'rgb( 31, 120, 180)' fill-opacity = '0.250000' points = '160.6,600.3 160.6,662.4 162.5,662.4 162.5,599.3 '/>
		<polygon fill = 'rgb( 31, 120, 180)' fill-opacity = '0.250000' points = '162.5,599.3 162.5,662.4 164.4,662.4 164.4,598.2 '/>
		<polygon fill = 'rgb( 31, 120, 180)' fill-opacity = '0.250000' points = '164.4,598.2 164.4,662.4 166.3,662.4 166.3,597.1 '/>
		<polygon fill = 'rgb( 31, 120, 180)' fill-opacity = '0.250000' points = '166.3,597.1 166.3,662.4 168.1,662.4 168.1,596.0 '/>
		<polygon fill = 'rgb( 31, 120, 180)' fill-opacity = '0.250000' points = '168.1,596.0 168.1,662.4 170.0,662.4 170.0,594.9 '/>
		<polygon fill = 'rgb( 31, 120, 180)' fill-opacity = '0.250000' points = '170.0,594.9 170.0,662.4 171.9,662.4 171.9,593.8 '/>
		<polygon fill = 'rgb( 31, 120, 180)' fill-opacity = '0.250000' points = '171.9,593.8 171.9,662.4 173.8,662.4 173.8,592.7 '/>
		<polygon fill = 'rgb( 31, 120, 180)' fill-opacity = '0.250000' points = '173.8,592.7 173.8,662.4 175.7,662.4 175.7,591.5 '/>
		<polygon fill = 'rgb( 31, 120, 180)' fill-opacity = '0.250000' points = '175.7,591.5 175.7,662.4 177.6,662.4 177.6,590.4 '/>
		<polygon fill = 'rgb( 31, 120, 180)' fill-opacity = '0.250000' points = '177.6,590.4 177.6,662.4 179.5,662.4 179.5,589.3 '/>
		<polygon fill = 'rgb( 31, 120, 180)' fill-opacity = '0.250000' points = '179.5,589.3 179.5,662.4 181.4,662.4 181.4,588.2 '/>
		<polygon fill = 'rgb( 31, 120, 180)' fill-opacity = '0.250000' points = '181.4,588.2 181.4,662.4 183.2,662.4 183.2,587.1 '/>
		<polygon fill = 'rgb( 31, 120, 180)' fill-opacity = '0.250000' points = '183.2,587.1 183.2,662.4 185.1,662.4 185.1,586.0 '/>
		<polygon fill = 'rgb( 31, 120, 180)' fill-opacity = '0.250000' points = '185.1,586.0 185.1,662.4 187.0,662.4 187.0,584.9 '/>
		<polygon fill = 'rgb( 31, 120, 180)' fill-opacity = '0.250000' points = '187.0,584.9 187.0,662.4 188.9,662.4 188.9,583.8 '/>
		<polygon fill = 'rgb( 31, 120, 180)' fill-opacity = '0.250000' points = '188.9,583.8 188.9,662.4 190.8,662.4 190.8,582.8 '/>
		<polygon fill = 'rgb( 31, 120, 180)' fill-opacity = '0.250000' points = '190.8,582.8 190.8,662.4 192.7,662.4 192.7,581.8 '/>
		<polygon fill = 'rgb( 31, 120, 180)' fill-opacity = '0.250000' points = '192.7,581.8 192.7,662.4 194.6,662.4 194.6,580.7 '/>
		<polygon fill = 'rgb( 31, 120, 180)' fill-opacity = '0.250000' points = '194.6,580.7 194.6,662.4 196.5,662.4 196.5,579.7 '/>
		<polygon fill = 'rgb( 31, 120, 180)' fill-opacity = '0.250000' points = '196.5,579.7 196.5,662.4 198.3,662.4 198.3,578.7 '/>
		<polygon fill = 'rgb( 31, 120, 180)' fill-opacity = '0.250000' points = '198.3,578.7 198.3,662.4 200.2,662.4 200.2,577.7 '/>
		<polygon fill = 'rgb( 31, 120, 180)' fill-opacity = '0.250000' points = '200.2,577.7 200.2,662.4 202.1,662.4 202.1,576.7 '/>
		<polygon fill = 'rgb( 31, 120, 180)' fill-opacity = '0.250000' points = '202.1,576.7 202.1,662.4 204.0,662.4 204.0,575.7 '/>
		<polygon fill = 'rgb( 31, 120, 180)' fill-opacity = '0.250000' points = '204.0,575.7 204.0,662.4 205.9,662.4 205.9,574.7 '/>
		<polygon fill = 'rgb( 31, 120, 180)' fill-opacity = '0.250000' points = '205.9,574.7 205.9,662.4 207.8,662.4 207.8,573.7 '/>
		<polygon fill = 'rgb( 31, 120, 180)' fill-opacity = '0.250000' points = '207.8,573.7 207.8,662.4 209.7,662.4 209.7,572.7 '/>
		<polygon fill = 'rgb( 31, 120, 180)' fill-opacity = '0.250000' points = '209.7,572.7 209.7,662.4 211.6,662.4 211.6,571.7 '/>
		<polygon fill = 'rgb( 31, 120, 180)' fill-opacity = '0.250000' points = '211.6,571.7 211.6,662.4 213.4,662.4 213.4,570.7 '/>
		<polygon fill = 'rgb( 31, 120, 180)' fill-opacity = '0.250000' points = '213.4,570.7 213.4,662.4 215.3,662.4 215.3,569.6 '/>
		<polygon fill = 'rgb( 31, 120, 180)' fill-opacity = '0.250000' points = '215.3,569.6 215.3,662.4 217.2,662.4 217.2,568.6 '/>
		<polygon fill = 'rgb( 31, 120, 180)' fill-opacity = '0.250000' points = '217.2,568.6 217.2,662.4 219.1,662.4 219.1,567.5 '/>
		<polygon fill = 'rgb( 31, 120, 180)' fill-opacity = '0.250000' points = '219.1,567.5 219.1,662.4 221.0,662.4 221.0,566.5 '/>
		<polygon fill = 'rgb( 31, 120, 180)' fill-opacity = '0.250000' points = '221.0,566.5 221.0,662.4 222.9,662.4 222.9,565.4 '/>
		<polygon fill = 'rgb( 31, 120, 180)' fill-opacity = '0.250000' points = '222.9,565.4 222.9,662.4 224.8,662.4 224.8,564.4 '/>
		<polygon fill = 'rgb( 31, 120, 180)' fill-opacity = '0.250000' points = '224.8,564.4 224.8,662.4 226.6,662.4 226.6,563.3 '/>
		<polygon fill = 'rgb( 31, 120, 180)' fill-opacity = '0.250000' points = '226.6,563.3 226.6,662.4 228.5,662.4 228.5,562.2 '/>
		<polygon fill = 'rgb( 31, 120, 180)' fill-opacity = '0.250000' points = '228.5,562.2 228.5,662.4 230.4,662.4 230.4,561.1 '/>
		<polygon fill = 'rgb( 31, 120, 180)' fill-opacity = '0.250000' points = '230.4,561.1 230.4,662.4 232.3,662.4 232.3,560.0 '/>
		<polygon fill = 'rgb( 31, 120, 180)' fill-opacity = '0.250000' points = '232.3,560.0 232.3,662.4 234.2,662.4 234.2,558.9 '/>
		<polygon fill = 'rgb( 31, 120, 180)' fill-opacity = '0.250000' points = '234.2,558.9 234.2,662.4 236.1,662.4 236.1,557.8 '/>
		<polygon fill = 'rgb( 31, 120, 180)' fill-opacity = '0.250000' points = '236.1,557.8 236.1,662.4 238.0,662.4 238.0,556.7 '/>
		<polygon fill = 'rgb( 31, 120, 180)' fill-opacity = '0.250000' points = '238.0,556.7 238.0,662.4 239.9,662.4 239.9,555.6 '/>
		<polygon fill = 'rgb( 31, 120, 180)' fill-opacity = '0.250000' points = '239.9,555.6 239.9,662.4 241.7,662.4 241.7,554.6 '/>
		<polygon fill = 'rgb( 31, 120, 180)' fill-opacity = '0.250000' points = '241.7,554.6 241.7,662.4 243.6,662.4 243.6,553.5 '/>
		<polygon fill = 'rgb( 31, 120, 180)' fill-opacity = '0.250000' points = '243.6,553.5 243.6,662.4 245.5,662.4 245.5,552.4 '/>
		<polygon fill = 'rgb( 31, 120, 180)' fill-opacity = '0.250000' points = '245.5,552.4 245.5,662.4 247.4,662.4 247.4,551.4 '/>
		<polygon fill = 'rgb( 31, 120, 180)' fill-opacity = '0.250000' points = '247.4,551.4 247.4,662.4 249.3,662.4 249.3,550.4 '/>
		<polygon fill = 'rgb( 31, 120, 180)' fill-opacity = '0.250000' points = '249.3,550.4 249.3,662.4 251.2,662.4 251.2,549.4 '/>
		<polygon fill = 'rgb( 31, 120, 180)' fill-opacity = '0.250000' points = '251.2,549.4 251.2,662.4 253.1,662.4 253.1,548.4 '/>
		<polygon fill = 'rgb( 31, 120, 180)' fill-opacity = '0.250000' points = '253.1,548.4 253.1,662.4 255.0,662.4 255.0,547.4 '/>
		<polygon fill = 'rgb( 31, 120, 180)' fill-opacity = '0.250000' points = '255.0,547.4 255.0,662.4 256.8,662.4 256.8,546.5 '/>
		<polygon fill = 'rgb( 31, 120, 180)' fill-opacity = '0.250000' points = '256.8,546.5 256.8,662.4 258.7,662.4 258.7,545.5 '/>
		<polygon fill = 'rgb( 31, 120, 180)' fill-opacity = '0.250000' points = '258.7,545.5 258.7,662.4 260.6,662.4 260.6,544.6 '/>
		<polygon fill = 'rgb( 31, 120, 180)' fill-opacity = '0.250000' points = '260.6,544.6 260.6,662.4 262.5,662.4 262.5,543.6 '/>
		<polygon fill = 'rgb( 31, 120, 180)' fill-opacity = '0.250000' points = '262.5,543.6 262.5,662.4 264.4,662.4 264.4,542.7 '/>
		<polygon fill = 'rgb( 31, 120, 180)' fill-opacity = '0.250000' points = '264.4,542.7 264.4,662.4 266.3,662.4 266.3,541.8 '/>
		<polygon fill = 'rgb( 31, 120, 180)' fill-opacity = '0.250000' points = '266.3,541.8 266.3,662.4 268.2,662.4 268.2,540.8 '/>
		<polygon fill = 'rgb( 31, 120, 180)' fill-opacity = '0.250000' points = '268.2,540.8 268.2,662.4 270.1,662.4 270.1,539.8 '/>
		<polygon fill = 'rgb( 31, 120, 180)' fill-opacity = '0.250000' points = '270.1,539.8 270.1,662.4 271.9,662.4 271.9,538.8 '/>
		<polygon fill = 'rgb( 31, 120, 180)' fill-opacity = '0.250000' points = '271.9,538.8 271.9,662.4 273.8,662.4 273.8,537.8 '/>
		<polygon fill = 'rgb( 31, 120, 180)' fill-opacity = '0.250000' points = '273.8,537.8 273.8,662.4 275.7,662.4 275.7,536.7 '/>
		<polygon fill = 'rgb( 31, 120, 180)' fill-opacity = '0.250000' points = '275.7,536.7 275.7,662.4 277.6,662.4 277.6,535.5 '/>
		<polygon fill = 'rgb( 31, 120, 180)' fill-opacity = '0.250000' points = '277.6,535.5 277.6,662.4 279.5,662.4 279.5,534.3 '/>
		<polygon fill = 'rgb( 31, 120, 180)' fill-opacity = '0.250000' points = '279.5,534.3 279.5,662.4 281.4,662.4 281.4,533.1 '/>
		<polygon fill = 'rgb( 31, 120, 180)' fill-opacity = '0.250000' points = '281.4,533.1 281.4,662.4 283.3,662.4 283.3,531.7 '/>
		<polygon fill = 'rgb( 31, 120, 180)' fill-opacity = '0.250000' points = '283.3,531.7 283.3,662.4 285.2,662.4 285.2,530.3 '/>
		<polygon fill = 'rgb( 31, 120, 180)' fill-opacity = '0.250000' points = '285.2,530.3 285.2,662.4 287.0,662.4 287.0,528.8 '/>
		<polygon fill = 'rgb( 31, 120, 180)' fill-opacity = '0.250000' points = '287.0,528.8 287.0,662.4 288.9,662.4 288.9,527.2 '/>
		<polygon fill = 'rgb( 31, 120, 180)' fill-opacity = '0.250000' points = '288.9,527.2 288.9,662.4 290.8,662.4 290.8,525.6 '/>
		<polygon fill = 'rgb( 31, 120, 180)' fill-opacity = '0.250000' points = '290.8,525.6 290.8,662.4 292.7,662.4 292.7,523.8 '/>
		<polygon fill = 'rgb( 31, 120, 180)' fill-opacity = '0.250000' points = '292.7,523.8 292.7,662.4 294.6,662.4 294.6,522.0 '/>
		<polygon fill = 'rgb( 31, 120, 180)' fill-opacity = '0.250000' points = '294.6,522.0 294.6,662.4 296.5,662.4 296.5,520.1 '/>
		<polygon fill = 'rgb( 31, 120, 180)' fill-opacity = '0.250000' points = '296.5,520.1 296.5,662.4 298.4,662.4 298.4,518.1 '/>
		<polygon fill = 'rgb( 31, 120, 180)' fill-opacity = '0.250000' points = '298.4,518.1 298.4,662.4 300.2,662.4 300.2,516.0 '/>
		<polygon fill = 'rgb( 31, 120, 180)' fill-opacity = '0.250000' points = '300.2,516.0 300.2,662.4 302.1,662.4 302.1,513.9 '/>
		<polygon fill = 'rgb( 31, 120, 180)' fill-opacity = '0.250000' points = '302.1,513.9 302.1,662.4 304.0,662.4 304.0,511.7 '/>
		<polygon fill = 'rgb( 31, 120, 180)' fill-opacity = '0.250000' points = '304.0,511.7 304.0,662.4 305.9,662.4 305.9,509.4 '/>
		<polygon fill = 'rgb( 31, 120, 180)' fill-opacity = '0.250000' points = '305.9,509.4 305.9,662.4 307.8,662.4 307.8,507.1 '/>
		<polygon fill = 'rgb( 31, 120, 180)' fill-opacity = '0.250000' points = '307.8,507.1 307.8,662.4 309.7,662.4 309.7,504.7 '/>
		<polygon fill = 'rgb( 31, 120, 180)' fill-opacity = '0.250000' points = '309.7,504.7 309.7,662.4 311.6,662.4 311.6,502.3 '/>
		<polygon fill = 'rgb( 31, 120, 180)' fill-opacity = '0.250000' points = '311.6,502.3 311.6,662.4 313.5,662.4 313.5,499.9 '/>
		<polygon fill = 'rgb( 31, 120, 180)' fill-opacity = '0.250000' points = '313.5,499.9 313.5,662.4 315.3,662.4 315.3,497.4 '/>
		<polygon fill = 'rgb( 31, 120, 180)' fill-opacity = '0.250000' points = '315.3,497.4 315.3,662.4 317.2,662.4 317.2,494.9 '/>
		<polygon fill = 'rgb( 31, 120, 180)' fill-opacity = '0.250000' points = '317.2,494.9 317.2,662.4 319.1,662.4 319.1,492.4 '/>
		<polygon fill = 'rgb( 31, 120, 180)' fill-opacity = '0.250000' points = '319.1,492.4 319.1,662.4 321.0,662.4 321.0,489.9 '/>
		<polygon fill = 'rgb( 31, 120, 180)' fill-opacity = '0.250000' points = '321.0,489.9 321.0,662.4 322.9,662.4 322.9,487.4 '/>
		<polygon fill = 'rgb( 31, 120, 180)' fill-opacity = '0.250000' points = '322.9,487.4 322.9,662.4 324.8,662.4 324.8,484.8 '/>
		<polygon fill = 'rgb( 31, 120, 180)' fill-opacity = '0.250000' points = '324.8,484.8 324.8,662.4 326.7,662.4 326.7,482.3 '/>
		<polygon fill = 'rgb( 31, 120, 180)' fill-opacity = '0.250000' points = '326.7,482.3 326.7,662.4 328.6,662.4 328.6,479.8 '/>
		<polygon fill = 'rgb( 31, 120, 180)' fill-opacity = '0.250000' points = '328.6,479.8 328.6,662.4 330.4,662.4 330.4,477.2 '/>
		<polygon fill = 'rgb( 31, 120, 180)' fill-opacity = '0.250000' points = '330.4,477.2 330.4,662.4 332.3,662.4 332.3,474.7 '/>
		<polygon fill = 'rgb( 31, 120, 180)' fill-opacity = '0.250000' points = '332.3,474.7 332.3,662.4 334.2,662.4 334.2,472.1 '/>
		<polygon fill = 'rgb( 31, 120, 180)' fill-opacity = '0.250000' points = '334.2,472.1 334.2,662.4 336.1,662.4 336.1,469.6 '/>
		<polygon fill = 'rgb( 31, 120, 180)' fill-opacity = '0.250000' points = '336.1,469.6 336.1,662.4 338.0,662.4 338.0,467.0 '/>
		<polygon fill = 'rgb( 31, 120, 180)' fill-opacity = '0.250000' points = '338.0,467.0 338.0,662.4 339.9,662.4 339.9,464.5 '/>
		<polygon fill = 'rgb( 31, 120, 180)' fill-opacity = '0.250000' points = '339.9,464.5 339.9,662.4 341.8,662.4 341.8,461.9 '/>
		<polygon fill = 'rgb( 31, 120, 180)' fill-opacity = '0.250000' points = '341.8,461.9 341.8,662.4 343.7,662.4 343.7,459.4 '/>
		<polygon fill = 'rgb( 31, 120, 180)' fill-opacity = '0.250000' points = '343.7,459.4 343.7,662.4 345.5,662.4 345.5,456.8 '/>
		<polygon fill = 'rgb( 31, 120, 180)' fill-opacity = '0.250000' points = '345.5,456.8 345.5,662.4 347.4,662.4 347.4,454.2 '/>
		<polygon fill = 'rgb( 31, 120, 180)' fill-opacity = '0.250000' points = '347.4,454.2 347.4,662.4 349.3,662.4 349.3,451.6 '/>
		<polygon fill = 'rgb( 31, 120, 180)' fill-opacity = '0.250000' points = '349.3,451.6 349.3,662.4 351.2,662.4 351.2,449.0 '/>
		<polygon fill = 'rgb( 31, 120, 180)' fill-opacity = '0.250000' points = '351.2,449.0 351.2,662.4 353.1,662.4 353.1,446.4 '/>
		<polygon fill = 'rgb( 31, 120, 180)' fill-opacity = '0.250000' points = '353.1,446.4 353.1,662.4 355.0,662.4 355.0,443.8 '/>
		<polygon fill = 'rgb( 31, 120, 180)' fill-opacity = '0.250000' points = '355.0,443.8 355.0,662.4 356.9,662.4 356.9,441.2 '/>
		<polygon fill = 'rgb( 31, 120, 180)' fill-opacity = '0.250000' points = '356.9,441.2 356.9,662.4 358.8,662.4 358.8,438.5 '/>
		<polygon fill = 'rgb( 31, 120, 180)' fill-opacity = '0.250000' points = '358.8,438.5 358.8,662.4 360.6,662.4 360.6,435.9 '/>
		<polygon fill = 'rgb( 31, 120, 180)' fill-opacity = '0.250000' points = '360.6,435.9 360.6,662.4 362.5,662.4 362.5,433.2 '/>
		<polygon fill = 'rgb( 31, 120, 180)' fill-opacity = '0.250000' points = '362.5,433.2 362.5,662.4 364.4,662.4 364.4,430.6 '/>
		<polygon fill = 'rgb( 31, 120, 180)' fill-opacity = '0.250000' points = '364.4,430.6 364.4,662.4 366.3,662.4 366.3,427.9 '/>
		<polygon fill = 'rgb( 31, 120, 180)' fill-opacity = '0.250000' points = '366.3,427.9 366.3,662.4 368.2,662.4 368.2,425.2 '/>
		<polygon fill = 'rgb( 31, 120, 180)' fill-opacity = '0.250000' points = '368.2,425.2 368.2,662.4 370.1,662.4 370.1,422.5 '/>
		<polygon fill = 'rgb( 31, 120, 180)' fill-opacity = '0.250000' points = '370.1,422.5 370.1,662.4 372.0,662.4 372.0,419.9 '/>
		<polygon fill = 'rgb( 31, 120, 180)' fill-opacity = '0.250000' points = '372.0,419.9 372.0,662.4 373.8,662.4 373.8,417.2 '/>
		<polygon fill = 'rgb( 31, 120, 180)' fill-opacity = '0.250000' points = '373.8,417.2 373.8,662.4 375.7,662.4 375.7,414.5 '/>
		<polygon fill = 'rgb( 31, 120, 180)' fill-opacity = '0.250000' points = '375.7,414.5 375.7,662.4 377.6,662.4 377.6,411.9 '/>
		<polygon fill = 'rgb( 31, 120, 180)' fill-opacity = '0.250000' points = '377.6,411.9 377.6,662.4 379.5,662.4 379.5,409.2 '/>
		<polygon fill = 'rgb( 31, 120, 180)' fill-opacity = '0.250000' points = '379.5,409.2 379.5,662.4 381.4,662.4 381.4,406.5 '/>
		<polygon fill = 'rgb( 31, 120, 180)' fill-opacity = '0.250000' points = '381.4,406.5 381.4,662.4 383.3,662.4 383.3,403.9 '/>
		<polygon fill = 'rgb( 31, 120, 180)' fill-opacity = '0.250000' points = '383.3,403.9 383.3,662.4 385.2,662.4 385.2,401.3 '/>
		<polygon fill = 'rgb( 31, 120, 180)' fill-opacity = '0.250000' points = '385.2,401.3 385.2,662.4 387.1,662.4 387.1,398.7 '/>
		<polygon fill = 'rgb( 31, 120, 180)' fill-opacity = '0.250000' points = '387.1,398.7 387.1,662.4 388.9,662.4 388.9,396.1 '/>
		<polygon fill = 'rgb( 31, 120, 180)' fill-opacity = '0.250000' points = '388.9,396.1 388.9,662.4 390.8,662.4 390.8,393.6 '/>
		<polygon fill = 'rgb( 31, 120, 180)' fill-opacity = '0.250000' points = '390.8,393.6 390.8,662.4 392.7,662.4 392.7,391.0 '/>
		<polygon fill = 'rgb( 31, 120, 180)' fill-opacity = '0.250000' points = '392.7,391.0 392.7,662.4 394.6,662.4 394.6,388.5 '/>
		<polygon fill = 'rgb( 31, 120, 180)' fill-opacity = '0.250000' points = '394.6,388.5 394.6,662.4 396.5,662.4 396.5,386.0 '/>
		<polygon fill = 'rgb( 31, 120, 180)' fill-opacity = '0.250000' points = '396.5,386.0 396.5,662.4 398.4,662.4 398.4,383.6 '/>
		<polygon fill = 'rgb( 31, 120, 180)' fill-opacity = '0.250000' points = '398.4,383.6 398.4,662.4 400.3,662.4 400.3,381.2 '/>
		<polygon fill = 'rgb( 31, 120, 180)' fill-opacity = '0.250000' points = '400.3,381.2 400.3,662.4 402.2,662.4 402.2,378.8 '/>
		<polygon fill = 'rgb( 31, 120, 180)' fill-opacity = '0.250000' points = '402.2,378.8 402.2,662.4 404.0,662.4 404.0,376.4 '/>
		<polygon fill = 'rgb( 31, 120, 180)' fill-opacity = '0.250000' points = '404.0,376.4 404.0,662.4 405.9,662.4 405.9,374.1 '/>
		<polygon fill = 'rgb( 31, 120, 180)' fill-opacity = '0.250000' points = '405.9,374.1 405.9,662.4 407.8,662.4 407.8,371.8 '/>
		<polygon fill = 'rgb( 31, 120, 180)' fill-opacity = '0.250000' points = '407.8,371.8 407.8,662.4 409.7,662.4 409.7,369.6 '/>
		<polygon fill = 'rgb( 31, 120, 180)' fill-opacity = '0.250000' points = '409.7,369.6 409.7,662.4 411.6,662.4 411.6,367.4 '/>
		<polygon fill = 'rgb( 31, 120, 180)' fill-opacity = '0.250000' points = '411.6,367.4 411.6,662.4 413.5,662.4 413.5,365.2 '/>
		<polygon fill = 'rgb( 31, 120, 180)' fill-opacity = '0.250000' points = '413.5,365.2 413.5,662.4 415.4,662.4 415.4,363.0 '/>
		<polygon fill = 'rgb( 31, 120, 180)' fill-opacity = '0.250000' points = '415.4,363.0 415.4,662.4 417.3,662.4 417.3,360.9 '/>
		<polygon fill = 'rgb( 31, 120, 180)' fill-opacity = '0.250000' points = '417.3,360.9 417.3,662.4 419.1,662.4 419.1,358.8 '/>
		<polygon fill = 'rgb( 31, 120, 180)' fill-opacity = '0.250000' points = '419.1,358.8 419.1,662.4 421.0,662.4 421.0,356.7 '/>
		<polygon fill = 'rgb( 31, 120, 180)' fill-opacity = '0.250000' points = '421.0,356.7 421.0,662.4 422.9,662.4 422.9,354.7 '/>
		<polygon fill = 'rgb( 31, 120, 180)' fill-opacity = '0.250000' points = '422.9,354.7 422.9,662.4 424.8,662.4 424.8,352.6 '/>
		<polygon fill = 'rgb( 31, 120, 180)' fill-opacity = '0.250000' points = '424.8,352.6 424.8,662.4 426.7,662.4 426.7,350.7 '/>
		<polygon fill = 'rgb( 31, 120, 180)' fill-opacity = '0.250000' points = '426.7,350.7 426.7,662.4 428.6,662.4 428.6,348.7 '/>
		<polygon fill = 'rgb( 31, 120, 180)' fill-opacity = '0.250000' points = '428.6,348.7 428.6,662.4 430.5,662.4 430.5,346.8 '/>
		<polygon fill = 'rgb( 31, 120, 180)' fill-opacity = '0.250000' points = '430.5,346.8 430.5,662.4 432.4,662.4 432.4,345.0 '/>
		<polygon fill = 'rgb( 31, 120, 180)' fill-opacity = '0.250000' points = '432.4,345.0 432.4,662.4 434.2,662.4 434.2,343.1 '/>
		<polygon fill = 'rgb( 31, 120, 180)' fill-opacity = '0.250000' points = '434.2,343.1 434.2,662.4 436.1,662.4 436.1,341.4 '/>
		<polygon fill = 'rgb( 31, 120, 180)' fill-opacity = '0.250000' points = '436.1,341.4 436.1,662.4 438.0,662.4 438.0,339.6 '/>
		<polygon fill = 'rgb( 31, 120, 180)' fill-opacity = '0.250000' points = '438.0,339.6 438.0,662.4 439.9,662.4 439.9,337.9 '/>
		<polygon fill = 'rgb( 31, 120, 180)' fill-opacity = '0.250000' points = '439.9,337.9 439.9,662.4 441.8,662.4 441.8,336.2 '/>
		<polygon fill = 'rgb( 31, 120, 180)' fill-opacity = '0.250000' points = '441.8,336.2 441.8,662.4 443.7,662.4 443.7,334.5 '/>
		<polygon fill = 'rgb( 31, 120, 180)' fill-opacity = '0.250000' points = '443.7,334.5 443.7,662.4 445.6,662.4 445.6,332.9 '/>
		<polygon fill = 'rgb( 31, 120, 180)' fill-opacity = '0.250000' points = '445.6,332.9 445.6,662.4 447.4,662.4 447.4,331.3 '/>
		<polygon fill = 'rgb( 31, 120, 180)' fill-opacity = '0.250000' points = '447.4,331.3 447.4,662.4 449.3,662.4 449.3,329.7 '/>
		<polygon fill = 'rgb( 31, 120, 180)' fill-opacity = '0.250000' points = '449.3,329.7 449.3,662.4 451.2,662.4 451.2,328.1 '/>
		<polygon fill = 'rgb( 31, 120, 180)' fill-opacity = '0.250000' points = '451.2,328.1 451.2,662.4 453.1,662.4 453.1,326.5 '/>
		<polygon fill = 'rgb( 31, 120, 180)' fill-opacity = '0.250000' points = '453.1,326.5 453.1,662.4 455.0,662.4 455.0,324.9 '/>
		<polygon fill = 'rgb( 31, 120, 180)' fill-opacity = '0.250000' points = '455.0,324.9 455.0,662.4 456.9,662.4 456.9,323.3 '/>
		<polygon fill = 'rgb( 31, 120, 180)' fill-opacity = '0.250000' points = '456.9,323.3 456.9,662.4 458.8,662.4 458.8,321.7 '/>
		<polygon fill = 'rgb( 31, 120, 180)' fill-opacity = '0.250000' points = '458.8,321.7 458.8,662.4 460.7,662.4 460.7,320.1 '/>
		<polygon fill = 'rgb( 31, 120, 180)' fill-opacity = '0.250000' points = '460.7,320.1 460.7,662.4 462.5,662.4 462.5,318.4 '/>
		<polygon fill = 'rgb( 31, 120, 180)' fill-opacity = '0.250000' points = '462.5,318.4 462.5,662.4 464.4,662.4 464.4,316.7 '/>
		<polygon fill = 'rgb( 31, 120, 180)' fill-opacity = '0.250000' points = '464.4,316.7 464.4,662.4 466.3,662.4 466.3,315.0 '/>
		<polygon fill = 'rgb( 31, 120, 180)' fill-opacity = '0.250000' points = '466.3,315.0 466.3,662.4 468.2,662.4 468.2,313.2 '/>
		<polygon fill = 'rgb( 31, 120, 180)' fill-opacity = '0.250000' points = '468.2,313.2 468.2,662.4 470.1,662.4 470.1,311.4 '/>
		<polygon fill = 'rgb( 31, 120, 180)' fill-opacity = '0.250000' points = '470.1,311.4 470.1,662.4 472.0,662.4 472.0,309.5 '/>
		<polygon fill = 'rgb( 31, 120, 180)' fill-opacity = '0.250000' points = '472.0,309.5 472.0,662.4 473.9,662.4 473.9,307.6 '/>
		<polygon fill = 'rgb( 31, 120, 180)' fill-opacity = '0.250000' points = '473.9,307.6 473.9,662.4 475.8,662.4 475.8,305.6 '/>
		<polygon fill = 'rgb( 31, 120, 180)' fill-opacity = '0.250000' points = '475.8,305.6 475.8,662.4 477.6,662.4 477.6,303.5 '/>
		<polygon fill = 'rgb( 31, 120, 180)' fill-opacity = '0.250000' points = '477.6,303.5 477.6,662.4 479.5,662.4 479.5,301.4 '/>
		<polygon fill = 'rgb( 31, 120, 180)' fill-opacity = '0.250000' points = '479.5,301.4 479.5,662.4 481.4,662.4 481.4,299.2 '/>
		<polygon fill = 'rgb( 31, 120, 180)' fill-opacity = '0.250000' points = '481.4,299.2 481.4,662.4 483.3,662.4 483.3,297.0 '/>
		<polygon fill = 'rgb( 31, 120, 180)' fill-opacity = '0.250000' points = '483.3,297.0 483.3,662.4 485.2,662.4 485.2,294.7 '/>
		<polygon fill = 'rgb( 31, 120, 180)' fill-opacity = '0.250000' points = '485.2,294.7 485.2,662.4 487.1,662.4 487.1,292.3 '/>
		<polygon fill = 'rgb( 31, 120, 180)' fill-opacity = '0.250000' points = '487.1,292.3 487.1,662.4 489.0,662.4 489.0,289.9 '/>
		<polygon fill = 'rgb( 31, 120, 180)' fill-opacity = '0.250000' points = '489.0,289.9 489.0,662.4 490.9,662.4 490.9,287.5 '/>
		<polygon fill = 'rgb( 31, 120, 180)' fill-opacity = '0.250000' points = '490.9,287.5 490.9,662.4 492.7,662.4 492.7,285.0 '/>
		<polygon fill = 'rgb( 31, 120, 180)' fill-opacity = '0.250000' points = '492.7,285.0 492.7,662.4 494.6,662.4 494.6,282.4 '/>
		<polygon fill = 'rgb( 31, 120, 180)' fill-opacity = '0.250000' points = '494.6,282.4 494.6,662.4 496.5,662.4 496.5,279.8 '/>
		<polygon fill = 'rgb( 31, 120, 180)' fill-opacity = '0.250000' points = '496.5,279.8 496.5,662.4 498.4,662.4 498.4,277.2 '/>
		<polygon fill = 'rgb( 31, 120, 180)' fill-opacity = '0.250000' points = '498.4,277.2 498.4,662.4 500.3,662.4 500.3,274.5 '/>
		<polygon fill = 'rgb( 31, 120, 180)' fill-opacity = '0.250000' points = '500.3,274.5 500.3,662.4 502.2,662.4 502.2,271.8 '/>
		<polygon fill = 'rgb( 31, 120, 180)' fill-opacity = '0.250000' points = '502.2,271.8 502.2,662.4 504.1,662.4 504.1,269.0 '/>
		<polygon fill = 'rgb( 31, 120, 180)' fill-opacity = '0.250000' points = '504.1,269.0 504.1,662.4 506.0,662.4 506.0,266.2 '/>
		<polygon fill = 'rgb( 31, 120, 180)' fill-opacity = '0.250000' points = '506.0,266.2 506.0,662.4 507.8,662.4 507.8,263.4 '/>
		<polygon fill = 'rgb( 31, 120, 180)' fill-opacity = '0.250000' points = '507.8,263.4 507.8,662.4 509.7,662.4 509.7,260.5 '/>
		<polygon fill = 'rgb( 31, 120, 180)' fill-opacity = '0.250000' points = '509.7,260.5 509.7,662.4 511.6,662.4 511.6,257.6 '/>
		<polygon fill = 'rgb( 31, 120, 180)' fill-opacity = '0.250000' points = '511.6,257.6 511.6,662.4 513.5,662.4 513.5,254.7 '/>
		<polygon fill = 'rgb( 31, 120, 180)' fill-opacity = '0.250000' points = '513.5,254.7 513.5,662.4 515.4,662.4 515.4,251.7 '/>
		<polygon fill = 'rgb( 31, 120, 180)' fill-opacity = '0.250000' points = '515.4,251.7 515.4,662.4 517.3,662.4 517.3,248.7 '/>
		<polygon fill = 'rgb( 31, 120, 180)' fill-opacity = '0.250000' points = '517.3,248.7 517.3,662.4 519.2,662.4 519.2,245.6 '/>
		<polygon fill = 'rgb( 31, 120, 180)' fill-opacity = '0.250000' points = '519.2,245.6 519.2,662.4 521.0,662.4 521.0,242.5 '/>
		<polygon fill = 'rgb( 31, 120, 180)' fill-opacity = '0.250000' points = '521.0,242.5 521.0,662.4 522.9,662.4 522.9,239.3 '/>
		<polygon fill = 'rgb( 31, 120, 180)' fill-opacity = '0.250000' points = '522.9,239.3 522.9,662.4 524.8,662.4 524.8,236.1 '/>
		<polygon fill = 'rgb( 31, 120, 180)' fill-opacity = '0.250000' points = '524.8,236.1 524.8,662.4 526.7,662.4 526.7,232.9 '/>
		<polygon fill = 'rgb( 31, 120, 180)' fill-opacity = '0.250000' points = '526.7,232.9 526.7,662.4 528.6,662.4 528.6,229.6 '/>
		<polygon fill = 'rgb( 31, 120, 180)' fill-opacity = '0.250000' points = '528.6,229.6 528.6,662.4 530.5,662.4 530.5,226.3 '/>
		<polygon fill = 'rgb( 31, 120, 180)' fill-opacity = '0.250000' points = '530.5,226.3 530.5,662.4 532.4,662.4 532.4,222.9 '/>
		<polygon fill = 'rgb( 31, 120, 180)' fill-opacity = '0.250000' points = '532.4,222.9 532.4,662.4 534.3,662.4 534.3,219.4 '/>
		<polygon fill = 'rgb( 31, 120, 180)' fill-opacity = '0.250000' points = '534.3,219.4 534.3,662.4 536.1,662.4 536.1,216.0 '/>
		<polygon fill = 'rgb( 31, 120, 180)' fill-opacity = '0.250000' points = '536.1,216.0 536.1,662.4 538.0,662.4 538.0,212.4 '/>
		<polygon fill = 'rgb( 31, 120, 180)' fill-opacity = '0.250000' points = '538.0,212.4 538.0,662.4 539.9,662.4 539.9,208.8 '/>
		<polygon fill = 'rgb( 31, 120, 180)' fill-opacity = '0.250000' points = '539.9,208.8 539.9,662.4 541.8,662.4 541.8,205.2 '/>
		<polygon fill = 'rgb( 31, 120, 180)' fill-opacity = '0.250000' points = '541.8,205.2 541.8,662.4 543.7,662.4 543.7,201.5 '/>
		<polygon fill = 'rgb( 31, 120, 180)' fill-opacity = '0.250000' points = '543.7,201.5 543.7,662.4 545.6,662.4 545.6,197.8 '/>
		<polygon fill = 'rgb( 31, 120, 180)' fill-opacity = '0.250000' points = '545.6,197.8 545.6,662.4 547.5,662.4 547.5,194.0 '/>
		<polygon fill = 'rgb( 31, 120, 180)' fill-opacity = '0.250000' points = '547.5,194.0 547.5,662.4 549.4,662.4 549.4,190.1 '/>
		<polygon fill = 'rgb( 31, 120, 180)' fill-opacity = '0.250000' points = '549.4,190.1 549.4,662.4 551.2,662.4 551.2,186.2 '/>
		<polygon fill = 'rgb( 31, 120, 180)' fill-opacity = '0.250000' points = '551.2,186.2 551.2,662.4 553.1,662.4 553.1,182.3 '/>
		<polygon fill = 'rgb( 31, 120, 180)' fill-opacity = '0.250000' points = '553.1,182.3 553.1,662.4 555.0,662.4 555.0,178.3 '/>
		<polygon fill = 'rgb( 31, 120, 180)' fill-opacity = '0.250000' points = '555.0,178.3 555.0,662.4 556.9,662.4 556.9,174.3 '/>
		<polygon fill = 'rgb( 31, 120, 180)' fill-opacity = '0.250000' points = '556.9,174.3 556.9,662.4 558.8,662.4 558.8,170.2 '/>
		<polygon fill = 'rgb( 31, 120, 180)' fill-opacity = '0.250000' points = '558.8,170.2 558.8,662.4 560.7,662.4 560.7,166.1 '/>
		<polygon fill = 'rgb( 31, 120, 180)' fill-opacity = '0.250000' points = '560.7,166.1 560.7,662.4 562.6,662.4 562.6,162.0 '/>
		<polygon fill = 'rgb( 31, 120, 180)' fill-opacity = '0.250000' points = '562.6,162.0 562.6,662.4 564.5,662.4 564.5,157.9 '/>
		<polygon fill = 'rgb( 31, 120, 180)' fill-opacity = '0.250000' points = '564.5,157.9 564.5,662.4 566.3,662.4 566.3,153.7 '/>
		<polygon fill = 'rgb( 31, 120, 180)' fill-opacity = '0.250000' points = '566.3,153.7 566.3,662.4 568.2,662.4 568.2,149.5 '/>
		<polygon fill = 'rgb( 31, 120, 180)' fill-opacity = '0.250000' points = '568.2,149.5 568.2,662.4 570.1,662.4 570.1,145.4 '/>
		<polygon fill = 'rgb( 31, 120, 180)' fill-opacity = '0.250000' points = '570.1,145.4 570.1,662.4 572.0,662.4 572.0,141.3 '/>
		<polygon fill = 'rgb( 31, 120, 180)' fill-opacity = '0.250000' points = '572.0,141.3 572.0,662.4 573.9,662.4 573.9,137.2 '/>
		<polygon fill = 'rgb( 31, 120, 180)' fill-opacity = '0.250000' points = '573.9,137.2 573.9,662.4 575.8,662.4 575.8,133.1 '/>
		<polygon fill = 'rgb( 31, 120, 180)' fill-opacity = '0.250000' points = '575.8,133.1 575.8,662.4 577.7,662.4 577.7,129.1 '/>
		<polygon fill = 'rgb( 31, 120, 180)' fill-opacity = '0.250000' points = '577.7,129.1 577.7,662.4 579.5,662.4 579.5,125.2 '/>
		<polygon fill = 'rgb( 31, 120, 180)' fill-opacity = '0.250000' points = '579.5,125.2 579.5,662.4 581.4,662.4 581.4,121.4 '/>
		<polygon fill = 'rgb( 31, 120, 180)' fill-opacity = '0.250000' points = '581.4,121.4 581.4,662.4 583.3,662.4 583.3,117.7 '/>
		<polygon fill = 'rgb( 31, 120, 180)' fill-opacity = '0.250000' points = '583.3,117.7 583.3,662.4 585.2,662.4 585.2,114.1 '/>
		<polygon fill = 'rgb( 31, 120, 180)' fill-opacity = '0.250000' points = '585.2,114.1 585.2,662.4 587.1,662.4 587.1,110.7 '/>
		<polygon fill = 'rgb( 31, 120, 180)' fill-opacity = '0.250000' points = '587.1,110.7 587.1,662.4 589.0,662.4 589.0,107.4 '/>
		<polygon fill = 'rgb( 31, 120, 180)' fill-opacity = '0.250000' points = '589.0,107.4 589.0,662.4 590.9,662.4 590.9,104.3 '/>
		<polygon fill = 'rgb( 31, 120, 180)' fill-opacity = '0.250000' points = '590.9,104.3 590.9,662.4 592.8,662.4 592.8,101.3 '/>
		<polygon fill = 'rgb( 31, 120, 180)' fill-opacity = '0.250000' points = '592.8,101.3 592.8,662.4 594.6,662.4 594.6,98.6 '/>
		<polygon fill = 'rgb( 31, 120, 180)' fill-opacity = '0.250000' points = '594.6,98.6 594.6,662.4 596.5,662.4 596.5,96.0 '/>
		<polygon fill = 'rgb( 31, 120, 180)' fill-opacity = '0.250000' points = '596.5,96.0 596.5,662.4 598.4,662.4 598.4,93.6 '/>
		<polygon fill = 'rgb( 31, 120, 180)' fill-opacity = '0.250000' points = '598.4,93.6 598.4,662.4 600.3,662.4 600.3,91.5 '/>
		<polygon fill = 'rgb( 31, 120, 180)' fill-opacity = '0.250000' points = '600.3,91.5 600.3,662.4 602.2,662.4 602.2,89.5 '/>
		<polygon fill = 'rgb( 31, 120, 180)' fill-opacity = '0.250000' points = '602.2,89.5 602.2,662.4 604.1,662.4 604.1,87.7 '/>
		<polygon fill = 'rgb( 31, 120, 180)' fill-opacity = '0.250000' points = '604.1,87.7 604.1,662.4 606.0,662.4 606.0,86.2 '/>
		<polygon fill = 'rgb( 31, 120, 180)' fill-opacity = '0.250000' points = '606.0,86.2 606.0,662.4 607.9,662.4 607.9,84.8 '/>
		<polygon fill = 'rgb( 31, 120, 180)' fill-opacity = '0.250000' points = '607.9,84.8 607.9,662.4 609.7,662.4 609.7,83.6 '/>
		<polygon fill = 'rgb( 31, 120, 180)' fill-opacity = '0.250000' points = '609.7,83.6 609.7,662.4 611.6,662.4 611.6,82.6 '/>
		<polygon fill = 'rgb( 31, 120, 180)' fill-opacity = '0.250000' points = '611.6,82.6 611.6,662.4 613.5,662.4 613.5,81.7 '/>
		<polygon fill = 'rgb( 31, 120, 180)' fill-opacity = '0.250000' points = '613.5,81.7 613.5,662.4 615.4,662.4 615.4,81.0 '/>
		<polygon fill = 'rgb( 31, 120, 180)' fill-opacity = '0.250000' points = '615.4,81.0 615.4,662.4 617.3,662.4 617.3,80.5 '/>
		<polygon fill = 'rgb( 31, 120, 180)' fill-opacity = '0.250000' points = '617.3,80.5 617.3,662.4 619.2,662.4 619.2,80.1 '/>
		<polygon fill = 'rgb( 31, 120, 180)' fill-opacity = '0.250000' points = '619.2,80.1 619.2,662.4 621.1,662.4 621.1,79.8 '/>
		<polygon fill = 'rgb( 31, 120, 180)' fill-opacity = '0.250000' points = '621.1,79.8 621.1,662.4 623.0,662.4 623.0,79.6 '/>
		<polygon fill = 'rgb( 31, 120, 180)' fill-opacity = '0.250000' points = '623.0,79.6 623.0,662.4 624.8,662.4 624.8,79.5 '/>
		<polygon fill = 'rgb( 31, 120, 180)' fill-opacity = '0.250000' points = '624.8,79.5 624.8,662.4 626.7,662.4 626.7,79.5 '/>
		<polygon fill = 'rgb( 31, 120, 180)' fill-opacity = '0.250000' points = '626.7,79.5 626.7,662.4 628.6,662.4 628.6,79.5 '/>
		<polygon fill = 'rgb( 31, 120, 180)' fill-opacity = '0.250000' points = '628.6,79.5 628.6,662.4 630.5,662.4 630.5,79.7 '/>
		<polygon fill = 'rgb( 31, 120, 180)' fill-opacity = '0.250000' points = '630.5,79.7 630.5,662.4 632.4,662.4 632.4,79.9 '/>
		<polygon fill = 'rgb( 31, 120, 180)' fill-opacity = '0.250000' points = '632.4,79.9 632.4,662.4 634.3,662.4 634.3,80.1 '/>
		<polygon fill = 'rgb( 31, 120, 180)' fill-opacity = '0.250000' points = '634.3,80.1 634.3,662.4 636.2,662.4 636.2,80.4 '/>
		<polygon fill = 'rgb( 31, 120, 180)' fill-opacity = '0.250000' points = '636.2,80.4 636.2,662.4 638.1,662.4 638.1,80.8 '/>
		<polygon fill = 'rgb( 31, 120, 180)' fill-opacity = '0.250000' points = '638.1,80.8 638.1,662.4 639.9,662.4 639.9,81.2 '/>
		<polygon fill = 'rgb( 31, 120, 180)' fill-opacity = '0.250000' points = '639.9,81.2 639.9,662.4 641.8,662.4 641.8,81.7 '/>
		<polygon fill = 'rgb( 31, 120, 180)' fill-opacity = '0.250000' points = '641.8,81.7 641.8,662.4 643.7,662.4 643.7,82.2 '/>
		<polygon fill = 'rgb( 31, 120, 180)' fill-opacity = '0.250000' points = '643.7,82.2 643.7,662.4 645.6,662.4 645.6,82.7 '/>
		<polygon fill = 'rgb( 31, 120, 180)' fill-opacity = '0.250000' points = '645.6,82.7 645.6,662.4 647.5,662.4 647.5,83.3 '/>
		<polygon fill = 'rgb( 31, 120, 180)' fill-opacity = '0.250000' points = '647.5,83.3 647.5,662.4 649.4,662.4 649.4,83.9 '/>
		<polygon fill = 'rgb( 31, 120, 180)' fill-opacity = '0.250000' points = '649.4,83.9 649.4,662.4 651.3,662.4 651.3,84.6 '/>
		<polygon fill = 'rgb( 31, 120, 180)' fill-opacity = '0.250000' points = '651.3,84.6 651.3,662.4 653.1,662.4 653.1,85.4 '/>
		<polygon fill = 'rgb( 31, 120, 180)' fill-opacity = '0.250000' points = '653.1,85.4 653.1,662.4 655.0,662.4 655.0,86.2 '/>
		<polygon fill = 'rgb( 31, 120, 180)' fill-opacity = '0.250000' points = '655.0,86.2 655.0,662.4 656.9,662.4 656.9,87.1 '/>
		<polygon fill = 'rgb( 31, 120, 180)' fill-opacity = '0.250000' points = '656.9,87.1 656.9,662.4 658.8,662.4 658.8,88.0 '/>
		<polygon fill = 'rgb( 31, 120, 180)' fill-opacity = '0.250000' points = '658.8,88.0 658.8,662.4 660.7,662.4 660.7,89.0 '/>
		<polygon fill = 'rgb( 31, 120, 180)' fill-opacity = '0.250000' points = '660.7,89.0 660.7,662.4 662.6,662.4 662.6,90.0 '/>
		<polygon fill = 'rgb( 31, 120, 180)' fill-opacity = '0.250000' points = '662.6,90.0 662.6,662.4 664.5,662.4 664.5,91.1 '/>
		<polygon fill = 'rgb( 31, 120, 180)' fill-opacity = '0.250000' points = '664.5,91.1 664.5,662.4 666.4,662.4 666.4,92.3 '/>
		<polygon fill = 'rgb( 31, 120, 180)' fill-opacity = '0.250000' points = '666.4,92.3 666.4,662.4 668.2,662.4 668.2,93.5 '/>
		<polygon fill = 'rgb( 31, 120, 180)' fill-opacity = '0.250000' points = '668.2,93.5 668.2,662.4 670.1,662.4 670.1,94.8 '/>
		<polygon fill = 'rgb( 31, 120, 180)' fill-opacity = '0.250000' points = '670.1,94.8 670.1,662.4 672.0,662.4 672.0,96.1 '/>
		<polygon fill = 'rgb( 31, 120, 180)' fill-opacity = '0.250000' points = '672.0,96.1 672.0,662.4 673.9,662.4 673.9,97.4 '/>
		<polygon fill = 'rgb( 31, 120, 180)' fill-opacity = '0.250000' points = '673.9,97.4 673.9,662.4 675.8,662.4 675.8,98.7 '/>
		<polygon fill = 'rgb( 31, 120, 180)' fill-opacity = '0.250000' points = '675.8,98.7 675.8,662.4 677.7,662.4 677.7,100.1 '/>
		<polygon fill = 'rgb( 31, 120, 180)' fill-opacity = '0.250000' points = '677.7,100.1 677.7,662.4 679.6,662.4 679.6,101.4 '/>
		<polygon fill = 'rgb( 31, 120, 180)' fill-opacity = '0.250000' points = '679.6,101.4 679.6,662.4 681.5,662.4 681.5,102.8 '/>
		<polygon fill = 'rgb( 31, 120, 180)' fill-opacity = '0.250000' points = '681.5,102.8 681.5,662.4 683.3,662.4 683.3,104.1 '/>
		<polygon fill = 'rgb( 31, 120, 180)' fill-opacity = '0.250000' points = '683.3,104.1 683.3,662.4 685.2,662.4 685.2,105.5 '/>
		<polygon fill = 'rgb( 31, 120, 180)' fill-opacity = '0.250000' points = '685.2,105.5 685.2,662.4 687.1,662.4 687.1,106.7 '/>
		<polygon fill = 'rgb( 31, 120, 180)' fill-opacity = '0.250000' points = '687.1,106.7 687.1,662.4 689.0,662.4 689.0,108.0 '/>
		<polygon fill = 'rgb( 31, 120, 180)' fill-opacity = '0.250000' points = '689.0,108.0 689.0,662.4 690.9,662.4 690.9,109.2 '/>
		<polygon fill = 'rgb( 31, 120, 180)' fill-opacity = '0.250000' points = '690.9,109.2 690.9,662.4 692.8,662.4 692.8,110.3 '/>
		<polygon fill = 'rgb( 31, 120, 180)' fill-opacity = '0.250000' points = '692.8,110.3 692.8,662.4 694.7,662.4 694.7,111.4 '/>
		<polygon fill = 'rgb( 31, 120, 180)' fill-opacity = '0.250000' points = '694.7,111.4 694.7,662.4 696.6,662.4 696.6,112.5 '/>
		<polygon fill = 'rgb( 31, 120, 180)' fill-opacity = '0.250000' points = '696.6,112.5 696.6,662.4 698.4,662.4 698.4,113.5 '/>
		<polygon fill = 'rgb( 31, 120, 180)' fill-opacity = '0.250000' points = '698.4,113.5 698.4,662.4 700.3,662.4 700.3,114.4 '/>
		<polygon fill = 'rgb( 31, 120, 180)' fill-opacity = '0.250000' points = '700.3,114.4 700.3,662.4 702.2,662.4 702.2,115.2 '/>
		<polygon fill = 'rgb( 31, 120, 180)' fill-opacity = '0.250000' points = '702.2,115.2 702.2,662.4 704.1,662.4 704.1,116.0 '/>
		<polygon fill = 'rgb( 31, 120, 180)' fill-opacity = '0.250000' points = '704.1,116.0 704.1,662.4 706.0,662.4 706.0,116.8 '/>
		<polygon fill = 'rgb( 31, 120, 180)' fill-opacity = '0.250000' points = '706.0,116.8 706.0,662.4 707.9,662.4 707.9,117.4 '/>
		<polygon fill = 'rgb( 31, 120, 180)' fill-opacity = '0.250000' points = '707.9,117.4 707.9,662.4 709.8,662.4 709.8,118.0 '/>
		<polygon fill = 'rgb( 31, 120, 180)' fill-opacity = '0.250000' points = '709.8,118.0 709.8,662.4 711.7,662.4 711.7,118.6 '/>
		<polygon fill = 'rgb( 31, 120, 180)' fill-opacity = '0.250000' points = '711.7,118.6 711.7,662.4 713.5,662.4 713.5,119.1 '/>
		<polygon fill = 'rgb( 31, 120, 180)' fill-opacity = '0.250000' points = '713.5,119.1 713.5,662.4 715.4,662.4 715.4,119.5 '/>
		<polygon fill = 'rgb( 31, 120, 180)' fill-opacity = '0.250000' points = '715.4,119.5 715.4,662.4 717.3,662.4 717.3,119.9 '/>
		<polygon fill = 'rgb( 31, 120, 180)' fill-opacity = '0.250000' points = '717.3,119.9 717.3,662.4 719.2,662.4 719.2,120.2 '/>
		<polygon fill = 'rgb( 31, 120, 180)' fill-opacity = '0.250000' points = '719.2,120.2 719.2,662.4 721.1,662.4 721.1,120.4 '/>
		<polygon fill = 'rgb( 31, 120, 180)' fill-opacity = '0.250000' points = '721.1,120.4 721.1,662.4 723.0,662.4 723.0,120.6 '/>
		<polygon fill = 'rgb( 31, 120, 180)' fill-opacity = '0.250000' points = '723.0,120.6 723.0,662.4 724.9,662.4 724.9,120.8 '/>
		<polygon fill = 'rgb( 31, 120, 180)' fill-opacity = '0.250000' points = '724.9,120.8 724.9,662.4 726.7,662.4 726.7,120.9 '/>
		<polygon fill = 'rgb( 31, 120, 180)' fill-opacity = '0.250000' points = '726.7,120.9 726.7,662.4 728.6,662.4 728.6,120.9 '/>
		<polygon fill = 'rgb( 31, 120, 180)' fill-opacity = '0.250000' points = '728.6,120.9 728.6,662.4 730.5,662.4 730.5,120.9 '/>
		<polygon fill = 'rgb( 31, 120, 180)' fill-opacity = '0.250000' points = '730.5,120.9 730.5,662.4 732.4,662.4 732.4,120.8 '/>
		<polygon fill = 'rgb( 31, 120, 180)' fill-opacity = '0.250000' points = '732.4,120.8 732.4,662.4 734.3,662.4 734.3,120.7 '/>
		<polygon fill = 'rgb( 31, 120, 180)' fill-opacity = '0.250000' points = '734.3,120.7 734.3,662.4 736.2,662.4 736.2,120.6 '/>
		<polygon fill = 'rgb( 31, 120, 180)' fill-opacity = '0.250000' points = '736.2,120.6 736.2,662.4 738.1,662.4 738.1,120.3 '/>
		<polygon fill = 'rgb( 31, 120, 180)' fill-opacity = '0.250000' points = '738.1,120.3 738.1,662.4 740.0,662.4 740.0,120.1 '/>
		<polygon fill = 'rgb( 31, 120, 180)' fill-opacity = '0.250000' points = '740.0,120.1 740.0,662.4 741.8,662.4 741.8,119.8 '/>
		<polygon fill = 'rgb( 31, 120, 180)' fill-opacity = '0.250000' points = '741.8,119.8 741.8,662.4 743.7,662.4 743.7,119.5 '/>
		<polygon fill = 'rgb( 31, 120, 180)' fill-opacity = '0.250000' points = '743.7,119.5 743.7,662.4 745.6,662.4 745.6,119.1 '/>
		<polygon fill = 'rgb( 31, 120, 180)' fill-opacity = '0.250000' points = '745.6,119.1 745.6,662.4 747.5,662.4 747.5,118.7 '/>
		<polygon fill = 'rgb( 31, 120, 180)' fill-opacity = '0.250000' points = '747.5,118.7 747.5,662.4 749.4,662.4 749.4,118.3 '/>
		<polygon fill = 'rgb( 31, 120, 180)' fill-opacity = '0.250000' points = '749.4,118.3 749.4,662.4 751.3,662.4 751.3,117.9 '/>
		<polygon fill = 'rgb( 31, 120, 180)' fill-opacity = '0.250000' points = '751.3,117.9 751.3,662.4 753.2,662.4 753.2,117.5 '/>
		<polygon fill = 'rgb( 31, 120, 180)' fill-opacity = '0.250000' points = '753.2,117.5 753.2,662.4 755.1,662.4 755.1,117.1 '/>
		<polygon fill = 'rgb( 31, 120, 180)' fill-opacity = '0.250000' points = '755.1,117.1 755.1,662.4 756.9,662.4 756.9,116.8 '/>
		<polygon fill = 'rgb( 31, 120, 180)' fill-opacity = '0.250000' points = '756.9,116.8 756.9,662.4 758.8,662.4 758.8,116.4 '/>
		<polygon fill = 'rgb( 31, 120, 180)' fill-opacity = '0.250000' points = '758.8,116.4 758.8,662.4 760.7,662.4 760.7,116.1 '/>
		<polygon fill = 'rgb( 31, 120, 180)' fill-opacity = '0.250000' points = '760.7,116.1 760.7,662.4 762.6,662.4 762.6,115.8 '/>
		<polygon fill = 'rgb( 31, 120, 180)' fill-opacity = '0.250000' points = '762.6,115.8 762.6,662.4 764.5,662.4 764.5,115.5 '/>
		<polygon fill = 'rgb( 31, 120, 180)' fill-opacity = '0.250000' points = '764.5,115.5 764.5,662.4 766.4,662.4 766.4,115.3 '/>
		<polygon fill = 'rgb( 31, 120, 180)' fill-opacity = '0.250000' points = '766.4,115.3 766.4,662.4 768.3,662.4 768.3,115.1 '/>
		<polygon fill = 'rgb( 31, 120, 180)' fill-opacity = '0.250000' points = '768.3,115.1 768.3,662.4 770.2,662.4 770.2,115.0 '/>
		<polygon fill = 'rgb( 31, 120, 180)' fill-opacity = '0.250000' points = '770.2,115.0 770.2,662.4 772.0,662.4 772.0,115.0 '/>
		<polygon fill = 'rgb( 31, 120, 180)' fill-opacity = '0.250000' points = '772.0,115.0 772.0,662.4 773.9,662.4 773.9,115.0 '/>
		<polygon fill = 'rgb( 31, 120, 180)' fill-opacity = '0.250000' points = '773.9,115.0 773.9,662.4 775.8,662.4 775.8,115.1 '/>
		<polygon fill = 'rgb( 31, 120, 180)' fill-opacity = '0.250000' points = '775.8,115.1 775.8,662.4 777.7,662.4 777.7,115.3 '/>
		<polygon fill = 'rgb( 31, 120, 180)' fill-opacity = '0.250000' points = '777.7,115.3 777.7,662.4 779.6,662.4 779.6,115.5 '/>
		<polygon fill = 'rgb( 31, 120, 180)' fill-opacity = '0.250000' points = '779.6,115.5 779.6,662.4 781.5,662.4 781.5,115.8 '/>
		<polygon fill = 'rgb( 31, 120, 180)' fill-opacity = '0.250000' points = '781.5,115.8 781.5,662.4 783.4,662.4 783.4,116.3 '/>
		<polygon fill = 'rgb( 31, 120, 180)' fill-opacity = '0.250000' points = '783.4,116.3 783.4,662.4 785.3,662.4 785.3,116.8 '/>
		<polygon fill = 'rgb( 31, 120, 180)' fill-opacity = '0.250000' points = '785.3,116.8 785.3,662.4 787.1,662.4 787.1,117.4 '/>
		<polygon fill = 'rgb( 31, 120, 180)' fill-opacity = '0.250000' points = '787.1,117.4 787.1,662.4 789.0,662.4 789.0,118.1 '/>
		<polygon fill = 'rgb( 31, 120, 180)' fill-opacity = '0.250000' points = '789.0,118.1 789.0,662.4 790.9,662.4 790.9,118.9 '/>
		<polygon fill = 'rgb( 31, 120, 180)' fill-opacity = '0.250000' points = '790.9,118.9 790.9,662.4 792.8,662.4 792.8,119.8 '/>
		<polygon fill = 'rgb( 31, 120, 180)' fill-opacity = '0.250000' points = '792.8,119.8 792.8,662.4 794.7,662.4 794.7,120.9 '/>
		<polygon fill = 'rgb( 31, 120, 180)' fill-opacity = '0.250000' points = '794.7,120.9 794.7,662.4 796.6,662.4 796.6,122.0 '/>
		<polygon fill = 'rgb( 31, 120, 180)' fill-opacity = '0.250000' points = '796.6,122.0 796.6,662.4 798.5,662.4 798.5,123.4 '/>
		<polygon fill = 'rgb( 31, 120, 180)' fill-opacity = '0.250000' points = '798.5,123.4 798.5,662.4 800.3,662.4 800.3,124.8 '/>
		<polygon fill = 'rgb( 31, 120, 180)' fill-opacity = '0.250000' points = '800.3,124.8 800.3,662.4 802.2,662.4 802.2,126.4 '/>
		<polygon fill = 'rgb( 31, 120, 180)' fill-opacity = '0.250000' points = '802.2,126.4 802.2,662.4 804.1,662.4 804.1,128.1 '/>
		<polygon fill = 'rgb( 31, 120, 180)' fill-opacity = '0.250000' points = '804.1,128.1 804.1,662.4 806.0,662.4 806.0,130.0 '/>
		<polygon fill = 'rgb( 31, 120, 180)' fill-opacity = '0.250000' points = '806.0,130.0 806.0,662.4 807.9,662.4 807.9,132.1 '/>
		<polygon fill = 'rgb( 31, 120, 180)' fill-opacity = '0.250000' points = '807.9,132.1 807.9,662.4 809.8,662.4 809.8,134.3 '/>
		<polygon fill = 'rgb( 31, 120, 180)' fill-opacity = '0.250000' points = '809.8,134.3 809.8,662.4 811.7,662.4 811.7,136.7 '/>
		<polygon fill = 'rgb( 31, 120, 180)' fill-opacity = '0.250000' points = '811.7,136.7 811.7,662.4 813.6,662.4 813.6,139.3 '/>
		<polygon fill = 'rgb( 31, 120, 180)' fill-opacity = '0.250000' points = '813.6,139.3 813.6,662.4 815.4,662.4 815.4,142.0 '/>
		<polygon fill = 'rgb( 31, 120, 180)' fill-opacity = '0.250000' points = '815.4,142.0 815.4,662.4 817.3,662.4 817.3,144.9 '/>
		<polygon fill = 'rgb( 31, 120, 180)' fill-opacity = '0.250000' points = '817.3,144.9 817.3,662.4 819.2,662.4 819.2,148.0 '/>
		<polygon fill = 'rgb( 31, 120, 180)' fill-opacity = '0.250000' points = '819.2,148.0 819.2,662.4 821.1,662.4 821.1,151.3 '/>
		<polygon fill = 'rgb( 31, 120, 180)' fill-opacity = '0.250000' points = '821.1,151.3 821.1,662.4 823.0,662.4 823.0,154.7 '/>
		<polygon fill = 'rgb( 31, 120, 180)' fill-opacity = '0.250000' points = '823.0,154.7 823.0,662.4 824.9,662.4 824.9,158.3 '/>
		<polygon fill = 'rgb( 31, 120, 180)' fill-opacity = '0.250000' points = '824.9,158.3 824.9,662.4 826.8,662.4 826.8,162.1 '/>
		<polygon fill = 'rgb( 31, 120, 180)' fill-opacity = '0.250000' points = '826.8,162.1 826.8,662.4 828.7,662.4 828.7,166.0 '/>
		<polygon fill = 'rgb( 31, 120, 180)' fill-opacity = '0.250000' points = '828.7,166.0 828.7,662.4 830.5,662.4 830.5,170.2 '/>
		<polygon fill = 'rgb( 31, 120, 180)' fill-opacity = '0.250000' points = '830.5,170.2 830.5,662.4 832.4,662.4 832.4,174.4 '/>
		<polygon fill = 'rgb( 31, 120, 180)' fill-opacity = '0.250000' points = '832.4,174.4 832.4,662.4 834.3,662.4 834.3,178.9 '/>
		<polygon fill = 'rgb( 31, 120, 180)' fill-opacity = '0.250000' points = '834.3,178.9 834.3,662.4 836.2,662.4 836.2,183.5 '/>
		<polygon fill = 'rgb( 31, 120, 180)' fill-opacity = '0.250000' points = '836.2,183.5 836.2,662.4 838.1,662.4 838.1,188.2 '/>
		<polygon fill = 'rgb( 31, 120, 180)' fill-opacity = '0.250000' points = '838.1,188.2 838.1,662.4 840.0,662.4 840.0,193.1 '/>
		<polygon fill = 'rgb( 31, 120, 180)' fill-opacity = '0.250000' points = '840.0,193.1 840.0,662.4 841.9,662.4 841.9,198.1 '/>
		<polygon fill = 'rgb( 31, 120, 180)' fill-opacity = '0.250000' points = '841.9,198.1 841.9,662.4 843.8,662.4 843.8,203.3 '/>
		<polygon fill = 'rgb( 31, 120, 180)' fill-opacity = '0.250000' points = '843.8,203.3 843.8,662.4 845.6,662.4 845.6,208.6 '/>
		<polygon fill = 'rgb( 31, 120, 180)' fill-opacity = '0.250000' points = '845.6,208.6 845.6,662.4 847.5,662.4 847.5,214.0 '/>
		<polygon fill = 'rgb( 31, 120, 180)' fill-opacity = '0.250000' points = '847.5,214.0 847.5,662.4 849.4,662.4 849.4,219.5 '/>
		<polygon fill = 'rgb( 31, 120, 180)' fill-opacity = '0.250000' points = '849.4,219.5 849.4,662.4 851.3,662.4 851.3,225.2 '/>
		<polygon fill = 'rgb( 31, 120, 180)' fill-opacity = '0.250000' points = '851.3,225.2 851.3,662.4 853.2,662.4 853.2,231.0 '/>
		<polygon fill = 'rgb( 31, 120, 180)' fill-opacity = '0.250000' points = '853.2,231.0 853.2,662.4 855.1,662.4 855.1,236.9 '/>
		<polygon fill = 'rgb( 31, 120, 180)' fill-opacity = '0.250000' points = '855.1,236.9 855.1,662.4 857.0,662.4 857.0,242.9 '/>
		<polygon fill = 'rgb( 31, 120, 180)' fill-opacity = '0.250000' points = '857.0,242.9 857.0,662.4 858.9,662.4 858.9,249.0 '/>
		<polygon fill = 'rgb( 31, 120, 180)' fill-opacity = '0.250000' points = '858.9,249.0 858.9,662.4 860.7,662.4 860.7,255.2 '/>
		<polygon fill = 'rgb( 31, 120, 180)' fill-opacity = '0.250000' points = '860.7,255.2 860.7,662.4 862.6,662.4 862.6,261.6 '/>
		<polygon fill = 'rgb( 31, 120, 180)' fill-opacity = '0.250000' points = '862.6,261.6 862.6,662.4 864.5,662.4 864.5,268.0 '/>
		<polygon fill = 'rgb( 31, 120, 180)' fill-opacity = '0.250000' points = '864.5,268.0 864.5,662.4 866.4,662.4 866.4,274.4 '/>
		<polygon fill = 'rgb( 31, 120, 180)' fill-opacity = '0.250000' points = '866.4,274.4 866.4,662.4 868.3,662.4 868.3,281.0 '/>
		<polygon fill = 'rgb( 31, 120, 180)' fill-opacity = '0.250000' points = '868.3,281.0 868.3,662.4 870.2,662.4 870.2,287.6 '/>
		<polygon fill = 'rgb( 31, 120, 180)' fill-opacity = '0.250000' points = '870.2,287.6 870.2,662.4 872.1,662.4 872.1,294.3 '/>
		<polygon fill = 'rgb( 31, 120, 180)' fill-opacity = '0.250000' points = '872.1,294.3 872.1,662.4 873.9,662.4 873.9,301.0 '/>
		<polygon fill = 'rgb( 31, 120, 180)' fill-opacity = '0.250000' points = '873.9,301.0 873.9,662.4 875.8,662.4 875.8,307.8 '/>
		<polygon fill = 'rgb( 31, 120, 180)' fill-opacity = '0.250000' points = '875.8,307.8 875.8,662.4 877.7,662.4 877.7,314.6 '/>
		<polygon fill = 'rgb( 31, 120, 180)' fill-opacity = '0.250000' points = '877.7,314.6 877.7,662.4 879.6,662.4 879.6,321.5 '/>
		<polygon fill = 'rgb( 31, 120, 180)' fill-opacity = '0.250000' points = '879.6,321.5 879.6,662.4 881.5,662.4 881.5,328.3 '/>
		<polygon fill = 'rgb( 31, 120, 180)' fill-opacity = '0.250000' points = '881.5,328.3 881.5,662.4 883.4,662.4 883.4,335.2 '/>
		<polygon fill = 'rgb( 31, 120, 180)' fill-opacity = '0.250000' points = '883.4,335.2 883.4,662.4 885.3,662.4 885.3,342.1 '/>
		<polygon fill = 'rgb( 31, 120, 180)' fill-opacity = '0.250000' points = '885.3,342.1 885.3,662.4 887.2,662.4 887.2,349.0 '/>
		<polygon fill = 'rgb( 31, 120, 180)' fill-opacity = '0.250000' points = '887.2,349.0 887.2,662.4 889.0,662.4 889.0,355.8 '/>
		<polygon fill = 'rgb( 31, 120, 180)' fill-opacity = '0.250000' points = '889.0,355.8 889.0,662.4 890.9,662.4 890.9,362.7 '/>
		<polygon fill = 'rgb( 31, 120, 180)' fill-opacity = '0.250000' points = '890.9,362.7 890.9,662.4 892.8,662.4 892.8,369.5 '/>
		<polygon fill = 'rgb( 31, 120, 180)' fill-opacity = '0.250000' points = '892.8,369.5 892.8,662.4 894.7,662.4 894.7,376.2 '/>
		<polygon fill = 'rgb( 31, 120, 180)' fill-opacity = '0.250000' points = '894.7,376.2 894.7,662.4 896.6,662.4 896.6,383.0 '/>
		<polygon fill = 'rgb( 31, 120, 180)' fill-opacity = '0.250000' points = '896.6,383.0 896.6,662.4 898.5,662.4 898.5,389.7 '/>
		<polygon fill = 'rgb( 31, 120, 180)' fill-opacity = '0.250000' points = '898.5,389.7 898.5,662.4 900.4,662.4 900.4,396.3 '/>
		<polygon fill = 'rgb( 31, 120, 180)' fill-opacity = '0.250000' points = '900.4,396.3 900.4,662.4 902.3,662.4 902.3,402.9 '/>
		<polygon fill = 'rgb( 31, 120, 180)' fill-opacity = '0.250000' points = '902.3,402.9 902.3,662.4 904.1,662.4 904.1,409.5 '/>
		<polygon fill = 'rgb( 31, 120, 180)' fill-opacity = '0.250000' points = '904.1,409.5 904.1,662.4 906.0,662.4 906.0,416.0 '/>
		<polygon fill = 'rgb( 31, 120, 180)' fill-opacity = '0.250000' points = '906.0,416.0 906.0,662.4 907.9,662.4 907.9,422.4 '/>
		<polygon fill = 'rgb( 31, 120, 180)' fill-opacity = '0.250000' points = '907.9,422.4 907.9,662.4 909.8,662.4 909.8,428.7 '/>
		<polygon fill = 'rgb( 31, 120, 180)' fill-opacity = '0.250000' points = '909.8,428.7 909.8,662.4 911.7,662.4 911.7,435.0 '/>
		<polygon fill = 'rgb( 31, 120, 180)' fill-opacity = '0.250000' points = '911.7,435.0 911.7,662.4 913.6,662.4 913.6,441.2 '/>
		<polygon fill = 'rgb( 31, 120, 180)' fill-opacity = '0.250000' points = '913.6,441.2 913.6,662.4 915.5,662.4 915.5,447.3 '/>
		<polygon fill = 'rgb( 31, 120, 180)' fill-opacity = '0.250000' points = '915.5,447.3 915.5,662.4 917.4,662.4 917.4,453.3 '/>
		<polygon fill = 'rgb( 31, 120, 180)' fill-opacity = '0.250000' points = '917.4,453.3 917.4,662.4 919.2,662.4 919.2,459.3 '/>
		<polygon fill = 'rgb( 31, 120, 180)' fill-opacity = '0.250000' points = '919.2,459.3 919.2,662.4 921.1,662.4 921.1,465.1 '/>
		<polygon fill = 'rgb( 31, 120, 180)' fill-opacity = '0.250000' points = '921.1,465.1 921.1,662.4 923.0,662.4 923.0,470.9 '/>
		<polygon fill = 'rgb( 31, 120, 180)' fill-opacity = '0.250000' points = '923.0,470.9 923.0,662.4 924.9,662.4 924.9,476.5 '/>
	</g>
</g>
	</g>
	<g id="gnuplot_plot_3" ><title>Point estimate</title>
<g fill="none" color="white" stroke="rgb( 31, 120, 180)" stroke-width="2.00" stroke-linecap="butt" stroke-linejoin="miter">
</g>
<g fill="none" color="black" stroke="currentColor" stroke-width="2.00" stroke-linecap="butt" stroke-linejoin="miter">
	<g transform="translate(1089.0,103.0)" stroke="none" fill="black" font-family="Helvetica" font-size="12.00"  text-anchor="start">
		<text><tspan font-family="Helvetica" >Point estimate</tspan></text>
	</g>
</g>
<g fill="none" color="black" stroke="currentColor" stroke-width="2.00" stroke-linecap="butt" stroke-linejoin="miter">
	<path stroke='rgb( 31, 120, 180)'  d='M1038.5,99.1 L1080.7,99.1 M615.2,662.4 L615.2,81.1  '/></g>
	</g>
	<g id="gnuplot_plot_4" ><title>Noise threshold</title>
<g fill="none" color="white" stroke="rgb( 31, 120, 180)" stroke-width="1.00" stroke-linecap="butt" stroke-linejoin="miter">
</g>
<g fill="none" color="black" stroke="currentColor" stroke-width="1.00" stroke-linecap="butt" stroke-linejoin="miter">
	<g transform="translate(1089.0,121.0)" stroke="none" fill="black" font-family="Helvetica" font-size="12.00"  text-anchor="start">
		<text><tspan font-family="Helvetica" >Noise threshold</tspan></text>
	</g>
</g>
<g fill="none" color="black" stroke="currentColor" stroke-width="1.00" stroke-linecap="butt" stroke-linejoin="miter">
	<g stroke='none' shape-rendering='crispEdges'>
		<polygon fill = 'rgb(227,  26,  28)' fill-opacity = '0.100000' points = '1038.5,121.6 1080.7,121.6 1080.7,112.6 1038.5,112.6 '/>
		<polygon fill = 'rgb(227,  26,  28)' fill-opacity = '0.100000' points = '542.8,54.1 542.8,662.4 542.8,662.4 542.8,54.1 '/>
	</g>
</g>
	</g>
<g fill="none" color="white" stroke="rgb(227,  26,  28)" stroke-width="2.00" stroke-linecap="butt" stroke-linejoin="miter">
</g>
<g fill="none" color="black" stroke="currentColor" stroke-width="2.00" stroke-linecap="butt" stroke-linejoin="miter">
</g>
<g fill="none" color="black" stroke="black" stroke-width="1.00" stroke-linecap="butt" stroke-linejoin="miter">
</g>
<g fill="none" color="black" stroke="currentColor" stroke-width="1.00" stroke-linecap="butt" stroke-linejoin="miter">
	<path stroke='black'  d='M71.9,54.1 L71.9,662.4 L1013.6,662.4 L1013.6,54.1 L71.9,54.1 Z  '/></g>
<g fill="none" color="black" stroke="currentColor" stroke-width="1.00" stroke-linecap="butt" stroke-linejoin="miter">
</g>
</g>
</svg>

