<?xml version="1.0" encoding="utf-8"  standalone="no"?>
<svg 
 viewBox="0 0 1280 720"
 xmlns="http://www.w3.org/2000/svg"
 xmlns:xlink="http://www.w3.org/1999/xlink"
>

<title>Gnuplot</title>
<desc>Produced by GNUPLOT 5.0 patchlevel 6 </desc>

<g id="gnuplot_canvas">

<rect x="0" y="0" width="1280" height="720" fill="none"/>
<defs>

	<circle id='gpDot' r='0.5' stroke-width='0.5'/>
	<path id='gpPt0' stroke-width='0.222' stroke='currentColor' d='M-1,0 h2 M0,-1 v2'/>
	<path id='gpPt1' stroke-width='0.222' stroke='currentColor' d='M-1,-1 L1,1 M1,-1 L-1,1'/>
	<path id='gpPt2' stroke-width='0.222' stroke='currentColor' d='M-1,0 L1,0 M0,-1 L0,1 M-1,-1 L1,1 M-1,1 L1,-1'/>
	<rect id='gpPt3' stroke-width='0.222' stroke='currentColor' x='-1' y='-1' width='2' height='2'/>
	<rect id='gpPt4' stroke-width='0.222' stroke='currentColor' fill='currentColor' x='-1' y='-1' width='2' height='2'/>
	<circle id='gpPt5' stroke-width='0.222' stroke='currentColor' cx='0' cy='0' r='1'/>
	<use xlink:href='#gpPt5' id='gpPt6' fill='currentColor' stroke='none'/>
	<path id='gpPt7' stroke-width='0.222' stroke='currentColor' d='M0,-1.33 L-1.33,0.67 L1.33,0.67 z'/>
	<use xlink:href='#gpPt7' id='gpPt8' fill='currentColor' stroke='none'/>
	<use xlink:href='#gpPt7' id='gpPt9' stroke='currentColor' transform='rotate(180)'/>
	<use xlink:href='#gpPt9' id='gpPt10' fill='currentColor' stroke='none'/>
	<use xlink:href='#gpPt3' id='gpPt11' stroke='currentColor' transform='rotate(45)'/>
	<use xlink:href='#gpPt11' id='gpPt12' fill='currentColor' stroke='none'/>
	<path id='gpPt13' stroke-width='0.222' stroke='currentColor' d='M0,1.330 L1.265,0.411 L0.782,-1.067 L-0.782,-1.076 L-1.265,0.411 z'/>
	<use xlink:href='#gpPt13' id='gpPt14' fill='currentColor' stroke='none'/>
	<filter id='textbox' filterUnits='objectBoundingBox' x='0' y='0' height='1' width='1'>
	  <feFlood flood-color='white' flood-opacity='1' result='bgnd'/>
	  <feComposite in='SourceGraphic' in2='bgnd' operator='atop'/>
	</filter>
	<filter id='greybox' filterUnits='objectBoundingBox' x='0' y='0' height='1' width='1'>
	  <feFlood flood-color='lightgrey' flood-opacity='1' result='grey'/>
	  <feComposite in='SourceGraphic' in2='grey' operator='atop'/>
	</filter>
</defs>
<g fill="none" color="white" stroke="currentColor" stroke-width="1.00" stroke-linecap="butt" stroke-linejoin="miter">
</g>
<g fill="none" color="black" stroke="currentColor" stroke-width="1.00" stroke-linecap="butt" stroke-linejoin="miter">
	<path stroke='black'  d='M63.6,662.4 L72.6,662.4  '/>	<g transform="translate(55.3,666.3)" stroke="none" fill="black" font-family="Helvetica" font-size="12.00"  text-anchor="end">
		<text><tspan font-family="Helvetica" > 0</tspan></text>
	</g>
</g>
<g fill="none" color="black" stroke="currentColor" stroke-width="1.00" stroke-linecap="butt" stroke-linejoin="miter">
	<path stroke='black'  d='M63.6,586.4 L72.6,586.4  '/>	<g transform="translate(55.3,590.3)" stroke="none" fill="black" font-family="Helvetica" font-size="12.00"  text-anchor="end">
		<text><tspan font-family="Helvetica" > 5</tspan></text>
	</g>
</g>
<g fill="none" color="black" stroke="currentColor" stroke-width="1.00" stroke-linecap="butt" stroke-linejoin="miter">
	<path stroke='black'  d='M63.6,510.3 L72.6,510.3  '/>	<g transform="translate(55.3,514.2)" stroke="none" fill="black" font-family="Helvetica" font-size="12.00"  text-anchor="end">
		<text><tspan font-family="Helvetica" > 10</tspan></text>
	</g>
</g>
<g fill="none" color="black" stroke="currentColor" stroke-width="1.00" stroke-linecap="butt" stroke-linejoin="miter">
	<path stroke='black'  d='M63.6,434.3 L72.6,434.3  '/>	<g transform="translate(55.3,438.2)" stroke="none" fill="black" font-family="Helvetica" font-size="12.00"  text-anchor="end">
		<text><tspan font-family="Helvetica" > 15</tspan></text>
	</g>
</g>
<g fill="none" color="black" stroke="currentColor" stroke-width="1.00" stroke-linecap="butt" stroke-linejoin="miter">
	<path stroke='black'  d='M63.6,358.2 L72.6,358.2  '/>	<g transform="translate(55.3,362.1)" stroke="none" fill="black" font-family="Helvetica" font-size="12.00"  text-anchor="end">
		<text><tspan font-family="Helvetica" > 20</tspan></text>
	</g>
</g>
<g fill="none" color="black" stroke="currentColor" stroke-width="1.00" stroke-linecap="butt" stroke-linejoin="miter">
	<path stroke='black'  d='M63.6,282.2 L72.6,282.2  '/>	<g transform="translate(55.3,286.1)" stroke="none" fill="black" font-family="Helvetica" font-size="12.00"  text-anchor="end">
		<text><tspan font-family="Helvetica" > 25</tspan></text>
	</g>
</g>
<g fill="none" color="black" stroke="currentColor" stroke-width="1.00" stroke-linecap="butt" stroke-linejoin="miter">
	<path stroke='black'  d='M63.6,206.2 L72.6,206.2  '/>	<g transform="translate(55.3,210.1)" stroke="none" fill="black" font-family="Helvetica" font-size="12.00"  text-anchor="end">
		<text><tspan font-family="Helvetica" > 30</tspan></text>
	</g>
</g>
<g fill="none" color="black" stroke="currentColor" stroke-width="1.00" stroke-linecap="butt" stroke-linejoin="miter">
	<path stroke='black'  d='M63.6,130.1 L72.6,130.1  '/>	<g transform="translate(55.3,134.0)" stroke="none" fill="black" font-family="Helvetica" font-size="12.00"  text-anchor="end">
		<text><tspan font-family="Helvetica" > 35</tspan></text>
	</g>
</g>
<g fill="none" color="black" stroke="currentColor" stroke-width="1.00" stroke-linecap="butt" stroke-linejoin="miter">
	<path stroke='black'  d='M63.6,54.1 L72.6,54.1  '/>	<g transform="translate(55.3,58.0)" stroke="none" fill="black" font-family="Helvetica" font-size="12.00"  text-anchor="end">
		<text><tspan font-family="Helvetica" > 40</tspan></text>
	</g>
</g>
<g fill="none" color="black" stroke="currentColor" stroke-width="1.00" stroke-linecap="butt" stroke-linejoin="miter">
	<path stroke='black'  d='M71.4,662.4 L71.4,653.4  '/>	<g transform="translate(71.4,684.3)" stroke="none" fill="black" font-family="Helvetica" font-size="12.00"  text-anchor="middle">
		<text><tspan font-family="Helvetica" > 23.42</tspan></text>
	</g>
</g>
<g fill="none" color="black" stroke="currentColor" stroke-width="1.00" stroke-linecap="butt" stroke-linejoin="miter">
	<path stroke='black'  d='M167.7,662.4 L167.7,653.4  '/>	<g transform="translate(167.7,684.3)" stroke="none" fill="black" font-family="Helvetica" font-size="12.00"  text-anchor="middle">
		<text><tspan font-family="Helvetica" > 23.425</tspan></text>
	</g>
</g>
<g fill="none" color="black" stroke="currentColor" stroke-width="1.00" stroke-linecap="butt" stroke-linejoin="miter">
	<path stroke='black'  d='M263.9,662.4 L263.9,653.4  '/>	<g transform="translate(263.9,684.3)" stroke="none" fill="black" font-family="Helvetica" font-size="12.00"  text-anchor="middle">
		<text><tspan font-family="Helvetica" > 23.43</tspan></text>
	</g>
</g>
<g fill="none" color="black" stroke="currentColor" stroke-width="1.00" stroke-linecap="butt" stroke-linejoin="miter">
	<path stroke='black'  d='M360.2,662.4 L360.2,653.4  '/>	<g transform="translate(360.2,684.3)" stroke="none" fill="black" font-family="Helvetica" font-size="12.00"  text-anchor="middle">
		<text><tspan font-family="Helvetica" > 23.435</tspan></text>
	</g>
</g>
<g fill="none" color="black" stroke="currentColor" stroke-width="1.00" stroke-linecap="butt" stroke-linejoin="miter">
	<path stroke='black'  d='M456.4,662.4 L456.4,653.4  '/>	<g transform="translate(456.4,684.3)" stroke="none" fill="black" font-family="Helvetica" font-size="12.00"  text-anchor="middle">
		<text><tspan font-family="Helvetica" > 23.44</tspan></text>
	</g>
</g>
<g fill="none" color="black" stroke="currentColor" stroke-width="1.00" stroke-linecap="butt" stroke-linejoin="miter">
	<path stroke='black'  d='M552.6,662.4 L552.6,653.4  '/>	<g transform="translate(552.6,684.3)" stroke="none" fill="black" font-family="Helvetica" font-size="12.00"  text-anchor="middle">
		<text><tspan font-family="Helvetica" > 23.445</tspan></text>
	</g>
</g>
<g fill="none" color="black" stroke="currentColor" stroke-width="1.00" stroke-linecap="butt" stroke-linejoin="miter">
	<path stroke='black'  d='M648.9,662.4 L648.9,653.4  '/>	<g transform="translate(648.9,684.3)" stroke="none" fill="black" font-family="Helvetica" font-size="12.00"  text-anchor="middle">
		<text><tspan font-family="Helvetica" > 23.45</tspan></text>
	</g>
</g>
<g fill="none" color="black" stroke="currentColor" stroke-width="1.00" stroke-linecap="butt" stroke-linejoin="miter">
	<path stroke='black'  d='M745.1,662.4 L745.1,653.4  '/>	<g transform="translate(745.1,684.3)" stroke="none" fill="black" font-family="Helvetica" font-size="12.00"  text-anchor="middle">
		<text><tspan font-family="Helvetica" > 23.455</tspan></text>
	</g>
</g>
<g fill="none" color="black" stroke="currentColor" stroke-width="1.00" stroke-linecap="butt" stroke-linejoin="miter">
	<path stroke='black'  d='M841.4,662.4 L841.4,653.4  '/>	<g transform="translate(841.4,684.3)" stroke="none" fill="black" font-family="Helvetica" font-size="12.00"  text-anchor="middle">
		<text><tspan font-family="Helvetica" > 23.46</tspan></text>
	</g>
</g>
<g fill="none" color="black" stroke="currentColor" stroke-width="1.00" stroke-linecap="butt" stroke-linejoin="miter">
	<path stroke='black'  d='M937.6,662.4 L937.6,653.4  '/>	<g transform="translate(937.6,684.3)" stroke="none" fill="black" font-family="Helvetica" font-size="12.00"  text-anchor="middle">
		<text><tspan font-family="Helvetica" > 23.465</tspan></text>
	</g>
</g>
<g fill="none" color="black" stroke="currentColor" stroke-width="1.00" stroke-linecap="butt" stroke-linejoin="miter">
</g>
<g fill="none" color="black" stroke="currentColor" stroke-width="1.00" stroke-linecap="butt" stroke-linejoin="miter">
	<path stroke='black'  d='M63.6,54.1 L63.6,662.4 L1013.6,662.4 L1013.6,54.1 L63.6,54.1 Z  '/></g>
<g fill="none" color="black" stroke="currentColor" stroke-width="1.00" stroke-linecap="butt" stroke-linejoin="miter">
	<g transform="translate(17.0,358.3) rotate(270)" stroke="none" fill="black" font-family="Helvetica" font-size="12.00"  text-anchor="middle">
		<text><tspan font-family="Helvetica" >Density (a.u.)</tspan></text>
	</g>
</g>
<g fill="none" color="black" stroke="currentColor" stroke-width="1.00" stroke-linecap="butt" stroke-linejoin="miter">
	<g transform="translate(538.6,711.3)" stroke="none" fill="black" font-family="Helvetica" font-size="12.00"  text-anchor="middle">
		<text><tspan font-family="Helvetica" >Average time (ms)</tspan></text>
	</g>
</g>
<g fill="none" color="black" stroke="currentColor" stroke-width="1.00" stroke-linecap="butt" stroke-linejoin="miter">
	<g transform="translate(538.6,31.0)" stroke="none" fill="black" font-family="Helvetica" font-size="12.00"  text-anchor="middle">
		<text><tspan font-family="Helvetica" >language: c/parse error: python/examples/python2-grammar-crlf.py: mean</tspan></text>
	</g>
</g>
	<g id="gnuplot_plot_1" ><title>Bootstrap distribution</title>
<g fill="none" color="white" stroke="black" stroke-width="2.00" stroke-linecap="butt" stroke-linejoin="miter">
</g>
<g fill="none" color="black" stroke="currentColor" stroke-width="2.00" stroke-linecap="butt" stroke-linejoin="miter">
	<g transform="translate(1089.0,67.0)" stroke="none" fill="black" font-family="Helvetica" font-size="12.00"  text-anchor="start">
		<text><tspan font-family="Helvetica" >Bootstrap distribution</tspan></text>
	</g>
</g>
<g fill="none" color="black" stroke="currentColor" stroke-width="2.00" stroke-linecap="butt" stroke-linejoin="miter">
	<path stroke='rgb( 31, 120, 180)'  d='M1038.5,63.1 L1080.7,63.1 M63.6,628.0 L65.5,627.0 L67.4,626.0 L69.3,625.0 L71.2,623.9 L73.1,622.8
		L75.0,621.7 L76.9,620.5 L78.8,619.3 L80.7,618.1 L82.6,616.9 L84.5,615.6 L86.4,614.3 L88.3,613.0
		L90.3,611.7 L92.2,610.4 L94.1,609.1 L96.0,607.7 L97.9,606.4 L99.8,605.0 L101.7,603.7 L103.6,602.3
		L105.5,600.9 L107.4,599.5 L109.3,598.1 L111.2,596.7 L113.1,595.2 L115.0,593.8 L116.9,592.3 L118.8,590.9
		L120.7,589.4 L122.6,587.9 L124.5,586.3 L126.4,584.8 L128.3,583.2 L130.2,581.6 L132.1,580.0 L134.0,578.3
		L135.9,576.6 L137.8,574.9 L139.8,573.1 L141.7,571.3 L143.6,569.5 L145.5,567.6 L147.4,565.7 L149.3,563.7
		L151.2,561.7 L153.1,559.7 L155.0,557.6 L156.9,555.4 L158.8,553.3 L160.7,551.1 L162.6,548.8 L164.5,546.5
		L166.4,544.2 L168.3,541.8 L170.2,539.5 L172.1,537.0 L174.0,534.6 L175.9,532.2 L177.8,529.7 L179.7,527.2
		L181.6,524.7 L183.5,522.2 L185.4,519.6 L187.3,517.1 L189.3,514.5 L191.2,511.9 L193.1,509.4 L195.0,506.8
		L196.9,504.2 L198.8,501.6 L200.7,498.9 L202.6,496.3 L204.5,493.7 L206.4,491.0 L208.3,488.3 L210.2,485.6
		L212.1,482.9 L214.0,480.2 L215.9,477.5 L217.8,474.7 L219.7,472.0 L221.6,469.2 L223.5,466.3 L225.4,463.5
		L227.3,460.6 L229.2,457.7 L231.1,454.8 L233.0,451.8 L234.9,448.8 L236.8,445.8 L238.8,442.7 L240.7,439.6
		L242.6,436.4 L244.5,433.3 L246.4,430.0 L248.3,426.8 L250.2,423.5 L252.1,420.1 L254.0,416.8 L255.9,413.4
		L257.8,409.9 L259.7,406.4 L261.6,402.9 L263.5,399.4 L265.4,395.8 L267.3,392.3 L269.2,388.6 L271.1,385.0
		L273.0,381.4 L274.9,377.7 L276.8,374.1 L278.7,370.4 L280.6,366.7 L282.5,363.0 L284.4,359.3 L286.3,355.6
		L288.2,351.9 L290.2,348.2 L292.1,344.4 L294.0,340.7 L295.9,336.9 L297.8,333.2 L299.7,329.4 L301.6,325.6
		L303.5,321.8 L305.4,318.1 L307.3,314.3 L309.2,310.5 L311.1,306.7 L313.0,302.9 L314.9,299.2 L316.8,295.4
		L318.7,291.7 L320.6,288.1 L322.5,284.4 L324.4,280.9 L326.3,277.3 L328.2,273.8 L330.1,270.4 L332.0,267.0
		L333.9,263.7 L335.8,260.5 L337.7,257.2 L339.7,254.1 L341.6,250.9 L343.5,247.9 L345.4,244.8 L347.3,241.8
		L349.2,238.9 L351.1,235.9 L353.0,233.0 L354.9,230.1 L356.8,227.2 L358.7,224.4 L360.6,221.5 L362.5,218.7
		L364.4,215.9 L366.3,213.1 L368.2,210.3 L370.1,207.5 L372.0,204.8 L373.9,202.0 L375.8,199.3 L377.7,196.5
		L379.6,193.8 L381.5,191.0 L383.4,188.3 L385.3,185.5 L387.2,182.8 L389.2,180.1 L391.1,177.3 L393.0,174.6
		L394.9,171.9 L396.8,169.2 L398.7,166.4 L400.6,163.7 L402.5,161.0 L404.4,158.3 L406.3,155.6 L408.2,153.0
		L410.1,150.3 L412.0,147.7 L413.9,145.1 L415.8,142.5 L417.7,140.0 L419.6,137.4 L421.5,135.0 L423.4,132.5
		L425.3,130.1 L427.2,127.7 L429.1,125.4 L431.0,123.2 L432.9,120.9 L434.8,118.7 L436.7,116.6 L438.7,114.5
		L440.6,112.5 L442.5,110.6 L444.4,108.6 L446.3,106.8 L448.2,104.9 L450.1,103.1 L452.0,101.4 L453.9,99.7
		L455.8,98.0 L457.7,96.4 L459.6,94.8 L461.5,93.3 L463.4,91.8 L465.3,90.3 L467.2,88.8 L469.1,87.5
		L471.0,86.1 L472.9,84.9 L474.8,83.6 L476.7,82.5 L478.6,81.4 L480.5,80.4 L482.4,79.5 L484.3,78.7
		L486.2,77.9 L488.1,77.3 L490.1,76.7 L492.0,76.2 L493.9,75.9 L495.8,75.6 L497.7,75.4 L499.6,75.3
		L501.5,75.3 L503.4,75.4 L505.3,75.5 L507.2,75.8 L509.1,76.1 L511.0,76.5 L512.9,77.0 L514.8,77.6
		L516.7,78.2 L518.6,78.9 L520.5,79.7 L522.4,80.5 L524.3,81.4 L526.2,82.4 L528.1,83.4 L530.0,84.5
		L531.9,85.7 L533.8,86.9 L535.7,88.1 L537.6,89.4 L539.6,90.7 L541.5,92.1 L543.4,93.5 L545.3,95.0
		L547.2,96.5 L549.1,98.0 L551.0,99.5 L552.9,101.1 L554.8,102.7 L556.7,104.2 L558.6,105.8 L560.5,107.4
		L562.4,109.0 L564.3,110.7 L566.2,112.3 L568.1,113.9 L570.0,115.5 L571.9,117.1 L573.8,118.7 L575.7,120.2
		L577.6,121.8 L579.5,123.4 L581.4,125.0 L583.3,126.6 L585.2,128.2 L587.1,129.8 L589.1,131.4 L591.0,133.1
		L592.9,134.8 L594.8,136.6 L596.7,138.4 L598.6,140.2 L600.5,142.1 L602.4,144.1 L604.3,146.1 L606.2,148.2
		L608.1,150.4 L610.0,152.6 L611.9,154.9 L613.8,157.2 L615.7,159.6 L617.6,162.0 L619.5,164.5 L621.4,167.0
		L623.3,169.6 L625.2,172.1 L627.1,174.7 L629.0,177.3 L630.9,179.9 L632.8,182.5 L634.7,185.2 L636.6,187.8
		L638.5,190.4 L640.5,193.1 L642.4,195.7 L644.3,198.4 L646.2,201.0 L648.1,203.7 L650.0,206.3 L651.9,209.0
		L653.8,211.7 L655.7,214.4 L657.6,217.1 L659.5,219.8 L661.4,222.5 L663.3,225.3 L665.2,228.1 L667.1,230.8
		L669.0,233.6 L670.9,236.4 L672.8,239.2 L674.7,242.0 L676.6,244.9 L678.5,247.7 L680.4,250.5 L682.3,253.4
		L684.2,256.2 L686.1,259.1 L688.0,261.9 L690.0,264.8 L691.9,267.7 L693.8,270.5 L695.7,273.4 L697.6,276.3
		L699.5,279.2 L701.4,282.1 L703.3,285.0 L705.2,287.9 L707.1,290.8 L709.0,293.8 L710.9,296.7 L712.8,299.7
		L714.7,302.7 L716.6,305.8 L718.5,308.9 L720.4,312.0 L722.3,315.2 L724.2,318.4 L726.1,321.6 L728.0,324.9
		L729.9,328.3 L731.8,331.6 L733.7,335.0 L735.6,338.5 L737.5,341.9 L739.5,345.4 L741.4,348.9 L743.3,352.4
		L745.2,356.0 L747.1,359.5 L749.0,363.0 L750.9,366.5 L752.8,370.0 L754.7,373.4 L756.6,376.8 L758.5,380.2
		L760.4,383.5 L762.3,386.8 L764.2,390.1 L766.1,393.2 L768.0,396.3 L769.9,399.4 L771.8,402.4 L773.7,405.3
		L775.6,408.2 L777.5,411.1 L779.4,413.8 L781.3,416.6 L783.2,419.2 L785.1,421.9 L787.0,424.5 L789.0,427.0
		L790.9,429.6 L792.8,432.1 L794.7,434.6 L796.6,437.1 L798.5,439.6 L800.4,442.1 L802.3,444.6 L804.2,447.1
		L806.1,449.7 L808.0,452.2 L809.9,454.8 L811.8,457.3 L813.7,459.9 L815.6,462.5 L817.5,465.1 L819.4,467.7
		L821.3,470.4 L823.2,473.0 L825.1,475.7 L827.0,478.3 L828.9,480.9 L830.8,483.6 L832.7,486.2 L834.6,488.8
		L836.5,491.4 L838.4,494.0 L840.4,496.6 L842.3,499.2 L844.2,501.7 L846.1,504.2 L848.0,506.7 L849.9,509.2
		L851.8,511.6 L853.7,514.1 L855.6,516.5 L857.5,518.8 L859.4,521.1 L861.3,523.4 L863.2,525.7 L865.1,528.0
		L867.0,530.2 L868.9,532.3 L870.8,534.5 L872.7,536.6 L874.6,538.7 L876.5,540.7 L878.4,542.7 L880.3,544.7
		L882.2,546.6 L884.1,548.5 L886.0,550.4 L887.9,552.2 L889.9,554.0 L891.8,555.8 L893.7,557.6 L895.6,559.3
		L897.5,561.0 L899.4,562.6 L901.3,564.3 L903.2,565.9 L905.1,567.5 L907.0,569.0 L908.9,570.6 L910.8,572.1
		L912.7,573.6 L914.6,575.0 L916.5,576.5 L918.4,577.9 L920.3,579.3 L922.2,580.7 L924.1,582.0 L926.0,583.4
		L927.9,584.7 L929.8,586.1 L931.7,587.4 L933.6,588.7 L935.5,589.9 L937.4,591.2 L939.4,592.5 L941.3,593.7
		L943.2,595.0 L945.1,596.2 L947.0,597.4 L948.9,598.6 L950.8,599.8 L952.7,601.0 L954.6,602.1 L956.5,603.3
		L958.4,604.4 L960.3,605.5 L962.2,606.6 L964.1,607.6 L966.0,608.7 L967.9,609.7 L969.8,610.7 L971.7,611.6
		L973.6,612.6 L975.5,613.5 L977.4,614.3 L979.3,615.2 L981.2,616.0 L983.1,616.8 L985.0,617.6 L986.9,618.3
		L988.9,619.0 L990.8,619.7 L992.7,620.4 L994.6,621.1 L996.5,621.8 L998.4,622.4 L1000.3,623.0 L1002.2,623.7
		L1004.1,624.3 L1006.0,624.9 L1007.9,625.5 L1009.8,626.1 L1011.7,626.7 L1013.6,627.3  '/></g>
	</g>
	<g id="gnuplot_plot_2" ><title>Confidence interval</title>
<g fill="none" color="white" stroke="rgb( 31, 120, 180)" stroke-width="1.00" stroke-linecap="butt" stroke-linejoin="miter">
</g>
<g fill="none" color="black" stroke="currentColor" stroke-width="1.00" stroke-linecap="butt" stroke-linejoin="miter">
	<g transform="translate(1089.0,85.0)" stroke="none" fill="black" font-family="Helvetica" font-size="12.00"  text-anchor="start">
		<text><tspan font-family="Helvetica" >Confidence interval</tspan></text>
	</g>
</g>
<g fill="none" color="black" stroke="currentColor" stroke-width="1.00" stroke-linecap="butt" stroke-linejoin="miter">
	<g stroke='none' shape-rendering='crispEdges'>
		<polygon fill = 'rgb( 31, 120, 180)' fill-opacity = '0.250000' points = '1038.5,85.6 1080.7,85.6 1080.7,76.6 1038.5,76.6 '/>
		<polygon fill = 'rgb( 31, 120, 180)' fill-opacity = '0.250000' points = '151.2,561.7 151.2,662.4 153.1,662.4 153.1,559.7 '/>
		<polygon fill = 'rgb( 31, 120, 180)' fill-opacity = '0.250000' points = '153.1,559.7 153.1,662.4 155.0,662.4 155.0,557.6 '/>
		<polygon fill = 'rgb( 31, 120, 180)' fill-opacity = '0.250000' points = '155.0,557.6 155.0,662.4 156.9,662.4 156.9,555.4 '/>
		<polygon fill = 'rgb( 31, 120, 180)' fill-opacity = '0.250000' points = '156.9,555.4 156.9,662.4 158.8,662.4 158.8,553.3 '/>
		<polygon fill = 'rgb( 31, 120, 180)' fill-opacity = '0.250000' points = '158.8,553.3 158.8,662.4 160.7,662.4 160.7,551.1 '/>
		<polygon fill = 'rgb( 31, 120, 180)' fill-opacity = '0.250000' points = '160.7,551.1 160.7,662.4 162.6,662.4 162.6,548.8 '/>
		<polygon fill = 'rgb( 31, 120, 180)' fill-opacity = '0.250000' points = '162.6,548.8 162.6,662.4 164.5,662.4 164.5,546.5 '/>
		<polygon fill = 'rgb( 31, 120, 180)' fill-opacity = '0.250000' points = '164.5,546.5 164.5,662.4 166.4,662.4 166.4,544.2 '/>
		<polygon fill = 'rgb( 31, 120, 180)' fill-opacity = '0.250000' points = '166.4,544.2 166.4,662.4 168.3,662.4 168.3,541.8 '/>
		<polygon fill = 'rgb( 31, 120, 180)' fill-opacity = '0.250000' points = '168.3,541.8 168.3,662.4 170.2,662.4 170.2,539.5 '/>
		<polygon fill = 'rgb( 31, 120, 180)' fill-opacity = '0.250000' points = '170.2,539.5 170.2,662.4 172.1,662.4 172.1,537.0 '/>
		<polygon fill = 'rgb( 31, 120, 180)' fill-opacity = '0.250000' points = '172.1,537.0 172.1,662.4 174.0,662.4 174.0,534.6 '/>
		<polygon fill = 'rgb( 31, 120, 180)' fill-opacity = '0.250000' points = '174.0,534.6 174.0,662.4 175.9,662.4 175.9,532.2 '/>
		<polygon fill = 'rgb( 31, 120, 180)' fill-opacity = '0.250000' points = '175.9,532.2 175.9,662.4 177.8,662.4 177.8,529.7 '/>
		<polygon fill = 'rgb( 31, 120, 180)' fill-opacity = '0.250000' points = '177.8,529.7 177.8,662.4 179.7,662.4 179.7,527.2 '/>
		<polygon fill = 'rgb( 31, 120, 180)' fill-opacity = '0.250000' points = '179.7,527.2 179.7,662.4 181.6,662.4 181.6,524.7 '/>
		<polygon fill = 'rgb( 31, 120, 180)' fill-opacity = '0.250000' points = '181.6,524.7 181.6,662.4 183.5,662.4 183.5,522.2 '/>
		<polygon fill = 'rgb( 31, 120, 180)' fill-opacity = '0.250000' points = '183.5,522.2 183.5,662.4 185.4,662.4 185.4,519.6 '/>
		<polygon fill = 'rgb( 31, 120, 180)' fill-opacity = '0.250000' points = '185.4,519.6 185.4,662.4 187.3,662.4 187.3,517.1 '/>
		<polygon fill = 'rgb( 31, 120, 180)' fill-opacity = '0.250000' points = '187.3,517.1 187.3,662.4 189.3,662.4 189.3,514.5 '/>
		<polygon fill = 'rgb( 31, 120, 180)' fill-opacity = '0.250000' points = '189.3,514.5 189.3,662.4 191.2,662.4 191.2,511.9 '/>
		<polygon fill = 'rgb( 31, 120, 180)' fill-opacity = '0.250000' points = '191.2,511.9 191.2,662.4 193.1,662.4 193.1,509.4 '/>
		<polygon fill = 'rgb( 31, 120, 180)' fill-opacity = '0.250000' points = '193.1,509.4 193.1,662.4 195.0,662.4 195.0,506.8 '/>
		<polygon fill = 'rgb( 31, 120, 180)' fill-opacity = '0.250000' points = '195.0,506.8 195.0,662.4 196.9,662.4 196.9,504.2 '/>
		<polygon fill = 'rgb( 31, 120, 180)' fill-opacity = '0.250000' points = '196.9,504.2 196.9,662.4 198.8,662.4 198.8,501.6 '/>
		<polygon fill = 'rgb( 31, 120, 180)' fill-opacity = '0.250000' points = '198.8,501.6 198.8,662.4 200.7,662.4 200.7,498.9 '/>
		<polygon fill = 'rgb( 31, 120, 180)' fill-opacity = '0.250000' points = '200.7,498.9 200.7,662.4 202.6,662.4 202.6,496.3 '/>
		<polygon fill = 'rgb( 31, 120, 180)' fill-opacity = '0.250000' points = '202.6,496.3 202.6,662.4 204.5,662.4 204.5,493.7 '/>
		<polygon fill = 'rgb( 31, 120, 180)' fill-opacity = '0.250000' points = '204.5,493.7 204.5,662.4 206.4,662.4 206.4,491.0 '/>
		<polygon fill = 'rgb( 31, 120, 180)' fill-opacity = '0.250000' points = '206.4,491.0 206.4,662.4 208.3,662.4 208.3,488.3 '/>
		<polygon fill = 'rgb( 31, 120, 180)' fill-opacity = '0.250000' points = '208.3,488.3 208.3,662.4 210.2,662.4 210.2,485.6 '/>
		<polygon fill = 'rgb( 31, 120, 180)' fill-opacity = '0.250000' points = '210.2,485.6 210.2,662.4 212.1,662.4 212.1,482.9 '/>
		<polygon fill = 'rgb( 31, 120, 180)' fill-opacity = '0.250000' points = '212.1,482.9 212.1,662.4 214.0,662.4 214.0,480.2 '/>
		<polygon fill = 'rgb( 31, 120, 180)' fill-opacity = '0.250000' points = '214.0,480.2 214.0,662.4 215.9,662.4 215.9,477.5 '/>
		<polygon fill = 'rgb( 31, 120, 180)' fill-opacity = '0.250000' points = '215.9,477.5 215.9,662.4 217.8,662.4 217.8,474.7 '/>
		<polygon fill = 'rgb( 31, 120, 180)' fill-opacity = '0.250000' points = '217.8,474.7 217.8,662.4 219.7,662.4 219.7,472.0 '/>
		<polygon fill = 'rgb( 31, 120, 180)' fill-opacity = '0.250000' points = '219.7,472.0 219.7,662.4 221.6,662.4 221.6,469.2 '/>
		<polygon fill = 'rgb( 31, 120, 180)' fill-opacity = '0.250000' points = '221.6,469.2 221.6,662.4 223.5,662.4 223.5,466.3 '/>
		<polygon fill = 'rgb( 31, 120, 180)' fill-opacity = '0.250000' points = '223.5,466.3 223.5,662.4 225.4,662.4 225.4,463.5 '/>
		<polygon fill = 'rgb( 31, 120, 180)' fill-opacity = '0.250000' points = '225.4,463.5 225.4,662.4 227.3,662.4 227.3,460.6 '/>
		<polygon fill = 'rgb( 31, 120, 180)' fill-opacity = '0.250000' points = '227.3,460.6 227.3,662.4 229.2,662.4 229.2,457.7 '/>
		<polygon fill = 'rgb( 31, 120, 180)' fill-opacity = '0.250000' points = '229.2,457.7 229.2,662.4 231.1,662.4 231.1,454.8 '/>
		<polygon fill = 'rgb( 31, 120, 180)' fill-opacity = '0.250000' points = '231.1,454.8 231.1,662.4 233.0,662.4 233.0,451.8 '/>
		<polygon fill = 'rgb( 31, 120, 180)' fill-opacity = '0.250000' points = '233.0,451.8 233.0,662.4 234.9,662.4 234.9,448.8 '/>
		<polygon fill = 'rgb( 31, 120, 180)' fill-opacity = '0.250000' points = '234.9,448.8 234.9,662.4 236.8,662.4 236.8,445.8 '/>
		<polygon fill = 'rgb( 31, 120, 180)' fill-opacity = '0.250000' points = '236.8,445.8 236.8,662.4 238.8,662.4 238.8,442.7 '/>
		<polygon fill = 'rgb( 31, 120, 180)' fill-opacity = '0.250000' points = '238.8,442.7 238.8,662.4 240.7,662.4 240.7,439.6 '/>
		<polygon fill = 'rgb( 31, 120, 180)' fill-opacity = '0.250000' points = '240.7,439.6 240.7,662.4 242.6,662.4 242.6,436.4 '/>
		<polygon fill = 'rgb( 31, 120, 180)' fill-opacity = '0.250000' points = '242.6,436.4 242.6,662.4 244.5,662.4 244.5,433.3 '/>
		<polygon fill = 'rgb( 31, 120, 180)' fill-opacity = '0.250000' points = '244.5,433.3 244.5,662.4 246.4,662.4 246.4,430.0 '/>
		<polygon fill = 'rgb( 31, 120, 180)' fill-opacity = '0.250000' points = '246.4,430.0 246.4,662.4 248.3,662.4 248.3,426.8 '/>
		<polygon fill = 'rgb( 31, 120, 180)' fill-opacity = '0.250000' points = '248.3,426.8 248.3,662.4 250.2,662.4 250.2,423.5 '/>
		<polygon fill = 'rgb( 31, 120, 180)' fill-opacity = '0.250000' points = '250.2,423.5 250.2,662.4 252.1,662.4 252.1,420.1 '/>
		<polygon fill = 'rgb( 31, 120, 180)' fill-opacity = '0.250000' points = '252.1,420.1 252.1,662.4 254.0,662.4 254.0,416.8 '/>
		<polygon fill = 'rgb( 31, 120, 180)' fill-opacity = '0.250000' points = '254.0,416.8 254.0,662.4 255.9,662.4 255.9,413.4 '/>
		<polygon fill = 'rgb( 31, 120, 180)' fill-opacity = '0.250000' points = '255.9,413.4 255.9,662.4 257.8,662.4 257.8,409.9 '/>
		<polygon fill = 'rgb( 31, 120, 180)' fill-opacity = '0.250000' points = '257.8,409.9 257.8,662.4 259.7,662.4 259.7,406.4 '/>
		<polygon fill = 'rgb( 31, 120, 180)' fill-opacity = '0.250000' points = '259.7,406.4 259.7,662.4 261.6,662.4 261.6,402.9 '/>
		<polygon fill = 'rgb( 31, 120, 180)' fill-opacity = '0.250000' points = '261.6,402.9 261.6,662.4 263.5,662.4 263.5,399.4 '/>
		<polygon fill = 'rgb( 31, 120, 180)' fill-opacity = '0.250000' points = '263.5,399.4 263.5,662.4 265.4,662.4 265.4,395.8 '/>
		<polygon fill = 'rgb( 31, 120, 180)' fill-opacity = '0.250000' points = '265.4,395.8 265.4,662.4 267.3,662.4 267.3,392.3 '/>
		<polygon fill = 'rgb( 31, 120, 180)' fill-opacity = '0.250000' points = '267.3,392.3 267.3,662.4 269.2,662.4 269.2,388.6 '/>
		<polygon fill = 'rgb( 31, 120, 180)' fill-opacity = '0.250000' points = '269.2,388.6 269.2,662.4 271.1,662.4 271.1,385.0 '/>
		<polygon fill = 'rgb( 31, 120, 180)' fill-opacity = '0.250000' points = '271.1,385.0 271.1,662.4 273.0,662.4 273.0,381.4 '/>
		<polygon fill = 'rgb( 31, 120, 180)' fill-opacity = '0.250000' points = '273.0,381.4 273.0,662.4 274.9,662.4 274.9,377.7 '/>
		<polygon fill = 'rgb( 31, 120, 180)' fill-opacity = '0.250000' points = '274.9,377.7 274.9,662.4 276.8,662.4 276.8,374.1 '/>
		<polygon fill = 'rgb( 31, 120, 180)' fill-opacity = '0.250000' points = '276.8,374.1 276.8,662.4 278.7,662.4 278.7,370.4 '/>
		<polygon fill = 'rgb( 31, 120, 180)' fill-opacity = '0.250000' points = '278.7,370.4 278.7,662.4 280.6,662.4 280.6,366.7 '/>
		<polygon fill = 'rgb( 31, 120, 180)' fill-opacity = '0.250000' points = '280.6,366.7 280.6,662.4 282.5,662.4 282.5,363.0 '/>
		<polygon fill = 'rgb( 31, 120, 180)' fill-opacity = '0.250000' points = '282.5,363.0 282.5,662.4 284.4,662.4 284.4,359.3 '/>
		<polygon fill = 'rgb( 31, 120, 180)' fill-opacity = '0.250000' points = '284.4,359.3 284.4,662.4 286.3,662.4 286.3,355.6 '/>
		<polygon fill = 'rgb( 31, 120, 180)' fill-opacity = '0.250000' points = '286.3,355.6 286.3,662.4 288.2,662.4 288.2,351.9 '/>
		<polygon fill = 'rgb( 31, 120, 180)' fill-opacity = '0.250000' points = '288.2,351.9 288.2,662.4 290.2,662.4 290.2,348.2 '/>
		<polygon fill = 'rgb( 31, 120, 180)' fill-opacity = '0.250000' points = '290.2,348.2 290.2,662.4 292.1,662.4 292.1,344.4 '/>
		<polygon fill = 'rgb( 31, 120, 180)' fill-opacity = '0.250000' points = '292.1,344.4 292.1,662.4 294.0,662.4 294.0,340.7 '/>
		<polygon fill = 'rgb( 31, 120, 180)' fill-opacity = '0.250000' points = '294.0,340.7 294.0,662.4 295.9,662.4 295.9,336.9 '/>
		<polygon fill = 'rgb( 31, 120, 180)' fill-opacity = '0.250000' points = '295.9,336.9 295.9,662.4 297.8,662.4 297.8,333.2 '/>
		<polygon fill = 'rgb( 31, 120, 180)' fill-opacity = '0.250000' points = '297.8,333.2 297.8,662.4 299.7,662.4 299.7,329.4 '/>
		<polygon fill = 'rgb( 31, 120, 180)' fill-opacity = '0.250000' points = '299.7,329.4 299.7,662.4 301.6,662.4 301.6,325.6 '/>
		<polygon fill = 'rgb( 31, 120, 180)' fill-opacity = '0.250000' points = '301.6,325.6 301.6,662.4 303.5,662.4 303.5,321.8 '/>
		<polygon fill = 'rgb( 31, 120, 180)' fill-opacity = '0.250000' points = '303.5,321.8 303.5,662.4 305.4,662.4 305.4,318.1 '/>
		<polygon fill = 'rgb( 31, 120, 180)' fill-opacity = '0.250000' points = '305.4,318.1 305.4,662.4 307.3,662.4 307.3,314.3 '/>
		<polygon fill = 'rgb( 31, 120, 180)' fill-opacity = '0.250000' points = '307.3,314.3 307.3,662.4 309.2,662.4 309.2,310.5 '/>
		<polygon fill = 'rgb( 31, 120, 180)' fill-opacity = '0.250000' points = '309.2,310.5 309.2,662.4 311.1,662.4 311.1,306.7 '/>
		<polygon fill = 'rgb( 31, 120, 180)' fill-opacity = '0.250000' points = '311.1,306.7 311.1,662.4 313.0,662.4 313.0,302.9 '/>
		<polygon fill = 'rgb( 31, 120, 180)' fill-opacity = '0.250000' points = '313.0,302.9 313.0,662.4 314.9,662.4 314.9,299.2 '/>
		<polygon fill = 'rgb( 31, 120, 180)' fill-opacity = '0.250000' points = '314.9,299.2 314.9,662.4 316.8,662.4 316.8,295.4 '/>
		<polygon fill = 'rgb( 31, 120, 180)' fill-opacity = '0.250000' points = '316.8,295.4 316.8,662.4 318.7,662.4 318.7,291.7 '/>
		<polygon fill = 'rgb( 31, 120, 180)' fill-opacity = '0.250000' points = '318.7,291.7 318.7,662.4 320.6,662.4 320.6,288.1 '/>
		<polygon fill = 'rgb( 31, 120, 180)' fill-opacity = '0.250000' points = '320.6,288.1 320.6,662.4 322.5,662.4 322.5,284.4 '/>
		<polygon fill = 'rgb( 31, 120, 180)' fill-opacity = '0.250000' points = '322.5,284.4 322.5,662.4 324.4,662.4 324.4,280.9 '/>
		<polygon fill = 'rgb( 31, 120, 180)' fill-opacity = '0.250000' points = '324.4,280.9 324.4,662.4 326.3,662.4 326.3,277.3 '/>
		<polygon fill = 'rgb( 31, 120, 180)' fill-opacity = '0.250000' points = '326.3,277.3 326.3,662.4 328.2,662.4 328.2,273.8 '/>
		<polygon fill = 'rgb( 31, 120, 180)' fill-opacity = '0.250000' points = '328.2,273.8 328.2,662.4 330.1,662.4 330.1,270.4 '/>
		<polygon fill = 'rgb( 31, 120, 180)' fill-opacity = '0.250000' points = '330.1,270.4 330.1,662.4 332.0,662.4 332.0,267.0 '/>
		<polygon fill = 'rgb( 31, 120, 180)' fill-opacity = '0.250000' points = '332.0,267.0 332.0,662.4 333.9,662.4 333.9,263.7 '/>
		<polygon fill = 'rgb( 31, 120, 180)' fill-opacity = '0.250000' points = '333.9,263.7 333.9,662.4 335.8,662.4 335.8,260.5 '/>
		<polygon fill = 'rgb( 31, 120, 180)' fill-opacity = '0.250000' points = '335.8,260.5 335.8,662.4 337.7,662.4 337.7,257.2 '/>
		<polygon fill = 'rgb( 31, 120, 180)' fill-opacity = '0.250000' points = '337.7,257.2 337.7,662.4 339.7,662.4 339.7,254.1 '/>
		<polygon fill = 'rgb( 31, 120, 180)' fill-opacity = '0.250000' points = '339.7,254.1 339.7,662.4 341.6,662.4 341.6,250.9 '/>
		<polygon fill = 'rgb( 31, 120, 180)' fill-opacity = '0.250000' points = '341.6,250.9 341.6,662.4 343.5,662.4 343.5,247.9 '/>
		<polygon fill = 'rgb( 31, 120, 180)' fill-opacity = '0.250000' points = '343.5,247.9 343.5,662.4 345.4,662.4 345.4,244.8 '/>
		<polygon fill = 'rgb( 31, 120, 180)' fill-opacity = '0.250000' points = '345.4,244.8 345.4,662.4 347.3,662.4 347.3,241.8 '/>
		<polygon fill = 'rgb( 31, 120, 180)' fill-opacity = '0.250000' points = '347.3,241.8 347.3,662.4 349.2,662.4 349.2,238.9 '/>
		<polygon fill = 'rgb( 31, 120, 180)' fill-opacity = '0.250000' points = '349.2,238.9 349.2,662.4 351.1,662.4 351.1,235.9 '/>
		<polygon fill = 'rgb( 31, 120, 180)' fill-opacity = '0.250000' points = '351.1,235.9 351.1,662.4 353.0,662.4 353.0,233.0 '/>
		<polygon fill = 'rgb( 31, 120, 180)' fill-opacity = '0.250000' points = '353.0,233.0 353.0,662.4 354.9,662.4 354.9,230.1 '/>
		<polygon fill = 'rgb( 31, 120, 180)' fill-opacity = '0.250000' points = '354.9,230.1 354.9,662.4 356.8,662.4 356.8,227.2 '/>
		<polygon fill = 'rgb( 31, 120, 180)' fill-opacity = '0.250000' points = '356.8,227.2 356.8,662.4 358.7,662.4 358.7,224.4 '/>
		<polygon fill = 'rgb( 31, 120, 180)' fill-opacity = '0.250000' points = '358.7,224.4 358.7,662.4 360.6,662.4 360.6,221.5 '/>
		<polygon fill = 'rgb( 31, 120, 180)' fill-opacity = '0.250000' points = '360.6,221.5 360.6,662.4 362.5,662.4 362.5,218.7 '/>
		<polygon fill = 'rgb( 31, 120, 180)' fill-opacity = '0.250000' points = '362.5,218.7 362.5,662.4 364.4,662.4 364.4,215.9 '/>
		<polygon fill = 'rgb( 31, 120, 180)' fill-opacity = '0.250000' points = '364.4,215.9 364.4,662.4 366.3,662.4 366.3,213.1 '/>
		<polygon fill = 'rgb( 31, 120, 180)' fill-opacity = '0.250000' points = '366.3,213.1 366.3,662.4 368.2,662.4 368.2,210.3 '/>
		<polygon fill = 'rgb( 31, 120, 180)' fill-opacity = '0.250000' points = '368.2,210.3 368.2,662.4 370.1,662.4 370.1,207.5 '/>
		<polygon fill = 'rgb( 31, 120, 180)' fill-opacity = '0.250000' points = '370.1,207.5 370.1,662.4 372.0,662.4 372.0,204.8 '/>
		<polygon fill = 'rgb( 31, 120, 180)' fill-opacity = '0.250000' points = '372.0,204.8 372.0,662.4 373.9,662.4 373.9,202.0 '/>
		<polygon fill = 'rgb( 31, 120, 180)' fill-opacity = '0.250000' points = '373.9,202.0 373.9,662.4 375.8,662.4 375.8,199.3 '/>
		<polygon fill = 'rgb( 31, 120, 180)' fill-opacity = '0.250000' points = '375.8,199.3 375.8,662.4 377.7,662.4 377.7,196.5 '/>
		<polygon fill = 'rgb( 31, 120, 180)' fill-opacity = '0.250000' points = '377.7,196.5 377.7,662.4 379.6,662.4 379.6,193.8 '/>
		<polygon fill = 'rgb( 31, 120, 180)' fill-opacity = '0.250000' points = '379.6,193.8 379.6,662.4 381.5,662.4 381.5,191.0 '/>
		<polygon fill = 'rgb( 31, 120, 180)' fill-opacity = '0.250000' points = '381.5,191.0 381.5,662.4 383.4,662.4 383.4,188.3 '/>
		<polygon fill = 'rgb( 31, 120, 180)' fill-opacity = '0.250000' points = '383.4,188.3 383.4,662.4 385.3,662.4 385.3,185.5 '/>
		<polygon fill = 'rgb( 31, 120, 180)' fill-opacity = '0.250000' points = '385.3,185.5 385.3,662.4 387.2,662.4 387.2,182.8 '/>
		<polygon fill = 'rgb( 31, 120, 180)' fill-opacity = '0.250000' points = '387.2,182.8 387.2,662.4 389.2,662.4 389.2,180.1 '/>
		<polygon fill = 'rgb( 31, 120, 180)' fill-opacity = '0.250000' points = '389.2,180.1 389.2,662.4 391.1,662.4 391.1,177.3 '/>
		<polygon fill = 'rgb( 31, 120, 180)' fill-opacity = '0.250000' points = '391.1,177.3 391.1,662.4 393.0,662.4 393.0,174.6 '/>
		<polygon fill = 'rgb( 31, 120, 180)' fill-opacity = '0.250000' points = '393.0,174.6 393.0,662.4 394.9,662.4 394.9,171.9 '/>
		<polygon fill = 'rgb( 31, 120, 180)' fill-opacity = '0.250000' points = '394.9,171.9 394.9,662.4 396.8,662.4 396.8,169.2 '/>
		<polygon fill = 'rgb( 31, 120, 180)' fill-opacity = '0.250000' points = '396.8,169.2 396.8,662.4 398.7,662.4 398.7,166.4 '/>
		<polygon fill = 'rgb( 31, 120, 180)' fill-opacity = '0.250000' points = '398.7,166.4 398.7,662.4 400.6,662.4 400.6,163.7 '/>
		<polygon fill = 'rgb( 31, 120, 180)' fill-opacity = '0.250000' points = '400.6,163.7 400.6,662.4 402.5,662.4 402.5,161.0 '/>
		<polygon fill = 'rgb( 31, 120, 180)' fill-opacity = '0.250000' points = '402.5,161.0 402.5,662.4 404.4,662.4 404.4,158.3 '/>
		<polygon fill = 'rgb( 31, 120, 180)' fill-opacity = '0.250000' points = '404.4,158.3 404.4,662.4 406.3,662.4 406.3,155.6 '/>
		<polygon fill = 'rgb( 31, 120, 180)' fill-opacity = '0.250000' points = '406.3,155.6 406.3,662.4 408.2,662.4 408.2,153.0 '/>
		<polygon fill = 'rgb( 31, 120, 180)' fill-opacity = '0.250000' points = '408.2,153.0 408.2,662.4 410.1,662.4 410.1,150.3 '/>
		<polygon fill = 'rgb( 31, 120, 180)' fill-opacity = '0.250000' points = '410.1,150.3 410.1,662.4 412.0,662.4 412.0,147.7 '/>
		<polygon fill = 'rgb( 31, 120, 180)' fill-opacity = '0.250000' points = '412.0,147.7 412.0,662.4 413.9,662.4 413.9,145.1 '/>
		<polygon fill = 'rgb( 31, 120, 180)' fill-opacity = '0.250000' points = '413.9,145.1 413.9,662.4 415.8,662.4 415.8,142.5 '/>
		<polygon fill = 'rgb( 31, 120, 180)' fill-opacity = '0.250000' points = '415.8,142.5 415.8,662.4 417.7,662.4 417.7,140.0 '/>
		<polygon fill = 'rgb( 31, 120, 180)' fill-opacity = '0.250000' points = '417.7,140.0 417.7,662.4 419.6,662.4 419.6,137.4 '/>
		<polygon fill = 'rgb( 31, 120, 180)' fill-opacity = '0.250000' points = '419.6,137.4 419.6,662.4 421.5,662.4 421.5,135.0 '/>
		<polygon fill = 'rgb( 31, 120, 180)' fill-opacity = '0.250000' points = '421.5,135.0 421.5,662.4 423.4,662.4 423.4,132.5 '/>
		<polygon fill = 'rgb( 31, 120, 180)' fill-opacity = '0.250000' points = '423.4,132.5 423.4,662.4 425.3,662.4 425.3,130.1 '/>
		<polygon fill = 'rgb( 31, 120, 180)' fill-opacity = '0.250000' points = '425.3,130.1 425.3,662.4 427.2,662.4 427.2,127.7 '/>
		<polygon fill = 'rgb( 31, 120, 180)' fill-opacity = '0.250000' points = '427.2,127.7 427.2,662.4 429.1,662.4 429.1,125.4 '/>
		<polygon fill = 'rgb( 31, 120, 180)' fill-opacity = '0.250000' points = '429.1,125.4 429.1,662.4 431.0,662.4 431.0,123.2 '/>
		<polygon fill = 'rgb( 31, 120, 180)' fill-opacity = '0.250000' points = '431.0,123.2 431.0,662.4 432.9,662.4 432.9,120.9 '/>
		<polygon fill = 'rgb( 31, 120, 180)' fill-opacity = '0.250000' points = '432.9,120.9 432.9,662.4 434.8,662.4 434.8,118.7 '/>
		<polygon fill = 'rgb( 31, 120, 180)' fill-opacity = '0.250000' points = '434.8,118.7 434.8,662.4 436.7,662.4 436.7,116.6 '/>
		<polygon fill = 'rgb( 31, 120, 180)' fill-opacity = '0.250000' points = '436.7,116.6 436.7,662.4 438.7,662.4 438.7,114.5 '/>
		<polygon fill = 'rgb( 31, 120, 180)' fill-opacity = '0.250000' points = '438.7,114.5 438.7,662.4 440.6,662.4 440.6,112.5 '/>
		<polygon fill = 'rgb( 31, 120, 180)' fill-opacity = '0.250000' points = '440.6,112.5 440.6,662.4 442.5,662.4 442.5,110.6 '/>
		<polygon fill = 'rgb( 31, 120, 180)' fill-opacity = '0.250000' points = '442.5,110.6 442.5,662.4 444.4,662.4 444.4,108.6 '/>
		<polygon fill = 'rgb( 31, 120, 180)' fill-opacity = '0.250000' points = '444.4,108.6 444.4,662.4 446.3,662.4 446.3,106.8 '/>
		<polygon fill = 'rgb( 31, 120, 180)' fill-opacity = '0.250000' points = '446.3,106.8 446.3,662.4 448.2,662.4 448.2,104.9 '/>
		<polygon fill = 'rgb( 31, 120, 180)' fill-opacity = '0.250000' points = '448.2,104.9 448.2,662.4 450.1,662.4 450.1,103.1 '/>
		<polygon fill = 'rgb( 31, 120, 180)' fill-opacity = '0.250000' points = '450.1,103.1 450.1,662.4 452.0,662.4 452.0,101.4 '/>
		<polygon fill = 'rgb( 31, 120, 180)' fill-opacity = '0.250000' points = '452.0,101.4 452.0,662.4 453.9,662.4 453.9,99.7 '/>
		<polygon fill = 'rgb( 31, 120, 180)' fill-opacity = '0.250000' points = '453.9,99.7 453.9,662.4 455.8,662.4 455.8,98.0 '/>
		<polygon fill = 'rgb( 31, 120, 180)' fill-opacity = '0.250000' points = '455.8,98.0 455.8,662.4 457.7,662.4 457.7,96.4 '/>
		<polygon fill = 'rgb( 31, 120, 180)' fill-opacity = '0.250000' points = '457.7,96.4 457.7,662.4 459.6,662.4 459.6,94.8 '/>
		<polygon fill = 'rgb( 31, 120, 180)' fill-opacity = '0.250000' points = '459.6,94.8 459.6,662.4 461.5,662.4 461.5,93.3 '/>
		<polygon fill = 'rgb( 31, 120, 180)' fill-opacity = '0.250000' points = '461.5,93.3 461.5,662.4 463.4,662.4 463.4,91.8 '/>
		<polygon fill = 'rgb( 31, 120, 180)' fill-opacity = '0.250000' points = '463.4,91.8 463.4,662.4 465.3,662.4 465.3,90.3 '/>
		<polygon fill = 'rgb( 31, 120, 180)' fill-opacity = '0.250000' points = '465.3,90.3 465.3,662.4 467.2,662.4 467.2,88.8 '/>
		<polygon fill = 'rgb( 31, 120, 180)' fill-opacity = '0.250000' points = '467.2,88.8 467.2,662.4 469.1,662.4 469.1,87.5 '/>
		<polygon fill = 'rgb( 31, 120, 180)' fill-opacity = '0.250000' points = '469.1,87.5 469.1,662.4 471.0,662.4 471.0,86.1 '/>
		<polygon fill = 'rgb( 31, 120, 180)' fill-opacity = '0.250000' points = '471.0,86.1 471.0,662.4 472.9,662.4 472.9,84.9 '/>
		<polygon fill = 'rgb( 31, 120, 180)' fill-opacity = '0.250000' points = '472.9,84.9 472.9,662.4 474.8,662.4 474.8,83.6 '/>
		<polygon fill = 'rgb( 31, 120, 180)' fill-opacity = '0.250000' points = '474.8,83.6 474.8,662.4 476.7,662.4 476.7,82.5 '/>
		<polygon fill = 'rgb( 31, 120, 180)' fill-opacity = '0.250000' points = '476.7,82.5 476.7,662.4 478.6,662.4 478.6,81.4 '/>
		<polygon fill = 'rgb( 31, 120, 180)' fill-opacity = '0.250000' points = '478.6,81.4 478.6,662.4 480.5,662.4 480.5,80.4 '/>
		<polygon fill = 'rgb( 31, 120, 180)' fill-opacity = '0.250000' points = '480.5,80.4 480.5,662.4 482.4,662.4 482.4,79.5 '/>
		<polygon fill = 'rgb( 31, 120, 180)' fill-opacity = '0.250000' points = '482.4,79.5 482.4,662.4 484.3,662.4 484.3,78.7 '/>
		<polygon fill = 'rgb( 31, 120, 180)' fill-opacity = '0.250000' points = '484.3,78.7 484.3,662.4 486.2,662.4 486.2,77.9 '/>
		<polygon fill = 'rgb( 31, 120, 180)' fill-opacity = '0.250000' points = '486.2,77.9 486.2,662.4 488.1,662.4 488.1,77.3 '/>
		<polygon fill = 'rgb( 31, 120, 180)' fill-opacity = '0.250000' points = '488.1,77.3 488.1,662.4 490.1,662.4 490.1,76.7 '/>
		<polygon fill = 'rgb( 31, 120, 180)' fill-opacity = '0.250000' points = '490.1,76.7 490.1,662.4 492.0,662.4 492.0,76.2 '/>
		<polygon fill = 'rgb( 31, 120, 180)' fill-opacity = '0.250000' points = '492.0,76.2 492.0,662.4 493.9,662.4 493.9,75.9 '/>
		<polygon fill = 'rgb( 31, 120, 180)' fill-opacity = '0.250000' points = '493.9,75.9 493.9,662.4 495.8,662.4 495.8,75.6 '/>
		<polygon fill = 'rgb( 31, 120, 180)' fill-opacity = '0.250000' points = '495.8,75.6 495.8,662.4 497.7,662.4 497.7,75.4 '/>
		<polygon fill = 'rgb( 31, 120, 180)' fill-opacity = '0.250000' points = '497.7,75.4 497.7,662.4 499.6,662.4 499.6,75.3 '/>
		<polygon fill = 'rgb( 31, 120, 180)' fill-opacity = '0.250000' points = '499.6,75.3 499.6,662.4 501.5,662.4 501.5,75.3 '/>
		<polygon fill = 'rgb( 31, 120, 180)' fill-opacity = '0.250000' points = '501.5,75.3 501.5,662.4 503.4,662.4 503.4,75.4 '/>
		<polygon fill = 'rgb( 31, 120, 180)' fill-opacity = '0.250000' points = '503.4,75.4 503.4,662.4 505.3,662.4 505.3,75.5 '/>
		<polygon fill = 'rgb( 31, 120, 180)' fill-opacity = '0.250000' points = '505.3,75.5 505.3,662.4 507.2,662.4 507.2,75.8 '/>
		<polygon fill = 'rgb( 31, 120, 180)' fill-opacity = '0.250000' points = '507.2,75.8 507.2,662.4 509.1,662.4 509.1,76.1 '/>
		<polygon fill = 'rgb( 31, 120, 180)' fill-opacity = '0.250000' points = '509.1,76.1 509.1,662.4 511.0,662.4 511.0,76.5 '/>
		<polygon fill = 'rgb( 31, 120, 180)' fill-opacity = '0.250000' points = '511.0,76.5 511.0,662.4 512.9,662.4 512.9,77.0 '/>
		<polygon fill = 'rgb( 31, 120, 180)' fill-opacity = '0.250000' points = '512.9,77.0 512.9,662.4 514.8,662.4 514.8,77.6 '/>
		<polygon fill = 'rgb( 31, 120, 180)' fill-opacity = '0.250000' points = '514.8,77.6 514.8,662.4 516.7,662.4 516.7,78.2 '/>
		<polygon fill = 'rgb( 31, 120, 180)' fill-opacity = '0.250000' points = '516.7,78.2 516.7,662.4 518.6,662.4 518.6,78.9 '/>
		<polygon fill = 'rgb( 31, 120, 180)' fill-opacity = '0.250000' points = '518.6,78.9 518.6,662.4 520.5,662.4 520.5,79.7 '/>
		<polygon fill = 'rgb( 31, 120, 180)' fill-opacity = '0.250000' points = '520.5,79.7 520.5,662.4 522.4,662.4 522.4,80.5 '/>
		<polygon fill = 'rgb( 31, 120, 180)' fill-opacity = '0.250000' points = '522.4,80.5 522.4,662.4 524.3,662.4 524.3,81.4 '/>
		<polygon fill = 'rgb( 31, 120, 180)' fill-opacity = '0.250000' points = '524.3,81.4 524.3,662.4 526.2,662.4 526.2,82.4 '/>
		<polygon fill = 'rgb( 31, 120, 180)' fill-opacity = '0.250000' points = '526.2,82.4 526.2,662.4 528.1,662.4 528.1,83.4 '/>
		<polygon fill = 'rgb( 31, 120, 180)' fill-opacity = '0.250000' points = '528.1,83.4 528.1,662.4 530.0,662.4 530.0,84.5 '/>
		<polygon fill = 'rgb( 31, 120, 180)' fill-opacity = '0.250000' points = '530.0,84.5 530.0,662.4 531.9,662.4 531.9,85.7 '/>
		<polygon fill = 'rgb( 31, 120, 180)' fill-opacity = '0.250000' points = '531.9,85.7 531.9,662.4 533.8,662.4 533.8,86.9 '/>
		<polygon fill = 'rgb( 31, 120, 180)' fill-opacity = '0.250000' points = '533.8,86.9 533.8,662.4 535.7,662.4 535.7,88.1 '/>
		<polygon fill = 'rgb( 31, 120, 180)' fill-opacity = '0.250000' points = '535.7,88.1 535.7,662.4 537.6,662.4 537.6,89.4 '/>
		<polygon fill = 'rgb( 31, 120, 180)' fill-opacity = '0.250000' points = '537.6,89.4 537.6,662.4 539.6,662.4 539.6,90.7 '/>
		<polygon fill = 'rgb( 31, 120, 180)' fill-opacity = '0.250000' points = '539.6,90.7 539.6,662.4 541.5,662.4 541.5,92.1 '/>
		<polygon fill = 'rgb( 31, 120, 180)' fill-opacity = '0.250000' points = '541.5,92.1 541.5,662.4 543.4,662.4 543.4,93.5 '/>
		<polygon fill = 'rgb( 31, 120, 180)' fill-opacity = '0.250000' points = '543.4,93.5 543.4,662.4 545.3,662.4 545.3,95.0 '/>
		<polygon fill = 'rgb( 31, 120, 180)' fill-opacity = '0.250000' points = '545.3,95.0 545.3,662.4 547.2,662.4 547.2,96.5 '/>
		<polygon fill = 'rgb( 31, 120, 180)' fill-opacity = '0.250000' points = '547.2,96.5 547.2,662.4 549.1,662.4 549.1,98.0 '/>
		<polygon fill = 'rgb( 31, 120, 180)' fill-opacity = '0.250000' points = '549.1,98.0 549.1,662.4 551.0,662.4 551.0,99.5 '/>
		<polygon fill = 'rgb( 31, 120, 180)' fill-opacity = '0.250000' points = '551.0,99.5 551.0,662.4 552.9,662.4 552.9,101.1 '/>
		<polygon fill = 'rgb( 31, 120, 180)' fill-opacity = '0.250000' points = '552.9,101.1 552.9,662.4 554.8,662.4 554.8,102.7 '/>
		<polygon fill = 'rgb( 31, 120, 180)' fill-opacity = '0.250000' points = '554.8,102.7 554.8,662.4 556.7,662.4 556.7,104.2 '/>
		<polygon fill = 'rgb( 31, 120, 180)' fill-opacity = '0.250000' points = '556.7,104.2 556.7,662.4 558.6,662.4 558.6,105.8 '/>
		<polygon fill = 'rgb( 31, 120, 180)' fill-opacity = '0.250000' points = '558.6,105.8 558.6,662.4 560.5,662.4 560.5,107.4 '/>
		<polygon fill = 'rgb( 31, 120, 180)' fill-opacity = '0.250000' points = '560.5,107.4 560.5,662.4 562.4,662.4 562.4,109.0 '/>
		<polygon fill = 'rgb( 31, 120, 180)' fill-opacity = '0.250000' points = '562.4,109.0 562.4,662.4 564.3,662.4 564.3,110.7 '/>
		<polygon fill = 'rgb( 31, 120, 180)' fill-opacity = '0.250000' points = '564.3,110.7 564.3,662.4 566.2,662.4 566.2,112.3 '/>
		<polygon fill = 'rgb( 31, 120, 180)' fill-opacity = '0.250000' points = '566.2,112.3 566.2,662.4 568.1,662.4 568.1,113.9 '/>
		<polygon fill = 'rgb( 31, 120, 180)' fill-opacity = '0.250000' points = '568.1,113.9 568.1,662.4 570.0,662.4 570.0,115.5 '/>
		<polygon fill = 'rgb( 31, 120, 180)' fill-opacity = '0.250000' points = '570.0,115.5 570.0,662.4 571.9,662.4 571.9,117.1 '/>
		<polygon fill = 'rgb( 31, 120, 180)' fill-opacity = '0.250000' points = '571.9,117.1 571.9,662.4 573.8,662.4 573.8,118.7 '/>
		<polygon fill = 'rgb( 31, 120, 180)' fill-opacity = '0.250000' points = '573.8,118.7 573.8,662.4 575.7,662.4 575.7,120.2 '/>
		<polygon fill = 'rgb( 31, 120, 180)' fill-opacity = '0.250000' points = '575.7,120.2 575.7,662.4 577.6,662.4 577.6,121.8 '/>
		<polygon fill = 'rgb( 31, 120, 180)' fill-opacity = '0.250000' points = '577.6,121.8 577.6,662.4 579.5,662.4 579.5,123.4 '/>
		<polygon fill = 'rgb( 31, 120, 180)' fill-opacity = '0.250000' points = '579.5,123.4 579.5,662.4 581.4,662.4 581.4,125.0 '/>
		<polygon fill = 'rgb( 31, 120, 180)' fill-opacity = '0.250000' points = '581.4,125.0 581.4,662.4 583.3,662.4 583.3,126.6 '/>
		<polygon fill = 'rgb( 31, 120, 180)' fill-opacity = '0.250000' points = '583.3,126.6 583.3,662.4 585.2,662.4 585.2,128.2 '/>
		<polygon fill = 'rgb( 31, 120, 180)' fill-opacity = '0.250000' points = '585.2,128.2 585.2,662.4 587.1,662.4 587.1,129.8 '/>
		<polygon fill = 'rgb( 31, 120, 180)' fill-opacity = '0.250000' points = '587.1,129.8 587.1,662.4 589.1,662.4 589.1,131.4 '/>
		<polygon fill = 'rgb( 31, 120, 180)' fill-opacity = '0.250000' points = '589.1,131.4 589.1,662.4 591.0,662.4 591.0,133.1 '/>
		<polygon fill = 'rgb( 31, 120, 180)' fill-opacity = '0.250000' points = '591.0,133.1 591.0,662.4 592.9,662.4 592.9,134.8 '/>
		<polygon fill = 'rgb( 31, 120, 180)' fill-opacity = '0.250000' points = '592.9,134.8 592.9,662.4 594.8,662.4 594.8,136.6 '/>
		<polygon fill = 'rgb( 31, 120, 180)' fill-opacity = '0.250000' points = '594.8,136.6 594.8,662.4 596.7,662.4 596.7,138.4 '/>
		<polygon fill = 'rgb( 31, 120, 180)' fill-opacity = '0.250000' points = '596.7,138.4 596.7,662.4 598.6,662.4 598.6,140.2 '/>
		<polygon fill = 'rgb( 31, 120, 180)' fill-opacity = '0.250000' points = '598.6,140.2 598.6,662.4 600.5,662.4 600.5,142.1 '/>
		<polygon fill = 'rgb( 31, 120, 180)' fill-opacity = '0.250000' points = '600.5,142.1 600.5,662.4 602.4,662.4 602.4,144.1 '/>
		<polygon fill = 'rgb( 31, 120, 180)' fill-opacity = '0.250000' points = '602.4,144.1 602.4,662.4 604.3,662.4 604.3,146.1 '/>
		<polygon fill = 'rgb( 31, 120, 180)' fill-opacity = '0.250000' points = '604.3,146.1 604.3,662.4 606.2,662.4 606.2,148.2 '/>
		<polygon fill = 'rgb( 31, 120, 180)' fill-opacity = '0.250000' points = '606.2,148.2 606.2,662.4 608.1,662.4 608.1,150.4 '/>
		<polygon fill = 'rgb( 31, 120, 180)' fill-opacity = '0.250000' points = '608.1,150.4 608.1,662.4 610.0,662.4 610.0,152.6 '/>
		<polygon fill = 'rgb( 31, 120, 180)' fill-opacity = '0.250000' points = '610.0,152.6 610.0,662.4 611.9,662.4 611.9,154.9 '/>
		<polygon fill = 'rgb( 31, 120, 180)' fill-opacity = '0.250000' points = '611.9,154.9 611.9,662.4 613.8,662.4 613.8,157.2 '/>
		<polygon fill = 'rgb( 31, 120, 180)' fill-opacity = '0.250000' points = '613.8,157.2 613.8,662.4 615.7,662.4 615.7,159.6 '/>
		<polygon fill = 'rgb( 31, 120, 180)' fill-opacity = '0.250000' points = '615.7,159.6 615.7,662.4 617.6,662.4 617.6,162.0 '/>
		<polygon fill = 'rgb( 31, 120, 180)' fill-opacity = '0.250000' points = '617.6,162.0 617.6,662.4 619.5,662.4 619.5,164.5 '/>
		<polygon fill = 'rgb( 31, 120, 180)' fill-opacity = '0.250000' points = '619.5,164.5 619.5,662.4 621.4,662.4 621.4,167.0 '/>
		<polygon fill = 'rgb( 31, 120, 180)' fill-opacity = '0.250000' points = '621.4,167.0 621.4,662.4 623.3,662.4 623.3,169.6 '/>
		<polygon fill = 'rgb( 31, 120, 180)' fill-opacity = '0.250000' points = '623.3,169.6 623.3,662.4 625.2,662.4 625.2,172.1 '/>
		<polygon fill = 'rgb( 31, 120, 180)' fill-opacity = '0.250000' points = '625.2,172.1 625.2,662.4 627.1,662.4 627.1,174.7 '/>
		<polygon fill = 'rgb( 31, 120, 180)' fill-opacity = '0.250000' points = '627.1,174.7 627.1,662.4 629.0,662.4 629.0,177.3 '/>
		<polygon fill = 'rgb( 31, 120, 180)' fill-opacity = '0.250000' points = '629.0,177.3 629.0,662.4 630.9,662.4 630.9,179.9 '/>
		<polygon fill = 'rgb( 31, 120, 180)' fill-opacity = '0.250000' points = '630.9,179.9 630.9,662.4 632.8,662.4 632.8,182.5 '/>
		<polygon fill = 'rgb( 31, 120, 180)' fill-opacity = '0.250000' points = '632.8,182.5 632.8,662.4 634.7,662.4 634.7,185.2 '/>
		<polygon fill = 'rgb( 31, 120, 180)' fill-opacity = '0.250000' points = '634.7,185.2 634.7,662.4 636.6,662.4 636.6,187.8 '/>
		<polygon fill = 'rgb( 31, 120, 180)' fill-opacity = '0.250000' points = '636.6,187.8 636.6,662.4 638.5,662.4 638.5,190.4 '/>
		<polygon fill = 'rgb( 31, 120, 180)' fill-opacity = '0.250000' points = '638.5,190.4 638.5,662.4 640.5,662.4 640.5,193.1 '/>
		<polygon fill = 'rgb( 31, 120, 180)' fill-opacity = '0.250000' points = '640.5,193.1 640.5,662.4 642.4,662.4 642.4,195.7 '/>
		<polygon fill = 'rgb( 31, 120, 180)' fill-opacity = '0.250000' points = '642.4,195.7 642.4,662.4 644.3,662.4 644.3,198.4 '/>
		<polygon fill = 'rgb( 31, 120, 180)' fill-opacity = '0.250000' points = '644.3,198.4 644.3,662.4 646.2,662.4 646.2,201.0 '/>
		<polygon fill = 'rgb( 31, 120, 180)' fill-opacity = '0.250000' points = '646.2,201.0 646.2,662.4 648.1,662.4 648.1,203.7 '/>
		<polygon fill = 'rgb( 31, 120, 180)' fill-opacity = '0.250000' points = '648.1,203.7 648.1,662.4 650.0,662.4 650.0,206.3 '/>
		<polygon fill = 'rgb( 31, 120, 180)' fill-opacity = '0.250000' points = '650.0,206.3 650.0,662.4 651.9,662.4 651.9,209.0 '/>
		<polygon fill = 'rgb( 31, 120, 180)' fill-opacity = '0.250000' points = '651.9,209.0 651.9,662.4 653.8,662.4 653.8,211.7 '/>
		<polygon fill = 'rgb( 31, 120, 180)' fill-opacity = '0.250000' points = '653.8,211.7 653.8,662.4 655.7,662.4 655.7,214.4 '/>
		<polygon fill = 'rgb( 31, 120, 180)' fill-opacity = '0.250000' points = '655.7,214.4 655.7,662.4 657.6,662.4 657.6,217.1 '/>
		<polygon fill = 'rgb( 31, 120, 180)' fill-opacity = '0.250000' points = '657.6,217.1 657.6,662.4 659.5,662.4 659.5,219.8 '/>
		<polygon fill = 'rgb( 31, 120, 180)' fill-opacity = '0.250000' points = '659.5,219.8 659.5,662.4 661.4,662.4 661.4,222.5 '/>
		<polygon fill = 'rgb( 31, 120, 180)' fill-opacity = '0.250000' points = '661.4,222.5 661.4,662.4 663.3,662.4 663.3,225.3 '/>
		<polygon fill = 'rgb( 31, 120, 180)' fill-opacity = '0.250000' points = '663.3,225.3 663.3,662.4 665.2,662.4 665.2,228.1 '/>
		<polygon fill = 'rgb( 31, 120, 180)' fill-opacity = '0.250000' points = '665.2,228.1 665.2,662.4 667.1,662.4 667.1,230.8 '/>
		<polygon fill = 'rgb( 31, 120, 180)' fill-opacity = '0.250000' points = '667.1,230.8 667.1,662.4 669.0,662.4 669.0,233.6 '/>
		<polygon fill = 'rgb( 31, 120, 180)' fill-opacity = '0.250000' points = '669.0,233.6 669.0,662.4 670.9,662.4 670.9,236.4 '/>
		<polygon fill = 'rgb( 31, 120, 180)' fill-opacity = '0.250000' points = '670.9,236.4 670.9,662.4 672.8,662.4 672.8,239.2 '/>
		<polygon fill = 'rgb( 31, 120, 180)' fill-opacity = '0.250000' points = '672.8,239.2 672.8,662.4 674.7,662.4 674.7,242.0 '/>
		<polygon fill = 'rgb( 31, 120, 180)' fill-opacity = '0.250000' points = '674.7,242.0 674.7,662.4 676.6,662.4 676.6,244.9 '/>
		<polygon fill = 'rgb( 31, 120, 180)' fill-opacity = '0.250000' points = '676.6,244.9 676.6,662.4 678.5,662.4 678.5,247.7 '/>
		<polygon fill = 'rgb( 31, 120, 180)' fill-opacity = '0.250000' points = '678.5,247.7 678.5,662.4 680.4,662.4 680.4,250.5 '/>
		<polygon fill = 'rgb( 31, 120, 180)' fill-opacity = '0.250000' points = '680.4,250.5 680.4,662.4 682.3,662.4 682.3,253.4 '/>
		<polygon fill = 'rgb( 31, 120, 180)' fill-opacity = '0.250000' points = '682.3,253.4 682.3,662.4 684.2,662.4 684.2,256.2 '/>
		<polygon fill = 'rgb( 31, 120, 180)' fill-opacity = '0.250000' points = '684.2,256.2 684.2,662.4 686.1,662.4 686.1,259.1 '/>
		<polygon fill = 'rgb( 31, 120, 180)' fill-opacity = '0.250000' points = '686.1,259.1 686.1,662.4 688.0,662.4 688.0,261.9 '/>
		<polygon fill = 'rgb( 31, 120, 180)' fill-opacity = '0.250000' points = '688.0,261.9 688.0,662.4 690.0,662.4 690.0,264.8 '/>
		<polygon fill = 'rgb( 31, 120, 180)' fill-opacity = '0.250000' points = '690.0,264.8 690.0,662.4 691.9,662.4 691.9,267.7 '/>
		<polygon fill = 'rgb( 31, 120, 180)' fill-opacity = '0.250000' points = '691.9,267.7 691.9,662.4 693.8,662.4 693.8,270.5 '/>
		<polygon fill = 'rgb( 31, 120, 180)' fill-opacity = '0.250000' points = '693.8,270.5 693.8,662.4 695.7,662.4 695.7,273.4 '/>
		<polygon fill = 'rgb( 31, 120, 180)' fill-opacity = '0.250000' points = '695.7,273.4 695.7,662.4 697.6,662.4 697.6,276.3 '/>
		<polygon fill = 'rgb( 31, 120, 180)' fill-opacity = '0.250000' points = '697.6,276.3 697.6,662.4 699.5,662.4 699.5,279.2 '/>
		<polygon fill = 'rgb( 31, 120, 180)' fill-opacity = '0.250000' points = '699.5,279.2 699.5,662.4 701.4,662.4 701.4,282.1 '/>
		<polygon fill = 'rgb( 31, 120, 180)' fill-opacity = '0.250000' points = '701.4,282.1 701.4,662.4 703.3,662.4 703.3,285.0 '/>
		<polygon fill = 'rgb( 31, 120, 180)' fill-opacity = '0.250000' points = '703.3,285.0 703.3,662.4 705.2,662.4 705.2,287.9 '/>
		<polygon fill = 'rgb( 31, 120, 180)' fill-opacity = '0.250000' points = '705.2,287.9 705.2,662.4 707.1,662.4 707.1,290.8 '/>
		<polygon fill = 'rgb( 31, 120, 180)' fill-opacity = '0.250000' points = '707.1,290.8 707.1,662.4 709.0,662.4 709.0,293.8 '/>
		<polygon fill = 'rgb( 31, 120, 180)' fill-opacity = '0.250000' points = '709.0,293.8 709.0,662.4 710.9,662.4 710.9,296.7 '/>
		<polygon fill = 'rgb( 31, 120, 180)' fill-opacity = '0.250000' points = '710.9,296.7 710.9,662.4 712.8,662.4 712.8,299.7 '/>
		<polygon fill = 'rgb( 31, 120, 180)' fill-opacity = '0.250000' points = '712.8,299.7 712.8,662.4 714.7,662.4 714.7,302.7 '/>
		<polygon fill = 'rgb( 31, 120, 180)' fill-opacity = '0.250000' points = '714.7,302.7 714.7,662.4 716.6,662.4 716.6,305.8 '/>
		<polygon fill = 'rgb( 31, 120, 180)' fill-opacity = '0.250000' points = '716.6,305.8 716.6,662.4 718.5,662.4 718.5,308.9 '/>
		<polygon fill = 'rgb( 31, 120, 180)' fill-opacity = '0.250000' points = '718.5,308.9 718.5,662.4 720.4,662.4 720.4,312.0 '/>
		<polygon fill = 'rgb( 31, 120, 180)' fill-opacity = '0.250000' points = '720.4,312.0 720.4,662.4 722.3,662.4 722.3,315.2 '/>
		<polygon fill = 'rgb( 31, 120, 180)' fill-opacity = '0.250000' points = '722.3,315.2 722.3,662.4 724.2,662.4 724.2,318.4 '/>
		<polygon fill = 'rgb( 31, 120, 180)' fill-opacity = '0.250000' points = '724.2,318.4 724.2,662.4 726.1,662.4 726.1,321.6 '/>
		<polygon fill = 'rgb( 31, 120, 180)' fill-opacity = '0.250000' points = '726.1,321.6 726.1,662.4 728.0,662.4 728.0,324.9 '/>
		<polygon fill = 'rgb( 31, 120, 180)' fill-opacity = '0.250000' points = '728.0,324.9 728.0,662.4 729.9,662.4 729.9,328.3 '/>
		<polygon fill = 'rgb( 31, 120, 180)' fill-opacity = '0.250000' points = '729.9,328.3 729.9,662.4 731.8,662.4 731.8,331.6 '/>
		<polygon fill = 'rgb( 31, 120, 180)' fill-opacity = '0.250000' points = '731.8,331.6 731.8,662.4 733.7,662.4 733.7,335.0 '/>
		<polygon fill = 'rgb( 31, 120, 180)' fill-opacity = '0.250000' points = '733.7,335.0 733.7,662.4 735.6,662.4 735.6,338.5 '/>
		<polygon fill = 'rgb( 31, 120, 180)' fill-opacity = '0.250000' points = '735.6,338.5 735.6,662.4 737.5,662.4 737.5,341.9 '/>
		<polygon fill = 'rgb( 31, 120, 180)' fill-opacity = '0.250000' points = '737.5,341.9 737.5,662.4 739.5,662.4 739.5,345.4 '/>
		<polygon fill = 'rgb( 31, 120, 180)' fill-opacity = '0.250000' points = '739.5,345.4 739.5,662.4 741.4,662.4 741.4,348.9 '/>
		<polygon fill = 'rgb( 31, 120, 180)' fill-opacity = '0.250000' points = '741.4,348.9 741.4,662.4 743.3,662.4 743.3,352.4 '/>
		<polygon fill = 'rgb( 31, 120, 180)' fill-opacity = '0.250000' points = '743.3,352.4 743.3,662.4 745.2,662.4 745.2,356.0 '/>
		<polygon fill = 'rgb( 31, 120, 180)' fill-opacity = '0.250000' points = '745.2,356.0 745.2,662.4 747.1,662.4 747.1,359.5 '/>
		<polygon fill = 'rgb( 31, 120, 180)' fill-opacity = '0.250000' points = '747.1,359.5 747.1,662.4 749.0,662.4 749.0,363.0 '/>
		<polygon fill = 'rgb( 31, 120, 180)' fill-opacity = '0.250000' points = '749.0,363.0 749.0,662.4 750.9,662.4 750.9,366.5 '/>
		<polygon fill = 'rgb( 31, 120, 180)' fill-opacity = '0.250000' points = '750.9,366.5 750.9,662.4 752.8,662.4 752.8,370.0 '/>
		<polygon fill = 'rgb( 31, 120, 180)' fill-opacity = '0.250000' points = '752.8,370.0 752.8,662.4 754.7,662.4 754.7,373.4 '/>
		<polygon fill = 'rgb( 31, 120, 180)' fill-opacity = '0.250000' points = '754.7,373.4 754.7,662.4 756.6,662.4 756.6,376.8 '/>
		<polygon fill = 'rgb( 31, 120, 180)' fill-opacity = '0.250000' points = '756.6,376.8 756.6,662.4 758.5,662.4 758.5,380.2 '/>
		<polygon fill = 'rgb( 31, 120, 180)' fill-opacity = '0.250000' points = '758.5,380.2 758.5,662.4 760.4,662.4 760.4,383.5 '/>
		<polygon fill = 'rgb( 31, 120, 180)' fill-opacity = '0.250000' points = '760.4,383.5 760.4,662.4 762.3,662.4 762.3,386.8 '/>
		<polygon fill = 'rgb( 31, 120, 180)' fill-opacity = '0.250000' points = '762.3,386.8 762.3,662.4 764.2,662.4 764.2,390.1 '/>
		<polygon fill = 'rgb( 31, 120, 180)' fill-opacity = '0.250000' points = '764.2,390.1 764.2,662.4 766.1,662.4 766.1,393.2 '/>
		<polygon fill = 'rgb( 31, 120, 180)' fill-opacity = '0.250000' points = '766.1,393.2 766.1,662.4 768.0,662.4 768.0,396.3 '/>
		<polygon fill = 'rgb( 31, 120, 180)' fill-opacity = '0.250000' points = '768.0,396.3 768.0,662.4 769.9,662.4 769.9,399.4 '/>
		<polygon fill = 'rgb( 31, 120, 180)' fill-opacity = '0.250000' points = '769.9,399.4 769.9,662.4 771.8,662.4 771.8,402.4 '/>
		<polygon fill = 'rgb( 31, 120, 180)' fill-opacity = '0.250000' points = '771.8,402.4 771.8,662.4 773.7,662.4 773.7,405.3 '/>
		<polygon fill = 'rgb( 31, 120, 180)' fill-opacity = '0.250000' points = '773.7,405.3 773.7,662.4 775.6,662.4 775.6,408.2 '/>
		<polygon fill = 'rgb( 31, 120, 180)' fill-opacity = '0.250000' points = '775.6,408.2 775.6,662.4 777.5,662.4 777.5,411.1 '/>
		<polygon fill = 'rgb( 31, 120, 180)' fill-opacity = '0.250000' points = '777.5,411.1 777.5,662.4 779.4,662.4 779.4,413.8 '/>
		<polygon fill = 'rgb( 31, 120, 180)' fill-opacity = '0.250000' points = '779.4,413.8 779.4,662.4 781.3,662.4 781.3,416.6 '/>
		<polygon fill = 'rgb( 31, 120, 180)' fill-opacity = '0.250000' points = '781.3,416.6 781.3,662.4 783.2,662.4 783.2,419.2 '/>
		<polygon fill = 'rgb( 31, 120, 180)' fill-opacity = '0.250000' points = '783.2,419.2 783.2,662.4 785.1,662.4 785.1,421.9 '/>
		<polygon fill = 'rgb( 31, 120, 180)' fill-opacity = '0.250000' points = '785.1,421.9 785.1,662.4 787.0,662.4 787.0,424.5 '/>
		<polygon fill = 'rgb( 31, 120, 180)' fill-opacity = '0.250000' points = '787.0,424.5 787.0,662.4 789.0,662.4 789.0,427.0 '/>
		<polygon fill = 'rgb( 31, 120, 180)' fill-opacity = '0.250000' points = '789.0,427.0 789.0,662.4 790.9,662.4 790.9,429.6 '/>
		<polygon fill = 'rgb( 31, 120, 180)' fill-opacity = '0.250000' points = '790.9,429.6 790.9,662.4 792.8,662.4 792.8,432.1 '/>
		<polygon fill = 'rgb( 31, 120, 180)' fill-opacity = '0.250000' points = '792.8,432.1 792.8,662.4 794.7,662.4 794.7,434.6 '/>
		<polygon fill = 'rgb( 31, 120, 180)' fill-opacity = '0.250000' points = '794.7,434.6 794.7,662.4 796.6,662.4 796.6,437.1 '/>
		<polygon fill = 'rgb( 31, 120, 180)' fill-opacity = '0.250000' points = '796.6,437.1 796.6,662.4 798.5,662.4 798.5,439.6 '/>
		<polygon fill = 'rgb( 31, 120, 180)' fill-opacity = '0.250000' points = '798.5,439.6 798.5,662.4 800.4,662.4 800.4,442.1 '/>
		<polygon fill = 'rgb( 31, 120, 180)' fill-opacity = '0.250000' points = '800.4,442.1 800.4,662.4 802.3,662.4 802.3,444.6 '/>
		<polygon fill = 'rgb( 31, 120, 180)' fill-opacity = '0.250000' points = '802.3,444.6 802.3,662.4 804.2,662.4 804.2,447.1 '/>
		<polygon fill = 'rgb( 31, 120, 180)' fill-opacity = '0.250000' points = '804.2,447.1 804.2,662.4 806.1,662.4 806.1,449.7 '/>
		<polygon fill = 'rgb( 31, 120, 180)' fill-opacity = '0.250000' points = '806.1,449.7 806.1,662.4 808.0,662.4 808.0,452.2 '/>
		<polygon fill = 'rgb( 31, 120, 180)' fill-opacity = '0.250000' points = '808.0,452.2 808.0,662.4 809.9,662.4 809.9,454.8 '/>
		<polygon fill = 'rgb( 31, 120, 180)' fill-opacity = '0.250000' points = '809.9,454.8 809.9,662.4 811.8,662.4 811.8,457.3 '/>
		<polygon fill = 'rgb( 31, 120, 180)' fill-opacity = '0.250000' points = '811.8,457.3 811.8,662.4 813.7,662.4 813.7,459.9 '/>
		<polygon fill = 'rgb( 31, 120, 180)' fill-opacity = '0.250000' points = '813.7,459.9 813.7,662.4 815.6,662.4 815.6,462.5 '/>
		<polygon fill = 'rgb( 31, 120, 180)' fill-opacity = '0.250000' points = '815.6,462.5 815.6,662.4 817.5,662.4 817.5,465.1 '/>
		<polygon fill = 'rgb( 31, 120, 180)' fill-opacity = '0.250000' points = '817.5,465.1 817.5,662.4 819.4,662.4 819.4,467.7 '/>
		<polygon fill = 'rgb( 31, 120, 180)' fill-opacity = '0.250000' points = '819.4,467.7 819.4,662.4 821.3,662.4 821.3,470.4 '/>
		<polygon fill = 'rgb( 31, 120, 180)' fill-opacity = '0.250000' points = '821.3,470.4 821.3,662.4 823.2,662.4 823.2,473.0 '/>
		<polygon fill = 'rgb( 31, 120, 180)' fill-opacity = '0.250000' points = '823.2,473.0 823.2,662.4 825.1,662.4 825.1,475.7 '/>
		<polygon fill = 'rgb( 31, 120, 180)' fill-opacity = '0.250000' points = '825.1,475.7 825.1,662.4 827.0,662.4 827.0,478.3 '/>
		<polygon fill = 'rgb( 31, 120, 180)' fill-opacity = '0.250000' points = '827.0,478.3 827.0,662.4 828.9,662.4 828.9,480.9 '/>
		<polygon fill = 'rgb( 31, 120, 180)' fill-opacity = '0.250000' points = '828.9,480.9 828.9,662.4 830.8,662.4 830.8,483.6 '/>
		<polygon fill = 'rgb( 31, 120, 180)' fill-opacity = '0.250000' points = '830.8,483.6 830.8,662.4 832.7,662.4 832.7,486.2 '/>
		<polygon fill = 'rgb( 31, 120, 180)' fill-opacity = '0.250000' points = '832.7,486.2 832.7,662.4 834.6,662.4 834.6,488.8 '/>
		<polygon fill = 'rgb( 31, 120, 180)' fill-opacity = '0.250000' points = '834.6,488.8 834.6,662.4 836.5,662.4 836.5,491.4 '/>
		<polygon fill = 'rgb( 31, 120, 180)' fill-opacity = '0.250000' points = '836.5,491.4 836.5,662.4 838.4,662.4 838.4,494.0 '/>
		<polygon fill = 'rgb( 31, 120, 180)' fill-opacity = '0.250000' points = '838.4,494.0 838.4,662.4 840.4,662.4 840.4,496.6 '/>
		<polygon fill = 'rgb( 31, 120, 180)' fill-opacity = '0.250000' points = '840.4,496.6 840.4,662.4 842.3,662.4 842.3,499.2 '/>
		<polygon fill = 'rgb( 31, 120, 180)' fill-opacity = '0.250000' points = '842.3,499.2 842.3,662.4 844.2,662.4 844.2,501.7 '/>
		<polygon fill = 'rgb( 31, 120, 180)' fill-opacity = '0.250000' points = '844.2,501.7 844.2,662.4 846.1,662.4 846.1,504.2 '/>
		<polygon fill = 'rgb( 31, 120, 180)' fill-opacity = '0.250000' points = '846.1,504.2 846.1,662.4 848.0,662.4 848.0,506.7 '/>
		<polygon fill = 'rgb( 31, 120, 180)' fill-opacity = '0.250000' points = '848.0,506.7 848.0,662.4 849.9,662.4 849.9,509.2 '/>
		<polygon fill = 'rgb( 31, 120, 180)' fill-opacity = '0.250000' points = '849.9,509.2 849.9,662.4 851.8,662.4 851.8,511.6 '/>
		<polygon fill = 'rgb( 31, 120, 180)' fill-opacity = '0.250000' points = '851.8,511.6 851.8,662.4 853.7,662.4 853.7,514.1 '/>
		<polygon fill = 'rgb( 31, 120, 180)' fill-opacity = '0.250000' points = '853.7,514.1 853.7,662.4 855.6,662.4 855.6,516.5 '/>
		<polygon fill = 'rgb( 31, 120, 180)' fill-opacity = '0.250000' points = '855.6,516.5 855.6,662.4 857.5,662.4 857.5,518.8 '/>
		<polygon fill = 'rgb( 31, 120, 180)' fill-opacity = '0.250000' points = '857.5,518.8 857.5,662.4 859.4,662.4 859.4,521.1 '/>
		<polygon fill = 'rgb( 31, 120, 180)' fill-opacity = '0.250000' points = '859.4,521.1 859.4,662.4 861.3,662.4 861.3,523.4 '/>
		<polygon fill = 'rgb( 31, 120, 180)' fill-opacity = '0.250000' points = '861.3,523.4 861.3,662.4 863.2,662.4 863.2,525.7 '/>
		<polygon fill = 'rgb( 31, 120, 180)' fill-opacity = '0.250000' points = '863.2,525.7 863.2,662.4 865.1,662.4 865.1,528.0 '/>
		<polygon fill = 'rgb( 31, 120, 180)' fill-opacity = '0.250000' points = '865.1,528.0 865.1,662.4 867.0,662.4 867.0,530.2 '/>
		<polygon fill = 'rgb( 31, 120, 180)' fill-opacity = '0.250000' points = '867.0,530.2 867.0,662.4 868.9,662.4 868.9,532.3 '/>
		<polygon fill = 'rgb( 31, 120, 180)' fill-opacity = '0.250000' points = '868.9,532.3 868.9,662.4 870.8,662.4 870.8,534.5 '/>
		<polygon fill = 'rgb( 31, 120, 180)' fill-opacity = '0.250000' points = '870.8,534.5 870.8,662.4 872.7,662.4 872.7,536.6 '/>
		<polygon fill = 'rgb( 31, 120, 180)' fill-opacity = '0.250000' points = '872.7,536.6 872.7,662.4 874.6,662.4 874.6,538.7 '/>
		<polygon fill = 'rgb( 31, 120, 180)' fill-opacity = '0.250000' points = '874.6,538.7 874.6,662.4 876.5,662.4 876.5,540.7 '/>
		<polygon fill = 'rgb( 31, 120, 180)' fill-opacity = '0.250000' points = '876.5,540.7 876.5,662.4 878.4,662.4 878.4,542.7 '/>
		<polygon fill = 'rgb( 31, 120, 180)' fill-opacity = '0.250000' points = '878.4,542.7 878.4,662.4 880.3,662.4 880.3,544.7 '/>
		<polygon fill = 'rgb( 31, 120, 180)' fill-opacity = '0.250000' points = '880.3,544.7 880.3,662.4 882.2,662.4 882.2,546.6 '/>
		<polygon fill = 'rgb( 31, 120, 180)' fill-opacity = '0.250000' points = '882.2,546.6 882.2,662.4 884.1,662.4 884.1,548.5 '/>
		<polygon fill = 'rgb( 31, 120, 180)' fill-opacity = '0.250000' points = '884.1,548.5 884.1,662.4 886.0,662.4 886.0,550.4 '/>
		<polygon fill = 'rgb( 31, 120, 180)' fill-opacity = '0.250000' points = '886.0,550.4 886.0,662.4 887.9,662.4 887.9,552.2 '/>
		<polygon fill = 'rgb( 31, 120, 180)' fill-opacity = '0.250000' points = '887.9,552.2 887.9,662.4 889.9,662.4 889.9,554.0 '/>
		<polygon fill = 'rgb( 31, 120, 180)' fill-opacity = '0.250000' points = '889.9,554.0 889.9,662.4 891.8,662.4 891.8,555.8 '/>
		<polygon fill = 'rgb( 31, 120, 180)' fill-opacity = '0.250000' points = '891.8,555.8 891.8,662.4 893.7,662.4 893.7,557.6 '/>
		<polygon fill = 'rgb( 31, 120, 180)' fill-opacity = '0.250000' points = '893.7,557.6 893.7,662.4 895.6,662.4 895.6,559.3 '/>
		<polygon fill = 'rgb( 31, 120, 180)' fill-opacity = '0.250000' points = '895.6,559.3 895.6,662.4 897.5,662.4 897.5,561.0 '/>
		<polygon fill = 'rgb( 31, 120, 180)' fill-opacity = '0.250000' points = '897.5,561.0 897.5,662.4 899.4,662.4 899.4,562.6 '/>
		<polygon fill = 'rgb( 31, 120, 180)' fill-opacity = '0.250000' points = '899.4,562.6 899.4,662.4 901.3,662.4 901.3,564.3 '/>
		<polygon fill = 'rgb( 31, 120, 180)' fill-opacity = '0.250000' points = '901.3,564.3 901.3,662.4 903.2,662.4 903.2,565.9 '/>
		<polygon fill = 'rgb( 31, 120, 180)' fill-opacity = '0.250000' points = '903.2,565.9 903.2,662.4 905.1,662.4 905.1,567.5 '/>
		<polygon fill = 'rgb( 31, 120, 180)' fill-opacity = '0.250000' points = '905.1,567.5 905.1,662.4 907.0,662.4 907.0,569.0 '/>
		<polygon fill = 'rgb( 31, 120, 180)' fill-opacity = '0.250000' points = '907.0,569.0 907.0,662.4 908.9,662.4 908.9,570.6 '/>
		<polygon fill = 'rgb( 31, 120, 180)' fill-opacity = '0.250000' points = '908.9,570.6 908.9,662.4 910.8,662.4 910.8,572.1 '/>
		<polygon fill = 'rgb( 31, 120, 180)' fill-opacity = '0.250000' points = '910.8,572.1 910.8,662.4 912.7,662.4 912.7,573.6 '/>
		<polygon fill = 'rgb( 31, 120, 180)' fill-opacity = '0.250000' points = '912.7,573.6 912.7,662.4 914.6,662.4 914.6,575.0 '/>
		<polygon fill = 'rgb( 31, 120, 180)' fill-opacity = '0.250000' points = '914.6,575.0 914.6,662.4 916.5,662.4 916.5,576.5 '/>
		<polygon fill = 'rgb( 31, 120, 180)' fill-opacity = '0.250000' points = '916.5,576.5 916.5,662.4 918.4,662.4 918.4,577.9 '/>
		<polygon fill = 'rgb( 31, 120, 180)' fill-opacity = '0.250000' points = '918.4,577.9 918.4,662.4 920.3,662.4 920.3,579.3 '/>
		<polygon fill = 'rgb( 31, 120, 180)' fill-opacity = '0.250000' points = '920.3,579.3 920.3,662.4 922.2,662.4 922.2,580.7 '/>
		<polygon fill = 'rgb( 31, 120, 180)' fill-opacity = '0.250000' points = '922.2,580.7 922.2,662.4 924.1,662.4 924.1,582.0 '/>
	</g>
</g>
	</g>
	<g id="gnuplot_plot_3" ><title>Point estimate</title>
<g fill="none" color="white" stroke="rgb( 31, 120, 180)" stroke-width="2.00" stroke-linecap="butt" stroke-linejoin="miter">
</g>
<g fill="none" color="black" stroke="currentColor" stroke-width="2.00" stroke-linecap="butt" stroke-linejoin="miter">
	<g transform="translate(1089.0,103.0)" stroke="none" fill="black" font-family="Helvetica" font-size="12.00"  text-anchor="start">
		<text><tspan font-family="Helvetica" >Point estimate</tspan></text>
	</g>
</g>
<g fill="none" color="black" stroke="currentColor" stroke-width="2.00" stroke-linecap="butt" stroke-linejoin="miter">
	<path stroke='rgb( 31, 120, 180)'  d='M1038.5,99.1 L1080.7,99.1 M524.4,662.4 L524.4,81.5  '/></g>
	</g>
<g fill="none" color="black" stroke="currentColor" stroke-width="2.00" stroke-linecap="butt" stroke-linejoin="miter">
</g>
<g fill="none" color="black" stroke="black" stroke-width="1.00" stroke-linecap="butt" stroke-linejoin="miter">
</g>
<g fill="none" color="black" stroke="currentColor" stroke-width="1.00" stroke-linecap="butt" stroke-linejoin="miter">
	<path stroke='black'  d='M63.6,54.1 L63.6,662.4 L1013.6,662.4 L1013.6,54.1 L63.6,54.1 Z  '/></g>
<g fill="none" color="black" stroke="currentColor" stroke-width="1.00" stroke-linecap="butt" stroke-linejoin="miter">
</g>
</g>
</svg>

