<?xml version="1.0" encoding="utf-8"  standalone="no"?>
<svg 
 viewBox="0 0 1280 720"
 xmlns="http://www.w3.org/2000/svg"
 xmlns:xlink="http://www.w3.org/1999/xlink"
>

<title>Gnuplot</title>
<desc>Produced by GNUPLOT 5.0 patchlevel 6 </desc>

<g id="gnuplot_canvas">

<rect x="0" y="0" width="1280" height="720" fill="none"/>
<defs>

	<circle id='gpDot' r='0.5' stroke-width='0.5'/>
	<path id='gpPt0' stroke-width='0.222' stroke='currentColor' d='M-1,0 h2 M0,-1 v2'/>
	<path id='gpPt1' stroke-width='0.222' stroke='currentColor' d='M-1,-1 L1,1 M1,-1 L-1,1'/>
	<path id='gpPt2' stroke-width='0.222' stroke='currentColor' d='M-1,0 L1,0 M0,-1 L0,1 M-1,-1 L1,1 M-1,1 L1,-1'/>
	<rect id='gpPt3' stroke-width='0.222' stroke='currentColor' x='-1' y='-1' width='2' height='2'/>
	<rect id='gpPt4' stroke-width='0.222' stroke='currentColor' fill='currentColor' x='-1' y='-1' width='2' height='2'/>
	<circle id='gpPt5' stroke-width='0.222' stroke='currentColor' cx='0' cy='0' r='1'/>
	<use xlink:href='#gpPt5' id='gpPt6' fill='currentColor' stroke='none'/>
	<path id='gpPt7' stroke-width='0.222' stroke='currentColor' d='M0,-1.33 L-1.33,0.67 L1.33,0.67 z'/>
	<use xlink:href='#gpPt7' id='gpPt8' fill='currentColor' stroke='none'/>
	<use xlink:href='#gpPt7' id='gpPt9' stroke='currentColor' transform='rotate(180)'/>
	<use xlink:href='#gpPt9' id='gpPt10' fill='currentColor' stroke='none'/>
	<use xlink:href='#gpPt3' id='gpPt11' stroke='currentColor' transform='rotate(45)'/>
	<use xlink:href='#gpPt11' id='gpPt12' fill='currentColor' stroke='none'/>
	<path id='gpPt13' stroke-width='0.222' stroke='currentColor' d='M0,1.330 L1.265,0.411 L0.782,-1.067 L-0.782,-1.076 L-1.265,0.411 z'/>
	<use xlink:href='#gpPt13' id='gpPt14' fill='currentColor' stroke='none'/>
	<filter id='textbox' filterUnits='objectBoundingBox' x='0' y='0' height='1' width='1'>
	  <feFlood flood-color='white' flood-opacity='1' result='bgnd'/>
	  <feComposite in='SourceGraphic' in2='bgnd' operator='atop'/>
	</filter>
	<filter id='greybox' filterUnits='objectBoundingBox' x='0' y='0' height='1' width='1'>
	  <feFlood flood-color='lightgrey' flood-opacity='1' result='grey'/>
	  <feComposite in='SourceGraphic' in2='grey' operator='atop'/>
	</filter>
</defs>
<g fill="none" color="white" stroke="currentColor" stroke-width="1.00" stroke-linecap="butt" stroke-linejoin="miter">
</g>
<g fill="none" color="black" stroke="currentColor" stroke-width="1.00" stroke-linecap="butt" stroke-linejoin="miter">
	<path stroke='black'  d='M80.2,662.4 L89.2,662.4  '/>	<g transform="translate(71.9,666.3)" stroke="none" fill="black" font-family="Helvetica" font-size="12.00"  text-anchor="end">
		<text><tspan font-family="Helvetica" > 0</tspan></text>
	</g>
</g>
<g fill="none" color="black" stroke="currentColor" stroke-width="1.00" stroke-linecap="butt" stroke-linejoin="miter">
	<path stroke='black'  d='M80.2,586.4 L89.2,586.4  '/>	<g transform="translate(71.9,590.3)" stroke="none" fill="black" font-family="Helvetica" font-size="12.00"  text-anchor="end">
		<text><tspan font-family="Helvetica" > 0.05</tspan></text>
	</g>
</g>
<g fill="none" color="black" stroke="currentColor" stroke-width="1.00" stroke-linecap="butt" stroke-linejoin="miter">
	<path stroke='black'  d='M80.2,510.3 L89.2,510.3  '/>	<g transform="translate(71.9,514.2)" stroke="none" fill="black" font-family="Helvetica" font-size="12.00"  text-anchor="end">
		<text><tspan font-family="Helvetica" > 0.1</tspan></text>
	</g>
</g>
<g fill="none" color="black" stroke="currentColor" stroke-width="1.00" stroke-linecap="butt" stroke-linejoin="miter">
	<path stroke='black'  d='M80.2,434.3 L89.2,434.3  '/>	<g transform="translate(71.9,438.2)" stroke="none" fill="black" font-family="Helvetica" font-size="12.00"  text-anchor="end">
		<text><tspan font-family="Helvetica" > 0.15</tspan></text>
	</g>
</g>
<g fill="none" color="black" stroke="currentColor" stroke-width="1.00" stroke-linecap="butt" stroke-linejoin="miter">
	<path stroke='black'  d='M80.2,358.2 L89.2,358.2  '/>	<g transform="translate(71.9,362.1)" stroke="none" fill="black" font-family="Helvetica" font-size="12.00"  text-anchor="end">
		<text><tspan font-family="Helvetica" > 0.2</tspan></text>
	</g>
</g>
<g fill="none" color="black" stroke="currentColor" stroke-width="1.00" stroke-linecap="butt" stroke-linejoin="miter">
	<path stroke='black'  d='M80.2,282.2 L89.2,282.2  '/>	<g transform="translate(71.9,286.1)" stroke="none" fill="black" font-family="Helvetica" font-size="12.00"  text-anchor="end">
		<text><tspan font-family="Helvetica" > 0.25</tspan></text>
	</g>
</g>
<g fill="none" color="black" stroke="currentColor" stroke-width="1.00" stroke-linecap="butt" stroke-linejoin="miter">
	<path stroke='black'  d='M80.2,206.2 L89.2,206.2  '/>	<g transform="translate(71.9,210.1)" stroke="none" fill="black" font-family="Helvetica" font-size="12.00"  text-anchor="end">
		<text><tspan font-family="Helvetica" > 0.3</tspan></text>
	</g>
</g>
<g fill="none" color="black" stroke="currentColor" stroke-width="1.00" stroke-linecap="butt" stroke-linejoin="miter">
	<path stroke='black'  d='M80.2,130.1 L89.2,130.1  '/>	<g transform="translate(71.9,134.0)" stroke="none" fill="black" font-family="Helvetica" font-size="12.00"  text-anchor="end">
		<text><tspan font-family="Helvetica" > 0.35</tspan></text>
	</g>
</g>
<g fill="none" color="black" stroke="currentColor" stroke-width="1.00" stroke-linecap="butt" stroke-linejoin="miter">
	<path stroke='black'  d='M80.2,54.1 L89.2,54.1  '/>	<g transform="translate(71.9,58.0)" stroke="none" fill="black" font-family="Helvetica" font-size="12.00"  text-anchor="end">
		<text><tspan font-family="Helvetica" > 0.4</tspan></text>
	</g>
</g>
<g fill="none" color="black" stroke="currentColor" stroke-width="1.00" stroke-linecap="butt" stroke-linejoin="miter">
	<path stroke='black'  d='M227.4,662.4 L227.4,653.4  '/>	<g transform="translate(227.4,684.3)" stroke="none" fill="black" font-family="Helvetica" font-size="12.00"  text-anchor="middle">
		<text><tspan font-family="Helvetica" > 501</tspan></text>
	</g>
</g>
<g fill="none" color="black" stroke="currentColor" stroke-width="1.00" stroke-linecap="butt" stroke-linejoin="miter">
	<path stroke='black'  d='M405.0,662.4 L405.0,653.4  '/>	<g transform="translate(405.0,684.3)" stroke="none" fill="black" font-family="Helvetica" font-size="12.00"  text-anchor="middle">
		<text><tspan font-family="Helvetica" > 502</tspan></text>
	</g>
</g>
<g fill="none" color="black" stroke="currentColor" stroke-width="1.00" stroke-linecap="butt" stroke-linejoin="miter">
	<path stroke='black'  d='M582.6,662.4 L582.6,653.4  '/>	<g transform="translate(582.6,684.3)" stroke="none" fill="black" font-family="Helvetica" font-size="12.00"  text-anchor="middle">
		<text><tspan font-family="Helvetica" > 503</tspan></text>
	</g>
</g>
<g fill="none" color="black" stroke="currentColor" stroke-width="1.00" stroke-linecap="butt" stroke-linejoin="miter">
	<path stroke='black'  d='M760.2,662.4 L760.2,653.4  '/>	<g transform="translate(760.2,684.3)" stroke="none" fill="black" font-family="Helvetica" font-size="12.00"  text-anchor="middle">
		<text><tspan font-family="Helvetica" > 504</tspan></text>
	</g>
</g>
<g fill="none" color="black" stroke="currentColor" stroke-width="1.00" stroke-linecap="butt" stroke-linejoin="miter">
	<path stroke='black'  d='M937.8,662.4 L937.8,653.4  '/>	<g transform="translate(937.8,684.3)" stroke="none" fill="black" font-family="Helvetica" font-size="12.00"  text-anchor="middle">
		<text><tspan font-family="Helvetica" > 505</tspan></text>
	</g>
</g>
<g fill="none" color="black" stroke="currentColor" stroke-width="1.00" stroke-linecap="butt" stroke-linejoin="miter">
</g>
<g fill="none" color="black" stroke="currentColor" stroke-width="1.00" stroke-linecap="butt" stroke-linejoin="miter">
	<path stroke='black'  d='M80.2,54.1 L80.2,662.4 L1013.6,662.4 L1013.6,54.1 L80.2,54.1 Z  '/></g>
<g fill="none" color="black" stroke="currentColor" stroke-width="1.00" stroke-linecap="butt" stroke-linejoin="miter">
	<g transform="translate(17.0,358.3) rotate(270)" stroke="none" fill="black" font-family="Helvetica" font-size="12.00"  text-anchor="middle">
		<text><tspan font-family="Helvetica" >Density (a.u.)</tspan></text>
	</g>
</g>
<g fill="none" color="black" stroke="currentColor" stroke-width="1.00" stroke-linecap="butt" stroke-linejoin="miter">
	<g transform="translate(546.9,711.3)" stroke="none" fill="black" font-family="Helvetica" font-size="12.00"  text-anchor="middle">
		<text><tspan font-family="Helvetica" >Average time (us)</tspan></text>
	</g>
</g>
<g fill="none" color="black" stroke="currentColor" stroke-width="1.00" stroke-linecap="butt" stroke-linejoin="miter">
	<g transform="translate(546.9,31.0)" stroke="none" fill="black" font-family="Helvetica" font-size="12.00"  text-anchor="middle">
		<text><tspan font-family="Helvetica" >language: ruby/parse error: python/examples/tabs.py: slope</tspan></text>
	</g>
</g>
	<g id="gnuplot_plot_1" ><title>Bootstrap distribution</title>
<g fill="none" color="white" stroke="black" stroke-width="2.00" stroke-linecap="butt" stroke-linejoin="miter">
</g>
<g fill="none" color="black" stroke="currentColor" stroke-width="2.00" stroke-linecap="butt" stroke-linejoin="miter">
	<g transform="translate(1089.0,67.0)" stroke="none" fill="black" font-family="Helvetica" font-size="12.00"  text-anchor="start">
		<text><tspan font-family="Helvetica" >Bootstrap distribution</tspan></text>
	</g>
</g>
<g fill="none" color="black" stroke="currentColor" stroke-width="2.00" stroke-linecap="butt" stroke-linejoin="miter">
	<path stroke='rgb( 31, 120, 180)'  d='M1038.5,63.1 L1080.7,63.1 M80.2,638.8 L82.1,637.3 L83.9,635.7 L85.8,634.1 L87.7,632.3 L89.6,630.6
		L91.4,628.7 L93.3,626.8 L95.2,624.8 L97.0,622.8 L98.9,620.7 L100.8,618.5 L102.6,616.3 L104.5,614.0
		L106.4,611.7 L108.3,609.3 L110.1,606.8 L112.0,604.3 L113.9,601.7 L115.7,599.1 L117.6,596.3 L119.5,593.5
		L121.4,590.7 L123.2,587.7 L125.1,584.7 L127.0,581.7 L128.8,578.5 L130.7,575.3 L132.6,571.9 L134.4,568.5
		L136.3,565.1 L138.2,561.5 L140.1,557.8 L141.9,554.1 L143.8,550.3 L145.7,546.4 L147.5,542.4 L149.4,538.4
		L151.3,534.2 L153.2,530.0 L155.0,525.7 L156.9,521.4 L158.8,517.0 L160.6,512.5 L162.5,507.9 L164.4,503.3
		L166.2,498.6 L168.1,493.9 L170.0,489.1 L171.9,484.3 L173.7,479.4 L175.6,474.4 L177.5,469.4 L179.3,464.4
		L181.2,459.3 L183.1,454.2 L185.0,449.0 L186.8,443.8 L188.7,438.5 L190.6,433.2 L192.4,427.9 L194.3,422.6
		L196.2,417.2 L198.0,411.8 L199.9,406.3 L201.8,400.9 L203.7,395.4 L205.5,390.0 L207.4,384.5 L209.3,379.0
		L211.1,373.5 L213.0,368.0 L214.9,362.6 L216.7,357.1 L218.6,351.7 L220.5,346.3 L222.4,340.9 L224.2,335.6
		L226.1,330.3 L228.0,325.0 L229.8,319.8 L231.7,314.7 L233.6,309.5 L235.5,304.5 L237.3,299.5 L239.2,294.6
		L241.1,289.7 L242.9,284.8 L244.8,280.0 L246.7,275.3 L248.5,270.6 L250.4,266.0 L252.3,261.3 L254.2,256.8
		L256.0,252.2 L257.9,247.7 L259.8,243.2 L261.6,238.8 L263.5,234.3 L265.4,229.9 L267.3,225.6 L269.1,221.2
		L271.0,216.9 L272.9,212.6 L274.7,208.3 L276.6,204.1 L278.5,199.9 L280.3,195.7 L282.2,191.6 L284.1,187.5
		L286.0,183.4 L287.8,179.4 L289.7,175.4 L291.6,171.5 L293.4,167.6 L295.3,163.8 L297.2,160.0 L299.1,156.3
		L300.9,152.6 L302.8,149.0 L304.7,145.5 L306.5,142.1 L308.4,138.7 L310.3,135.4 L312.1,132.3 L314.0,129.2
		L315.9,126.2 L317.8,123.3 L319.6,120.5 L321.5,117.8 L323.4,115.2 L325.2,112.8 L327.1,110.4 L329.0,108.2
		L330.9,106.1 L332.7,104.0 L334.6,102.1 L336.5,100.4 L338.3,98.7 L340.2,97.1 L342.1,95.7 L343.9,94.3
		L345.8,93.0 L347.7,91.9 L349.6,90.8 L351.4,89.7 L353.3,88.8 L355.2,87.9 L357.0,87.1 L358.9,86.3
		L360.8,85.6 L362.7,84.9 L364.5,84.2 L366.4,83.5 L368.3,82.9 L370.1,82.3 L372.0,81.7 L373.9,81.2
		L375.7,80.7 L377.6,80.2 L379.5,79.7 L381.4,79.2 L383.2,78.8 L385.1,78.4 L387.0,78.1 L388.8,77.8
		L390.7,77.5 L392.6,77.3 L394.5,77.2 L396.3,77.1 L398.2,77.0 L400.1,77.0 L401.9,77.0 L403.8,77.1
		L405.7,77.3 L407.5,77.5 L409.4,77.8 L411.3,78.1 L413.2,78.5 L415.0,79.0 L416.9,79.5 L418.8,80.1
		L420.6,80.7 L422.5,81.4 L424.4,82.2 L426.3,83.1 L428.1,84.0 L430.0,85.0 L431.9,86.1 L433.7,87.3
		L435.6,88.5 L437.5,89.8 L439.3,91.2 L441.2,92.7 L443.1,94.3 L445.0,95.9 L446.8,97.6 L448.7,99.3
		L450.6,101.2 L452.4,103.0 L454.3,105.0 L456.2,107.0 L458.0,109.1 L459.9,111.2 L461.8,113.3 L463.7,115.5
		L465.5,117.7 L467.4,120.0 L469.3,122.3 L471.1,124.6 L473.0,126.9 L474.9,129.3 L476.8,131.7 L478.6,134.0
		L480.5,136.4 L482.4,138.8 L484.2,141.2 L486.1,143.6 L488.0,146.0 L489.8,148.3 L491.7,150.7 L493.6,153.1
		L495.5,155.5 L497.3,157.9 L499.2,160.2 L501.1,162.6 L502.9,165.0 L504.8,167.4 L506.7,169.9 L508.6,172.3
		L510.4,174.7 L512.3,177.2 L514.2,179.7 L516.0,182.2 L517.9,184.7 L519.8,187.2 L521.6,189.7 L523.5,192.3
		L525.4,194.9 L527.3,197.4 L529.1,200.1 L531.0,202.7 L532.9,205.3 L534.7,208.0 L536.6,210.7 L538.5,213.5
		L540.4,216.2 L542.2,219.0 L544.1,221.9 L546.0,224.7 L547.8,227.6 L549.7,230.6 L551.6,233.5 L553.4,236.5
		L555.3,239.5 L557.2,242.6 L559.1,245.6 L560.9,248.7 L562.8,251.8 L564.7,254.9 L566.5,258.0 L568.4,261.1
		L570.3,264.2 L572.2,267.3 L574.0,270.4 L575.9,273.5 L577.8,276.6 L579.6,279.7 L581.5,282.8 L583.4,285.9
		L585.2,288.9 L587.1,292.0 L589.0,295.1 L590.9,298.2 L592.7,301.3 L594.6,304.3 L596.5,307.4 L598.3,310.5
		L600.2,313.5 L602.1,316.6 L604.0,319.6 L605.8,322.6 L607.7,325.6 L609.6,328.5 L611.4,331.4 L613.3,334.3
		L615.2,337.1 L617.0,339.9 L618.9,342.7 L620.8,345.4 L622.7,348.0 L624.5,350.7 L626.4,353.2 L628.3,355.7
		L630.1,358.2 L632.0,360.7 L633.9,363.1 L635.8,365.5 L637.6,367.9 L639.5,370.2 L641.4,372.6 L643.2,374.9
		L645.1,377.3 L647.0,379.7 L648.8,382.0 L650.7,384.4 L652.6,386.8 L654.5,389.2 L656.3,391.7 L658.2,394.1
		L660.1,396.6 L661.9,399.1 L663.8,401.6 L665.7,404.2 L667.5,406.7 L669.4,409.3 L671.3,411.8 L673.2,414.4
		L675.0,416.9 L676.9,419.5 L678.8,422.0 L680.6,424.6 L682.5,427.1 L684.4,429.6 L686.3,432.1 L688.1,434.6
		L690.0,437.0 L691.9,439.5 L693.7,441.9 L695.6,444.3 L697.5,446.7 L699.3,449.1 L701.2,451.5 L703.1,453.8
		L705.0,456.1 L706.8,458.5 L708.7,460.8 L710.6,463.1 L712.4,465.3 L714.3,467.6 L716.2,469.8 L718.1,472.1
		L719.9,474.2 L721.8,476.4 L723.7,478.5 L725.5,480.6 L727.4,482.7 L729.3,484.7 L731.1,486.7 L733.0,488.6
		L734.9,490.5 L736.8,492.4 L738.6,494.2 L740.5,496.0 L742.4,497.7 L744.2,499.5 L746.1,501.1 L748.0,502.8
		L749.9,504.4 L751.7,506.0 L753.6,507.6 L755.5,509.1 L757.3,510.6 L759.2,512.1 L761.1,513.6 L762.9,515.1
		L764.8,516.6 L766.7,518.0 L768.6,519.5 L770.4,520.9 L772.3,522.3 L774.2,523.8 L776.0,525.2 L777.9,526.6
		L779.8,528.0 L781.7,529.4 L783.5,530.8 L785.4,532.1 L787.3,533.5 L789.1,534.9 L791.0,536.2 L792.9,537.5
		L794.7,538.8 L796.6,540.1 L798.5,541.4 L800.4,542.7 L802.2,543.9 L804.1,545.1 L806.0,546.3 L807.8,547.5
		L809.7,548.7 L811.6,549.8 L813.5,550.9 L815.3,552.0 L817.2,553.1 L819.1,554.2 L820.9,555.3 L822.8,556.4
		L824.7,557.4 L826.5,558.5 L828.4,559.6 L830.3,560.6 L832.2,561.7 L834.0,562.8 L835.9,563.9 L837.8,564.9
		L839.6,566.0 L841.5,567.1 L843.4,568.2 L845.3,569.2 L847.1,570.3 L849.0,571.3 L850.9,572.3 L852.7,573.4
		L854.6,574.4 L856.5,575.3 L858.3,576.3 L860.2,577.2 L862.1,578.2 L864.0,579.1 L865.8,580.0 L867.7,580.9
		L869.6,581.8 L871.4,582.6 L873.3,583.5 L875.2,584.4 L877.1,585.3 L878.9,586.1 L880.8,587.0 L882.7,587.9
		L884.5,588.8 L886.4,589.7 L888.3,590.6 L890.1,591.6 L892.0,592.5 L893.9,593.4 L895.8,594.4 L897.6,595.4
		L899.5,596.4 L901.4,597.3 L903.2,598.3 L905.1,599.3 L907.0,600.3 L908.8,601.3 L910.7,602.3 L912.6,603.3
		L914.5,604.3 L916.3,605.2 L918.2,606.2 L920.1,607.2 L921.9,608.1 L923.8,609.0 L925.7,609.9 L927.6,610.8
		L929.4,611.6 L931.3,612.5 L933.2,613.3 L935.0,614.1 L936.9,614.9 L938.8,615.6 L940.6,616.3 L942.5,617.0
		L944.4,617.7 L946.3,618.4 L948.1,619.0 L950.0,619.7 L951.9,620.3 L953.7,620.9 L955.6,621.5 L957.5,622.0
		L959.4,622.6 L961.2,623.2 L963.1,623.7 L965.0,624.2 L966.8,624.7 L968.7,625.2 L970.6,625.7 L972.4,626.2
		L974.3,626.7 L976.2,627.2 L978.1,627.7 L979.9,628.1 L981.8,628.6 L983.7,629.0 L985.5,629.5 L987.4,629.9
		L989.3,630.3 L991.2,630.7 L993.0,631.1 L994.9,631.6 L996.8,632.0 L998.6,632.4 L1000.5,632.7 L1002.4,633.1
		L1004.2,633.5 L1006.1,633.9 L1008.0,634.2 L1009.9,634.6 L1011.7,635.0 L1013.6,635.3  '/></g>
	</g>
	<g id="gnuplot_plot_2" ><title>Confidence interval</title>
<g fill="none" color="white" stroke="rgb( 31, 120, 180)" stroke-width="1.00" stroke-linecap="butt" stroke-linejoin="miter">
</g>
<g fill="none" color="black" stroke="currentColor" stroke-width="1.00" stroke-linecap="butt" stroke-linejoin="miter">
	<g transform="translate(1089.0,85.0)" stroke="none" fill="black" font-family="Helvetica" font-size="12.00"  text-anchor="start">
		<text><tspan font-family="Helvetica" >Confidence interval</tspan></text>
	</g>
</g>
<g fill="none" color="black" stroke="currentColor" stroke-width="1.00" stroke-linecap="butt" stroke-linejoin="miter">
	<g stroke='none' shape-rendering='crispEdges'>
		<polygon fill = 'rgb( 31, 120, 180)' fill-opacity = '0.250000' points = '1038.5,85.6 1080.7,85.6 1080.7,76.6 1038.5,76.6 '/>
		<polygon fill = 'rgb( 31, 120, 180)' fill-opacity = '0.250000' points = '166.2,498.6 166.2,662.4 168.1,662.4 168.1,493.9 '/>
		<polygon fill = 'rgb( 31, 120, 180)' fill-opacity = '0.250000' points = '168.1,493.9 168.1,662.4 170.0,662.4 170.0,489.1 '/>
		<polygon fill = 'rgb( 31, 120, 180)' fill-opacity = '0.250000' points = '170.0,489.1 170.0,662.4 171.9,662.4 171.9,484.3 '/>
		<polygon fill = 'rgb( 31, 120, 180)' fill-opacity = '0.250000' points = '171.9,484.3 171.9,662.4 173.7,662.4 173.7,479.4 '/>
		<polygon fill = 'rgb( 31, 120, 180)' fill-opacity = '0.250000' points = '173.7,479.4 173.7,662.4 175.6,662.4 175.6,474.4 '/>
		<polygon fill = 'rgb( 31, 120, 180)' fill-opacity = '0.250000' points = '175.6,474.4 175.6,662.4 177.5,662.4 177.5,469.4 '/>
		<polygon fill = 'rgb( 31, 120, 180)' fill-opacity = '0.250000' points = '177.5,469.4 177.5,662.4 179.3,662.4 179.3,464.4 '/>
		<polygon fill = 'rgb( 31, 120, 180)' fill-opacity = '0.250000' points = '179.3,464.4 179.3,662.4 181.2,662.4 181.2,459.3 '/>
		<polygon fill = 'rgb( 31, 120, 180)' fill-opacity = '0.250000' points = '181.2,459.3 181.2,662.4 183.1,662.4 183.1,454.2 '/>
		<polygon fill = 'rgb( 31, 120, 180)' fill-opacity = '0.250000' points = '183.1,454.2 183.1,662.4 185.0,662.4 185.0,449.0 '/>
		<polygon fill = 'rgb( 31, 120, 180)' fill-opacity = '0.250000' points = '185.0,449.0 185.0,662.4 186.8,662.4 186.8,443.8 '/>
		<polygon fill = 'rgb( 31, 120, 180)' fill-opacity = '0.250000' points = '186.8,443.8 186.8,662.4 188.7,662.4 188.7,438.5 '/>
		<polygon fill = 'rgb( 31, 120, 180)' fill-opacity = '0.250000' points = '188.7,438.5 188.7,662.4 190.6,662.4 190.6,433.2 '/>
		<polygon fill = 'rgb( 31, 120, 180)' fill-opacity = '0.250000' points = '190.6,433.2 190.6,662.4 192.4,662.4 192.4,427.9 '/>
		<polygon fill = 'rgb( 31, 120, 180)' fill-opacity = '0.250000' points = '192.4,427.9 192.4,662.4 194.3,662.4 194.3,422.6 '/>
		<polygon fill = 'rgb( 31, 120, 180)' fill-opacity = '0.250000' points = '194.3,422.6 194.3,662.4 196.2,662.4 196.2,417.2 '/>
		<polygon fill = 'rgb( 31, 120, 180)' fill-opacity = '0.250000' points = '196.2,417.2 196.2,662.4 198.0,662.4 198.0,411.8 '/>
		<polygon fill = 'rgb( 31, 120, 180)' fill-opacity = '0.250000' points = '198.0,411.8 198.0,662.4 199.9,662.4 199.9,406.3 '/>
		<polygon fill = 'rgb( 31, 120, 180)' fill-opacity = '0.250000' points = '199.9,406.3 199.9,662.4 201.8,662.4 201.8,400.9 '/>
		<polygon fill = 'rgb( 31, 120, 180)' fill-opacity = '0.250000' points = '201.8,400.9 201.8,662.4 203.7,662.4 203.7,395.4 '/>
		<polygon fill = 'rgb( 31, 120, 180)' fill-opacity = '0.250000' points = '203.7,395.4 203.7,662.4 205.5,662.4 205.5,390.0 '/>
		<polygon fill = 'rgb( 31, 120, 180)' fill-opacity = '0.250000' points = '205.5,390.0 205.5,662.4 207.4,662.4 207.4,384.5 '/>
		<polygon fill = 'rgb( 31, 120, 180)' fill-opacity = '0.250000' points = '207.4,384.5 207.4,662.4 209.3,662.4 209.3,379.0 '/>
		<polygon fill = 'rgb( 31, 120, 180)' fill-opacity = '0.250000' points = '209.3,379.0 209.3,662.4 211.1,662.4 211.1,373.5 '/>
		<polygon fill = 'rgb( 31, 120, 180)' fill-opacity = '0.250000' points = '211.1,373.5 211.1,662.4 213.0,662.4 213.0,368.0 '/>
		<polygon fill = 'rgb( 31, 120, 180)' fill-opacity = '0.250000' points = '213.0,368.0 213.0,662.4 214.9,662.4 214.9,362.6 '/>
		<polygon fill = 'rgb( 31, 120, 180)' fill-opacity = '0.250000' points = '214.9,362.6 214.9,662.4 216.7,662.4 216.7,357.1 '/>
		<polygon fill = 'rgb( 31, 120, 180)' fill-opacity = '0.250000' points = '216.7,357.1 216.7,662.4 218.6,662.4 218.6,351.7 '/>
		<polygon fill = 'rgb( 31, 120, 180)' fill-opacity = '0.250000' points = '218.6,351.7 218.6,662.4 220.5,662.4 220.5,346.3 '/>
		<polygon fill = 'rgb( 31, 120, 180)' fill-opacity = '0.250000' points = '220.5,346.3 220.5,662.4 222.4,662.4 222.4,340.9 '/>
		<polygon fill = 'rgb( 31, 120, 180)' fill-opacity = '0.250000' points = '222.4,340.9 222.4,662.4 224.2,662.4 224.2,335.6 '/>
		<polygon fill = 'rgb( 31, 120, 180)' fill-opacity = '0.250000' points = '224.2,335.6 224.2,662.4 226.1,662.4 226.1,330.3 '/>
		<polygon fill = 'rgb( 31, 120, 180)' fill-opacity = '0.250000' points = '226.1,330.3 226.1,662.4 228.0,662.4 228.0,325.0 '/>
		<polygon fill = 'rgb( 31, 120, 180)' fill-opacity = '0.250000' points = '228.0,325.0 228.0,662.4 229.8,662.4 229.8,319.8 '/>
		<polygon fill = 'rgb( 31, 120, 180)' fill-opacity = '0.250000' points = '229.8,319.8 229.8,662.4 231.7,662.4 231.7,314.7 '/>
		<polygon fill = 'rgb( 31, 120, 180)' fill-opacity = '0.250000' points = '231.7,314.7 231.7,662.4 233.6,662.4 233.6,309.5 '/>
		<polygon fill = 'rgb( 31, 120, 180)' fill-opacity = '0.250000' points = '233.6,309.5 233.6,662.4 235.5,662.4 235.5,304.5 '/>
		<polygon fill = 'rgb( 31, 120, 180)' fill-opacity = '0.250000' points = '235.5,304.5 235.5,662.4 237.3,662.4 237.3,299.5 '/>
		<polygon fill = 'rgb( 31, 120, 180)' fill-opacity = '0.250000' points = '237.3,299.5 237.3,662.4 239.2,662.4 239.2,294.6 '/>
		<polygon fill = 'rgb( 31, 120, 180)' fill-opacity = '0.250000' points = '239.2,294.6 239.2,662.4 241.1,662.4 241.1,289.7 '/>
		<polygon fill = 'rgb( 31, 120, 180)' fill-opacity = '0.250000' points = '241.1,289.7 241.1,662.4 242.9,662.4 242.9,284.8 '/>
		<polygon fill = 'rgb( 31, 120, 180)' fill-opacity = '0.250000' points = '242.9,284.8 242.9,662.4 244.8,662.4 244.8,280.0 '/>
		<polygon fill = 'rgb( 31, 120, 180)' fill-opacity = '0.250000' points = '244.8,280.0 244.8,662.4 246.7,662.4 246.7,275.3 '/>
		<polygon fill = 'rgb( 31, 120, 180)' fill-opacity = '0.250000' points = '246.7,275.3 246.7,662.4 248.5,662.4 248.5,270.6 '/>
		<polygon fill = 'rgb( 31, 120, 180)' fill-opacity = '0.250000' points = '248.5,270.6 248.5,662.4 250.4,662.4 250.4,266.0 '/>
		<polygon fill = 'rgb( 31, 120, 180)' fill-opacity = '0.250000' points = '250.4,266.0 250.4,662.4 252.3,662.4 252.3,261.3 '/>
		<polygon fill = 'rgb( 31, 120, 180)' fill-opacity = '0.250000' points = '252.3,261.3 252.3,662.4 254.2,662.4 254.2,256.8 '/>
		<polygon fill = 'rgb( 31, 120, 180)' fill-opacity = '0.250000' points = '254.2,256.8 254.2,662.4 256.0,662.4 256.0,252.2 '/>
		<polygon fill = 'rgb( 31, 120, 180)' fill-opacity = '0.250000' points = '256.0,252.2 256.0,662.4 257.9,662.4 257.9,247.7 '/>
		<polygon fill = 'rgb( 31, 120, 180)' fill-opacity = '0.250000' points = '257.9,247.7 257.9,662.4 259.8,662.4 259.8,243.2 '/>
		<polygon fill = 'rgb( 31, 120, 180)' fill-opacity = '0.250000' points = '259.8,243.2 259.8,662.4 261.6,662.4 261.6,238.8 '/>
		<polygon fill = 'rgb( 31, 120, 180)' fill-opacity = '0.250000' points = '261.6,238.8 261.6,662.4 263.5,662.4 263.5,234.3 '/>
		<polygon fill = 'rgb( 31, 120, 180)' fill-opacity = '0.250000' points = '263.5,234.3 263.5,662.4 265.4,662.4 265.4,229.9 '/>
		<polygon fill = 'rgb( 31, 120, 180)' fill-opacity = '0.250000' points = '265.4,229.9 265.4,662.4 267.3,662.4 267.3,225.6 '/>
		<polygon fill = 'rgb( 31, 120, 180)' fill-opacity = '0.250000' points = '267.3,225.6 267.3,662.4 269.1,662.4 269.1,221.2 '/>
		<polygon fill = 'rgb( 31, 120, 180)' fill-opacity = '0.250000' points = '269.1,221.2 269.1,662.4 271.0,662.4 271.0,216.9 '/>
		<polygon fill = 'rgb( 31, 120, 180)' fill-opacity = '0.250000' points = '271.0,216.9 271.0,662.4 272.9,662.4 272.9,212.6 '/>
		<polygon fill = 'rgb( 31, 120, 180)' fill-opacity = '0.250000' points = '272.9,212.6 272.9,662.4 274.7,662.4 274.7,208.3 '/>
		<polygon fill = 'rgb( 31, 120, 180)' fill-opacity = '0.250000' points = '274.7,208.3 274.7,662.4 276.6,662.4 276.6,204.1 '/>
		<polygon fill = 'rgb( 31, 120, 180)' fill-opacity = '0.250000' points = '276.6,204.1 276.6,662.4 278.5,662.4 278.5,199.9 '/>
		<polygon fill = 'rgb( 31, 120, 180)' fill-opacity = '0.250000' points = '278.5,199.9 278.5,662.4 280.3,662.4 280.3,195.7 '/>
		<polygon fill = 'rgb( 31, 120, 180)' fill-opacity = '0.250000' points = '280.3,195.7 280.3,662.4 282.2,662.4 282.2,191.6 '/>
		<polygon fill = 'rgb( 31, 120, 180)' fill-opacity = '0.250000' points = '282.2,191.6 282.2,662.4 284.1,662.4 284.1,187.5 '/>
		<polygon fill = 'rgb( 31, 120, 180)' fill-opacity = '0.250000' points = '284.1,187.5 284.1,662.4 286.0,662.4 286.0,183.4 '/>
		<polygon fill = 'rgb( 31, 120, 180)' fill-opacity = '0.250000' points = '286.0,183.4 286.0,662.4 287.8,662.4 287.8,179.4 '/>
		<polygon fill = 'rgb( 31, 120, 180)' fill-opacity = '0.250000' points = '287.8,179.4 287.8,662.4 289.7,662.4 289.7,175.4 '/>
		<polygon fill = 'rgb( 31, 120, 180)' fill-opacity = '0.250000' points = '289.7,175.4 289.7,662.4 291.6,662.4 291.6,171.5 '/>
		<polygon fill = 'rgb( 31, 120, 180)' fill-opacity = '0.250000' points = '291.6,171.5 291.6,662.4 293.4,662.4 293.4,167.6 '/>
		<polygon fill = 'rgb( 31, 120, 180)' fill-opacity = '0.250000' points = '293.4,167.6 293.4,662.4 295.3,662.4 295.3,163.8 '/>
		<polygon fill = 'rgb( 31, 120, 180)' fill-opacity = '0.250000' points = '295.3,163.8 295.3,662.4 297.2,662.4 297.2,160.0 '/>
		<polygon fill = 'rgb( 31, 120, 180)' fill-opacity = '0.250000' points = '297.2,160.0 297.2,662.4 299.1,662.4 299.1,156.3 '/>
		<polygon fill = 'rgb( 31, 120, 180)' fill-opacity = '0.250000' points = '299.1,156.3 299.1,662.4 300.9,662.4 300.9,152.6 '/>
		<polygon fill = 'rgb( 31, 120, 180)' fill-opacity = '0.250000' points = '300.9,152.6 300.9,662.4 302.8,662.4 302.8,149.0 '/>
		<polygon fill = 'rgb( 31, 120, 180)' fill-opacity = '0.250000' points = '302.8,149.0 302.8,662.4 304.7,662.4 304.7,145.5 '/>
		<polygon fill = 'rgb( 31, 120, 180)' fill-opacity = '0.250000' points = '304.7,145.5 304.7,662.4 306.5,662.4 306.5,142.1 '/>
		<polygon fill = 'rgb( 31, 120, 180)' fill-opacity = '0.250000' points = '306.5,142.1 306.5,662.4 308.4,662.4 308.4,138.7 '/>
		<polygon fill = 'rgb( 31, 120, 180)' fill-opacity = '0.250000' points = '308.4,138.7 308.4,662.4 310.3,662.4 310.3,135.4 '/>
		<polygon fill = 'rgb( 31, 120, 180)' fill-opacity = '0.250000' points = '310.3,135.4 310.3,662.4 312.1,662.4 312.1,132.3 '/>
		<polygon fill = 'rgb( 31, 120, 180)' fill-opacity = '0.250000' points = '312.1,132.3 312.1,662.4 314.0,662.4 314.0,129.2 '/>
		<polygon fill = 'rgb( 31, 120, 180)' fill-opacity = '0.250000' points = '314.0,129.2 314.0,662.4 315.9,662.4 315.9,126.2 '/>
		<polygon fill = 'rgb( 31, 120, 180)' fill-opacity = '0.250000' points = '315.9,126.2 315.9,662.4 317.8,662.4 317.8,123.3 '/>
		<polygon fill = 'rgb( 31, 120, 180)' fill-opacity = '0.250000' points = '317.8,123.3 317.8,662.4 319.6,662.4 319.6,120.5 '/>
		<polygon fill = 'rgb( 31, 120, 180)' fill-opacity = '0.250000' points = '319.6,120.5 319.6,662.4 321.5,662.4 321.5,117.8 '/>
		<polygon fill = 'rgb( 31, 120, 180)' fill-opacity = '0.250000' points = '321.5,117.8 321.5,662.4 323.4,662.4 323.4,115.2 '/>
		<polygon fill = 'rgb( 31, 120, 180)' fill-opacity = '0.250000' points = '323.4,115.2 323.4,662.4 325.2,662.4 325.2,112.8 '/>
		<polygon fill = 'rgb( 31, 120, 180)' fill-opacity = '0.250000' points = '325.2,112.8 325.2,662.4 327.1,662.4 327.1,110.4 '/>
		<polygon fill = 'rgb( 31, 120, 180)' fill-opacity = '0.250000' points = '327.1,110.4 327.1,662.4 329.0,662.4 329.0,108.2 '/>
		<polygon fill = 'rgb( 31, 120, 180)' fill-opacity = '0.250000' points = '329.0,108.2 329.0,662.4 330.9,662.4 330.9,106.1 '/>
		<polygon fill = 'rgb( 31, 120, 180)' fill-opacity = '0.250000' points = '330.9,106.1 330.9,662.4 332.7,662.4 332.7,104.0 '/>
		<polygon fill = 'rgb( 31, 120, 180)' fill-opacity = '0.250000' points = '332.7,104.0 332.7,662.4 334.6,662.4 334.6,102.1 '/>
		<polygon fill = 'rgb( 31, 120, 180)' fill-opacity = '0.250000' points = '334.6,102.1 334.6,662.4 336.5,662.4 336.5,100.4 '/>
		<polygon fill = 'rgb( 31, 120, 180)' fill-opacity = '0.250000' points = '336.5,100.4 336.5,662.4 338.3,662.4 338.3,98.7 '/>
		<polygon fill = 'rgb( 31, 120, 180)' fill-opacity = '0.250000' points = '338.3,98.7 338.3,662.4 340.2,662.4 340.2,97.1 '/>
		<polygon fill = 'rgb( 31, 120, 180)' fill-opacity = '0.250000' points = '340.2,97.1 340.2,662.4 342.1,662.4 342.1,95.7 '/>
		<polygon fill = 'rgb( 31, 120, 180)' fill-opacity = '0.250000' points = '342.1,95.7 342.1,662.4 343.9,662.4 343.9,94.3 '/>
		<polygon fill = 'rgb( 31, 120, 180)' fill-opacity = '0.250000' points = '343.9,94.3 343.9,662.4 345.8,662.4 345.8,93.0 '/>
		<polygon fill = 'rgb( 31, 120, 180)' fill-opacity = '0.250000' points = '345.8,93.0 345.8,662.4 347.7,662.4 347.7,91.9 '/>
		<polygon fill = 'rgb( 31, 120, 180)' fill-opacity = '0.250000' points = '347.7,91.9 347.7,662.4 349.6,662.4 349.6,90.8 '/>
		<polygon fill = 'rgb( 31, 120, 180)' fill-opacity = '0.250000' points = '349.6,90.8 349.6,662.4 351.4,662.4 351.4,89.7 '/>
		<polygon fill = 'rgb( 31, 120, 180)' fill-opacity = '0.250000' points = '351.4,89.7 351.4,662.4 353.3,662.4 353.3,88.8 '/>
		<polygon fill = 'rgb( 31, 120, 180)' fill-opacity = '0.250000' points = '353.3,88.8 353.3,662.4 355.2,662.4 355.2,87.9 '/>
		<polygon fill = 'rgb( 31, 120, 180)' fill-opacity = '0.250000' points = '355.2,87.9 355.2,662.4 357.0,662.4 357.0,87.1 '/>
		<polygon fill = 'rgb( 31, 120, 180)' fill-opacity = '0.250000' points = '357.0,87.1 357.0,662.4 358.9,662.4 358.9,86.3 '/>
		<polygon fill = 'rgb( 31, 120, 180)' fill-opacity = '0.250000' points = '358.9,86.3 358.9,662.4 360.8,662.4 360.8,85.6 '/>
		<polygon fill = 'rgb( 31, 120, 180)' fill-opacity = '0.250000' points = '360.8,85.6 360.8,662.4 362.7,662.4 362.7,84.9 '/>
		<polygon fill = 'rgb( 31, 120, 180)' fill-opacity = '0.250000' points = '362.7,84.9 362.7,662.4 364.5,662.4 364.5,84.2 '/>
		<polygon fill = 'rgb( 31, 120, 180)' fill-opacity = '0.250000' points = '364.5,84.2 364.5,662.4 366.4,662.4 366.4,83.5 '/>
		<polygon fill = 'rgb( 31, 120, 180)' fill-opacity = '0.250000' points = '366.4,83.5 366.4,662.4 368.3,662.4 368.3,82.9 '/>
		<polygon fill = 'rgb( 31, 120, 180)' fill-opacity = '0.250000' points = '368.3,82.9 368.3,662.4 370.1,662.4 370.1,82.3 '/>
		<polygon fill = 'rgb( 31, 120, 180)' fill-opacity = '0.250000' points = '370.1,82.3 370.1,662.4 372.0,662.4 372.0,81.7 '/>
		<polygon fill = 'rgb( 31, 120, 180)' fill-opacity = '0.250000' points = '372.0,81.7 372.0,662.4 373.9,662.4 373.9,81.2 '/>
		<polygon fill = 'rgb( 31, 120, 180)' fill-opacity = '0.250000' points = '373.9,81.2 373.9,662.4 375.7,662.4 375.7,80.7 '/>
		<polygon fill = 'rgb( 31, 120, 180)' fill-opacity = '0.250000' points = '375.7,80.7 375.7,662.4 377.6,662.4 377.6,80.2 '/>
		<polygon fill = 'rgb( 31, 120, 180)' fill-opacity = '0.250000' points = '377.6,80.2 377.6,662.4 379.5,662.4 379.5,79.7 '/>
		<polygon fill = 'rgb( 31, 120, 180)' fill-opacity = '0.250000' points = '379.5,79.7 379.5,662.4 381.4,662.4 381.4,79.2 '/>
		<polygon fill = 'rgb( 31, 120, 180)' fill-opacity = '0.250000' points = '381.4,79.2 381.4,662.4 383.2,662.4 383.2,78.8 '/>
		<polygon fill = 'rgb( 31, 120, 180)' fill-opacity = '0.250000' points = '383.2,78.8 383.2,662.4 385.1,662.4 385.1,78.4 '/>
		<polygon fill = 'rgb( 31, 120, 180)' fill-opacity = '0.250000' points = '385.1,78.4 385.1,662.4 387.0,662.4 387.0,78.1 '/>
		<polygon fill = 'rgb( 31, 120, 180)' fill-opacity = '0.250000' points = '387.0,78.1 387.0,662.4 388.8,662.4 388.8,77.8 '/>
		<polygon fill = 'rgb( 31, 120, 180)' fill-opacity = '0.250000' points = '388.8,77.8 388.8,662.4 390.7,662.4 390.7,77.5 '/>
		<polygon fill = 'rgb( 31, 120, 180)' fill-opacity = '0.250000' points = '390.7,77.5 390.7,662.4 392.6,662.4 392.6,77.3 '/>
		<polygon fill = 'rgb( 31, 120, 180)' fill-opacity = '0.250000' points = '392.6,77.3 392.6,662.4 394.5,662.4 394.5,77.2 '/>
		<polygon fill = 'rgb( 31, 120, 180)' fill-opacity = '0.250000' points = '394.5,77.2 394.5,662.4 396.3,662.4 396.3,77.1 '/>
		<polygon fill = 'rgb( 31, 120, 180)' fill-opacity = '0.250000' points = '396.3,77.1 396.3,662.4 398.2,662.4 398.2,77.0 '/>
		<polygon fill = 'rgb( 31, 120, 180)' fill-opacity = '0.250000' points = '398.2,77.0 398.2,662.4 400.1,662.4 400.1,77.0 '/>
		<polygon fill = 'rgb( 31, 120, 180)' fill-opacity = '0.250000' points = '400.1,77.0 400.1,662.4 401.9,662.4 401.9,77.0 '/>
		<polygon fill = 'rgb( 31, 120, 180)' fill-opacity = '0.250000' points = '401.9,77.0 401.9,662.4 403.8,662.4 403.8,77.1 '/>
		<polygon fill = 'rgb( 31, 120, 180)' fill-opacity = '0.250000' points = '403.8,77.1 403.8,662.4 405.7,662.4 405.7,77.3 '/>
		<polygon fill = 'rgb( 31, 120, 180)' fill-opacity = '0.250000' points = '405.7,77.3 405.7,662.4 407.5,662.4 407.5,77.5 '/>
		<polygon fill = 'rgb( 31, 120, 180)' fill-opacity = '0.250000' points = '407.5,77.5 407.5,662.4 409.4,662.4 409.4,77.8 '/>
		<polygon fill = 'rgb( 31, 120, 180)' fill-opacity = '0.250000' points = '409.4,77.8 409.4,662.4 411.3,662.4 411.3,78.1 '/>
		<polygon fill = 'rgb( 31, 120, 180)' fill-opacity = '0.250000' points = '411.3,78.1 411.3,662.4 413.2,662.4 413.2,78.5 '/>
		<polygon fill = 'rgb( 31, 120, 180)' fill-opacity = '0.250000' points = '413.2,78.5 413.2,662.4 415.0,662.4 415.0,79.0 '/>
		<polygon fill = 'rgb( 31, 120, 180)' fill-opacity = '0.250000' points = '415.0,79.0 415.0,662.4 416.9,662.4 416.9,79.5 '/>
		<polygon fill = 'rgb( 31, 120, 180)' fill-opacity = '0.250000' points = '416.9,79.5 416.9,662.4 418.8,662.4 418.8,80.1 '/>
		<polygon fill = 'rgb( 31, 120, 180)' fill-opacity = '0.250000' points = '418.8,80.1 418.8,662.4 420.6,662.4 420.6,80.7 '/>
		<polygon fill = 'rgb( 31, 120, 180)' fill-opacity = '0.250000' points = '420.6,80.7 420.6,662.4 422.5,662.4 422.5,81.4 '/>
		<polygon fill = 'rgb( 31, 120, 180)' fill-opacity = '0.250000' points = '422.5,81.4 422.5,662.4 424.4,662.4 424.4,82.2 '/>
		<polygon fill = 'rgb( 31, 120, 180)' fill-opacity = '0.250000' points = '424.4,82.2 424.4,662.4 426.3,662.4 426.3,83.1 '/>
		<polygon fill = 'rgb( 31, 120, 180)' fill-opacity = '0.250000' points = '426.3,83.1 426.3,662.4 428.1,662.4 428.1,84.0 '/>
		<polygon fill = 'rgb( 31, 120, 180)' fill-opacity = '0.250000' points = '428.1,84.0 428.1,662.4 430.0,662.4 430.0,85.0 '/>
		<polygon fill = 'rgb( 31, 120, 180)' fill-opacity = '0.250000' points = '430.0,85.0 430.0,662.4 431.9,662.4 431.9,86.1 '/>
		<polygon fill = 'rgb( 31, 120, 180)' fill-opacity = '0.250000' points = '431.9,86.1 431.9,662.4 433.7,662.4 433.7,87.3 '/>
		<polygon fill = 'rgb( 31, 120, 180)' fill-opacity = '0.250000' points = '433.7,87.3 433.7,662.4 435.6,662.4 435.6,88.5 '/>
		<polygon fill = 'rgb( 31, 120, 180)' fill-opacity = '0.250000' points = '435.6,88.5 435.6,662.4 437.5,662.4 437.5,89.8 '/>
		<polygon fill = 'rgb( 31, 120, 180)' fill-opacity = '0.250000' points = '437.5,89.8 437.5,662.4 439.3,662.4 439.3,91.2 '/>
		<polygon fill = 'rgb( 31, 120, 180)' fill-opacity = '0.250000' points = '439.3,91.2 439.3,662.4 441.2,662.4 441.2,92.7 '/>
		<polygon fill = 'rgb( 31, 120, 180)' fill-opacity = '0.250000' points = '441.2,92.7 441.2,662.4 443.1,662.4 443.1,94.3 '/>
		<polygon fill = 'rgb( 31, 120, 180)' fill-opacity = '0.250000' points = '443.1,94.3 443.1,662.4 445.0,662.4 445.0,95.9 '/>
		<polygon fill = 'rgb( 31, 120, 180)' fill-opacity = '0.250000' points = '445.0,95.9 445.0,662.4 446.8,662.4 446.8,97.6 '/>
		<polygon fill = 'rgb( 31, 120, 180)' fill-opacity = '0.250000' points = '446.8,97.6 446.8,662.4 448.7,662.4 448.7,99.3 '/>
		<polygon fill = 'rgb( 31, 120, 180)' fill-opacity = '0.250000' points = '448.7,99.3 448.7,662.4 450.6,662.4 450.6,101.2 '/>
		<polygon fill = 'rgb( 31, 120, 180)' fill-opacity = '0.250000' points = '450.6,101.2 450.6,662.4 452.4,662.4 452.4,103.0 '/>
		<polygon fill = 'rgb( 31, 120, 180)' fill-opacity = '0.250000' points = '452.4,103.0 452.4,662.4 454.3,662.4 454.3,105.0 '/>
		<polygon fill = 'rgb( 31, 120, 180)' fill-opacity = '0.250000' points = '454.3,105.0 454.3,662.4 456.2,662.4 456.2,107.0 '/>
		<polygon fill = 'rgb( 31, 120, 180)' fill-opacity = '0.250000' points = '456.2,107.0 456.2,662.4 458.0,662.4 458.0,109.1 '/>
		<polygon fill = 'rgb( 31, 120, 180)' fill-opacity = '0.250000' points = '458.0,109.1 458.0,662.4 459.9,662.4 459.9,111.2 '/>
		<polygon fill = 'rgb( 31, 120, 180)' fill-opacity = '0.250000' points = '459.9,111.2 459.9,662.4 461.8,662.4 461.8,113.3 '/>
		<polygon fill = 'rgb( 31, 120, 180)' fill-opacity = '0.250000' points = '461.8,113.3 461.8,662.4 463.7,662.4 463.7,115.5 '/>
		<polygon fill = 'rgb( 31, 120, 180)' fill-opacity = '0.250000' points = '463.7,115.5 463.7,662.4 465.5,662.4 465.5,117.7 '/>
		<polygon fill = 'rgb( 31, 120, 180)' fill-opacity = '0.250000' points = '465.5,117.7 465.5,662.4 467.4,662.4 467.4,120.0 '/>
		<polygon fill = 'rgb( 31, 120, 180)' fill-opacity = '0.250000' points = '467.4,120.0 467.4,662.4 469.3,662.4 469.3,122.3 '/>
		<polygon fill = 'rgb( 31, 120, 180)' fill-opacity = '0.250000' points = '469.3,122.3 469.3,662.4 471.1,662.4 471.1,124.6 '/>
		<polygon fill = 'rgb( 31, 120, 180)' fill-opacity = '0.250000' points = '471.1,124.6 471.1,662.4 473.0,662.4 473.0,126.9 '/>
		<polygon fill = 'rgb( 31, 120, 180)' fill-opacity = '0.250000' points = '473.0,126.9 473.0,662.4 474.9,662.4 474.9,129.3 '/>
		<polygon fill = 'rgb( 31, 120, 180)' fill-opacity = '0.250000' points = '474.9,129.3 474.9,662.4 476.8,662.4 476.8,131.7 '/>
		<polygon fill = 'rgb( 31, 120, 180)' fill-opacity = '0.250000' points = '476.8,131.7 476.8,662.4 478.6,662.4 478.6,134.0 '/>
		<polygon fill = 'rgb( 31, 120, 180)' fill-opacity = '0.250000' points = '478.6,134.0 478.6,662.4 480.5,662.4 480.5,136.4 '/>
		<polygon fill = 'rgb( 31, 120, 180)' fill-opacity = '0.250000' points = '480.5,136.4 480.5,662.4 482.4,662.4 482.4,138.8 '/>
		<polygon fill = 'rgb( 31, 120, 180)' fill-opacity = '0.250000' points = '482.4,138.8 482.4,662.4 484.2,662.4 484.2,141.2 '/>
		<polygon fill = 'rgb( 31, 120, 180)' fill-opacity = '0.250000' points = '484.2,141.2 484.2,662.4 486.1,662.4 486.1,143.6 '/>
		<polygon fill = 'rgb( 31, 120, 180)' fill-opacity = '0.250000' points = '486.1,143.6 486.1,662.4 488.0,662.4 488.0,146.0 '/>
		<polygon fill = 'rgb( 31, 120, 180)' fill-opacity = '0.250000' points = '488.0,146.0 488.0,662.4 489.8,662.4 489.8,148.3 '/>
		<polygon fill = 'rgb( 31, 120, 180)' fill-opacity = '0.250000' points = '489.8,148.3 489.8,662.4 491.7,662.4 491.7,150.7 '/>
		<polygon fill = 'rgb( 31, 120, 180)' fill-opacity = '0.250000' points = '491.7,150.7 491.7,662.4 493.6,662.4 493.6,153.1 '/>
		<polygon fill = 'rgb( 31, 120, 180)' fill-opacity = '0.250000' points = '493.6,153.1 493.6,662.4 495.5,662.4 495.5,155.5 '/>
		<polygon fill = 'rgb( 31, 120, 180)' fill-opacity = '0.250000' points = '495.5,155.5 495.5,662.4 497.3,662.4 497.3,157.9 '/>
		<polygon fill = 'rgb( 31, 120, 180)' fill-opacity = '0.250000' points = '497.3,157.9 497.3,662.4 499.2,662.4 499.2,160.2 '/>
		<polygon fill = 'rgb( 31, 120, 180)' fill-opacity = '0.250000' points = '499.2,160.2 499.2,662.4 501.1,662.4 501.1,162.6 '/>
		<polygon fill = 'rgb( 31, 120, 180)' fill-opacity = '0.250000' points = '501.1,162.6 501.1,662.4 502.9,662.4 502.9,165.0 '/>
		<polygon fill = 'rgb( 31, 120, 180)' fill-opacity = '0.250000' points = '502.9,165.0 502.9,662.4 504.8,662.4 504.8,167.4 '/>
		<polygon fill = 'rgb( 31, 120, 180)' fill-opacity = '0.250000' points = '504.8,167.4 504.8,662.4 506.7,662.4 506.7,169.9 '/>
		<polygon fill = 'rgb( 31, 120, 180)' fill-opacity = '0.250000' points = '506.7,169.9 506.7,662.4 508.6,662.4 508.6,172.3 '/>
		<polygon fill = 'rgb( 31, 120, 180)' fill-opacity = '0.250000' points = '508.6,172.3 508.6,662.4 510.4,662.4 510.4,174.7 '/>
		<polygon fill = 'rgb( 31, 120, 180)' fill-opacity = '0.250000' points = '510.4,174.7 510.4,662.4 512.3,662.4 512.3,177.2 '/>
		<polygon fill = 'rgb( 31, 120, 180)' fill-opacity = '0.250000' points = '512.3,177.2 512.3,662.4 514.2,662.4 514.2,179.7 '/>
		<polygon fill = 'rgb( 31, 120, 180)' fill-opacity = '0.250000' points = '514.2,179.7 514.2,662.4 516.0,662.4 516.0,182.2 '/>
		<polygon fill = 'rgb( 31, 120, 180)' fill-opacity = '0.250000' points = '516.0,182.2 516.0,662.4 517.9,662.4 517.9,184.7 '/>
		<polygon fill = 'rgb( 31, 120, 180)' fill-opacity = '0.250000' points = '517.9,184.7 517.9,662.4 519.8,662.4 519.8,187.2 '/>
		<polygon fill = 'rgb( 31, 120, 180)' fill-opacity = '0.250000' points = '519.8,187.2 519.8,662.4 521.6,662.4 521.6,189.7 '/>
		<polygon fill = 'rgb( 31, 120, 180)' fill-opacity = '0.250000' points = '521.6,189.7 521.6,662.4 523.5,662.4 523.5,192.3 '/>
		<polygon fill = 'rgb( 31, 120, 180)' fill-opacity = '0.250000' points = '523.5,192.3 523.5,662.4 525.4,662.4 525.4,194.9 '/>
		<polygon fill = 'rgb( 31, 120, 180)' fill-opacity = '0.250000' points = '525.4,194.9 525.4,662.4 527.3,662.4 527.3,197.4 '/>
		<polygon fill = 'rgb( 31, 120, 180)' fill-opacity = '0.250000' points = '527.3,197.4 527.3,662.4 529.1,662.4 529.1,200.1 '/>
		<polygon fill = 'rgb( 31, 120, 180)' fill-opacity = '0.250000' points = '529.1,200.1 529.1,662.4 531.0,662.4 531.0,202.7 '/>
		<polygon fill = 'rgb( 31, 120, 180)' fill-opacity = '0.250000' points = '531.0,202.7 531.0,662.4 532.9,662.4 532.9,205.3 '/>
		<polygon fill = 'rgb( 31, 120, 180)' fill-opacity = '0.250000' points = '532.9,205.3 532.9,662.4 534.7,662.4 534.7,208.0 '/>
		<polygon fill = 'rgb( 31, 120, 180)' fill-opacity = '0.250000' points = '534.7,208.0 534.7,662.4 536.6,662.4 536.6,210.7 '/>
		<polygon fill = 'rgb( 31, 120, 180)' fill-opacity = '0.250000' points = '536.6,210.7 536.6,662.4 538.5,662.4 538.5,213.5 '/>
		<polygon fill = 'rgb( 31, 120, 180)' fill-opacity = '0.250000' points = '538.5,213.5 538.5,662.4 540.4,662.4 540.4,216.2 '/>
		<polygon fill = 'rgb( 31, 120, 180)' fill-opacity = '0.250000' points = '540.4,216.2 540.4,662.4 542.2,662.4 542.2,219.0 '/>
		<polygon fill = 'rgb( 31, 120, 180)' fill-opacity = '0.250000' points = '542.2,219.0 542.2,662.4 544.1,662.4 544.1,221.9 '/>
		<polygon fill = 'rgb( 31, 120, 180)' fill-opacity = '0.250000' points = '544.1,221.9 544.1,662.4 546.0,662.4 546.0,224.7 '/>
		<polygon fill = 'rgb( 31, 120, 180)' fill-opacity = '0.250000' points = '546.0,224.7 546.0,662.4 547.8,662.4 547.8,227.6 '/>
		<polygon fill = 'rgb( 31, 120, 180)' fill-opacity = '0.250000' points = '547.8,227.6 547.8,662.4 549.7,662.4 549.7,230.6 '/>
		<polygon fill = 'rgb( 31, 120, 180)' fill-opacity = '0.250000' points = '549.7,230.6 549.7,662.4 551.6,662.4 551.6,233.5 '/>
		<polygon fill = 'rgb( 31, 120, 180)' fill-opacity = '0.250000' points = '551.6,233.5 551.6,662.4 553.4,662.4 553.4,236.5 '/>
		<polygon fill = 'rgb( 31, 120, 180)' fill-opacity = '0.250000' points = '553.4,236.5 553.4,662.4 555.3,662.4 555.3,239.5 '/>
		<polygon fill = 'rgb( 31, 120, 180)' fill-opacity = '0.250000' points = '555.3,239.5 555.3,662.4 557.2,662.4 557.2,242.6 '/>
		<polygon fill = 'rgb( 31, 120, 180)' fill-opacity = '0.250000' points = '557.2,242.6 557.2,662.4 559.1,662.4 559.1,245.6 '/>
		<polygon fill = 'rgb( 31, 120, 180)' fill-opacity = '0.250000' points = '559.1,245.6 559.1,662.4 560.9,662.4 560.9,248.7 '/>
		<polygon fill = 'rgb( 31, 120, 180)' fill-opacity = '0.250000' points = '560.9,248.7 560.9,662.4 562.8,662.4 562.8,251.8 '/>
		<polygon fill = 'rgb( 31, 120, 180)' fill-opacity = '0.250000' points = '562.8,251.8 562.8,662.4 564.7,662.4 564.7,254.9 '/>
		<polygon fill = 'rgb( 31, 120, 180)' fill-opacity = '0.250000' points = '564.7,254.9 564.7,662.4 566.5,662.4 566.5,258.0 '/>
		<polygon fill = 'rgb( 31, 120, 180)' fill-opacity = '0.250000' points = '566.5,258.0 566.5,662.4 568.4,662.4 568.4,261.1 '/>
		<polygon fill = 'rgb( 31, 120, 180)' fill-opacity = '0.250000' points = '568.4,261.1 568.4,662.4 570.3,662.4 570.3,264.2 '/>
		<polygon fill = 'rgb( 31, 120, 180)' fill-opacity = '0.250000' points = '570.3,264.2 570.3,662.4 572.2,662.4 572.2,267.3 '/>
		<polygon fill = 'rgb( 31, 120, 180)' fill-opacity = '0.250000' points = '572.2,267.3 572.2,662.4 574.0,662.4 574.0,270.4 '/>
		<polygon fill = 'rgb( 31, 120, 180)' fill-opacity = '0.250000' points = '574.0,270.4 574.0,662.4 575.9,662.4 575.9,273.5 '/>
		<polygon fill = 'rgb( 31, 120, 180)' fill-opacity = '0.250000' points = '575.9,273.5 575.9,662.4 577.8,662.4 577.8,276.6 '/>
		<polygon fill = 'rgb( 31, 120, 180)' fill-opacity = '0.250000' points = '577.8,276.6 577.8,662.4 579.6,662.4 579.6,279.7 '/>
		<polygon fill = 'rgb( 31, 120, 180)' fill-opacity = '0.250000' points = '579.6,279.7 579.6,662.4 581.5,662.4 581.5,282.8 '/>
		<polygon fill = 'rgb( 31, 120, 180)' fill-opacity = '0.250000' points = '581.5,282.8 581.5,662.4 583.4,662.4 583.4,285.9 '/>
		<polygon fill = 'rgb( 31, 120, 180)' fill-opacity = '0.250000' points = '583.4,285.9 583.4,662.4 585.2,662.4 585.2,288.9 '/>
		<polygon fill = 'rgb( 31, 120, 180)' fill-opacity = '0.250000' points = '585.2,288.9 585.2,662.4 587.1,662.4 587.1,292.0 '/>
		<polygon fill = 'rgb( 31, 120, 180)' fill-opacity = '0.250000' points = '587.1,292.0 587.1,662.4 589.0,662.4 589.0,295.1 '/>
		<polygon fill = 'rgb( 31, 120, 180)' fill-opacity = '0.250000' points = '589.0,295.1 589.0,662.4 590.9,662.4 590.9,298.2 '/>
		<polygon fill = 'rgb( 31, 120, 180)' fill-opacity = '0.250000' points = '590.9,298.2 590.9,662.4 592.7,662.4 592.7,301.3 '/>
		<polygon fill = 'rgb( 31, 120, 180)' fill-opacity = '0.250000' points = '592.7,301.3 592.7,662.4 594.6,662.4 594.6,304.3 '/>
		<polygon fill = 'rgb( 31, 120, 180)' fill-opacity = '0.250000' points = '594.6,304.3 594.6,662.4 596.5,662.4 596.5,307.4 '/>
		<polygon fill = 'rgb( 31, 120, 180)' fill-opacity = '0.250000' points = '596.5,307.4 596.5,662.4 598.3,662.4 598.3,310.5 '/>
		<polygon fill = 'rgb( 31, 120, 180)' fill-opacity = '0.250000' points = '598.3,310.5 598.3,662.4 600.2,662.4 600.2,313.5 '/>
		<polygon fill = 'rgb( 31, 120, 180)' fill-opacity = '0.250000' points = '600.2,313.5 600.2,662.4 602.1,662.4 602.1,316.6 '/>
		<polygon fill = 'rgb( 31, 120, 180)' fill-opacity = '0.250000' points = '602.1,316.6 602.1,662.4 604.0,662.4 604.0,319.6 '/>
		<polygon fill = 'rgb( 31, 120, 180)' fill-opacity = '0.250000' points = '604.0,319.6 604.0,662.4 605.8,662.4 605.8,322.6 '/>
		<polygon fill = 'rgb( 31, 120, 180)' fill-opacity = '0.250000' points = '605.8,322.6 605.8,662.4 607.7,662.4 607.7,325.6 '/>
		<polygon fill = 'rgb( 31, 120, 180)' fill-opacity = '0.250000' points = '607.7,325.6 607.7,662.4 609.6,662.4 609.6,328.5 '/>
		<polygon fill = 'rgb( 31, 120, 180)' fill-opacity = '0.250000' points = '609.6,328.5 609.6,662.4 611.4,662.4 611.4,331.4 '/>
		<polygon fill = 'rgb( 31, 120, 180)' fill-opacity = '0.250000' points = '611.4,331.4 611.4,662.4 613.3,662.4 613.3,334.3 '/>
		<polygon fill = 'rgb( 31, 120, 180)' fill-opacity = '0.250000' points = '613.3,334.3 613.3,662.4 615.2,662.4 615.2,337.1 '/>
		<polygon fill = 'rgb( 31, 120, 180)' fill-opacity = '0.250000' points = '615.2,337.1 615.2,662.4 617.0,662.4 617.0,339.9 '/>
		<polygon fill = 'rgb( 31, 120, 180)' fill-opacity = '0.250000' points = '617.0,339.9 617.0,662.4 618.9,662.4 618.9,342.7 '/>
		<polygon fill = 'rgb( 31, 120, 180)' fill-opacity = '0.250000' points = '618.9,342.7 618.9,662.4 620.8,662.4 620.8,345.4 '/>
		<polygon fill = 'rgb( 31, 120, 180)' fill-opacity = '0.250000' points = '620.8,345.4 620.8,662.4 622.7,662.4 622.7,348.0 '/>
		<polygon fill = 'rgb( 31, 120, 180)' fill-opacity = '0.250000' points = '622.7,348.0 622.7,662.4 624.5,662.4 624.5,350.7 '/>
		<polygon fill = 'rgb( 31, 120, 180)' fill-opacity = '0.250000' points = '624.5,350.7 624.5,662.4 626.4,662.4 626.4,353.2 '/>
		<polygon fill = 'rgb( 31, 120, 180)' fill-opacity = '0.250000' points = '626.4,353.2 626.4,662.4 628.3,662.4 628.3,355.7 '/>
		<polygon fill = 'rgb( 31, 120, 180)' fill-opacity = '0.250000' points = '628.3,355.7 628.3,662.4 630.1,662.4 630.1,358.2 '/>
		<polygon fill = 'rgb( 31, 120, 180)' fill-opacity = '0.250000' points = '630.1,358.2 630.1,662.4 632.0,662.4 632.0,360.7 '/>
		<polygon fill = 'rgb( 31, 120, 180)' fill-opacity = '0.250000' points = '632.0,360.7 632.0,662.4 633.9,662.4 633.9,363.1 '/>
		<polygon fill = 'rgb( 31, 120, 180)' fill-opacity = '0.250000' points = '633.9,363.1 633.9,662.4 635.8,662.4 635.8,365.5 '/>
		<polygon fill = 'rgb( 31, 120, 180)' fill-opacity = '0.250000' points = '635.8,365.5 635.8,662.4 637.6,662.4 637.6,367.9 '/>
		<polygon fill = 'rgb( 31, 120, 180)' fill-opacity = '0.250000' points = '637.6,367.9 637.6,662.4 639.5,662.4 639.5,370.2 '/>
		<polygon fill = 'rgb( 31, 120, 180)' fill-opacity = '0.250000' points = '639.5,370.2 639.5,662.4 641.4,662.4 641.4,372.6 '/>
		<polygon fill = 'rgb( 31, 120, 180)' fill-opacity = '0.250000' points = '641.4,372.6 641.4,662.4 643.2,662.4 643.2,374.9 '/>
		<polygon fill = 'rgb( 31, 120, 180)' fill-opacity = '0.250000' points = '643.2,374.9 643.2,662.4 645.1,662.4 645.1,377.3 '/>
		<polygon fill = 'rgb( 31, 120, 180)' fill-opacity = '0.250000' points = '645.1,377.3 645.1,662.4 647.0,662.4 647.0,379.7 '/>
		<polygon fill = 'rgb( 31, 120, 180)' fill-opacity = '0.250000' points = '647.0,379.7 647.0,662.4 648.8,662.4 648.8,382.0 '/>
		<polygon fill = 'rgb( 31, 120, 180)' fill-opacity = '0.250000' points = '648.8,382.0 648.8,662.4 650.7,662.4 650.7,384.4 '/>
		<polygon fill = 'rgb( 31, 120, 180)' fill-opacity = '0.250000' points = '650.7,384.4 650.7,662.4 652.6,662.4 652.6,386.8 '/>
		<polygon fill = 'rgb( 31, 120, 180)' fill-opacity = '0.250000' points = '652.6,386.8 652.6,662.4 654.5,662.4 654.5,389.2 '/>
		<polygon fill = 'rgb( 31, 120, 180)' fill-opacity = '0.250000' points = '654.5,389.2 654.5,662.4 656.3,662.4 656.3,391.7 '/>
		<polygon fill = 'rgb( 31, 120, 180)' fill-opacity = '0.250000' points = '656.3,391.7 656.3,662.4 658.2,662.4 658.2,394.1 '/>
		<polygon fill = 'rgb( 31, 120, 180)' fill-opacity = '0.250000' points = '658.2,394.1 658.2,662.4 660.1,662.4 660.1,396.6 '/>
		<polygon fill = 'rgb( 31, 120, 180)' fill-opacity = '0.250000' points = '660.1,396.6 660.1,662.4 661.9,662.4 661.9,399.1 '/>
		<polygon fill = 'rgb( 31, 120, 180)' fill-opacity = '0.250000' points = '661.9,399.1 661.9,662.4 663.8,662.4 663.8,401.6 '/>
		<polygon fill = 'rgb( 31, 120, 180)' fill-opacity = '0.250000' points = '663.8,401.6 663.8,662.4 665.7,662.4 665.7,404.2 '/>
		<polygon fill = 'rgb( 31, 120, 180)' fill-opacity = '0.250000' points = '665.7,404.2 665.7,662.4 667.5,662.4 667.5,406.7 '/>
		<polygon fill = 'rgb( 31, 120, 180)' fill-opacity = '0.250000' points = '667.5,406.7 667.5,662.4 669.4,662.4 669.4,409.3 '/>
		<polygon fill = 'rgb( 31, 120, 180)' fill-opacity = '0.250000' points = '669.4,409.3 669.4,662.4 671.3,662.4 671.3,411.8 '/>
		<polygon fill = 'rgb( 31, 120, 180)' fill-opacity = '0.250000' points = '671.3,411.8 671.3,662.4 673.2,662.4 673.2,414.4 '/>
		<polygon fill = 'rgb( 31, 120, 180)' fill-opacity = '0.250000' points = '673.2,414.4 673.2,662.4 675.0,662.4 675.0,416.9 '/>
		<polygon fill = 'rgb( 31, 120, 180)' fill-opacity = '0.250000' points = '675.0,416.9 675.0,662.4 676.9,662.4 676.9,419.5 '/>
		<polygon fill = 'rgb( 31, 120, 180)' fill-opacity = '0.250000' points = '676.9,419.5 676.9,662.4 678.8,662.4 678.8,422.0 '/>
		<polygon fill = 'rgb( 31, 120, 180)' fill-opacity = '0.250000' points = '678.8,422.0 678.8,662.4 680.6,662.4 680.6,424.6 '/>
		<polygon fill = 'rgb( 31, 120, 180)' fill-opacity = '0.250000' points = '680.6,424.6 680.6,662.4 682.5,662.4 682.5,427.1 '/>
		<polygon fill = 'rgb( 31, 120, 180)' fill-opacity = '0.250000' points = '682.5,427.1 682.5,662.4 684.4,662.4 684.4,429.6 '/>
		<polygon fill = 'rgb( 31, 120, 180)' fill-opacity = '0.250000' points = '684.4,429.6 684.4,662.4 686.3,662.4 686.3,432.1 '/>
		<polygon fill = 'rgb( 31, 120, 180)' fill-opacity = '0.250000' points = '686.3,432.1 686.3,662.4 688.1,662.4 688.1,434.6 '/>
		<polygon fill = 'rgb( 31, 120, 180)' fill-opacity = '0.250000' points = '688.1,434.6 688.1,662.4 690.0,662.4 690.0,437.0 '/>
		<polygon fill = 'rgb( 31, 120, 180)' fill-opacity = '0.250000' points = '690.0,437.0 690.0,662.4 691.9,662.4 691.9,439.5 '/>
		<polygon fill = 'rgb( 31, 120, 180)' fill-opacity = '0.250000' points = '691.9,439.5 691.9,662.4 693.7,662.4 693.7,441.9 '/>
		<polygon fill = 'rgb( 31, 120, 180)' fill-opacity = '0.250000' points = '693.7,441.9 693.7,662.4 695.6,662.4 695.6,444.3 '/>
		<polygon fill = 'rgb( 31, 120, 180)' fill-opacity = '0.250000' points = '695.6,444.3 695.6,662.4 697.5,662.4 697.5,446.7 '/>
		<polygon fill = 'rgb( 31, 120, 180)' fill-opacity = '0.250000' points = '697.5,446.7 697.5,662.4 699.3,662.4 699.3,449.1 '/>
		<polygon fill = 'rgb( 31, 120, 180)' fill-opacity = '0.250000' points = '699.3,449.1 699.3,662.4 701.2,662.4 701.2,451.5 '/>
		<polygon fill = 'rgb( 31, 120, 180)' fill-opacity = '0.250000' points = '701.2,451.5 701.2,662.4 703.1,662.4 703.1,453.8 '/>
		<polygon fill = 'rgb( 31, 120, 180)' fill-opacity = '0.250000' points = '703.1,453.8 703.1,662.4 705.0,662.4 705.0,456.1 '/>
		<polygon fill = 'rgb( 31, 120, 180)' fill-opacity = '0.250000' points = '705.0,456.1 705.0,662.4 706.8,662.4 706.8,458.5 '/>
		<polygon fill = 'rgb( 31, 120, 180)' fill-opacity = '0.250000' points = '706.8,458.5 706.8,662.4 708.7,662.4 708.7,460.8 '/>
		<polygon fill = 'rgb( 31, 120, 180)' fill-opacity = '0.250000' points = '708.7,460.8 708.7,662.4 710.6,662.4 710.6,463.1 '/>
		<polygon fill = 'rgb( 31, 120, 180)' fill-opacity = '0.250000' points = '710.6,463.1 710.6,662.4 712.4,662.4 712.4,465.3 '/>
		<polygon fill = 'rgb( 31, 120, 180)' fill-opacity = '0.250000' points = '712.4,465.3 712.4,662.4 714.3,662.4 714.3,467.6 '/>
		<polygon fill = 'rgb( 31, 120, 180)' fill-opacity = '0.250000' points = '714.3,467.6 714.3,662.4 716.2,662.4 716.2,469.8 '/>
		<polygon fill = 'rgb( 31, 120, 180)' fill-opacity = '0.250000' points = '716.2,469.8 716.2,662.4 718.1,662.4 718.1,472.1 '/>
		<polygon fill = 'rgb( 31, 120, 180)' fill-opacity = '0.250000' points = '718.1,472.1 718.1,662.4 719.9,662.4 719.9,474.2 '/>
		<polygon fill = 'rgb( 31, 120, 180)' fill-opacity = '0.250000' points = '719.9,474.2 719.9,662.4 721.8,662.4 721.8,476.4 '/>
		<polygon fill = 'rgb( 31, 120, 180)' fill-opacity = '0.250000' points = '721.8,476.4 721.8,662.4 723.7,662.4 723.7,478.5 '/>
		<polygon fill = 'rgb( 31, 120, 180)' fill-opacity = '0.250000' points = '723.7,478.5 723.7,662.4 725.5,662.4 725.5,480.6 '/>
		<polygon fill = 'rgb( 31, 120, 180)' fill-opacity = '0.250000' points = '725.5,480.6 725.5,662.4 727.4,662.4 727.4,482.7 '/>
		<polygon fill = 'rgb( 31, 120, 180)' fill-opacity = '0.250000' points = '727.4,482.7 727.4,662.4 729.3,662.4 729.3,484.7 '/>
		<polygon fill = 'rgb( 31, 120, 180)' fill-opacity = '0.250000' points = '729.3,484.7 729.3,662.4 731.1,662.4 731.1,486.7 '/>
		<polygon fill = 'rgb( 31, 120, 180)' fill-opacity = '0.250000' points = '731.1,486.7 731.1,662.4 733.0,662.4 733.0,488.6 '/>
		<polygon fill = 'rgb( 31, 120, 180)' fill-opacity = '0.250000' points = '733.0,488.6 733.0,662.4 734.9,662.4 734.9,490.5 '/>
		<polygon fill = 'rgb( 31, 120, 180)' fill-opacity = '0.250000' points = '734.9,490.5 734.9,662.4 736.8,662.4 736.8,492.4 '/>
		<polygon fill = 'rgb( 31, 120, 180)' fill-opacity = '0.250000' points = '736.8,492.4 736.8,662.4 738.6,662.4 738.6,494.2 '/>
		<polygon fill = 'rgb( 31, 120, 180)' fill-opacity = '0.250000' points = '738.6,494.2 738.6,662.4 740.5,662.4 740.5,496.0 '/>
		<polygon fill = 'rgb( 31, 120, 180)' fill-opacity = '0.250000' points = '740.5,496.0 740.5,662.4 742.4,662.4 742.4,497.7 '/>
		<polygon fill = 'rgb( 31, 120, 180)' fill-opacity = '0.250000' points = '742.4,497.7 742.4,662.4 744.2,662.4 744.2,499.5 '/>
		<polygon fill = 'rgb( 31, 120, 180)' fill-opacity = '0.250000' points = '744.2,499.5 744.2,662.4 746.1,662.4 746.1,501.1 '/>
		<polygon fill = 'rgb( 31, 120, 180)' fill-opacity = '0.250000' points = '746.1,501.1 746.1,662.4 748.0,662.4 748.0,502.8 '/>
		<polygon fill = 'rgb( 31, 120, 180)' fill-opacity = '0.250000' points = '748.0,502.8 748.0,662.4 749.9,662.4 749.9,504.4 '/>
		<polygon fill = 'rgb( 31, 120, 180)' fill-opacity = '0.250000' points = '749.9,504.4 749.9,662.4 751.7,662.4 751.7,506.0 '/>
		<polygon fill = 'rgb( 31, 120, 180)' fill-opacity = '0.250000' points = '751.7,506.0 751.7,662.4 753.6,662.4 753.6,507.6 '/>
		<polygon fill = 'rgb( 31, 120, 180)' fill-opacity = '0.250000' points = '753.6,507.6 753.6,662.4 755.5,662.4 755.5,509.1 '/>
		<polygon fill = 'rgb( 31, 120, 180)' fill-opacity = '0.250000' points = '755.5,509.1 755.5,662.4 757.3,662.4 757.3,510.6 '/>
		<polygon fill = 'rgb( 31, 120, 180)' fill-opacity = '0.250000' points = '757.3,510.6 757.3,662.4 759.2,662.4 759.2,512.1 '/>
		<polygon fill = 'rgb( 31, 120, 180)' fill-opacity = '0.250000' points = '759.2,512.1 759.2,662.4 761.1,662.4 761.1,513.6 '/>
		<polygon fill = 'rgb( 31, 120, 180)' fill-opacity = '0.250000' points = '761.1,513.6 761.1,662.4 762.9,662.4 762.9,515.1 '/>
		<polygon fill = 'rgb( 31, 120, 180)' fill-opacity = '0.250000' points = '762.9,515.1 762.9,662.4 764.8,662.4 764.8,516.6 '/>
		<polygon fill = 'rgb( 31, 120, 180)' fill-opacity = '0.250000' points = '764.8,516.6 764.8,662.4 766.7,662.4 766.7,518.0 '/>
		<polygon fill = 'rgb( 31, 120, 180)' fill-opacity = '0.250000' points = '766.7,518.0 766.7,662.4 768.6,662.4 768.6,519.5 '/>
		<polygon fill = 'rgb( 31, 120, 180)' fill-opacity = '0.250000' points = '768.6,519.5 768.6,662.4 770.4,662.4 770.4,520.9 '/>
		<polygon fill = 'rgb( 31, 120, 180)' fill-opacity = '0.250000' points = '770.4,520.9 770.4,662.4 772.3,662.4 772.3,522.3 '/>
		<polygon fill = 'rgb( 31, 120, 180)' fill-opacity = '0.250000' points = '772.3,522.3 772.3,662.4 774.2,662.4 774.2,523.8 '/>
		<polygon fill = 'rgb( 31, 120, 180)' fill-opacity = '0.250000' points = '774.2,523.8 774.2,662.4 776.0,662.4 776.0,525.2 '/>
		<polygon fill = 'rgb( 31, 120, 180)' fill-opacity = '0.250000' points = '776.0,525.2 776.0,662.4 777.9,662.4 777.9,526.6 '/>
		<polygon fill = 'rgb( 31, 120, 180)' fill-opacity = '0.250000' points = '777.9,526.6 777.9,662.4 779.8,662.4 779.8,528.0 '/>
		<polygon fill = 'rgb( 31, 120, 180)' fill-opacity = '0.250000' points = '779.8,528.0 779.8,662.4 781.7,662.4 781.7,529.4 '/>
		<polygon fill = 'rgb( 31, 120, 180)' fill-opacity = '0.250000' points = '781.7,529.4 781.7,662.4 783.5,662.4 783.5,530.8 '/>
		<polygon fill = 'rgb( 31, 120, 180)' fill-opacity = '0.250000' points = '783.5,530.8 783.5,662.4 785.4,662.4 785.4,532.1 '/>
		<polygon fill = 'rgb( 31, 120, 180)' fill-opacity = '0.250000' points = '785.4,532.1 785.4,662.4 787.3,662.4 787.3,533.5 '/>
		<polygon fill = 'rgb( 31, 120, 180)' fill-opacity = '0.250000' points = '787.3,533.5 787.3,662.4 789.1,662.4 789.1,534.9 '/>
		<polygon fill = 'rgb( 31, 120, 180)' fill-opacity = '0.250000' points = '789.1,534.9 789.1,662.4 791.0,662.4 791.0,536.2 '/>
		<polygon fill = 'rgb( 31, 120, 180)' fill-opacity = '0.250000' points = '791.0,536.2 791.0,662.4 792.9,662.4 792.9,537.5 '/>
		<polygon fill = 'rgb( 31, 120, 180)' fill-opacity = '0.250000' points = '792.9,537.5 792.9,662.4 794.7,662.4 794.7,538.8 '/>
		<polygon fill = 'rgb( 31, 120, 180)' fill-opacity = '0.250000' points = '794.7,538.8 794.7,662.4 796.6,662.4 796.6,540.1 '/>
		<polygon fill = 'rgb( 31, 120, 180)' fill-opacity = '0.250000' points = '796.6,540.1 796.6,662.4 798.5,662.4 798.5,541.4 '/>
		<polygon fill = 'rgb( 31, 120, 180)' fill-opacity = '0.250000' points = '798.5,541.4 798.5,662.4 800.4,662.4 800.4,542.7 '/>
		<polygon fill = 'rgb( 31, 120, 180)' fill-opacity = '0.250000' points = '800.4,542.7 800.4,662.4 802.2,662.4 802.2,543.9 '/>
		<polygon fill = 'rgb( 31, 120, 180)' fill-opacity = '0.250000' points = '802.2,543.9 802.2,662.4 804.1,662.4 804.1,545.1 '/>
		<polygon fill = 'rgb( 31, 120, 180)' fill-opacity = '0.250000' points = '804.1,545.1 804.1,662.4 806.0,662.4 806.0,546.3 '/>
		<polygon fill = 'rgb( 31, 120, 180)' fill-opacity = '0.250000' points = '806.0,546.3 806.0,662.4 807.8,662.4 807.8,547.5 '/>
		<polygon fill = 'rgb( 31, 120, 180)' fill-opacity = '0.250000' points = '807.8,547.5 807.8,662.4 809.7,662.4 809.7,548.7 '/>
		<polygon fill = 'rgb( 31, 120, 180)' fill-opacity = '0.250000' points = '809.7,548.7 809.7,662.4 811.6,662.4 811.6,549.8 '/>
		<polygon fill = 'rgb( 31, 120, 180)' fill-opacity = '0.250000' points = '811.6,549.8 811.6,662.4 813.5,662.4 813.5,550.9 '/>
		<polygon fill = 'rgb( 31, 120, 180)' fill-opacity = '0.250000' points = '813.5,550.9 813.5,662.4 815.3,662.4 815.3,552.0 '/>
		<polygon fill = 'rgb( 31, 120, 180)' fill-opacity = '0.250000' points = '815.3,552.0 815.3,662.4 817.2,662.4 817.2,553.1 '/>
		<polygon fill = 'rgb( 31, 120, 180)' fill-opacity = '0.250000' points = '817.2,553.1 817.2,662.4 819.1,662.4 819.1,554.2 '/>
		<polygon fill = 'rgb( 31, 120, 180)' fill-opacity = '0.250000' points = '819.1,554.2 819.1,662.4 820.9,662.4 820.9,555.3 '/>
		<polygon fill = 'rgb( 31, 120, 180)' fill-opacity = '0.250000' points = '820.9,555.3 820.9,662.4 822.8,662.4 822.8,556.4 '/>
		<polygon fill = 'rgb( 31, 120, 180)' fill-opacity = '0.250000' points = '822.8,556.4 822.8,662.4 824.7,662.4 824.7,557.4 '/>
		<polygon fill = 'rgb( 31, 120, 180)' fill-opacity = '0.250000' points = '824.7,557.4 824.7,662.4 826.5,662.4 826.5,558.5 '/>
		<polygon fill = 'rgb( 31, 120, 180)' fill-opacity = '0.250000' points = '826.5,558.5 826.5,662.4 828.4,662.4 828.4,559.6 '/>
		<polygon fill = 'rgb( 31, 120, 180)' fill-opacity = '0.250000' points = '828.4,559.6 828.4,662.4 830.3,662.4 830.3,560.6 '/>
		<polygon fill = 'rgb( 31, 120, 180)' fill-opacity = '0.250000' points = '830.3,560.6 830.3,662.4 832.2,662.4 832.2,561.7 '/>
		<polygon fill = 'rgb( 31, 120, 180)' fill-opacity = '0.250000' points = '832.2,561.7 832.2,662.4 834.0,662.4 834.0,562.8 '/>
		<polygon fill = 'rgb( 31, 120, 180)' fill-opacity = '0.250000' points = '834.0,562.8 834.0,662.4 835.9,662.4 835.9,563.9 '/>
		<polygon fill = 'rgb( 31, 120, 180)' fill-opacity = '0.250000' points = '835.9,563.9 835.9,662.4 837.8,662.4 837.8,564.9 '/>
		<polygon fill = 'rgb( 31, 120, 180)' fill-opacity = '0.250000' points = '837.8,564.9 837.8,662.4 839.6,662.4 839.6,566.0 '/>
		<polygon fill = 'rgb( 31, 120, 180)' fill-opacity = '0.250000' points = '839.6,566.0 839.6,662.4 841.5,662.4 841.5,567.1 '/>
		<polygon fill = 'rgb( 31, 120, 180)' fill-opacity = '0.250000' points = '841.5,567.1 841.5,662.4 843.4,662.4 843.4,568.2 '/>
		<polygon fill = 'rgb( 31, 120, 180)' fill-opacity = '0.250000' points = '843.4,568.2 843.4,662.4 845.3,662.4 845.3,569.2 '/>
		<polygon fill = 'rgb( 31, 120, 180)' fill-opacity = '0.250000' points = '845.3,569.2 845.3,662.4 847.1,662.4 847.1,570.3 '/>
		<polygon fill = 'rgb( 31, 120, 180)' fill-opacity = '0.250000' points = '847.1,570.3 847.1,662.4 849.0,662.4 849.0,571.3 '/>
		<polygon fill = 'rgb( 31, 120, 180)' fill-opacity = '0.250000' points = '849.0,571.3 849.0,662.4 850.9,662.4 850.9,572.3 '/>
		<polygon fill = 'rgb( 31, 120, 180)' fill-opacity = '0.250000' points = '850.9,572.3 850.9,662.4 852.7,662.4 852.7,573.4 '/>
		<polygon fill = 'rgb( 31, 120, 180)' fill-opacity = '0.250000' points = '852.7,573.4 852.7,662.4 854.6,662.4 854.6,574.4 '/>
		<polygon fill = 'rgb( 31, 120, 180)' fill-opacity = '0.250000' points = '854.6,574.4 854.6,662.4 856.5,662.4 856.5,575.3 '/>
		<polygon fill = 'rgb( 31, 120, 180)' fill-opacity = '0.250000' points = '856.5,575.3 856.5,662.4 858.3,662.4 858.3,576.3 '/>
		<polygon fill = 'rgb( 31, 120, 180)' fill-opacity = '0.250000' points = '858.3,576.3 858.3,662.4 860.2,662.4 860.2,577.2 '/>
		<polygon fill = 'rgb( 31, 120, 180)' fill-opacity = '0.250000' points = '860.2,577.2 860.2,662.4 862.1,662.4 862.1,578.2 '/>
		<polygon fill = 'rgb( 31, 120, 180)' fill-opacity = '0.250000' points = '862.1,578.2 862.1,662.4 864.0,662.4 864.0,579.1 '/>
		<polygon fill = 'rgb( 31, 120, 180)' fill-opacity = '0.250000' points = '864.0,579.1 864.0,662.4 865.8,662.4 865.8,580.0 '/>
		<polygon fill = 'rgb( 31, 120, 180)' fill-opacity = '0.250000' points = '865.8,580.0 865.8,662.4 867.7,662.4 867.7,580.9 '/>
		<polygon fill = 'rgb( 31, 120, 180)' fill-opacity = '0.250000' points = '867.7,580.9 867.7,662.4 869.6,662.4 869.6,581.8 '/>
		<polygon fill = 'rgb( 31, 120, 180)' fill-opacity = '0.250000' points = '869.6,581.8 869.6,662.4 871.4,662.4 871.4,582.6 '/>
		<polygon fill = 'rgb( 31, 120, 180)' fill-opacity = '0.250000' points = '871.4,582.6 871.4,662.4 873.3,662.4 873.3,583.5 '/>
		<polygon fill = 'rgb( 31, 120, 180)' fill-opacity = '0.250000' points = '873.3,583.5 873.3,662.4 875.2,662.4 875.2,584.4 '/>
		<polygon fill = 'rgb( 31, 120, 180)' fill-opacity = '0.250000' points = '875.2,584.4 875.2,662.4 877.1,662.4 877.1,585.3 '/>
		<polygon fill = 'rgb( 31, 120, 180)' fill-opacity = '0.250000' points = '877.1,585.3 877.1,662.4 878.9,662.4 878.9,586.1 '/>
		<polygon fill = 'rgb( 31, 120, 180)' fill-opacity = '0.250000' points = '878.9,586.1 878.9,662.4 880.8,662.4 880.8,587.0 '/>
		<polygon fill = 'rgb( 31, 120, 180)' fill-opacity = '0.250000' points = '880.8,587.0 880.8,662.4 882.7,662.4 882.7,587.9 '/>
		<polygon fill = 'rgb( 31, 120, 180)' fill-opacity = '0.250000' points = '882.7,587.9 882.7,662.4 884.5,662.4 884.5,588.8 '/>
		<polygon fill = 'rgb( 31, 120, 180)' fill-opacity = '0.250000' points = '884.5,588.8 884.5,662.4 886.4,662.4 886.4,589.7 '/>
		<polygon fill = 'rgb( 31, 120, 180)' fill-opacity = '0.250000' points = '886.4,589.7 886.4,662.4 888.3,662.4 888.3,590.6 '/>
		<polygon fill = 'rgb( 31, 120, 180)' fill-opacity = '0.250000' points = '888.3,590.6 888.3,662.4 890.1,662.4 890.1,591.6 '/>
		<polygon fill = 'rgb( 31, 120, 180)' fill-opacity = '0.250000' points = '890.1,591.6 890.1,662.4 892.0,662.4 892.0,592.5 '/>
		<polygon fill = 'rgb( 31, 120, 180)' fill-opacity = '0.250000' points = '892.0,592.5 892.0,662.4 893.9,662.4 893.9,593.4 '/>
		<polygon fill = 'rgb( 31, 120, 180)' fill-opacity = '0.250000' points = '893.9,593.4 893.9,662.4 895.8,662.4 895.8,594.4 '/>
		<polygon fill = 'rgb( 31, 120, 180)' fill-opacity = '0.250000' points = '895.8,594.4 895.8,662.4 897.6,662.4 897.6,595.4 '/>
		<polygon fill = 'rgb( 31, 120, 180)' fill-opacity = '0.250000' points = '897.6,595.4 897.6,662.4 899.5,662.4 899.5,596.4 '/>
		<polygon fill = 'rgb( 31, 120, 180)' fill-opacity = '0.250000' points = '899.5,596.4 899.5,662.4 901.4,662.4 901.4,597.3 '/>
		<polygon fill = 'rgb( 31, 120, 180)' fill-opacity = '0.250000' points = '901.4,597.3 901.4,662.4 903.2,662.4 903.2,598.3 '/>
		<polygon fill = 'rgb( 31, 120, 180)' fill-opacity = '0.250000' points = '903.2,598.3 903.2,662.4 905.1,662.4 905.1,599.3 '/>
		<polygon fill = 'rgb( 31, 120, 180)' fill-opacity = '0.250000' points = '905.1,599.3 905.1,662.4 907.0,662.4 907.0,600.3 '/>
		<polygon fill = 'rgb( 31, 120, 180)' fill-opacity = '0.250000' points = '907.0,600.3 907.0,662.4 908.8,662.4 908.8,601.3 '/>
		<polygon fill = 'rgb( 31, 120, 180)' fill-opacity = '0.250000' points = '908.8,601.3 908.8,662.4 910.7,662.4 910.7,602.3 '/>
		<polygon fill = 'rgb( 31, 120, 180)' fill-opacity = '0.250000' points = '910.7,602.3 910.7,662.4 912.6,662.4 912.6,603.3 '/>
		<polygon fill = 'rgb( 31, 120, 180)' fill-opacity = '0.250000' points = '912.6,603.3 912.6,662.4 914.5,662.4 914.5,604.3 '/>
		<polygon fill = 'rgb( 31, 120, 180)' fill-opacity = '0.250000' points = '914.5,604.3 914.5,662.4 916.3,662.4 916.3,605.2 '/>
		<polygon fill = 'rgb( 31, 120, 180)' fill-opacity = '0.250000' points = '916.3,605.2 916.3,662.4 918.2,662.4 918.2,606.2 '/>
		<polygon fill = 'rgb( 31, 120, 180)' fill-opacity = '0.250000' points = '918.2,606.2 918.2,662.4 920.1,662.4 920.1,607.2 '/>
		<polygon fill = 'rgb( 31, 120, 180)' fill-opacity = '0.250000' points = '920.1,607.2 920.1,662.4 921.9,662.4 921.9,608.1 '/>
		<polygon fill = 'rgb( 31, 120, 180)' fill-opacity = '0.250000' points = '921.9,608.1 921.9,662.4 923.8,662.4 923.8,609.0 '/>
		<polygon fill = 'rgb( 31, 120, 180)' fill-opacity = '0.250000' points = '923.8,609.0 923.8,662.4 925.7,662.4 925.7,609.9 '/>
	</g>
</g>
	</g>
	<g id="gnuplot_plot_3" ><title>Point estimate</title>
<g fill="none" color="white" stroke="rgb( 31, 120, 180)" stroke-width="2.00" stroke-linecap="butt" stroke-linejoin="miter">
</g>
<g fill="none" color="black" stroke="currentColor" stroke-width="2.00" stroke-linecap="butt" stroke-linejoin="miter">
	<g transform="translate(1089.0,103.0)" stroke="none" fill="black" font-family="Helvetica" font-size="12.00"  text-anchor="start">
		<text><tspan font-family="Helvetica" >Point estimate</tspan></text>
	</g>
</g>
<g fill="none" color="black" stroke="currentColor" stroke-width="2.00" stroke-linecap="butt" stroke-linejoin="miter">
	<path stroke='rgb( 31, 120, 180)'  d='M1038.5,99.1 L1080.7,99.1 M449.3,662.4 L449.3,99.9  '/></g>
	</g>
<g fill="none" color="black" stroke="currentColor" stroke-width="2.00" stroke-linecap="butt" stroke-linejoin="miter">
</g>
<g fill="none" color="black" stroke="black" stroke-width="1.00" stroke-linecap="butt" stroke-linejoin="miter">
</g>
<g fill="none" color="black" stroke="currentColor" stroke-width="1.00" stroke-linecap="butt" stroke-linejoin="miter">
	<path stroke='black'  d='M80.2,54.1 L80.2,662.4 L1013.6,662.4 L1013.6,54.1 L80.2,54.1 Z  '/></g>
<g fill="none" color="black" stroke="currentColor" stroke-width="1.00" stroke-linecap="butt" stroke-linejoin="miter">
</g>
</g>
</svg>

