<?xml version="1.0" encoding="utf-8"  standalone="no"?>
<svg 
 viewBox="0 0 1280 720"
 xmlns="http://www.w3.org/2000/svg"
 xmlns:xlink="http://www.w3.org/1999/xlink"
>

<title>Gnuplot</title>
<desc>Produced by GNUPLOT 5.0 patchlevel 6 </desc>

<g id="gnuplot_canvas">

<rect x="0" y="0" width="1280" height="720" fill="none"/>
<defs>

	<circle id='gpDot' r='0.5' stroke-width='0.5'/>
	<path id='gpPt0' stroke-width='0.222' stroke='currentColor' d='M-1,0 h2 M0,-1 v2'/>
	<path id='gpPt1' stroke-width='0.222' stroke='currentColor' d='M-1,-1 L1,1 M1,-1 L-1,1'/>
	<path id='gpPt2' stroke-width='0.222' stroke='currentColor' d='M-1,0 L1,0 M0,-1 L0,1 M-1,-1 L1,1 M-1,1 L1,-1'/>
	<rect id='gpPt3' stroke-width='0.222' stroke='currentColor' x='-1' y='-1' width='2' height='2'/>
	<rect id='gpPt4' stroke-width='0.222' stroke='currentColor' fill='currentColor' x='-1' y='-1' width='2' height='2'/>
	<circle id='gpPt5' stroke-width='0.222' stroke='currentColor' cx='0' cy='0' r='1'/>
	<use xlink:href='#gpPt5' id='gpPt6' fill='currentColor' stroke='none'/>
	<path id='gpPt7' stroke-width='0.222' stroke='currentColor' d='M0,-1.33 L-1.33,0.67 L1.33,0.67 z'/>
	<use xlink:href='#gpPt7' id='gpPt8' fill='currentColor' stroke='none'/>
	<use xlink:href='#gpPt7' id='gpPt9' stroke='currentColor' transform='rotate(180)'/>
	<use xlink:href='#gpPt9' id='gpPt10' fill='currentColor' stroke='none'/>
	<use xlink:href='#gpPt3' id='gpPt11' stroke='currentColor' transform='rotate(45)'/>
	<use xlink:href='#gpPt11' id='gpPt12' fill='currentColor' stroke='none'/>
	<path id='gpPt13' stroke-width='0.222' stroke='currentColor' d='M0,1.330 L1.265,0.411 L0.782,-1.067 L-0.782,-1.076 L-1.265,0.411 z'/>
	<use xlink:href='#gpPt13' id='gpPt14' fill='currentColor' stroke='none'/>
	<filter id='textbox' filterUnits='objectBoundingBox' x='0' y='0' height='1' width='1'>
	  <feFlood flood-color='white' flood-opacity='1' result='bgnd'/>
	  <feComposite in='SourceGraphic' in2='bgnd' operator='atop'/>
	</filter>
	<filter id='greybox' filterUnits='objectBoundingBox' x='0' y='0' height='1' width='1'>
	  <feFlood flood-color='lightgrey' flood-opacity='1' result='grey'/>
	  <feComposite in='SourceGraphic' in2='grey' operator='atop'/>
	</filter>
</defs>
<g fill="none" color="white" stroke="currentColor" stroke-width="1.00" stroke-linecap="butt" stroke-linejoin="miter">
</g>
<g fill="none" color="black" stroke="currentColor" stroke-width="1.00" stroke-linecap="butt" stroke-linejoin="miter">
	<path stroke='black'  d='M63.6,662.4 L72.6,662.4  '/>	<g transform="translate(55.3,666.3)" stroke="none" fill="black" font-family="Helvetica" font-size="12.00"  text-anchor="end">
		<text><tspan font-family="Helvetica" > 0</tspan></text>
	</g>
</g>
<g fill="none" color="black" stroke="currentColor" stroke-width="1.00" stroke-linecap="butt" stroke-linejoin="miter">
	<path stroke='black'  d='M63.6,586.4 L72.6,586.4  '/>	<g transform="translate(55.3,590.3)" stroke="none" fill="black" font-family="Helvetica" font-size="12.00"  text-anchor="end">
		<text><tspan font-family="Helvetica" > 5</tspan></text>
	</g>
</g>
<g fill="none" color="black" stroke="currentColor" stroke-width="1.00" stroke-linecap="butt" stroke-linejoin="miter">
	<path stroke='black'  d='M63.6,510.3 L72.6,510.3  '/>	<g transform="translate(55.3,514.2)" stroke="none" fill="black" font-family="Helvetica" font-size="12.00"  text-anchor="end">
		<text><tspan font-family="Helvetica" > 10</tspan></text>
	</g>
</g>
<g fill="none" color="black" stroke="currentColor" stroke-width="1.00" stroke-linecap="butt" stroke-linejoin="miter">
	<path stroke='black'  d='M63.6,434.3 L72.6,434.3  '/>	<g transform="translate(55.3,438.2)" stroke="none" fill="black" font-family="Helvetica" font-size="12.00"  text-anchor="end">
		<text><tspan font-family="Helvetica" > 15</tspan></text>
	</g>
</g>
<g fill="none" color="black" stroke="currentColor" stroke-width="1.00" stroke-linecap="butt" stroke-linejoin="miter">
	<path stroke='black'  d='M63.6,358.2 L72.6,358.2  '/>	<g transform="translate(55.3,362.1)" stroke="none" fill="black" font-family="Helvetica" font-size="12.00"  text-anchor="end">
		<text><tspan font-family="Helvetica" > 20</tspan></text>
	</g>
</g>
<g fill="none" color="black" stroke="currentColor" stroke-width="1.00" stroke-linecap="butt" stroke-linejoin="miter">
	<path stroke='black'  d='M63.6,282.2 L72.6,282.2  '/>	<g transform="translate(55.3,286.1)" stroke="none" fill="black" font-family="Helvetica" font-size="12.00"  text-anchor="end">
		<text><tspan font-family="Helvetica" > 25</tspan></text>
	</g>
</g>
<g fill="none" color="black" stroke="currentColor" stroke-width="1.00" stroke-linecap="butt" stroke-linejoin="miter">
	<path stroke='black'  d='M63.6,206.2 L72.6,206.2  '/>	<g transform="translate(55.3,210.1)" stroke="none" fill="black" font-family="Helvetica" font-size="12.00"  text-anchor="end">
		<text><tspan font-family="Helvetica" > 30</tspan></text>
	</g>
</g>
<g fill="none" color="black" stroke="currentColor" stroke-width="1.00" stroke-linecap="butt" stroke-linejoin="miter">
	<path stroke='black'  d='M63.6,130.1 L72.6,130.1  '/>	<g transform="translate(55.3,134.0)" stroke="none" fill="black" font-family="Helvetica" font-size="12.00"  text-anchor="end">
		<text><tspan font-family="Helvetica" > 35</tspan></text>
	</g>
</g>
<g fill="none" color="black" stroke="currentColor" stroke-width="1.00" stroke-linecap="butt" stroke-linejoin="miter">
	<path stroke='black'  d='M63.6,54.1 L72.6,54.1  '/>	<g transform="translate(55.3,58.0)" stroke="none" fill="black" font-family="Helvetica" font-size="12.00"  text-anchor="end">
		<text><tspan font-family="Helvetica" > 40</tspan></text>
	</g>
</g>
<g fill="none" color="black" stroke="currentColor" stroke-width="1.00" stroke-linecap="butt" stroke-linejoin="miter">
	<path stroke='black'  d='M113.3,662.4 L113.3,653.4  '/>	<g transform="translate(113.3,684.3)" stroke="none" fill="black" font-family="Helvetica" font-size="12.00"  text-anchor="middle">
		<text><tspan font-family="Helvetica" > 3.44</tspan></text>
	</g>
</g>
<g fill="none" color="black" stroke="currentColor" stroke-width="1.00" stroke-linecap="butt" stroke-linejoin="miter">
	<path stroke='black'  d='M210.8,662.4 L210.8,653.4  '/>	<g transform="translate(210.8,684.3)" stroke="none" fill="black" font-family="Helvetica" font-size="12.00"  text-anchor="middle">
		<text><tspan font-family="Helvetica" > 3.45</tspan></text>
	</g>
</g>
<g fill="none" color="black" stroke="currentColor" stroke-width="1.00" stroke-linecap="butt" stroke-linejoin="miter">
	<path stroke='black'  d='M308.3,662.4 L308.3,653.4  '/>	<g transform="translate(308.3,684.3)" stroke="none" fill="black" font-family="Helvetica" font-size="12.00"  text-anchor="middle">
		<text><tspan font-family="Helvetica" > 3.46</tspan></text>
	</g>
</g>
<g fill="none" color="black" stroke="currentColor" stroke-width="1.00" stroke-linecap="butt" stroke-linejoin="miter">
	<path stroke='black'  d='M405.7,662.4 L405.7,653.4  '/>	<g transform="translate(405.7,684.3)" stroke="none" fill="black" font-family="Helvetica" font-size="12.00"  text-anchor="middle">
		<text><tspan font-family="Helvetica" > 3.47</tspan></text>
	</g>
</g>
<g fill="none" color="black" stroke="currentColor" stroke-width="1.00" stroke-linecap="butt" stroke-linejoin="miter">
	<path stroke='black'  d='M503.2,662.4 L503.2,653.4  '/>	<g transform="translate(503.2,684.3)" stroke="none" fill="black" font-family="Helvetica" font-size="12.00"  text-anchor="middle">
		<text><tspan font-family="Helvetica" > 3.48</tspan></text>
	</g>
</g>
<g fill="none" color="black" stroke="currentColor" stroke-width="1.00" stroke-linecap="butt" stroke-linejoin="miter">
	<path stroke='black'  d='M600.7,662.4 L600.7,653.4  '/>	<g transform="translate(600.7,684.3)" stroke="none" fill="black" font-family="Helvetica" font-size="12.00"  text-anchor="middle">
		<text><tspan font-family="Helvetica" > 3.49</tspan></text>
	</g>
</g>
<g fill="none" color="black" stroke="currentColor" stroke-width="1.00" stroke-linecap="butt" stroke-linejoin="miter">
	<path stroke='black'  d='M698.2,662.4 L698.2,653.4  '/>	<g transform="translate(698.2,684.3)" stroke="none" fill="black" font-family="Helvetica" font-size="12.00"  text-anchor="middle">
		<text><tspan font-family="Helvetica" > 3.5</tspan></text>
	</g>
</g>
<g fill="none" color="black" stroke="currentColor" stroke-width="1.00" stroke-linecap="butt" stroke-linejoin="miter">
	<path stroke='black'  d='M795.6,662.4 L795.6,653.4  '/>	<g transform="translate(795.6,684.3)" stroke="none" fill="black" font-family="Helvetica" font-size="12.00"  text-anchor="middle">
		<text><tspan font-family="Helvetica" > 3.51</tspan></text>
	</g>
</g>
<g fill="none" color="black" stroke="currentColor" stroke-width="1.00" stroke-linecap="butt" stroke-linejoin="miter">
	<path stroke='black'  d='M893.1,662.4 L893.1,653.4  '/>	<g transform="translate(893.1,684.3)" stroke="none" fill="black" font-family="Helvetica" font-size="12.00"  text-anchor="middle">
		<text><tspan font-family="Helvetica" > 3.52</tspan></text>
	</g>
</g>
<g fill="none" color="black" stroke="currentColor" stroke-width="1.00" stroke-linecap="butt" stroke-linejoin="miter">
	<path stroke='black'  d='M979.0,662.4 L970.0,662.4  '/>	<g transform="translate(987.3,666.3)" stroke="none" fill="black" font-family="Helvetica" font-size="12.00"  text-anchor="start">
		<text><tspan font-family="Helvetica" > 0</tspan></text>
	</g>
</g>
<g fill="none" color="black" stroke="currentColor" stroke-width="1.00" stroke-linecap="butt" stroke-linejoin="miter">
	<path stroke='black'  d='M979.0,540.7 L970.0,540.7  '/>	<g transform="translate(987.3,544.6)" stroke="none" fill="black" font-family="Helvetica" font-size="12.00"  text-anchor="start">
		<text><tspan font-family="Helvetica" > 5x10</tspan><tspan font-family="Helvetica"  font-size="9.6" dy="-6.00px">-6</tspan><tspan font-size="12.0" dy="6.00"></tspan></text>
	</g>
</g>
<g fill="none" color="black" stroke="currentColor" stroke-width="1.00" stroke-linecap="butt" stroke-linejoin="miter">
	<path stroke='black'  d='M979.0,419.1 L970.0,419.1  '/>	<g transform="translate(987.3,423.0)" stroke="none" fill="black" font-family="Helvetica" font-size="12.00"  text-anchor="start">
		<text><tspan font-family="Helvetica" > 1x10</tspan><tspan font-family="Helvetica"  font-size="9.6" dy="-6.00px">-5</tspan><tspan font-size="12.0" dy="6.00"></tspan></text>
	</g>
</g>
<g fill="none" color="black" stroke="currentColor" stroke-width="1.00" stroke-linecap="butt" stroke-linejoin="miter">
	<path stroke='black'  d='M979.0,297.4 L970.0,297.4  '/>	<g transform="translate(987.3,301.3)" stroke="none" fill="black" font-family="Helvetica" font-size="12.00"  text-anchor="start">
		<text><tspan font-family="Helvetica" > 1.5x10</tspan><tspan font-family="Helvetica"  font-size="9.6" dy="-6.00px">-5</tspan><tspan font-size="12.0" dy="6.00"></tspan></text>
	</g>
</g>
<g fill="none" color="black" stroke="currentColor" stroke-width="1.00" stroke-linecap="butt" stroke-linejoin="miter">
	<path stroke='black'  d='M979.0,175.8 L970.0,175.8  '/>	<g transform="translate(987.3,179.7)" stroke="none" fill="black" font-family="Helvetica" font-size="12.00"  text-anchor="start">
		<text><tspan font-family="Helvetica" > 2x10</tspan><tspan font-family="Helvetica"  font-size="9.6" dy="-6.00px">-5</tspan><tspan font-size="12.0" dy="6.00"></tspan></text>
	</g>
</g>
<g fill="none" color="black" stroke="currentColor" stroke-width="1.00" stroke-linecap="butt" stroke-linejoin="miter">
	<path stroke='black'  d='M979.0,54.1 L970.0,54.1  '/>	<g transform="translate(987.3,58.0)" stroke="none" fill="black" font-family="Helvetica" font-size="12.00"  text-anchor="start">
		<text><tspan font-family="Helvetica" > 2.5x10</tspan><tspan font-family="Helvetica"  font-size="9.6" dy="-6.00px">-5</tspan><tspan font-size="12.0" dy="6.00"></tspan></text>
	</g>
</g>
<g fill="none" color="black" stroke="currentColor" stroke-width="1.00" stroke-linecap="butt" stroke-linejoin="miter">
</g>
<g fill="none" color="black" stroke="currentColor" stroke-width="1.00" stroke-linecap="butt" stroke-linejoin="miter">
	<path stroke='black'  d='M63.6,54.1 L63.6,662.4 L979.0,662.4 L979.0,54.1 L63.6,54.1 Z  '/></g>
<g fill="none" color="black" stroke="currentColor" stroke-width="1.00" stroke-linecap="butt" stroke-linejoin="miter">
	<g transform="translate(17.0,358.3) rotate(270)" stroke="none" fill="black" font-family="Helvetica" font-size="12.00"  text-anchor="middle">
		<text><tspan font-family="Helvetica" >Iterations</tspan></text>
	</g>
</g>
<g fill="none" color="black" stroke="currentColor" stroke-width="1.00" stroke-linecap="butt" stroke-linejoin="miter">
	<g transform="translate(1074.8,358.3) rotate(270)" stroke="none" fill="black" font-family="Helvetica" font-size="12.00"  text-anchor="middle">
		<text><tspan font-family="Helvetica" >Density (a.u.)</tspan></text>
	</g>
</g>
<g fill="none" color="black" stroke="currentColor" stroke-width="1.00" stroke-linecap="butt" stroke-linejoin="miter">
	<g transform="translate(521.3,711.3)" stroke="none" fill="black" font-family="Helvetica" font-size="12.00"  text-anchor="middle">
		<text><tspan font-family="Helvetica" >Average time (ms)</tspan></text>
	</g>
</g>
<g fill="none" color="black" stroke="currentColor" stroke-width="1.00" stroke-linecap="butt" stroke-linejoin="miter">
	<g transform="translate(521.3,31.0)" stroke="none" fill="black" font-family="Helvetica" font-size="12.00"  text-anchor="middle">
		<text><tspan font-family="Helvetica" >language: rust/parse error: go/examples/proc.go</tspan></text>
	</g>
</g>
	<g id="gnuplot_plot_1" ><title>PDF</title>
<g fill="none" color="black" stroke="currentColor" stroke-width="1.00" stroke-linecap="butt" stroke-linejoin="miter">
	<g transform="translate(1155.4,67.0)" stroke="none" fill="black" font-family="Helvetica" font-size="12.00"  text-anchor="start">
		<text><tspan font-family="Helvetica" >PDF</tspan></text>
	</g>
</g>
<g fill="none" color="black" stroke="currentColor" stroke-width="1.00" stroke-linecap="butt" stroke-linejoin="miter">
	<g stroke='none' shape-rendering='crispEdges'>
		<polygon fill = 'rgb( 31, 120, 180)' fill-opacity = '0.250000' points = '1104.9,67.6 1147.1,67.6 1147.1,58.6 1104.9,58.6 '/>
		<polygon fill = 'rgb( 31, 120, 180)' fill-opacity = '0.250000' points = '63.6,661.4 63.6,662.4 65.4,662.4 65.4,661.4 '/>
		<polygon fill = 'rgb( 31, 120, 180)' fill-opacity = '0.250000' points = '65.4,661.4 65.4,662.4 67.3,662.4 67.3,661.3 '/>
		<polygon fill = 'rgb( 31, 120, 180)' fill-opacity = '0.250000' points = '67.3,661.3 67.3,662.4 69.1,662.4 69.1,661.2 '/>
		<polygon fill = 'rgb( 31, 120, 180)' fill-opacity = '0.250000' points = '69.1,661.2 69.1,662.4 70.9,662.4 70.9,661.1 '/>
		<polygon fill = 'rgb( 31, 120, 180)' fill-opacity = '0.250000' points = '70.9,661.1 70.9,662.4 72.8,662.4 72.8,661.0 '/>
		<polygon fill = 'rgb( 31, 120, 180)' fill-opacity = '0.250000' points = '72.8,661.0 72.8,662.4 74.6,662.4 74.6,660.9 '/>
		<polygon fill = 'rgb( 31, 120, 180)' fill-opacity = '0.250000' points = '74.6,660.9 74.6,662.4 76.4,662.4 76.4,660.8 '/>
		<polygon fill = 'rgb( 31, 120, 180)' fill-opacity = '0.250000' points = '76.4,660.8 76.4,662.4 78.3,662.4 78.3,660.7 '/>
		<polygon fill = 'rgb( 31, 120, 180)' fill-opacity = '0.250000' points = '78.3,660.7 78.3,662.4 80.1,662.4 80.1,660.6 '/>
		<polygon fill = 'rgb( 31, 120, 180)' fill-opacity = '0.250000' points = '80.1,660.6 80.1,662.4 81.9,662.4 81.9,660.4 '/>
		<polygon fill = 'rgb( 31, 120, 180)' fill-opacity = '0.250000' points = '81.9,660.4 81.9,662.4 83.8,662.4 83.8,660.3 '/>
		<polygon fill = 'rgb( 31, 120, 180)' fill-opacity = '0.250000' points = '83.8,660.3 83.8,662.4 85.6,662.4 85.6,660.1 '/>
		<polygon fill = 'rgb( 31, 120, 180)' fill-opacity = '0.250000' points = '85.6,660.1 85.6,662.4 87.4,662.4 87.4,660.0 '/>
		<polygon fill = 'rgb( 31, 120, 180)' fill-opacity = '0.250000' points = '87.4,660.0 87.4,662.4 89.3,662.4 89.3,659.8 '/>
		<polygon fill = 'rgb( 31, 120, 180)' fill-opacity = '0.250000' points = '89.3,659.8 89.3,662.4 91.1,662.4 91.1,659.6 '/>
		<polygon fill = 'rgb( 31, 120, 180)' fill-opacity = '0.250000' points = '91.1,659.6 91.1,662.4 93.0,662.4 93.0,659.5 '/>
		<polygon fill = 'rgb( 31, 120, 180)' fill-opacity = '0.250000' points = '93.0,659.5 93.0,662.4 94.8,662.4 94.8,659.3 '/>
		<polygon fill = 'rgb( 31, 120, 180)' fill-opacity = '0.250000' points = '94.8,659.3 94.8,662.4 96.6,662.4 96.6,659.0 '/>
		<polygon fill = 'rgb( 31, 120, 180)' fill-opacity = '0.250000' points = '96.6,659.0 96.6,662.4 98.5,662.4 98.5,658.8 '/>
		<polygon fill = 'rgb( 31, 120, 180)' fill-opacity = '0.250000' points = '98.5,658.8 98.5,662.4 100.3,662.4 100.3,658.6 '/>
		<polygon fill = 'rgb( 31, 120, 180)' fill-opacity = '0.250000' points = '100.3,658.6 100.3,662.4 102.1,662.4 102.1,658.3 '/>
		<polygon fill = 'rgb( 31, 120, 180)' fill-opacity = '0.250000' points = '102.1,658.3 102.1,662.4 104.0,662.4 104.0,658.1 '/>
		<polygon fill = 'rgb( 31, 120, 180)' fill-opacity = '0.250000' points = '104.0,658.1 104.0,662.4 105.8,662.4 105.8,657.8 '/>
		<polygon fill = 'rgb( 31, 120, 180)' fill-opacity = '0.250000' points = '105.8,657.8 105.8,662.4 107.6,662.4 107.6,657.5 '/>
		<polygon fill = 'rgb( 31, 120, 180)' fill-opacity = '0.250000' points = '107.6,657.5 107.6,662.4 109.5,662.4 109.5,657.2 '/>
		<polygon fill = 'rgb( 31, 120, 180)' fill-opacity = '0.250000' points = '109.5,657.2 109.5,662.4 111.3,662.4 111.3,656.9 '/>
		<polygon fill = 'rgb( 31, 120, 180)' fill-opacity = '0.250000' points = '111.3,656.9 111.3,662.4 113.1,662.4 113.1,656.5 '/>
		<polygon fill = 'rgb( 31, 120, 180)' fill-opacity = '0.250000' points = '113.1,656.5 113.1,662.4 115.0,662.4 115.0,656.2 '/>
		<polygon fill = 'rgb( 31, 120, 180)' fill-opacity = '0.250000' points = '115.0,656.2 115.0,662.4 116.8,662.4 116.8,655.8 '/>
		<polygon fill = 'rgb( 31, 120, 180)' fill-opacity = '0.250000' points = '116.8,655.8 116.8,662.4 118.6,662.4 118.6,655.4 '/>
		<polygon fill = 'rgb( 31, 120, 180)' fill-opacity = '0.250000' points = '118.6,655.4 118.6,662.4 120.5,662.4 120.5,655.0 '/>
		<polygon fill = 'rgb( 31, 120, 180)' fill-opacity = '0.250000' points = '120.5,655.0 120.5,662.4 122.3,662.4 122.3,654.5 '/>
		<polygon fill = 'rgb( 31, 120, 180)' fill-opacity = '0.250000' points = '122.3,654.5 122.3,662.4 124.1,662.4 124.1,654.1 '/>
		<polygon fill = 'rgb( 31, 120, 180)' fill-opacity = '0.250000' points = '124.1,654.1 124.1,662.4 126.0,662.4 126.0,653.6 '/>
		<polygon fill = 'rgb( 31, 120, 180)' fill-opacity = '0.250000' points = '126.0,653.6 126.0,662.4 127.8,662.4 127.8,653.1 '/>
		<polygon fill = 'rgb( 31, 120, 180)' fill-opacity = '0.250000' points = '127.8,653.1 127.8,662.4 129.6,662.4 129.6,652.5 '/>
		<polygon fill = 'rgb( 31, 120, 180)' fill-opacity = '0.250000' points = '129.6,652.5 129.6,662.4 131.5,662.4 131.5,652.0 '/>
		<polygon fill = 'rgb( 31, 120, 180)' fill-opacity = '0.250000' points = '131.5,652.0 131.5,662.4 133.3,662.4 133.3,651.4 '/>
		<polygon fill = 'rgb( 31, 120, 180)' fill-opacity = '0.250000' points = '133.3,651.4 133.3,662.4 135.1,662.4 135.1,650.8 '/>
		<polygon fill = 'rgb( 31, 120, 180)' fill-opacity = '0.250000' points = '135.1,650.8 135.1,662.4 137.0,662.4 137.0,650.1 '/>
		<polygon fill = 'rgb( 31, 120, 180)' fill-opacity = '0.250000' points = '137.0,650.1 137.0,662.4 138.8,662.4 138.8,649.5 '/>
		<polygon fill = 'rgb( 31, 120, 180)' fill-opacity = '0.250000' points = '138.8,649.5 138.8,662.4 140.6,662.4 140.6,648.8 '/>
		<polygon fill = 'rgb( 31, 120, 180)' fill-opacity = '0.250000' points = '140.6,648.8 140.6,662.4 142.5,662.4 142.5,648.0 '/>
		<polygon fill = 'rgb( 31, 120, 180)' fill-opacity = '0.250000' points = '142.5,648.0 142.5,662.4 144.3,662.4 144.3,647.2 '/>
		<polygon fill = 'rgb( 31, 120, 180)' fill-opacity = '0.250000' points = '144.3,647.2 144.3,662.4 146.2,662.4 146.2,646.4 '/>
		<polygon fill = 'rgb( 31, 120, 180)' fill-opacity = '0.250000' points = '146.2,646.4 146.2,662.4 148.0,662.4 148.0,645.6 '/>
		<polygon fill = 'rgb( 31, 120, 180)' fill-opacity = '0.250000' points = '148.0,645.6 148.0,662.4 149.8,662.4 149.8,644.7 '/>
		<polygon fill = 'rgb( 31, 120, 180)' fill-opacity = '0.250000' points = '149.8,644.7 149.8,662.4 151.7,662.4 151.7,643.8 '/>
		<polygon fill = 'rgb( 31, 120, 180)' fill-opacity = '0.250000' points = '151.7,643.8 151.7,662.4 153.5,662.4 153.5,642.9 '/>
		<polygon fill = 'rgb( 31, 120, 180)' fill-opacity = '0.250000' points = '153.5,642.9 153.5,662.4 155.3,662.4 155.3,641.9 '/>
		<polygon fill = 'rgb( 31, 120, 180)' fill-opacity = '0.250000' points = '155.3,641.9 155.3,662.4 157.2,662.4 157.2,640.8 '/>
		<polygon fill = 'rgb( 31, 120, 180)' fill-opacity = '0.250000' points = '157.2,640.8 157.2,662.4 159.0,662.4 159.0,639.8 '/>
		<polygon fill = 'rgb( 31, 120, 180)' fill-opacity = '0.250000' points = '159.0,639.8 159.0,662.4 160.8,662.4 160.8,638.7 '/>
		<polygon fill = 'rgb( 31, 120, 180)' fill-opacity = '0.250000' points = '160.8,638.7 160.8,662.4 162.7,662.4 162.7,637.5 '/>
		<polygon fill = 'rgb( 31, 120, 180)' fill-opacity = '0.250000' points = '162.7,637.5 162.7,662.4 164.5,662.4 164.5,636.3 '/>
		<polygon fill = 'rgb( 31, 120, 180)' fill-opacity = '0.250000' points = '164.5,636.3 164.5,662.4 166.3,662.4 166.3,635.1 '/>
		<polygon fill = 'rgb( 31, 120, 180)' fill-opacity = '0.250000' points = '166.3,635.1 166.3,662.4 168.2,662.4 168.2,633.8 '/>
		<polygon fill = 'rgb( 31, 120, 180)' fill-opacity = '0.250000' points = '168.2,633.8 168.2,662.4 170.0,662.4 170.0,632.4 '/>
		<polygon fill = 'rgb( 31, 120, 180)' fill-opacity = '0.250000' points = '170.0,632.4 170.0,662.4 171.8,662.4 171.8,631.0 '/>
		<polygon fill = 'rgb( 31, 120, 180)' fill-opacity = '0.250000' points = '171.8,631.0 171.8,662.4 173.7,662.4 173.7,629.6 '/>
		<polygon fill = 'rgb( 31, 120, 180)' fill-opacity = '0.250000' points = '173.7,629.6 173.7,662.4 175.5,662.4 175.5,628.1 '/>
		<polygon fill = 'rgb( 31, 120, 180)' fill-opacity = '0.250000' points = '175.5,628.1 175.5,662.4 177.3,662.4 177.3,626.5 '/>
		<polygon fill = 'rgb( 31, 120, 180)' fill-opacity = '0.250000' points = '177.3,626.5 177.3,662.4 179.2,662.4 179.2,624.9 '/>
		<polygon fill = 'rgb( 31, 120, 180)' fill-opacity = '0.250000' points = '179.2,624.9 179.2,662.4 181.0,662.4 181.0,623.3 '/>
		<polygon fill = 'rgb( 31, 120, 180)' fill-opacity = '0.250000' points = '181.0,623.3 181.0,662.4 182.8,662.4 182.8,621.6 '/>
		<polygon fill = 'rgb( 31, 120, 180)' fill-opacity = '0.250000' points = '182.8,621.6 182.8,662.4 184.7,662.4 184.7,619.8 '/>
		<polygon fill = 'rgb( 31, 120, 180)' fill-opacity = '0.250000' points = '184.7,619.8 184.7,662.4 186.5,662.4 186.5,618.0 '/>
		<polygon fill = 'rgb( 31, 120, 180)' fill-opacity = '0.250000' points = '186.5,618.0 186.5,662.4 188.3,662.4 188.3,616.1 '/>
		<polygon fill = 'rgb( 31, 120, 180)' fill-opacity = '0.250000' points = '188.3,616.1 188.3,662.4 190.2,662.4 190.2,614.2 '/>
		<polygon fill = 'rgb( 31, 120, 180)' fill-opacity = '0.250000' points = '190.2,614.2 190.2,662.4 192.0,662.4 192.0,612.2 '/>
		<polygon fill = 'rgb( 31, 120, 180)' fill-opacity = '0.250000' points = '192.0,612.2 192.0,662.4 193.8,662.4 193.8,610.1 '/>
		<polygon fill = 'rgb( 31, 120, 180)' fill-opacity = '0.250000' points = '193.8,610.1 193.8,662.4 195.7,662.4 195.7,608.0 '/>
		<polygon fill = 'rgb( 31, 120, 180)' fill-opacity = '0.250000' points = '195.7,608.0 195.7,662.4 197.5,662.4 197.5,605.8 '/>
		<polygon fill = 'rgb( 31, 120, 180)' fill-opacity = '0.250000' points = '197.5,605.8 197.5,662.4 199.4,662.4 199.4,603.5 '/>
		<polygon fill = 'rgb( 31, 120, 180)' fill-opacity = '0.250000' points = '199.4,603.5 199.4,662.4 201.2,662.4 201.2,601.2 '/>
		<polygon fill = 'rgb( 31, 120, 180)' fill-opacity = '0.250000' points = '201.2,601.2 201.2,662.4 203.0,662.4 203.0,598.9 '/>
		<polygon fill = 'rgb( 31, 120, 180)' fill-opacity = '0.250000' points = '203.0,598.9 203.0,662.4 204.9,662.4 204.9,596.4 '/>
		<polygon fill = 'rgb( 31, 120, 180)' fill-opacity = '0.250000' points = '204.9,596.4 204.9,662.4 206.7,662.4 206.7,593.9 '/>
		<polygon fill = 'rgb( 31, 120, 180)' fill-opacity = '0.250000' points = '206.7,593.9 206.7,662.4 208.5,662.4 208.5,591.3 '/>
		<polygon fill = 'rgb( 31, 120, 180)' fill-opacity = '0.250000' points = '208.5,591.3 208.5,662.4 210.4,662.4 210.4,588.7 '/>
		<polygon fill = 'rgb( 31, 120, 180)' fill-opacity = '0.250000' points = '210.4,588.7 210.4,662.4 212.2,662.4 212.2,586.0 '/>
		<polygon fill = 'rgb( 31, 120, 180)' fill-opacity = '0.250000' points = '212.2,586.0 212.2,662.4 214.0,662.4 214.0,583.2 '/>
		<polygon fill = 'rgb( 31, 120, 180)' fill-opacity = '0.250000' points = '214.0,583.2 214.0,662.4 215.9,662.4 215.9,580.4 '/>
		<polygon fill = 'rgb( 31, 120, 180)' fill-opacity = '0.250000' points = '215.9,580.4 215.9,662.4 217.7,662.4 217.7,577.4 '/>
		<polygon fill = 'rgb( 31, 120, 180)' fill-opacity = '0.250000' points = '217.7,577.4 217.7,662.4 219.5,662.4 219.5,574.5 '/>
		<polygon fill = 'rgb( 31, 120, 180)' fill-opacity = '0.250000' points = '219.5,574.5 219.5,662.4 221.4,662.4 221.4,571.4 '/>
		<polygon fill = 'rgb( 31, 120, 180)' fill-opacity = '0.250000' points = '221.4,571.4 221.4,662.4 223.2,662.4 223.2,568.3 '/>
		<polygon fill = 'rgb( 31, 120, 180)' fill-opacity = '0.250000' points = '223.2,568.3 223.2,662.4 225.0,662.4 225.0,565.1 '/>
		<polygon fill = 'rgb( 31, 120, 180)' fill-opacity = '0.250000' points = '225.0,565.1 225.0,662.4 226.9,662.4 226.9,561.9 '/>
		<polygon fill = 'rgb( 31, 120, 180)' fill-opacity = '0.250000' points = '226.9,561.9 226.9,662.4 228.7,662.4 228.7,558.5 '/>
		<polygon fill = 'rgb( 31, 120, 180)' fill-opacity = '0.250000' points = '228.7,558.5 228.7,662.4 230.5,662.4 230.5,555.1 '/>
		<polygon fill = 'rgb( 31, 120, 180)' fill-opacity = '0.250000' points = '230.5,555.1 230.5,662.4 232.4,662.4 232.4,551.7 '/>
		<polygon fill = 'rgb( 31, 120, 180)' fill-opacity = '0.250000' points = '232.4,551.7 232.4,662.4 234.2,662.4 234.2,548.2 '/>
		<polygon fill = 'rgb( 31, 120, 180)' fill-opacity = '0.250000' points = '234.2,548.2 234.2,662.4 236.0,662.4 236.0,544.6 '/>
		<polygon fill = 'rgb( 31, 120, 180)' fill-opacity = '0.250000' points = '236.0,544.6 236.0,662.4 237.9,662.4 237.9,540.9 '/>
		<polygon fill = 'rgb( 31, 120, 180)' fill-opacity = '0.250000' points = '237.9,540.9 237.9,662.4 239.7,662.4 239.7,537.2 '/>
		<polygon fill = 'rgb( 31, 120, 180)' fill-opacity = '0.250000' points = '239.7,537.2 239.7,662.4 241.5,662.4 241.5,533.4 '/>
		<polygon fill = 'rgb( 31, 120, 180)' fill-opacity = '0.250000' points = '241.5,533.4 241.5,662.4 243.4,662.4 243.4,529.5 '/>
		<polygon fill = 'rgb( 31, 120, 180)' fill-opacity = '0.250000' points = '243.4,529.5 243.4,662.4 245.2,662.4 245.2,525.6 '/>
		<polygon fill = 'rgb( 31, 120, 180)' fill-opacity = '0.250000' points = '245.2,525.6 245.2,662.4 247.0,662.4 247.0,521.6 '/>
		<polygon fill = 'rgb( 31, 120, 180)' fill-opacity = '0.250000' points = '247.0,521.6 247.0,662.4 248.9,662.4 248.9,517.6 '/>
		<polygon fill = 'rgb( 31, 120, 180)' fill-opacity = '0.250000' points = '248.9,517.6 248.9,662.4 250.7,662.4 250.7,513.5 '/>
		<polygon fill = 'rgb( 31, 120, 180)' fill-opacity = '0.250000' points = '250.7,513.5 250.7,662.4 252.6,662.4 252.6,509.3 '/>
		<polygon fill = 'rgb( 31, 120, 180)' fill-opacity = '0.250000' points = '252.6,509.3 252.6,662.4 254.4,662.4 254.4,505.1 '/>
		<polygon fill = 'rgb( 31, 120, 180)' fill-opacity = '0.250000' points = '254.4,505.1 254.4,662.4 256.2,662.4 256.2,500.8 '/>
		<polygon fill = 'rgb( 31, 120, 180)' fill-opacity = '0.250000' points = '256.2,500.8 256.2,662.4 258.1,662.4 258.1,496.4 '/>
		<polygon fill = 'rgb( 31, 120, 180)' fill-opacity = '0.250000' points = '258.1,496.4 258.1,662.4 259.9,662.4 259.9,492.0 '/>
		<polygon fill = 'rgb( 31, 120, 180)' fill-opacity = '0.250000' points = '259.9,492.0 259.9,662.4 261.7,662.4 261.7,487.5 '/>
		<polygon fill = 'rgb( 31, 120, 180)' fill-opacity = '0.250000' points = '261.7,487.5 261.7,662.4 263.6,662.4 263.6,483.0 '/>
		<polygon fill = 'rgb( 31, 120, 180)' fill-opacity = '0.250000' points = '263.6,483.0 263.6,662.4 265.4,662.4 265.4,478.5 '/>
		<polygon fill = 'rgb( 31, 120, 180)' fill-opacity = '0.250000' points = '265.4,478.5 265.4,662.4 267.2,662.4 267.2,473.9 '/>
		<polygon fill = 'rgb( 31, 120, 180)' fill-opacity = '0.250000' points = '267.2,473.9 267.2,662.4 269.1,662.4 269.1,469.2 '/>
		<polygon fill = 'rgb( 31, 120, 180)' fill-opacity = '0.250000' points = '269.1,469.2 269.1,662.4 270.9,662.4 270.9,464.5 '/>
		<polygon fill = 'rgb( 31, 120, 180)' fill-opacity = '0.250000' points = '270.9,464.5 270.9,662.4 272.7,662.4 272.7,459.7 '/>
		<polygon fill = 'rgb( 31, 120, 180)' fill-opacity = '0.250000' points = '272.7,459.7 272.7,662.4 274.6,662.4 274.6,454.9 '/>
		<polygon fill = 'rgb( 31, 120, 180)' fill-opacity = '0.250000' points = '274.6,454.9 274.6,662.4 276.4,662.4 276.4,450.1 '/>
		<polygon fill = 'rgb( 31, 120, 180)' fill-opacity = '0.250000' points = '276.4,450.1 276.4,662.4 278.2,662.4 278.2,445.2 '/>
		<polygon fill = 'rgb( 31, 120, 180)' fill-opacity = '0.250000' points = '278.2,445.2 278.2,662.4 280.1,662.4 280.1,440.3 '/>
		<polygon fill = 'rgb( 31, 120, 180)' fill-opacity = '0.250000' points = '280.1,440.3 280.1,662.4 281.9,662.4 281.9,435.3 '/>
		<polygon fill = 'rgb( 31, 120, 180)' fill-opacity = '0.250000' points = '281.9,435.3 281.9,662.4 283.7,662.4 283.7,430.3 '/>
		<polygon fill = 'rgb( 31, 120, 180)' fill-opacity = '0.250000' points = '283.7,430.3 283.7,662.4 285.6,662.4 285.6,425.3 '/>
		<polygon fill = 'rgb( 31, 120, 180)' fill-opacity = '0.250000' points = '285.6,425.3 285.6,662.4 287.4,662.4 287.4,420.3 '/>
		<polygon fill = 'rgb( 31, 120, 180)' fill-opacity = '0.250000' points = '287.4,420.3 287.4,662.4 289.2,662.4 289.2,415.2 '/>
		<polygon fill = 'rgb( 31, 120, 180)' fill-opacity = '0.250000' points = '289.2,415.2 289.2,662.4 291.1,662.4 291.1,410.1 '/>
		<polygon fill = 'rgb( 31, 120, 180)' fill-opacity = '0.250000' points = '291.1,410.1 291.1,662.4 292.9,662.4 292.9,405.0 '/>
		<polygon fill = 'rgb( 31, 120, 180)' fill-opacity = '0.250000' points = '292.9,405.0 292.9,662.4 294.7,662.4 294.7,399.8 '/>
		<polygon fill = 'rgb( 31, 120, 180)' fill-opacity = '0.250000' points = '294.7,399.8 294.7,662.4 296.6,662.4 296.6,394.7 '/>
		<polygon fill = 'rgb( 31, 120, 180)' fill-opacity = '0.250000' points = '296.6,394.7 296.6,662.4 298.4,662.4 298.4,389.5 '/>
		<polygon fill = 'rgb( 31, 120, 180)' fill-opacity = '0.250000' points = '298.4,389.5 298.4,662.4 300.2,662.4 300.2,384.3 '/>
		<polygon fill = 'rgb( 31, 120, 180)' fill-opacity = '0.250000' points = '300.2,384.3 300.2,662.4 302.1,662.4 302.1,379.1 '/>
		<polygon fill = 'rgb( 31, 120, 180)' fill-opacity = '0.250000' points = '302.1,379.1 302.1,662.4 303.9,662.4 303.9,373.9 '/>
		<polygon fill = 'rgb( 31, 120, 180)' fill-opacity = '0.250000' points = '303.9,373.9 303.9,662.4 305.7,662.4 305.7,368.6 '/>
		<polygon fill = 'rgb( 31, 120, 180)' fill-opacity = '0.250000' points = '305.7,368.6 305.7,662.4 307.6,662.4 307.6,363.4 '/>
		<polygon fill = 'rgb( 31, 120, 180)' fill-opacity = '0.250000' points = '307.6,363.4 307.6,662.4 309.4,662.4 309.4,358.2 '/>
		<polygon fill = 'rgb( 31, 120, 180)' fill-opacity = '0.250000' points = '309.4,358.2 309.4,662.4 311.3,662.4 311.3,353.0 '/>
		<polygon fill = 'rgb( 31, 120, 180)' fill-opacity = '0.250000' points = '311.3,353.0 311.3,662.4 313.1,662.4 313.1,347.8 '/>
		<polygon fill = 'rgb( 31, 120, 180)' fill-opacity = '0.250000' points = '313.1,347.8 313.1,662.4 314.9,662.4 314.9,342.6 '/>
		<polygon fill = 'rgb( 31, 120, 180)' fill-opacity = '0.250000' points = '314.9,342.6 314.9,662.4 316.8,662.4 316.8,337.3 '/>
		<polygon fill = 'rgb( 31, 120, 180)' fill-opacity = '0.250000' points = '316.8,337.3 316.8,662.4 318.6,662.4 318.6,332.2 '/>
		<polygon fill = 'rgb( 31, 120, 180)' fill-opacity = '0.250000' points = '318.6,332.2 318.6,662.4 320.4,662.4 320.4,327.0 '/>
		<polygon fill = 'rgb( 31, 120, 180)' fill-opacity = '0.250000' points = '320.4,327.0 320.4,662.4 322.3,662.4 322.3,321.8 '/>
		<polygon fill = 'rgb( 31, 120, 180)' fill-opacity = '0.250000' points = '322.3,321.8 322.3,662.4 324.1,662.4 324.1,316.7 '/>
		<polygon fill = 'rgb( 31, 120, 180)' fill-opacity = '0.250000' points = '324.1,316.7 324.1,662.4 325.9,662.4 325.9,311.6 '/>
		<polygon fill = 'rgb( 31, 120, 180)' fill-opacity = '0.250000' points = '325.9,311.6 325.9,662.4 327.8,662.4 327.8,306.5 '/>
		<polygon fill = 'rgb( 31, 120, 180)' fill-opacity = '0.250000' points = '327.8,306.5 327.8,662.4 329.6,662.4 329.6,301.4 '/>
		<polygon fill = 'rgb( 31, 120, 180)' fill-opacity = '0.250000' points = '329.6,301.4 329.6,662.4 331.4,662.4 331.4,296.4 '/>
		<polygon fill = 'rgb( 31, 120, 180)' fill-opacity = '0.250000' points = '331.4,296.4 331.4,662.4 333.3,662.4 333.3,291.4 '/>
		<polygon fill = 'rgb( 31, 120, 180)' fill-opacity = '0.250000' points = '333.3,291.4 333.3,662.4 335.1,662.4 335.1,286.4 '/>
		<polygon fill = 'rgb( 31, 120, 180)' fill-opacity = '0.250000' points = '335.1,286.4 335.1,662.4 336.9,662.4 336.9,281.5 '/>
		<polygon fill = 'rgb( 31, 120, 180)' fill-opacity = '0.250000' points = '336.9,281.5 336.9,662.4 338.8,662.4 338.8,276.6 '/>
		<polygon fill = 'rgb( 31, 120, 180)' fill-opacity = '0.250000' points = '338.8,276.6 338.8,662.4 340.6,662.4 340.6,271.7 '/>
		<polygon fill = 'rgb( 31, 120, 180)' fill-opacity = '0.250000' points = '340.6,271.7 340.6,662.4 342.4,662.4 342.4,266.9 '/>
		<polygon fill = 'rgb( 31, 120, 180)' fill-opacity = '0.250000' points = '342.4,266.9 342.4,662.4 344.3,662.4 344.3,262.2 '/>
		<polygon fill = 'rgb( 31, 120, 180)' fill-opacity = '0.250000' points = '344.3,262.2 344.3,662.4 346.1,662.4 346.1,257.5 '/>
		<polygon fill = 'rgb( 31, 120, 180)' fill-opacity = '0.250000' points = '346.1,257.5 346.1,662.4 347.9,662.4 347.9,252.8 '/>
		<polygon fill = 'rgb( 31, 120, 180)' fill-opacity = '0.250000' points = '347.9,252.8 347.9,662.4 349.8,662.4 349.8,248.2 '/>
		<polygon fill = 'rgb( 31, 120, 180)' fill-opacity = '0.250000' points = '349.8,248.2 349.8,662.4 351.6,662.4 351.6,243.6 '/>
		<polygon fill = 'rgb( 31, 120, 180)' fill-opacity = '0.250000' points = '351.6,243.6 351.6,662.4 353.4,662.4 353.4,239.1 '/>
		<polygon fill = 'rgb( 31, 120, 180)' fill-opacity = '0.250000' points = '353.4,239.1 353.4,662.4 355.3,662.4 355.3,234.7 '/>
		<polygon fill = 'rgb( 31, 120, 180)' fill-opacity = '0.250000' points = '355.3,234.7 355.3,662.4 357.1,662.4 357.1,230.3 '/>
		<polygon fill = 'rgb( 31, 120, 180)' fill-opacity = '0.250000' points = '357.1,230.3 357.1,662.4 358.9,662.4 358.9,226.0 '/>
		<polygon fill = 'rgb( 31, 120, 180)' fill-opacity = '0.250000' points = '358.9,226.0 358.9,662.4 360.8,662.4 360.8,221.7 '/>
		<polygon fill = 'rgb( 31, 120, 180)' fill-opacity = '0.250000' points = '360.8,221.7 360.8,662.4 362.6,662.4 362.6,217.6 '/>
		<polygon fill = 'rgb( 31, 120, 180)' fill-opacity = '0.250000' points = '362.6,217.6 362.6,662.4 364.5,662.4 364.5,213.4 '/>
		<polygon fill = 'rgb( 31, 120, 180)' fill-opacity = '0.250000' points = '364.5,213.4 364.5,662.4 366.3,662.4 366.3,209.4 '/>
		<polygon fill = 'rgb( 31, 120, 180)' fill-opacity = '0.250000' points = '366.3,209.4 366.3,662.4 368.1,662.4 368.1,205.4 '/>
		<polygon fill = 'rgb( 31, 120, 180)' fill-opacity = '0.250000' points = '368.1,205.4 368.1,662.4 370.0,662.4 370.0,201.5 '/>
		<polygon fill = 'rgb( 31, 120, 180)' fill-opacity = '0.250000' points = '370.0,201.5 370.0,662.4 371.8,662.4 371.8,197.7 '/>
		<polygon fill = 'rgb( 31, 120, 180)' fill-opacity = '0.250000' points = '371.8,197.7 371.8,662.4 373.6,662.4 373.6,193.9 '/>
		<polygon fill = 'rgb( 31, 120, 180)' fill-opacity = '0.250000' points = '373.6,193.9 373.6,662.4 375.5,662.4 375.5,190.2 '/>
		<polygon fill = 'rgb( 31, 120, 180)' fill-opacity = '0.250000' points = '375.5,190.2 375.5,662.4 377.3,662.4 377.3,186.6 '/>
		<polygon fill = 'rgb( 31, 120, 180)' fill-opacity = '0.250000' points = '377.3,186.6 377.3,662.4 379.1,662.4 379.1,183.1 '/>
		<polygon fill = 'rgb( 31, 120, 180)' fill-opacity = '0.250000' points = '379.1,183.1 379.1,662.4 381.0,662.4 381.0,179.7 '/>
		<polygon fill = 'rgb( 31, 120, 180)' fill-opacity = '0.250000' points = '381.0,179.7 381.0,662.4 382.8,662.4 382.8,176.3 '/>
		<polygon fill = 'rgb( 31, 120, 180)' fill-opacity = '0.250000' points = '382.8,176.3 382.8,662.4 384.6,662.4 384.6,173.0 '/>
		<polygon fill = 'rgb( 31, 120, 180)' fill-opacity = '0.250000' points = '384.6,173.0 384.6,662.4 386.5,662.4 386.5,169.8 '/>
		<polygon fill = 'rgb( 31, 120, 180)' fill-opacity = '0.250000' points = '386.5,169.8 386.5,662.4 388.3,662.4 388.3,166.7 '/>
		<polygon fill = 'rgb( 31, 120, 180)' fill-opacity = '0.250000' points = '388.3,166.7 388.3,662.4 390.1,662.4 390.1,163.7 '/>
		<polygon fill = 'rgb( 31, 120, 180)' fill-opacity = '0.250000' points = '390.1,163.7 390.1,662.4 392.0,662.4 392.0,160.7 '/>
		<polygon fill = 'rgb( 31, 120, 180)' fill-opacity = '0.250000' points = '392.0,160.7 392.0,662.4 393.8,662.4 393.8,157.9 '/>
		<polygon fill = 'rgb( 31, 120, 180)' fill-opacity = '0.250000' points = '393.8,157.9 393.8,662.4 395.6,662.4 395.6,155.1 '/>
		<polygon fill = 'rgb( 31, 120, 180)' fill-opacity = '0.250000' points = '395.6,155.1 395.6,662.4 397.5,662.4 397.5,152.4 '/>
		<polygon fill = 'rgb( 31, 120, 180)' fill-opacity = '0.250000' points = '397.5,152.4 397.5,662.4 399.3,662.4 399.3,149.8 '/>
		<polygon fill = 'rgb( 31, 120, 180)' fill-opacity = '0.250000' points = '399.3,149.8 399.3,662.4 401.1,662.4 401.1,147.3 '/>
		<polygon fill = 'rgb( 31, 120, 180)' fill-opacity = '0.250000' points = '401.1,147.3 401.1,662.4 403.0,662.4 403.0,144.9 '/>
		<polygon fill = 'rgb( 31, 120, 180)' fill-opacity = '0.250000' points = '403.0,144.9 403.0,662.4 404.8,662.4 404.8,142.5 '/>
		<polygon fill = 'rgb( 31, 120, 180)' fill-opacity = '0.250000' points = '404.8,142.5 404.8,662.4 406.6,662.4 406.6,140.2 '/>
		<polygon fill = 'rgb( 31, 120, 180)' fill-opacity = '0.250000' points = '406.6,140.2 406.6,662.4 408.5,662.4 408.5,138.1 '/>
		<polygon fill = 'rgb( 31, 120, 180)' fill-opacity = '0.250000' points = '408.5,138.1 408.5,662.4 410.3,662.4 410.3,136.0 '/>
		<polygon fill = 'rgb( 31, 120, 180)' fill-opacity = '0.250000' points = '410.3,136.0 410.3,662.4 412.1,662.4 412.1,134.0 '/>
		<polygon fill = 'rgb( 31, 120, 180)' fill-opacity = '0.250000' points = '412.1,134.0 412.1,662.4 414.0,662.4 414.0,132.1 '/>
		<polygon fill = 'rgb( 31, 120, 180)' fill-opacity = '0.250000' points = '414.0,132.1 414.0,662.4 415.8,662.4 415.8,130.2 '/>
		<polygon fill = 'rgb( 31, 120, 180)' fill-opacity = '0.250000' points = '415.8,130.2 415.8,662.4 417.7,662.4 417.7,128.5 '/>
		<polygon fill = 'rgb( 31, 120, 180)' fill-opacity = '0.250000' points = '417.7,128.5 417.7,662.4 419.5,662.4 419.5,126.8 '/>
		<polygon fill = 'rgb( 31, 120, 180)' fill-opacity = '0.250000' points = '419.5,126.8 419.5,662.4 421.3,662.4 421.3,125.3 '/>
		<polygon fill = 'rgb( 31, 120, 180)' fill-opacity = '0.250000' points = '421.3,125.3 421.3,662.4 423.2,662.4 423.2,123.8 '/>
		<polygon fill = 'rgb( 31, 120, 180)' fill-opacity = '0.250000' points = '423.2,123.8 423.2,662.4 425.0,662.4 425.0,122.4 '/>
		<polygon fill = 'rgb( 31, 120, 180)' fill-opacity = '0.250000' points = '425.0,122.4 425.0,662.4 426.8,662.4 426.8,121.0 '/>
		<polygon fill = 'rgb( 31, 120, 180)' fill-opacity = '0.250000' points = '426.8,121.0 426.8,662.4 428.7,662.4 428.7,119.8 '/>
		<polygon fill = 'rgb( 31, 120, 180)' fill-opacity = '0.250000' points = '428.7,119.8 428.7,662.4 430.5,662.4 430.5,118.6 '/>
		<polygon fill = 'rgb( 31, 120, 180)' fill-opacity = '0.250000' points = '430.5,118.6 430.5,662.4 432.3,662.4 432.3,117.5 '/>
		<polygon fill = 'rgb( 31, 120, 180)' fill-opacity = '0.250000' points = '432.3,117.5 432.3,662.4 434.2,662.4 434.2,116.5 '/>
		<polygon fill = 'rgb( 31, 120, 180)' fill-opacity = '0.250000' points = '434.2,116.5 434.2,662.4 436.0,662.4 436.0,115.6 '/>
		<polygon fill = 'rgb( 31, 120, 180)' fill-opacity = '0.250000' points = '436.0,115.6 436.0,662.4 437.8,662.4 437.8,114.7 '/>
		<polygon fill = 'rgb( 31, 120, 180)' fill-opacity = '0.250000' points = '437.8,114.7 437.8,662.4 439.7,662.4 439.7,114.0 '/>
		<polygon fill = 'rgb( 31, 120, 180)' fill-opacity = '0.250000' points = '439.7,114.0 439.7,662.4 441.5,662.4 441.5,113.3 '/>
		<polygon fill = 'rgb( 31, 120, 180)' fill-opacity = '0.250000' points = '441.5,113.3 441.5,662.4 443.3,662.4 443.3,112.6 '/>
		<polygon fill = 'rgb( 31, 120, 180)' fill-opacity = '0.250000' points = '443.3,112.6 443.3,662.4 445.2,662.4 445.2,112.1 '/>
		<polygon fill = 'rgb( 31, 120, 180)' fill-opacity = '0.250000' points = '445.2,112.1 445.2,662.4 447.0,662.4 447.0,111.6 '/>
		<polygon fill = 'rgb( 31, 120, 180)' fill-opacity = '0.250000' points = '447.0,111.6 447.0,662.4 448.8,662.4 448.8,111.2 '/>
		<polygon fill = 'rgb( 31, 120, 180)' fill-opacity = '0.250000' points = '448.8,111.2 448.8,662.4 450.7,662.4 450.7,110.8 '/>
		<polygon fill = 'rgb( 31, 120, 180)' fill-opacity = '0.250000' points = '450.7,110.8 450.7,662.4 452.5,662.4 452.5,110.5 '/>
		<polygon fill = 'rgb( 31, 120, 180)' fill-opacity = '0.250000' points = '452.5,110.5 452.5,662.4 454.3,662.4 454.3,110.3 '/>
		<polygon fill = 'rgb( 31, 120, 180)' fill-opacity = '0.250000' points = '454.3,110.3 454.3,662.4 456.2,662.4 456.2,110.2 '/>
		<polygon fill = 'rgb( 31, 120, 180)' fill-opacity = '0.250000' points = '456.2,110.2 456.2,662.4 458.0,662.4 458.0,110.1 '/>
		<polygon fill = 'rgb( 31, 120, 180)' fill-opacity = '0.250000' points = '458.0,110.1 458.0,662.4 459.8,662.4 459.8,110.1 '/>
		<polygon fill = 'rgb( 31, 120, 180)' fill-opacity = '0.250000' points = '459.8,110.1 459.8,662.4 461.7,662.4 461.7,110.1 '/>
		<polygon fill = 'rgb( 31, 120, 180)' fill-opacity = '0.250000' points = '461.7,110.1 461.7,662.4 463.5,662.4 463.5,110.2 '/>
		<polygon fill = 'rgb( 31, 120, 180)' fill-opacity = '0.250000' points = '463.5,110.2 463.5,662.4 465.3,662.4 465.3,110.3 '/>
		<polygon fill = 'rgb( 31, 120, 180)' fill-opacity = '0.250000' points = '465.3,110.3 465.3,662.4 467.2,662.4 467.2,110.6 '/>
		<polygon fill = 'rgb( 31, 120, 180)' fill-opacity = '0.250000' points = '467.2,110.6 467.2,662.4 469.0,662.4 469.0,110.8 '/>
		<polygon fill = 'rgb( 31, 120, 180)' fill-opacity = '0.250000' points = '469.0,110.8 469.0,662.4 470.9,662.4 470.9,111.1 '/>
		<polygon fill = 'rgb( 31, 120, 180)' fill-opacity = '0.250000' points = '470.9,111.1 470.9,662.4 472.7,662.4 472.7,111.5 '/>
		<polygon fill = 'rgb( 31, 120, 180)' fill-opacity = '0.250000' points = '472.7,111.5 472.7,662.4 474.5,662.4 474.5,111.9 '/>
		<polygon fill = 'rgb( 31, 120, 180)' fill-opacity = '0.250000' points = '474.5,111.9 474.5,662.4 476.4,662.4 476.4,112.4 '/>
		<polygon fill = 'rgb( 31, 120, 180)' fill-opacity = '0.250000' points = '476.4,112.4 476.4,662.4 478.2,662.4 478.2,112.9 '/>
		<polygon fill = 'rgb( 31, 120, 180)' fill-opacity = '0.250000' points = '478.2,112.9 478.2,662.4 480.0,662.4 480.0,113.5 '/>
		<polygon fill = 'rgb( 31, 120, 180)' fill-opacity = '0.250000' points = '480.0,113.5 480.0,662.4 481.9,662.4 481.9,114.1 '/>
		<polygon fill = 'rgb( 31, 120, 180)' fill-opacity = '0.250000' points = '481.9,114.1 481.9,662.4 483.7,662.4 483.7,114.7 '/>
		<polygon fill = 'rgb( 31, 120, 180)' fill-opacity = '0.250000' points = '483.7,114.7 483.7,662.4 485.5,662.4 485.5,115.4 '/>
		<polygon fill = 'rgb( 31, 120, 180)' fill-opacity = '0.250000' points = '485.5,115.4 485.5,662.4 487.4,662.4 487.4,116.2 '/>
		<polygon fill = 'rgb( 31, 120, 180)' fill-opacity = '0.250000' points = '487.4,116.2 487.4,662.4 489.2,662.4 489.2,116.9 '/>
		<polygon fill = 'rgb( 31, 120, 180)' fill-opacity = '0.250000' points = '489.2,116.9 489.2,662.4 491.0,662.4 491.0,117.8 '/>
		<polygon fill = 'rgb( 31, 120, 180)' fill-opacity = '0.250000' points = '491.0,117.8 491.0,662.4 492.9,662.4 492.9,118.6 '/>
		<polygon fill = 'rgb( 31, 120, 180)' fill-opacity = '0.250000' points = '492.9,118.6 492.9,662.4 494.7,662.4 494.7,119.5 '/>
		<polygon fill = 'rgb( 31, 120, 180)' fill-opacity = '0.250000' points = '494.7,119.5 494.7,662.4 496.5,662.4 496.5,120.4 '/>
		<polygon fill = 'rgb( 31, 120, 180)' fill-opacity = '0.250000' points = '496.5,120.4 496.5,662.4 498.4,662.4 498.4,121.4 '/>
		<polygon fill = 'rgb( 31, 120, 180)' fill-opacity = '0.250000' points = '498.4,121.4 498.4,662.4 500.2,662.4 500.2,122.4 '/>
		<polygon fill = 'rgb( 31, 120, 180)' fill-opacity = '0.250000' points = '500.2,122.4 500.2,662.4 502.0,662.4 502.0,123.4 '/>
		<polygon fill = 'rgb( 31, 120, 180)' fill-opacity = '0.250000' points = '502.0,123.4 502.0,662.4 503.9,662.4 503.9,124.4 '/>
		<polygon fill = 'rgb( 31, 120, 180)' fill-opacity = '0.250000' points = '503.9,124.4 503.9,662.4 505.7,662.4 505.7,125.5 '/>
		<polygon fill = 'rgb( 31, 120, 180)' fill-opacity = '0.250000' points = '505.7,125.5 505.7,662.4 507.5,662.4 507.5,126.6 '/>
		<polygon fill = 'rgb( 31, 120, 180)' fill-opacity = '0.250000' points = '507.5,126.6 507.5,662.4 509.4,662.4 509.4,127.7 '/>
		<polygon fill = 'rgb( 31, 120, 180)' fill-opacity = '0.250000' points = '509.4,127.7 509.4,662.4 511.2,662.4 511.2,128.9 '/>
		<polygon fill = 'rgb( 31, 120, 180)' fill-opacity = '0.250000' points = '511.2,128.9 511.2,662.4 513.0,662.4 513.0,130.1 '/>
		<polygon fill = 'rgb( 31, 120, 180)' fill-opacity = '0.250000' points = '513.0,130.1 513.0,662.4 514.9,662.4 514.9,131.3 '/>
		<polygon fill = 'rgb( 31, 120, 180)' fill-opacity = '0.250000' points = '514.9,131.3 514.9,662.4 516.7,662.4 516.7,132.5 '/>
		<polygon fill = 'rgb( 31, 120, 180)' fill-opacity = '0.250000' points = '516.7,132.5 516.7,662.4 518.5,662.4 518.5,133.7 '/>
		<polygon fill = 'rgb( 31, 120, 180)' fill-opacity = '0.250000' points = '518.5,133.7 518.5,662.4 520.4,662.4 520.4,135.0 '/>
		<polygon fill = 'rgb( 31, 120, 180)' fill-opacity = '0.250000' points = '520.4,135.0 520.4,662.4 522.2,662.4 522.2,136.3 '/>
		<polygon fill = 'rgb( 31, 120, 180)' fill-opacity = '0.250000' points = '522.2,136.3 522.2,662.4 524.1,662.4 524.1,137.6 '/>
		<polygon fill = 'rgb( 31, 120, 180)' fill-opacity = '0.250000' points = '524.1,137.6 524.1,662.4 525.9,662.4 525.9,138.9 '/>
		<polygon fill = 'rgb( 31, 120, 180)' fill-opacity = '0.250000' points = '525.9,138.9 525.9,662.4 527.7,662.4 527.7,140.2 '/>
		<polygon fill = 'rgb( 31, 120, 180)' fill-opacity = '0.250000' points = '527.7,140.2 527.7,662.4 529.6,662.4 529.6,141.6 '/>
		<polygon fill = 'rgb( 31, 120, 180)' fill-opacity = '0.250000' points = '529.6,141.6 529.6,662.4 531.4,662.4 531.4,142.9 '/>
		<polygon fill = 'rgb( 31, 120, 180)' fill-opacity = '0.250000' points = '531.4,142.9 531.4,662.4 533.2,662.4 533.2,144.3 '/>
		<polygon fill = 'rgb( 31, 120, 180)' fill-opacity = '0.250000' points = '533.2,144.3 533.2,662.4 535.1,662.4 535.1,145.7 '/>
		<polygon fill = 'rgb( 31, 120, 180)' fill-opacity = '0.250000' points = '535.1,145.7 535.1,662.4 536.9,662.4 536.9,147.1 '/>
		<polygon fill = 'rgb( 31, 120, 180)' fill-opacity = '0.250000' points = '536.9,147.1 536.9,662.4 538.7,662.4 538.7,148.6 '/>
		<polygon fill = 'rgb( 31, 120, 180)' fill-opacity = '0.250000' points = '538.7,148.6 538.7,662.4 540.6,662.4 540.6,150.0 '/>
		<polygon fill = 'rgb( 31, 120, 180)' fill-opacity = '0.250000' points = '540.6,150.0 540.6,662.4 542.4,662.4 542.4,151.4 '/>
		<polygon fill = 'rgb( 31, 120, 180)' fill-opacity = '0.250000' points = '542.4,151.4 542.4,662.4 544.2,662.4 544.2,152.9 '/>
		<polygon fill = 'rgb( 31, 120, 180)' fill-opacity = '0.250000' points = '544.2,152.9 544.2,662.4 546.1,662.4 546.1,154.3 '/>
		<polygon fill = 'rgb( 31, 120, 180)' fill-opacity = '0.250000' points = '546.1,154.3 546.1,662.4 547.9,662.4 547.9,155.8 '/>
		<polygon fill = 'rgb( 31, 120, 180)' fill-opacity = '0.250000' points = '547.9,155.8 547.9,662.4 549.7,662.4 549.7,157.3 '/>
		<polygon fill = 'rgb( 31, 120, 180)' fill-opacity = '0.250000' points = '549.7,157.3 549.7,662.4 551.6,662.4 551.6,158.8 '/>
		<polygon fill = 'rgb( 31, 120, 180)' fill-opacity = '0.250000' points = '551.6,158.8 551.6,662.4 553.4,662.4 553.4,160.3 '/>
		<polygon fill = 'rgb( 31, 120, 180)' fill-opacity = '0.250000' points = '553.4,160.3 553.4,662.4 555.2,662.4 555.2,161.8 '/>
		<polygon fill = 'rgb( 31, 120, 180)' fill-opacity = '0.250000' points = '555.2,161.8 555.2,662.4 557.1,662.4 557.1,163.3 '/>
		<polygon fill = 'rgb( 31, 120, 180)' fill-opacity = '0.250000' points = '557.1,163.3 557.1,662.4 558.9,662.4 558.9,164.8 '/>
		<polygon fill = 'rgb( 31, 120, 180)' fill-opacity = '0.250000' points = '558.9,164.8 558.9,662.4 560.7,662.4 560.7,166.4 '/>
		<polygon fill = 'rgb( 31, 120, 180)' fill-opacity = '0.250000' points = '560.7,166.4 560.7,662.4 562.6,662.4 562.6,167.9 '/>
		<polygon fill = 'rgb( 31, 120, 180)' fill-opacity = '0.250000' points = '562.6,167.9 562.6,662.4 564.4,662.4 564.4,169.4 '/>
		<polygon fill = 'rgb( 31, 120, 180)' fill-opacity = '0.250000' points = '564.4,169.4 564.4,662.4 566.2,662.4 566.2,171.0 '/>
		<polygon fill = 'rgb( 31, 120, 180)' fill-opacity = '0.250000' points = '566.2,171.0 566.2,662.4 568.1,662.4 568.1,172.5 '/>
		<polygon fill = 'rgb( 31, 120, 180)' fill-opacity = '0.250000' points = '568.1,172.5 568.1,662.4 569.9,662.4 569.9,174.1 '/>
		<polygon fill = 'rgb( 31, 120, 180)' fill-opacity = '0.250000' points = '569.9,174.1 569.9,662.4 571.7,662.4 571.7,175.6 '/>
		<polygon fill = 'rgb( 31, 120, 180)' fill-opacity = '0.250000' points = '571.7,175.6 571.7,662.4 573.6,662.4 573.6,177.2 '/>
		<polygon fill = 'rgb( 31, 120, 180)' fill-opacity = '0.250000' points = '573.6,177.2 573.6,662.4 575.4,662.4 575.4,178.8 '/>
		<polygon fill = 'rgb( 31, 120, 180)' fill-opacity = '0.250000' points = '575.4,178.8 575.4,662.4 577.3,662.4 577.3,180.3 '/>
		<polygon fill = 'rgb( 31, 120, 180)' fill-opacity = '0.250000' points = '577.3,180.3 577.3,662.4 579.1,662.4 579.1,181.9 '/>
		<polygon fill = 'rgb( 31, 120, 180)' fill-opacity = '0.250000' points = '579.1,181.9 579.1,662.4 580.9,662.4 580.9,183.5 '/>
		<polygon fill = 'rgb( 31, 120, 180)' fill-opacity = '0.250000' points = '580.9,183.5 580.9,662.4 582.8,662.4 582.8,185.1 '/>
		<polygon fill = 'rgb( 31, 120, 180)' fill-opacity = '0.250000' points = '582.8,185.1 582.8,662.4 584.6,662.4 584.6,186.7 '/>
		<polygon fill = 'rgb( 31, 120, 180)' fill-opacity = '0.250000' points = '584.6,186.7 584.6,662.4 586.4,662.4 586.4,188.2 '/>
		<polygon fill = 'rgb( 31, 120, 180)' fill-opacity = '0.250000' points = '586.4,188.2 586.4,662.4 588.3,662.4 588.3,189.8 '/>
		<polygon fill = 'rgb( 31, 120, 180)' fill-opacity = '0.250000' points = '588.3,189.8 588.3,662.4 590.1,662.4 590.1,191.4 '/>
		<polygon fill = 'rgb( 31, 120, 180)' fill-opacity = '0.250000' points = '590.1,191.4 590.1,662.4 591.9,662.4 591.9,193.1 '/>
		<polygon fill = 'rgb( 31, 120, 180)' fill-opacity = '0.250000' points = '591.9,193.1 591.9,662.4 593.8,662.4 593.8,194.7 '/>
		<polygon fill = 'rgb( 31, 120, 180)' fill-opacity = '0.250000' points = '593.8,194.7 593.8,662.4 595.6,662.4 595.6,196.3 '/>
		<polygon fill = 'rgb( 31, 120, 180)' fill-opacity = '0.250000' points = '595.6,196.3 595.6,662.4 597.4,662.4 597.4,197.9 '/>
		<polygon fill = 'rgb( 31, 120, 180)' fill-opacity = '0.250000' points = '597.4,197.9 597.4,662.4 599.3,662.4 599.3,199.5 '/>
		<polygon fill = 'rgb( 31, 120, 180)' fill-opacity = '0.250000' points = '599.3,199.5 599.3,662.4 601.1,662.4 601.1,201.1 '/>
		<polygon fill = 'rgb( 31, 120, 180)' fill-opacity = '0.250000' points = '601.1,201.1 601.1,662.4 602.9,662.4 602.9,202.8 '/>
		<polygon fill = 'rgb( 31, 120, 180)' fill-opacity = '0.250000' points = '602.9,202.8 602.9,662.4 604.8,662.4 604.8,204.4 '/>
		<polygon fill = 'rgb( 31, 120, 180)' fill-opacity = '0.250000' points = '604.8,204.4 604.8,662.4 606.6,662.4 606.6,206.1 '/>
		<polygon fill = 'rgb( 31, 120, 180)' fill-opacity = '0.250000' points = '606.6,206.1 606.6,662.4 608.4,662.4 608.4,207.7 '/>
		<polygon fill = 'rgb( 31, 120, 180)' fill-opacity = '0.250000' points = '608.4,207.7 608.4,662.4 610.3,662.4 610.3,209.4 '/>
		<polygon fill = 'rgb( 31, 120, 180)' fill-opacity = '0.250000' points = '610.3,209.4 610.3,662.4 612.1,662.4 612.1,211.0 '/>
		<polygon fill = 'rgb( 31, 120, 180)' fill-opacity = '0.250000' points = '612.1,211.0 612.1,662.4 613.9,662.4 613.9,212.7 '/>
		<polygon fill = 'rgb( 31, 120, 180)' fill-opacity = '0.250000' points = '613.9,212.7 613.9,662.4 615.8,662.4 615.8,214.4 '/>
		<polygon fill = 'rgb( 31, 120, 180)' fill-opacity = '0.250000' points = '615.8,214.4 615.8,662.4 617.6,662.4 617.6,216.1 '/>
		<polygon fill = 'rgb( 31, 120, 180)' fill-opacity = '0.250000' points = '617.6,216.1 617.6,662.4 619.4,662.4 619.4,217.8 '/>
		<polygon fill = 'rgb( 31, 120, 180)' fill-opacity = '0.250000' points = '619.4,217.8 619.4,662.4 621.3,662.4 621.3,219.5 '/>
		<polygon fill = 'rgb( 31, 120, 180)' fill-opacity = '0.250000' points = '621.3,219.5 621.3,662.4 623.1,662.4 623.1,221.2 '/>
		<polygon fill = 'rgb( 31, 120, 180)' fill-opacity = '0.250000' points = '623.1,221.2 623.1,662.4 624.9,662.4 624.9,222.9 '/>
		<polygon fill = 'rgb( 31, 120, 180)' fill-opacity = '0.250000' points = '624.9,222.9 624.9,662.4 626.8,662.4 626.8,224.7 '/>
		<polygon fill = 'rgb( 31, 120, 180)' fill-opacity = '0.250000' points = '626.8,224.7 626.8,662.4 628.6,662.4 628.6,226.4 '/>
		<polygon fill = 'rgb( 31, 120, 180)' fill-opacity = '0.250000' points = '628.6,226.4 628.6,662.4 630.5,662.4 630.5,228.2 '/>
		<polygon fill = 'rgb( 31, 120, 180)' fill-opacity = '0.250000' points = '630.5,228.2 630.5,662.4 632.3,662.4 632.3,230.0 '/>
		<polygon fill = 'rgb( 31, 120, 180)' fill-opacity = '0.250000' points = '632.3,230.0 632.3,662.4 634.1,662.4 634.1,231.7 '/>
		<polygon fill = 'rgb( 31, 120, 180)' fill-opacity = '0.250000' points = '634.1,231.7 634.1,662.4 636.0,662.4 636.0,233.6 '/>
		<polygon fill = 'rgb( 31, 120, 180)' fill-opacity = '0.250000' points = '636.0,233.6 636.0,662.4 637.8,662.4 637.8,235.4 '/>
		<polygon fill = 'rgb( 31, 120, 180)' fill-opacity = '0.250000' points = '637.8,235.4 637.8,662.4 639.6,662.4 639.6,237.2 '/>
		<polygon fill = 'rgb( 31, 120, 180)' fill-opacity = '0.250000' points = '639.6,237.2 639.6,662.4 641.5,662.4 641.5,239.1 '/>
		<polygon fill = 'rgb( 31, 120, 180)' fill-opacity = '0.250000' points = '641.5,239.1 641.5,662.4 643.3,662.4 643.3,241.0 '/>
		<polygon fill = 'rgb( 31, 120, 180)' fill-opacity = '0.250000' points = '643.3,241.0 643.3,662.4 645.1,662.4 645.1,242.8 '/>
		<polygon fill = 'rgb( 31, 120, 180)' fill-opacity = '0.250000' points = '645.1,242.8 645.1,662.4 647.0,662.4 647.0,244.8 '/>
		<polygon fill = 'rgb( 31, 120, 180)' fill-opacity = '0.250000' points = '647.0,244.8 647.0,662.4 648.8,662.4 648.8,246.7 '/>
		<polygon fill = 'rgb( 31, 120, 180)' fill-opacity = '0.250000' points = '648.8,246.7 648.8,662.4 650.6,662.4 650.6,248.7 '/>
		<polygon fill = 'rgb( 31, 120, 180)' fill-opacity = '0.250000' points = '650.6,248.7 650.6,662.4 652.5,662.4 652.5,250.6 '/>
		<polygon fill = 'rgb( 31, 120, 180)' fill-opacity = '0.250000' points = '652.5,250.6 652.5,662.4 654.3,662.4 654.3,252.7 '/>
		<polygon fill = 'rgb( 31, 120, 180)' fill-opacity = '0.250000' points = '654.3,252.7 654.3,662.4 656.1,662.4 656.1,254.7 '/>
		<polygon fill = 'rgb( 31, 120, 180)' fill-opacity = '0.250000' points = '656.1,254.7 656.1,662.4 658.0,662.4 658.0,256.7 '/>
		<polygon fill = 'rgb( 31, 120, 180)' fill-opacity = '0.250000' points = '658.0,256.7 658.0,662.4 659.8,662.4 659.8,258.8 '/>
		<polygon fill = 'rgb( 31, 120, 180)' fill-opacity = '0.250000' points = '659.8,258.8 659.8,662.4 661.6,662.4 661.6,261.0 '/>
		<polygon fill = 'rgb( 31, 120, 180)' fill-opacity = '0.250000' points = '661.6,261.0 661.6,662.4 663.5,662.4 663.5,263.1 '/>
		<polygon fill = 'rgb( 31, 120, 180)' fill-opacity = '0.250000' points = '663.5,263.1 663.5,662.4 665.3,662.4 665.3,265.3 '/>
		<polygon fill = 'rgb( 31, 120, 180)' fill-opacity = '0.250000' points = '665.3,265.3 665.3,662.4 667.1,662.4 667.1,267.5 '/>
		<polygon fill = 'rgb( 31, 120, 180)' fill-opacity = '0.250000' points = '667.1,267.5 667.1,662.4 669.0,662.4 669.0,269.7 '/>
		<polygon fill = 'rgb( 31, 120, 180)' fill-opacity = '0.250000' points = '669.0,269.7 669.0,662.4 670.8,662.4 670.8,272.0 '/>
		<polygon fill = 'rgb( 31, 120, 180)' fill-opacity = '0.250000' points = '670.8,272.0 670.8,662.4 672.6,662.4 672.6,274.3 '/>
		<polygon fill = 'rgb( 31, 120, 180)' fill-opacity = '0.250000' points = '672.6,274.3 672.6,662.4 674.5,662.4 674.5,276.6 '/>
		<polygon fill = 'rgb( 31, 120, 180)' fill-opacity = '0.250000' points = '674.5,276.6 674.5,662.4 676.3,662.4 676.3,279.0 '/>
		<polygon fill = 'rgb( 31, 120, 180)' fill-opacity = '0.250000' points = '676.3,279.0 676.3,662.4 678.1,662.4 678.1,281.4 '/>
		<polygon fill = 'rgb( 31, 120, 180)' fill-opacity = '0.250000' points = '678.1,281.4 678.1,662.4 680.0,662.4 680.0,283.9 '/>
		<polygon fill = 'rgb( 31, 120, 180)' fill-opacity = '0.250000' points = '680.0,283.9 680.0,662.4 681.8,662.4 681.8,286.4 '/>
		<polygon fill = 'rgb( 31, 120, 180)' fill-opacity = '0.250000' points = '681.8,286.4 681.8,662.4 683.7,662.4 683.7,288.9 '/>
		<polygon fill = 'rgb( 31, 120, 180)' fill-opacity = '0.250000' points = '683.7,288.9 683.7,662.4 685.5,662.4 685.5,291.5 '/>
		<polygon fill = 'rgb( 31, 120, 180)' fill-opacity = '0.250000' points = '685.5,291.5 685.5,662.4 687.3,662.4 687.3,294.1 '/>
		<polygon fill = 'rgb( 31, 120, 180)' fill-opacity = '0.250000' points = '687.3,294.1 687.3,662.4 689.2,662.4 689.2,296.7 '/>
		<polygon fill = 'rgb( 31, 120, 180)' fill-opacity = '0.250000' points = '689.2,296.7 689.2,662.4 691.0,662.4 691.0,299.4 '/>
		<polygon fill = 'rgb( 31, 120, 180)' fill-opacity = '0.250000' points = '691.0,299.4 691.0,662.4 692.8,662.4 692.8,302.2 '/>
		<polygon fill = 'rgb( 31, 120, 180)' fill-opacity = '0.250000' points = '692.8,302.2 692.8,662.4 694.7,662.4 694.7,304.9 '/>
		<polygon fill = 'rgb( 31, 120, 180)' fill-opacity = '0.250000' points = '694.7,304.9 694.7,662.4 696.5,662.4 696.5,307.8 '/>
		<polygon fill = 'rgb( 31, 120, 180)' fill-opacity = '0.250000' points = '696.5,307.8 696.5,662.4 698.3,662.4 698.3,310.6 '/>
		<polygon fill = 'rgb( 31, 120, 180)' fill-opacity = '0.250000' points = '698.3,310.6 698.3,662.4 700.2,662.4 700.2,313.5 '/>
		<polygon fill = 'rgb( 31, 120, 180)' fill-opacity = '0.250000' points = '700.2,313.5 700.2,662.4 702.0,662.4 702.0,316.5 '/>
		<polygon fill = 'rgb( 31, 120, 180)' fill-opacity = '0.250000' points = '702.0,316.5 702.0,662.4 703.8,662.4 703.8,319.5 '/>
		<polygon fill = 'rgb( 31, 120, 180)' fill-opacity = '0.250000' points = '703.8,319.5 703.8,662.4 705.7,662.4 705.7,322.5 '/>
		<polygon fill = 'rgb( 31, 120, 180)' fill-opacity = '0.250000' points = '705.7,322.5 705.7,662.4 707.5,662.4 707.5,325.6 '/>
		<polygon fill = 'rgb( 31, 120, 180)' fill-opacity = '0.250000' points = '707.5,325.6 707.5,662.4 709.3,662.4 709.3,328.7 '/>
		<polygon fill = 'rgb( 31, 120, 180)' fill-opacity = '0.250000' points = '709.3,328.7 709.3,662.4 711.2,662.4 711.2,331.9 '/>
		<polygon fill = 'rgb( 31, 120, 180)' fill-opacity = '0.250000' points = '711.2,331.9 711.2,662.4 713.0,662.4 713.0,335.1 '/>
		<polygon fill = 'rgb( 31, 120, 180)' fill-opacity = '0.250000' points = '713.0,335.1 713.0,662.4 714.8,662.4 714.8,338.4 '/>
		<polygon fill = 'rgb( 31, 120, 180)' fill-opacity = '0.250000' points = '714.8,338.4 714.8,662.4 716.7,662.4 716.7,341.7 '/>
		<polygon fill = 'rgb( 31, 120, 180)' fill-opacity = '0.250000' points = '716.7,341.7 716.7,662.4 718.5,662.4 718.5,345.0 '/>
		<polygon fill = 'rgb( 31, 120, 180)' fill-opacity = '0.250000' points = '718.5,345.0 718.5,662.4 720.3,662.4 720.3,348.4 '/>
		<polygon fill = 'rgb( 31, 120, 180)' fill-opacity = '0.250000' points = '720.3,348.4 720.3,662.4 722.2,662.4 722.2,351.8 '/>
		<polygon fill = 'rgb( 31, 120, 180)' fill-opacity = '0.250000' points = '722.2,351.8 722.2,662.4 724.0,662.4 724.0,355.3 '/>
		<polygon fill = 'rgb( 31, 120, 180)' fill-opacity = '0.250000' points = '724.0,355.3 724.0,662.4 725.8,662.4 725.8,358.8 '/>
		<polygon fill = 'rgb( 31, 120, 180)' fill-opacity = '0.250000' points = '725.8,358.8 725.8,662.4 727.7,662.4 727.7,362.4 '/>
		<polygon fill = 'rgb( 31, 120, 180)' fill-opacity = '0.250000' points = '727.7,362.4 727.7,662.4 729.5,662.4 729.5,365.9 '/>
		<polygon fill = 'rgb( 31, 120, 180)' fill-opacity = '0.250000' points = '729.5,365.9 729.5,662.4 731.3,662.4 731.3,369.6 '/>
		<polygon fill = 'rgb( 31, 120, 180)' fill-opacity = '0.250000' points = '731.3,369.6 731.3,662.4 733.2,662.4 733.2,373.2 '/>
		<polygon fill = 'rgb( 31, 120, 180)' fill-opacity = '0.250000' points = '733.2,373.2 733.2,662.4 735.0,662.4 735.0,376.9 '/>
		<polygon fill = 'rgb( 31, 120, 180)' fill-opacity = '0.250000' points = '735.0,376.9 735.0,662.4 736.9,662.4 736.9,380.7 '/>
		<polygon fill = 'rgb( 31, 120, 180)' fill-opacity = '0.250000' points = '736.9,380.7 736.9,662.4 738.7,662.4 738.7,384.4 '/>
		<polygon fill = 'rgb( 31, 120, 180)' fill-opacity = '0.250000' points = '738.7,384.4 738.7,662.4 740.5,662.4 740.5,388.2 '/>
		<polygon fill = 'rgb( 31, 120, 180)' fill-opacity = '0.250000' points = '740.5,388.2 740.5,662.4 742.4,662.4 742.4,392.0 '/>
		<polygon fill = 'rgb( 31, 120, 180)' fill-opacity = '0.250000' points = '742.4,392.0 742.4,662.4 744.2,662.4 744.2,395.9 '/>
		<polygon fill = 'rgb( 31, 120, 180)' fill-opacity = '0.250000' points = '744.2,395.9 744.2,662.4 746.0,662.4 746.0,399.7 '/>
		<polygon fill = 'rgb( 31, 120, 180)' fill-opacity = '0.250000' points = '746.0,399.7 746.0,662.4 747.9,662.4 747.9,403.6 '/>
		<polygon fill = 'rgb( 31, 120, 180)' fill-opacity = '0.250000' points = '747.9,403.6 747.9,662.4 749.7,662.4 749.7,407.6 '/>
		<polygon fill = 'rgb( 31, 120, 180)' fill-opacity = '0.250000' points = '749.7,407.6 749.7,662.4 751.5,662.4 751.5,411.5 '/>
		<polygon fill = 'rgb( 31, 120, 180)' fill-opacity = '0.250000' points = '751.5,411.5 751.5,662.4 753.4,662.4 753.4,415.5 '/>
		<polygon fill = 'rgb( 31, 120, 180)' fill-opacity = '0.250000' points = '753.4,415.5 753.4,662.4 755.2,662.4 755.2,419.4 '/>
		<polygon fill = 'rgb( 31, 120, 180)' fill-opacity = '0.250000' points = '755.2,419.4 755.2,662.4 757.0,662.4 757.0,423.4 '/>
		<polygon fill = 'rgb( 31, 120, 180)' fill-opacity = '0.250000' points = '757.0,423.4 757.0,662.4 758.9,662.4 758.9,427.4 '/>
		<polygon fill = 'rgb( 31, 120, 180)' fill-opacity = '0.250000' points = '758.9,427.4 758.9,662.4 760.7,662.4 760.7,431.4 '/>
		<polygon fill = 'rgb( 31, 120, 180)' fill-opacity = '0.250000' points = '760.7,431.4 760.7,662.4 762.5,662.4 762.5,435.5 '/>
		<polygon fill = 'rgb( 31, 120, 180)' fill-opacity = '0.250000' points = '762.5,435.5 762.5,662.4 764.4,662.4 764.4,439.5 '/>
		<polygon fill = 'rgb( 31, 120, 180)' fill-opacity = '0.250000' points = '764.4,439.5 764.4,662.4 766.2,662.4 766.2,443.5 '/>
		<polygon fill = 'rgb( 31, 120, 180)' fill-opacity = '0.250000' points = '766.2,443.5 766.2,662.4 768.0,662.4 768.0,447.6 '/>
		<polygon fill = 'rgb( 31, 120, 180)' fill-opacity = '0.250000' points = '768.0,447.6 768.0,662.4 769.9,662.4 769.9,451.6 '/>
		<polygon fill = 'rgb( 31, 120, 180)' fill-opacity = '0.250000' points = '769.9,451.6 769.9,662.4 771.7,662.4 771.7,455.7 '/>
		<polygon fill = 'rgb( 31, 120, 180)' fill-opacity = '0.250000' points = '771.7,455.7 771.7,662.4 773.5,662.4 773.5,459.7 '/>
		<polygon fill = 'rgb( 31, 120, 180)' fill-opacity = '0.250000' points = '773.5,459.7 773.5,662.4 775.4,662.4 775.4,463.7 '/>
		<polygon fill = 'rgb( 31, 120, 180)' fill-opacity = '0.250000' points = '775.4,463.7 775.4,662.4 777.2,662.4 777.2,467.7 '/>
		<polygon fill = 'rgb( 31, 120, 180)' fill-opacity = '0.250000' points = '777.2,467.7 777.2,662.4 779.0,662.4 779.0,471.7 '/>
		<polygon fill = 'rgb( 31, 120, 180)' fill-opacity = '0.250000' points = '779.0,471.7 779.0,662.4 780.9,662.4 780.9,475.7 '/>
		<polygon fill = 'rgb( 31, 120, 180)' fill-opacity = '0.250000' points = '780.9,475.7 780.9,662.4 782.7,662.4 782.7,479.7 '/>
		<polygon fill = 'rgb( 31, 120, 180)' fill-opacity = '0.250000' points = '782.7,479.7 782.7,662.4 784.5,662.4 784.5,483.7 '/>
		<polygon fill = 'rgb( 31, 120, 180)' fill-opacity = '0.250000' points = '784.5,483.7 784.5,662.4 786.4,662.4 786.4,487.6 '/>
		<polygon fill = 'rgb( 31, 120, 180)' fill-opacity = '0.250000' points = '786.4,487.6 786.4,662.4 788.2,662.4 788.2,491.6 '/>
		<polygon fill = 'rgb( 31, 120, 180)' fill-opacity = '0.250000' points = '788.2,491.6 788.2,662.4 790.0,662.4 790.0,495.5 '/>
		<polygon fill = 'rgb( 31, 120, 180)' fill-opacity = '0.250000' points = '790.0,495.5 790.0,662.4 791.9,662.4 791.9,499.4 '/>
		<polygon fill = 'rgb( 31, 120, 180)' fill-opacity = '0.250000' points = '791.9,499.4 791.9,662.4 793.7,662.4 793.7,503.2 '/>
		<polygon fill = 'rgb( 31, 120, 180)' fill-opacity = '0.250000' points = '793.7,503.2 793.7,662.4 795.6,662.4 795.6,507.0 '/>
		<polygon fill = 'rgb( 31, 120, 180)' fill-opacity = '0.250000' points = '795.6,507.0 795.6,662.4 797.4,662.4 797.4,510.8 '/>
		<polygon fill = 'rgb( 31, 120, 180)' fill-opacity = '0.250000' points = '797.4,510.8 797.4,662.4 799.2,662.4 799.2,514.6 '/>
		<polygon fill = 'rgb( 31, 120, 180)' fill-opacity = '0.250000' points = '799.2,514.6 799.2,662.4 801.1,662.4 801.1,518.3 '/>
		<polygon fill = 'rgb( 31, 120, 180)' fill-opacity = '0.250000' points = '801.1,518.3 801.1,662.4 802.9,662.4 802.9,522.0 '/>
		<polygon fill = 'rgb( 31, 120, 180)' fill-opacity = '0.250000' points = '802.9,522.0 802.9,662.4 804.7,662.4 804.7,525.6 '/>
		<polygon fill = 'rgb( 31, 120, 180)' fill-opacity = '0.250000' points = '804.7,525.6 804.7,662.4 806.6,662.4 806.6,529.2 '/>
		<polygon fill = 'rgb( 31, 120, 180)' fill-opacity = '0.250000' points = '806.6,529.2 806.6,662.4 808.4,662.4 808.4,532.8 '/>
		<polygon fill = 'rgb( 31, 120, 180)' fill-opacity = '0.250000' points = '808.4,532.8 808.4,662.4 810.2,662.4 810.2,536.3 '/>
		<polygon fill = 'rgb( 31, 120, 180)' fill-opacity = '0.250000' points = '810.2,536.3 810.2,662.4 812.1,662.4 812.1,539.8 '/>
		<polygon fill = 'rgb( 31, 120, 180)' fill-opacity = '0.250000' points = '812.1,539.8 812.1,662.4 813.9,662.4 813.9,543.3 '/>
		<polygon fill = 'rgb( 31, 120, 180)' fill-opacity = '0.250000' points = '813.9,543.3 813.9,662.4 815.7,662.4 815.7,546.6 '/>
		<polygon fill = 'rgb( 31, 120, 180)' fill-opacity = '0.250000' points = '815.7,546.6 815.7,662.4 817.6,662.4 817.6,550.0 '/>
		<polygon fill = 'rgb( 31, 120, 180)' fill-opacity = '0.250000' points = '817.6,550.0 817.6,662.4 819.4,662.4 819.4,553.3 '/>
		<polygon fill = 'rgb( 31, 120, 180)' fill-opacity = '0.250000' points = '819.4,553.3 819.4,662.4 821.2,662.4 821.2,556.5 '/>
		<polygon fill = 'rgb( 31, 120, 180)' fill-opacity = '0.250000' points = '821.2,556.5 821.2,662.4 823.1,662.4 823.1,559.7 '/>
		<polygon fill = 'rgb( 31, 120, 180)' fill-opacity = '0.250000' points = '823.1,559.7 823.1,662.4 824.9,662.4 824.9,562.8 '/>
		<polygon fill = 'rgb( 31, 120, 180)' fill-opacity = '0.250000' points = '824.9,562.8 824.9,662.4 826.7,662.4 826.7,565.9 '/>
		<polygon fill = 'rgb( 31, 120, 180)' fill-opacity = '0.250000' points = '826.7,565.9 826.7,662.4 828.6,662.4 828.6,568.9 '/>
		<polygon fill = 'rgb( 31, 120, 180)' fill-opacity = '0.250000' points = '828.6,568.9 828.6,662.4 830.4,662.4 830.4,571.9 '/>
		<polygon fill = 'rgb( 31, 120, 180)' fill-opacity = '0.250000' points = '830.4,571.9 830.4,662.4 832.2,662.4 832.2,574.8 '/>
		<polygon fill = 'rgb( 31, 120, 180)' fill-opacity = '0.250000' points = '832.2,574.8 832.2,662.4 834.1,662.4 834.1,577.7 '/>
		<polygon fill = 'rgb( 31, 120, 180)' fill-opacity = '0.250000' points = '834.1,577.7 834.1,662.4 835.9,662.4 835.9,580.5 '/>
		<polygon fill = 'rgb( 31, 120, 180)' fill-opacity = '0.250000' points = '835.9,580.5 835.9,662.4 837.7,662.4 837.7,583.2 '/>
		<polygon fill = 'rgb( 31, 120, 180)' fill-opacity = '0.250000' points = '837.7,583.2 837.7,662.4 839.6,662.4 839.6,585.9 '/>
		<polygon fill = 'rgb( 31, 120, 180)' fill-opacity = '0.250000' points = '839.6,585.9 839.6,662.4 841.4,662.4 841.4,588.5 '/>
		<polygon fill = 'rgb( 31, 120, 180)' fill-opacity = '0.250000' points = '841.4,588.5 841.4,662.4 843.2,662.4 843.2,591.1 '/>
		<polygon fill = 'rgb( 31, 120, 180)' fill-opacity = '0.250000' points = '843.2,591.1 843.2,662.4 845.1,662.4 845.1,593.6 '/>
		<polygon fill = 'rgb( 31, 120, 180)' fill-opacity = '0.250000' points = '845.1,593.6 845.1,662.4 846.9,662.4 846.9,596.1 '/>
		<polygon fill = 'rgb( 31, 120, 180)' fill-opacity = '0.250000' points = '846.9,596.1 846.9,662.4 848.8,662.4 848.8,598.5 '/>
		<polygon fill = 'rgb( 31, 120, 180)' fill-opacity = '0.250000' points = '848.8,598.5 848.8,662.4 850.6,662.4 850.6,600.8 '/>
		<polygon fill = 'rgb( 31, 120, 180)' fill-opacity = '0.250000' points = '850.6,600.8 850.6,662.4 852.4,662.4 852.4,603.1 '/>
		<polygon fill = 'rgb( 31, 120, 180)' fill-opacity = '0.250000' points = '852.4,603.1 852.4,662.4 854.3,662.4 854.3,605.3 '/>
		<polygon fill = 'rgb( 31, 120, 180)' fill-opacity = '0.250000' points = '854.3,605.3 854.3,662.4 856.1,662.4 856.1,607.5 '/>
		<polygon fill = 'rgb( 31, 120, 180)' fill-opacity = '0.250000' points = '856.1,607.5 856.1,662.4 857.9,662.4 857.9,609.6 '/>
		<polygon fill = 'rgb( 31, 120, 180)' fill-opacity = '0.250000' points = '857.9,609.6 857.9,662.4 859.8,662.4 859.8,611.6 '/>
		<polygon fill = 'rgb( 31, 120, 180)' fill-opacity = '0.250000' points = '859.8,611.6 859.8,662.4 861.6,662.4 861.6,613.6 '/>
		<polygon fill = 'rgb( 31, 120, 180)' fill-opacity = '0.250000' points = '861.6,613.6 861.6,662.4 863.4,662.4 863.4,615.6 '/>
		<polygon fill = 'rgb( 31, 120, 180)' fill-opacity = '0.250000' points = '863.4,615.6 863.4,662.4 865.3,662.4 865.3,617.4 '/>
		<polygon fill = 'rgb( 31, 120, 180)' fill-opacity = '0.250000' points = '865.3,617.4 865.3,662.4 867.1,662.4 867.1,619.3 '/>
		<polygon fill = 'rgb( 31, 120, 180)' fill-opacity = '0.250000' points = '867.1,619.3 867.1,662.4 868.9,662.4 868.9,621.0 '/>
		<polygon fill = 'rgb( 31, 120, 180)' fill-opacity = '0.250000' points = '868.9,621.0 868.9,662.4 870.8,662.4 870.8,622.8 '/>
		<polygon fill = 'rgb( 31, 120, 180)' fill-opacity = '0.250000' points = '870.8,622.8 870.8,662.4 872.6,662.4 872.6,624.4 '/>
		<polygon fill = 'rgb( 31, 120, 180)' fill-opacity = '0.250000' points = '872.6,624.4 872.6,662.4 874.4,662.4 874.4,626.0 '/>
		<polygon fill = 'rgb( 31, 120, 180)' fill-opacity = '0.250000' points = '874.4,626.0 874.4,662.4 876.3,662.4 876.3,627.6 '/>
		<polygon fill = 'rgb( 31, 120, 180)' fill-opacity = '0.250000' points = '876.3,627.6 876.3,662.4 878.1,662.4 878.1,629.1 '/>
		<polygon fill = 'rgb( 31, 120, 180)' fill-opacity = '0.250000' points = '878.1,629.1 878.1,662.4 879.9,662.4 879.9,630.5 '/>
		<polygon fill = 'rgb( 31, 120, 180)' fill-opacity = '0.250000' points = '879.9,630.5 879.9,662.4 881.8,662.4 881.8,632.0 '/>
		<polygon fill = 'rgb( 31, 120, 180)' fill-opacity = '0.250000' points = '881.8,632.0 881.8,662.4 883.6,662.4 883.6,633.3 '/>
		<polygon fill = 'rgb( 31, 120, 180)' fill-opacity = '0.250000' points = '883.6,633.3 883.6,662.4 885.4,662.4 885.4,634.6 '/>
		<polygon fill = 'rgb( 31, 120, 180)' fill-opacity = '0.250000' points = '885.4,634.6 885.4,662.4 887.3,662.4 887.3,635.9 '/>
		<polygon fill = 'rgb( 31, 120, 180)' fill-opacity = '0.250000' points = '887.3,635.9 887.3,662.4 889.1,662.4 889.1,637.1 '/>
		<polygon fill = 'rgb( 31, 120, 180)' fill-opacity = '0.250000' points = '889.1,637.1 889.1,662.4 890.9,662.4 890.9,638.3 '/>
		<polygon fill = 'rgb( 31, 120, 180)' fill-opacity = '0.250000' points = '890.9,638.3 890.9,662.4 892.8,662.4 892.8,639.4 '/>
		<polygon fill = 'rgb( 31, 120, 180)' fill-opacity = '0.250000' points = '892.8,639.4 892.8,662.4 894.6,662.4 894.6,640.5 '/>
		<polygon fill = 'rgb( 31, 120, 180)' fill-opacity = '0.250000' points = '894.6,640.5 894.6,662.4 896.4,662.4 896.4,641.6 '/>
		<polygon fill = 'rgb( 31, 120, 180)' fill-opacity = '0.250000' points = '896.4,641.6 896.4,662.4 898.3,662.4 898.3,642.6 '/>
		<polygon fill = 'rgb( 31, 120, 180)' fill-opacity = '0.250000' points = '898.3,642.6 898.3,662.4 900.1,662.4 900.1,643.5 '/>
		<polygon fill = 'rgb( 31, 120, 180)' fill-opacity = '0.250000' points = '900.1,643.5 900.1,662.4 902.0,662.4 902.0,644.5 '/>
		<polygon fill = 'rgb( 31, 120, 180)' fill-opacity = '0.250000' points = '902.0,644.5 902.0,662.4 903.8,662.4 903.8,645.4 '/>
		<polygon fill = 'rgb( 31, 120, 180)' fill-opacity = '0.250000' points = '903.8,645.4 903.8,662.4 905.6,662.4 905.6,646.2 '/>
		<polygon fill = 'rgb( 31, 120, 180)' fill-opacity = '0.250000' points = '905.6,646.2 905.6,662.4 907.5,662.4 907.5,647.0 '/>
		<polygon fill = 'rgb( 31, 120, 180)' fill-opacity = '0.250000' points = '907.5,647.0 907.5,662.4 909.3,662.4 909.3,647.8 '/>
		<polygon fill = 'rgb( 31, 120, 180)' fill-opacity = '0.250000' points = '909.3,647.8 909.3,662.4 911.1,662.4 911.1,648.6 '/>
		<polygon fill = 'rgb( 31, 120, 180)' fill-opacity = '0.250000' points = '911.1,648.6 911.1,662.4 913.0,662.4 913.0,649.3 '/>
		<polygon fill = 'rgb( 31, 120, 180)' fill-opacity = '0.250000' points = '913.0,649.3 913.0,662.4 914.8,662.4 914.8,650.0 '/>
		<polygon fill = 'rgb( 31, 120, 180)' fill-opacity = '0.250000' points = '914.8,650.0 914.8,662.4 916.6,662.4 916.6,650.6 '/>
		<polygon fill = 'rgb( 31, 120, 180)' fill-opacity = '0.250000' points = '916.6,650.6 916.6,662.4 918.5,662.4 918.5,651.3 '/>
		<polygon fill = 'rgb( 31, 120, 180)' fill-opacity = '0.250000' points = '918.5,651.3 918.5,662.4 920.3,662.4 920.3,651.9 '/>
		<polygon fill = 'rgb( 31, 120, 180)' fill-opacity = '0.250000' points = '920.3,651.9 920.3,662.4 922.1,662.4 922.1,652.4 '/>
		<polygon fill = 'rgb( 31, 120, 180)' fill-opacity = '0.250000' points = '922.1,652.4 922.1,662.4 924.0,662.4 924.0,653.0 '/>
		<polygon fill = 'rgb( 31, 120, 180)' fill-opacity = '0.250000' points = '924.0,653.0 924.0,662.4 925.8,662.4 925.8,653.5 '/>
		<polygon fill = 'rgb( 31, 120, 180)' fill-opacity = '0.250000' points = '925.8,653.5 925.8,662.4 927.6,662.4 927.6,654.0 '/>
		<polygon fill = 'rgb( 31, 120, 180)' fill-opacity = '0.250000' points = '927.6,654.0 927.6,662.4 929.5,662.4 929.5,654.5 '/>
		<polygon fill = 'rgb( 31, 120, 180)' fill-opacity = '0.250000' points = '929.5,654.5 929.5,662.4 931.3,662.4 931.3,654.9 '/>
		<polygon fill = 'rgb( 31, 120, 180)' fill-opacity = '0.250000' points = '931.3,654.9 931.3,662.4 933.1,662.4 933.1,655.4 '/>
		<polygon fill = 'rgb( 31, 120, 180)' fill-opacity = '0.250000' points = '933.1,655.4 933.1,662.4 935.0,662.4 935.0,655.8 '/>
		<polygon fill = 'rgb( 31, 120, 180)' fill-opacity = '0.250000' points = '935.0,655.8 935.0,662.4 936.8,662.4 936.8,656.1 '/>
		<polygon fill = 'rgb( 31, 120, 180)' fill-opacity = '0.250000' points = '936.8,656.1 936.8,662.4 938.6,662.4 938.6,656.5 '/>
		<polygon fill = 'rgb( 31, 120, 180)' fill-opacity = '0.250000' points = '938.6,656.5 938.6,662.4 940.5,662.4 940.5,656.9 '/>
		<polygon fill = 'rgb( 31, 120, 180)' fill-opacity = '0.250000' points = '940.5,656.9 940.5,662.4 942.3,662.4 942.3,657.2 '/>
		<polygon fill = 'rgb( 31, 120, 180)' fill-opacity = '0.250000' points = '942.3,657.2 942.3,662.4 944.1,662.4 944.1,657.5 '/>
		<polygon fill = 'rgb( 31, 120, 180)' fill-opacity = '0.250000' points = '944.1,657.5 944.1,662.4 946.0,662.4 946.0,657.8 '/>
		<polygon fill = 'rgb( 31, 120, 180)' fill-opacity = '0.250000' points = '946.0,657.8 946.0,662.4 947.8,662.4 947.8,658.1 '/>
		<polygon fill = 'rgb( 31, 120, 180)' fill-opacity = '0.250000' points = '947.8,658.1 947.8,662.4 949.6,662.4 949.6,658.3 '/>
		<polygon fill = 'rgb( 31, 120, 180)' fill-opacity = '0.250000' points = '949.6,658.3 949.6,662.4 951.5,662.4 951.5,658.6 '/>
		<polygon fill = 'rgb( 31, 120, 180)' fill-opacity = '0.250000' points = '951.5,658.6 951.5,662.4 953.3,662.4 953.3,658.8 '/>
		<polygon fill = 'rgb( 31, 120, 180)' fill-opacity = '0.250000' points = '953.3,658.8 953.3,662.4 955.2,662.4 955.2,659.1 '/>
		<polygon fill = 'rgb( 31, 120, 180)' fill-opacity = '0.250000' points = '955.2,659.1 955.2,662.4 957.0,662.4 957.0,659.3 '/>
		<polygon fill = 'rgb( 31, 120, 180)' fill-opacity = '0.250000' points = '957.0,659.3 957.0,662.4 958.8,662.4 958.8,659.5 '/>
		<polygon fill = 'rgb( 31, 120, 180)' fill-opacity = '0.250000' points = '958.8,659.5 958.8,662.4 960.7,662.4 960.7,659.7 '/>
		<polygon fill = 'rgb( 31, 120, 180)' fill-opacity = '0.250000' points = '960.7,659.7 960.7,662.4 962.5,662.4 962.5,659.8 '/>
		<polygon fill = 'rgb( 31, 120, 180)' fill-opacity = '0.250000' points = '962.5,659.8 962.5,662.4 964.3,662.4 964.3,660.0 '/>
		<polygon fill = 'rgb( 31, 120, 180)' fill-opacity = '0.250000' points = '964.3,660.0 964.3,662.4 966.2,662.4 966.2,660.2 '/>
		<polygon fill = 'rgb( 31, 120, 180)' fill-opacity = '0.250000' points = '966.2,660.2 966.2,662.4 968.0,662.4 968.0,660.3 '/>
		<polygon fill = 'rgb( 31, 120, 180)' fill-opacity = '0.250000' points = '968.0,660.3 968.0,662.4 969.8,662.4 969.8,660.5 '/>
		<polygon fill = 'rgb( 31, 120, 180)' fill-opacity = '0.250000' points = '969.8,660.5 969.8,662.4 971.7,662.4 971.7,660.6 '/>
		<polygon fill = 'rgb( 31, 120, 180)' fill-opacity = '0.250000' points = '971.7,660.6 971.7,662.4 973.5,662.4 973.5,660.7 '/>
		<polygon fill = 'rgb( 31, 120, 180)' fill-opacity = '0.250000' points = '973.5,660.7 973.5,662.4 975.3,662.4 975.3,660.8 '/>
		<polygon fill = 'rgb( 31, 120, 180)' fill-opacity = '0.250000' points = '975.3,660.8 975.3,662.4 977.2,662.4 977.2,660.9 '/>
		<polygon fill = 'rgb( 31, 120, 180)' fill-opacity = '0.250000' points = '977.2,660.9 977.2,662.4 979.0,662.4 979.0,661.0 '/>
	</g>
</g>
	</g>
	<g id="gnuplot_plot_2" ><title>Mean</title>
<g fill="none" color="white" stroke="rgb( 31, 120, 180)" stroke-width="2.00" stroke-linecap="butt" stroke-linejoin="miter">
</g>
<g fill="none" color="black" stroke="currentColor" stroke-width="2.00" stroke-linecap="butt" stroke-linejoin="miter">
	<g transform="translate(1155.4,85.0)" stroke="none" fill="black" font-family="Helvetica" font-size="12.00"  text-anchor="start">
		<text><tspan font-family="Helvetica" >Mean</tspan></text>
	</g>
</g>
<g fill="none" color="black" stroke="currentColor" stroke-width="2.00" stroke-linecap="butt" stroke-linejoin="miter">
	<path stroke='rgb( 31, 120, 180)'  d='M1104.9,81.1 L1147.1,81.1 M517.5,662.4 L517.5,54.1  '/></g>
	</g>
	<g id="gnuplot_plot_3" ><title>"Clean" sample</title>
<g fill="none" color="white" stroke="rgb( 31, 120, 180)" stroke-width="1.00" stroke-linecap="butt" stroke-linejoin="miter">
</g>
<g fill="none" color="black" stroke="currentColor" stroke-width="1.00" stroke-linecap="butt" stroke-linejoin="miter">
	<g transform="translate(1155.4,103.0)" stroke="none" fill="black" font-family="Helvetica" font-size="12.00"  text-anchor="start">
		<text><tspan font-family="Helvetica" >"Clean" sample</tspan></text>
	</g>
</g>
<g fill="none" color="black" stroke="currentColor" stroke-width="1.00" stroke-linecap="butt" stroke-linejoin="miter">
	<use xlink:href='#gpPt6' transform='translate(459.6,632.0) scale(3.38)' color='rgb( 31, 120, 180)'/>
	<use xlink:href='#gpPt6' transform='translate(401.4,601.6) scale(3.38)' color='rgb( 31, 120, 180)'/>
	<use xlink:href='#gpPt6' transform='translate(300.8,571.2) scale(3.38)' color='rgb( 31, 120, 180)'/>
	<use xlink:href='#gpPt6' transform='translate(325.9,540.7) scale(3.38)' color='rgb( 31, 120, 180)'/>
	<use xlink:href='#gpPt6' transform='translate(461.1,510.3) scale(3.38)' color='rgb( 31, 120, 180)'/>
	<use xlink:href='#gpPt6' transform='translate(685.4,479.9) scale(3.38)' color='rgb( 31, 120, 180)'/>
	<use xlink:href='#gpPt6' transform='translate(504.8,449.5) scale(3.38)' color='rgb( 31, 120, 180)'/>
	<use xlink:href='#gpPt6' transform='translate(588.2,419.1) scale(3.38)' color='rgb( 31, 120, 180)'/>
	<use xlink:href='#gpPt6' transform='translate(689.8,388.7) scale(3.38)' color='rgb( 31, 120, 180)'/>
	<use xlink:href='#gpPt6' transform='translate(600.4,358.2) scale(3.38)' color='rgb( 31, 120, 180)'/>
	<use xlink:href='#gpPt6' transform='translate(398.4,327.8) scale(3.38)' color='rgb( 31, 120, 180)'/>
	<use xlink:href='#gpPt6' transform='translate(444.8,297.4) scale(3.38)' color='rgb( 31, 120, 180)'/>
	<use xlink:href='#gpPt6' transform='translate(737.5,267.0) scale(3.38)' color='rgb( 31, 120, 180)'/>
	<use xlink:href='#gpPt6' transform='translate(572.8,236.6) scale(3.38)' color='rgb( 31, 120, 180)'/>
	<use xlink:href='#gpPt6' transform='translate(506.5,206.2) scale(3.38)' color='rgb( 31, 120, 180)'/>
	<use xlink:href='#gpPt6' transform='translate(368.4,175.8) scale(3.38)' color='rgb( 31, 120, 180)'/>
	<use xlink:href='#gpPt6' transform='translate(383.1,145.3) scale(3.38)' color='rgb( 31, 120, 180)'/>
	<use xlink:href='#gpPt6' transform='translate(640.2,114.9) scale(3.38)' color='rgb( 31, 120, 180)'/>
	<use xlink:href='#gpPt6' transform='translate(539.0,84.5) scale(3.38)' color='rgb( 31, 120, 180)'/>
	<use xlink:href='#gpPt6' transform='translate(741.8,54.1) scale(3.38)' color='rgb( 31, 120, 180)'/>
	<use xlink:href='#gpPt6' transform='translate(1126.0,99.1) scale(3.38)' color='rgb( 31, 120, 180)'/>
</g>
	</g>
	<g id="gnuplot_plot_4" ><title>gnuplot_plot_4</title>
<g fill="none" color="white" stroke="rgb( 31, 120, 180)" stroke-width="2.00" stroke-linecap="butt" stroke-linejoin="miter">
</g>
<g fill="none" color="black" stroke="currentColor" stroke-width="2.00" stroke-linecap="butt" stroke-linejoin="miter">
	<path stroke='rgb(255, 127,   0)'  d='M86.2,662.4 L86.2,54.1  '/></g>
	</g>
	<g id="gnuplot_plot_5" ><title>gnuplot_plot_5</title>
<g fill="none" color="black" stroke="currentColor" stroke-width="2.00" stroke-linecap="butt" stroke-linejoin="miter">
	<path stroke='rgb(255, 127,   0)'  d='M924.9,662.4 L924.9,54.1  '/></g>
	</g>
	<g id="gnuplot_plot_6" ><title>gnuplot_plot_6</title>
<g fill="none" color="black" stroke="currentColor" stroke-width="2.00" stroke-linecap="butt" stroke-linejoin="miter">
</g>
	</g>
	<g id="gnuplot_plot_7" ><title>gnuplot_plot_7</title>
<g fill="none" color="black" stroke="currentColor" stroke-width="2.00" stroke-linecap="butt" stroke-linejoin="miter">
</g>
	</g>
<g fill="none" color="black" stroke="currentColor" stroke-width="2.00" stroke-linecap="butt" stroke-linejoin="miter">
</g>
<g fill="none" color="black" stroke="black" stroke-width="1.00" stroke-linecap="butt" stroke-linejoin="miter">
</g>
<g fill="none" color="black" stroke="currentColor" stroke-width="1.00" stroke-linecap="butt" stroke-linejoin="miter">
	<path stroke='black'  d='M63.6,54.1 L63.6,662.4 L979.0,662.4 L979.0,54.1 L63.6,54.1 Z  '/></g>
<g fill="none" color="black" stroke="currentColor" stroke-width="1.00" stroke-linecap="butt" stroke-linejoin="miter">
</g>
</g>
</svg>

